

================================================================
== Vivado HLS Report for 'client_64_s'
================================================================
* Date:           Sat Dec 12 19:24:27 2020

* Version:        2019.2.1 (Build 2724168 on Thu Dec 05 05:19:09 MST 2019)
* Project:        iperf_udp_prj
* Solution:       solution1
* Product family: virtex7
* Target device:  xc7vx690t-ffg1761-2


================================================================
== Performance Estimates
================================================================
+ Timing: 
    * Summary: 
    +--------+---------+----------+------------+
    |  Clock |  Target | Estimated| Uncertainty|
    +--------+---------+----------+------------+
    |ap_clk  | 6.40 ns | 7.899 ns |   0.80 ns  |
    +--------+---------+----------+------------+

+ Latency: 
    * Summary: 
    +---------+---------+-----------+-----------+-----+-----+----------+
    |  Latency (cycles) |   Latency (absolute)  |  Interval | Pipeline |
    |   min   |   max   |    min    |    max    | min | max |   Type   |
    +---------+---------+-----------+-----------+-----+-----+----------+
    |        2|        2| 15.799 ns | 15.799 ns |    1|    1| function |
    +---------+---------+-----------+-----------+-----+-----+----------+

    + Detail: 
        * Instance: 
        N/A

        * Loop: 
        N/A



================================================================
== Utilization Estimates
================================================================
* Summary: 
+-----------------+---------+-------+--------+--------+-----+
|       Name      | BRAM_18K| DSP48E|   FF   |   LUT  | URAM|
+-----------------+---------+-------+--------+--------+-----+
|DSP              |        -|      -|       -|       -|    -|
|Expression       |        -|      -|       0|    4825|    -|
|FIFO             |        -|      -|       -|       -|    -|
|Instance         |        -|      -|       -|       -|    -|
|Memory           |        -|      -|       -|       -|    -|
|Multiplexer      |        -|      -|       -|     474|    -|
|Register         |        -|      -|     538|       -|    -|
+-----------------+---------+-------+--------+--------+-----+
|Total            |        0|      0|     538|    5299|    0|
+-----------------+---------+-------+--------+--------+-----+
|Available        |     2940|   3600|  866400|  433200|    0|
+-----------------+---------+-------+--------+--------+-----+
|Utilization (%)  |        0|      0|   ~0   |       1|    0|
+-----------------+---------+-------+--------+--------+-----+

+ Detail: 
    * Instance: 
    N/A

    * DSP48E: 
    N/A

    * Memory: 
    N/A

    * FIFO: 
    N/A

    * Expression: 
    +----------------------------------+----------+-------+---+-----+------------+------------+
    |           Variable Name          | Operation| DSP48E| FF| LUT | Bitwidth P0| Bitwidth P1|
    +----------------------------------+----------+-------+---+-----+------------+------------+
    |add_ln647_fu_1382_p2              |     +    |      0|  0|   15|           8|           7|
    |add_ln700_1_fu_674_p2             |     +    |      0|  0|   39|          32|           1|
    |add_ln700_2_fu_698_p2             |     +    |      0|  0|   39|          32|           1|
    |add_ln700_3_fu_1209_p2            |     +    |      0|  0|   39|           1|          32|
    |add_ln700_4_fu_761_p2             |     +    |      0|  0|   39|          32|           1|
    |add_ln700_5_fu_745_p2             |     +    |      0|  0|   15|           8|           1|
    |add_ln700_fu_652_p2               |     +    |      0|  0|   39|          32|           1|
    |add_ln76_fu_851_p2                |     +    |      0|  0|   30|          23|           7|
    |add_ln79_fu_879_p2                |     +    |      0|  0|   23|          16|           1|
    |grp_fu_632_p2                     |     +    |      0|  0|   15|           8|           1|
    |grp_fu_637_p2                     |     -    |      0|  0|   15|           8|           8|
    |sub_ln647_1_fu_1300_p2            |     -    |      0|  0|   15|           8|           8|
    |sub_ln647_2_fu_1306_p2            |     -    |      0|  0|   15|           8|           8|
    |sub_ln647_3_fu_1332_p2            |     -    |      0|  0|   15|           8|           8|
    |sub_ln647_6_fu_1409_p2            |     -    |      0|  0|   15|           8|           8|
    |sub_ln647_fu_1295_p2              |     -    |      0|  0|   15|           8|           8|
    |sub_ln80_1_fu_911_p2              |     -    |      0|  0|   30|           1|          23|
    |sub_ln80_2_fu_927_p2              |     -    |      0|  0|   15|           1|           8|
    |sub_ln80_fu_897_p2                |     -    |      0|  0|   30|           8|          23|
    |and_ln82_fu_991_p2                |    and   |      0|  0|    2|           1|           1|
    |ap_condition_134                  |    and   |      0|  0|    2|           1|           1|
    |ap_condition_313                  |    and   |      0|  0|    2|           1|           1|
    |ap_condition_464                  |    and   |      0|  0|    2|           1|           1|
    |ap_condition_518                  |    and   |      0|  0|    2|           1|           1|
    |ap_predicate_op131_write_state2   |    and   |      0|  0|    2|           1|           1|
    |ap_predicate_op135_write_state2   |    and   |      0|  0|    2|           1|           1|
    |ap_predicate_op208_write_state3   |    and   |      0|  0|    2|           1|           1|
    |ap_predicate_op210_write_state3   |    and   |      0|  0|    2|           1|           1|
    |p_Result_7_fu_1358_p2             |    and   |      0|  0|  192|         192|         192|
    |p_Result_8_fu_1435_p2             |    and   |      0|  0|  192|         192|         192|
    |tmp_3_nbreadreq_fu_277_p3         |    and   |      0|  0|  192|           1|           0|
    |tmp_5_nbreadreq_fu_232_p3         |    and   |      0|  0|  192|           1|           0|
    |icmp_ln647_1_fu_973_p2            |   icmp   |      0|  0|   18|          22|           8|
    |icmp_ln647_fu_869_p2              |   icmp   |      0|  0|   18|          22|          22|
    |icmp_ln76_fu_857_p2               |   icmp   |      0|  0|   18|          23|           8|
    |icmp_ln80_fu_961_p2               |   icmp   |      0|  0|   11|           5|           1|
    |icmp_ln82_fu_967_p2               |   icmp   |      0|  0|   13|          16|           2|
    |icmp_ln879_1_fu_688_p2            |   icmp   |      0|  0|   18|          32|          28|
    |icmp_ln879_2_fu_767_p2            |   icmp   |      0|  0|   18|          32|          24|
    |icmp_ln879_3_fu_751_p2            |   icmp   |      0|  0|   11|           8|           8|
    |icmp_ln879_fu_664_p2              |   icmp   |      0|  0|   18|          32|          18|
    |icmp_ln883_fu_797_p2              |   icmp   |      0|  0|   11|           8|           1|
    |icmp_ln887_fu_779_p2              |   icmp   |      0|  0|   11|           8|           8|
    |tmp_last_V_fu_785_p2              |   icmp   |      0|  0|   11|           8|           8|
    |lshr_ln647_1_fu_1352_p2           |   lshr   |      0|  0|  694|           2|         192|
    |lshr_ln647_2_fu_1423_p2           |   lshr   |      0|  0|  694|         192|         192|
    |lshr_ln647_3_fu_1429_p2           |   lshr   |      0|  0|  694|           2|         192|
    |lshr_ln647_fu_1346_p2             |   lshr   |      0|  0|  694|         192|         192|
    |ap_block_pp0_stage0_01001         |    or    |      0|  0|    2|           1|           1|
    |ap_block_pp0_stage0_11001         |    or    |      0|  0|    2|           1|           1|
    |ap_block_state1_pp0_stage0_iter0  |    or    |      0|  0|    2|           1|           1|
    |ap_block_state2_io                |    or    |      0|  0|    2|           1|           1|
    |ap_block_state2_pp0_stage0_iter1  |    or    |      0|  0|    2|           1|           1|
    |ap_block_state3_io                |    or    |      0|  0|    2|           1|           1|
    |ap_block_state3_pp0_stage0_iter2  |    or    |      0|  0|    2|           1|           1|
    |or_ln76_fu_985_p2                 |    or    |      0|  0|    2|           1|           1|
    |or_ln78_fu_863_p2                 |    or    |      0|  0|   22|           6|          22|
    |currWord_data_V_fu_1449_p3        |  select  |      0|  0|   64|           1|          64|
    |select_ln160_fu_812_p3            |  select  |      0|  0|    3|           1|           1|
    |select_ln175_fu_803_p3            |  select  |      0|  0|    3|           1|           2|
    |select_ln647_1_fu_1318_p3         |  select  |      0|  0|  192|           1|         192|
    |select_ln647_2_fu_1325_p3         |  select  |      0|  0|    8|           1|           8|
    |select_ln647_3_fu_1388_p3         |  select  |      0|  0|    8|           1|           8|
    |select_ln647_4_fu_1395_p3         |  select  |      0|  0|  192|           1|         192|
    |select_ln647_5_fu_1402_p3         |  select  |      0|  0|    8|           1|           8|
    |select_ln647_fu_1311_p3           |  select  |      0|  0|    8|           1|           8|
    |select_ln76_fu_997_p3             |  select  |      0|  0|   16|           1|          16|
    |select_ln80_fu_953_p3             |  select  |      0|  0|    5|           1|           5|
    |select_ln82_fu_1005_p3            |  select  |      0|  0|   16|           1|          16|
    |t_V_10_fu_704_p3                  |  select  |      0|  0|   32|           1|          32|
    |t_V_9_fu_680_p3                   |  select  |      0|  0|   32|           1|          32|
    |ap_enable_pp0                     |    xor   |      0|  0|    2|           1|           2|
    |xor_ln76_fu_979_p2                |    xor   |      0|  0|    2|           1|           2|
    +----------------------------------+----------+-------+---+-----+------------+------------+
    |Total                             |          |      0|  0| 4825|        1279|        2070|
    +----------------------------------+----------+-------+---+-----+------------+------------+

    * Multiplexer: 
    +-----------------------------------------------------+----+-----------+-----+-----------+
    |                         Name                        | LUT| Input Size| Bits| Total Bits|
    +-----------------------------------------------------+----+-----------+-----+-----------+
    |ap_done                                              |   9|          2|    1|          2|
    |ap_phi_mux_metaWritten_flag_1_i_phi_fu_339_p4        |   9|          2|    1|          2|
    |ap_phi_mux_metaWritten_new_1_i_phi_fu_352_p4         |   9|          2|    1|          2|
    |ap_phi_mux_receivedResponse_fla_phi_fu_607_p4        |   9|          2|    1|          2|
    |ap_phi_mux_receivedResponse_new_phi_fu_619_p4        |   9|          2|    1|          2|
    |ap_phi_mux_storemerge360_i_phi_fu_294_p4             |  15|          3|    3|          9|
    |ap_phi_mux_timeOver_flag_1_i_phi_fu_583_p4           |  15|          3|    1|          3|
    |ap_phi_mux_timeOver_new_1_i_phi_fu_595_p4            |  15|          3|    1|          3|
    |ap_phi_reg_pp0_iter1_metaWritten_flag_0_i_reg_322    |  15|          3|    1|          3|
    |ap_phi_reg_pp0_iter1_metaWritten_flag_1_i_reg_335    |   9|          2|    1|          2|
    |ap_phi_reg_pp0_iter1_metaWritten_new_1_i_reg_348     |   9|          2|    1|          2|
    |ap_phi_reg_pp0_iter1_microsecondCounter_V_1_reg_360  |  15|          3|    1|          3|
    |ap_phi_reg_pp0_iter1_microsecondCounter_V_2_reg_388  |  15|          3|   32|         96|
    |ap_phi_reg_pp0_iter1_packetGapCounter_V_n_reg_300    |  15|          3|    8|         24|
    |ap_phi_reg_pp0_iter1_receivedResponse_fla_reg_603    |   9|          2|    1|          2|
    |ap_phi_reg_pp0_iter1_receivedResponse_new_reg_616    |   9|          2|    1|          2|
    |ap_phi_reg_pp0_iter1_secondCounter_V_flag_reg_415    |  15|          3|    1|          3|
    |ap_phi_reg_pp0_iter1_secondCounter_V_new_s_reg_443   |  15|          3|   32|         96|
    |ap_phi_reg_pp0_iter1_timeOver_flag_0_i_reg_470       |  15|          3|    1|          3|
    |ap_phi_reg_pp0_iter1_waitCounter_V_new_0_s_reg_311   |  15|          3|   32|         96|
    |ap_phi_reg_pp0_iter1_wordCount_V_flag_2_i_reg_507    |  15|          3|    1|          3|
    |ap_phi_reg_pp0_iter1_wordCount_V_new_2_i_reg_545     |  15|          3|    8|         24|
    |ap_sig_allocacmp_metaWritten_load                    |   9|          2|    1|          2|
    |ap_sig_allocacmp_receivedResponse_loa                |   9|          2|    1|          2|
    |ap_sig_allocacmp_t_V_1                               |   9|          2|   32|         64|
    |ap_sig_allocacmp_t_V_3                               |   9|          2|   32|         64|
    |ap_sig_allocacmp_t_V_6                               |   9|          2|   32|         64|
    |ap_sig_allocacmp_t_V_7                               |   9|          2|    8|         16|
    |ap_sig_allocacmp_t_V_8                               |   9|          2|    8|         16|
    |ap_sig_allocacmp_timeOver_load                       |   9|          2|    1|          2|
    |doneSignalFifo_V_blk_n                               |   9|          2|    1|          2|
    |header_idx                                           |   9|          2|   16|         32|
    |iperfFsmState                                        |  33|          6|    3|         18|
    |m_axis_tx_data_TDATA_blk_n                           |   9|          2|    1|          2|
    |m_axis_tx_data_TDATA_int                             |  15|          3|   64|        192|
    |m_axis_tx_data_TLAST_int                             |  15|          3|    1|          3|
    |seqNumber_V                                          |   9|          2|   32|         64|
    |startSignalFifo_V_blk_n                              |   9|          2|    1|          2|
    |stopSignalFifo_V_blk_n                               |   9|          2|    1|          2|
    |txMetaData_V_TDATA_blk_n                             |   9|          2|    1|          2|
    +-----------------------------------------------------+----+-----------+-----+-----------+
    |Total                                                | 474|         99|  367|        933|
    +-----------------------------------------------------+----+-----------+-----+-----------+

    * Register: 
    +-----------------------------------------------------+-----+----+-----+-----------+
    |                         Name                        |  FF | LUT| Bits| Const Bits|
    +-----------------------------------------------------+-----+----+-----+-----------+
    |and_ln82_reg_1634                                    |    1|   0|    1|          0|
    |ap_CS_fsm                                            |    1|   0|    1|          0|
    |ap_done_reg                                          |    1|   0|    1|          0|
    |ap_enable_reg_pp0_iter1                              |    1|   0|    1|          0|
    |ap_enable_reg_pp0_iter2                              |    1|   0|    1|          0|
    |ap_phi_reg_pp0_iter1_metaWritten_flag_0_i_reg_322    |    1|   0|    1|          0|
    |ap_phi_reg_pp0_iter1_metaWritten_flag_1_i_reg_335    |    1|   0|    1|          0|
    |ap_phi_reg_pp0_iter1_metaWritten_new_1_i_reg_348     |    1|   0|    1|          0|
    |ap_phi_reg_pp0_iter1_microsecondCounter_V_1_reg_360  |    1|   0|    1|          0|
    |ap_phi_reg_pp0_iter1_microsecondCounter_V_2_reg_388  |   32|   0|   32|          0|
    |ap_phi_reg_pp0_iter1_packetGapCounter_V_n_reg_300    |    8|   0|    8|          0|
    |ap_phi_reg_pp0_iter1_receivedResponse_fla_reg_603    |    1|   0|    1|          0|
    |ap_phi_reg_pp0_iter1_receivedResponse_new_reg_616    |    1|   0|    1|          0|
    |ap_phi_reg_pp0_iter1_secondCounter_V_flag_reg_415    |    1|   0|    1|          0|
    |ap_phi_reg_pp0_iter1_secondCounter_V_new_s_reg_443   |   32|   0|   32|          0|
    |ap_phi_reg_pp0_iter1_timeOver_flag_0_i_reg_470       |    1|   0|    1|          0|
    |ap_phi_reg_pp0_iter1_waitCounter_V_new_0_s_reg_311   |   32|   0|   32|          0|
    |ap_phi_reg_pp0_iter1_wordCount_V_flag_2_i_reg_507    |    1|   0|    1|          0|
    |ap_phi_reg_pp0_iter1_wordCount_V_new_2_i_reg_545     |    8|   0|    8|          0|
    |cycleCounter_V                                       |   32|   0|   32|          0|
    |header_header_V                                      |  192|   0|  192|          0|
    |header_idx                                           |   16|   0|   16|          0|
    |icmp_ln647_1_reg_1623                                |    1|   0|    1|          0|
    |icmp_ln647_reg_1610                                  |    1|   0|    1|          0|
    |icmp_ln887_reg_1587                                  |    1|   0|    1|          0|
    |icmp_ln887_reg_1587_pp0_iter1_reg                    |    1|   0|    1|          0|
    |iperfFsmState                                        |    3|   0|    3|          0|
    |iperfFsmState_load_reg_1559                          |    3|   0|    3|          0|
    |iperfFsmState_load_reg_1559_pp0_iter1_reg            |    3|   0|    3|          0|
    |lastPkg                                              |    1|   0|    1|          0|
    |metaWritten                                          |    1|   0|    1|          0|
    |metaWritten_load_reg_1596                            |    1|   0|    1|          0|
    |metaWritten_load_reg_1596_pp0_iter1_reg              |    1|   0|    1|          0|
    |microsecondCounter_V                                 |   32|   0|   32|          0|
    |or_ln76_reg_1630                                     |    1|   0|    1|          0|
    |packetGapCounter_V                                   |    8|   0|    8|          0|
    |receivedResponse                                     |    1|   0|    1|          0|
    |secondCounter_V                                      |   32|   0|   32|          0|
    |seqNumber_V                                          |   32|   0|   32|          0|
    |timeOver                                             |    1|   0|    1|          0|
    |tmp_5_reg_1639                                       |    1|   0|    1|          0|
    |tmp_last_V_reg_1591                                  |    1|   0|    1|          0|
    |trunc_ln647_3_reg_1617                               |    2|   0|    8|          6|
    |trunc_ln76_1_reg_1605                                |    2|   0|    2|          0|
    |trunc_ln76_reg_1600                                  |    2|   0|    2|          0|
    |waitCounter_V                                        |   32|   0|   32|          0|
    |wordCount_V                                          |    8|   0|    8|          0|
    +-----------------------------------------------------+-----+----+-----+-----------+
    |Total                                                |  538|   0|  544|          6|
    +-----------------------------------------------------+-----+----+-----+-----------+



================================================================
== Interface
================================================================
* Summary: 
+--------------------------+-----+-----+------------+-------------------+--------------+
|         RTL Ports        | Dir | Bits|  Protocol  |   Source Object   |    C Type    |
+--------------------------+-----+-----+------------+-------------------+--------------+
|ap_clk                    |  in |    1| ap_ctrl_hs |     client<64>    | return value |
|ap_rst                    |  in |    1| ap_ctrl_hs |     client<64>    | return value |
|ap_start                  |  in |    1| ap_ctrl_hs |     client<64>    | return value |
|ap_done                   | out |    1| ap_ctrl_hs |     client<64>    | return value |
|ap_continue               |  in |    1| ap_ctrl_hs |     client<64>    | return value |
|ap_idle                   | out |    1| ap_ctrl_hs |     client<64>    | return value |
|ap_ready                  | out |    1| ap_ctrl_hs |     client<64>    | return value |
|doneSignalFifo_V_dout     |  in |    1|   ap_fifo  |  doneSignalFifo_V |    pointer   |
|doneSignalFifo_V_empty_n  |  in |    1|   ap_fifo  |  doneSignalFifo_V |    pointer   |
|doneSignalFifo_V_read     | out |    1|   ap_fifo  |  doneSignalFifo_V |    pointer   |
|startSignalFifo_V_din     | out |    1|   ap_fifo  | startSignalFifo_V |    pointer   |
|startSignalFifo_V_full_n  |  in |    1|   ap_fifo  | startSignalFifo_V |    pointer   |
|startSignalFifo_V_write   | out |    1|   ap_fifo  | startSignalFifo_V |    pointer   |
|stopSignalFifo_V_dout     |  in |    1|   ap_fifo  |  stopSignalFifo_V |    pointer   |
|stopSignalFifo_V_empty_n  |  in |    1|   ap_fifo  |  stopSignalFifo_V |    pointer   |
|stopSignalFifo_V_read     | out |    1|   ap_fifo  |  stopSignalFifo_V |    pointer   |
|m_axis_tx_data_TREADY     |  in |    1|    axis    |  txData_V_last_V  |    pointer   |
|m_axis_tx_data_TVALID     | out |    1|    axis    |  txData_V_last_V  |    pointer   |
|m_axis_tx_data_TLAST      | out |    1|    axis    |  txData_V_last_V  |    pointer   |
|txMetaData_V_TREADY       |  in |    1|    axis    |    txMetaData_V   |    pointer   |
|txMetaData_V_TDATA        | out |  176|    axis    |    txMetaData_V   |    pointer   |
|txMetaData_V_TVALID       | out |    1|    axis    |    txMetaData_V   |    pointer   |
|m_axis_tx_data_TDATA      | out |   64|    axis    |  txData_V_data_V  |    pointer   |
|m_axis_tx_data_TKEEP      | out |    8|    axis    |  txData_V_keep_V  |    pointer   |
|runExperiment_V           |  in |    1|  ap_stable |  runExperiment_V  |    scalar    |
|pkgWordCount_V            |  in |    8|  ap_stable |   pkgWordCount_V  |    scalar    |
|packetGap_V               |  in |    8|  ap_stable |    packetGap_V    |    scalar    |
|targetIpAddress_V         |  in |   32|  ap_stable | targetIpAddress_V |    scalar    |
+--------------------------+-----+-----+------------+-------------------+--------------+

