

================================================================
== Vivado HLS Report for 'iperf_udp'
================================================================
* Date:           Sat Dec 12 19:24:27 2020

* Version:        2019.2.1 (Build 2724168 on Thu Dec 05 05:19:09 MST 2019)
* Project:        iperf_udp_prj
* Solution:       solution1
* Product family: virtex7
* Target device:  xc7vx690t-ffg1761-2


================================================================
== Performance Estimates
================================================================
+ Timing: 
    * Summary: 
    +--------+---------+----------+------------+
    |  Clock |  Target | Estimated| Uncertainty|
    +--------+---------+----------+------------+
    |ap_clk  | 6.40 ns | 7.899 ns |   0.80 ns  |
    +--------+---------+----------+------------+

+ Latency: 
    * Summary: 
    +---------+---------+-----------+-----------+-----+-----+----------+
    |  Latency (cycles) |   Latency (absolute)  |  Interval | Pipeline |
    |   min   |   max   |    min    |    max    | min | max |   Type   |
    +---------+---------+-----------+-----------+-----+-----+----------+
    |        3|        3| 23.698 ns | 23.698 ns |    1|    1| dataflow |
    +---------+---------+-----------+-----------+-----+-----+----------+

    + Detail: 
        * Instance: 
        +-----------------------+--------------------+---------+---------+-----------+-----------+-----+-----+----------+
        |                       |                    |  Latency (cycles) |   Latency (absolute)  |  Interval | Pipeline |
        |        Instance       |       Module       |   min   |   max   |    min    |    max    | min | max |   Type   |
        +-----------------------+--------------------+---------+---------+-----------+-----------+-----+-----+----------+
        |client_64_U0           |client_64_s         |        2|        2| 15.799 ns | 15.799 ns |    1|    1| function |
        |clock_U0               |clock               |        1|        1|  7.899 ns |  7.899 ns |    1|    1| function |
        |check_for_response_U0  |check_for_response  |        0|        0|    0 ns   |    0 ns   |    0|    0|   none   |
        +-----------------------+--------------------+---------+---------+-----------+-----------+-----+-----+----------+

        * Loop: 
        N/A



================================================================
== Utilization Estimates
================================================================
* Summary: 
+-----------------+---------+-------+--------+--------+-----+
|       Name      | BRAM_18K| DSP48E|   FF   |   LUT  | URAM|
+-----------------+---------+-------+--------+--------+-----+
|DSP              |        -|      -|       -|       -|    -|
|Expression       |        -|      -|       -|       -|    -|
|FIFO             |        0|      -|      15|      48|    -|
|Instance         |        -|      -|     580|    5526|    -|
|Memory           |        -|      -|       -|       -|    -|
|Multiplexer      |        -|      -|       -|       -|    -|
|Register         |        -|      -|       -|       -|    -|
+-----------------+---------+-------+--------+--------+-----+
|Total            |        0|      0|     595|    5574|    0|
+-----------------+---------+-------+--------+--------+-----+
|Available        |     2940|   3600|  866400|  433200|    0|
+-----------------+---------+-------+--------+--------+-----+
|Utilization (%)  |        0|      0|   ~0   |       1|    0|
+-----------------+---------+-------+--------+--------+-----+

+ Detail: 
    * Instance: 
    +-----------------------+--------------------+---------+-------+-----+------+-----+
    |        Instance       |       Module       | BRAM_18K| DSP48E|  FF |  LUT | URAM|
    +-----------------------+--------------------+---------+-------+-----+------+-----+
    |check_for_response_U0  |check_for_response  |        0|      0|    2|    62|    0|
    |client_64_U0           |client_64_s         |        0|      0|  538|  5299|    0|
    |clock_U0               |clock               |        0|      0|   40|   165|    0|
    +-----------------------+--------------------+---------+-------+-----+------+-----+
    |Total                  |                    |        0|      0|  580|  5526|    0|
    +-----------------------+--------------------+---------+-------+-----+------+-----+

    * DSP48E: 
    N/A

    * Memory: 
    N/A

    * FIFO: 
    +---------------------+---------+---+----+-----+------+-----+---------+
    |         Name        | BRAM_18K| FF| LUT| URAM| Depth| Bits| Size:D*B|
    +---------------------+---------+---+----+-----+------+-----+---------+
    |doneSignalFifo_V_U   |        0|  5|   0|    -|     2|    1|        2|
    |startSignalFifo_V_U  |        0|  5|   0|    -|     2|    1|        2|
    |stopSignalFifo_V_U   |        0|  5|   0|    -|     2|    1|        2|
    +---------------------+---------+---+----+-----+------+-----+---------+
    |Total                |        0| 15|   0|    0|     6|    3|        6|
    +---------------------+---------+---+----+-----+------+-----+---------+

    * Expression: 
    N/A

    * Multiplexer: 
    N/A

    * Register: 
    N/A



================================================================
== Interface
================================================================
* Summary: 
+-----------------------------+-----+-----+--------------+-------------------------+--------------+
|          RTL Ports          | Dir | Bits|   Protocol   |      Source Object      |    C Type    |
+-----------------------------+-----+-----+--------------+-------------------------+--------------+
|s_axis_rx_metadata_V_TDATA   |  in |  176|     axis     |   s_axis_rx_metadata_V  |    pointer   |
|s_axis_rx_metadata_V_TVALID  |  in |    1|     axis     |   s_axis_rx_metadata_V  |    pointer   |
|s_axis_rx_metadata_V_TREADY  | out |    1|     axis     |   s_axis_rx_metadata_V  |    pointer   |
|s_axis_rx_data_TDATA         |  in |   64|     axis     | s_axis_rx_data_V_data_V |    pointer   |
|s_axis_rx_data_TKEEP         |  in |    8|     axis     | s_axis_rx_data_V_keep_V |    pointer   |
|s_axis_rx_data_TLAST         |  in |    1|     axis     | s_axis_rx_data_V_last_V |    pointer   |
|s_axis_rx_data_TVALID        |  in |    1|     axis     | s_axis_rx_data_V_last_V |    pointer   |
|s_axis_rx_data_TREADY        | out |    1|     axis     | s_axis_rx_data_V_last_V |    pointer   |
|m_axis_tx_metadata_V_TDATA   | out |  176|     axis     |   m_axis_tx_metadata_V  |    pointer   |
|m_axis_tx_metadata_V_TVALID  | out |    1|     axis     |   m_axis_tx_metadata_V  |    pointer   |
|m_axis_tx_metadata_V_TREADY  |  in |    1|     axis     |   m_axis_tx_metadata_V  |    pointer   |
|m_axis_tx_data_TDATA         | out |   64|     axis     | m_axis_tx_data_V_data_V |    pointer   |
|m_axis_tx_data_TKEEP         | out |    8|     axis     | m_axis_tx_data_V_keep_V |    pointer   |
|m_axis_tx_data_TLAST         | out |    1|     axis     | m_axis_tx_data_V_last_V |    pointer   |
|m_axis_tx_data_TVALID        | out |    1|     axis     | m_axis_tx_data_V_last_V |    pointer   |
|m_axis_tx_data_TREADY        |  in |    1|     axis     | m_axis_tx_data_V_last_V |    pointer   |
|runExperiment_V              |  in |    1|   ap_stable  |     runExperiment_V     |    scalar    |
|pkgWordCount_V               |  in |    8|   ap_stable  |      pkgWordCount_V     |    scalar    |
|packetGap_V                  |  in |    8|   ap_stable  |       packetGap_V       |    scalar    |
|targetIpAddress_V            |  in |   32|   ap_stable  |    targetIpAddress_V    |    scalar    |
|ap_clk                       |  in |    1| ap_ctrl_none |        iperf_udp        | return value |
|ap_rst_n                     |  in |    1| ap_ctrl_none |        iperf_udp        | return value |
+-----------------------------+-----+-----+--------------+-------------------------+--------------+

