

================================================================
== Vivado HLS Report for 'client_64_s'
================================================================
* Date:           Sat Dec 12 19:21:35 2020

* Version:        2019.2.1 (Build 2724168 on Thu Dec 05 05:19:09 MST 2019)
* Project:        iperf_client_prj
* Solution:       solution1
* Product family: virtex7
* Target device:  xc7vx690t-ffg1761-2


================================================================
== Performance Estimates
================================================================
+ Timing: 
    * Summary: 
    +--------+---------+----------+------------+
    |  Clock |  Target | Estimated| Uncertainty|
    +--------+---------+----------+------------+
    |ap_clk  | 6.40 ns | 7.899 ns |   0.80 ns  |
    +--------+---------+----------+------------+

+ Latency: 
    * Summary: 
    +---------+---------+-----------+-----------+-----+-----+----------+
    |  Latency (cycles) |   Latency (absolute)  |  Interval | Pipeline |
    |   min   |   max   |    min    |    max    | min | max |   Type   |
    +---------+---------+-----------+-----------+-----+-----+----------+
    |        2|        2| 15.799 ns | 15.799 ns |    1|    1| function |
    +---------+---------+-----------+-----------+-----+-----+----------+

    + Detail: 
        * Instance: 
        N/A

        * Loop: 
        N/A



================================================================
== Utilization Estimates
================================================================
* Summary: 
+-----------------+---------+-------+--------+--------+-----+
|       Name      | BRAM_18K| DSP48E|   FF   |   LUT  | URAM|
+-----------------+---------+-------+--------+--------+-----+
|DSP              |        -|      -|       -|       -|    -|
|Expression       |        -|      -|       0|    4773|    -|
|FIFO             |        -|      -|       -|       -|    -|
|Instance         |        -|      -|       -|       -|    -|
|Memory           |        -|      -|       -|       -|    -|
|Multiplexer      |        -|      -|       -|     676|    -|
|Register         |        -|      -|     455|       -|    -|
+-----------------+---------+-------+--------+--------+-----+
|Total            |        0|      0|     455|    5449|    0|
+-----------------+---------+-------+--------+--------+-----+
|Available        |     2940|   3600|  866400|  433200|    0|
+-----------------+---------+-------+--------+--------+-----+
|Utilization (%)  |        0|      0|   ~0   |       1|    0|
+-----------------+---------+-------+--------+--------+-----+

+ Detail: 
    * Instance: 
    N/A

    * DSP48E: 
    N/A

    * Memory: 
    N/A

    * FIFO: 
    N/A

    * Expression: 
    +----------------------------------+----------+-------+---+-----+------------+------------+
    |           Variable Name          | Operation| DSP48E| FF| LUT | Bitwidth P0| Bitwidth P1|
    +----------------------------------+----------+-------+---+-----+------------+------------+
    |add_ln647_fu_1596_p2              |     +    |      0|  0|   15|           8|           7|
    |add_ln700_1_fu_960_p2             |     +    |      0|  0|   15|           8|           1|
    |add_ln700_2_fu_1371_p2            |     +    |      0|  0|   21|           1|          14|
    |add_ln700_4_fu_984_p2             |     +    |      0|  0|   21|          14|           1|
    |add_ln700_5_fu_1393_p2            |     +    |      0|  0|   13|           4|           1|
    |add_ln700_fu_1009_p2              |     +    |      0|  0|   15|           8|           1|
    |add_ln76_fu_1073_p2               |     +    |      0|  0|   30|          23|           7|
    |add_ln79_fu_1101_p2               |     +    |      0|  0|   23|          16|           1|
    |grp_fu_869_p2                     |     +    |      0|  0|   21|          14|           2|
    |grp_fu_880_p2                     |     +    |      0|  0|   21|          14|           1|
    |grp_fu_903_p2                     |     -    |      0|  0|   15|           8|           8|
    |sub_ln647_1_fu_1514_p2            |     -    |      0|  0|   15|           8|           8|
    |sub_ln647_2_fu_1520_p2            |     -    |      0|  0|   15|           8|           8|
    |sub_ln647_3_fu_1546_p2            |     -    |      0|  0|   15|           8|           8|
    |sub_ln647_6_fu_1623_p2            |     -    |      0|  0|   15|           8|           8|
    |sub_ln647_fu_1509_p2              |     -    |      0|  0|   15|           8|           8|
    |sub_ln80_1_fu_1133_p2             |     -    |      0|  0|   30|           1|          23|
    |sub_ln80_2_fu_1149_p2             |     -    |      0|  0|   15|           1|           8|
    |sub_ln80_fu_1119_p2               |     -    |      0|  0|   30|           8|          23|
    |and_ln82_fu_1213_p2               |    and   |      0|  0|    2|           1|           1|
    |ap_condition_377                  |    and   |      0|  0|    2|           1|           1|
    |ap_condition_661                  |    and   |      0|  0|    2|           1|           1|
    |ap_condition_692                  |    and   |      0|  0|    2|           1|           1|
    |ap_condition_695                  |    and   |      0|  0|    2|           1|           1|
    |ap_condition_698                  |    and   |      0|  0|    2|           1|           1|
    |ap_condition_701                  |    and   |      0|  0|    2|           1|           1|
    |ap_condition_704                  |    and   |      0|  0|    2|           1|           1|
    |ap_condition_707                  |    and   |      0|  0|    2|           1|           1|
    |ap_condition_710                  |    and   |      0|  0|    2|           1|           1|
    |ap_condition_713                  |    and   |      0|  0|    2|           1|           1|
    |ap_condition_716                  |    and   |      0|  0|    2|           1|           1|
    |ap_condition_719                  |    and   |      0|  0|    2|           1|           1|
    |ap_condition_936                  |    and   |      0|  0|    2|           1|           1|
    |ap_predicate_op116_read_state1    |    and   |      0|  0|    2|           1|           1|
    |ap_predicate_op131_read_state1    |    and   |      0|  0|    2|           1|           1|
    |ap_predicate_op176_write_state2   |    and   |      0|  0|    2|           1|           1|
    |ap_predicate_op177_write_state2   |    and   |      0|  0|    2|           1|           1|
    |ap_predicate_op183_write_state2   |    and   |      0|  0|    2|           1|           1|
    |ap_predicate_op220_write_state2   |    and   |      0|  0|    2|           1|           1|
    |ap_predicate_op228_write_state2   |    and   |      0|  0|    2|           1|           1|
    |ap_predicate_op229_write_state2   |    and   |      0|  0|    2|           1|           1|
    |ap_predicate_op232_write_state2   |    and   |      0|  0|    2|           1|           1|
    |ap_predicate_op287_write_state3   |    and   |      0|  0|    2|           1|           1|
    |ap_predicate_op288_write_state3   |    and   |      0|  0|    2|           1|           1|
    |ap_predicate_op294_write_state3   |    and   |      0|  0|    2|           1|           1|
    |ap_predicate_op300_write_state3   |    and   |      0|  0|    2|           1|           1|
    |ap_predicate_op306_write_state3   |    and   |      0|  0|    2|           1|           1|
    |ap_predicate_op308_write_state3   |    and   |      0|  0|    2|           1|           1|
    |ap_predicate_op58_read_state1     |    and   |      0|  0|    2|           1|           1|
    |grp_nbreadreq_fu_380_p4           |    and   |      0|  0|    2|           1|           1|
    |p_Result_5_fu_1572_p2             |    and   |      0|  0|  192|         192|         192|
    |p_Result_6_fu_1649_p2             |    and   |      0|  0|  192|         192|         192|
    |tmp_7_nbreadreq_fu_457_p3         |    and   |      0|  0|  192|           1|           0|
    |tmp_nbreadreq_fu_398_p3           |    and   |      0|  0|  192|           1|           0|
    |grp_fu_857_p2                     |   icmp   |      0|  0|    8|           2|           1|
    |grp_fu_863_p2                     |   icmp   |      0|  0|    8|           2|           1|
    |icmp_ln647_1_fu_1195_p2           |   icmp   |      0|  0|   18|          22|           8|
    |icmp_ln647_fu_1091_p2             |   icmp   |      0|  0|   18|          22|          22|
    |icmp_ln76_fu_1079_p2              |   icmp   |      0|  0|   18|          23|           8|
    |icmp_ln80_fu_1183_p2              |   icmp   |      0|  0|   11|           5|           1|
    |icmp_ln82_fu_1189_p2              |   icmp   |      0|  0|   13|          16|           2|
    |icmp_ln879_2_fu_978_p2            |   icmp   |      0|  0|   13|          14|          14|
    |icmp_ln879_3_fu_891_p2            |   icmp   |      0|  0|   13|          14|          14|
    |icmp_ln879_4_fu_1347_p2           |   icmp   |      0|  0|   13|          14|          14|
    |icmp_ln879_6_fu_1399_p2           |   icmp   |      0|  0|    9|           4|           4|
    |icmp_ln879_7_fu_897_p2            |   icmp   |      0|  0|   13|          14|          14|
    |icmp_ln879_fu_966_p2              |   icmp   |      0|  0|   11|           8|           8|
    |icmp_ln883_1_fu_997_p2            |   icmp   |      0|  0|   13|          14|          14|
    |icmp_ln883_fu_1021_p2             |   icmp   |      0|  0|   11|           8|           1|
    |icmp_ln887_fu_1383_p2             |   icmp   |      0|  0|   13|          14|          14|
    |tmp_last_V_fu_1015_p2             |   icmp   |      0|  0|   11|           8|           8|
    |lshr_ln647_1_fu_1566_p2           |   lshr   |      0|  0|  694|           2|         192|
    |lshr_ln647_2_fu_1637_p2           |   lshr   |      0|  0|  694|         192|         192|
    |lshr_ln647_3_fu_1643_p2           |   lshr   |      0|  0|  694|           2|         192|
    |lshr_ln647_fu_1560_p2             |   lshr   |      0|  0|  694|         192|         192|
    |ap_block_pp0_stage0_01001         |    or    |      0|  0|    2|           1|           1|
    |ap_block_pp0_stage0_11001         |    or    |      0|  0|    2|           1|           1|
    |ap_block_state1_pp0_stage0_iter0  |    or    |      0|  0|    2|           1|           1|
    |ap_block_state2_io                |    or    |      0|  0|    2|           1|           1|
    |ap_block_state2_pp0_stage0_iter1  |    or    |      0|  0|    2|           1|           1|
    |ap_block_state3_io                |    or    |      0|  0|    2|           1|           1|
    |ap_block_state3_pp0_stage0_iter2  |    or    |      0|  0|    2|           1|           1|
    |or_ln76_fu_1207_p2                |    or    |      0|  0|    2|           1|           1|
    |or_ln78_fu_1085_p2                |    or    |      0|  0|   22|           6|          22|
    |headerWord_data_V_fu_1663_p3      |  select  |      0|  0|   64|           1|          64|
    |select_ln147_fu_1405_p3           |  select  |      0|  0|    4|           1|           1|
    |select_ln295_fu_1027_p3           |  select  |      0|  0|    5|           1|           4|
    |select_ln63_fu_1251_p3            |  select  |      0|  0|   25|           1|          25|
    |select_ln647_1_fu_1532_p3         |  select  |      0|  0|  192|           1|         192|
    |select_ln647_2_fu_1539_p3         |  select  |      0|  0|    8|           1|           8|
    |select_ln647_3_fu_1602_p3         |  select  |      0|  0|    8|           1|           8|
    |select_ln647_4_fu_1609_p3         |  select  |      0|  0|  192|           1|         192|
    |select_ln647_5_fu_1616_p3         |  select  |      0|  0|    8|           1|           8|
    |select_ln647_fu_1525_p3           |  select  |      0|  0|    8|           1|           8|
    |select_ln76_fu_1219_p3            |  select  |      0|  0|   16|           1|          16|
    |select_ln80_fu_1175_p3            |  select  |      0|  0|    5|           1|           5|
    |select_ln82_fu_1227_p3            |  select  |      0|  0|   16|           1|          16|
    |ap_enable_pp0                     |    xor   |      0|  0|    2|           1|           2|
    |xor_ln76_fu_1201_p2               |    xor   |      0|  0|    2|           1|           2|
    +----------------------------------+----------+-------+---+-----+------------+------------+
    |Total                             |          |      0|  0| 4773|        1206|        2050|
    +----------------------------------+----------+-------+---+-----+------------+------------+

    * Multiplexer: 
    +----------------------------------------------------+----+-----------+-----+-----------+
    |                        Name                        | LUT| Input Size| Bits| Total Bits|
    +----------------------------------------------------+----+-----------+-----+-----------+
    |ap_done                                             |   9|          2|    1|          2|
    |ap_phi_mux_closeIt_V_loc_0_i_i_phi_fu_474_p4        |  15|          3|   14|         42|
    |ap_phi_mux_sessionIt_V_flag_5_i_phi_fu_550_p32      |   9|          2|    1|          2|
    |ap_phi_mux_sessionIt_V_new_5_i_s_phi_fu_606_p32     |   9|          2|   14|         28|
    |ap_phi_mux_timeOver_flag_0_i_i_phi_fu_659_p32       |   9|          2|    1|          2|
    |ap_phi_mux_timeOver_flag_1_i_i_phi_fu_823_p4        |  15|          3|    1|          3|
    |ap_phi_mux_timeOver_new_1_i_i_phi_fu_835_p4         |  15|          3|    1|          3|
    |ap_phi_mux_tmp_last_V_2_phi_fu_496_p4               |   9|          2|    1|          2|
    |ap_phi_mux_wordCount_V_flag_1_i_phi_fu_714_p32      |   9|          2|    1|          2|
    |ap_phi_reg_pp0_iter1_packetGapCounter_V_n_reg_480   |  15|          3|    8|         24|
    |ap_phi_reg_pp0_iter1_sessionIt_V_flag_5_i_reg_545   |  15|          3|    1|          3|
    |ap_phi_reg_pp0_iter1_sessionIt_V_new_4_i_s_reg_506  |   9|          2|   14|         28|
    |ap_phi_reg_pp0_iter1_sessionIt_V_new_5_i_s_reg_601  |  15|          3|   14|         42|
    |ap_phi_reg_pp0_iter1_timeOver_flag_0_i_i_reg_654    |  15|          3|    1|          3|
    |ap_phi_reg_pp0_iter1_tmp_ip_address_V_reg_516       |  50|         11|   32|        352|
    |ap_phi_reg_pp0_iter1_tmp_last_V_2_reg_491           |   9|          2|    1|          2|
    |ap_phi_reg_pp0_iter1_wordCount_V_flag_1_i_reg_709   |  15|          3|    1|          3|
    |ap_phi_reg_pp0_iter1_wordCount_V_new_1_i_s_reg_765  |  21|          4|    8|         32|
    |ap_sig_allocacmp_t_V                                |   9|          2|    8|         16|
    |ap_sig_allocacmp_t_V_1                              |   9|          2|    8|         16|
    |ap_sig_allocacmp_t_V_2                              |   9|          2|   14|         28|
    |ap_sig_allocacmp_timeOver_load                      |   9|          2|    1|          2|
    |closeConnection_V_V_TDATA_blk_n                     |   9|          2|    1|          2|
    |closeIt_V                                           |   9|          2|   14|         28|
    |dualModeEn_V_blk_n                                  |   9|          2|    1|          2|
    |header_idx                                          |   9|          2|   16|         32|
    |ipAddressIdx_V                                      |   9|          2|    4|          8|
    |iperfFsmState                                       |  47|         10|    4|         40|
    |m_axis_tx_data_TDATA_blk_n                          |   9|          2|    1|          2|
    |m_axis_tx_data_TDATA_int                            |  15|          3|   64|        192|
    |m_axis_tx_data_TLAST_int                            |  21|          4|    1|          4|
    |numConnections_V                                    |  15|          3|   14|         42|
    |openConStatus_V_TDATA_blk_n                         |   9|          2|    1|          2|
    |openConnection_V_TDATA_blk_n                        |   9|          2|    1|          2|
    |packetGap_V_blk_n                                   |   9|          2|    1|          2|
    |pkgWordCount_V_blk_n                                |   9|          2|    1|          2|
    |regIpAddress0_V_blk_n                               |   9|          2|    1|          2|
    |regIpAddress1_V_blk_n                               |   9|          2|    1|          2|
    |regIpAddress2_V_blk_n                               |   9|          2|    1|          2|
    |regIpAddress3_V_blk_n                               |   9|          2|    1|          2|
    |regIpAddress4_V_blk_n                               |   9|          2|    1|          2|
    |regIpAddress5_V_blk_n                               |   9|          2|    1|          2|
    |regIpAddress6_V_blk_n                               |   9|          2|    1|          2|
    |regIpAddress7_V_blk_n                               |   9|          2|    1|          2|
    |regIpAddress8_V_blk_n                               |   9|          2|    1|          2|
    |regIpAddress9_V_blk_n                               |   9|          2|    1|          2|
    |runExperiment_V_blk_n                               |   9|          2|    1|          2|
    |startSignalFifo_V_blk_n                             |   9|          2|    1|          2|
    |stopSignalFifo_V_blk_n                              |   9|          2|    1|          2|
    |timeInSeconds_V_blk_n                               |   9|          2|    1|          2|
    |txMetaData_V_TDATA_blk_n                            |   9|          2|    1|          2|
    |txMetaData_V_TDATA_int                              |  27|          5|   32|        160|
    |txStatusBuffer_V_err_blk_n                          |   9|          2|    1|          2|
    |txStatusBuffer_V_ses_blk_n                          |   9|          2|    1|          2|
    |useConn_V_blk_n                                     |   9|          2|    1|          2|
    +----------------------------------------------------+----+-----------+-----+-----------+
    |Total                                               | 676|        144|  320|       1193|
    +----------------------------------------------------+----+-----------+-----+-----------+

    * Register: 
    +----------------------------------------------------+-----+----+-----+-----------+
    |                        Name                        |  FF | LUT| Bits| Const Bits|
    +----------------------------------------------------+-----+----+-----+-----------+
    |and_ln82_reg_1861                                   |    1|   0|    1|          0|
    |ap_CS_fsm                                           |    1|   0|    1|          0|
    |ap_done_reg                                         |    1|   0|    1|          0|
    |ap_enable_reg_pp0_iter1                             |    1|   0|    1|          0|
    |ap_enable_reg_pp0_iter2                             |    1|   0|    1|          0|
    |ap_phi_reg_pp0_iter1_packetGapCounter_V_n_reg_480   |    8|   0|    8|          0|
    |ap_phi_reg_pp0_iter1_sessionIt_V_flag_5_i_reg_545   |    1|   0|    1|          0|
    |ap_phi_reg_pp0_iter1_sessionIt_V_new_4_i_s_reg_506  |   14|   0|   14|          0|
    |ap_phi_reg_pp0_iter1_sessionIt_V_new_5_i_s_reg_601  |   14|   0|   14|          0|
    |ap_phi_reg_pp0_iter1_timeOver_flag_0_i_i_reg_654    |    1|   0|    1|          0|
    |ap_phi_reg_pp0_iter1_tmp_ip_address_V_reg_516       |   32|   0|   32|          0|
    |ap_phi_reg_pp0_iter1_tmp_last_V_2_reg_491           |    1|   0|    1|          0|
    |ap_phi_reg_pp0_iter1_wordCount_V_flag_1_i_reg_709   |    1|   0|    1|          0|
    |ap_phi_reg_pp0_iter1_wordCount_V_new_1_i_s_reg_765  |    8|   0|    8|          0|
    |closeIt_V                                           |   14|   0|   14|          0|
    |currentSessionID_V                                  |   16|   0|   16|          0|
    |header_header_V                                     |  192|   0|  192|          0|
    |header_idx                                          |   16|   0|   16|          0|
    |icmp_ln647_1_reg_1850                               |    1|   0|    1|          0|
    |icmp_ln647_reg_1837                                 |    1|   0|    1|          0|
    |icmp_ln879_1_reg_1819                               |    1|   0|    1|          0|
    |icmp_ln879_1_reg_1819_pp0_iter1_reg                 |    1|   0|    1|          0|
    |icmp_ln879_2_reg_1797                               |    1|   0|    1|          0|
    |icmp_ln879_2_reg_1797_pp0_iter1_reg                 |    1|   0|    1|          0|
    |icmp_ln879_3_reg_1895                               |    1|   0|    1|          0|
    |icmp_ln879_4_reg_1866                               |    1|   0|    1|          0|
    |icmp_ln879_5_reg_1823                               |    1|   0|    1|          0|
    |icmp_ln879_5_reg_1823_pp0_iter1_reg                 |    1|   0|    1|          0|
    |icmp_ln879_8_reg_1874                               |    1|   0|    1|          0|
    |icmp_ln887_reg_1899                                 |    1|   0|    1|          0|
    |icmp_ln887_reg_1899_pp0_iter1_reg                   |    1|   0|    1|          0|
    |ipAddressIdx_V                                      |    4|   0|    4|          0|
    |iperfFsmState                                       |    4|   0|    4|          0|
    |iperfFsmState_load_reg_1781                         |    4|   0|    4|          0|
    |iperfFsmState_load_reg_1781_pp0_iter1_reg           |    4|   0|    4|          0|
    |numConnections_V                                    |   14|   0|   14|          0|
    |or_ln76_reg_1857                                    |    1|   0|    1|          0|
    |or_ln76_reg_1857_pp0_iter1_reg                      |    1|   0|    1|          0|
    |packetGapCounter_V                                  |    8|   0|    8|          0|
    |pkgWordCount_V_read_reg_1724                        |    8|   0|    8|          0|
    |reg_908                                             |   16|   0|   16|          0|
    |sessionIt_V                                         |   14|   0|   14|          0|
    |timeOver                                            |    1|   0|    1|          0|
    |timeOver_load_reg_1785                              |    1|   0|    1|          0|
    |timeOver_load_reg_1785_pp0_iter1_reg                |    1|   0|    1|          0|
    |tmp_16_reg_1886                                     |    1|   0|    1|          0|
    |tmp_16_reg_1886_pp0_iter1_reg                       |    1|   0|    1|          0|
    |tmp_2_reg_1870                                      |    1|   0|    1|          0|
    |tmp_8_reg_1815                                      |    1|   0|    1|          0|
    |tmp_8_reg_1815_pp0_iter1_reg                        |    1|   0|    1|          0|
    |tmp_last_V_reg_1810                                 |    1|   0|    1|          0|
    |tmp_reg_1882                                        |    1|   0|    1|          0|
    |tmp_reg_1882_pp0_iter1_reg                          |    1|   0|    1|          0|
    |tmp_sessionID_V_3_reg_1890                          |   16|   0|   16|          0|
    |trunc_ln647_1_reg_1844                              |    2|   0|    8|          6|
    |trunc_ln76_1_reg_1832                               |    2|   0|    2|          0|
    |trunc_ln76_reg_1827                                 |    2|   0|    2|          0|
    |wordCount_V                                         |    8|   0|    8|          0|
    +----------------------------------------------------+-----+----+-----+-----------+
    |Total                                               |  455|   0|  461|          6|
    +----------------------------------------------------+-----+----+-----+-----------+



================================================================
== Interface
================================================================
* Summary: 
+------------------------------+-----+-----+------------+----------------------+--------------+
|           RTL Ports          | Dir | Bits|  Protocol  |     Source Object    |    C Type    |
+------------------------------+-----+-----+------------+----------------------+--------------+
|ap_clk                        |  in |    1| ap_ctrl_hs |      client<64>      | return value |
|ap_rst                        |  in |    1| ap_ctrl_hs |      client<64>      | return value |
|ap_start                      |  in |    1| ap_ctrl_hs |      client<64>      | return value |
|ap_done                       | out |    1| ap_ctrl_hs |      client<64>      | return value |
|ap_continue                   |  in |    1| ap_ctrl_hs |      client<64>      | return value |
|ap_idle                       | out |    1| ap_ctrl_hs |      client<64>      | return value |
|ap_ready                      | out |    1| ap_ctrl_hs |      client<64>      | return value |
|runExperiment_V_dout          |  in |    1|   ap_fifo  |    runExperiment_V   |    pointer   |
|runExperiment_V_empty_n       |  in |    1|   ap_fifo  |    runExperiment_V   |    pointer   |
|runExperiment_V_read          | out |    1|   ap_fifo  |    runExperiment_V   |    pointer   |
|dualModeEn_V_dout             |  in |    1|   ap_fifo  |     dualModeEn_V     |    pointer   |
|dualModeEn_V_empty_n          |  in |    1|   ap_fifo  |     dualModeEn_V     |    pointer   |
|dualModeEn_V_read             | out |    1|   ap_fifo  |     dualModeEn_V     |    pointer   |
|useConn_V_dout                |  in |   14|   ap_fifo  |       useConn_V      |    pointer   |
|useConn_V_empty_n             |  in |    1|   ap_fifo  |       useConn_V      |    pointer   |
|useConn_V_read                | out |    1|   ap_fifo  |       useConn_V      |    pointer   |
|pkgWordCount_V_dout           |  in |    8|   ap_fifo  |    pkgWordCount_V    |    pointer   |
|pkgWordCount_V_empty_n        |  in |    1|   ap_fifo  |    pkgWordCount_V    |    pointer   |
|pkgWordCount_V_read           | out |    1|   ap_fifo  |    pkgWordCount_V    |    pointer   |
|packetGap_V_dout              |  in |    8|   ap_fifo  |      packetGap_V     |    pointer   |
|packetGap_V_empty_n           |  in |    1|   ap_fifo  |      packetGap_V     |    pointer   |
|packetGap_V_read              | out |    1|   ap_fifo  |      packetGap_V     |    pointer   |
|timeInSeconds_V_dout          |  in |   32|   ap_fifo  |    timeInSeconds_V   |    pointer   |
|timeInSeconds_V_empty_n       |  in |    1|   ap_fifo  |    timeInSeconds_V   |    pointer   |
|timeInSeconds_V_read          | out |    1|   ap_fifo  |    timeInSeconds_V   |    pointer   |
|regIpAddress0_V_dout          |  in |   32|   ap_fifo  |    regIpAddress0_V   |    pointer   |
|regIpAddress0_V_empty_n       |  in |    1|   ap_fifo  |    regIpAddress0_V   |    pointer   |
|regIpAddress0_V_read          | out |    1|   ap_fifo  |    regIpAddress0_V   |    pointer   |
|regIpAddress1_V_dout          |  in |   32|   ap_fifo  |    regIpAddress1_V   |    pointer   |
|regIpAddress1_V_empty_n       |  in |    1|   ap_fifo  |    regIpAddress1_V   |    pointer   |
|regIpAddress1_V_read          | out |    1|   ap_fifo  |    regIpAddress1_V   |    pointer   |
|regIpAddress2_V_dout          |  in |   32|   ap_fifo  |    regIpAddress2_V   |    pointer   |
|regIpAddress2_V_empty_n       |  in |    1|   ap_fifo  |    regIpAddress2_V   |    pointer   |
|regIpAddress2_V_read          | out |    1|   ap_fifo  |    regIpAddress2_V   |    pointer   |
|regIpAddress3_V_dout          |  in |   32|   ap_fifo  |    regIpAddress3_V   |    pointer   |
|regIpAddress3_V_empty_n       |  in |    1|   ap_fifo  |    regIpAddress3_V   |    pointer   |
|regIpAddress3_V_read          | out |    1|   ap_fifo  |    regIpAddress3_V   |    pointer   |
|regIpAddress4_V_dout          |  in |   32|   ap_fifo  |    regIpAddress4_V   |    pointer   |
|regIpAddress4_V_empty_n       |  in |    1|   ap_fifo  |    regIpAddress4_V   |    pointer   |
|regIpAddress4_V_read          | out |    1|   ap_fifo  |    regIpAddress4_V   |    pointer   |
|regIpAddress5_V_dout          |  in |   32|   ap_fifo  |    regIpAddress5_V   |    pointer   |
|regIpAddress5_V_empty_n       |  in |    1|   ap_fifo  |    regIpAddress5_V   |    pointer   |
|regIpAddress5_V_read          | out |    1|   ap_fifo  |    regIpAddress5_V   |    pointer   |
|regIpAddress6_V_dout          |  in |   32|   ap_fifo  |    regIpAddress6_V   |    pointer   |
|regIpAddress6_V_empty_n       |  in |    1|   ap_fifo  |    regIpAddress6_V   |    pointer   |
|regIpAddress6_V_read          | out |    1|   ap_fifo  |    regIpAddress6_V   |    pointer   |
|regIpAddress7_V_dout          |  in |   32|   ap_fifo  |    regIpAddress7_V   |    pointer   |
|regIpAddress7_V_empty_n       |  in |    1|   ap_fifo  |    regIpAddress7_V   |    pointer   |
|regIpAddress7_V_read          | out |    1|   ap_fifo  |    regIpAddress7_V   |    pointer   |
|regIpAddress8_V_dout          |  in |   32|   ap_fifo  |    regIpAddress8_V   |    pointer   |
|regIpAddress8_V_empty_n       |  in |    1|   ap_fifo  |    regIpAddress8_V   |    pointer   |
|regIpAddress8_V_read          | out |    1|   ap_fifo  |    regIpAddress8_V   |    pointer   |
|regIpAddress9_V_dout          |  in |   32|   ap_fifo  |    regIpAddress9_V   |    pointer   |
|regIpAddress9_V_empty_n       |  in |    1|   ap_fifo  |    regIpAddress9_V   |    pointer   |
|regIpAddress9_V_read          | out |    1|   ap_fifo  |    regIpAddress9_V   |    pointer   |
|txStatusBuffer_V_ses_dout     |  in |   16|   ap_fifo  | txStatusBuffer_V_ses |    pointer   |
|txStatusBuffer_V_ses_empty_n  |  in |    1|   ap_fifo  | txStatusBuffer_V_ses |    pointer   |
|txStatusBuffer_V_ses_read     | out |    1|   ap_fifo  | txStatusBuffer_V_ses |    pointer   |
|txStatusBuffer_V_err_dout     |  in |    2|   ap_fifo  | txStatusBuffer_V_err |    pointer   |
|txStatusBuffer_V_err_empty_n  |  in |    1|   ap_fifo  | txStatusBuffer_V_err |    pointer   |
|txStatusBuffer_V_err_read     | out |    1|   ap_fifo  | txStatusBuffer_V_err |    pointer   |
|openConStatus_V_TVALID        |  in |    1|    axis    |    openConStatus_V   |    pointer   |
|openConStatus_V_TDATA         |  in |   24|    axis    |    openConStatus_V   |    pointer   |
|openConStatus_V_TREADY        | out |    1|    axis    |    openConStatus_V   |    pointer   |
|startSignalFifo_V_din         | out |    1|   ap_fifo  |   startSignalFifo_V  |    pointer   |
|startSignalFifo_V_full_n      |  in |    1|   ap_fifo  |   startSignalFifo_V  |    pointer   |
|startSignalFifo_V_write       | out |    1|   ap_fifo  |   startSignalFifo_V  |    pointer   |
|stopSignalFifo_V_dout         |  in |    1|   ap_fifo  |   stopSignalFifo_V   |    pointer   |
|stopSignalFifo_V_empty_n      |  in |    1|   ap_fifo  |   stopSignalFifo_V   |    pointer   |
|stopSignalFifo_V_read         | out |    1|   ap_fifo  |   stopSignalFifo_V   |    pointer   |
|txMetaData_V_TREADY           |  in |    1|    axis    |     txMetaData_V     |    pointer   |
|txMetaData_V_TDATA            | out |   32|    axis    |     txMetaData_V     |    pointer   |
|txMetaData_V_TVALID           | out |    1|    axis    |     txMetaData_V     |    pointer   |
|closeConnection_V_V_TREADY    |  in |    1|    axis    |  closeConnection_V_V |    pointer   |
|closeConnection_V_V_TDATA     | out |   16|    axis    |  closeConnection_V_V |    pointer   |
|closeConnection_V_V_TVALID    | out |    1|    axis    |  closeConnection_V_V |    pointer   |
|m_axis_tx_data_TREADY         |  in |    1|    axis    |    txData_V_last_V   |    pointer   |
|m_axis_tx_data_TVALID         | out |    1|    axis    |    txData_V_last_V   |    pointer   |
|m_axis_tx_data_TLAST          | out |    1|    axis    |    txData_V_last_V   |    pointer   |
|openConnection_V_TREADY       |  in |    1|    axis    |   openConnection_V   |    pointer   |
|openConnection_V_TDATA        | out |   48|    axis    |   openConnection_V   |    pointer   |
|openConnection_V_TVALID       | out |    1|    axis    |   openConnection_V   |    pointer   |
|m_axis_tx_data_TDATA          | out |   64|    axis    |    txData_V_data_V   |    pointer   |
|m_axis_tx_data_TKEEP          | out |    8|    axis    |    txData_V_keep_V   |    pointer   |
+------------------------------+-----+-----+------------+----------------------+--------------+

