

================================================================
== Vivado HLS Report for 'check_for_response'
================================================================
* Date:           Sat Dec 12 19:24:27 2020

* Version:        2019.2.1 (Build 2724168 on Thu Dec 05 05:19:09 MST 2019)
* Project:        iperf_udp_prj
* Solution:       solution1
* Product family: virtex7
* Target device:  xc7vx690t-ffg1761-2


================================================================
== Performance Estimates
================================================================
+ Timing: 
    * Summary: 
    +--------+---------+----------+------------+
    |  Clock |  Target | Estimated| Uncertainty|
    +--------+---------+----------+------------+
    |ap_clk  | 6.40 ns | 2.391 ns |   0.80 ns  |
    +--------+---------+----------+------------+

+ Latency: 
    * Summary: 
    +---------+---------+----------+----------+-----+-----+---------+
    |  Latency (cycles) |  Latency (absolute) |  Interval | Pipeline|
    |   min   |   max   |    min   |    max   | min | max |   Type  |
    +---------+---------+----------+----------+-----+-----+---------+
    |        0|        0|   0 ns   |   0 ns   |    0|    0|   none  |
    +---------+---------+----------+----------+-----+-----+---------+

    + Detail: 
        * Instance: 
        N/A

        * Loop: 
        N/A



================================================================
== Utilization Estimates
================================================================
* Summary: 
+-----------------+---------+-------+--------+--------+-----+
|       Name      | BRAM_18K| DSP48E|   FF   |   LUT  | URAM|
+-----------------+---------+-------+--------+--------+-----+
|DSP              |        -|      -|       -|       -|    -|
|Expression       |        -|      -|       0|      26|    -|
|FIFO             |        -|      -|       -|       -|    -|
|Instance         |        -|      -|       -|       -|    -|
|Memory           |        -|      -|       -|       -|    -|
|Multiplexer      |        -|      -|       -|      36|    -|
|Register         |        -|      -|       2|       -|    -|
+-----------------+---------+-------+--------+--------+-----+
|Total            |        0|      0|       2|      62|    0|
+-----------------+---------+-------+--------+--------+-----+
|Available        |     2940|   3600|  866400|  433200|    0|
+-----------------+---------+-------+--------+--------+-----+
|Utilization (%)  |        0|      0|   ~0   |   ~0   |    0|
+-----------------+---------+-------+--------+--------+-----+

+ Detail: 
    * Instance: 
    N/A

    * DSP48E: 
    N/A

    * Memory: 
    N/A

    * FIFO: 
    N/A

    * Expression: 
    +--------------------------------+----------+-------+---+----+------------+------------+
    |          Variable Name         | Operation| DSP48E| FF| LUT| Bitwidth P0| Bitwidth P1|
    +--------------------------------+----------+-------+---+----+------------+------------+
    |ap_predicate_op11_write_state1  |    and   |      0|  0|   2|           1|           1|
    |tmp_8_nbreadreq_fu_74_p5        |    and   |      0|  0|   2|           1|           0|
    |tmp_nbreadreq_fu_52_p3          |    and   |      0|  0|   2|           1|           0|
    |icmp_ln879_fu_106_p2            |   icmp   |      0|  0|  18|          16|          17|
    |ap_block_state1                 |    or    |      0|  0|   2|           1|           1|
    +--------------------------------+----------+-------+---+----+------------+------------+
    |Total                           |          |      0|  0|  26|          20|          19|
    +--------------------------------+----------+-------+---+----+------------+------------+

    * Multiplexer: 
    +----------------------------+----+-----------+-----+-----------+
    |            Name            | LUT| Input Size| Bits| Total Bits|
    +----------------------------+----+-----------+-----+-----------+
    |ap_done                     |   9|          2|    1|          2|
    |doneSignalFifo_V_blk_n      |   9|          2|    1|          2|
    |rxMetaData_V_TDATA_blk_n    |   9|          2|    1|          2|
    |s_axis_rx_data_TDATA_blk_n  |   9|          2|    1|          2|
    +----------------------------+----+-----------+-----+-----------+
    |Total                       |  36|          8|    4|          8|
    +----------------------------+----+-----------+-----+-----------+

    * Register: 
    +-------------+---+----+-----+-----------+
    |     Name    | FF| LUT| Bits| Const Bits|
    +-------------+---+----+-----+-----------+
    |ap_CS_fsm    |  1|   0|    1|          0|
    |ap_done_reg  |  1|   0|    1|          0|
    +-------------+---+----+-----+-----------+
    |Total        |  2|   0|    2|          0|
    +-------------+---+----+-----+-----------+



================================================================
== Interface
================================================================
* Summary: 
+-------------------------+-----+-----+------------+--------------------+--------------+
|        RTL Ports        | Dir | Bits|  Protocol  |    Source Object   |    C Type    |
+-------------------------+-----+-----+------------+--------------------+--------------+
|ap_clk                   |  in |    1| ap_ctrl_hs | check_for_response | return value |
|ap_rst                   |  in |    1| ap_ctrl_hs | check_for_response | return value |
|ap_start                 |  in |    1| ap_ctrl_hs | check_for_response | return value |
|ap_done                  | out |    1| ap_ctrl_hs | check_for_response | return value |
|ap_continue              |  in |    1| ap_ctrl_hs | check_for_response | return value |
|ap_idle                  | out |    1| ap_ctrl_hs | check_for_response | return value |
|ap_ready                 | out |    1| ap_ctrl_hs | check_for_response | return value |
|rxMetaData_V_TDATA       |  in |  176|    axis    |    rxMetaData_V    |    pointer   |
|rxMetaData_V_TVALID      |  in |    1|    axis    |    rxMetaData_V    |    pointer   |
|rxMetaData_V_TREADY      | out |    1|    axis    |    rxMetaData_V    |    pointer   |
|s_axis_rx_data_TDATA     |  in |   64|    axis    |   rxData_V_data_V  |    pointer   |
|s_axis_rx_data_TVALID    |  in |    1|    axis    |   rxData_V_last_V  |    pointer   |
|s_axis_rx_data_TREADY    | out |    1|    axis    |   rxData_V_last_V  |    pointer   |
|s_axis_rx_data_TLAST     |  in |    1|    axis    |   rxData_V_last_V  |    pointer   |
|s_axis_rx_data_TKEEP     |  in |    8|    axis    |   rxData_V_keep_V  |    pointer   |
|doneSignalFifo_V_din     | out |    1|   ap_fifo  |  doneSignalFifo_V  |    pointer   |
|doneSignalFifo_V_full_n  |  in |    1|   ap_fifo  |  doneSignalFifo_V  |    pointer   |
|doneSignalFifo_V_write   | out |    1|   ap_fifo  |  doneSignalFifo_V  |    pointer   |
+-------------------------+-----+-----+------------+--------------------+--------------+

============================================================
+ Verbose Summary: Synthesis Manager
============================================================
InlineROM: 1
ExposeGlobal: 0
============================================================
+ Verbose Summary: CDFG Model
============================================================
IsTopModel: 0
ResetActiveHigh: 1
IsCombinational: 2
IsDatapathOnly: 0
HasWiredReturn: 1
HasMFsm: 0
HasVarLatency: 0
IsPipeline: 0
IsRtlPipelined: 0
IsInstanceOverlapped: 0
IsDontTouch: 0
HasImplIP: 0
IsGatedGlobalClock: 0


============================================================
+ Verbose Summary: Schedule
============================================================
* Number of FSM states : 1
* Pipeline : 0
* Dataflow Pipeline: 0

* FSM state transitions: 
1 --> 

* FSM state operations: 

State 1 <SV = 0> <Delay = 2.39>
ST_1 : Operation 2 [1/1] (0.00ns)   --->   "call void (...)* @_ssdm_op_SpecInterface(i1* @doneSignalFifo_V, [8 x i8]* @ap_fifo_str, i32 0, i32 0, [1 x i8]* @p_str, i32 0, i32 0, [1 x i8]* @p_str, [1 x i8]* @p_str, [1 x i8]* @p_str, i32 2, i32 2, i32 16, i32 16, [1 x i8]* @p_str, [1 x i8]* @p_str)"   --->   Operation 2 'specinterface' <Predicate = true> <Delay = 0.00>
ST_1 : Operation 3 [1/1] (0.00ns)   --->   "call void (...)* @_ssdm_op_SpecInterface(i64* %rxData_V_data_V, i8* %rxData_V_keep_V, i1* %rxData_V_last_V, [5 x i8]* @p_str8, i32 1, i32 1, [5 x i8]* @p_str9, i32 0, i32 0, [1 x i8]* @p_str, [1 x i8]* @p_str, [1 x i8]* @p_str, i32 0, i32 0, i32 0, i32 0, [15 x i8]* @p_str11, [1 x i8]* @p_str) nounwind"   --->   Operation 3 'specinterface' <Predicate = true> <Delay = 0.00>
ST_1 : Operation 4 [1/1] (0.00ns)   --->   "call void (...)* @_ssdm_op_SpecInterface(i176* %rxMetaData_V, [5 x i8]* @p_str8, i32 1, i32 1, [5 x i8]* @p_str9, i32 0, i32 0, [1 x i8]* @p_str, [1 x i8]* @p_str, [1 x i8]* @p_str, i32 0, i32 0, i32 0, i32 0, [19 x i8]* @p_str10, [1 x i8]* @p_str) nounwind"   --->   Operation 4 'specinterface' <Predicate = true> <Delay = 0.00>
ST_1 : Operation 5 [1/1] (0.00ns)   --->   "%tmp = call i1 @_ssdm_op_NbReadReq.axis.i176P(i176* %rxMetaData_V, i32 1)" [/home/paulrr2/Projects/ece527/babelsoc/fpga-network-stack/hls/iperf_udp/iperf_udp.cpp:254]   --->   Operation 5 'nbreadreq' 'tmp' <Predicate = true> <Delay = 0.00> <Core = "AXI4Stream">   --->   Core 5 'AXI4Stream' <Latency = 0> <II = 1> <Delay = 1.00> <Adapter> <Opcode : >
ST_1 : Operation 6 [1/1] (0.00ns)   --->   "br i1 %tmp, label %0, label %._crit_edge.i" [/home/paulrr2/Projects/ece527/babelsoc/fpga-network-stack/hls/iperf_udp/iperf_udp.cpp:254]   --->   Operation 6 'br' <Predicate = true> <Delay = 0.00>
ST_1 : Operation 7 [1/1] (0.00ns)   --->   "%tmp1 = call i176 @_ssdm_op_Read.axis.volatile.i176P(i176* %rxMetaData_V)" [/home/paulrr2/Projects/ece527/babelsoc/fpga-network-stack/hls/iperf_udp/iperf_udp.cpp:256]   --->   Operation 7 'read' 'tmp1' <Predicate = (tmp)> <Delay = 0.00> <Core = "AXI4Stream">   --->   Core 5 'AXI4Stream' <Latency = 0> <II = 1> <Delay = 1.00> <Adapter> <Opcode : >
ST_1 : Operation 8 [1/1] (0.00ns)   --->   "%tmp_my_port_V_load_n_1 = call i16 @_ssdm_op_PartSelect.i16.i176.i32.i32(i176 %tmp1, i32 144, i32 159)" [/home/paulrr2/Projects/ece527/babelsoc/fpga-network-stack/hls/iperf_udp/../udp/udp.hpp:46->/home/paulrr2/Projects/ece527/babelsoc/fpga-network-stack/hls/iperf_udp/iperf_udp.cpp:256]   --->   Operation 8 'partselect' 'tmp_my_port_V_load_n_1' <Predicate = (tmp)> <Delay = 0.00>
ST_1 : Operation 9 [1/1] (1.18ns)   --->   "%icmp_ln879 = icmp eq i16 %tmp_my_port_V_load_n_1, -32768" [/home/paulrr2/Projects/ece527/babelsoc/fpga-network-stack/hls/iperf_udp/iperf_udp.cpp:257]   --->   Operation 9 'icmp' 'icmp_ln879' <Predicate = (tmp)> <Delay = 1.18> <Core = "Cmp">   --->   Core 25 'Cmp' <Latency = 0> <II = 1> <Delay = 1.18> <FuncUnit> <Opcode : 'icmp'> <InPorts = 2> <OutPorts = 1>
ST_1 : Operation 10 [1/1] (0.00ns)   --->   "br i1 %icmp_ln879, label %1, label %._crit_edge1.i" [/home/paulrr2/Projects/ece527/babelsoc/fpga-network-stack/hls/iperf_udp/iperf_udp.cpp:257]   --->   Operation 10 'br' <Predicate = (tmp)> <Delay = 0.00>
ST_1 : Operation 11 [1/1] (2.39ns)   --->   "call void @_ssdm_op_Write.ap_fifo.volatile.i1P(i1* @doneSignalFifo_V, i1 true)" [/home/paulrr2/Projects/ece527/babelsoc/fpga-network-stack/hls/iperf_udp/iperf_udp.cpp:259]   --->   Operation 11 'write' <Predicate = (tmp & icmp_ln879)> <Delay = 2.39> <Core = "FIFO">   --->   Core 32 'FIFO' <Latency = 0> <II = 1> <Delay = 2.39> <Storage> <Opcode : 'read' 'write' 'nbread' 'nbwrite'> <Ports = 0> <Width = 1> <Depth = 2> <FIFO>
ST_1 : Operation 12 [1/1] (0.00ns)   --->   "br label %._crit_edge1.i" [/home/paulrr2/Projects/ece527/babelsoc/fpga-network-stack/hls/iperf_udp/iperf_udp.cpp:260]   --->   Operation 12 'br' <Predicate = (tmp & icmp_ln879)> <Delay = 0.00>
ST_1 : Operation 13 [1/1] (0.00ns)   --->   "br label %._crit_edge.i" [/home/paulrr2/Projects/ece527/babelsoc/fpga-network-stack/hls/iperf_udp/iperf_udp.cpp:261]   --->   Operation 13 'br' <Predicate = (tmp)> <Delay = 0.00>
ST_1 : Operation 14 [1/1] (0.00ns)   --->   "%tmp_8 = call i1 @_ssdm_op_NbReadReq.axis.i64P.i8P.i1P(i64* %rxData_V_data_V, i8* %rxData_V_keep_V, i1* %rxData_V_last_V, i32 1)" [/home/paulrr2/Projects/ece527/babelsoc/fpga-network-stack/hls/iperf_udp/iperf_udp.cpp:262]   --->   Operation 14 'nbreadreq' 'tmp_8' <Predicate = true> <Delay = 0.00> <Core = "AXI4Stream">   --->   Core 5 'AXI4Stream' <Latency = 0> <II = 1> <Delay = 1.00> <Adapter> <Opcode : >
ST_1 : Operation 15 [1/1] (0.00ns)   --->   "br i1 %tmp_8, label %2, label %"check_for_response<64>.exit"" [/home/paulrr2/Projects/ece527/babelsoc/fpga-network-stack/hls/iperf_udp/iperf_udp.cpp:262]   --->   Operation 15 'br' <Predicate = true> <Delay = 0.00>
ST_1 : Operation 16 [1/1] (0.00ns)   --->   "%empty = call { i64, i8, i1 } @_ssdm_op_Read.axis.volatile.i64P.i8P.i1P(i64* %rxData_V_data_V, i8* %rxData_V_keep_V, i1* %rxData_V_last_V)" [/home/paulrr2/Projects/ece527/babelsoc/fpga-network-stack/hls/iperf_udp/iperf_udp.cpp:264]   --->   Operation 16 'read' 'empty' <Predicate = (tmp_8)> <Delay = 0.00> <Core = "AXI4Stream">   --->   Core 5 'AXI4Stream' <Latency = 0> <II = 1> <Delay = 1.00> <Adapter> <Opcode : >
ST_1 : Operation 17 [1/1] (0.00ns)   --->   "br label %"check_for_response<64>.exit"" [/home/paulrr2/Projects/ece527/babelsoc/fpga-network-stack/hls/iperf_udp/iperf_udp.cpp:265]   --->   Operation 17 'br' <Predicate = (tmp_8)> <Delay = 0.00>
ST_1 : Operation 18 [1/1] (0.00ns)   --->   "ret void"   --->   Operation 18 'ret' <Predicate = true> <Delay = 0.00>


============================================================
+ Verbose Summary: Binding
============================================================
STG Binding: 
---------------- STG Properties BEGIN ----------------
- Is combinational: 0
- Is one-state seq: 1
- Is datapath-only: 0
- Is pipelined: 0
- Is top level: 0
Port [ Return ] is wired: 1; IO mode=ap_ctrl_hs:ce=0
Port [ rxMetaData_V]:  wired=1; compound=1; hidden=0; nouse=0; global=0; static=0; extern=0; dir=0; type=0; pingpong=0; private_global=0; IO mode=axis:ce=0
Port [ rxData_V_data_V]:  wired=1; compound=1; hidden=0; nouse=0; global=0; static=0; extern=0; dir=0; type=0; pingpong=0; private_global=0; IO mode=axis:ce=0
Port [ rxData_V_keep_V]:  wired=1; compound=1; hidden=0; nouse=0; global=0; static=0; extern=0; dir=0; type=0; pingpong=0; private_global=0; IO mode=axis:ce=0
Port [ rxData_V_last_V]:  wired=1; compound=1; hidden=0; nouse=0; global=0; static=0; extern=0; dir=0; type=0; pingpong=0; private_global=0; IO mode=axis:ce=0
Port [ doneSignalFifo_V]:  wired=1; compound=1; hidden=0; nouse=0; global=1; static=1; extern=0; dir=1; type=3; pingpong=0; private_global=0; linkage=7; visibility=0; IO mode=ap_fifo:ce=0
---------------- STG Properties END ------------------

---------------- Datapath Model BEGIN ----------------

<LifeTime>
<method=bitvector/>
specinterface_ln0      (specinterface) [ 00]
specinterface_ln0      (specinterface) [ 00]
specinterface_ln0      (specinterface) [ 00]
tmp                    (nbreadreq    ) [ 01]
br_ln254               (br           ) [ 00]
tmp1                   (read         ) [ 00]
tmp_my_port_V_load_n_1 (partselect   ) [ 00]
icmp_ln879             (icmp         ) [ 01]
br_ln257               (br           ) [ 00]
write_ln259            (write        ) [ 00]
br_ln260               (br           ) [ 00]
br_ln261               (br           ) [ 00]
tmp_8                  (nbreadreq    ) [ 01]
br_ln262               (br           ) [ 00]
empty                  (read         ) [ 00]
br_ln265               (br           ) [ 00]
ret_ln0                (ret          ) [ 00]
</LifeTime>

<model>

<comp_list>
<comp id="0" class="1000" name="rxMetaData_V">
<pin_list>
<pin id="1" dir="1" index="0" bw="1" slack="0"/>
</pin_list>
<bind>
<StgValue><ssdm name="rxMetaData_V"/></StgValue>
</bind>
</comp>

<comp id="2" class="1000" name="rxData_V_data_V">
<pin_list>
<pin id="3" dir="1" index="0" bw="1" slack="0"/>
</pin_list>
<bind>
<StgValue><ssdm name="rxData_V_data_V"/></StgValue>
</bind>
</comp>

<comp id="4" class="1000" name="rxData_V_keep_V">
<pin_list>
<pin id="5" dir="1" index="0" bw="1" slack="0"/>
</pin_list>
<bind>
<StgValue><ssdm name="rxData_V_keep_V"/></StgValue>
</bind>
</comp>

<comp id="6" class="1000" name="rxData_V_last_V">
<pin_list>
<pin id="7" dir="1" index="0" bw="1" slack="0"/>
</pin_list>
<bind>
<StgValue><ssdm name="rxData_V_last_V"/></StgValue>
</bind>
</comp>

<comp id="8" class="1000" name="doneSignalFifo_V">
<pin_list>
<pin id="9" dir="1" index="0" bw="1" slack="0"/>
</pin_list>
<bind>
<StgValue><ssdm name="doneSignalFifo_V"/></StgValue>
</bind>
</comp>

<comp id="10" class="1001" name="const_10">
<pin_list>
<pin id="11" dir="1" index="0" bw="1" slack="2147483647"/>
</pin_list>
<bind>
<StgValue><ssdm name="_ssdm_op_SpecInterface"/></StgValue>
</bind>
</comp>

<comp id="12" class="1001" name="const_12">
<pin_list>
<pin id="13" dir="1" index="0" bw="1" slack="2147483647"/>
</pin_list>
<bind>
<StgValue><ssdm name="ap_fifo_str"/></StgValue>
</bind>
</comp>

<comp id="14" class="1001" name="const_14">
<pin_list>
<pin id="15" dir="1" index="0" bw="1" slack="2147483647"/>
</pin_list>
<bind>
<StgValue><ssdm name=""/></StgValue>
</bind>
</comp>

<comp id="16" class="1001" name="const_16">
<pin_list>
<pin id="17" dir="1" index="0" bw="1" slack="2147483647"/>
</pin_list>
<bind>
<StgValue><ssdm name="p_str"/></StgValue>
</bind>
</comp>

<comp id="18" class="1001" name="const_18">
<pin_list>
<pin id="19" dir="1" index="0" bw="1" slack="2147483647"/>
</pin_list>
<bind>
<StgValue><ssdm name=""/></StgValue>
</bind>
</comp>

<comp id="20" class="1001" name="const_20">
<pin_list>
<pin id="21" dir="1" index="0" bw="1" slack="2147483647"/>
</pin_list>
<bind>
<StgValue><ssdm name=""/></StgValue>
</bind>
</comp>

<comp id="22" class="1001" name="const_22">
<pin_list>
<pin id="23" dir="1" index="0" bw="1" slack="2147483647"/>
</pin_list>
<bind>
<StgValue><ssdm name="p_str8"/></StgValue>
</bind>
</comp>

<comp id="24" class="1001" name="const_24">
<pin_list>
<pin id="25" dir="1" index="0" bw="1" slack="0"/>
</pin_list>
<bind>
<StgValue><ssdm name=""/></StgValue>
</bind>
</comp>

<comp id="26" class="1001" name="const_26">
<pin_list>
<pin id="27" dir="1" index="0" bw="1" slack="2147483647"/>
</pin_list>
<bind>
<StgValue><ssdm name="p_str9"/></StgValue>
</bind>
</comp>

<comp id="28" class="1001" name="const_28">
<pin_list>
<pin id="29" dir="1" index="0" bw="1" slack="2147483647"/>
</pin_list>
<bind>
<StgValue><ssdm name="p_str11"/></StgValue>
</bind>
</comp>

<comp id="30" class="1001" name="const_30">
<pin_list>
<pin id="31" dir="1" index="0" bw="1" slack="2147483647"/>
</pin_list>
<bind>
<StgValue><ssdm name="p_str10"/></StgValue>
</bind>
</comp>

<comp id="32" class="1001" name="const_32">
<pin_list>
<pin id="33" dir="1" index="0" bw="1" slack="0"/>
</pin_list>
<bind>
<StgValue><ssdm name="_ssdm_op_NbReadReq.axis.i176P"/></StgValue>
</bind>
</comp>

<comp id="34" class="1001" name="const_34">
<pin_list>
<pin id="35" dir="1" index="0" bw="1" slack="0"/>
</pin_list>
<bind>
<StgValue><ssdm name="_ssdm_op_Read.axis.volatile.i176P"/></StgValue>
</bind>
</comp>

<comp id="36" class="1001" name="const_36">
<pin_list>
<pin id="37" dir="1" index="0" bw="1" slack="0"/>
</pin_list>
<bind>
<StgValue><ssdm name="_ssdm_op_PartSelect.i16.i176.i32.i32"/></StgValue>
</bind>
</comp>

<comp id="38" class="1001" name="const_38">
<pin_list>
<pin id="39" dir="1" index="0" bw="1" slack="0"/>
</pin_list>
<bind>
<StgValue><ssdm name=""/></StgValue>
</bind>
</comp>

<comp id="40" class="1001" name="const_40">
<pin_list>
<pin id="41" dir="1" index="0" bw="1" slack="0"/>
</pin_list>
<bind>
<StgValue><ssdm name=""/></StgValue>
</bind>
</comp>

<comp id="42" class="1001" name="const_42">
<pin_list>
<pin id="43" dir="1" index="0" bw="1" slack="0"/>
</pin_list>
<bind>
<StgValue><ssdm name=""/></StgValue>
</bind>
</comp>

<comp id="44" class="1001" name="const_44">
<pin_list>
<pin id="45" dir="1" index="0" bw="1" slack="0"/>
</pin_list>
<bind>
<StgValue><ssdm name="_ssdm_op_Write.ap_fifo.volatile.i1P"/></StgValue>
</bind>
</comp>

<comp id="46" class="1001" name="const_46">
<pin_list>
<pin id="47" dir="1" index="0" bw="1" slack="0"/>
</pin_list>
<bind>
<StgValue><ssdm name=""/></StgValue>
</bind>
</comp>

<comp id="48" class="1001" name="const_48">
<pin_list>
<pin id="49" dir="1" index="0" bw="1" slack="0"/>
</pin_list>
<bind>
<StgValue><ssdm name="_ssdm_op_NbReadReq.axis.i64P.i8P.i1P"/></StgValue>
</bind>
</comp>

<comp id="50" class="1001" name="const_50">
<pin_list>
<pin id="51" dir="1" index="0" bw="1" slack="0"/>
</pin_list>
<bind>
<StgValue><ssdm name="_ssdm_op_Read.axis.volatile.i64P.i8P.i1P"/></StgValue>
</bind>
</comp>

<comp id="52" class="1004" name="tmp_nbreadreq_fu_52">
<pin_list>
<pin id="53" dir="0" index="0" bw="1" slack="0"/>
<pin id="54" dir="0" index="1" bw="176" slack="0"/>
<pin id="55" dir="0" index="2" bw="1" slack="0"/>
<pin id="56" dir="1" index="3" bw="1" slack="2147483647"/>
</pin_list>
<bind>
<opcode="nbreadreq(1156) " fcode="nbreadreq"/>
<opset="tmp/1 "/>
</bind>
</comp>

<comp id="60" class="1004" name="tmp1_read_fu_60">
<pin_list>
<pin id="61" dir="0" index="0" bw="176" slack="0"/>
<pin id="62" dir="0" index="1" bw="176" slack="0"/>
<pin id="63" dir="1" index="2" bw="176" slack="0"/>
</pin_list>
<bind>
<opcode="read(1150) " fcode="read"/>
<opset="tmp1/1 "/>
</bind>
</comp>

<comp id="66" class="1004" name="write_ln259_write_fu_66">
<pin_list>
<pin id="67" dir="0" index="0" bw="0" slack="0"/>
<pin id="68" dir="0" index="1" bw="1" slack="0"/>
<pin id="69" dir="0" index="2" bw="1" slack="0"/>
<pin id="70" dir="1" index="3" bw="0" slack="2147483647"/>
</pin_list>
<bind>
<opcode="write(1151) " fcode="write"/>
<opset="write_ln259/1 "/>
</bind>
</comp>

<comp id="74" class="1004" name="tmp_8_nbreadreq_fu_74">
<pin_list>
<pin id="75" dir="0" index="0" bw="1" slack="0"/>
<pin id="76" dir="0" index="1" bw="64" slack="0"/>
<pin id="77" dir="0" index="2" bw="8" slack="0"/>
<pin id="78" dir="0" index="3" bw="1" slack="0"/>
<pin id="79" dir="0" index="4" bw="1" slack="0"/>
<pin id="80" dir="1" index="5" bw="1" slack="2147483647"/>
</pin_list>
<bind>
<opcode="nbreadreq(1156) " fcode="nbreadreq"/>
<opset="tmp_8/1 "/>
</bind>
</comp>

<comp id="86" class="1004" name="empty_read_fu_86">
<pin_list>
<pin id="87" dir="0" index="0" bw="73" slack="0"/>
<pin id="88" dir="0" index="1" bw="64" slack="0"/>
<pin id="89" dir="0" index="2" bw="8" slack="0"/>
<pin id="90" dir="0" index="3" bw="1" slack="0"/>
<pin id="91" dir="1" index="4" bw="73" slack="2147483647"/>
</pin_list>
<bind>
<opcode="read(1150) " fcode="read"/>
<opset="empty/1 "/>
</bind>
</comp>

<comp id="96" class="1004" name="tmp_my_port_V_load_n_1_fu_96">
<pin_list>
<pin id="97" dir="0" index="0" bw="16" slack="0"/>
<pin id="98" dir="0" index="1" bw="176" slack="0"/>
<pin id="99" dir="0" index="2" bw="9" slack="0"/>
<pin id="100" dir="0" index="3" bw="9" slack="0"/>
<pin id="101" dir="1" index="4" bw="16" slack="0"/>
</pin_list>
<bind>
<opcode="partselect(1002) " fcode="partselect"/>
<opset="tmp_my_port_V_load_n_1/1 "/>
</bind>
</comp>

<comp id="106" class="1004" name="icmp_ln879_fu_106">
<pin_list>
<pin id="107" dir="0" index="0" bw="16" slack="0"/>
<pin id="108" dir="0" index="1" bw="16" slack="0"/>
<pin id="109" dir="1" index="2" bw="1" slack="2147483647"/>
</pin_list>
<bind>
<opcode="icmp(45) " fcode="icmp"/>
<opset="icmp_ln879/1 "/>
</bind>
</comp>

</comp_list>

<net_list>
<net id="57"><net_src comp="32" pin="0"/><net_sink comp="52" pin=0"/></net>

<net id="58"><net_src comp="0" pin="0"/><net_sink comp="52" pin=1"/></net>

<net id="59"><net_src comp="24" pin="0"/><net_sink comp="52" pin=2"/></net>

<net id="64"><net_src comp="34" pin="0"/><net_sink comp="60" pin=0"/></net>

<net id="65"><net_src comp="0" pin="0"/><net_sink comp="60" pin=1"/></net>

<net id="71"><net_src comp="44" pin="0"/><net_sink comp="66" pin=0"/></net>

<net id="72"><net_src comp="8" pin="0"/><net_sink comp="66" pin=1"/></net>

<net id="73"><net_src comp="46" pin="0"/><net_sink comp="66" pin=2"/></net>

<net id="81"><net_src comp="48" pin="0"/><net_sink comp="74" pin=0"/></net>

<net id="82"><net_src comp="2" pin="0"/><net_sink comp="74" pin=1"/></net>

<net id="83"><net_src comp="4" pin="0"/><net_sink comp="74" pin=2"/></net>

<net id="84"><net_src comp="6" pin="0"/><net_sink comp="74" pin=3"/></net>

<net id="85"><net_src comp="24" pin="0"/><net_sink comp="74" pin=4"/></net>

<net id="92"><net_src comp="50" pin="0"/><net_sink comp="86" pin=0"/></net>

<net id="93"><net_src comp="2" pin="0"/><net_sink comp="86" pin=1"/></net>

<net id="94"><net_src comp="4" pin="0"/><net_sink comp="86" pin=2"/></net>

<net id="95"><net_src comp="6" pin="0"/><net_sink comp="86" pin=3"/></net>

<net id="102"><net_src comp="36" pin="0"/><net_sink comp="96" pin=0"/></net>

<net id="103"><net_src comp="60" pin="2"/><net_sink comp="96" pin=1"/></net>

<net id="104"><net_src comp="38" pin="0"/><net_sink comp="96" pin=2"/></net>

<net id="105"><net_src comp="40" pin="0"/><net_sink comp="96" pin=3"/></net>

<net id="110"><net_src comp="96" pin="4"/><net_sink comp="106" pin=0"/></net>

<net id="111"><net_src comp="42" pin="0"/><net_sink comp="106" pin=1"/></net>

</net_list>

</model> 
---------------- Datapath Model END ------------------

* FSMD analyzer results:
  - Output states:
	Port: rxMetaData_V | {}
	Port: rxData_V_data_V | {}
	Port: rxData_V_keep_V | {}
	Port: rxData_V_last_V | {}
	Port: doneSignalFifo_V | {1 }
 - Input state : 
	Port: check_for_response : rxMetaData_V | {1 }
	Port: check_for_response : rxData_V_data_V | {1 }
	Port: check_for_response : rxData_V_keep_V | {1 }
	Port: check_for_response : rxData_V_last_V | {1 }
	Port: check_for_response : doneSignalFifo_V | {}
  - Chain level:
	State 1
		icmp_ln879 : 1
		br_ln257 : 2


============================================================
+ Verbose Summary: Datapath Resource usage 
============================================================

* Functional unit list:
|----------|------------------------------|---------|---------|
| Operation|        Functional Unit       |    FF   |   LUT   |
|----------|------------------------------|---------|---------|
|   icmp   |       icmp_ln879_fu_106      |    0    |    13   |
|----------|------------------------------|---------|---------|
| nbreadreq|      tmp_nbreadreq_fu_52     |    0    |    0    |
|          |     tmp_8_nbreadreq_fu_74    |    0    |    0    |
|----------|------------------------------|---------|---------|
|   read   |        tmp1_read_fu_60       |    0    |    0    |
|          |       empty_read_fu_86       |    0    |    0    |
|----------|------------------------------|---------|---------|
|   write  |    write_ln259_write_fu_66   |    0    |    0    |
|----------|------------------------------|---------|---------|
|partselect| tmp_my_port_V_load_n_1_fu_96 |    0    |    0    |
|----------|------------------------------|---------|---------|
|   Total  |                              |    0    |    13   |
|----------|------------------------------|---------|---------|

Memories:
N/A

* Register list:
N/A

* Multiplexer (MUX) list: 
|--------|------|------|------|--------|
|  Comp  |  Pin | Size |  BW  | S x BW |
|--------|------|------|------|--------|
|  Total |      |      |      |    0   |
|--------|------|------|------|--------|



* Summary:
+-----------+--------+--------+
|           |   FF   |   LUT  |
+-----------+--------+--------+
|  Function |    0   |   13   |
|   Memory  |    -   |    -   |
|Multiplexer|    -   |    -   |
|  Register |    -   |    -   |
+-----------+--------+--------+
|   Total   |    0   |   13   |
+-----------+--------+--------+
