

================================================================
== Vivado HLS Report for 'clock'
================================================================
* Date:           Sat Dec 12 19:24:27 2020

* Version:        2019.2.1 (Build 2724168 on Thu Dec 05 05:19:09 MST 2019)
* Project:        iperf_udp_prj
* Solution:       solution1
* Product family: virtex7
* Target device:  xc7vx690t-ffg1761-2


================================================================
== Performance Estimates
================================================================
+ Timing: 
    * Summary: 
    +--------+---------+----------+------------+
    |  Clock |  Target | Estimated| Uncertainty|
    +--------+---------+----------+------------+
    |ap_clk  | 6.40 ns | 2.391 ns |   0.80 ns  |
    +--------+---------+----------+------------+

+ Latency: 
    * Summary: 
    +---------+---------+----------+----------+-----+-----+----------+
    |  Latency (cycles) |  Latency (absolute) |  Interval | Pipeline |
    |   min   |   max   |    min   |    max   | min | max |   Type   |
    +---------+---------+----------+----------+-----+-----+----------+
    |        1|        1| 6.400 ns | 6.400 ns |    1|    1| function |
    +---------+---------+----------+----------+-----+-----+----------+

    + Detail: 
        * Instance: 
        N/A

        * Loop: 
        N/A



================================================================
== Utilization Estimates
================================================================
* Summary: 
+-----------------+---------+-------+--------+--------+-----+
|       Name      | BRAM_18K| DSP48E|   FF   |   LUT  | URAM|
+-----------------+---------+-------+--------+--------+-----+
|DSP              |        -|      -|       -|       -|    -|
|Expression       |        -|      -|       0|      69|    -|
|FIFO             |        -|      -|       -|       -|    -|
|Instance         |        -|      -|       -|       -|    -|
|Memory           |        -|      -|       -|       -|    -|
|Multiplexer      |        -|      -|       -|      96|    -|
|Register         |        -|      -|      40|       -|    -|
+-----------------+---------+-------+--------+--------+-----+
|Total            |        0|      0|      40|     165|    0|
+-----------------+---------+-------+--------+--------+-----+
|Available        |     2940|   3600|  866400|  433200|    0|
+-----------------+---------+-------+--------+--------+-----+
|Utilization (%)  |        0|      0|   ~0   |   ~0   |    0|
+-----------------+---------+-------+--------+--------+-----+

+ Detail: 
    * Instance: 
    N/A

    * DSP48E: 
    N/A

    * Memory: 
    N/A

    * FIFO: 
    N/A

    * Expression: 
    +----------------------------------+----------+-------+---+----+------------+------------+
    |           Variable Name          | Operation| DSP48E| FF| LUT| Bitwidth P0| Bitwidth P1|
    +----------------------------------+----------+-------+---+----+------------+------------+
    |add_ln700_fu_120_p2               |     +    |      0|  0|  37|          30|           1|
    |ap_block_state2_pp0_stage0_iter1  |    and   |      0|  0|   2|           1|           1|
    |ap_condition_70                   |    and   |      0|  0|   2|           1|           1|
    |ap_predicate_op20_write_state2    |    and   |      0|  0|   2|           1|           1|
    |tmp_nbreadreq_fu_40_p3            |    and   |      0|  0|   2|           1|           0|
    |icmp_ln887_fu_114_p2              |   icmp   |      0|  0|  18|          30|          30|
    |ap_block_pp0_stage0_01001         |    or    |      0|  0|   2|           1|           1|
    |ap_block_state1_pp0_stage0_iter0  |    or    |      0|  0|   2|           1|           1|
    |ap_enable_pp0                     |    xor   |      0|  0|   2|           1|           2|
    +----------------------------------+----------+-------+---+----+------------+------------+
    |Total                             |          |      0|  0|  69|          67|          38|
    +----------------------------------+----------+-------+---+----+------------+------------+

    * Multiplexer: 
    +-------------------------------------------------+----+-----------+-----+-----------+
    |                       Name                      | LUT| Input Size| Bits| Total Bits|
    +-------------------------------------------------+----+-----------+-----+-----------+
    |ap_done                                          |   9|          2|    1|          2|
    |ap_phi_mux_startClock_flag_2_i_phi_fu_82_p4      |   9|          2|    1|          2|
    |ap_phi_mux_startClock_new_2_i_phi_fu_93_p4       |   9|          2|    1|          2|
    |ap_phi_reg_pp0_iter1_startClock_flag_1_i_reg_62  |  15|          3|    1|          3|
    |ap_phi_reg_pp0_iter1_startClock_flag_2_i_reg_78  |   9|          2|    1|          2|
    |ap_phi_reg_pp0_iter1_startClock_new_2_i_reg_90   |   9|          2|    1|          2|
    |ap_sig_allocacmp_startClock_load                 |   9|          2|    1|          2|
    |startSignalFifo_V_blk_n                          |   9|          2|    1|          2|
    |stopSignalFifo_V_blk_n                           |   9|          2|    1|          2|
    |time_V                                           |   9|          2|   30|         60|
    +-------------------------------------------------+----+-----------+-----+-----------+
    |Total                                            |  96|         21|   39|         79|
    +-------------------------------------------------+----+-----------+-----+-----------+

    * Register: 
    +-------------------------------------------------+----+----+-----+-----------+
    |                       Name                      | FF | LUT| Bits| Const Bits|
    +-------------------------------------------------+----+----+-----+-----------+
    |ap_CS_fsm                                        |   1|   0|    1|          0|
    |ap_done_reg                                      |   1|   0|    1|          0|
    |ap_enable_reg_pp0_iter1                          |   1|   0|    1|          0|
    |ap_phi_reg_pp0_iter1_startClock_flag_1_i_reg_62  |   1|   0|    1|          0|
    |ap_phi_reg_pp0_iter1_startClock_flag_2_i_reg_78  |   1|   0|    1|          0|
    |ap_phi_reg_pp0_iter1_startClock_new_2_i_reg_90   |   1|   0|    1|          0|
    |icmp_ln887_reg_142                               |   1|   0|    1|          0|
    |startClock                                       |   1|   0|    1|          0|
    |startClock_load_reg_138                          |   1|   0|    1|          0|
    |time_V                                           |  30|   0|   30|          0|
    |tmp_reg_146                                      |   1|   0|    1|          0|
    +-------------------------------------------------+----+----+-----+-----------+
    |Total                                            |  40|   0|   40|          0|
    +-------------------------------------------------+----+----+-----+-----------+



================================================================
== Interface
================================================================
* Summary: 
+---------------------------+-----+-----+------------+-------------------+--------------+
|         RTL Ports         | Dir | Bits|  Protocol  |   Source Object   |    C Type    |
+---------------------------+-----+-----+------------+-------------------+--------------+
|ap_clk                     |  in |    1| ap_ctrl_hs |       clock       | return value |
|ap_rst                     |  in |    1| ap_ctrl_hs |       clock       | return value |
|ap_start                   |  in |    1| ap_ctrl_hs |       clock       | return value |
|ap_done                    | out |    1| ap_ctrl_hs |       clock       | return value |
|ap_continue                |  in |    1| ap_ctrl_hs |       clock       | return value |
|ap_idle                    | out |    1| ap_ctrl_hs |       clock       | return value |
|ap_ready                   | out |    1| ap_ctrl_hs |       clock       | return value |
|startSignalFifo_V_dout     |  in |    1|   ap_fifo  | startSignalFifo_V |    pointer   |
|startSignalFifo_V_empty_n  |  in |    1|   ap_fifo  | startSignalFifo_V |    pointer   |
|startSignalFifo_V_read     | out |    1|   ap_fifo  | startSignalFifo_V |    pointer   |
|stopSignalFifo_V_din       | out |    1|   ap_fifo  |  stopSignalFifo_V |    pointer   |
|stopSignalFifo_V_full_n    |  in |    1|   ap_fifo  |  stopSignalFifo_V |    pointer   |
|stopSignalFifo_V_write     | out |    1|   ap_fifo  |  stopSignalFifo_V |    pointer   |
+---------------------------+-----+-----+------------+-------------------+--------------+

============================================================
+ Verbose Summary: Synthesis Manager
============================================================
InlineROM: 1
ExposeGlobal: 0
============================================================
+ Verbose Summary: CDFG Model
============================================================
IsTopModel: 0
ResetActiveHigh: 1
IsCombinational: 2
IsDatapathOnly: 0
HasWiredReturn: 1
HasMFsm: 2
HasVarLatency: 0
IsPipeline: 1
IsRtlPipelined: 1
IsInstanceOverlapped: 0
IsDontTouch: 0
HasImplIP: 0
IsGatedGlobalClock: 0

+ Individual pipeline summary: 
  * Pipeline-0: initiation interval (II) = 1, depth = 2


============================================================
+ Verbose Summary: Schedule
============================================================
* Number of FSM states : 2
* Pipeline : 1
  Pipeline-0 : II = 1, D = 2, States = { 1 2 }
* Dataflow Pipeline: 0

* FSM state transitions: 
1 --> 2 
2 --> 

* FSM state operations: 

State 1 <SV = 0> <Delay = 2.39>
ST_1 : Operation 3 [1/1] (0.00ns)   --->   "%startClock_load = load i1* @startClock, align 1" [/home/paulrr2/Projects/ece527/babelsoc/fpga-network-stack/hls/iperf_udp/iperf_udp.cpp:224]   --->   Operation 3 'load' 'startClock_load' <Predicate = true> <Delay = 0.00>
ST_1 : Operation 4 [1/1] (0.00ns)   --->   "%time_V_load = load i30* @time_V, align 4" [/home/paulrr2/Projects/ece527/babelsoc/fpga-network-stack/hls/iperf_udp/iperf_udp.cpp:226]   --->   Operation 4 'load' 'time_V_load' <Predicate = true> <Delay = 0.00>
ST_1 : Operation 5 [1/1] (0.00ns)   --->   "br i1 %startClock_load, label %0, label %3" [/home/paulrr2/Projects/ece527/babelsoc/fpga-network-stack/hls/iperf_udp/iperf_udp.cpp:224]   --->   Operation 5 'br' <Predicate = true> <Delay = 0.00>
ST_1 : Operation 6 [1/1] (0.85ns)   --->   "store i30 0, i30* @time_V, align 4" [/home/paulrr2/Projects/ece527/babelsoc/fpga-network-stack/hls/iperf_udp/iperf_udp.cpp:238]   --->   Operation 6 'store' <Predicate = (!startClock_load)> <Delay = 0.85>
ST_1 : Operation 7 [1/1] (0.85ns)   --->   "br label %4"   --->   Operation 7 'br' <Predicate = (!startClock_load)> <Delay = 0.85>
ST_1 : Operation 8 [1/1] (1.25ns)   --->   "%icmp_ln887 = icmp ult i30 %time_V_load, -292491824" [/home/paulrr2/Projects/ece527/babelsoc/fpga-network-stack/hls/iperf_udp/iperf_udp.cpp:226]   --->   Operation 8 'icmp' 'icmp_ln887' <Predicate = (startClock_load)> <Delay = 1.25> <Core = "Cmp">   --->   Core 25 'Cmp' <Latency = 0> <II = 1> <Delay = 1.25> <FuncUnit> <Opcode : 'icmp'> <InPorts = 2> <OutPorts = 1>
ST_1 : Operation 9 [1/1] (0.00ns)   --->   "br i1 %icmp_ln887, label %1, label %2" [/home/paulrr2/Projects/ece527/babelsoc/fpga-network-stack/hls/iperf_udp/iperf_udp.cpp:226]   --->   Operation 9 'br' <Predicate = (startClock_load)> <Delay = 0.00>
ST_1 : Operation 10 [1/1] (0.85ns)   --->   "br label %4"   --->   Operation 10 'br' <Predicate = (startClock_load & !icmp_ln887)> <Delay = 0.85>
ST_1 : Operation 11 [1/1] (1.48ns)   --->   "%add_ln700 = add i30 %time_V_load, 1" [/home/paulrr2/Projects/ece527/babelsoc/fpga-network-stack/hls/iperf_udp/iperf_udp.cpp:228]   --->   Operation 11 'add' 'add_ln700' <Predicate = (startClock_load & icmp_ln887)> <Delay = 1.48> <Core = "AddSub">   --->   Core 14 'AddSub' <Latency = 0> <II = 1> <Delay = 1.48> <FuncUnit> <Opcode : 'add' 'sub'> <InPorts = 2> <OutPorts = 1>
ST_1 : Operation 12 [1/1] (0.85ns)   --->   "store i30 %add_ln700, i30* @time_V, align 4" [/home/paulrr2/Projects/ece527/babelsoc/fpga-network-stack/hls/iperf_udp/iperf_udp.cpp:228]   --->   Operation 12 'store' <Predicate = (startClock_load & icmp_ln887)> <Delay = 0.85>
ST_1 : Operation 13 [1/1] (0.85ns)   --->   "br label %4" [/home/paulrr2/Projects/ece527/babelsoc/fpga-network-stack/hls/iperf_udp/iperf_udp.cpp:229]   --->   Operation 13 'br' <Predicate = (startClock_load & icmp_ln887)> <Delay = 0.85>
ST_1 : Operation 14 [1/1] (0.00ns)   --->   "%tmp = call i1 @_ssdm_op_NbReadReq.ap_fifo.i1P(i1* @startSignalFifo_V, i32 1) nounwind" [/home/paulrr2/Projects/ece527/babelsoc/fpga-network-stack/hls/iperf_udp/iperf_udp.cpp:241]   --->   Operation 14 'nbreadreq' 'tmp' <Predicate = true> <Delay = 0.00> <Core = "FIFO">   --->   Core 32 'FIFO' <Latency = 0> <II = 1> <Delay = 2.39> <Storage> <Opcode : 'read' 'write' 'nbread' 'nbwrite'> <Ports = 0> <Width = 1> <Depth = 2> <FIFO>
ST_1 : Operation 15 [1/1] (2.39ns)   --->   "%tmp_1 = call i1 @_ssdm_op_Read.ap_fifo.volatile.i1P(i1* @startSignalFifo_V) nounwind" [/home/paulrr2/Projects/ece527/babelsoc/fpga-network-stack/hls/iperf_udp/iperf_udp.cpp:243]   --->   Operation 15 'read' 'tmp_1' <Predicate = (tmp)> <Delay = 2.39> <Core = "FIFO">   --->   Core 32 'FIFO' <Latency = 0> <II = 1> <Delay = 2.39> <Storage> <Opcode : 'read' 'write' 'nbread' 'nbwrite'> <Ports = 0> <Width = 1> <Depth = 2> <FIFO>
ST_1 : Operation 16 [1/1] (0.85ns)   --->   "br label %._crit_edge1.i" [/home/paulrr2/Projects/ece527/babelsoc/fpga-network-stack/hls/iperf_udp/iperf_udp.cpp:244]   --->   Operation 16 'br' <Predicate = (tmp)> <Delay = 0.85>

State 2 <SV = 1> <Delay = 2.39>
ST_2 : Operation 17 [1/1] (0.00ns)   --->   "call void (...)* @_ssdm_op_SpecInterface(i1* @startSignalFifo_V, [8 x i8]* @ap_fifo_str, i32 0, i32 0, [1 x i8]* @p_str, i32 0, i32 0, [1 x i8]* @p_str, [1 x i8]* @p_str, [1 x i8]* @p_str, i32 2, i32 2, i32 16, i32 16, [1 x i8]* @p_str, [1 x i8]* @p_str)"   --->   Operation 17 'specinterface' <Predicate = true> <Delay = 0.00>
ST_2 : Operation 18 [1/1] (0.00ns)   --->   "call void (...)* @_ssdm_op_SpecInterface(i1* @stopSignalFifo_V, [8 x i8]* @ap_fifo_str, i32 0, i32 0, [1 x i8]* @p_str, i32 0, i32 0, [1 x i8]* @p_str, [1 x i8]* @p_str, [1 x i8]* @p_str, i32 2, i32 2, i32 16, i32 16, [1 x i8]* @p_str, [1 x i8]* @p_str)"   --->   Operation 18 'specinterface' <Predicate = true> <Delay = 0.00>
ST_2 : Operation 19 [1/1] (0.00ns)   --->   "call void (...)* @_ssdm_op_SpecPipeline(i32 1, i32 1, i32 1, i32 0, [1 x i8]* @p_str) nounwind" [/home/paulrr2/Projects/ece527/babelsoc/fpga-network-stack/hls/iperf_udp/iperf_udp.cpp:219]   --->   Operation 19 'specpipeline' <Predicate = true> <Delay = 0.00>
ST_2 : Operation 20 [1/1] (2.39ns)   --->   "call void @_ssdm_op_Write.ap_fifo.volatile.i1P(i1* @stopSignalFifo_V, i1 true) nounwind" [/home/paulrr2/Projects/ece527/babelsoc/fpga-network-stack/hls/iperf_udp/iperf_udp.cpp:233]   --->   Operation 20 'write' <Predicate = (startClock_load & !icmp_ln887)> <Delay = 2.39> <Core = "FIFO">   --->   Core 32 'FIFO' <Latency = 0> <II = 1> <Delay = 2.39> <Storage> <Opcode : 'read' 'write' 'nbread' 'nbwrite'> <Ports = 0> <Width = 1> <Depth = 2> <FIFO>
ST_2 : Operation 21 [1/1] (0.00ns)   --->   "%startClock_flag_1_i = phi i1 [ false, %3 ], [ false, %1 ], [ true, %2 ]"   --->   Operation 21 'phi' 'startClock_flag_1_i' <Predicate = true> <Delay = 0.00>
ST_2 : Operation 22 [1/1] (0.85ns)   --->   "br i1 %tmp, label %5, label %._crit_edge1.i" [/home/paulrr2/Projects/ece527/babelsoc/fpga-network-stack/hls/iperf_udp/iperf_udp.cpp:241]   --->   Operation 22 'br' <Predicate = true> <Delay = 0.85>
ST_2 : Operation 23 [1/1] (0.00ns)   --->   "%startClock_flag_2_i = phi i1 [ true, %5 ], [ %startClock_flag_1_i, %4 ]"   --->   Operation 23 'phi' 'startClock_flag_2_i' <Predicate = true> <Delay = 0.00>
ST_2 : Operation 24 [1/1] (0.00ns)   --->   "%startClock_new_2_i = phi i1 [ %tmp_1, %5 ], [ false, %4 ]"   --->   Operation 24 'phi' 'startClock_new_2_i' <Predicate = true> <Delay = 0.00>
ST_2 : Operation 25 [1/1] (0.00ns)   --->   "br i1 %startClock_flag_2_i, label %mergeST.i, label %clock.exit"   --->   Operation 25 'br' <Predicate = true> <Delay = 0.00>
ST_2 : Operation 26 [1/1] (0.00ns)   --->   "store i1 %startClock_new_2_i, i1* @startClock, align 1" [/home/paulrr2/Projects/ece527/babelsoc/fpga-network-stack/hls/iperf_udp/iperf_udp.cpp:232]   --->   Operation 26 'store' <Predicate = (startClock_flag_2_i)> <Delay = 0.00>
ST_2 : Operation 27 [1/1] (0.00ns)   --->   "br label %clock.exit"   --->   Operation 27 'br' <Predicate = (startClock_flag_2_i)> <Delay = 0.00>
ST_2 : Operation 28 [1/1] (0.00ns)   --->   "ret void"   --->   Operation 28 'ret' <Predicate = true> <Delay = 0.00>


============================================================
+ Verbose Summary: Binding
============================================================
STG Binding: 
---------------- STG Properties BEGIN ----------------
- Is combinational: 0
- Is one-state seq: 0
- Is datapath-only: 0
- Is pipelined: 1
- Is top level: 0
Port [ Return ] is wired: 1; IO mode=ap_ctrl_hs:ce=0
Port [ startClock]:  wired=0; compound=0; hidden=1; nouse=0; global=1; static=1; extern=0; dir=2; type=0; pingpong=0; private_global=1; linkage=7; visibility=0; IO mode=ap_ovld:ce=0
Port [ time_V]:  wired=0; compound=0; hidden=1; nouse=0; global=1; static=1; extern=0; dir=2; type=0; pingpong=0; private_global=1; linkage=7; visibility=0; IO mode=ap_ovld:ce=0
Port [ stopSignalFifo_V]:  wired=1; compound=1; hidden=0; nouse=0; global=1; static=1; extern=0; dir=1; type=3; pingpong=0; private_global=0; linkage=7; visibility=0; IO mode=ap_fifo:ce=0
Port [ startSignalFifo_V]:  wired=1; compound=1; hidden=0; nouse=0; global=1; static=1; extern=0; dir=0; type=3; pingpong=0; private_global=0; linkage=7; visibility=0; IO mode=ap_fifo:ce=0
---------------- STG Properties END ------------------

---------------- Datapath Model BEGIN ----------------

<LifeTime>
<method=bitvector/>
startClock_load     (load         ) [ 011]
time_V_load         (load         ) [ 000]
br_ln224            (br           ) [ 000]
store_ln238         (store        ) [ 000]
br_ln0              (br           ) [ 011]
icmp_ln887          (icmp         ) [ 011]
br_ln226            (br           ) [ 000]
br_ln0              (br           ) [ 011]
add_ln700           (add          ) [ 000]
store_ln228         (store        ) [ 000]
br_ln229            (br           ) [ 011]
tmp                 (nbreadreq    ) [ 011]
tmp_1               (read         ) [ 011]
br_ln244            (br           ) [ 011]
specinterface_ln0   (specinterface) [ 000]
specinterface_ln0   (specinterface) [ 000]
specpipeline_ln219  (specpipeline ) [ 000]
write_ln233         (write        ) [ 000]
startClock_flag_1_i (phi          ) [ 011]
br_ln241            (br           ) [ 000]
startClock_flag_2_i (phi          ) [ 011]
startClock_new_2_i  (phi          ) [ 011]
br_ln0              (br           ) [ 000]
store_ln232         (store        ) [ 000]
br_ln0              (br           ) [ 000]
ret_ln0             (ret          ) [ 000]
</LifeTime>

<model>

<comp_list>
<comp id="0" class="1000" name="startClock">
<pin_list>
<pin id="1" dir="1" index="0" bw="1" slack="0"/>
</pin_list>
<bind>
<StgValue><ssdm name="startClock"/></StgValue>
</bind>
</comp>

<comp id="2" class="1000" name="time_V">
<pin_list>
<pin id="3" dir="1" index="0" bw="1" slack="0"/>
</pin_list>
<bind>
<StgValue><ssdm name="time_V"/></StgValue>
</bind>
</comp>

<comp id="4" class="1000" name="stopSignalFifo_V">
<pin_list>
<pin id="5" dir="1" index="0" bw="1" slack="0"/>
</pin_list>
<bind>
<StgValue><ssdm name="stopSignalFifo_V"/></StgValue>
</bind>
</comp>

<comp id="6" class="1000" name="startSignalFifo_V">
<pin_list>
<pin id="7" dir="1" index="0" bw="1" slack="0"/>
</pin_list>
<bind>
<StgValue><ssdm name="startSignalFifo_V"/></StgValue>
</bind>
</comp>

<comp id="8" class="1001" name="const_8">
<pin_list>
<pin id="9" dir="1" index="0" bw="1" slack="0"/>
</pin_list>
<bind>
<StgValue><ssdm name=""/></StgValue>
</bind>
</comp>

<comp id="10" class="1001" name="const_10">
<pin_list>
<pin id="11" dir="1" index="0" bw="1" slack="0"/>
</pin_list>
<bind>
<StgValue><ssdm name=""/></StgValue>
</bind>
</comp>

<comp id="12" class="1001" name="const_12">
<pin_list>
<pin id="13" dir="1" index="0" bw="1" slack="0"/>
</pin_list>
<bind>
<StgValue><ssdm name=""/></StgValue>
</bind>
</comp>

<comp id="14" class="1001" name="const_14">
<pin_list>
<pin id="15" dir="1" index="0" bw="1" slack="0"/>
</pin_list>
<bind>
<StgValue><ssdm name="_ssdm_op_NbReadReq.ap_fifo.i1P"/></StgValue>
</bind>
</comp>

<comp id="16" class="1001" name="const_16">
<pin_list>
<pin id="17" dir="1" index="0" bw="1" slack="0"/>
</pin_list>
<bind>
<StgValue><ssdm name=""/></StgValue>
</bind>
</comp>

<comp id="18" class="1001" name="const_18">
<pin_list>
<pin id="19" dir="1" index="0" bw="1" slack="0"/>
</pin_list>
<bind>
<StgValue><ssdm name="_ssdm_op_Read.ap_fifo.volatile.i1P"/></StgValue>
</bind>
</comp>

<comp id="20" class="1001" name="const_20">
<pin_list>
<pin id="21" dir="1" index="0" bw="1" slack="2147483647"/>
</pin_list>
<bind>
<StgValue><ssdm name="_ssdm_op_SpecInterface"/></StgValue>
</bind>
</comp>

<comp id="22" class="1001" name="const_22">
<pin_list>
<pin id="23" dir="1" index="0" bw="1" slack="2147483647"/>
</pin_list>
<bind>
<StgValue><ssdm name="ap_fifo_str"/></StgValue>
</bind>
</comp>

<comp id="24" class="1001" name="const_24">
<pin_list>
<pin id="25" dir="1" index="0" bw="1" slack="2147483647"/>
</pin_list>
<bind>
<StgValue><ssdm name=""/></StgValue>
</bind>
</comp>

<comp id="26" class="1001" name="const_26">
<pin_list>
<pin id="27" dir="1" index="0" bw="1" slack="2147483647"/>
</pin_list>
<bind>
<StgValue><ssdm name="p_str"/></StgValue>
</bind>
</comp>

<comp id="28" class="1001" name="const_28">
<pin_list>
<pin id="29" dir="1" index="0" bw="1" slack="2147483647"/>
</pin_list>
<bind>
<StgValue><ssdm name=""/></StgValue>
</bind>
</comp>

<comp id="30" class="1001" name="const_30">
<pin_list>
<pin id="31" dir="1" index="0" bw="1" slack="2147483647"/>
</pin_list>
<bind>
<StgValue><ssdm name=""/></StgValue>
</bind>
</comp>

<comp id="32" class="1001" name="const_32">
<pin_list>
<pin id="33" dir="1" index="0" bw="1" slack="2147483647"/>
</pin_list>
<bind>
<StgValue><ssdm name="_ssdm_op_SpecPipeline"/></StgValue>
</bind>
</comp>

<comp id="34" class="1001" name="const_34">
<pin_list>
<pin id="35" dir="1" index="0" bw="1" slack="0"/>
</pin_list>
<bind>
<StgValue><ssdm name="_ssdm_op_Write.ap_fifo.volatile.i1P"/></StgValue>
</bind>
</comp>

<comp id="36" class="1001" name="const_36">
<pin_list>
<pin id="37" dir="1" index="0" bw="1" slack="0"/>
</pin_list>
<bind>
<StgValue><ssdm name=""/></StgValue>
</bind>
</comp>

<comp id="38" class="1001" name="const_38">
<pin_list>
<pin id="39" dir="1" index="0" bw="1" slack="0"/>
</pin_list>
<bind>
<StgValue><ssdm name=""/></StgValue>
</bind>
</comp>

<comp id="40" class="1004" name="tmp_nbreadreq_fu_40">
<pin_list>
<pin id="41" dir="0" index="0" bw="1" slack="0"/>
<pin id="42" dir="0" index="1" bw="1" slack="0"/>
<pin id="43" dir="0" index="2" bw="1" slack="0"/>
<pin id="44" dir="1" index="3" bw="1" slack="1"/>
</pin_list>
<bind>
<opcode="nbreadreq(1156) " fcode="nbreadreq"/>
<opset="tmp/1 "/>
</bind>
</comp>

<comp id="48" class="1004" name="tmp_1_read_fu_48">
<pin_list>
<pin id="49" dir="0" index="0" bw="1" slack="0"/>
<pin id="50" dir="0" index="1" bw="1" slack="0"/>
<pin id="51" dir="1" index="2" bw="1" slack="1"/>
</pin_list>
<bind>
<opcode="read(1150) " fcode="read"/>
<opset="tmp_1/1 "/>
</bind>
</comp>

<comp id="54" class="1004" name="write_ln233_write_fu_54">
<pin_list>
<pin id="55" dir="0" index="0" bw="0" slack="0"/>
<pin id="56" dir="0" index="1" bw="1" slack="0"/>
<pin id="57" dir="0" index="2" bw="1" slack="0"/>
<pin id="58" dir="1" index="3" bw="0" slack="2147483647"/>
</pin_list>
<bind>
<opcode="write(1151) " fcode="write"/>
<opset="write_ln233/2 "/>
</bind>
</comp>

<comp id="62" class="1005" name="startClock_flag_1_i_reg_62">
<pin_list>
<pin id="63" dir="0" index="0" bw="1" slack="1"/>
<pin id="64" dir="1" index="1" bw="1" slack="1"/>
</pin_list>
<bind>
<opset="startClock_flag_1_i (phireg) "/>
</bind>
</comp>

<comp id="67" class="1004" name="startClock_flag_1_i_phi_fu_67">
<pin_list>
<pin id="68" dir="0" index="0" bw="1" slack="1"/>
<pin id="69" dir="0" index="1" bw="0" slack="2147483647"/>
<pin id="70" dir="0" index="2" bw="1" slack="1"/>
<pin id="71" dir="0" index="3" bw="0" slack="2147483647"/>
<pin id="72" dir="0" index="4" bw="1" slack="1"/>
<pin id="73" dir="0" index="5" bw="0" slack="2147483647"/>
<pin id="74" dir="1" index="6" bw="1" slack="0"/>
</pin_list>
<bind>
<opcode="phi(47) " fcode="phi"/>
<opset="startClock_flag_1_i/2 "/>
</bind>
</comp>

<comp id="78" class="1005" name="startClock_flag_2_i_reg_78">
<pin_list>
<pin id="79" dir="0" index="0" bw="1" slack="1"/>
<pin id="80" dir="1" index="1" bw="1" slack="1"/>
</pin_list>
<bind>
<opset="startClock_flag_2_i (phireg) "/>
</bind>
</comp>

<comp id="82" class="1004" name="startClock_flag_2_i_phi_fu_82">
<pin_list>
<pin id="83" dir="0" index="0" bw="1" slack="1"/>
<pin id="84" dir="0" index="1" bw="0" slack="2147483647"/>
<pin id="85" dir="0" index="2" bw="1" slack="0"/>
<pin id="86" dir="0" index="3" bw="0" slack="2147483647"/>
<pin id="87" dir="1" index="4" bw="1" slack="2147483647"/>
</pin_list>
<bind>
<opcode="phi(47) " fcode="phi"/>
<opset="startClock_flag_2_i/2 "/>
</bind>
</comp>

<comp id="90" class="1005" name="startClock_new_2_i_reg_90">
<pin_list>
<pin id="91" dir="0" index="0" bw="1" slack="2147483647"/>
<pin id="92" dir="1" index="1" bw="1" slack="2147483647"/>
</pin_list>
<bind>
<opset="startClock_new_2_i (phireg) "/>
</bind>
</comp>

<comp id="93" class="1004" name="startClock_new_2_i_phi_fu_93">
<pin_list>
<pin id="94" dir="0" index="0" bw="1" slack="1"/>
<pin id="95" dir="0" index="1" bw="0" slack="2147483647"/>
<pin id="96" dir="0" index="2" bw="1" slack="0"/>
<pin id="97" dir="0" index="3" bw="0" slack="2147483647"/>
<pin id="98" dir="1" index="4" bw="1" slack="0"/>
</pin_list>
<bind>
<opcode="phi(47) " fcode="phi"/>
<opset="startClock_new_2_i/2 "/>
</bind>
</comp>

<comp id="100" class="1004" name="startClock_load_load_fu_100">
<pin_list>
<pin id="101" dir="0" index="0" bw="1" slack="0"/>
<pin id="102" dir="1" index="1" bw="1" slack="1"/>
</pin_list>
<bind>
<opcode="load(27) " fcode="load"/>
<opset="startClock_load/1 "/>
</bind>
</comp>

<comp id="104" class="1004" name="time_V_load_load_fu_104">
<pin_list>
<pin id="105" dir="0" index="0" bw="30" slack="0"/>
<pin id="106" dir="1" index="1" bw="30" slack="0"/>
</pin_list>
<bind>
<opcode="load(27) " fcode="load"/>
<opset="time_V_load/1 "/>
</bind>
</comp>

<comp id="108" class="1004" name="store_ln238_store_fu_108">
<pin_list>
<pin id="109" dir="0" index="0" bw="1" slack="0"/>
<pin id="110" dir="0" index="1" bw="30" slack="0"/>
<pin id="111" dir="1" index="2" bw="0" slack="2147483647"/>
</pin_list>
<bind>
<opcode="store(28) " fcode="store"/>
<opset="store_ln238/1 "/>
</bind>
</comp>

<comp id="114" class="1004" name="icmp_ln887_fu_114">
<pin_list>
<pin id="115" dir="0" index="0" bw="30" slack="0"/>
<pin id="116" dir="0" index="1" bw="30" slack="0"/>
<pin id="117" dir="1" index="2" bw="1" slack="1"/>
</pin_list>
<bind>
<opcode="icmp(45) " fcode="icmp"/>
<opset="icmp_ln887/1 "/>
</bind>
</comp>

<comp id="120" class="1004" name="add_ln700_fu_120">
<pin_list>
<pin id="121" dir="0" index="0" bw="30" slack="0"/>
<pin id="122" dir="0" index="1" bw="1" slack="0"/>
<pin id="123" dir="1" index="2" bw="30" slack="0"/>
</pin_list>
<bind>
<opcode="add(8) " fcode="add"/>
<opset="add_ln700/1 "/>
</bind>
</comp>

<comp id="126" class="1004" name="store_ln228_store_fu_126">
<pin_list>
<pin id="127" dir="0" index="0" bw="30" slack="0"/>
<pin id="128" dir="0" index="1" bw="30" slack="0"/>
<pin id="129" dir="1" index="2" bw="0" slack="2147483647"/>
</pin_list>
<bind>
<opcode="store(28) " fcode="store"/>
<opset="store_ln228/1 "/>
</bind>
</comp>

<comp id="132" class="1004" name="store_ln232_store_fu_132">
<pin_list>
<pin id="133" dir="0" index="0" bw="1" slack="0"/>
<pin id="134" dir="0" index="1" bw="1" slack="0"/>
<pin id="135" dir="1" index="2" bw="0" slack="2147483647"/>
</pin_list>
<bind>
<opcode="store(28) " fcode="store"/>
<opset="store_ln232/2 "/>
</bind>
</comp>

<comp id="138" class="1005" name="startClock_load_reg_138">
<pin_list>
<pin id="139" dir="0" index="0" bw="1" slack="1"/>
<pin id="140" dir="1" index="1" bw="1" slack="2147483647"/>
</pin_list>
<bind>
<opset="startClock_load "/>
</bind>
</comp>

<comp id="142" class="1005" name="icmp_ln887_reg_142">
<pin_list>
<pin id="143" dir="0" index="0" bw="1" slack="1"/>
<pin id="144" dir="1" index="1" bw="1" slack="2147483647"/>
</pin_list>
<bind>
<opset="icmp_ln887 "/>
</bind>
</comp>

<comp id="146" class="1005" name="tmp_reg_146">
<pin_list>
<pin id="147" dir="0" index="0" bw="1" slack="1"/>
<pin id="148" dir="1" index="1" bw="1" slack="2147483647"/>
</pin_list>
<bind>
<opset="tmp "/>
</bind>
</comp>

<comp id="150" class="1005" name="tmp_1_reg_150">
<pin_list>
<pin id="151" dir="0" index="0" bw="1" slack="1"/>
<pin id="152" dir="1" index="1" bw="1" slack="1"/>
</pin_list>
<bind>
<opset="tmp_1 "/>
</bind>
</comp>

</comp_list>

<net_list>
<net id="45"><net_src comp="14" pin="0"/><net_sink comp="40" pin=0"/></net>

<net id="46"><net_src comp="6" pin="0"/><net_sink comp="40" pin=1"/></net>

<net id="47"><net_src comp="16" pin="0"/><net_sink comp="40" pin=2"/></net>

<net id="52"><net_src comp="18" pin="0"/><net_sink comp="48" pin=0"/></net>

<net id="53"><net_src comp="6" pin="0"/><net_sink comp="48" pin=1"/></net>

<net id="59"><net_src comp="34" pin="0"/><net_sink comp="54" pin=0"/></net>

<net id="60"><net_src comp="4" pin="0"/><net_sink comp="54" pin=1"/></net>

<net id="61"><net_src comp="36" pin="0"/><net_sink comp="54" pin=2"/></net>

<net id="65"><net_src comp="38" pin="0"/><net_sink comp="62" pin=0"/></net>

<net id="66"><net_src comp="36" pin="0"/><net_sink comp="62" pin=0"/></net>

<net id="75"><net_src comp="62" pin="1"/><net_sink comp="67" pin=0"/></net>

<net id="76"><net_src comp="62" pin="1"/><net_sink comp="67" pin=2"/></net>

<net id="77"><net_src comp="62" pin="1"/><net_sink comp="67" pin=4"/></net>

<net id="81"><net_src comp="36" pin="0"/><net_sink comp="78" pin=0"/></net>

<net id="88"><net_src comp="78" pin="1"/><net_sink comp="82" pin=0"/></net>

<net id="89"><net_src comp="67" pin="6"/><net_sink comp="82" pin=2"/></net>

<net id="99"><net_src comp="38" pin="0"/><net_sink comp="93" pin=2"/></net>

<net id="103"><net_src comp="0" pin="0"/><net_sink comp="100" pin=0"/></net>

<net id="107"><net_src comp="2" pin="0"/><net_sink comp="104" pin=0"/></net>

<net id="112"><net_src comp="8" pin="0"/><net_sink comp="108" pin=0"/></net>

<net id="113"><net_src comp="2" pin="0"/><net_sink comp="108" pin=1"/></net>

<net id="118"><net_src comp="104" pin="1"/><net_sink comp="114" pin=0"/></net>

<net id="119"><net_src comp="10" pin="0"/><net_sink comp="114" pin=1"/></net>

<net id="124"><net_src comp="104" pin="1"/><net_sink comp="120" pin=0"/></net>

<net id="125"><net_src comp="12" pin="0"/><net_sink comp="120" pin=1"/></net>

<net id="130"><net_src comp="120" pin="2"/><net_sink comp="126" pin=0"/></net>

<net id="131"><net_src comp="2" pin="0"/><net_sink comp="126" pin=1"/></net>

<net id="136"><net_src comp="93" pin="4"/><net_sink comp="132" pin=0"/></net>

<net id="137"><net_src comp="0" pin="0"/><net_sink comp="132" pin=1"/></net>

<net id="141"><net_src comp="100" pin="1"/><net_sink comp="138" pin=0"/></net>

<net id="145"><net_src comp="114" pin="2"/><net_sink comp="142" pin=0"/></net>

<net id="149"><net_src comp="40" pin="3"/><net_sink comp="146" pin=0"/></net>

<net id="153"><net_src comp="48" pin="2"/><net_sink comp="150" pin=0"/></net>

<net id="154"><net_src comp="150" pin="1"/><net_sink comp="93" pin=0"/></net>

</net_list>

</model> 
---------------- Datapath Model END ------------------

* FSMD analyzer results:
  - Output states:
	Port: startClock | {2 }
	Port: time_V | {1 }
	Port: stopSignalFifo_V | {2 }
	Port: startSignalFifo_V | {}
 - Input state : 
	Port: clock : startClock | {1 }
	Port: clock : time_V | {1 }
	Port: clock : stopSignalFifo_V | {}
	Port: clock : startSignalFifo_V | {1 }
  - Chain level:
	State 1
		br_ln224 : 1
		icmp_ln887 : 1
		br_ln226 : 2
		add_ln700 : 1
		store_ln228 : 2
	State 2
		startClock_flag_2_i : 1
		startClock_new_2_i : 1
		br_ln0 : 2
		store_ln232 : 2


============================================================
+ Verbose Summary: Datapath Resource usage 
============================================================

* Functional unit list:
|----------|-------------------------|---------|---------|
| Operation|     Functional Unit     |    FF   |   LUT   |
|----------|-------------------------|---------|---------|
|    add   |     add_ln700_fu_120    |    0    |    37   |
|----------|-------------------------|---------|---------|
|   icmp   |    icmp_ln887_fu_114    |    0    |    18   |
|----------|-------------------------|---------|---------|
| nbreadreq|   tmp_nbreadreq_fu_40   |    0    |    0    |
|----------|-------------------------|---------|---------|
|   read   |     tmp_1_read_fu_48    |    0    |    0    |
|----------|-------------------------|---------|---------|
|   write  | write_ln233_write_fu_54 |    0    |    0    |
|----------|-------------------------|---------|---------|
|   Total  |                         |    0    |    55   |
|----------|-------------------------|---------|---------|

Memories:
N/A

* Register list:
+--------------------------+--------+
|                          |   FF   |
+--------------------------+--------+
|    icmp_ln887_reg_142    |    1   |
|startClock_flag_1_i_reg_62|    1   |
|startClock_flag_2_i_reg_78|    1   |
|  startClock_load_reg_138 |    1   |
| startClock_new_2_i_reg_90|    1   |
|       tmp_1_reg_150      |    1   |
|        tmp_reg_146       |    1   |
+--------------------------+--------+
|           Total          |    7   |
+--------------------------+--------+

* Multiplexer (MUX) list: 
|----------------------------|------|------|------|--------||---------|
|            Comp            |  Pin | Size |  BW  | S x BW ||  Delay  |
|----------------------------|------|------|------|--------||---------|
| startClock_flag_1_i_reg_62 |  p0  |   2  |   1  |    2   |
|----------------------------|------|------|------|--------||---------|
|            Total           |      |      |      |    2   ||   0.85  |
|----------------------------|------|------|------|--------||---------|



* Summary:
+-----------+--------+--------+--------+
|           |  Delay |   FF   |   LUT  |
+-----------+--------+--------+--------+
|  Function |    -   |    0   |   55   |
|   Memory  |    -   |    -   |    -   |
|Multiplexer|    0   |    -   |    -   |
|  Register |    -   |    7   |    -   |
+-----------+--------+--------+--------+
|   Total   |    0   |    7   |   55   |
+-----------+--------+--------+--------+
