

================================================================
== Vivado HLS Report for 'iperf_udp'
================================================================
* Date:           Sat Dec 12 19:24:26 2020

* Version:        2019.2.1 (Build 2724168 on Thu Dec 05 05:19:09 MST 2019)
* Project:        iperf_udp_prj
* Solution:       solution1
* Product family: virtex7
* Target device:  xc7vx690t-ffg1761-2


================================================================
== Performance Estimates
================================================================
+ Timing: 
    * Summary: 
    +--------+---------+----------+------------+
    |  Clock |  Target | Estimated| Uncertainty|
    +--------+---------+----------+------------+
    |ap_clk  | 6.40 ns | 7.899 ns |   0.80 ns  |
    +--------+---------+----------+------------+

+ Latency: 
    * Summary: 
    +---------+---------+-----------+-----------+-----+-----+----------+
    |  Latency (cycles) |   Latency (absolute)  |  Interval | Pipeline |
    |   min   |   max   |    min    |    max    | min | max |   Type   |
    +---------+---------+-----------+-----------+-----+-----+----------+
    |        3|        3| 23.698 ns | 23.698 ns |    1|    1| dataflow |
    +---------+---------+-----------+-----------+-----+-----+----------+

    + Detail: 
        * Instance: 
        N/A

        * Loop: 
        N/A

============================================================
+ Verbose Summary: Synthesis Manager
============================================================
InlineROM: 1
ExposeGlobal: 0
============================================================
+ Verbose Summary: CDFG Model
============================================================
IsTopModel: 1
ResetActiveHigh: 1
IsCombinational: 2
IsDatapathOnly: 0
HasWiredReturn: 1
HasMFsm: 0
HasVarLatency: 1
IsPipeline: 0
IsRtlPipelined: 0
IsInstanceOverlapped: 0
IsDontTouch: 0
HasImplIP: 0
IsGatedGlobalClock: 0


============================================================
+ Verbose Summary: Schedule
============================================================
* Number of FSM states : 5
* Pipeline : 0
* Dataflow Pipeline: 1
  DF-Pipeline-0: Size = 5, States = { 1 2 3 4 5 }

* FSM state transitions: 
1 --> 2 
2 --> 3 
3 --> 4 
4 --> 5 
5 --> 

* FSM state operations: 

State 1 <SV = 0> <Delay = 3.37>
ST_1 : Operation 6 [1/1] (0.00ns)   --->   "%targetIpAddress_V_re = call i32 @_ssdm_op_Read.ap_stable.i32(i32 %targetIpAddress_V)" [/home/paulrr2/Projects/ece527/babelsoc/fpga-network-stack/hls/iperf_udp/iperf_udp.cpp:269]   --->   Operation 6 'read' 'targetIpAddress_V_re' <Predicate = true> <Delay = 0.00>
ST_1 : Operation 7 [1/1] (0.00ns)   --->   "%packetGap_V_read = call i8 @_ssdm_op_Read.ap_stable.i8(i8 %packetGap_V)" [/home/paulrr2/Projects/ece527/babelsoc/fpga-network-stack/hls/iperf_udp/iperf_udp.cpp:269]   --->   Operation 7 'read' 'packetGap_V_read' <Predicate = true> <Delay = 0.00>
ST_1 : Operation 8 [1/1] (0.00ns)   --->   "%pkgWordCount_V_read = call i8 @_ssdm_op_Read.ap_stable.i8(i8 %pkgWordCount_V)" [/home/paulrr2/Projects/ece527/babelsoc/fpga-network-stack/hls/iperf_udp/iperf_udp.cpp:269]   --->   Operation 8 'read' 'pkgWordCount_V_read' <Predicate = true> <Delay = 0.00>
ST_1 : Operation 9 [1/1] (0.00ns)   --->   "%runExperiment_V_read = call i1 @_ssdm_op_Read.ap_stable.i1(i1 %runExperiment_V)" [/home/paulrr2/Projects/ece527/babelsoc/fpga-network-stack/hls/iperf_udp/iperf_udp.cpp:269]   --->   Operation 9 'read' 'runExperiment_V_read' <Predicate = true> <Delay = 0.00>
ST_1 : Operation 10 [3/3] (3.37ns)   --->   "call fastcc void @"client<64>"(i176* %m_axis_tx_metadata_V, i64* %m_axis_tx_data_V_data_V, i8* %m_axis_tx_data_V_keep_V, i1* %m_axis_tx_data_V_last_V, i1 %runExperiment_V_read, i8 %pkgWordCount_V_read, i8 %packetGap_V_read, i32 %targetIpAddress_V_re)" [/home/paulrr2/Projects/ece527/babelsoc/fpga-network-stack/hls/iperf_udp/iperf_udp.cpp:304]   --->   Operation 10 'call' <Predicate = true> <Delay = 3.37> <CoreType = "Generic">   --->   Core 0 '' <Latency = 0> <II = 1> <Delay = 1.00> <Generic> <Opcode : >

State 2 <SV = 1> <Delay = 0.00>
ST_2 : Operation 11 [2/3] (0.00ns)   --->   "call fastcc void @"client<64>"(i176* %m_axis_tx_metadata_V, i64* %m_axis_tx_data_V_data_V, i8* %m_axis_tx_data_V_keep_V, i1* %m_axis_tx_data_V_last_V, i1 %runExperiment_V_read, i8 %pkgWordCount_V_read, i8 %packetGap_V_read, i32 %targetIpAddress_V_re)" [/home/paulrr2/Projects/ece527/babelsoc/fpga-network-stack/hls/iperf_udp/iperf_udp.cpp:304]   --->   Operation 11 'call' <Predicate = true> <Delay = 0.00> <CoreType = "Generic">   --->   Core 0 '' <Latency = 0> <II = 1> <Delay = 1.00> <Generic> <Opcode : >

State 3 <SV = 2> <Delay = 0.00>
ST_3 : Operation 12 [1/3] (0.00ns)   --->   "call fastcc void @"client<64>"(i176* %m_axis_tx_metadata_V, i64* %m_axis_tx_data_V_data_V, i8* %m_axis_tx_data_V_keep_V, i1* %m_axis_tx_data_V_last_V, i1 %runExperiment_V_read, i8 %pkgWordCount_V_read, i8 %packetGap_V_read, i32 %targetIpAddress_V_re)" [/home/paulrr2/Projects/ece527/babelsoc/fpga-network-stack/hls/iperf_udp/iperf_udp.cpp:304]   --->   Operation 12 'call' <Predicate = true> <Delay = 0.00> <CoreType = "Generic">   --->   Core 0 '' <Latency = 0> <II = 1> <Delay = 1.00> <Generic> <Opcode : >

State 4 <SV = 3> <Delay = 0.00>
ST_4 : Operation 13 [2/2] (0.00ns)   --->   "call fastcc void @clock() nounwind uwtable" [/home/paulrr2/Projects/ece527/babelsoc/fpga-network-stack/hls/iperf_udp/iperf_udp.cpp:323]   --->   Operation 13 'call' <Predicate = true> <Delay = 0.00> <CoreType = "Generic">   --->   Core 0 '' <Latency = 0> <II = 1> <Delay = 1.00> <Generic> <Opcode : >

State 5 <SV = 4> <Delay = 1.18>
ST_5 : Operation 14 [1/1] (0.00ns)   --->   "call void (...)* @_ssdm_op_SpecDataflowPipeline(i32 -1, i32 1, [1 x i8]* @p_str) nounwind" [/home/paulrr2/Projects/ece527/babelsoc/fpga-network-stack/hls/iperf_udp/iperf_udp.cpp:278]   --->   Operation 14 'specdataflowpipeline' <Predicate = true> <Delay = 0.00>
ST_5 : Operation 15 [1/1] (0.00ns)   --->   "%empty = call i32 (...)* @_ssdm_op_SpecChannel([17 x i8]* @doneSignalFifo_OC_V_s, i32 1, [1 x i8]* @p_str, [1 x i8]* @p_str, i32 2, i32 2, i1* @doneSignalFifo_V, i1* @doneSignalFifo_V)"   --->   Operation 15 'specchannel' 'empty' <Predicate = true> <Delay = 0.00>
ST_5 : Operation 16 [1/1] (0.00ns)   --->   "call void (...)* @_ssdm_op_SpecInterface(i1* @doneSignalFifo_V, [8 x i8]* @ap_fifo_str, i32 0, i32 0, [1 x i8]* @p_str, i32 0, i32 0, [1 x i8]* @p_str, [1 x i8]* @p_str, [1 x i8]* @p_str, i32 2, i32 2, i32 16, i32 16, [1 x i8]* @p_str, [1 x i8]* @p_str)"   --->   Operation 16 'specinterface' <Predicate = true> <Delay = 0.00>
ST_5 : Operation 17 [1/1] (0.00ns)   --->   "%empty_19 = call i32 (...)* @_ssdm_op_SpecChannel([18 x i8]* @startSignalFifo_OC_V, i32 1, [1 x i8]* @p_str, [1 x i8]* @p_str, i32 2, i32 2, i1* @startSignalFifo_V, i1* @startSignalFifo_V)"   --->   Operation 17 'specchannel' 'empty_19' <Predicate = true> <Delay = 0.00>
ST_5 : Operation 18 [1/1] (0.00ns)   --->   "call void (...)* @_ssdm_op_SpecInterface(i1* @startSignalFifo_V, [8 x i8]* @ap_fifo_str, i32 0, i32 0, [1 x i8]* @p_str, i32 0, i32 0, [1 x i8]* @p_str, [1 x i8]* @p_str, [1 x i8]* @p_str, i32 2, i32 2, i32 16, i32 16, [1 x i8]* @p_str, [1 x i8]* @p_str)"   --->   Operation 18 'specinterface' <Predicate = true> <Delay = 0.00>
ST_5 : Operation 19 [1/1] (0.00ns)   --->   "%empty_20 = call i32 (...)* @_ssdm_op_SpecChannel([17 x i8]* @stopSignalFifo_OC_V_s, i32 1, [1 x i8]* @p_str, [1 x i8]* @p_str, i32 2, i32 2, i1* @stopSignalFifo_V, i1* @stopSignalFifo_V)"   --->   Operation 19 'specchannel' 'empty_20' <Predicate = true> <Delay = 0.00>
ST_5 : Operation 20 [1/1] (0.00ns)   --->   "call void (...)* @_ssdm_op_SpecInterface(i1* @stopSignalFifo_V, [8 x i8]* @ap_fifo_str, i32 0, i32 0, [1 x i8]* @p_str, i32 0, i32 0, [1 x i8]* @p_str, [1 x i8]* @p_str, [1 x i8]* @p_str, i32 2, i32 2, i32 16, i32 16, [1 x i8]* @p_str, [1 x i8]* @p_str)"   --->   Operation 20 'specinterface' <Predicate = true> <Delay = 0.00>
ST_5 : Operation 21 [1/1] (0.00ns)   --->   "call void (...)* @_ssdm_op_SpecBitsMap(i176* %m_axis_tx_metadata_V), !map !175"   --->   Operation 21 'specbitsmap' <Predicate = true> <Delay = 0.00>
ST_5 : Operation 22 [1/1] (0.00ns)   --->   "call void (...)* @_ssdm_op_SpecBitsMap(i176* %s_axis_rx_metadata_V), !map !188"   --->   Operation 22 'specbitsmap' <Predicate = true> <Delay = 0.00>
ST_5 : Operation 23 [1/1] (0.00ns)   --->   "call void (...)* @_ssdm_op_SpecBitsMap(i64* %s_axis_rx_data_V_data_V), !map !201"   --->   Operation 23 'specbitsmap' <Predicate = true> <Delay = 0.00>
ST_5 : Operation 24 [1/1] (0.00ns)   --->   "call void (...)* @_ssdm_op_SpecBitsMap(i8* %s_axis_rx_data_V_keep_V), !map !205"   --->   Operation 24 'specbitsmap' <Predicate = true> <Delay = 0.00>
ST_5 : Operation 25 [1/1] (0.00ns)   --->   "call void (...)* @_ssdm_op_SpecBitsMap(i1* %s_axis_rx_data_V_last_V), !map !209"   --->   Operation 25 'specbitsmap' <Predicate = true> <Delay = 0.00>
ST_5 : Operation 26 [1/1] (0.00ns)   --->   "call void (...)* @_ssdm_op_SpecBitsMap(i64* %m_axis_tx_data_V_data_V), !map !213"   --->   Operation 26 'specbitsmap' <Predicate = true> <Delay = 0.00>
ST_5 : Operation 27 [1/1] (0.00ns)   --->   "call void (...)* @_ssdm_op_SpecBitsMap(i8* %m_axis_tx_data_V_keep_V), !map !217"   --->   Operation 27 'specbitsmap' <Predicate = true> <Delay = 0.00>
ST_5 : Operation 28 [1/1] (0.00ns)   --->   "call void (...)* @_ssdm_op_SpecBitsMap(i1* %m_axis_tx_data_V_last_V), !map !221"   --->   Operation 28 'specbitsmap' <Predicate = true> <Delay = 0.00>
ST_5 : Operation 29 [1/1] (0.00ns)   --->   "call void (...)* @_ssdm_op_SpecBitsMap(i1 %runExperiment_V), !map !225"   --->   Operation 29 'specbitsmap' <Predicate = true> <Delay = 0.00>
ST_5 : Operation 30 [1/1] (0.00ns)   --->   "call void (...)* @_ssdm_op_SpecBitsMap(i8 %pkgWordCount_V), !map !231"   --->   Operation 30 'specbitsmap' <Predicate = true> <Delay = 0.00>
ST_5 : Operation 31 [1/1] (0.00ns)   --->   "call void (...)* @_ssdm_op_SpecBitsMap(i8 %packetGap_V), !map !235"   --->   Operation 31 'specbitsmap' <Predicate = true> <Delay = 0.00>
ST_5 : Operation 32 [1/1] (0.00ns)   --->   "call void (...)* @_ssdm_op_SpecBitsMap(i32 %targetIpAddress_V), !map !239"   --->   Operation 32 'specbitsmap' <Predicate = true> <Delay = 0.00>
ST_5 : Operation 33 [1/1] (0.00ns)   --->   "call void (...)* @_ssdm_op_SpecTopModule([10 x i8]* @iperf_udp_str) nounwind"   --->   Operation 33 'spectopmodule' <Predicate = true> <Delay = 0.00>
ST_5 : Operation 34 [1/1] (0.00ns)   --->   "call void (...)* @_ssdm_op_SpecInterface(i32 0, [13 x i8]* @p_str7, i32 0, i32 0, [1 x i8]* @p_str, i32 0, i32 0, [1 x i8]* @p_str, [1 x i8]* @p_str, [1 x i8]* @p_str, i32 0, i32 0, i32 0, i32 0, [1 x i8]* @p_str, [1 x i8]* @p_str) nounwind" [/home/paulrr2/Projects/ece527/babelsoc/fpga-network-stack/hls/iperf_udp/iperf_udp.cpp:279]   --->   Operation 34 'specinterface' <Predicate = true> <Delay = 0.00>
ST_5 : Operation 35 [1/1] (0.00ns)   --->   "call void (...)* @_ssdm_op_SpecInterface(i176* %s_axis_rx_metadata_V, [5 x i8]* @p_str8, i32 1, i32 1, [5 x i8]* @p_str9, i32 0, i32 0, [1 x i8]* @p_str, [1 x i8]* @p_str, [1 x i8]* @p_str, i32 0, i32 0, i32 0, i32 0, [19 x i8]* @p_str10, [1 x i8]* @p_str) nounwind" [/home/paulrr2/Projects/ece527/babelsoc/fpga-network-stack/hls/iperf_udp/iperf_udp.cpp:281]   --->   Operation 35 'specinterface' <Predicate = true> <Delay = 0.00>
ST_5 : Operation 36 [1/1] (0.00ns)   --->   "call void (...)* @_ssdm_op_SpecInterface(i64* %s_axis_rx_data_V_data_V, i8* %s_axis_rx_data_V_keep_V, i1* %s_axis_rx_data_V_last_V, [5 x i8]* @p_str8, i32 1, i32 1, [5 x i8]* @p_str9, i32 0, i32 0, [1 x i8]* @p_str, [1 x i8]* @p_str, [1 x i8]* @p_str, i32 0, i32 0, i32 0, i32 0, [15 x i8]* @p_str11, [1 x i8]* @p_str) nounwind" [/home/paulrr2/Projects/ece527/babelsoc/fpga-network-stack/hls/iperf_udp/iperf_udp.cpp:282]   --->   Operation 36 'specinterface' <Predicate = true> <Delay = 0.00>
ST_5 : Operation 37 [1/1] (0.00ns)   --->   "call void (...)* @_ssdm_op_SpecInterface(i176* %m_axis_tx_metadata_V, [5 x i8]* @p_str8, i32 1, i32 1, [5 x i8]* @p_str9, i32 0, i32 0, [1 x i8]* @p_str, [1 x i8]* @p_str, [1 x i8]* @p_str, i32 0, i32 0, i32 0, i32 0, [19 x i8]* @p_str12, [1 x i8]* @p_str) nounwind" [/home/paulrr2/Projects/ece527/babelsoc/fpga-network-stack/hls/iperf_udp/iperf_udp.cpp:283]   --->   Operation 37 'specinterface' <Predicate = true> <Delay = 0.00>
ST_5 : Operation 38 [1/1] (0.00ns)   --->   "call void (...)* @_ssdm_op_SpecInterface(i64* %m_axis_tx_data_V_data_V, i8* %m_axis_tx_data_V_keep_V, i1* %m_axis_tx_data_V_last_V, [5 x i8]* @p_str8, i32 1, i32 1, [5 x i8]* @p_str9, i32 0, i32 0, [1 x i8]* @p_str, [1 x i8]* @p_str, [1 x i8]* @p_str, i32 0, i32 0, i32 0, i32 0, [15 x i8]* @p_str13, [1 x i8]* @p_str) nounwind" [/home/paulrr2/Projects/ece527/babelsoc/fpga-network-stack/hls/iperf_udp/iperf_udp.cpp:284]   --->   Operation 38 'specinterface' <Predicate = true> <Delay = 0.00>
ST_5 : Operation 39 [1/1] (0.00ns)   --->   "call void (...)* @_ssdm_op_SpecInterface(i1 %runExperiment_V, [10 x i8]* @p_str14, i32 0, i32 1, [1 x i8]* @p_str, i32 0, i32 0, [1 x i8]* @p_str, [1 x i8]* @p_str, [1 x i8]* @p_str, i32 0, i32 0, i32 0, i32 0, [1 x i8]* @p_str, [1 x i8]* @p_str) nounwind" [/home/paulrr2/Projects/ece527/babelsoc/fpga-network-stack/hls/iperf_udp/iperf_udp.cpp:288]   --->   Operation 39 'specinterface' <Predicate = true> <Delay = 0.00>
ST_5 : Operation 40 [1/1] (0.00ns)   --->   "call void (...)* @_ssdm_op_SpecInterface(i8 %pkgWordCount_V, [10 x i8]* @p_str14, i32 0, i32 1, [1 x i8]* @p_str, i32 0, i32 0, [1 x i8]* @p_str, [1 x i8]* @p_str, [1 x i8]* @p_str, i32 0, i32 0, i32 0, i32 0, [1 x i8]* @p_str, [1 x i8]* @p_str) nounwind" [/home/paulrr2/Projects/ece527/babelsoc/fpga-network-stack/hls/iperf_udp/iperf_udp.cpp:289]   --->   Operation 40 'specinterface' <Predicate = true> <Delay = 0.00>
ST_5 : Operation 41 [1/1] (0.00ns)   --->   "call void (...)* @_ssdm_op_SpecInterface(i8 %packetGap_V, [10 x i8]* @p_str14, i32 0, i32 1, [1 x i8]* @p_str, i32 0, i32 0, [1 x i8]* @p_str, [1 x i8]* @p_str, [1 x i8]* @p_str, i32 0, i32 0, i32 0, i32 0, [1 x i8]* @p_str, [1 x i8]* @p_str) nounwind" [/home/paulrr2/Projects/ece527/babelsoc/fpga-network-stack/hls/iperf_udp/iperf_udp.cpp:290]   --->   Operation 41 'specinterface' <Predicate = true> <Delay = 0.00>
ST_5 : Operation 42 [1/1] (0.00ns)   --->   "call void (...)* @_ssdm_op_SpecInterface(i32 %targetIpAddress_V, [10 x i8]* @p_str14, i32 0, i32 1, [1 x i8]* @p_str, i32 0, i32 0, [1 x i8]* @p_str, [1 x i8]* @p_str, [1 x i8]* @p_str, i32 0, i32 0, i32 0, i32 0, [1 x i8]* @p_str, [1 x i8]* @p_str) nounwind" [/home/paulrr2/Projects/ece527/babelsoc/fpga-network-stack/hls/iperf_udp/iperf_udp.cpp:291]   --->   Operation 42 'specinterface' <Predicate = true> <Delay = 0.00>
ST_5 : Operation 43 [1/1] (1.18ns)   --->   "call fastcc void @check_for_response(i176* %s_axis_rx_metadata_V, i64* %s_axis_rx_data_V_data_V, i8* %s_axis_rx_data_V_keep_V, i1* %s_axis_rx_data_V_last_V)" [/home/paulrr2/Projects/ece527/babelsoc/fpga-network-stack/hls/iperf_udp/iperf_udp.cpp:318]   --->   Operation 43 'call' <Predicate = true> <Delay = 1.18> <CoreType = "Generic">   --->   Core 0 '' <Latency = 0> <II = 1> <Delay = 1.00> <Generic> <Opcode : >
ST_5 : Operation 44 [1/2] (0.00ns)   --->   "call fastcc void @clock() nounwind uwtable" [/home/paulrr2/Projects/ece527/babelsoc/fpga-network-stack/hls/iperf_udp/iperf_udp.cpp:323]   --->   Operation 44 'call' <Predicate = true> <Delay = 0.00> <CoreType = "Generic">   --->   Core 0 '' <Latency = 0> <II = 1> <Delay = 1.00> <Generic> <Opcode : >
ST_5 : Operation 45 [1/1] (0.00ns)   --->   "ret void" [/home/paulrr2/Projects/ece527/babelsoc/fpga-network-stack/hls/iperf_udp/iperf_udp.cpp:325]   --->   Operation 45 'ret' <Predicate = true> <Delay = 0.00>


============================================================
+ Verbose Summary: Timing violations
============================================================
Target clock period: 6.4ns, clock uncertainty: 0.8ns.

 <State 1>: 3.38ns
The critical path consists of the following:
	wire read on port 'targetIpAddress_V' (/home/paulrr2/Projects/ece527/babelsoc/fpga-network-stack/hls/iperf_udp/iperf_udp.cpp:269) [68]  (0 ns)
	'call' operation ('call_ln304', /home/paulrr2/Projects/ece527/babelsoc/fpga-network-stack/hls/iperf_udp/iperf_udp.cpp:304) to 'client<64>' [72]  (3.38 ns)

 <State 2>: 0ns
The critical path consists of the following:

 <State 3>: 0ns
The critical path consists of the following:

 <State 4>: 0ns
The critical path consists of the following:

 <State 5>: 1.18ns
The critical path consists of the following:
	'call' operation ('call_ln318', /home/paulrr2/Projects/ece527/babelsoc/fpga-network-stack/hls/iperf_udp/iperf_udp.cpp:318) to 'check_for_response' [73]  (1.18 ns)


============================================================
+ Verbose Summary: Binding
============================================================
N/A
* FSMD analyzer results:
  - Output states:
 - Input state : 
  - Chain level:
	State 1
	State 2
	State 3
	State 4
	State 5


============================================================
+ Verbose Summary: Datapath Resource usage 
============================================================
N/A
