

================================================================
== Vivado HLS Report for 'check_out_multiplexe'
================================================================
* Date:           Sat Dec 12 19:34:53 2020

* Version:        2019.2.1 (Build 2724168 on Thu Dec 05 05:19:09 MST 2019)
* Project:        toe_prj
* Solution:       solution1
* Product family: zynq
* Target device:  xc7z020-clg400-1


================================================================
== Performance Estimates
================================================================
+ Timing: 
    * Summary: 
    +--------+---------+----------+------------+
    |  Clock |  Target | Estimated| Uncertainty|
    +--------+---------+----------+------------+
    |ap_clk  | 6.40 ns | 5.562 ns |   0.80 ns  |
    +--------+---------+----------+------------+

+ Latency: 
    * Summary: 
    +---------+---------+----------+----------+-----+-----+----------+
    |  Latency (cycles) |  Latency (absolute) |  Interval | Pipeline |
    |   min   |   max   |    min   |    max   | min | max |   Type   |
    +---------+---------+----------+----------+-----+-----+----------+
    |        1|        1| 6.400 ns | 6.400 ns |    1|    1| function |
    +---------+---------+----------+----------+-----+-----+----------+

    + Detail: 
        * Instance: 
        N/A

        * Loop: 
        N/A



================================================================
== Utilization Estimates
================================================================
* Summary: 
+-----------------+---------+-------+--------+-------+-----+
|       Name      | BRAM_18K| DSP48E|   FF   |  LUT  | URAM|
+-----------------+---------+-------+--------+-------+-----+
|DSP              |        -|      -|       -|      -|    -|
|Expression       |        -|      -|       0|     29|    -|
|FIFO             |        -|      -|       -|      -|    -|
|Instance         |        -|      -|       -|      -|    -|
|Memory           |        -|      -|       -|      -|    -|
|Multiplexer      |        -|      -|       -|     69|    -|
|Register         |        -|      -|      11|      -|    -|
+-----------------+---------+-------+--------+-------+-----+
|Total            |        0|      0|      11|     98|    0|
+-----------------+---------+-------+--------+-------+-----+
|Available        |      280|    220|  106400|  53200|    0|
+-----------------+---------+-------+--------+-------+-----+
|Utilization (%)  |        0|      0|   ~0   |   ~0  |    0|
+-----------------+---------+-------+--------+-------+-----+

+ Detail: 
    * Instance: 
    N/A

    * DSP48E: 
    N/A

    * Memory: 
    N/A

    * FIFO: 
    N/A

    * Expression: 
    +----------------------------------+----------+-------+---+----+------------+------------+
    |           Variable Name          | Operation| DSP48E| FF| LUT| Bitwidth P0| Bitwidth P1|
    +----------------------------------+----------+-------+---+----+------------+------------+
    |ap_condition_164                  |    and   |      0|  0|   2|           1|           1|
    |ap_predicate_op11_read_state1     |    and   |      0|  0|   2|           1|           1|
    |ap_predicate_op15_read_state1     |    and   |      0|  0|   2|           1|           1|
    |ap_predicate_op23_write_state2    |    and   |      0|  0|   2|           1|           1|
    |ap_predicate_op26_write_state2    |    and   |      0|  0|   2|           1|           1|
    |ap_predicate_op7_read_state1      |    and   |      0|  0|   2|           1|           1|
    |tmp_318_nbreadreq_fu_54_p3        |    and   |      0|  0|   2|           1|           0|
    |tmp_319_nbreadreq_fu_40_p3        |    and   |      0|  0|   2|           1|           0|
    |tmp_nbreadreq_fu_68_p3            |    and   |      0|  0|   2|           1|           0|
    |ap_block_pp0_stage0_01001         |    or    |      0|  0|   2|           1|           1|
    |ap_block_state1_pp0_stage0_iter0  |    or    |      0|  0|   2|           1|           1|
    |ap_block_state2_pp0_stage0_iter1  |    or    |      0|  0|   2|           1|           1|
    |select_ln211_fu_99_p3             |  select  |      0|  0|   3|           1|           1|
    |ap_enable_pp0                     |    xor   |      0|  0|   2|           1|           2|
    +----------------------------------+----------+-------+---+----+------------+------------+
    |Total                             |          |      0|  0|  29|          14|          12|
    +----------------------------------+----------+-------+---+----+------------+------------+

    * Multiplexer: 
    +------------------------------+----+-----------+-----+-----------+
    |             Name             | LUT| Input Size| Bits| Total Bits|
    +------------------------------+----+-----------+-----+-----------+
    |ap_done                       |   9|          2|    1|          2|
    |cm_fsmState                   |   9|          2|    2|          4|
    |portTable2rxEng_chec_1_blk_n  |   9|          2|    1|          2|
    |portTable2rxEng_chec_1_din    |  15|          3|    1|          3|
    |pt_dstFifo_V_blk_n            |   9|          2|    1|          2|
    |pt_portCheckListenin_2_blk_n  |   9|          2|    1|          2|
    |pt_portCheckUsed_rsp_1_blk_n  |   9|          2|    1|          2|
    +------------------------------+----+-----------+-----+-----------+
    |Total                         |  69|         15|    8|         17|
    +------------------------------+----+-----------+-----+-----------+

    * Register: 
    +--------------------------+---+----+-----+-----------+
    |           Name           | FF| LUT| Bits| Const Bits|
    +--------------------------+---+----+-----+-----------+
    |ap_CS_fsm                 |  1|   0|    1|          0|
    |ap_done_reg               |  1|   0|    1|          0|
    |ap_enable_reg_pp0_iter1   |  1|   0|    1|          0|
    |cm_fsmState               |  2|   0|    2|          0|
    |cm_fsmState_load_reg_113  |  2|   0|    2|          0|
    |tmp_318_reg_126           |  1|   0|    1|          0|
    |tmp_319_reg_117           |  1|   0|    1|          0|
    |tmp_321_reg_130           |  1|   0|    1|          0|
    |tmp_322_reg_121           |  1|   0|    1|          0|
    +--------------------------+---+----+-----+-----------+
    |Total                     | 11|   0|   11|          0|
    +--------------------------+---+----+-----+-----------+



================================================================
== Interface
================================================================
* Summary: 
+--------------------------------+-----+-----+------------+------------------------+--------------+
|            RTL Ports           | Dir | Bits|  Protocol  |      Source Object     |    C Type    |
+--------------------------------+-----+-----+------------+------------------------+--------------+
|ap_clk                          |  in |    1| ap_ctrl_hs |  check_out_multiplexe  | return value |
|ap_rst                          |  in |    1| ap_ctrl_hs |  check_out_multiplexe  | return value |
|ap_start                        |  in |    1| ap_ctrl_hs |  check_out_multiplexe  | return value |
|ap_done                         | out |    1| ap_ctrl_hs |  check_out_multiplexe  | return value |
|ap_continue                     |  in |    1| ap_ctrl_hs |  check_out_multiplexe  | return value |
|ap_idle                         | out |    1| ap_ctrl_hs |  check_out_multiplexe  | return value |
|ap_ready                        | out |    1| ap_ctrl_hs |  check_out_multiplexe  | return value |
|pt_portCheckUsed_rsp_1_dout     |  in |    1|   ap_fifo  | pt_portCheckUsed_rsp_1 |    pointer   |
|pt_portCheckUsed_rsp_1_empty_n  |  in |    1|   ap_fifo  | pt_portCheckUsed_rsp_1 |    pointer   |
|pt_portCheckUsed_rsp_1_read     | out |    1|   ap_fifo  | pt_portCheckUsed_rsp_1 |    pointer   |
|pt_portCheckListenin_2_dout     |  in |    1|   ap_fifo  | pt_portCheckListenin_2 |    pointer   |
|pt_portCheckListenin_2_empty_n  |  in |    1|   ap_fifo  | pt_portCheckListenin_2 |    pointer   |
|pt_portCheckListenin_2_read     | out |    1|   ap_fifo  | pt_portCheckListenin_2 |    pointer   |
|pt_dstFifo_V_dout               |  in |    1|   ap_fifo  |      pt_dstFifo_V      |    pointer   |
|pt_dstFifo_V_empty_n            |  in |    1|   ap_fifo  |      pt_dstFifo_V      |    pointer   |
|pt_dstFifo_V_read               | out |    1|   ap_fifo  |      pt_dstFifo_V      |    pointer   |
|portTable2rxEng_chec_1_din      | out |    1|   ap_fifo  | portTable2rxEng_chec_1 |    pointer   |
|portTable2rxEng_chec_1_full_n   |  in |    1|   ap_fifo  | portTable2rxEng_chec_1 |    pointer   |
|portTable2rxEng_chec_1_write    | out |    1|   ap_fifo  | portTable2rxEng_chec_1 |    pointer   |
+--------------------------------+-----+-----+------------+------------------------+--------------+

============================================================
+ Verbose Summary: Synthesis Manager
============================================================
InlineROM: 1
ExposeGlobal: 0
============================================================
+ Verbose Summary: CDFG Model
============================================================
IsTopModel: 0
ResetActiveHigh: 1
IsCombinational: 2
IsDatapathOnly: 0
HasWiredReturn: 1
HasMFsm: 2
HasVarLatency: 0
IsPipeline: 1
IsRtlPipelined: 1
IsInstanceOverlapped: 0
IsDontTouch: 0
HasImplIP: 0
IsGatedGlobalClock: 0

+ Individual pipeline summary: 
  * Pipeline-0: initiation interval (II) = 1, depth = 2


============================================================
+ Verbose Summary: Schedule
============================================================
* Number of FSM states : 2
* Pipeline : 1
  Pipeline-0 : II = 1, D = 2, States = { 1 2 }
* Dataflow Pipeline: 0

* FSM state transitions: 
1 --> 2 
2 --> 

* FSM state operations: 

State 1 <SV = 0> <Delay = 5.56>
ST_1 : Operation 3 [1/1] (0.00ns)   --->   "%cm_fsmState_load = load i2* @cm_fsmState, align 1" [/home/paulrr2/Projects/ece527/babelsoc/fpga-network-stack/hls/toe/port_table/port_table.cpp:205]   --->   Operation 3 'load' 'cm_fsmState_load' <Predicate = true> <Delay = 0.00>
ST_1 : Operation 4 [1/1] (1.30ns)   --->   "switch i2 %cm_fsmState_load, label %check_out_multiplexer.exit [
    i2 0, label %0
    i2 1, label %2
    i2 -2, label %4
  ]" [/home/paulrr2/Projects/ece527/babelsoc/fpga-network-stack/hls/toe/port_table/port_table.cpp:205]   --->   Operation 4 'switch' <Predicate = true> <Delay = 1.30>
ST_1 : Operation 5 [1/1] (0.00ns)   --->   "%tmp_319 = call i1 @_ssdm_op_NbReadReq.ap_fifo.i1P(i1* @pt_portCheckUsed_rsp_1, i32 1) nounwind" [/home/paulrr2/Projects/ece527/babelsoc/fpga-network-stack/hls/toe/port_table/port_table.cpp:229]   --->   Operation 5 'nbreadreq' 'tmp_319' <Predicate = (cm_fsmState_load == 2)> <Delay = 0.00> <Core = "FIFO">   --->   Core 32 'FIFO' <Latency = 0> <II = 1> <Delay = 3.54> <Storage> <Opcode : 'read' 'write' 'nbread' 'nbwrite'> <Ports = 0> <Width = 16> <Depth = 8> <FIFO>
ST_1 : Operation 6 [1/1] (0.00ns)   --->   "br i1 %tmp_319, label %5, label %._crit_edge3.i" [/home/paulrr2/Projects/ece527/babelsoc/fpga-network-stack/hls/toe/port_table/port_table.cpp:229]   --->   Operation 6 'br' <Predicate = (cm_fsmState_load == 2)> <Delay = 0.00>
ST_1 : Operation 7 [1/1] (2.80ns)   --->   "%tmp_322 = call i1 @_ssdm_op_Read.ap_fifo.volatile.i1P(i1* @pt_portCheckUsed_rsp_1) nounwind" [/home/paulrr2/Projects/ece527/babelsoc/fpga-network-stack/hls/toe/port_table/port_table.cpp:231]   --->   Operation 7 'read' 'tmp_322' <Predicate = (cm_fsmState_load == 2 & tmp_319)> <Delay = 2.80> <Core = "FIFO">   --->   Core 32 'FIFO' <Latency = 0> <II = 1> <Delay = 3.54> <Storage> <Opcode : 'read' 'write' 'nbread' 'nbwrite'> <Ports = 0> <Width = 16> <Depth = 8> <FIFO>
ST_1 : Operation 8 [1/1] (1.76ns)   --->   "store i2 0, i2* @cm_fsmState, align 1" [/home/paulrr2/Projects/ece527/babelsoc/fpga-network-stack/hls/toe/port_table/port_table.cpp:232]   --->   Operation 8 'store' <Predicate = (cm_fsmState_load == 2 & tmp_319)> <Delay = 1.76>
ST_1 : Operation 9 [1/1] (0.00ns)   --->   "%tmp_318 = call i1 @_ssdm_op_NbReadReq.ap_fifo.i1P(i1* @pt_portCheckListenin_2, i32 1) nounwind" [/home/paulrr2/Projects/ece527/babelsoc/fpga-network-stack/hls/toe/port_table/port_table.cpp:222]   --->   Operation 9 'nbreadreq' 'tmp_318' <Predicate = (cm_fsmState_load == 1)> <Delay = 0.00> <Core = "FIFO">   --->   Core 32 'FIFO' <Latency = 0> <II = 1> <Delay = 3.54> <Storage> <Opcode : 'read' 'write' 'nbread' 'nbwrite'> <Ports = 0> <Width = 16> <Depth = 8> <FIFO>
ST_1 : Operation 10 [1/1] (0.00ns)   --->   "br i1 %tmp_318, label %3, label %._crit_edge2.i" [/home/paulrr2/Projects/ece527/babelsoc/fpga-network-stack/hls/toe/port_table/port_table.cpp:222]   --->   Operation 10 'br' <Predicate = (cm_fsmState_load == 1)> <Delay = 0.00>
ST_1 : Operation 11 [1/1] (2.80ns)   --->   "%tmp_321 = call i1 @_ssdm_op_Read.ap_fifo.volatile.i1P(i1* @pt_portCheckListenin_2) nounwind" [/home/paulrr2/Projects/ece527/babelsoc/fpga-network-stack/hls/toe/port_table/port_table.cpp:224]   --->   Operation 11 'read' 'tmp_321' <Predicate = (cm_fsmState_load == 1 & tmp_318)> <Delay = 2.80> <Core = "FIFO">   --->   Core 32 'FIFO' <Latency = 0> <II = 1> <Delay = 3.54> <Storage> <Opcode : 'read' 'write' 'nbread' 'nbwrite'> <Ports = 0> <Width = 16> <Depth = 8> <FIFO>
ST_1 : Operation 12 [1/1] (1.76ns)   --->   "store i2 0, i2* @cm_fsmState, align 1" [/home/paulrr2/Projects/ece527/babelsoc/fpga-network-stack/hls/toe/port_table/port_table.cpp:225]   --->   Operation 12 'store' <Predicate = (cm_fsmState_load == 1 & tmp_318)> <Delay = 1.76>
ST_1 : Operation 13 [1/1] (0.00ns)   --->   "%tmp = call i1 @_ssdm_op_NbReadReq.ap_fifo.i1P(i1* @pt_dstFifo_V, i32 1) nounwind" [/home/paulrr2/Projects/ece527/babelsoc/fpga-network-stack/hls/toe/port_table/port_table.cpp:208]   --->   Operation 13 'nbreadreq' 'tmp' <Predicate = (cm_fsmState_load == 0)> <Delay = 0.00> <Core = "FIFO">   --->   Core 32 'FIFO' <Latency = 0> <II = 1> <Delay = 3.54> <Storage> <Opcode : 'read' 'write' 'nbread' 'nbwrite'> <Ports = 0> <Width = 16> <Depth = 8> <FIFO>
ST_1 : Operation 14 [1/1] (0.00ns)   --->   "br i1 %tmp, label %1, label %._crit_edge1.i" [/home/paulrr2/Projects/ece527/babelsoc/fpga-network-stack/hls/toe/port_table/port_table.cpp:208]   --->   Operation 14 'br' <Predicate = (cm_fsmState_load == 0)> <Delay = 0.00>
ST_1 : Operation 15 [1/1] (2.80ns)   --->   "%tmp_320 = call i1 @_ssdm_op_Read.ap_fifo.volatile.i1P(i1* @pt_dstFifo_V) nounwind" [/home/paulrr2/Projects/ece527/babelsoc/fpga-network-stack/hls/toe/port_table/port_table.cpp:210]   --->   Operation 15 'read' 'tmp_320' <Predicate = (cm_fsmState_load == 0 & tmp)> <Delay = 2.80> <Core = "FIFO">   --->   Core 32 'FIFO' <Latency = 0> <II = 1> <Delay = 3.54> <Storage> <Opcode : 'read' 'write' 'nbread' 'nbwrite'> <Ports = 0> <Width = 16> <Depth = 8> <FIFO>
ST_1 : Operation 16 [1/1] (0.99ns)   --->   "%select_ln211 = select i1 %tmp_320, i2 1, i2 -2" [/home/paulrr2/Projects/ece527/babelsoc/fpga-network-stack/hls/toe/port_table/port_table.cpp:211]   --->   Operation 16 'select' 'select_ln211' <Predicate = (cm_fsmState_load == 0 & tmp)> <Delay = 0.99> <Core = "Sel">   --->   Core 26 'Sel' <Latency = 0> <II = 1> <Delay = 0.98> <FuncUnit> <Opcode : 'select'> <InPorts = 3> <OutPorts = 1>
ST_1 : Operation 17 [1/1] (1.76ns)   --->   "store i2 %select_ln211, i2* @cm_fsmState, align 1" [/home/paulrr2/Projects/ece527/babelsoc/fpga-network-stack/hls/toe/port_table/port_table.cpp:213]   --->   Operation 17 'store' <Predicate = (cm_fsmState_load == 0 & tmp)> <Delay = 1.76>

State 2 <SV = 1> <Delay = 2.80>
ST_2 : Operation 18 [1/1] (0.00ns)   --->   "call void (...)* @_ssdm_op_SpecInterface(i1* @portTable2rxEng_chec_1, [8 x i8]* @ap_fifo_str, i32 0, i32 0, [1 x i8]* @p_str, i32 0, i32 0, [1 x i8]* @p_str, [1 x i8]* @p_str, [1 x i8]* @p_str, i32 2, i32 2, i32 16, i32 16, [1 x i8]* @p_str, [1 x i8]* @p_str)"   --->   Operation 18 'specinterface' <Predicate = true> <Delay = 0.00>
ST_2 : Operation 19 [1/1] (0.00ns)   --->   "call void (...)* @_ssdm_op_SpecInterface(i1* @pt_dstFifo_V, [8 x i8]* @ap_fifo_str, i32 0, i32 0, [1 x i8]* @p_str, i32 0, i32 0, [1 x i8]* @p_str, [1 x i8]* @p_str, [1 x i8]* @p_str, i32 2, i32 2, i32 16, i32 16, [1 x i8]* @p_str, [1 x i8]* @p_str)"   --->   Operation 19 'specinterface' <Predicate = true> <Delay = 0.00>
ST_2 : Operation 20 [1/1] (0.00ns)   --->   "call void (...)* @_ssdm_op_SpecInterface(i1* @pt_portCheckListenin_2, [8 x i8]* @ap_fifo_str, i32 0, i32 0, [1 x i8]* @p_str, i32 0, i32 0, [1 x i8]* @p_str, [1 x i8]* @p_str, [1 x i8]* @p_str, i32 2, i32 2, i32 16, i32 16, [1 x i8]* @p_str, [1 x i8]* @p_str)"   --->   Operation 20 'specinterface' <Predicate = true> <Delay = 0.00>
ST_2 : Operation 21 [1/1] (0.00ns)   --->   "call void (...)* @_ssdm_op_SpecInterface(i1* @pt_portCheckUsed_rsp_1, [8 x i8]* @ap_fifo_str, i32 0, i32 0, [1 x i8]* @p_str, i32 0, i32 0, [1 x i8]* @p_str, [1 x i8]* @p_str, [1 x i8]* @p_str, i32 2, i32 2, i32 16, i32 16, [1 x i8]* @p_str, [1 x i8]* @p_str)"   --->   Operation 21 'specinterface' <Predicate = true> <Delay = 0.00>
ST_2 : Operation 22 [1/1] (0.00ns)   --->   "call void (...)* @_ssdm_op_SpecPipeline(i32 1, i32 1, i32 1, i32 0, [1 x i8]* @p_str859) nounwind" [/home/paulrr2/Projects/ece527/babelsoc/fpga-network-stack/hls/toe/port_table/port_table.cpp:190]   --->   Operation 22 'specpipeline' <Predicate = true> <Delay = 0.00>
ST_2 : Operation 23 [1/1] (2.80ns)   --->   "call void @_ssdm_op_Write.ap_fifo.volatile.i1P(i1* @portTable2rxEng_chec_1, i1 %tmp_322) nounwind" [/home/paulrr2/Projects/ece527/babelsoc/fpga-network-stack/hls/toe/port_table/port_table.cpp:231]   --->   Operation 23 'write' <Predicate = (cm_fsmState_load == 2 & tmp_319)> <Delay = 2.80> <Core = "FIFO">   --->   Core 32 'FIFO' <Latency = 0> <II = 1> <Delay = 3.54> <Storage> <Opcode : 'read' 'write' 'nbread' 'nbwrite'> <Ports = 0> <Width = 16> <Depth = 8> <FIFO>
ST_2 : Operation 24 [1/1] (0.00ns)   --->   "br label %._crit_edge3.i" [/home/paulrr2/Projects/ece527/babelsoc/fpga-network-stack/hls/toe/port_table/port_table.cpp:233]   --->   Operation 24 'br' <Predicate = (cm_fsmState_load == 2 & tmp_319)> <Delay = 0.00>
ST_2 : Operation 25 [1/1] (0.00ns)   --->   "br label %check_out_multiplexer.exit" [/home/paulrr2/Projects/ece527/babelsoc/fpga-network-stack/hls/toe/port_table/port_table.cpp:234]   --->   Operation 25 'br' <Predicate = (cm_fsmState_load == 2)> <Delay = 0.00>
ST_2 : Operation 26 [1/1] (2.80ns)   --->   "call void @_ssdm_op_Write.ap_fifo.volatile.i1P(i1* @portTable2rxEng_chec_1, i1 %tmp_321) nounwind" [/home/paulrr2/Projects/ece527/babelsoc/fpga-network-stack/hls/toe/port_table/port_table.cpp:224]   --->   Operation 26 'write' <Predicate = (cm_fsmState_load == 1 & tmp_318)> <Delay = 2.80> <Core = "FIFO">   --->   Core 32 'FIFO' <Latency = 0> <II = 1> <Delay = 3.54> <Storage> <Opcode : 'read' 'write' 'nbread' 'nbwrite'> <Ports = 0> <Width = 16> <Depth = 8> <FIFO>
ST_2 : Operation 27 [1/1] (0.00ns)   --->   "br label %._crit_edge2.i" [/home/paulrr2/Projects/ece527/babelsoc/fpga-network-stack/hls/toe/port_table/port_table.cpp:226]   --->   Operation 27 'br' <Predicate = (cm_fsmState_load == 1 & tmp_318)> <Delay = 0.00>
ST_2 : Operation 28 [1/1] (0.00ns)   --->   "br label %check_out_multiplexer.exit" [/home/paulrr2/Projects/ece527/babelsoc/fpga-network-stack/hls/toe/port_table/port_table.cpp:227]   --->   Operation 28 'br' <Predicate = (cm_fsmState_load == 1)> <Delay = 0.00>
ST_2 : Operation 29 [1/1] (0.00ns)   --->   "br label %._crit_edge1.i" [/home/paulrr2/Projects/ece527/babelsoc/fpga-network-stack/hls/toe/port_table/port_table.cpp:219]   --->   Operation 29 'br' <Predicate = (cm_fsmState_load == 0 & tmp)> <Delay = 0.00>
ST_2 : Operation 30 [1/1] (0.00ns)   --->   "br label %check_out_multiplexer.exit" [/home/paulrr2/Projects/ece527/babelsoc/fpga-network-stack/hls/toe/port_table/port_table.cpp:220]   --->   Operation 30 'br' <Predicate = (cm_fsmState_load == 0)> <Delay = 0.00>
ST_2 : Operation 31 [1/1] (0.00ns)   --->   "ret void"   --->   Operation 31 'ret' <Predicate = true> <Delay = 0.00>


============================================================
+ Verbose Summary: Binding
============================================================
STG Binding: 
---------------- STG Properties BEGIN ----------------
- Is combinational: 0
- Is one-state seq: 0
- Is datapath-only: 0
- Is pipelined: 1
- Is top level: 0
Port [ Return ] is wired: 1; IO mode=ap_ctrl_hs:ce=0
Port [ cm_fsmState]:  wired=0; compound=0; hidden=1; nouse=0; global=1; static=1; extern=0; dir=2; type=0; pingpong=0; private_global=1; linkage=7; visibility=0; IO mode=ap_ovld:ce=0
Port [ pt_dstFifo_V]:  wired=1; compound=1; hidden=0; nouse=0; global=1; static=1; extern=0; dir=0; type=3; pingpong=0; private_global=0; linkage=7; visibility=0; IO mode=ap_fifo:ce=0
Port [ pt_portCheckListenin_2]:  wired=1; compound=1; hidden=0; nouse=0; global=1; static=1; extern=0; dir=0; type=3; pingpong=0; private_global=0; linkage=7; visibility=0; IO mode=ap_fifo:ce=0
Port [ portTable2rxEng_chec_1]:  wired=1; compound=1; hidden=0; nouse=0; global=1; static=1; extern=0; dir=1; type=3; pingpong=0; private_global=0; linkage=7; visibility=0; IO mode=ap_fifo:ce=0
Port [ pt_portCheckUsed_rsp_1]:  wired=1; compound=1; hidden=0; nouse=0; global=1; static=1; extern=0; dir=0; type=3; pingpong=0; private_global=0; linkage=7; visibility=0; IO mode=ap_fifo:ce=0
---------------- STG Properties END ------------------

---------------- Datapath Model BEGIN ----------------

<LifeTime>
<method=bitvector/>
cm_fsmState_load   (load         ) [ 011]
switch_ln205       (switch       ) [ 000]
tmp_319            (nbreadreq    ) [ 011]
br_ln229           (br           ) [ 000]
tmp_322            (read         ) [ 011]
store_ln232        (store        ) [ 000]
tmp_318            (nbreadreq    ) [ 011]
br_ln222           (br           ) [ 000]
tmp_321            (read         ) [ 011]
store_ln225        (store        ) [ 000]
tmp                (nbreadreq    ) [ 011]
br_ln208           (br           ) [ 000]
tmp_320            (read         ) [ 000]
select_ln211       (select       ) [ 000]
store_ln213        (store        ) [ 000]
specinterface_ln0  (specinterface) [ 000]
specinterface_ln0  (specinterface) [ 000]
specinterface_ln0  (specinterface) [ 000]
specinterface_ln0  (specinterface) [ 000]
specpipeline_ln190 (specpipeline ) [ 000]
write_ln231        (write        ) [ 000]
br_ln233           (br           ) [ 000]
br_ln234           (br           ) [ 000]
write_ln224        (write        ) [ 000]
br_ln226           (br           ) [ 000]
br_ln227           (br           ) [ 000]
br_ln219           (br           ) [ 000]
br_ln220           (br           ) [ 000]
ret_ln0            (ret          ) [ 000]
</LifeTime>

<model>

<comp_list>
<comp id="0" class="1000" name="cm_fsmState">
<pin_list>
<pin id="1" dir="1" index="0" bw="1" slack="0"/>
</pin_list>
<bind>
<StgValue><ssdm name="cm_fsmState"/></StgValue>
</bind>
</comp>

<comp id="2" class="1000" name="pt_dstFifo_V">
<pin_list>
<pin id="3" dir="1" index="0" bw="1" slack="0"/>
</pin_list>
<bind>
<StgValue><ssdm name="pt_dstFifo_V"/></StgValue>
</bind>
</comp>

<comp id="4" class="1000" name="pt_portCheckListenin_2">
<pin_list>
<pin id="5" dir="1" index="0" bw="1" slack="0"/>
</pin_list>
<bind>
<StgValue><ssdm name="pt_portCheckListenin_2"/></StgValue>
</bind>
</comp>

<comp id="6" class="1000" name="portTable2rxEng_chec_1">
<pin_list>
<pin id="7" dir="1" index="0" bw="1" slack="0"/>
</pin_list>
<bind>
<StgValue><ssdm name="portTable2rxEng_chec_1"/></StgValue>
</bind>
</comp>

<comp id="8" class="1000" name="pt_portCheckUsed_rsp_1">
<pin_list>
<pin id="9" dir="1" index="0" bw="1" slack="0"/>
</pin_list>
<bind>
<StgValue><ssdm name="pt_portCheckUsed_rsp_1"/></StgValue>
</bind>
</comp>

<comp id="10" class="1001" name="const_10">
<pin_list>
<pin id="11" dir="1" index="0" bw="1" slack="0"/>
</pin_list>
<bind>
<StgValue><ssdm name=""/></StgValue>
</bind>
</comp>

<comp id="12" class="1001" name="const_12">
<pin_list>
<pin id="13" dir="1" index="0" bw="1" slack="0"/>
</pin_list>
<bind>
<StgValue><ssdm name=""/></StgValue>
</bind>
</comp>

<comp id="14" class="1001" name="const_14">
<pin_list>
<pin id="15" dir="1" index="0" bw="1" slack="0"/>
</pin_list>
<bind>
<StgValue><ssdm name=""/></StgValue>
</bind>
</comp>

<comp id="16" class="1001" name="const_16">
<pin_list>
<pin id="17" dir="1" index="0" bw="1" slack="0"/>
</pin_list>
<bind>
<StgValue><ssdm name="_ssdm_op_NbReadReq.ap_fifo.i1P"/></StgValue>
</bind>
</comp>

<comp id="18" class="1001" name="const_18">
<pin_list>
<pin id="19" dir="1" index="0" bw="1" slack="0"/>
</pin_list>
<bind>
<StgValue><ssdm name=""/></StgValue>
</bind>
</comp>

<comp id="20" class="1001" name="const_20">
<pin_list>
<pin id="21" dir="1" index="0" bw="1" slack="0"/>
</pin_list>
<bind>
<StgValue><ssdm name="_ssdm_op_Read.ap_fifo.volatile.i1P"/></StgValue>
</bind>
</comp>

<comp id="22" class="1001" name="const_22">
<pin_list>
<pin id="23" dir="1" index="0" bw="1" slack="2147483647"/>
</pin_list>
<bind>
<StgValue><ssdm name="_ssdm_op_SpecInterface"/></StgValue>
</bind>
</comp>

<comp id="24" class="1001" name="const_24">
<pin_list>
<pin id="25" dir="1" index="0" bw="1" slack="2147483647"/>
</pin_list>
<bind>
<StgValue><ssdm name="ap_fifo_str"/></StgValue>
</bind>
</comp>

<comp id="26" class="1001" name="const_26">
<pin_list>
<pin id="27" dir="1" index="0" bw="1" slack="2147483647"/>
</pin_list>
<bind>
<StgValue><ssdm name=""/></StgValue>
</bind>
</comp>

<comp id="28" class="1001" name="const_28">
<pin_list>
<pin id="29" dir="1" index="0" bw="1" slack="2147483647"/>
</pin_list>
<bind>
<StgValue><ssdm name="p_str"/></StgValue>
</bind>
</comp>

<comp id="30" class="1001" name="const_30">
<pin_list>
<pin id="31" dir="1" index="0" bw="1" slack="2147483647"/>
</pin_list>
<bind>
<StgValue><ssdm name=""/></StgValue>
</bind>
</comp>

<comp id="32" class="1001" name="const_32">
<pin_list>
<pin id="33" dir="1" index="0" bw="1" slack="2147483647"/>
</pin_list>
<bind>
<StgValue><ssdm name=""/></StgValue>
</bind>
</comp>

<comp id="34" class="1001" name="const_34">
<pin_list>
<pin id="35" dir="1" index="0" bw="1" slack="2147483647"/>
</pin_list>
<bind>
<StgValue><ssdm name="_ssdm_op_SpecPipeline"/></StgValue>
</bind>
</comp>

<comp id="36" class="1001" name="const_36">
<pin_list>
<pin id="37" dir="1" index="0" bw="1" slack="2147483647"/>
</pin_list>
<bind>
<StgValue><ssdm name="p_str859"/></StgValue>
</bind>
</comp>

<comp id="38" class="1001" name="const_38">
<pin_list>
<pin id="39" dir="1" index="0" bw="1" slack="0"/>
</pin_list>
<bind>
<StgValue><ssdm name="_ssdm_op_Write.ap_fifo.volatile.i1P"/></StgValue>
</bind>
</comp>

<comp id="40" class="1004" name="tmp_319_nbreadreq_fu_40">
<pin_list>
<pin id="41" dir="0" index="0" bw="1" slack="0"/>
<pin id="42" dir="0" index="1" bw="1" slack="0"/>
<pin id="43" dir="0" index="2" bw="1" slack="0"/>
<pin id="44" dir="1" index="3" bw="1" slack="1"/>
</pin_list>
<bind>
<opcode="nbreadreq(1156) " fcode="nbreadreq"/>
<opset="tmp_319/1 "/>
</bind>
</comp>

<comp id="48" class="1004" name="tmp_322_read_fu_48">
<pin_list>
<pin id="49" dir="0" index="0" bw="1" slack="0"/>
<pin id="50" dir="0" index="1" bw="1" slack="0"/>
<pin id="51" dir="1" index="2" bw="1" slack="1"/>
</pin_list>
<bind>
<opcode="read(1150) " fcode="read"/>
<opset="tmp_322/1 "/>
</bind>
</comp>

<comp id="54" class="1004" name="tmp_318_nbreadreq_fu_54">
<pin_list>
<pin id="55" dir="0" index="0" bw="1" slack="0"/>
<pin id="56" dir="0" index="1" bw="1" slack="0"/>
<pin id="57" dir="0" index="2" bw="1" slack="0"/>
<pin id="58" dir="1" index="3" bw="1" slack="1"/>
</pin_list>
<bind>
<opcode="nbreadreq(1156) " fcode="nbreadreq"/>
<opset="tmp_318/1 "/>
</bind>
</comp>

<comp id="62" class="1004" name="tmp_321_read_fu_62">
<pin_list>
<pin id="63" dir="0" index="0" bw="1" slack="0"/>
<pin id="64" dir="0" index="1" bw="1" slack="0"/>
<pin id="65" dir="1" index="2" bw="1" slack="1"/>
</pin_list>
<bind>
<opcode="read(1150) " fcode="read"/>
<opset="tmp_321/1 "/>
</bind>
</comp>

<comp id="68" class="1004" name="tmp_nbreadreq_fu_68">
<pin_list>
<pin id="69" dir="0" index="0" bw="1" slack="0"/>
<pin id="70" dir="0" index="1" bw="1" slack="0"/>
<pin id="71" dir="0" index="2" bw="1" slack="0"/>
<pin id="72" dir="1" index="3" bw="1" slack="1"/>
</pin_list>
<bind>
<opcode="nbreadreq(1156) " fcode="nbreadreq"/>
<opset="tmp/1 "/>
</bind>
</comp>

<comp id="76" class="1004" name="tmp_320_read_fu_76">
<pin_list>
<pin id="77" dir="0" index="0" bw="1" slack="0"/>
<pin id="78" dir="0" index="1" bw="1" slack="0"/>
<pin id="79" dir="1" index="2" bw="1" slack="0"/>
</pin_list>
<bind>
<opcode="read(1150) " fcode="read"/>
<opset="tmp_320/1 "/>
</bind>
</comp>

<comp id="82" class="1004" name="grp_write_fu_82">
<pin_list>
<pin id="83" dir="0" index="0" bw="0" slack="0"/>
<pin id="84" dir="0" index="1" bw="1" slack="0"/>
<pin id="85" dir="0" index="2" bw="1" slack="1"/>
<pin id="86" dir="1" index="3" bw="0" slack="2147483647"/>
</pin_list>
<bind>
<opcode="write(1151) " fcode="write"/>
<opset="write_ln231/2 write_ln224/2 "/>
</bind>
</comp>

<comp id="89" class="1004" name="grp_store_fu_89">
<pin_list>
<pin id="90" dir="0" index="0" bw="1" slack="0"/>
<pin id="91" dir="0" index="1" bw="2" slack="0"/>
<pin id="92" dir="1" index="2" bw="0" slack="2147483647"/>
</pin_list>
<bind>
<opcode="store(28) " fcode="store"/>
<opset="store_ln232/1 store_ln225/1 "/>
</bind>
</comp>

<comp id="95" class="1004" name="cm_fsmState_load_load_fu_95">
<pin_list>
<pin id="96" dir="0" index="0" bw="2" slack="0"/>
<pin id="97" dir="1" index="1" bw="2" slack="1"/>
</pin_list>
<bind>
<opcode="load(27) " fcode="load"/>
<opset="cm_fsmState_load/1 "/>
</bind>
</comp>

<comp id="99" class="1004" name="select_ln211_fu_99">
<pin_list>
<pin id="100" dir="0" index="0" bw="1" slack="0"/>
<pin id="101" dir="0" index="1" bw="2" slack="0"/>
<pin id="102" dir="0" index="2" bw="2" slack="0"/>
<pin id="103" dir="1" index="3" bw="2" slack="0"/>
</pin_list>
<bind>
<opcode="select(49) " fcode="select"/>
<opset="select_ln211/1 "/>
</bind>
</comp>

<comp id="107" class="1004" name="store_ln213_store_fu_107">
<pin_list>
<pin id="108" dir="0" index="0" bw="2" slack="0"/>
<pin id="109" dir="0" index="1" bw="2" slack="0"/>
<pin id="110" dir="1" index="2" bw="0" slack="2147483647"/>
</pin_list>
<bind>
<opcode="store(28) " fcode="store"/>
<opset="store_ln213/1 "/>
</bind>
</comp>

<comp id="113" class="1005" name="cm_fsmState_load_reg_113">
<pin_list>
<pin id="114" dir="0" index="0" bw="2" slack="1"/>
<pin id="115" dir="1" index="1" bw="2" slack="2147483647"/>
</pin_list>
<bind>
<opset="cm_fsmState_load "/>
</bind>
</comp>

<comp id="117" class="1005" name="tmp_319_reg_117">
<pin_list>
<pin id="118" dir="0" index="0" bw="1" slack="1"/>
<pin id="119" dir="1" index="1" bw="1" slack="2147483647"/>
</pin_list>
<bind>
<opset="tmp_319 "/>
</bind>
</comp>

<comp id="121" class="1005" name="tmp_322_reg_121">
<pin_list>
<pin id="122" dir="0" index="0" bw="1" slack="1"/>
<pin id="123" dir="1" index="1" bw="1" slack="1"/>
</pin_list>
<bind>
<opset="tmp_322 "/>
</bind>
</comp>

<comp id="126" class="1005" name="tmp_318_reg_126">
<pin_list>
<pin id="127" dir="0" index="0" bw="1" slack="1"/>
<pin id="128" dir="1" index="1" bw="1" slack="2147483647"/>
</pin_list>
<bind>
<opset="tmp_318 "/>
</bind>
</comp>

<comp id="130" class="1005" name="tmp_321_reg_130">
<pin_list>
<pin id="131" dir="0" index="0" bw="1" slack="1"/>
<pin id="132" dir="1" index="1" bw="1" slack="1"/>
</pin_list>
<bind>
<opset="tmp_321 "/>
</bind>
</comp>

<comp id="135" class="1005" name="tmp_reg_135">
<pin_list>
<pin id="136" dir="0" index="0" bw="1" slack="1"/>
<pin id="137" dir="1" index="1" bw="1" slack="2147483647"/>
</pin_list>
<bind>
<opset="tmp "/>
</bind>
</comp>

</comp_list>

<net_list>
<net id="45"><net_src comp="16" pin="0"/><net_sink comp="40" pin=0"/></net>

<net id="46"><net_src comp="8" pin="0"/><net_sink comp="40" pin=1"/></net>

<net id="47"><net_src comp="18" pin="0"/><net_sink comp="40" pin=2"/></net>

<net id="52"><net_src comp="20" pin="0"/><net_sink comp="48" pin=0"/></net>

<net id="53"><net_src comp="8" pin="0"/><net_sink comp="48" pin=1"/></net>

<net id="59"><net_src comp="16" pin="0"/><net_sink comp="54" pin=0"/></net>

<net id="60"><net_src comp="4" pin="0"/><net_sink comp="54" pin=1"/></net>

<net id="61"><net_src comp="18" pin="0"/><net_sink comp="54" pin=2"/></net>

<net id="66"><net_src comp="20" pin="0"/><net_sink comp="62" pin=0"/></net>

<net id="67"><net_src comp="4" pin="0"/><net_sink comp="62" pin=1"/></net>

<net id="73"><net_src comp="16" pin="0"/><net_sink comp="68" pin=0"/></net>

<net id="74"><net_src comp="2" pin="0"/><net_sink comp="68" pin=1"/></net>

<net id="75"><net_src comp="18" pin="0"/><net_sink comp="68" pin=2"/></net>

<net id="80"><net_src comp="20" pin="0"/><net_sink comp="76" pin=0"/></net>

<net id="81"><net_src comp="2" pin="0"/><net_sink comp="76" pin=1"/></net>

<net id="87"><net_src comp="38" pin="0"/><net_sink comp="82" pin=0"/></net>

<net id="88"><net_src comp="6" pin="0"/><net_sink comp="82" pin=1"/></net>

<net id="93"><net_src comp="10" pin="0"/><net_sink comp="89" pin=0"/></net>

<net id="94"><net_src comp="0" pin="0"/><net_sink comp="89" pin=1"/></net>

<net id="98"><net_src comp="0" pin="0"/><net_sink comp="95" pin=0"/></net>

<net id="104"><net_src comp="76" pin="2"/><net_sink comp="99" pin=0"/></net>

<net id="105"><net_src comp="12" pin="0"/><net_sink comp="99" pin=1"/></net>

<net id="106"><net_src comp="14" pin="0"/><net_sink comp="99" pin=2"/></net>

<net id="111"><net_src comp="99" pin="3"/><net_sink comp="107" pin=0"/></net>

<net id="112"><net_src comp="0" pin="0"/><net_sink comp="107" pin=1"/></net>

<net id="116"><net_src comp="95" pin="1"/><net_sink comp="113" pin=0"/></net>

<net id="120"><net_src comp="40" pin="3"/><net_sink comp="117" pin=0"/></net>

<net id="124"><net_src comp="48" pin="2"/><net_sink comp="121" pin=0"/></net>

<net id="125"><net_src comp="121" pin="1"/><net_sink comp="82" pin=2"/></net>

<net id="129"><net_src comp="54" pin="3"/><net_sink comp="126" pin=0"/></net>

<net id="133"><net_src comp="62" pin="2"/><net_sink comp="130" pin=0"/></net>

<net id="134"><net_src comp="130" pin="1"/><net_sink comp="82" pin=2"/></net>

<net id="138"><net_src comp="68" pin="3"/><net_sink comp="135" pin=0"/></net>

</net_list>

</model> 
---------------- Datapath Model END ------------------

* FSMD analyzer results:
  - Output states:
	Port: cm_fsmState | {1 }
	Port: pt_dstFifo_V | {}
	Port: pt_portCheckListenin_2 | {}
	Port: portTable2rxEng_chec_1 | {2 }
	Port: pt_portCheckUsed_rsp_1 | {}
 - Input state : 
	Port: check_out_multiplexe : cm_fsmState | {1 }
	Port: check_out_multiplexe : pt_dstFifo_V | {1 }
	Port: check_out_multiplexe : pt_portCheckListenin_2 | {1 }
	Port: check_out_multiplexe : portTable2rxEng_chec_1 | {}
	Port: check_out_multiplexe : pt_portCheckUsed_rsp_1 | {1 }
  - Chain level:
	State 1
		switch_ln205 : 1
		store_ln213 : 1
	State 2


============================================================
+ Verbose Summary: Datapath Resource usage 
============================================================

* Functional unit list:
|----------|-------------------------|---------|---------|
| Operation|     Functional Unit     |    FF   |   LUT   |
|----------|-------------------------|---------|---------|
|  select  |    select_ln211_fu_99   |    0    |    2    |
|----------|-------------------------|---------|---------|
|          | tmp_319_nbreadreq_fu_40 |    0    |    0    |
| nbreadreq| tmp_318_nbreadreq_fu_54 |    0    |    0    |
|          |   tmp_nbreadreq_fu_68   |    0    |    0    |
|----------|-------------------------|---------|---------|
|          |    tmp_322_read_fu_48   |    0    |    0    |
|   read   |    tmp_321_read_fu_62   |    0    |    0    |
|          |    tmp_320_read_fu_76   |    0    |    0    |
|----------|-------------------------|---------|---------|
|   write  |     grp_write_fu_82     |    0    |    0    |
|----------|-------------------------|---------|---------|
|   Total  |                         |    0    |    2    |
|----------|-------------------------|---------|---------|

Memories:
N/A

* Register list:
+------------------------+--------+
|                        |   FF   |
+------------------------+--------+
|cm_fsmState_load_reg_113|    2   |
|     tmp_318_reg_126    |    1   |
|     tmp_319_reg_117    |    1   |
|     tmp_321_reg_130    |    1   |
|     tmp_322_reg_121    |    1   |
|       tmp_reg_135      |    1   |
+------------------------+--------+
|          Total         |    7   |
+------------------------+--------+

* Multiplexer (MUX) list: 
|-----------------|------|------|------|--------||---------||---------|
|       Comp      |  Pin | Size |  BW  | S x BW ||  Delay  ||   LUT   |
|-----------------|------|------|------|--------||---------||---------|
| grp_write_fu_82 |  p2  |   2  |   1  |    2   ||    9    |
|-----------------|------|------|------|--------||---------||---------|
|      Total      |      |      |      |    2   ||  1.769  ||    9    |
|-----------------|------|------|------|--------||---------||---------|



* Summary:
+-----------+--------+--------+--------+
|           |  Delay |   FF   |   LUT  |
+-----------+--------+--------+--------+
|  Function |    -   |    0   |    2   |
|   Memory  |    -   |    -   |    -   |
|Multiplexer|    1   |    -   |    9   |
|  Register |    -   |    7   |    -   |
+-----------+--------+--------+--------+
|   Total   |    1   |    7   |   11   |
+-----------+--------+--------+--------+
