

================================================================
== Vivado HLS Report for 'check_ipv4_checksum'
================================================================
* Date:           Sat Dec 12 19:34:17 2020

* Version:        2019.2.1 (Build 2724168 on Thu Dec 05 05:19:09 MST 2019)
* Project:        toe_prj
* Solution:       solution1
* Product family: zynq
* Target device:  xc7z020-clg400-1


================================================================
== Performance Estimates
================================================================
+ Timing: 
    * Summary: 
    +--------+---------+----------+------------+
    |  Clock |  Target | Estimated| Uncertainty|
    +--------+---------+----------+------------+
    |ap_clk  | 6.40 ns | 5.229 ns |   0.80 ns  |
    +--------+---------+----------+------------+

+ Latency: 
    * Summary: 
    +---------+---------+-----------+-----------+-----+-----+----------+
    |  Latency (cycles) |   Latency (absolute)  |  Interval | Pipeline |
    |   min   |   max   |    min    |    max    | min | max |   Type   |
    +---------+---------+-----------+-----------+-----+-----+----------+
    |        4|        4| 25.600 ns | 25.600 ns |    1|    1| function |
    +---------+---------+-----------+-----------+-----+-----+----------+

    + Detail: 
        * Instance: 
        N/A

        * Loop: 
        N/A

============================================================
+ Verbose Summary: Synthesis Manager
============================================================
InlineROM: 1
ExposeGlobal: 0
============================================================
+ Verbose Summary: CDFG Model
============================================================
IsTopModel: 0
ResetActiveHigh: 1
IsCombinational: 2
IsDatapathOnly: 0
HasWiredReturn: 1
HasMFsm: 2
HasVarLatency: 0
IsPipeline: 1
IsRtlPipelined: 1
IsInstanceOverlapped: 0
IsDontTouch: 0
HasImplIP: 0
IsGatedGlobalClock: 0

+ Individual pipeline summary: 
  * Pipeline-0: initiation interval (II) = 1, depth = 5


============================================================
+ Verbose Summary: Schedule
============================================================
* Number of FSM states : 5
* Pipeline : 1
  Pipeline-0 : II = 1, D = 5, States = { 1 2 3 4 5 }
* Dataflow Pipeline: 0

* FSM state transitions: 
1 --> 2 
2 --> 3 
3 --> 4 
4 --> 5 
5 --> 

* FSM state operations: 

State 1 <SV = 0> <Delay = 4.90>
ST_1 : Operation 6 [1/1] (0.00ns)   --->   "%tmp = call i1 @_ssdm_op_NbReadReq.ap_fifo.i17P.i17P.i17P.i17P(i17* @subSumFifo_V_sum_V_0, i17* @subSumFifo_V_sum_V_1, i17* @subSumFifo_V_sum_V_2, i17* @subSumFifo_V_sum_V_3, i32 1) nounwind" [/home/paulrr2/Projects/ece527/babelsoc/fpga-network-stack/hls/toe/rx_engine/../../ipv4/ipv4.hpp:220]   --->   Operation 6 'nbreadreq' 'tmp' <Predicate = true> <Delay = 0.00> <Core = "FIFO">   --->   Core 32 'FIFO' <Latency = 0> <II = 1> <Delay = 3.63> <Storage> <Opcode : 'read' 'write' 'nbread' 'nbwrite'> <Ports = 0> <Width = 1> <Depth = 2> <FIFO>
ST_1 : Operation 7 [1/1] (0.00ns)   --->   "br i1 %tmp, label %_ZrsILi17ELb0EEN11ap_int_baseIXT_EXT0_EE5RTypeIXT_EXT0_EE4arg1ERKS1_i.exit.i, label %"check_ipv4_checksum<4>.exit"" [/home/paulrr2/Projects/ece527/babelsoc/fpga-network-stack/hls/toe/rx_engine/../../ipv4/ipv4.hpp:220]   --->   Operation 7 'br' <Predicate = true> <Delay = 0.00>
ST_1 : Operation 8 [1/1] (2.80ns)   --->   "%empty = call { i17, i17, i17, i17 } @_ssdm_op_Read.ap_fifo.volatile.i17P.i17P.i17P.i17P(i17* @subSumFifo_V_sum_V_0, i17* @subSumFifo_V_sum_V_1, i17* @subSumFifo_V_sum_V_2, i17* @subSumFifo_V_sum_V_3) nounwind" [/home/paulrr2/Projects/ece527/babelsoc/fpga-network-stack/hls/toe/rx_engine/../../ipv4/ipv4.hpp:222]   --->   Operation 8 'read' 'empty' <Predicate = (tmp)> <Delay = 2.80> <Core = "FIFO">   --->   Core 32 'FIFO' <Latency = 0> <II = 1> <Delay = 3.63> <Storage> <Opcode : 'read' 'write' 'nbread' 'nbwrite'> <Ports = 0> <Width = 1> <Depth = 2> <FIFO>
ST_1 : Operation 9 [1/1] (0.00ns)   --->   "%tmp_sum_0_V = extractvalue { i17, i17, i17, i17 } %empty, 0" [/home/paulrr2/Projects/ece527/babelsoc/fpga-network-stack/hls/toe/rx_engine/../../ipv4/ipv4.hpp:222]   --->   Operation 9 'extractvalue' 'tmp_sum_0_V' <Predicate = (tmp)> <Delay = 0.00>
ST_1 : Operation 10 [1/1] (0.00ns)   --->   "%tmp_sum_1_V = extractvalue { i17, i17, i17, i17 } %empty, 1" [/home/paulrr2/Projects/ece527/babelsoc/fpga-network-stack/hls/toe/rx_engine/../../ipv4/ipv4.hpp:222]   --->   Operation 10 'extractvalue' 'tmp_sum_1_V' <Predicate = (tmp)> <Delay = 0.00>
ST_1 : Operation 11 [1/1] (0.00ns)   --->   "%tmp_sum_2_V = extractvalue { i17, i17, i17, i17 } %empty, 2" [/home/paulrr2/Projects/ece527/babelsoc/fpga-network-stack/hls/toe/rx_engine/../../ipv4/ipv4.hpp:222]   --->   Operation 11 'extractvalue' 'tmp_sum_2_V' <Predicate = (tmp)> <Delay = 0.00>
ST_1 : Operation 12 [1/1] (0.00ns)   --->   "%tmp_sum_3_V = extractvalue { i17, i17, i17, i17 } %empty, 3" [/home/paulrr2/Projects/ece527/babelsoc/fpga-network-stack/hls/toe/rx_engine/../../ipv4/ipv4.hpp:222]   --->   Operation 12 'extractvalue' 'tmp_sum_3_V' <Predicate = (tmp)> <Delay = 0.00>
ST_1 : Operation 13 [1/1] (0.00ns)   --->   "%trunc_ln700 = trunc i17 %tmp_sum_0_V to i16" [/home/paulrr2/Projects/ece527/babelsoc/fpga-network-stack/hls/toe/rx_engine/../../ipv4/ipv4.hpp:255]   --->   Operation 13 'trunc' 'trunc_ln700' <Predicate = (tmp)> <Delay = 0.00>
ST_1 : Operation 14 [1/1] (0.00ns)   --->   "%trunc_ln700_8 = trunc i17 %tmp_sum_2_V to i16" [/home/paulrr2/Projects/ece527/babelsoc/fpga-network-stack/hls/toe/rx_engine/../../ipv4/ipv4.hpp:255]   --->   Operation 14 'trunc' 'trunc_ln700_8' <Predicate = (tmp)> <Delay = 0.00>
ST_1 : Operation 15 [1/1] (2.10ns)   --->   "%add_ln700 = add i17 %tmp_sum_0_V, %tmp_sum_2_V" [/home/paulrr2/Projects/ece527/babelsoc/fpga-network-stack/hls/toe/rx_engine/../../ipv4/ipv4.hpp:255]   --->   Operation 15 'add' 'add_ln700' <Predicate = (tmp)> <Delay = 2.10> <Core = "AddSub">   --->   Core 14 'AddSub' <Latency = 0> <II = 1> <Delay = 2.07> <FuncUnit> <Opcode : 'add' 'sub'> <InPorts = 2> <OutPorts = 1>
ST_1 : Operation 16 [1/1] (0.00ns)   --->   "%trunc_ln700_9 = trunc i17 %tmp_sum_1_V to i16" [/home/paulrr2/Projects/ece527/babelsoc/fpga-network-stack/hls/toe/rx_engine/../../ipv4/ipv4.hpp:256]   --->   Operation 16 'trunc' 'trunc_ln700_9' <Predicate = (tmp)> <Delay = 0.00>
ST_1 : Operation 17 [1/1] (0.00ns)   --->   "%trunc_ln700_10 = trunc i17 %tmp_sum_3_V to i16" [/home/paulrr2/Projects/ece527/babelsoc/fpga-network-stack/hls/toe/rx_engine/../../ipv4/ipv4.hpp:256]   --->   Operation 17 'trunc' 'trunc_ln700_10' <Predicate = (tmp)> <Delay = 0.00>
ST_1 : Operation 18 [1/1] (2.10ns)   --->   "%add_ln700_20 = add i17 %tmp_sum_1_V, %tmp_sum_3_V" [/home/paulrr2/Projects/ece527/babelsoc/fpga-network-stack/hls/toe/rx_engine/../../ipv4/ipv4.hpp:256]   --->   Operation 18 'add' 'add_ln700_20' <Predicate = (tmp)> <Delay = 2.10> <Core = "AddSub">   --->   Core 14 'AddSub' <Latency = 0> <II = 1> <Delay = 2.07> <FuncUnit> <Opcode : 'add' 'sub'> <InPorts = 2> <OutPorts = 1>
ST_1 : Operation 19 [1/1] (0.00ns)   --->   "%tmp_323 = call i1 @_ssdm_op_BitSelect.i1.i17.i32(i17 %add_ln700, i32 16)" [/home/paulrr2/Projects/ece527/babelsoc/fpga-network-stack/hls/toe/rx_engine/../../ipv4/ipv4.hpp:257]   --->   Operation 19 'bitselect' 'tmp_323' <Predicate = (tmp)> <Delay = 0.00>
ST_1 : Operation 20 [1/1] (0.00ns)   --->   "%tmp_324 = call i1 @_ssdm_op_BitSelect.i1.i17.i32(i17 %add_ln700_20, i32 16)" [/home/paulrr2/Projects/ece527/babelsoc/fpga-network-stack/hls/toe/rx_engine/../../ipv4/ipv4.hpp:258]   --->   Operation 20 'bitselect' 'tmp_324' <Predicate = (tmp)> <Delay = 0.00>

State 2 <SV = 1> <Delay = 3.90>
ST_2 : Operation 21 [1/1] (0.00ns)   --->   "%zext_ln214_20 = zext i1 %tmp_323 to i16" [/home/paulrr2/Projects/ece527/babelsoc/fpga-network-stack/hls/toe/rx_engine/../../ipv4/ipv4.hpp:257]   --->   Operation 21 'zext' 'zext_ln214_20' <Predicate = (tmp)> <Delay = 0.00>
ST_2 : Operation 22 [1/1] (0.00ns) (grouped into TernaryAdder)   --->   "%add_ln214 = add i16 %zext_ln214_20, %trunc_ln700_8" [/home/paulrr2/Projects/ece527/babelsoc/fpga-network-stack/hls/toe/rx_engine/../../ipv4/ipv4.hpp:257]   --->   Operation 22 'add' 'add_ln214' <Predicate = (tmp)> <Delay = 0.00> <Core = "TAddSub">   --->   Core 83 'TAddSub' <Latency = 0> <II = 1> <Delay = 1.95> <IPBlock> <Opcode : 'add' 'sub'> <InPorts = 3> <OutPorts = 1> <Sync> <CReg>
ST_2 : Operation 23 [1/1] (3.90ns) (root node of TernaryAdder)   --->   "%add_ln214_29 = add i16 %trunc_ln700, %add_ln214" [/home/paulrr2/Projects/ece527/babelsoc/fpga-network-stack/hls/toe/rx_engine/../../ipv4/ipv4.hpp:257]   --->   Operation 23 'add' 'add_ln214_29' <Predicate = (tmp)> <Delay = 3.90> <Core = "TAddSub">   --->   Core 83 'TAddSub' <Latency = 0> <II = 1> <Delay = 1.95> <IPBlock> <Opcode : 'add' 'sub'> <InPorts = 3> <OutPorts = 1> <Sync> <CReg>
ST_2 : Operation 24 [1/1] (0.00ns)   --->   "%zext_ln214_21 = zext i1 %tmp_324 to i16" [/home/paulrr2/Projects/ece527/babelsoc/fpga-network-stack/hls/toe/rx_engine/../../ipv4/ipv4.hpp:258]   --->   Operation 24 'zext' 'zext_ln214_21' <Predicate = (tmp)> <Delay = 0.00>
ST_2 : Operation 25 [1/1] (0.00ns) (grouped into TernaryAdder)   --->   "%add_ln214_30 = add i16 %zext_ln214_21, %trunc_ln700_10" [/home/paulrr2/Projects/ece527/babelsoc/fpga-network-stack/hls/toe/rx_engine/../../ipv4/ipv4.hpp:258]   --->   Operation 25 'add' 'add_ln214_30' <Predicate = (tmp)> <Delay = 0.00> <Core = "TAddSub">   --->   Core 83 'TAddSub' <Latency = 0> <II = 1> <Delay = 1.95> <IPBlock> <Opcode : 'add' 'sub'> <InPorts = 3> <OutPorts = 1> <Sync> <CReg>
ST_2 : Operation 26 [1/1] (3.90ns) (root node of TernaryAdder)   --->   "%tmp_sum_1_V_1 = add i16 %trunc_ln700_9, %add_ln214_30" [/home/paulrr2/Projects/ece527/babelsoc/fpga-network-stack/hls/toe/rx_engine/../../ipv4/ipv4.hpp:258]   --->   Operation 26 'add' 'tmp_sum_1_V_1' <Predicate = (tmp)> <Delay = 3.90> <Core = "TAddSub">   --->   Core 83 'TAddSub' <Latency = 0> <II = 1> <Delay = 1.95> <IPBlock> <Opcode : 'add' 'sub'> <InPorts = 3> <OutPorts = 1> <Sync> <CReg>

State 3 <SV = 2> <Delay = 2.07>
ST_3 : Operation 27 [1/1] (0.00ns)   --->   "%zext_ln214 = zext i16 %add_ln214_29 to i17" [/home/paulrr2/Projects/ece527/babelsoc/fpga-network-stack/hls/toe/rx_engine/../../ipv4/ipv4.hpp:257]   --->   Operation 27 'zext' 'zext_ln214' <Predicate = (tmp)> <Delay = 0.00>
ST_3 : Operation 28 [1/1] (0.00ns)   --->   "%tmp_sum_1_V_2 = zext i16 %tmp_sum_1_V_1 to i17" [/home/paulrr2/Projects/ece527/babelsoc/fpga-network-stack/hls/toe/rx_engine/../../ipv4/ipv4.hpp:258]   --->   Operation 28 'zext' 'tmp_sum_1_V_2' <Predicate = (tmp)> <Delay = 0.00>
ST_3 : Operation 29 [1/1] (2.07ns)   --->   "%add_ln700_21 = add i17 %tmp_sum_1_V_2, %zext_ln214" [/home/paulrr2/Projects/ece527/babelsoc/fpga-network-stack/hls/toe/rx_engine/../../ipv4/ipv4.hpp:259]   --->   Operation 29 'add' 'add_ln700_21' <Predicate = (tmp)> <Delay = 2.07> <Core = "AddSub">   --->   Core 14 'AddSub' <Latency = 0> <II = 1> <Delay = 2.07> <FuncUnit> <Opcode : 'add' 'sub'> <InPorts = 2> <OutPorts = 1>
ST_3 : Operation 30 [1/1] (0.00ns)   --->   "%tmp_325 = call i1 @_ssdm_op_BitSelect.i1.i17.i32(i17 %add_ln700_21, i32 16)" [/home/paulrr2/Projects/ece527/babelsoc/fpga-network-stack/hls/toe/rx_engine/../../ipv4/ipv4.hpp:260]   --->   Operation 30 'bitselect' 'tmp_325' <Predicate = (tmp)> <Delay = 0.00>

State 4 <SV = 3> <Delay = 3.90>
ST_4 : Operation 31 [1/1] (0.00ns) (grouped into TernaryAdder)   --->   "%add_ln700_22 = add i16 %add_ln214_29, %tmp_sum_1_V_1" [/home/paulrr2/Projects/ece527/babelsoc/fpga-network-stack/hls/toe/rx_engine/../../ipv4/ipv4.hpp:259]   --->   Operation 31 'add' 'add_ln700_22' <Predicate = (tmp)> <Delay = 0.00> <Core = "TAddSub">   --->   Core 83 'TAddSub' <Latency = 0> <II = 1> <Delay = 1.95> <IPBlock> <Opcode : 'add' 'sub'> <InPorts = 3> <OutPorts = 1> <Sync> <CReg>
ST_4 : Operation 32 [1/1] (0.00ns)   --->   "%zext_ln214_23 = zext i1 %tmp_325 to i16" [/home/paulrr2/Projects/ece527/babelsoc/fpga-network-stack/hls/toe/rx_engine/../../ipv4/ipv4.hpp:260]   --->   Operation 32 'zext' 'zext_ln214_23' <Predicate = (tmp)> <Delay = 0.00>
ST_4 : Operation 33 [1/1] (3.90ns) (root node of TernaryAdder)   --->   "%add_ln769 = add i16 %zext_ln214_23, %add_ln700_22" [/home/paulrr2/Projects/ece527/babelsoc/fpga-network-stack/hls/toe/rx_engine/../../ipv4/ipv4.hpp:261]   --->   Operation 33 'add' 'add_ln769' <Predicate = (tmp)> <Delay = 3.90> <Core = "TAddSub">   --->   Core 83 'TAddSub' <Latency = 0> <II = 1> <Delay = 1.95> <IPBlock> <Opcode : 'add' 'sub'> <InPorts = 3> <OutPorts = 1> <Sync> <CReg>

State 5 <SV = 4> <Delay = 5.22>
ST_5 : Operation 34 [1/1] (0.00ns)   --->   "call void (...)* @_ssdm_op_SpecInterface(i1* @rxEng_checksumValidF_1, [8 x i8]* @ap_fifo_str, i32 0, i32 0, [1 x i8]* @p_str, i32 0, i32 0, [1 x i8]* @p_str, [1 x i8]* @p_str, [1 x i8]* @p_str, i32 2, i32 2, i32 16, i32 16, [1 x i8]* @p_str, [1 x i8]* @p_str)"   --->   Operation 34 'specinterface' <Predicate = true> <Delay = 0.00>
ST_5 : Operation 35 [1/1] (0.00ns)   --->   "call void (...)* @_ssdm_op_SpecInterface(i17* @subSumFifo_V_sum_V_0, [8 x i8]* @ap_fifo_str, i32 0, i32 0, [1 x i8]* @p_str, i32 0, i32 0, [1 x i8]* @p_str, [1 x i8]* @p_str, [1 x i8]* @p_str, i32 2, i32 2, i32 16, i32 16, [1 x i8]* @p_str, [1 x i8]* @p_str)"   --->   Operation 35 'specinterface' <Predicate = true> <Delay = 0.00>
ST_5 : Operation 36 [1/1] (0.00ns)   --->   "call void (...)* @_ssdm_op_SpecInterface(i17* @subSumFifo_V_sum_V_1, [8 x i8]* @ap_fifo_str, i32 0, i32 0, [1 x i8]* @p_str, i32 0, i32 0, [1 x i8]* @p_str, [1 x i8]* @p_str, [1 x i8]* @p_str, i32 2, i32 2, i32 16, i32 16, [1 x i8]* @p_str, [1 x i8]* @p_str)"   --->   Operation 36 'specinterface' <Predicate = true> <Delay = 0.00>
ST_5 : Operation 37 [1/1] (0.00ns)   --->   "call void (...)* @_ssdm_op_SpecInterface(i17* @subSumFifo_V_sum_V_2, [8 x i8]* @ap_fifo_str, i32 0, i32 0, [1 x i8]* @p_str, i32 0, i32 0, [1 x i8]* @p_str, [1 x i8]* @p_str, [1 x i8]* @p_str, i32 2, i32 2, i32 16, i32 16, [1 x i8]* @p_str, [1 x i8]* @p_str)"   --->   Operation 37 'specinterface' <Predicate = true> <Delay = 0.00>
ST_5 : Operation 38 [1/1] (0.00ns)   --->   "call void (...)* @_ssdm_op_SpecInterface(i17* @subSumFifo_V_sum_V_3, [8 x i8]* @ap_fifo_str, i32 0, i32 0, [1 x i8]* @p_str, i32 0, i32 0, [1 x i8]* @p_str, [1 x i8]* @p_str, [1 x i8]* @p_str, i32 2, i32 2, i32 16, i32 16, [1 x i8]* @p_str, [1 x i8]* @p_str)"   --->   Operation 38 'specinterface' <Predicate = true> <Delay = 0.00>
ST_5 : Operation 39 [1/1] (0.00ns)   --->   "call void (...)* @_ssdm_op_SpecPipeline(i32 1, i32 1, i32 1, i32 0, [1 x i8]* @p_str566) nounwind" [/home/paulrr2/Projects/ece527/babelsoc/fpga-network-stack/hls/toe/rx_engine/../../ipv4/ipv4.hpp:217]   --->   Operation 39 'specpipeline' <Predicate = true> <Delay = 0.00>
ST_5 : Operation 40 [1/1] (2.42ns)   --->   "%tmp_326 = icmp eq i16 %add_ln769, -1" [/home/paulrr2/Projects/ece527/babelsoc/fpga-network-stack/hls/toe/rx_engine/../../ipv4/ipv4.hpp:263]   --->   Operation 40 'icmp' 'tmp_326' <Predicate = (tmp)> <Delay = 2.42> <Core = "Cmp">   --->   Core 25 'Cmp' <Latency = 0> <II = 1> <Delay = 2.42> <FuncUnit> <Opcode : 'icmp'> <InPorts = 2> <OutPorts = 1>
ST_5 : Operation 41 [1/1] (2.80ns)   --->   "call void @_ssdm_op_Write.ap_fifo.volatile.i1P(i1* @rxEng_checksumValidF_1, i1 %tmp_326) nounwind" [/home/paulrr2/Projects/ece527/babelsoc/fpga-network-stack/hls/toe/rx_engine/../../ipv4/ipv4.hpp:263]   --->   Operation 41 'write' <Predicate = (tmp)> <Delay = 2.80> <Core = "FIFO">   --->   Core 32 'FIFO' <Latency = 0> <II = 1> <Delay = 3.63> <Storage> <Opcode : 'read' 'write' 'nbread' 'nbwrite'> <Ports = 0> <Width = 1> <Depth = 2> <FIFO>
ST_5 : Operation 42 [1/1] (0.00ns)   --->   "br label %"check_ipv4_checksum<4>.exit"" [/home/paulrr2/Projects/ece527/babelsoc/fpga-network-stack/hls/toe/rx_engine/../../ipv4/ipv4.hpp:264]   --->   Operation 42 'br' <Predicate = (tmp)> <Delay = 0.00>
ST_5 : Operation 43 [1/1] (0.00ns)   --->   "ret void"   --->   Operation 43 'ret' <Predicate = true> <Delay = 0.00>


============================================================
+ Verbose Summary: Binding
============================================================
STG Binding: 
---------------- STG Properties BEGIN ----------------
- Is combinational: 0
- Is one-state seq: 0
- Is datapath-only: 0
- Is pipelined: 1
- Is top level: 0
Port [ Return ] is wired: 1; IO mode=ap_ctrl_hs:ce=0
Port [ subSumFifo_V_sum_V_0]:  wired=1; compound=1; hidden=0; nouse=0; global=1; static=1; extern=0; dir=0; type=3; pingpong=0; private_global=0; linkage=7; visibility=0; IO mode=ap_fifo:ce=0
Port [ subSumFifo_V_sum_V_1]:  wired=1; compound=1; hidden=0; nouse=0; global=1; static=1; extern=0; dir=0; type=3; pingpong=0; private_global=0; linkage=7; visibility=0; IO mode=ap_fifo:ce=0
Port [ subSumFifo_V_sum_V_2]:  wired=1; compound=1; hidden=0; nouse=0; global=1; static=1; extern=0; dir=0; type=3; pingpong=0; private_global=0; linkage=7; visibility=0; IO mode=ap_fifo:ce=0
Port [ subSumFifo_V_sum_V_3]:  wired=1; compound=1; hidden=0; nouse=0; global=1; static=1; extern=0; dir=0; type=3; pingpong=0; private_global=0; linkage=7; visibility=0; IO mode=ap_fifo:ce=0
Port [ rxEng_checksumValidF_1]:  wired=1; compound=1; hidden=0; nouse=0; global=1; static=1; extern=0; dir=1; type=3; pingpong=0; private_global=0; linkage=7; visibility=0; IO mode=ap_fifo:ce=0
---------------- STG Properties END ------------------

---------------- Datapath Model BEGIN ----------------

<LifeTime>
<method=bitvector/>
tmp                (nbreadreq    ) [ 011111]
br_ln220           (br           ) [ 000000]
empty              (read         ) [ 000000]
tmp_sum_0_V        (extractvalue ) [ 000000]
tmp_sum_1_V        (extractvalue ) [ 000000]
tmp_sum_2_V        (extractvalue ) [ 000000]
tmp_sum_3_V        (extractvalue ) [ 000000]
trunc_ln700        (trunc        ) [ 011000]
trunc_ln700_8      (trunc        ) [ 011000]
add_ln700          (add          ) [ 000000]
trunc_ln700_9      (trunc        ) [ 011000]
trunc_ln700_10     (trunc        ) [ 011000]
add_ln700_20       (add          ) [ 000000]
tmp_323            (bitselect    ) [ 011000]
tmp_324            (bitselect    ) [ 011000]
zext_ln214_20      (zext         ) [ 000000]
add_ln214          (add          ) [ 000000]
add_ln214_29       (add          ) [ 010110]
zext_ln214_21      (zext         ) [ 000000]
add_ln214_30       (add          ) [ 000000]
tmp_sum_1_V_1      (add          ) [ 010110]
zext_ln214         (zext         ) [ 000000]
tmp_sum_1_V_2      (zext         ) [ 000000]
add_ln700_21       (add          ) [ 000000]
tmp_325            (bitselect    ) [ 010010]
add_ln700_22       (add          ) [ 000000]
zext_ln214_23      (zext         ) [ 000000]
add_ln769          (add          ) [ 010001]
specinterface_ln0  (specinterface) [ 000000]
specinterface_ln0  (specinterface) [ 000000]
specinterface_ln0  (specinterface) [ 000000]
specinterface_ln0  (specinterface) [ 000000]
specinterface_ln0  (specinterface) [ 000000]
specpipeline_ln217 (specpipeline ) [ 000000]
tmp_326            (icmp         ) [ 000000]
write_ln263        (write        ) [ 000000]
br_ln264           (br           ) [ 000000]
ret_ln0            (ret          ) [ 000000]
</LifeTime>

<model>

<comp_list>
<comp id="0" class="1000" name="subSumFifo_V_sum_V_0">
<pin_list>
<pin id="1" dir="1" index="0" bw="1" slack="0"/>
</pin_list>
<bind>
<StgValue><ssdm name="subSumFifo_V_sum_V_0"/></StgValue>
</bind>
</comp>

<comp id="2" class="1000" name="subSumFifo_V_sum_V_1">
<pin_list>
<pin id="3" dir="1" index="0" bw="1" slack="0"/>
</pin_list>
<bind>
<StgValue><ssdm name="subSumFifo_V_sum_V_1"/></StgValue>
</bind>
</comp>

<comp id="4" class="1000" name="subSumFifo_V_sum_V_2">
<pin_list>
<pin id="5" dir="1" index="0" bw="1" slack="0"/>
</pin_list>
<bind>
<StgValue><ssdm name="subSumFifo_V_sum_V_2"/></StgValue>
</bind>
</comp>

<comp id="6" class="1000" name="subSumFifo_V_sum_V_3">
<pin_list>
<pin id="7" dir="1" index="0" bw="1" slack="0"/>
</pin_list>
<bind>
<StgValue><ssdm name="subSumFifo_V_sum_V_3"/></StgValue>
</bind>
</comp>

<comp id="8" class="1000" name="rxEng_checksumValidF_1">
<pin_list>
<pin id="9" dir="1" index="0" bw="1" slack="0"/>
</pin_list>
<bind>
<StgValue><ssdm name="rxEng_checksumValidF_1"/></StgValue>
</bind>
</comp>

<comp id="10" class="1001" name="const_10">
<pin_list>
<pin id="11" dir="1" index="0" bw="1" slack="0"/>
</pin_list>
<bind>
<StgValue><ssdm name="_ssdm_op_NbReadReq.ap_fifo.i17P.i17P.i17P.i17P"/></StgValue>
</bind>
</comp>

<comp id="12" class="1001" name="const_12">
<pin_list>
<pin id="13" dir="1" index="0" bw="1" slack="0"/>
</pin_list>
<bind>
<StgValue><ssdm name=""/></StgValue>
</bind>
</comp>

<comp id="14" class="1001" name="const_14">
<pin_list>
<pin id="15" dir="1" index="0" bw="1" slack="0"/>
</pin_list>
<bind>
<StgValue><ssdm name="_ssdm_op_Read.ap_fifo.volatile.i17P.i17P.i17P.i17P"/></StgValue>
</bind>
</comp>

<comp id="16" class="1001" name="const_16">
<pin_list>
<pin id="17" dir="1" index="0" bw="1" slack="0"/>
</pin_list>
<bind>
<StgValue><ssdm name="_ssdm_op_BitSelect.i1.i17.i32"/></StgValue>
</bind>
</comp>

<comp id="18" class="1001" name="const_18">
<pin_list>
<pin id="19" dir="1" index="0" bw="1" slack="0"/>
</pin_list>
<bind>
<StgValue><ssdm name=""/></StgValue>
</bind>
</comp>

<comp id="20" class="1001" name="const_20">
<pin_list>
<pin id="21" dir="1" index="0" bw="1" slack="2147483647"/>
</pin_list>
<bind>
<StgValue><ssdm name="_ssdm_op_SpecInterface"/></StgValue>
</bind>
</comp>

<comp id="22" class="1001" name="const_22">
<pin_list>
<pin id="23" dir="1" index="0" bw="1" slack="2147483647"/>
</pin_list>
<bind>
<StgValue><ssdm name="ap_fifo_str"/></StgValue>
</bind>
</comp>

<comp id="24" class="1001" name="const_24">
<pin_list>
<pin id="25" dir="1" index="0" bw="1" slack="2147483647"/>
</pin_list>
<bind>
<StgValue><ssdm name=""/></StgValue>
</bind>
</comp>

<comp id="26" class="1001" name="const_26">
<pin_list>
<pin id="27" dir="1" index="0" bw="1" slack="2147483647"/>
</pin_list>
<bind>
<StgValue><ssdm name="p_str"/></StgValue>
</bind>
</comp>

<comp id="28" class="1001" name="const_28">
<pin_list>
<pin id="29" dir="1" index="0" bw="1" slack="2147483647"/>
</pin_list>
<bind>
<StgValue><ssdm name=""/></StgValue>
</bind>
</comp>

<comp id="30" class="1001" name="const_30">
<pin_list>
<pin id="31" dir="1" index="0" bw="1" slack="2147483647"/>
</pin_list>
<bind>
<StgValue><ssdm name="_ssdm_op_SpecPipeline"/></StgValue>
</bind>
</comp>

<comp id="32" class="1001" name="const_32">
<pin_list>
<pin id="33" dir="1" index="0" bw="1" slack="2147483647"/>
</pin_list>
<bind>
<StgValue><ssdm name="p_str566"/></StgValue>
</bind>
</comp>

<comp id="34" class="1001" name="const_34">
<pin_list>
<pin id="35" dir="1" index="0" bw="1" slack="0"/>
</pin_list>
<bind>
<StgValue><ssdm name=""/></StgValue>
</bind>
</comp>

<comp id="36" class="1001" name="const_36">
<pin_list>
<pin id="37" dir="1" index="0" bw="1" slack="0"/>
</pin_list>
<bind>
<StgValue><ssdm name="_ssdm_op_Write.ap_fifo.volatile.i1P"/></StgValue>
</bind>
</comp>

<comp id="38" class="1004" name="tmp_nbreadreq_fu_38">
<pin_list>
<pin id="39" dir="0" index="0" bw="1" slack="0"/>
<pin id="40" dir="0" index="1" bw="17" slack="0"/>
<pin id="41" dir="0" index="2" bw="17" slack="0"/>
<pin id="42" dir="0" index="3" bw="17" slack="0"/>
<pin id="43" dir="0" index="4" bw="17" slack="0"/>
<pin id="44" dir="0" index="5" bw="1" slack="0"/>
<pin id="45" dir="1" index="6" bw="1" slack="1"/>
</pin_list>
<bind>
<opcode="nbreadreq(1156) " fcode="nbreadreq"/>
<opset="tmp/1 "/>
</bind>
</comp>

<comp id="52" class="1004" name="empty_read_fu_52">
<pin_list>
<pin id="53" dir="0" index="0" bw="68" slack="0"/>
<pin id="54" dir="0" index="1" bw="17" slack="0"/>
<pin id="55" dir="0" index="2" bw="17" slack="0"/>
<pin id="56" dir="0" index="3" bw="17" slack="0"/>
<pin id="57" dir="0" index="4" bw="17" slack="0"/>
<pin id="58" dir="1" index="5" bw="68" slack="0"/>
</pin_list>
<bind>
<opcode="read(1150) " fcode="read"/>
<opset="empty/1 "/>
</bind>
</comp>

<comp id="64" class="1004" name="write_ln263_write_fu_64">
<pin_list>
<pin id="65" dir="0" index="0" bw="0" slack="0"/>
<pin id="66" dir="0" index="1" bw="1" slack="0"/>
<pin id="67" dir="0" index="2" bw="1" slack="0"/>
<pin id="68" dir="1" index="3" bw="0" slack="2147483647"/>
</pin_list>
<bind>
<opcode="write(1151) " fcode="write"/>
<opset="write_ln263/5 "/>
</bind>
</comp>

<comp id="71" class="1004" name="tmp_sum_0_V_fu_71">
<pin_list>
<pin id="72" dir="0" index="0" bw="68" slack="0"/>
<pin id="73" dir="1" index="1" bw="17" slack="0"/>
</pin_list>
<bind>
<opcode="extractvalue(56) " fcode="extractvalue"/>
<opset="tmp_sum_0_V/1 "/>
</bind>
</comp>

<comp id="75" class="1004" name="tmp_sum_1_V_fu_75">
<pin_list>
<pin id="76" dir="0" index="0" bw="68" slack="0"/>
<pin id="77" dir="1" index="1" bw="17" slack="0"/>
</pin_list>
<bind>
<opcode="extractvalue(56) " fcode="extractvalue"/>
<opset="tmp_sum_1_V/1 "/>
</bind>
</comp>

<comp id="79" class="1004" name="tmp_sum_2_V_fu_79">
<pin_list>
<pin id="80" dir="0" index="0" bw="68" slack="0"/>
<pin id="81" dir="1" index="1" bw="17" slack="0"/>
</pin_list>
<bind>
<opcode="extractvalue(56) " fcode="extractvalue"/>
<opset="tmp_sum_2_V/1 "/>
</bind>
</comp>

<comp id="83" class="1004" name="tmp_sum_3_V_fu_83">
<pin_list>
<pin id="84" dir="0" index="0" bw="68" slack="0"/>
<pin id="85" dir="1" index="1" bw="17" slack="0"/>
</pin_list>
<bind>
<opcode="extractvalue(56) " fcode="extractvalue"/>
<opset="tmp_sum_3_V/1 "/>
</bind>
</comp>

<comp id="87" class="1004" name="trunc_ln700_fu_87">
<pin_list>
<pin id="88" dir="0" index="0" bw="17" slack="0"/>
<pin id="89" dir="1" index="1" bw="16" slack="1"/>
</pin_list>
<bind>
<opcode="trunc(33) " fcode="trunc"/>
<opset="trunc_ln700/1 "/>
</bind>
</comp>

<comp id="91" class="1004" name="trunc_ln700_8_fu_91">
<pin_list>
<pin id="92" dir="0" index="0" bw="17" slack="0"/>
<pin id="93" dir="1" index="1" bw="16" slack="1"/>
</pin_list>
<bind>
<opcode="trunc(33) " fcode="trunc"/>
<opset="trunc_ln700_8/1 "/>
</bind>
</comp>

<comp id="95" class="1004" name="add_ln700_fu_95">
<pin_list>
<pin id="96" dir="0" index="0" bw="17" slack="0"/>
<pin id="97" dir="0" index="1" bw="17" slack="0"/>
<pin id="98" dir="1" index="2" bw="17" slack="0"/>
</pin_list>
<bind>
<opcode="add(8) " fcode="add"/>
<opset="add_ln700/1 "/>
</bind>
</comp>

<comp id="101" class="1004" name="trunc_ln700_9_fu_101">
<pin_list>
<pin id="102" dir="0" index="0" bw="17" slack="0"/>
<pin id="103" dir="1" index="1" bw="16" slack="1"/>
</pin_list>
<bind>
<opcode="trunc(33) " fcode="trunc"/>
<opset="trunc_ln700_9/1 "/>
</bind>
</comp>

<comp id="105" class="1004" name="trunc_ln700_10_fu_105">
<pin_list>
<pin id="106" dir="0" index="0" bw="17" slack="0"/>
<pin id="107" dir="1" index="1" bw="16" slack="1"/>
</pin_list>
<bind>
<opcode="trunc(33) " fcode="trunc"/>
<opset="trunc_ln700_10/1 "/>
</bind>
</comp>

<comp id="109" class="1004" name="add_ln700_20_fu_109">
<pin_list>
<pin id="110" dir="0" index="0" bw="17" slack="0"/>
<pin id="111" dir="0" index="1" bw="17" slack="0"/>
<pin id="112" dir="1" index="2" bw="17" slack="0"/>
</pin_list>
<bind>
<opcode="add(8) " fcode="add"/>
<opset="add_ln700_20/1 "/>
</bind>
</comp>

<comp id="115" class="1004" name="tmp_323_fu_115">
<pin_list>
<pin id="116" dir="0" index="0" bw="1" slack="0"/>
<pin id="117" dir="0" index="1" bw="17" slack="0"/>
<pin id="118" dir="0" index="2" bw="6" slack="0"/>
<pin id="119" dir="1" index="3" bw="1" slack="1"/>
</pin_list>
<bind>
<opcode="bitselect(1000) " fcode="bitselect"/>
<opset="tmp_323/1 "/>
</bind>
</comp>

<comp id="123" class="1004" name="tmp_324_fu_123">
<pin_list>
<pin id="124" dir="0" index="0" bw="1" slack="0"/>
<pin id="125" dir="0" index="1" bw="17" slack="0"/>
<pin id="126" dir="0" index="2" bw="6" slack="0"/>
<pin id="127" dir="1" index="3" bw="1" slack="1"/>
</pin_list>
<bind>
<opcode="bitselect(1000) " fcode="bitselect"/>
<opset="tmp_324/1 "/>
</bind>
</comp>

<comp id="131" class="1004" name="zext_ln214_20_fu_131">
<pin_list>
<pin id="132" dir="0" index="0" bw="1" slack="1"/>
<pin id="133" dir="1" index="1" bw="16" slack="0"/>
</pin_list>
<bind>
<opcode="zext(34) " fcode="zext"/>
<opset="zext_ln214_20/2 "/>
</bind>
</comp>

<comp id="134" class="1004" name="add_ln214_fu_134">
<pin_list>
<pin id="135" dir="0" index="0" bw="1" slack="0"/>
<pin id="136" dir="0" index="1" bw="16" slack="1"/>
<pin id="137" dir="1" index="2" bw="16" slack="0"/>
</pin_list>
<bind>
<opcode="add(8) " fcode="add"/>
<opset="add_ln214/2 "/>
</bind>
</comp>

<comp id="139" class="1004" name="add_ln214_29_fu_139">
<pin_list>
<pin id="140" dir="0" index="0" bw="16" slack="1"/>
<pin id="141" dir="0" index="1" bw="16" slack="0"/>
<pin id="142" dir="1" index="2" bw="16" slack="1"/>
</pin_list>
<bind>
<opcode="add(8) " fcode="add"/>
<opset="add_ln214_29/2 "/>
</bind>
</comp>

<comp id="144" class="1004" name="zext_ln214_21_fu_144">
<pin_list>
<pin id="145" dir="0" index="0" bw="1" slack="1"/>
<pin id="146" dir="1" index="1" bw="16" slack="0"/>
</pin_list>
<bind>
<opcode="zext(34) " fcode="zext"/>
<opset="zext_ln214_21/2 "/>
</bind>
</comp>

<comp id="147" class="1004" name="add_ln214_30_fu_147">
<pin_list>
<pin id="148" dir="0" index="0" bw="1" slack="0"/>
<pin id="149" dir="0" index="1" bw="16" slack="1"/>
<pin id="150" dir="1" index="2" bw="16" slack="0"/>
</pin_list>
<bind>
<opcode="add(8) " fcode="add"/>
<opset="add_ln214_30/2 "/>
</bind>
</comp>

<comp id="152" class="1004" name="tmp_sum_1_V_1_fu_152">
<pin_list>
<pin id="153" dir="0" index="0" bw="16" slack="1"/>
<pin id="154" dir="0" index="1" bw="16" slack="0"/>
<pin id="155" dir="1" index="2" bw="16" slack="1"/>
</pin_list>
<bind>
<opcode="add(8) " fcode="add"/>
<opset="tmp_sum_1_V_1/2 "/>
</bind>
</comp>

<comp id="157" class="1004" name="zext_ln214_fu_157">
<pin_list>
<pin id="158" dir="0" index="0" bw="16" slack="1"/>
<pin id="159" dir="1" index="1" bw="17" slack="0"/>
</pin_list>
<bind>
<opcode="zext(34) " fcode="zext"/>
<opset="zext_ln214/3 "/>
</bind>
</comp>

<comp id="160" class="1004" name="tmp_sum_1_V_2_fu_160">
<pin_list>
<pin id="161" dir="0" index="0" bw="16" slack="1"/>
<pin id="162" dir="1" index="1" bw="17" slack="0"/>
</pin_list>
<bind>
<opcode="zext(34) " fcode="zext"/>
<opset="tmp_sum_1_V_2/3 "/>
</bind>
</comp>

<comp id="163" class="1004" name="add_ln700_21_fu_163">
<pin_list>
<pin id="164" dir="0" index="0" bw="16" slack="0"/>
<pin id="165" dir="0" index="1" bw="16" slack="0"/>
<pin id="166" dir="1" index="2" bw="17" slack="0"/>
</pin_list>
<bind>
<opcode="add(8) " fcode="add"/>
<opset="add_ln700_21/3 "/>
</bind>
</comp>

<comp id="169" class="1004" name="tmp_325_fu_169">
<pin_list>
<pin id="170" dir="0" index="0" bw="1" slack="0"/>
<pin id="171" dir="0" index="1" bw="17" slack="0"/>
<pin id="172" dir="0" index="2" bw="6" slack="0"/>
<pin id="173" dir="1" index="3" bw="1" slack="1"/>
</pin_list>
<bind>
<opcode="bitselect(1000) " fcode="bitselect"/>
<opset="tmp_325/3 "/>
</bind>
</comp>

<comp id="177" class="1004" name="add_ln700_22_fu_177">
<pin_list>
<pin id="178" dir="0" index="0" bw="16" slack="2"/>
<pin id="179" dir="0" index="1" bw="16" slack="2"/>
<pin id="180" dir="1" index="2" bw="16" slack="0"/>
</pin_list>
<bind>
<opcode="add(8) " fcode="add"/>
<opset="add_ln700_22/4 "/>
</bind>
</comp>

<comp id="181" class="1004" name="zext_ln214_23_fu_181">
<pin_list>
<pin id="182" dir="0" index="0" bw="1" slack="1"/>
<pin id="183" dir="1" index="1" bw="16" slack="0"/>
</pin_list>
<bind>
<opcode="zext(34) " fcode="zext"/>
<opset="zext_ln214_23/4 "/>
</bind>
</comp>

<comp id="184" class="1004" name="add_ln769_fu_184">
<pin_list>
<pin id="185" dir="0" index="0" bw="1" slack="0"/>
<pin id="186" dir="0" index="1" bw="16" slack="0"/>
<pin id="187" dir="1" index="2" bw="16" slack="1"/>
</pin_list>
<bind>
<opcode="add(8) " fcode="add"/>
<opset="add_ln769/4 "/>
</bind>
</comp>

<comp id="190" class="1004" name="tmp_326_fu_190">
<pin_list>
<pin id="191" dir="0" index="0" bw="16" slack="1"/>
<pin id="192" dir="0" index="1" bw="1" slack="0"/>
<pin id="193" dir="1" index="2" bw="1" slack="0"/>
</pin_list>
<bind>
<opcode="icmp(45) " fcode="icmp"/>
<opset="tmp_326/5 "/>
</bind>
</comp>

<comp id="196" class="1005" name="tmp_reg_196">
<pin_list>
<pin id="197" dir="0" index="0" bw="1" slack="1"/>
<pin id="198" dir="1" index="1" bw="1" slack="2147483647"/>
</pin_list>
<bind>
<opset="tmp "/>
</bind>
</comp>

<comp id="200" class="1005" name="trunc_ln700_reg_200">
<pin_list>
<pin id="201" dir="0" index="0" bw="16" slack="1"/>
<pin id="202" dir="1" index="1" bw="16" slack="1"/>
</pin_list>
<bind>
<opset="trunc_ln700 "/>
</bind>
</comp>

<comp id="205" class="1005" name="trunc_ln700_8_reg_205">
<pin_list>
<pin id="206" dir="0" index="0" bw="16" slack="1"/>
<pin id="207" dir="1" index="1" bw="16" slack="1"/>
</pin_list>
<bind>
<opset="trunc_ln700_8 "/>
</bind>
</comp>

<comp id="210" class="1005" name="trunc_ln700_9_reg_210">
<pin_list>
<pin id="211" dir="0" index="0" bw="16" slack="1"/>
<pin id="212" dir="1" index="1" bw="16" slack="1"/>
</pin_list>
<bind>
<opset="trunc_ln700_9 "/>
</bind>
</comp>

<comp id="215" class="1005" name="trunc_ln700_10_reg_215">
<pin_list>
<pin id="216" dir="0" index="0" bw="16" slack="1"/>
<pin id="217" dir="1" index="1" bw="16" slack="1"/>
</pin_list>
<bind>
<opset="trunc_ln700_10 "/>
</bind>
</comp>

<comp id="220" class="1005" name="tmp_323_reg_220">
<pin_list>
<pin id="221" dir="0" index="0" bw="1" slack="1"/>
<pin id="222" dir="1" index="1" bw="1" slack="1"/>
</pin_list>
<bind>
<opset="tmp_323 "/>
</bind>
</comp>

<comp id="225" class="1005" name="tmp_324_reg_225">
<pin_list>
<pin id="226" dir="0" index="0" bw="1" slack="1"/>
<pin id="227" dir="1" index="1" bw="1" slack="1"/>
</pin_list>
<bind>
<opset="tmp_324 "/>
</bind>
</comp>

<comp id="230" class="1005" name="add_ln214_29_reg_230">
<pin_list>
<pin id="231" dir="0" index="0" bw="16" slack="1"/>
<pin id="232" dir="1" index="1" bw="16" slack="1"/>
</pin_list>
<bind>
<opset="add_ln214_29 "/>
</bind>
</comp>

<comp id="236" class="1005" name="tmp_sum_1_V_1_reg_236">
<pin_list>
<pin id="237" dir="0" index="0" bw="16" slack="1"/>
<pin id="238" dir="1" index="1" bw="16" slack="1"/>
</pin_list>
<bind>
<opset="tmp_sum_1_V_1 "/>
</bind>
</comp>

<comp id="242" class="1005" name="tmp_325_reg_242">
<pin_list>
<pin id="243" dir="0" index="0" bw="1" slack="1"/>
<pin id="244" dir="1" index="1" bw="1" slack="1"/>
</pin_list>
<bind>
<opset="tmp_325 "/>
</bind>
</comp>

<comp id="247" class="1005" name="add_ln769_reg_247">
<pin_list>
<pin id="248" dir="0" index="0" bw="16" slack="1"/>
<pin id="249" dir="1" index="1" bw="16" slack="1"/>
</pin_list>
<bind>
<opset="add_ln769 "/>
</bind>
</comp>

</comp_list>

<net_list>
<net id="46"><net_src comp="10" pin="0"/><net_sink comp="38" pin=0"/></net>

<net id="47"><net_src comp="0" pin="0"/><net_sink comp="38" pin=1"/></net>

<net id="48"><net_src comp="2" pin="0"/><net_sink comp="38" pin=2"/></net>

<net id="49"><net_src comp="4" pin="0"/><net_sink comp="38" pin=3"/></net>

<net id="50"><net_src comp="6" pin="0"/><net_sink comp="38" pin=4"/></net>

<net id="51"><net_src comp="12" pin="0"/><net_sink comp="38" pin=5"/></net>

<net id="59"><net_src comp="14" pin="0"/><net_sink comp="52" pin=0"/></net>

<net id="60"><net_src comp="0" pin="0"/><net_sink comp="52" pin=1"/></net>

<net id="61"><net_src comp="2" pin="0"/><net_sink comp="52" pin=2"/></net>

<net id="62"><net_src comp="4" pin="0"/><net_sink comp="52" pin=3"/></net>

<net id="63"><net_src comp="6" pin="0"/><net_sink comp="52" pin=4"/></net>

<net id="69"><net_src comp="36" pin="0"/><net_sink comp="64" pin=0"/></net>

<net id="70"><net_src comp="8" pin="0"/><net_sink comp="64" pin=1"/></net>

<net id="74"><net_src comp="52" pin="5"/><net_sink comp="71" pin=0"/></net>

<net id="78"><net_src comp="52" pin="5"/><net_sink comp="75" pin=0"/></net>

<net id="82"><net_src comp="52" pin="5"/><net_sink comp="79" pin=0"/></net>

<net id="86"><net_src comp="52" pin="5"/><net_sink comp="83" pin=0"/></net>

<net id="90"><net_src comp="71" pin="1"/><net_sink comp="87" pin=0"/></net>

<net id="94"><net_src comp="79" pin="1"/><net_sink comp="91" pin=0"/></net>

<net id="99"><net_src comp="71" pin="1"/><net_sink comp="95" pin=0"/></net>

<net id="100"><net_src comp="79" pin="1"/><net_sink comp="95" pin=1"/></net>

<net id="104"><net_src comp="75" pin="1"/><net_sink comp="101" pin=0"/></net>

<net id="108"><net_src comp="83" pin="1"/><net_sink comp="105" pin=0"/></net>

<net id="113"><net_src comp="75" pin="1"/><net_sink comp="109" pin=0"/></net>

<net id="114"><net_src comp="83" pin="1"/><net_sink comp="109" pin=1"/></net>

<net id="120"><net_src comp="16" pin="0"/><net_sink comp="115" pin=0"/></net>

<net id="121"><net_src comp="95" pin="2"/><net_sink comp="115" pin=1"/></net>

<net id="122"><net_src comp="18" pin="0"/><net_sink comp="115" pin=2"/></net>

<net id="128"><net_src comp="16" pin="0"/><net_sink comp="123" pin=0"/></net>

<net id="129"><net_src comp="109" pin="2"/><net_sink comp="123" pin=1"/></net>

<net id="130"><net_src comp="18" pin="0"/><net_sink comp="123" pin=2"/></net>

<net id="138"><net_src comp="131" pin="1"/><net_sink comp="134" pin=0"/></net>

<net id="143"><net_src comp="134" pin="2"/><net_sink comp="139" pin=1"/></net>

<net id="151"><net_src comp="144" pin="1"/><net_sink comp="147" pin=0"/></net>

<net id="156"><net_src comp="147" pin="2"/><net_sink comp="152" pin=1"/></net>

<net id="167"><net_src comp="160" pin="1"/><net_sink comp="163" pin=0"/></net>

<net id="168"><net_src comp="157" pin="1"/><net_sink comp="163" pin=1"/></net>

<net id="174"><net_src comp="16" pin="0"/><net_sink comp="169" pin=0"/></net>

<net id="175"><net_src comp="163" pin="2"/><net_sink comp="169" pin=1"/></net>

<net id="176"><net_src comp="18" pin="0"/><net_sink comp="169" pin=2"/></net>

<net id="188"><net_src comp="181" pin="1"/><net_sink comp="184" pin=0"/></net>

<net id="189"><net_src comp="177" pin="2"/><net_sink comp="184" pin=1"/></net>

<net id="194"><net_src comp="34" pin="0"/><net_sink comp="190" pin=1"/></net>

<net id="195"><net_src comp="190" pin="2"/><net_sink comp="64" pin=2"/></net>

<net id="199"><net_src comp="38" pin="6"/><net_sink comp="196" pin=0"/></net>

<net id="203"><net_src comp="87" pin="1"/><net_sink comp="200" pin=0"/></net>

<net id="204"><net_src comp="200" pin="1"/><net_sink comp="139" pin=0"/></net>

<net id="208"><net_src comp="91" pin="1"/><net_sink comp="205" pin=0"/></net>

<net id="209"><net_src comp="205" pin="1"/><net_sink comp="134" pin=1"/></net>

<net id="213"><net_src comp="101" pin="1"/><net_sink comp="210" pin=0"/></net>

<net id="214"><net_src comp="210" pin="1"/><net_sink comp="152" pin=0"/></net>

<net id="218"><net_src comp="105" pin="1"/><net_sink comp="215" pin=0"/></net>

<net id="219"><net_src comp="215" pin="1"/><net_sink comp="147" pin=1"/></net>

<net id="223"><net_src comp="115" pin="3"/><net_sink comp="220" pin=0"/></net>

<net id="224"><net_src comp="220" pin="1"/><net_sink comp="131" pin=0"/></net>

<net id="228"><net_src comp="123" pin="3"/><net_sink comp="225" pin=0"/></net>

<net id="229"><net_src comp="225" pin="1"/><net_sink comp="144" pin=0"/></net>

<net id="233"><net_src comp="139" pin="2"/><net_sink comp="230" pin=0"/></net>

<net id="234"><net_src comp="230" pin="1"/><net_sink comp="157" pin=0"/></net>

<net id="235"><net_src comp="230" pin="1"/><net_sink comp="177" pin=0"/></net>

<net id="239"><net_src comp="152" pin="2"/><net_sink comp="236" pin=0"/></net>

<net id="240"><net_src comp="236" pin="1"/><net_sink comp="160" pin=0"/></net>

<net id="241"><net_src comp="236" pin="1"/><net_sink comp="177" pin=1"/></net>

<net id="245"><net_src comp="169" pin="3"/><net_sink comp="242" pin=0"/></net>

<net id="246"><net_src comp="242" pin="1"/><net_sink comp="181" pin=0"/></net>

<net id="250"><net_src comp="184" pin="2"/><net_sink comp="247" pin=0"/></net>

<net id="251"><net_src comp="247" pin="1"/><net_sink comp="190" pin=0"/></net>

</net_list>

</model> 
---------------- Datapath Model END ------------------

* FSMD analyzer results:
  - Output states:
	Port: rxEng_checksumValidF_1 | {5 }
 - Input state : 
	Port: check_ipv4_checksum : subSumFifo_V_sum_V_0 | {1 }
	Port: check_ipv4_checksum : subSumFifo_V_sum_V_1 | {1 }
	Port: check_ipv4_checksum : subSumFifo_V_sum_V_2 | {1 }
	Port: check_ipv4_checksum : subSumFifo_V_sum_V_3 | {1 }
  - Chain level:
	State 1
		trunc_ln700 : 1
		trunc_ln700_8 : 1
		add_ln700 : 1
		trunc_ln700_9 : 1
		trunc_ln700_10 : 1
		add_ln700_20 : 1
		tmp_323 : 2
		tmp_324 : 2
	State 2
		add_ln214 : 1
		add_ln214_29 : 2
		add_ln214_30 : 1
		tmp_sum_1_V_1 : 2
	State 3
		add_ln700_21 : 1
		tmp_325 : 2
	State 4
		add_ln769 : 1
	State 5
		write_ln263 : 1


============================================================
+ Verbose Summary: Datapath Resource usage 
============================================================

* Functional unit list:
|----------|-------------------------|---------|---------|
| Operation|     Functional Unit     |    FF   |   LUT   |
|----------|-------------------------|---------|---------|
|          |     add_ln700_fu_95     |    0    |    24   |
|          |   add_ln700_20_fu_109   |    0    |    24   |
|          |     add_ln214_fu_134    |    0    |    16   |
|          |   add_ln214_29_fu_139   |    0    |    16   |
|    add   |   add_ln214_30_fu_147   |    0    |    16   |
|          |   tmp_sum_1_V_1_fu_152  |    0    |    16   |
|          |   add_ln700_21_fu_163   |    0    |    23   |
|          |   add_ln700_22_fu_177   |    0    |    16   |
|          |     add_ln769_fu_184    |    0    |    16   |
|----------|-------------------------|---------|---------|
|   icmp   |      tmp_326_fu_190     |    0    |    13   |
|----------|-------------------------|---------|---------|
| nbreadreq|   tmp_nbreadreq_fu_38   |    0    |    0    |
|----------|-------------------------|---------|---------|
|   read   |     empty_read_fu_52    |    0    |    0    |
|----------|-------------------------|---------|---------|
|   write  | write_ln263_write_fu_64 |    0    |    0    |
|----------|-------------------------|---------|---------|
|          |    tmp_sum_0_V_fu_71    |    0    |    0    |
|extractvalue|    tmp_sum_1_V_fu_75    |    0    |    0    |
|          |    tmp_sum_2_V_fu_79    |    0    |    0    |
|          |    tmp_sum_3_V_fu_83    |    0    |    0    |
|----------|-------------------------|---------|---------|
|          |    trunc_ln700_fu_87    |    0    |    0    |
|   trunc  |   trunc_ln700_8_fu_91   |    0    |    0    |
|          |   trunc_ln700_9_fu_101  |    0    |    0    |
|          |  trunc_ln700_10_fu_105  |    0    |    0    |
|----------|-------------------------|---------|---------|
|          |      tmp_323_fu_115     |    0    |    0    |
| bitselect|      tmp_324_fu_123     |    0    |    0    |
|          |      tmp_325_fu_169     |    0    |    0    |
|----------|-------------------------|---------|---------|
|          |   zext_ln214_20_fu_131  |    0    |    0    |
|          |   zext_ln214_21_fu_144  |    0    |    0    |
|   zext   |    zext_ln214_fu_157    |    0    |    0    |
|          |   tmp_sum_1_V_2_fu_160  |    0    |    0    |
|          |   zext_ln214_23_fu_181  |    0    |    0    |
|----------|-------------------------|---------|---------|
|   Total  |                         |    0    |   180   |
|----------|-------------------------|---------|---------|

Memories:
N/A

* Register list:
+----------------------+--------+
|                      |   FF   |
+----------------------+--------+
| add_ln214_29_reg_230 |   16   |
|   add_ln769_reg_247  |   16   |
|    tmp_323_reg_220   |    1   |
|    tmp_324_reg_225   |    1   |
|    tmp_325_reg_242   |    1   |
|      tmp_reg_196     |    1   |
| tmp_sum_1_V_1_reg_236|   16   |
|trunc_ln700_10_reg_215|   16   |
| trunc_ln700_8_reg_205|   16   |
| trunc_ln700_9_reg_210|   16   |
|  trunc_ln700_reg_200 |   16   |
+----------------------+--------+
|         Total        |   116  |
+----------------------+--------+

* Multiplexer (MUX) list: 
|--------|------|------|------|--------|
|  Comp  |  Pin | Size |  BW  | S x BW |
|--------|------|------|------|--------|
|  Total |      |      |      |    0   |
|--------|------|------|------|--------|



* Summary:
+-----------+--------+--------+
|           |   FF   |   LUT  |
+-----------+--------+--------+
|  Function |    0   |   180  |
|   Memory  |    -   |    -   |
|Multiplexer|    -   |    -   |
|  Register |   116  |    -   |
+-----------+--------+--------+
|   Total   |   116  |   180  |
+-----------+--------+--------+
