

================================================================
== Vivado HLS Report for 'finalize_ipv4_checks'
================================================================
* Date:           Sat Dec 12 19:35:11 2020

* Version:        2019.2.1 (Build 2724168 on Thu Dec 05 05:19:09 MST 2019)
* Project:        toe_prj
* Solution:       solution1
* Product family: zynq
* Target device:  xc7z020-clg400-1


================================================================
== Performance Estimates
================================================================
+ Timing: 
    * Summary: 
    +--------+---------+----------+------------+
    |  Clock |  Target | Estimated| Uncertainty|
    +--------+---------+----------+------------+
    |ap_clk  | 6.40 ns | 4.907 ns |   0.80 ns  |
    +--------+---------+----------+------------+

+ Latency: 
    * Summary: 
    +---------+---------+-----------+-----------+-----+-----+----------+
    |  Latency (cycles) |   Latency (absolute)  |  Interval | Pipeline |
    |   min   |   max   |    min    |    max    | min | max |   Type   |
    +---------+---------+-----------+-----------+-----+-----+----------+
    |        4|        4| 25.600 ns | 25.600 ns |    1|    1| function |
    +---------+---------+-----------+-----------+-----+-----+----------+

    + Detail: 
        * Instance: 
        N/A

        * Loop: 
        N/A



================================================================
== Utilization Estimates
================================================================
* Summary: 
+-----------------+---------+-------+--------+-------+-----+
|       Name      | BRAM_18K| DSP48E|   FF   |  LUT  | URAM|
+-----------------+---------+-------+--------+-------+-----+
|DSP              |        -|      -|       -|      -|    -|
|Expression       |        -|      -|       0|    206|    -|
|FIFO             |        -|      -|       -|      -|    -|
|Instance         |        -|      -|       -|      -|    -|
|Memory           |        -|      -|       -|      -|    -|
|Multiplexer      |        -|      -|       -|     27|    -|
|Register         |        0|      -|     218|     32|    -|
+-----------------+---------+-------+--------+-------+-----+
|Total            |        0|      0|     218|    265|    0|
+-----------------+---------+-------+--------+-------+-----+
|Available        |      280|    220|  106400|  53200|    0|
+-----------------+---------+-------+--------+-------+-----+
|Utilization (%)  |        0|      0|   ~0   |   ~0  |    0|
+-----------------+---------+-------+--------+-------+-----+

+ Detail: 
    * Instance: 
    N/A

    * DSP48E: 
    N/A

    * Memory: 
    N/A

    * FIFO: 
    N/A

    * Expression: 
    +----------------------------------+----------+-------+---+----+------------+------------+
    |           Variable Name          | Operation| DSP48E| FF| LUT| Bitwidth P0| Bitwidth P1|
    +----------------------------------+----------+-------+---+----+------------+------------+
    |add_ln214_26_fu_179_p2            |     +    |      0|  0|  18|          16|          16|
    |add_ln214_27_fu_187_p2            |     +    |      0|  0|  18|          16|          16|
    |add_ln214_28_fu_192_p2            |     +    |      0|  0|  18|          16|          16|
    |add_ln214_fu_174_p2               |     +    |      0|  0|  18|          16|          16|
    |add_ln700_13_fu_149_p2            |     +    |      0|  0|  24|          17|          17|
    |add_ln700_14_fu_203_p2            |     +    |      0|  0|  24|          17|          17|
    |add_ln700_15_fu_217_p2            |     +    |      0|  0|  18|          16|          16|
    |add_ln700_fu_103_p2               |     +    |      0|  0|  24|          17|          17|
    |add_ln769_fu_224_p2               |     +    |      0|  0|  18|          16|          16|
    |ap_block_state5_pp0_stage0_iter4  |    and   |      0|  0|   2|           1|           1|
    |tmp_nbreadreq_fu_54_p3            |    and   |      0|  0|   2|           1|           0|
    |ap_block_pp0_stage0_01001         |    or    |      0|  0|   2|           1|           1|
    |ap_block_state1_pp0_stage0_iter0  |    or    |      0|  0|   2|           1|           1|
    |ap_enable_pp0                     |    xor   |      0|  0|   2|           1|           2|
    |txEng_tcpChecksumFif_1_din        |    xor   |      0|  0|  16|           2|          16|
    +----------------------------------+----------+-------+---+----+------------+------------+
    |Total                             |          |      0|  0| 206|         154|         168|
    +----------------------------------+----------+-------+---+----+------------+------------+

    * Multiplexer: 
    +------------------------------+----+-----------+-----+-----------+
    |             Name             | LUT| Input Size| Bits| Total Bits|
    +------------------------------+----+-----------+-----+-----------+
    |ap_done                       |   9|          2|    1|          2|
    |txEng_subChecksumsFi_1_blk_n  |   9|          2|    1|          2|
    |txEng_tcpChecksumFif_1_blk_n  |   9|          2|    1|          2|
    +------------------------------+----+-----------+-----+-----------+
    |Total                         |  27|          6|    3|          6|
    +------------------------------+----+-----------+-----+-----------+

    * Register: 
    +------------------------------------+----+----+-----+-----------+
    |                Name                | FF | LUT| Bits| Const Bits|
    +------------------------------------+----+----+-----+-----------+
    |add_ln214_26_reg_270                |  16|   0|   16|          0|
    |add_ln214_26_reg_270_pp0_iter2_reg  |  16|   0|   16|          0|
    |add_ln214_28_reg_276                |  16|   0|   16|          0|
    |add_ln214_28_reg_276_pp0_iter2_reg  |  16|   0|   16|          0|
    |add_ln769_reg_287                   |  16|   0|   16|          0|
    |ap_CS_fsm                           |   1|   0|    1|          0|
    |ap_done_reg                         |   1|   0|    1|          0|
    |ap_enable_reg_pp0_iter1             |   1|   0|    1|          0|
    |ap_enable_reg_pp0_iter2             |   1|   0|    1|          0|
    |ap_enable_reg_pp0_iter3             |   1|   0|    1|          0|
    |ap_enable_reg_pp0_iter4             |   1|   0|    1|          0|
    |tmp_270_reg_260                     |   1|   0|    1|          0|
    |tmp_271_reg_265                     |   1|   0|    1|          0|
    |tmp_272_reg_282                     |   1|   0|    1|          0|
    |tmp_5_reg_250                       |  16|   0|   16|          0|
    |tmp_6_reg_255                       |  16|   0|   16|          0|
    |tmp_reg_236                         |   1|   0|    1|          0|
    |tmp_s_reg_240                       |  16|   0|   16|          0|
    |trunc_ln700_7_reg_245               |  16|   0|   16|          0|
    |tmp_reg_236                         |  64|  32|    1|          0|
    +------------------------------------+----+----+-----+-----------+
    |Total                               | 218|  32|  155|          0|
    +------------------------------------+----+----+-----+-----------+



================================================================
== Interface
================================================================
* Summary: 
+--------------------------------+-----+-----+------------+------------------------+--------------+
|            RTL Ports           | Dir | Bits|  Protocol  |      Source Object     |    C Type    |
+--------------------------------+-----+-----+------------+------------------------+--------------+
|ap_clk                          |  in |    1| ap_ctrl_hs |  finalize_ipv4_checks  | return value |
|ap_rst                          |  in |    1| ap_ctrl_hs |  finalize_ipv4_checks  | return value |
|ap_start                        |  in |    1| ap_ctrl_hs |  finalize_ipv4_checks  | return value |
|ap_done                         | out |    1| ap_ctrl_hs |  finalize_ipv4_checks  | return value |
|ap_continue                     |  in |    1| ap_ctrl_hs |  finalize_ipv4_checks  | return value |
|ap_idle                         | out |    1| ap_ctrl_hs |  finalize_ipv4_checks  | return value |
|ap_ready                        | out |    1| ap_ctrl_hs |  finalize_ipv4_checks  | return value |
|txEng_subChecksumsFi_1_dout     |  in |   68|   ap_fifo  | txEng_subChecksumsFi_1 |    pointer   |
|txEng_subChecksumsFi_1_empty_n  |  in |    1|   ap_fifo  | txEng_subChecksumsFi_1 |    pointer   |
|txEng_subChecksumsFi_1_read     | out |    1|   ap_fifo  | txEng_subChecksumsFi_1 |    pointer   |
|txEng_tcpChecksumFif_1_din      | out |   16|   ap_fifo  | txEng_tcpChecksumFif_1 |    pointer   |
|txEng_tcpChecksumFif_1_full_n   |  in |    1|   ap_fifo  | txEng_tcpChecksumFif_1 |    pointer   |
|txEng_tcpChecksumFif_1_write    | out |    1|   ap_fifo  | txEng_tcpChecksumFif_1 |    pointer   |
+--------------------------------+-----+-----+------------+------------------------+--------------+

============================================================
+ Verbose Summary: Synthesis Manager
============================================================
InlineROM: 1
ExposeGlobal: 0
============================================================
+ Verbose Summary: CDFG Model
============================================================
IsTopModel: 0
ResetActiveHigh: 1
IsCombinational: 2
IsDatapathOnly: 0
HasWiredReturn: 1
HasMFsm: 2
HasVarLatency: 0
IsPipeline: 1
IsRtlPipelined: 1
IsInstanceOverlapped: 0
IsDontTouch: 0
HasImplIP: 0
IsGatedGlobalClock: 0

+ Individual pipeline summary: 
  * Pipeline-0: initiation interval (II) = 1, depth = 5


============================================================
+ Verbose Summary: Schedule
============================================================
* Number of FSM states : 5
* Pipeline : 1
  Pipeline-0 : II = 1, D = 5, States = { 1 2 3 4 5 }
* Dataflow Pipeline: 0

* FSM state transitions: 
1 --> 2 
2 --> 3 
3 --> 4 
4 --> 5 
5 --> 

* FSM state operations: 

State 1 <SV = 0> <Delay = 4.90>
ST_1 : Operation 6 [1/1] (0.00ns)   --->   "%tmp = call i1 @_ssdm_op_NbReadReq.ap_fifo.i68P(i68* @txEng_subChecksumsFi_1, i32 1) nounwind"   --->   Operation 6 'nbreadreq' 'tmp' <Predicate = true> <Delay = 0.00> <Core = "FIFO">   --->   Core 32 'FIFO' <Latency = 0> <II = 1> <Delay = 3.54> <Storage> <Opcode : 'read' 'write' 'nbread' 'nbwrite'> <Ports = 0> <Width = 16> <Depth = 8> <FIFO>
ST_1 : Operation 7 [1/1] (0.00ns)   --->   "br i1 %tmp, label %_ZrsILi17ELb0EEN11ap_int_baseIXT_EXT0_EE5RTypeIXT_EXT0_EE4arg1ERKS1_i.exit.i, label %"finalize_ipv4_checksum<4>.exit"" [/home/paulrr2/Projects/ece527/babelsoc/fpga-network-stack/hls/toe/tx_engine/../../ipv4/ipv4.hpp:275]   --->   Operation 7 'br' <Predicate = true> <Delay = 0.00>
ST_1 : Operation 8 [1/1] (2.80ns)   --->   "%tmp_sum_V = call i68 @_ssdm_op_Read.ap_fifo.volatile.i68P(i68* @txEng_subChecksumsFi_1) nounwind"   --->   Operation 8 'read' 'tmp_sum_V' <Predicate = (tmp)> <Delay = 2.80> <Core = "FIFO">   --->   Core 32 'FIFO' <Latency = 0> <II = 1> <Delay = 3.54> <Storage> <Opcode : 'read' 'write' 'nbread' 'nbwrite'> <Ports = 0> <Width = 16> <Depth = 8> <FIFO>
ST_1 : Operation 9 [1/1] (0.00ns)   --->   "%tmp_i = call i17 @_ssdm_op_PartSelect.i17.i68.i32.i32(i68 %tmp_sum_V, i32 34, i32 50) nounwind" [/home/paulrr2/Projects/ece527/babelsoc/fpga-network-stack/hls/toe/tx_engine/../../ipv4/ipv4.hpp:310]   --->   Operation 9 'partselect' 'tmp_i' <Predicate = (tmp)> <Delay = 0.00>
ST_1 : Operation 10 [1/1] (0.00ns)   --->   "%trunc_ln700 = trunc i68 %tmp_sum_V to i17" [/home/paulrr2/Projects/ece527/babelsoc/fpga-network-stack/hls/toe/tx_engine/../../ipv4/ipv4.hpp:310]   --->   Operation 10 'trunc' 'trunc_ln700' <Predicate = (tmp)> <Delay = 0.00>
ST_1 : Operation 11 [1/1] (0.00ns)   --->   "%tmp_s = call i16 @_ssdm_op_PartSelect.i16.i68.i32.i32(i68 %tmp_sum_V, i32 34, i32 49)" [/home/paulrr2/Projects/ece527/babelsoc/fpga-network-stack/hls/toe/tx_engine/../../ipv4/ipv4.hpp:310]   --->   Operation 11 'partselect' 'tmp_s' <Predicate = (tmp)> <Delay = 0.00>
ST_1 : Operation 12 [1/1] (0.00ns)   --->   "%trunc_ln700_7 = trunc i68 %tmp_sum_V to i16" [/home/paulrr2/Projects/ece527/babelsoc/fpga-network-stack/hls/toe/tx_engine/../../ipv4/ipv4.hpp:310]   --->   Operation 12 'trunc' 'trunc_ln700_7' <Predicate = (tmp)> <Delay = 0.00>
ST_1 : Operation 13 [1/1] (2.10ns)   --->   "%add_ln700 = add i17 %trunc_ln700, %tmp_i" [/home/paulrr2/Projects/ece527/babelsoc/fpga-network-stack/hls/toe/tx_engine/../../ipv4/ipv4.hpp:310]   --->   Operation 13 'add' 'add_ln700' <Predicate = (tmp)> <Delay = 2.10> <Core = "AddSub">   --->   Core 14 'AddSub' <Latency = 0> <II = 1> <Delay = 2.10> <FuncUnit> <Opcode : 'add' 'sub'> <InPorts = 2> <OutPorts = 1>
ST_1 : Operation 14 [1/1] (0.00ns)   --->   "%tmp_141_i = call i17 @_ssdm_op_PartSelect.i17.i68.i32.i32(i68 %tmp_sum_V, i32 51, i32 67) nounwind" [/home/paulrr2/Projects/ece527/babelsoc/fpga-network-stack/hls/toe/tx_engine/../../ipv4/ipv4.hpp:311]   --->   Operation 14 'partselect' 'tmp_141_i' <Predicate = (tmp)> <Delay = 0.00>
ST_1 : Operation 15 [1/1] (0.00ns)   --->   "%tmp_142_i = call i17 @_ssdm_op_PartSelect.i17.i68.i32.i32(i68 %tmp_sum_V, i32 17, i32 33) nounwind" [/home/paulrr2/Projects/ece527/babelsoc/fpga-network-stack/hls/toe/tx_engine/../../ipv4/ipv4.hpp:311]   --->   Operation 15 'partselect' 'tmp_142_i' <Predicate = (tmp)> <Delay = 0.00>
ST_1 : Operation 16 [1/1] (0.00ns)   --->   "%tmp_5 = call i16 @_ssdm_op_PartSelect.i16.i68.i32.i32(i68 %tmp_sum_V, i32 51, i32 66)" [/home/paulrr2/Projects/ece527/babelsoc/fpga-network-stack/hls/toe/tx_engine/../../ipv4/ipv4.hpp:311]   --->   Operation 16 'partselect' 'tmp_5' <Predicate = (tmp)> <Delay = 0.00>
ST_1 : Operation 17 [1/1] (0.00ns)   --->   "%tmp_6 = call i16 @_ssdm_op_PartSelect.i16.i68.i32.i32(i68 %tmp_sum_V, i32 17, i32 32)" [/home/paulrr2/Projects/ece527/babelsoc/fpga-network-stack/hls/toe/tx_engine/../../ipv4/ipv4.hpp:311]   --->   Operation 17 'partselect' 'tmp_6' <Predicate = (tmp)> <Delay = 0.00>
ST_1 : Operation 18 [1/1] (2.10ns)   --->   "%add_ln700_13 = add i17 %tmp_142_i, %tmp_141_i" [/home/paulrr2/Projects/ece527/babelsoc/fpga-network-stack/hls/toe/tx_engine/../../ipv4/ipv4.hpp:311]   --->   Operation 18 'add' 'add_ln700_13' <Predicate = (tmp)> <Delay = 2.10> <Core = "AddSub">   --->   Core 14 'AddSub' <Latency = 0> <II = 1> <Delay = 2.10> <FuncUnit> <Opcode : 'add' 'sub'> <InPorts = 2> <OutPorts = 1>
ST_1 : Operation 19 [1/1] (0.00ns)   --->   "%tmp_270 = call i1 @_ssdm_op_BitSelect.i1.i17.i32(i17 %add_ln700, i32 16)" [/home/paulrr2/Projects/ece527/babelsoc/fpga-network-stack/hls/toe/tx_engine/../../ipv4/ipv4.hpp:312]   --->   Operation 19 'bitselect' 'tmp_270' <Predicate = (tmp)> <Delay = 0.00>
ST_1 : Operation 20 [1/1] (0.00ns)   --->   "%tmp_271 = call i1 @_ssdm_op_BitSelect.i1.i17.i32(i17 %add_ln700_13, i32 16)" [/home/paulrr2/Projects/ece527/babelsoc/fpga-network-stack/hls/toe/tx_engine/../../ipv4/ipv4.hpp:313]   --->   Operation 20 'bitselect' 'tmp_271' <Predicate = (tmp)> <Delay = 0.00>

State 2 <SV = 1> <Delay = 3.90>
ST_2 : Operation 21 [1/1] (0.00ns)   --->   "%zext_ln214_18 = zext i1 %tmp_270 to i16" [/home/paulrr2/Projects/ece527/babelsoc/fpga-network-stack/hls/toe/tx_engine/../../ipv4/ipv4.hpp:312]   --->   Operation 21 'zext' 'zext_ln214_18' <Predicate = (tmp)> <Delay = 0.00>
ST_2 : Operation 22 [1/1] (0.00ns) (grouped into TernaryAdder)   --->   "%add_ln214 = add i16 %zext_ln214_18, %tmp_s" [/home/paulrr2/Projects/ece527/babelsoc/fpga-network-stack/hls/toe/tx_engine/../../ipv4/ipv4.hpp:312]   --->   Operation 22 'add' 'add_ln214' <Predicate = (tmp)> <Delay = 0.00> <Core = "TAddSub">   --->   Core 83 'TAddSub' <Latency = 0> <II = 1> <Delay = 1.98> <IPBlock> <Opcode : 'add' 'sub'> <InPorts = 3> <OutPorts = 1> <Sync> <CReg>
ST_2 : Operation 23 [1/1] (3.90ns) (root node of TernaryAdder)   --->   "%add_ln214_26 = add i16 %trunc_ln700_7, %add_ln214" [/home/paulrr2/Projects/ece527/babelsoc/fpga-network-stack/hls/toe/tx_engine/../../ipv4/ipv4.hpp:312]   --->   Operation 23 'add' 'add_ln214_26' <Predicate = (tmp)> <Delay = 3.90> <Core = "TAddSub">   --->   Core 83 'TAddSub' <Latency = 0> <II = 1> <Delay = 1.98> <IPBlock> <Opcode : 'add' 'sub'> <InPorts = 3> <OutPorts = 1> <Sync> <CReg>
ST_2 : Operation 24 [1/1] (0.00ns)   --->   "%zext_ln214_19 = zext i1 %tmp_271 to i16" [/home/paulrr2/Projects/ece527/babelsoc/fpga-network-stack/hls/toe/tx_engine/../../ipv4/ipv4.hpp:313]   --->   Operation 24 'zext' 'zext_ln214_19' <Predicate = (tmp)> <Delay = 0.00>
ST_2 : Operation 25 [1/1] (0.00ns) (grouped into TernaryAdder)   --->   "%add_ln214_27 = add i16 %zext_ln214_19, %tmp_5" [/home/paulrr2/Projects/ece527/babelsoc/fpga-network-stack/hls/toe/tx_engine/../../ipv4/ipv4.hpp:313]   --->   Operation 25 'add' 'add_ln214_27' <Predicate = (tmp)> <Delay = 0.00> <Core = "TAddSub">   --->   Core 83 'TAddSub' <Latency = 0> <II = 1> <Delay = 1.98> <IPBlock> <Opcode : 'add' 'sub'> <InPorts = 3> <OutPorts = 1> <Sync> <CReg>
ST_2 : Operation 26 [1/1] (3.90ns) (root node of TernaryAdder)   --->   "%add_ln214_28 = add i16 %tmp_6, %add_ln214_27" [/home/paulrr2/Projects/ece527/babelsoc/fpga-network-stack/hls/toe/tx_engine/../../ipv4/ipv4.hpp:313]   --->   Operation 26 'add' 'add_ln214_28' <Predicate = (tmp)> <Delay = 3.90> <Core = "TAddSub">   --->   Core 83 'TAddSub' <Latency = 0> <II = 1> <Delay = 1.98> <IPBlock> <Opcode : 'add' 'sub'> <InPorts = 3> <OutPorts = 1> <Sync> <CReg>

State 3 <SV = 2> <Delay = 2.07>
ST_3 : Operation 27 [1/1] (0.00ns)   --->   "%zext_ln214 = zext i16 %add_ln214_26 to i17" [/home/paulrr2/Projects/ece527/babelsoc/fpga-network-stack/hls/toe/tx_engine/../../ipv4/ipv4.hpp:312]   --->   Operation 27 'zext' 'zext_ln214' <Predicate = (tmp)> <Delay = 0.00>
ST_3 : Operation 28 [1/1] (0.00ns)   --->   "%zext_ln214_9 = zext i16 %add_ln214_28 to i17" [/home/paulrr2/Projects/ece527/babelsoc/fpga-network-stack/hls/toe/tx_engine/../../ipv4/ipv4.hpp:313]   --->   Operation 28 'zext' 'zext_ln214_9' <Predicate = (tmp)> <Delay = 0.00>
ST_3 : Operation 29 [1/1] (2.07ns)   --->   "%add_ln700_14 = add i17 %zext_ln214_9, %zext_ln214" [/home/paulrr2/Projects/ece527/babelsoc/fpga-network-stack/hls/toe/tx_engine/../../ipv4/ipv4.hpp:314]   --->   Operation 29 'add' 'add_ln700_14' <Predicate = (tmp)> <Delay = 2.07> <Core = "AddSub">   --->   Core 14 'AddSub' <Latency = 0> <II = 1> <Delay = 2.10> <FuncUnit> <Opcode : 'add' 'sub'> <InPorts = 2> <OutPorts = 1>
ST_3 : Operation 30 [1/1] (0.00ns)   --->   "%tmp_272 = call i1 @_ssdm_op_BitSelect.i1.i17.i32(i17 %add_ln700_14, i32 16)" [/home/paulrr2/Projects/ece527/babelsoc/fpga-network-stack/hls/toe/tx_engine/../../ipv4/ipv4.hpp:315]   --->   Operation 30 'bitselect' 'tmp_272' <Predicate = (tmp)> <Delay = 0.00>

State 4 <SV = 3> <Delay = 3.90>
ST_4 : Operation 31 [1/1] (0.00ns) (grouped into TernaryAdder)   --->   "%add_ln700_15 = add i16 %add_ln214_26, %add_ln214_28" [/home/paulrr2/Projects/ece527/babelsoc/fpga-network-stack/hls/toe/tx_engine/../../ipv4/ipv4.hpp:314]   --->   Operation 31 'add' 'add_ln700_15' <Predicate = (tmp)> <Delay = 0.00> <Core = "TAddSub">   --->   Core 83 'TAddSub' <Latency = 0> <II = 1> <Delay = 1.98> <IPBlock> <Opcode : 'add' 'sub'> <InPorts = 3> <OutPorts = 1> <Sync> <CReg>
ST_4 : Operation 32 [1/1] (0.00ns)   --->   "%zext_ln214_20 = zext i1 %tmp_272 to i16" [/home/paulrr2/Projects/ece527/babelsoc/fpga-network-stack/hls/toe/tx_engine/../../ipv4/ipv4.hpp:315]   --->   Operation 32 'zext' 'zext_ln214_20' <Predicate = (tmp)> <Delay = 0.00>
ST_4 : Operation 33 [1/1] (3.90ns) (root node of TernaryAdder)   --->   "%add_ln769 = add i16 %zext_ln214_20, %add_ln700_15" [/home/paulrr2/Projects/ece527/babelsoc/fpga-network-stack/hls/toe/tx_engine/../../ipv4/ipv4.hpp:316]   --->   Operation 33 'add' 'add_ln769' <Predicate = (tmp)> <Delay = 3.90> <Core = "TAddSub">   --->   Core 83 'TAddSub' <Latency = 0> <II = 1> <Delay = 1.98> <IPBlock> <Opcode : 'add' 'sub'> <InPorts = 3> <OutPorts = 1> <Sync> <CReg>

State 5 <SV = 4> <Delay = 3.79>
ST_5 : Operation 34 [1/1] (0.00ns)   --->   "call void (...)* @_ssdm_op_SpecInterface(i68* @txEng_subChecksumsFi_1, [8 x i8]* @ap_fifo_str, i32 0, i32 0, [1 x i8]* @p_str, i32 0, i32 0, [1 x i8]* @p_str, [1 x i8]* @p_str, [1 x i8]* @p_str, i32 2, i32 2, i32 16, i32 16, [1 x i8]* @p_str, [1 x i8]* @p_str)"   --->   Operation 34 'specinterface' <Predicate = true> <Delay = 0.00>
ST_5 : Operation 35 [1/1] (0.00ns)   --->   "call void (...)* @_ssdm_op_SpecInterface(i16* @txEng_tcpChecksumFif_1, [8 x i8]* @ap_fifo_str, i32 0, i32 0, [1 x i8]* @p_str, i32 0, i32 0, [1 x i8]* @p_str, [1 x i8]* @p_str, [1 x i8]* @p_str, i32 2, i32 2, i32 16, i32 16, [1 x i8]* @p_str, [1 x i8]* @p_str)"   --->   Operation 35 'specinterface' <Predicate = true> <Delay = 0.00>
ST_5 : Operation 36 [1/1] (0.00ns)   --->   "call void (...)* @_ssdm_op_SpecPipeline(i32 1, i32 1, i32 1, i32 0, [1 x i8]* @p_str214) nounwind" [/home/paulrr2/Projects/ece527/babelsoc/fpga-network-stack/hls/toe/tx_engine/../../ipv4/ipv4.hpp:272]   --->   Operation 36 'specpipeline' <Predicate = true> <Delay = 0.00>
ST_5 : Operation 37 [1/1] (0.99ns)   --->   "%tmp_V = xor i16 %add_ln769, -1" [/home/paulrr2/Projects/ece527/babelsoc/fpga-network-stack/hls/toe/tx_engine/../../ipv4/ipv4.hpp:318]   --->   Operation 37 'xor' 'tmp_V' <Predicate = (tmp)> <Delay = 0.99> <Core = "LogicGate">   --->   Core 27 'LogicGate' <Latency = 0> <II = 1> <Delay = 0.99> <FuncUnit> <Opcode : 'and' 'or' 'xor'> <InPorts = 2> <OutPorts = 1>
ST_5 : Operation 38 [1/1] (2.80ns)   --->   "call void @_ssdm_op_Write.ap_fifo.volatile.i16P(i16* @txEng_tcpChecksumFif_1, i16 %tmp_V) nounwind" [/home/paulrr2/Projects/ece527/babelsoc/fpga-network-stack/hls/toe/tx_engine/../../ipv4/ipv4.hpp:318]   --->   Operation 38 'write' <Predicate = (tmp)> <Delay = 2.80> <Core = "FIFO">   --->   Core 32 'FIFO' <Latency = 0> <II = 1> <Delay = 3.54> <Storage> <Opcode : 'read' 'write' 'nbread' 'nbwrite'> <Ports = 0> <Width = 16> <Depth = 8> <FIFO>
ST_5 : Operation 39 [1/1] (0.00ns)   --->   "br label %"finalize_ipv4_checksum<4>.exit"" [/home/paulrr2/Projects/ece527/babelsoc/fpga-network-stack/hls/toe/tx_engine/../../ipv4/ipv4.hpp:319]   --->   Operation 39 'br' <Predicate = (tmp)> <Delay = 0.00>
ST_5 : Operation 40 [1/1] (0.00ns)   --->   "ret void"   --->   Operation 40 'ret' <Predicate = true> <Delay = 0.00>


============================================================
+ Verbose Summary: Binding
============================================================
STG Binding: 
---------------- STG Properties BEGIN ----------------
- Is combinational: 0
- Is one-state seq: 0
- Is datapath-only: 0
- Is pipelined: 1
- Is top level: 0
Port [ Return ] is wired: 1; IO mode=ap_ctrl_hs:ce=0
Port [ txEng_subChecksumsFi_1]:  wired=1; compound=1; hidden=0; nouse=0; global=1; static=1; extern=0; dir=0; type=3; pingpong=0; private_global=0; linkage=7; visibility=0; IO mode=ap_fifo:ce=0
Port [ txEng_tcpChecksumFif_1]:  wired=1; compound=1; hidden=0; nouse=0; global=1; static=1; extern=0; dir=1; type=3; pingpong=0; private_global=0; linkage=7; visibility=0; IO mode=ap_fifo:ce=0
---------------- STG Properties END ------------------

---------------- Datapath Model BEGIN ----------------

<LifeTime>
<method=bitvector/>
tmp                (nbreadreq    ) [ 011111]
br_ln275           (br           ) [ 000000]
tmp_sum_V          (read         ) [ 000000]
tmp_i              (partselect   ) [ 000000]
trunc_ln700        (trunc        ) [ 000000]
tmp_s              (partselect   ) [ 011000]
trunc_ln700_7      (trunc        ) [ 011000]
add_ln700          (add          ) [ 000000]
tmp_141_i          (partselect   ) [ 000000]
tmp_142_i          (partselect   ) [ 000000]
tmp_5              (partselect   ) [ 011000]
tmp_6              (partselect   ) [ 011000]
add_ln700_13       (add          ) [ 000000]
tmp_270            (bitselect    ) [ 011000]
tmp_271            (bitselect    ) [ 011000]
zext_ln214_18      (zext         ) [ 000000]
add_ln214          (add          ) [ 000000]
add_ln214_26       (add          ) [ 010110]
zext_ln214_19      (zext         ) [ 000000]
add_ln214_27       (add          ) [ 000000]
add_ln214_28       (add          ) [ 010110]
zext_ln214         (zext         ) [ 000000]
zext_ln214_9       (zext         ) [ 000000]
add_ln700_14       (add          ) [ 000000]
tmp_272            (bitselect    ) [ 010010]
add_ln700_15       (add          ) [ 000000]
zext_ln214_20      (zext         ) [ 000000]
add_ln769          (add          ) [ 010001]
specinterface_ln0  (specinterface) [ 000000]
specinterface_ln0  (specinterface) [ 000000]
specpipeline_ln272 (specpipeline ) [ 000000]
tmp_V              (xor          ) [ 000000]
write_ln318        (write        ) [ 000000]
br_ln319           (br           ) [ 000000]
ret_ln0            (ret          ) [ 000000]
</LifeTime>

<model>

<comp_list>
<comp id="0" class="1000" name="txEng_subChecksumsFi_1">
<pin_list>
<pin id="1" dir="1" index="0" bw="1" slack="0"/>
</pin_list>
<bind>
<StgValue><ssdm name="txEng_subChecksumsFi_1"/></StgValue>
</bind>
</comp>

<comp id="2" class="1000" name="txEng_tcpChecksumFif_1">
<pin_list>
<pin id="3" dir="1" index="0" bw="1" slack="0"/>
</pin_list>
<bind>
<StgValue><ssdm name="txEng_tcpChecksumFif_1"/></StgValue>
</bind>
</comp>

<comp id="4" class="1001" name="const_4">
<pin_list>
<pin id="5" dir="1" index="0" bw="1" slack="0"/>
</pin_list>
<bind>
<StgValue><ssdm name="_ssdm_op_NbReadReq.ap_fifo.i68P"/></StgValue>
</bind>
</comp>

<comp id="6" class="1001" name="const_6">
<pin_list>
<pin id="7" dir="1" index="0" bw="1" slack="0"/>
</pin_list>
<bind>
<StgValue><ssdm name=""/></StgValue>
</bind>
</comp>

<comp id="8" class="1001" name="const_8">
<pin_list>
<pin id="9" dir="1" index="0" bw="1" slack="0"/>
</pin_list>
<bind>
<StgValue><ssdm name="_ssdm_op_Read.ap_fifo.volatile.i68P"/></StgValue>
</bind>
</comp>

<comp id="10" class="1001" name="const_10">
<pin_list>
<pin id="11" dir="1" index="0" bw="1" slack="0"/>
</pin_list>
<bind>
<StgValue><ssdm name="_ssdm_op_PartSelect.i17.i68.i32.i32"/></StgValue>
</bind>
</comp>

<comp id="12" class="1001" name="const_12">
<pin_list>
<pin id="13" dir="1" index="0" bw="1" slack="0"/>
</pin_list>
<bind>
<StgValue><ssdm name=""/></StgValue>
</bind>
</comp>

<comp id="14" class="1001" name="const_14">
<pin_list>
<pin id="15" dir="1" index="0" bw="1" slack="0"/>
</pin_list>
<bind>
<StgValue><ssdm name=""/></StgValue>
</bind>
</comp>

<comp id="16" class="1001" name="const_16">
<pin_list>
<pin id="17" dir="1" index="0" bw="1" slack="0"/>
</pin_list>
<bind>
<StgValue><ssdm name="_ssdm_op_PartSelect.i16.i68.i32.i32"/></StgValue>
</bind>
</comp>

<comp id="18" class="1001" name="const_18">
<pin_list>
<pin id="19" dir="1" index="0" bw="1" slack="0"/>
</pin_list>
<bind>
<StgValue><ssdm name=""/></StgValue>
</bind>
</comp>

<comp id="20" class="1001" name="const_20">
<pin_list>
<pin id="21" dir="1" index="0" bw="1" slack="0"/>
</pin_list>
<bind>
<StgValue><ssdm name=""/></StgValue>
</bind>
</comp>

<comp id="22" class="1001" name="const_22">
<pin_list>
<pin id="23" dir="1" index="0" bw="1" slack="0"/>
</pin_list>
<bind>
<StgValue><ssdm name=""/></StgValue>
</bind>
</comp>

<comp id="24" class="1001" name="const_24">
<pin_list>
<pin id="25" dir="1" index="0" bw="1" slack="0"/>
</pin_list>
<bind>
<StgValue><ssdm name=""/></StgValue>
</bind>
</comp>

<comp id="26" class="1001" name="const_26">
<pin_list>
<pin id="27" dir="1" index="0" bw="1" slack="0"/>
</pin_list>
<bind>
<StgValue><ssdm name=""/></StgValue>
</bind>
</comp>

<comp id="28" class="1001" name="const_28">
<pin_list>
<pin id="29" dir="1" index="0" bw="1" slack="0"/>
</pin_list>
<bind>
<StgValue><ssdm name=""/></StgValue>
</bind>
</comp>

<comp id="30" class="1001" name="const_30">
<pin_list>
<pin id="31" dir="1" index="0" bw="1" slack="0"/>
</pin_list>
<bind>
<StgValue><ssdm name=""/></StgValue>
</bind>
</comp>

<comp id="32" class="1001" name="const_32">
<pin_list>
<pin id="33" dir="1" index="0" bw="1" slack="0"/>
</pin_list>
<bind>
<StgValue><ssdm name="_ssdm_op_BitSelect.i1.i17.i32"/></StgValue>
</bind>
</comp>

<comp id="34" class="1001" name="const_34">
<pin_list>
<pin id="35" dir="1" index="0" bw="1" slack="0"/>
</pin_list>
<bind>
<StgValue><ssdm name=""/></StgValue>
</bind>
</comp>

<comp id="36" class="1001" name="const_36">
<pin_list>
<pin id="37" dir="1" index="0" bw="1" slack="2147483647"/>
</pin_list>
<bind>
<StgValue><ssdm name="_ssdm_op_SpecInterface"/></StgValue>
</bind>
</comp>

<comp id="38" class="1001" name="const_38">
<pin_list>
<pin id="39" dir="1" index="0" bw="1" slack="2147483647"/>
</pin_list>
<bind>
<StgValue><ssdm name="ap_fifo_str"/></StgValue>
</bind>
</comp>

<comp id="40" class="1001" name="const_40">
<pin_list>
<pin id="41" dir="1" index="0" bw="1" slack="2147483647"/>
</pin_list>
<bind>
<StgValue><ssdm name=""/></StgValue>
</bind>
</comp>

<comp id="42" class="1001" name="const_42">
<pin_list>
<pin id="43" dir="1" index="0" bw="1" slack="2147483647"/>
</pin_list>
<bind>
<StgValue><ssdm name="p_str"/></StgValue>
</bind>
</comp>

<comp id="44" class="1001" name="const_44">
<pin_list>
<pin id="45" dir="1" index="0" bw="1" slack="2147483647"/>
</pin_list>
<bind>
<StgValue><ssdm name=""/></StgValue>
</bind>
</comp>

<comp id="46" class="1001" name="const_46">
<pin_list>
<pin id="47" dir="1" index="0" bw="1" slack="2147483647"/>
</pin_list>
<bind>
<StgValue><ssdm name="_ssdm_op_SpecPipeline"/></StgValue>
</bind>
</comp>

<comp id="48" class="1001" name="const_48">
<pin_list>
<pin id="49" dir="1" index="0" bw="1" slack="2147483647"/>
</pin_list>
<bind>
<StgValue><ssdm name="p_str214"/></StgValue>
</bind>
</comp>

<comp id="50" class="1001" name="const_50">
<pin_list>
<pin id="51" dir="1" index="0" bw="1" slack="0"/>
</pin_list>
<bind>
<StgValue><ssdm name=""/></StgValue>
</bind>
</comp>

<comp id="52" class="1001" name="const_52">
<pin_list>
<pin id="53" dir="1" index="0" bw="1" slack="0"/>
</pin_list>
<bind>
<StgValue><ssdm name="_ssdm_op_Write.ap_fifo.volatile.i16P"/></StgValue>
</bind>
</comp>

<comp id="54" class="1004" name="tmp_nbreadreq_fu_54">
<pin_list>
<pin id="55" dir="0" index="0" bw="1" slack="0"/>
<pin id="56" dir="0" index="1" bw="68" slack="0"/>
<pin id="57" dir="0" index="2" bw="1" slack="0"/>
<pin id="58" dir="1" index="3" bw="1" slack="1"/>
</pin_list>
<bind>
<opcode="nbreadreq(1156) " fcode="nbreadreq"/>
<opset="tmp/1 "/>
</bind>
</comp>

<comp id="62" class="1004" name="tmp_sum_V_read_fu_62">
<pin_list>
<pin id="63" dir="0" index="0" bw="68" slack="0"/>
<pin id="64" dir="0" index="1" bw="68" slack="0"/>
<pin id="65" dir="1" index="2" bw="68" slack="0"/>
</pin_list>
<bind>
<opcode="read(1150) " fcode="read"/>
<opset="tmp_sum_V/1 "/>
</bind>
</comp>

<comp id="68" class="1004" name="write_ln318_write_fu_68">
<pin_list>
<pin id="69" dir="0" index="0" bw="0" slack="0"/>
<pin id="70" dir="0" index="1" bw="16" slack="0"/>
<pin id="71" dir="0" index="2" bw="16" slack="0"/>
<pin id="72" dir="1" index="3" bw="0" slack="2147483647"/>
</pin_list>
<bind>
<opcode="write(1151) " fcode="write"/>
<opset="write_ln318/5 "/>
</bind>
</comp>

<comp id="75" class="1004" name="tmp_i_fu_75">
<pin_list>
<pin id="76" dir="0" index="0" bw="17" slack="0"/>
<pin id="77" dir="0" index="1" bw="68" slack="0"/>
<pin id="78" dir="0" index="2" bw="7" slack="0"/>
<pin id="79" dir="0" index="3" bw="7" slack="0"/>
<pin id="80" dir="1" index="4" bw="17" slack="0"/>
</pin_list>
<bind>
<opcode="partselect(1002) " fcode="partselect"/>
<opset="tmp_i/1 "/>
</bind>
</comp>

<comp id="85" class="1004" name="trunc_ln700_fu_85">
<pin_list>
<pin id="86" dir="0" index="0" bw="68" slack="0"/>
<pin id="87" dir="1" index="1" bw="17" slack="0"/>
</pin_list>
<bind>
<opcode="trunc(33) " fcode="trunc"/>
<opset="trunc_ln700/1 "/>
</bind>
</comp>

<comp id="89" class="1004" name="tmp_s_fu_89">
<pin_list>
<pin id="90" dir="0" index="0" bw="16" slack="0"/>
<pin id="91" dir="0" index="1" bw="68" slack="0"/>
<pin id="92" dir="0" index="2" bw="7" slack="0"/>
<pin id="93" dir="0" index="3" bw="7" slack="0"/>
<pin id="94" dir="1" index="4" bw="16" slack="1"/>
</pin_list>
<bind>
<opcode="partselect(1002) " fcode="partselect"/>
<opset="tmp_s/1 "/>
</bind>
</comp>

<comp id="99" class="1004" name="trunc_ln700_7_fu_99">
<pin_list>
<pin id="100" dir="0" index="0" bw="68" slack="0"/>
<pin id="101" dir="1" index="1" bw="16" slack="1"/>
</pin_list>
<bind>
<opcode="trunc(33) " fcode="trunc"/>
<opset="trunc_ln700_7/1 "/>
</bind>
</comp>

<comp id="103" class="1004" name="add_ln700_fu_103">
<pin_list>
<pin id="104" dir="0" index="0" bw="17" slack="0"/>
<pin id="105" dir="0" index="1" bw="17" slack="0"/>
<pin id="106" dir="1" index="2" bw="17" slack="0"/>
</pin_list>
<bind>
<opcode="add(8) " fcode="add"/>
<opset="add_ln700/1 "/>
</bind>
</comp>

<comp id="109" class="1004" name="tmp_141_i_fu_109">
<pin_list>
<pin id="110" dir="0" index="0" bw="17" slack="0"/>
<pin id="111" dir="0" index="1" bw="68" slack="0"/>
<pin id="112" dir="0" index="2" bw="7" slack="0"/>
<pin id="113" dir="0" index="3" bw="8" slack="0"/>
<pin id="114" dir="1" index="4" bw="17" slack="0"/>
</pin_list>
<bind>
<opcode="partselect(1002) " fcode="partselect"/>
<opset="tmp_141_i/1 "/>
</bind>
</comp>

<comp id="119" class="1004" name="tmp_142_i_fu_119">
<pin_list>
<pin id="120" dir="0" index="0" bw="17" slack="0"/>
<pin id="121" dir="0" index="1" bw="68" slack="0"/>
<pin id="122" dir="0" index="2" bw="6" slack="0"/>
<pin id="123" dir="0" index="3" bw="7" slack="0"/>
<pin id="124" dir="1" index="4" bw="17" slack="0"/>
</pin_list>
<bind>
<opcode="partselect(1002) " fcode="partselect"/>
<opset="tmp_142_i/1 "/>
</bind>
</comp>

<comp id="129" class="1004" name="tmp_5_fu_129">
<pin_list>
<pin id="130" dir="0" index="0" bw="16" slack="0"/>
<pin id="131" dir="0" index="1" bw="68" slack="0"/>
<pin id="132" dir="0" index="2" bw="7" slack="0"/>
<pin id="133" dir="0" index="3" bw="8" slack="0"/>
<pin id="134" dir="1" index="4" bw="16" slack="1"/>
</pin_list>
<bind>
<opcode="partselect(1002) " fcode="partselect"/>
<opset="tmp_5/1 "/>
</bind>
</comp>

<comp id="139" class="1004" name="tmp_6_fu_139">
<pin_list>
<pin id="140" dir="0" index="0" bw="16" slack="0"/>
<pin id="141" dir="0" index="1" bw="68" slack="0"/>
<pin id="142" dir="0" index="2" bw="6" slack="0"/>
<pin id="143" dir="0" index="3" bw="7" slack="0"/>
<pin id="144" dir="1" index="4" bw="16" slack="1"/>
</pin_list>
<bind>
<opcode="partselect(1002) " fcode="partselect"/>
<opset="tmp_6/1 "/>
</bind>
</comp>

<comp id="149" class="1004" name="add_ln700_13_fu_149">
<pin_list>
<pin id="150" dir="0" index="0" bw="17" slack="0"/>
<pin id="151" dir="0" index="1" bw="17" slack="0"/>
<pin id="152" dir="1" index="2" bw="17" slack="0"/>
</pin_list>
<bind>
<opcode="add(8) " fcode="add"/>
<opset="add_ln700_13/1 "/>
</bind>
</comp>

<comp id="155" class="1004" name="tmp_270_fu_155">
<pin_list>
<pin id="156" dir="0" index="0" bw="1" slack="0"/>
<pin id="157" dir="0" index="1" bw="17" slack="0"/>
<pin id="158" dir="0" index="2" bw="6" slack="0"/>
<pin id="159" dir="1" index="3" bw="1" slack="1"/>
</pin_list>
<bind>
<opcode="bitselect(1000) " fcode="bitselect"/>
<opset="tmp_270/1 "/>
</bind>
</comp>

<comp id="163" class="1004" name="tmp_271_fu_163">
<pin_list>
<pin id="164" dir="0" index="0" bw="1" slack="0"/>
<pin id="165" dir="0" index="1" bw="17" slack="0"/>
<pin id="166" dir="0" index="2" bw="6" slack="0"/>
<pin id="167" dir="1" index="3" bw="1" slack="1"/>
</pin_list>
<bind>
<opcode="bitselect(1000) " fcode="bitselect"/>
<opset="tmp_271/1 "/>
</bind>
</comp>

<comp id="171" class="1004" name="zext_ln214_18_fu_171">
<pin_list>
<pin id="172" dir="0" index="0" bw="1" slack="1"/>
<pin id="173" dir="1" index="1" bw="16" slack="0"/>
</pin_list>
<bind>
<opcode="zext(34) " fcode="zext"/>
<opset="zext_ln214_18/2 "/>
</bind>
</comp>

<comp id="174" class="1004" name="add_ln214_fu_174">
<pin_list>
<pin id="175" dir="0" index="0" bw="1" slack="0"/>
<pin id="176" dir="0" index="1" bw="16" slack="1"/>
<pin id="177" dir="1" index="2" bw="16" slack="0"/>
</pin_list>
<bind>
<opcode="add(8) " fcode="add"/>
<opset="add_ln214/2 "/>
</bind>
</comp>

<comp id="179" class="1004" name="add_ln214_26_fu_179">
<pin_list>
<pin id="180" dir="0" index="0" bw="16" slack="1"/>
<pin id="181" dir="0" index="1" bw="16" slack="0"/>
<pin id="182" dir="1" index="2" bw="16" slack="1"/>
</pin_list>
<bind>
<opcode="add(8) " fcode="add"/>
<opset="add_ln214_26/2 "/>
</bind>
</comp>

<comp id="184" class="1004" name="zext_ln214_19_fu_184">
<pin_list>
<pin id="185" dir="0" index="0" bw="1" slack="1"/>
<pin id="186" dir="1" index="1" bw="16" slack="0"/>
</pin_list>
<bind>
<opcode="zext(34) " fcode="zext"/>
<opset="zext_ln214_19/2 "/>
</bind>
</comp>

<comp id="187" class="1004" name="add_ln214_27_fu_187">
<pin_list>
<pin id="188" dir="0" index="0" bw="1" slack="0"/>
<pin id="189" dir="0" index="1" bw="16" slack="1"/>
<pin id="190" dir="1" index="2" bw="16" slack="0"/>
</pin_list>
<bind>
<opcode="add(8) " fcode="add"/>
<opset="add_ln214_27/2 "/>
</bind>
</comp>

<comp id="192" class="1004" name="add_ln214_28_fu_192">
<pin_list>
<pin id="193" dir="0" index="0" bw="16" slack="1"/>
<pin id="194" dir="0" index="1" bw="16" slack="0"/>
<pin id="195" dir="1" index="2" bw="16" slack="1"/>
</pin_list>
<bind>
<opcode="add(8) " fcode="add"/>
<opset="add_ln214_28/2 "/>
</bind>
</comp>

<comp id="197" class="1004" name="zext_ln214_fu_197">
<pin_list>
<pin id="198" dir="0" index="0" bw="16" slack="1"/>
<pin id="199" dir="1" index="1" bw="17" slack="0"/>
</pin_list>
<bind>
<opcode="zext(34) " fcode="zext"/>
<opset="zext_ln214/3 "/>
</bind>
</comp>

<comp id="200" class="1004" name="zext_ln214_9_fu_200">
<pin_list>
<pin id="201" dir="0" index="0" bw="16" slack="1"/>
<pin id="202" dir="1" index="1" bw="17" slack="0"/>
</pin_list>
<bind>
<opcode="zext(34) " fcode="zext"/>
<opset="zext_ln214_9/3 "/>
</bind>
</comp>

<comp id="203" class="1004" name="add_ln700_14_fu_203">
<pin_list>
<pin id="204" dir="0" index="0" bw="16" slack="0"/>
<pin id="205" dir="0" index="1" bw="16" slack="0"/>
<pin id="206" dir="1" index="2" bw="17" slack="0"/>
</pin_list>
<bind>
<opcode="add(8) " fcode="add"/>
<opset="add_ln700_14/3 "/>
</bind>
</comp>

<comp id="209" class="1004" name="tmp_272_fu_209">
<pin_list>
<pin id="210" dir="0" index="0" bw="1" slack="0"/>
<pin id="211" dir="0" index="1" bw="17" slack="0"/>
<pin id="212" dir="0" index="2" bw="6" slack="0"/>
<pin id="213" dir="1" index="3" bw="1" slack="1"/>
</pin_list>
<bind>
<opcode="bitselect(1000) " fcode="bitselect"/>
<opset="tmp_272/3 "/>
</bind>
</comp>

<comp id="217" class="1004" name="add_ln700_15_fu_217">
<pin_list>
<pin id="218" dir="0" index="0" bw="16" slack="2"/>
<pin id="219" dir="0" index="1" bw="16" slack="2"/>
<pin id="220" dir="1" index="2" bw="16" slack="0"/>
</pin_list>
<bind>
<opcode="add(8) " fcode="add"/>
<opset="add_ln700_15/4 "/>
</bind>
</comp>

<comp id="221" class="1004" name="zext_ln214_20_fu_221">
<pin_list>
<pin id="222" dir="0" index="0" bw="1" slack="1"/>
<pin id="223" dir="1" index="1" bw="16" slack="0"/>
</pin_list>
<bind>
<opcode="zext(34) " fcode="zext"/>
<opset="zext_ln214_20/4 "/>
</bind>
</comp>

<comp id="224" class="1004" name="add_ln769_fu_224">
<pin_list>
<pin id="225" dir="0" index="0" bw="1" slack="0"/>
<pin id="226" dir="0" index="1" bw="16" slack="0"/>
<pin id="227" dir="1" index="2" bw="16" slack="1"/>
</pin_list>
<bind>
<opcode="add(8) " fcode="add"/>
<opset="add_ln769/4 "/>
</bind>
</comp>

<comp id="230" class="1004" name="tmp_V_fu_230">
<pin_list>
<pin id="231" dir="0" index="0" bw="16" slack="1"/>
<pin id="232" dir="0" index="1" bw="16" slack="0"/>
<pin id="233" dir="1" index="2" bw="16" slack="0"/>
</pin_list>
<bind>
<opcode="xor(25) " fcode="xor"/>
<opset="tmp_V/5 "/>
</bind>
</comp>

<comp id="236" class="1005" name="tmp_reg_236">
<pin_list>
<pin id="237" dir="0" index="0" bw="1" slack="1"/>
<pin id="238" dir="1" index="1" bw="1" slack="2147483647"/>
</pin_list>
<bind>
<opset="tmp "/>
</bind>
</comp>

<comp id="240" class="1005" name="tmp_s_reg_240">
<pin_list>
<pin id="241" dir="0" index="0" bw="16" slack="1"/>
<pin id="242" dir="1" index="1" bw="16" slack="1"/>
</pin_list>
<bind>
<opset="tmp_s "/>
</bind>
</comp>

<comp id="245" class="1005" name="trunc_ln700_7_reg_245">
<pin_list>
<pin id="246" dir="0" index="0" bw="16" slack="1"/>
<pin id="247" dir="1" index="1" bw="16" slack="1"/>
</pin_list>
<bind>
<opset="trunc_ln700_7 "/>
</bind>
</comp>

<comp id="250" class="1005" name="tmp_5_reg_250">
<pin_list>
<pin id="251" dir="0" index="0" bw="16" slack="1"/>
<pin id="252" dir="1" index="1" bw="16" slack="1"/>
</pin_list>
<bind>
<opset="tmp_5 "/>
</bind>
</comp>

<comp id="255" class="1005" name="tmp_6_reg_255">
<pin_list>
<pin id="256" dir="0" index="0" bw="16" slack="1"/>
<pin id="257" dir="1" index="1" bw="16" slack="1"/>
</pin_list>
<bind>
<opset="tmp_6 "/>
</bind>
</comp>

<comp id="260" class="1005" name="tmp_270_reg_260">
<pin_list>
<pin id="261" dir="0" index="0" bw="1" slack="1"/>
<pin id="262" dir="1" index="1" bw="1" slack="1"/>
</pin_list>
<bind>
<opset="tmp_270 "/>
</bind>
</comp>

<comp id="265" class="1005" name="tmp_271_reg_265">
<pin_list>
<pin id="266" dir="0" index="0" bw="1" slack="1"/>
<pin id="267" dir="1" index="1" bw="1" slack="1"/>
</pin_list>
<bind>
<opset="tmp_271 "/>
</bind>
</comp>

<comp id="270" class="1005" name="add_ln214_26_reg_270">
<pin_list>
<pin id="271" dir="0" index="0" bw="16" slack="1"/>
<pin id="272" dir="1" index="1" bw="16" slack="1"/>
</pin_list>
<bind>
<opset="add_ln214_26 "/>
</bind>
</comp>

<comp id="276" class="1005" name="add_ln214_28_reg_276">
<pin_list>
<pin id="277" dir="0" index="0" bw="16" slack="1"/>
<pin id="278" dir="1" index="1" bw="16" slack="1"/>
</pin_list>
<bind>
<opset="add_ln214_28 "/>
</bind>
</comp>

<comp id="282" class="1005" name="tmp_272_reg_282">
<pin_list>
<pin id="283" dir="0" index="0" bw="1" slack="1"/>
<pin id="284" dir="1" index="1" bw="1" slack="1"/>
</pin_list>
<bind>
<opset="tmp_272 "/>
</bind>
</comp>

<comp id="287" class="1005" name="add_ln769_reg_287">
<pin_list>
<pin id="288" dir="0" index="0" bw="16" slack="1"/>
<pin id="289" dir="1" index="1" bw="16" slack="1"/>
</pin_list>
<bind>
<opset="add_ln769 "/>
</bind>
</comp>

</comp_list>

<net_list>
<net id="59"><net_src comp="4" pin="0"/><net_sink comp="54" pin=0"/></net>

<net id="60"><net_src comp="0" pin="0"/><net_sink comp="54" pin=1"/></net>

<net id="61"><net_src comp="6" pin="0"/><net_sink comp="54" pin=2"/></net>

<net id="66"><net_src comp="8" pin="0"/><net_sink comp="62" pin=0"/></net>

<net id="67"><net_src comp="0" pin="0"/><net_sink comp="62" pin=1"/></net>

<net id="73"><net_src comp="52" pin="0"/><net_sink comp="68" pin=0"/></net>

<net id="74"><net_src comp="2" pin="0"/><net_sink comp="68" pin=1"/></net>

<net id="81"><net_src comp="10" pin="0"/><net_sink comp="75" pin=0"/></net>

<net id="82"><net_src comp="62" pin="2"/><net_sink comp="75" pin=1"/></net>

<net id="83"><net_src comp="12" pin="0"/><net_sink comp="75" pin=2"/></net>

<net id="84"><net_src comp="14" pin="0"/><net_sink comp="75" pin=3"/></net>

<net id="88"><net_src comp="62" pin="2"/><net_sink comp="85" pin=0"/></net>

<net id="95"><net_src comp="16" pin="0"/><net_sink comp="89" pin=0"/></net>

<net id="96"><net_src comp="62" pin="2"/><net_sink comp="89" pin=1"/></net>

<net id="97"><net_src comp="12" pin="0"/><net_sink comp="89" pin=2"/></net>

<net id="98"><net_src comp="18" pin="0"/><net_sink comp="89" pin=3"/></net>

<net id="102"><net_src comp="62" pin="2"/><net_sink comp="99" pin=0"/></net>

<net id="107"><net_src comp="85" pin="1"/><net_sink comp="103" pin=0"/></net>

<net id="108"><net_src comp="75" pin="4"/><net_sink comp="103" pin=1"/></net>

<net id="115"><net_src comp="10" pin="0"/><net_sink comp="109" pin=0"/></net>

<net id="116"><net_src comp="62" pin="2"/><net_sink comp="109" pin=1"/></net>

<net id="117"><net_src comp="20" pin="0"/><net_sink comp="109" pin=2"/></net>

<net id="118"><net_src comp="22" pin="0"/><net_sink comp="109" pin=3"/></net>

<net id="125"><net_src comp="10" pin="0"/><net_sink comp="119" pin=0"/></net>

<net id="126"><net_src comp="62" pin="2"/><net_sink comp="119" pin=1"/></net>

<net id="127"><net_src comp="24" pin="0"/><net_sink comp="119" pin=2"/></net>

<net id="128"><net_src comp="26" pin="0"/><net_sink comp="119" pin=3"/></net>

<net id="135"><net_src comp="16" pin="0"/><net_sink comp="129" pin=0"/></net>

<net id="136"><net_src comp="62" pin="2"/><net_sink comp="129" pin=1"/></net>

<net id="137"><net_src comp="20" pin="0"/><net_sink comp="129" pin=2"/></net>

<net id="138"><net_src comp="28" pin="0"/><net_sink comp="129" pin=3"/></net>

<net id="145"><net_src comp="16" pin="0"/><net_sink comp="139" pin=0"/></net>

<net id="146"><net_src comp="62" pin="2"/><net_sink comp="139" pin=1"/></net>

<net id="147"><net_src comp="24" pin="0"/><net_sink comp="139" pin=2"/></net>

<net id="148"><net_src comp="30" pin="0"/><net_sink comp="139" pin=3"/></net>

<net id="153"><net_src comp="119" pin="4"/><net_sink comp="149" pin=0"/></net>

<net id="154"><net_src comp="109" pin="4"/><net_sink comp="149" pin=1"/></net>

<net id="160"><net_src comp="32" pin="0"/><net_sink comp="155" pin=0"/></net>

<net id="161"><net_src comp="103" pin="2"/><net_sink comp="155" pin=1"/></net>

<net id="162"><net_src comp="34" pin="0"/><net_sink comp="155" pin=2"/></net>

<net id="168"><net_src comp="32" pin="0"/><net_sink comp="163" pin=0"/></net>

<net id="169"><net_src comp="149" pin="2"/><net_sink comp="163" pin=1"/></net>

<net id="170"><net_src comp="34" pin="0"/><net_sink comp="163" pin=2"/></net>

<net id="178"><net_src comp="171" pin="1"/><net_sink comp="174" pin=0"/></net>

<net id="183"><net_src comp="174" pin="2"/><net_sink comp="179" pin=1"/></net>

<net id="191"><net_src comp="184" pin="1"/><net_sink comp="187" pin=0"/></net>

<net id="196"><net_src comp="187" pin="2"/><net_sink comp="192" pin=1"/></net>

<net id="207"><net_src comp="200" pin="1"/><net_sink comp="203" pin=0"/></net>

<net id="208"><net_src comp="197" pin="1"/><net_sink comp="203" pin=1"/></net>

<net id="214"><net_src comp="32" pin="0"/><net_sink comp="209" pin=0"/></net>

<net id="215"><net_src comp="203" pin="2"/><net_sink comp="209" pin=1"/></net>

<net id="216"><net_src comp="34" pin="0"/><net_sink comp="209" pin=2"/></net>

<net id="228"><net_src comp="221" pin="1"/><net_sink comp="224" pin=0"/></net>

<net id="229"><net_src comp="217" pin="2"/><net_sink comp="224" pin=1"/></net>

<net id="234"><net_src comp="50" pin="0"/><net_sink comp="230" pin=1"/></net>

<net id="235"><net_src comp="230" pin="2"/><net_sink comp="68" pin=2"/></net>

<net id="239"><net_src comp="54" pin="3"/><net_sink comp="236" pin=0"/></net>

<net id="243"><net_src comp="89" pin="4"/><net_sink comp="240" pin=0"/></net>

<net id="244"><net_src comp="240" pin="1"/><net_sink comp="174" pin=1"/></net>

<net id="248"><net_src comp="99" pin="1"/><net_sink comp="245" pin=0"/></net>

<net id="249"><net_src comp="245" pin="1"/><net_sink comp="179" pin=0"/></net>

<net id="253"><net_src comp="129" pin="4"/><net_sink comp="250" pin=0"/></net>

<net id="254"><net_src comp="250" pin="1"/><net_sink comp="187" pin=1"/></net>

<net id="258"><net_src comp="139" pin="4"/><net_sink comp="255" pin=0"/></net>

<net id="259"><net_src comp="255" pin="1"/><net_sink comp="192" pin=0"/></net>

<net id="263"><net_src comp="155" pin="3"/><net_sink comp="260" pin=0"/></net>

<net id="264"><net_src comp="260" pin="1"/><net_sink comp="171" pin=0"/></net>

<net id="268"><net_src comp="163" pin="3"/><net_sink comp="265" pin=0"/></net>

<net id="269"><net_src comp="265" pin="1"/><net_sink comp="184" pin=0"/></net>

<net id="273"><net_src comp="179" pin="2"/><net_sink comp="270" pin=0"/></net>

<net id="274"><net_src comp="270" pin="1"/><net_sink comp="197" pin=0"/></net>

<net id="275"><net_src comp="270" pin="1"/><net_sink comp="217" pin=0"/></net>

<net id="279"><net_src comp="192" pin="2"/><net_sink comp="276" pin=0"/></net>

<net id="280"><net_src comp="276" pin="1"/><net_sink comp="200" pin=0"/></net>

<net id="281"><net_src comp="276" pin="1"/><net_sink comp="217" pin=1"/></net>

<net id="285"><net_src comp="209" pin="3"/><net_sink comp="282" pin=0"/></net>

<net id="286"><net_src comp="282" pin="1"/><net_sink comp="221" pin=0"/></net>

<net id="290"><net_src comp="224" pin="2"/><net_sink comp="287" pin=0"/></net>

<net id="291"><net_src comp="287" pin="1"/><net_sink comp="230" pin=0"/></net>

</net_list>

</model> 
---------------- Datapath Model END ------------------

* FSMD analyzer results:
  - Output states:
	Port: txEng_subChecksumsFi_1 | {}
	Port: txEng_tcpChecksumFif_1 | {5 }
 - Input state : 
	Port: finalize_ipv4_checks : txEng_subChecksumsFi_1 | {1 }
	Port: finalize_ipv4_checks : txEng_tcpChecksumFif_1 | {}
  - Chain level:
	State 1
		add_ln700 : 1
		add_ln700_13 : 1
		tmp_270 : 2
		tmp_271 : 2
	State 2
		add_ln214 : 1
		add_ln214_26 : 2
		add_ln214_27 : 1
		add_ln214_28 : 2
	State 3
		add_ln700_14 : 1
		tmp_272 : 2
	State 4
		add_ln769 : 1
	State 5


============================================================
+ Verbose Summary: Datapath Resource usage 
============================================================

* Functional unit list:
|----------|-------------------------|---------|---------|
| Operation|     Functional Unit     |    FF   |   LUT   |
|----------|-------------------------|---------|---------|
|          |     add_ln700_fu_103    |    0    |    24   |
|          |   add_ln700_13_fu_149   |    0    |    24   |
|          |     add_ln214_fu_174    |    0    |    18   |
|          |   add_ln214_26_fu_179   |    0    |    18   |
|    add   |   add_ln214_27_fu_187   |    0    |    18   |
|          |   add_ln214_28_fu_192   |    0    |    18   |
|          |   add_ln700_14_fu_203   |    0    |    23   |
|          |   add_ln700_15_fu_217   |    0    |    18   |
|          |     add_ln769_fu_224    |    0    |    18   |
|----------|-------------------------|---------|---------|
|    xor   |       tmp_V_fu_230      |    0    |    16   |
|----------|-------------------------|---------|---------|
| nbreadreq|   tmp_nbreadreq_fu_54   |    0    |    0    |
|----------|-------------------------|---------|---------|
|   read   |   tmp_sum_V_read_fu_62  |    0    |    0    |
|----------|-------------------------|---------|---------|
|   write  | write_ln318_write_fu_68 |    0    |    0    |
|----------|-------------------------|---------|---------|
|          |       tmp_i_fu_75       |    0    |    0    |
|          |       tmp_s_fu_89       |    0    |    0    |
|partselect|     tmp_141_i_fu_109    |    0    |    0    |
|          |     tmp_142_i_fu_119    |    0    |    0    |
|          |       tmp_5_fu_129      |    0    |    0    |
|          |       tmp_6_fu_139      |    0    |    0    |
|----------|-------------------------|---------|---------|
|   trunc  |    trunc_ln700_fu_85    |    0    |    0    |
|          |   trunc_ln700_7_fu_99   |    0    |    0    |
|----------|-------------------------|---------|---------|
|          |      tmp_270_fu_155     |    0    |    0    |
| bitselect|      tmp_271_fu_163     |    0    |    0    |
|          |      tmp_272_fu_209     |    0    |    0    |
|----------|-------------------------|---------|---------|
|          |   zext_ln214_18_fu_171  |    0    |    0    |
|          |   zext_ln214_19_fu_184  |    0    |    0    |
|   zext   |    zext_ln214_fu_197    |    0    |    0    |
|          |   zext_ln214_9_fu_200   |    0    |    0    |
|          |   zext_ln214_20_fu_221  |    0    |    0    |
|----------|-------------------------|---------|---------|
|   Total  |                         |    0    |   195   |
|----------|-------------------------|---------|---------|

Memories:
N/A

* Register list:
+---------------------+--------+
|                     |   FF   |
+---------------------+--------+
| add_ln214_26_reg_270|   16   |
| add_ln214_28_reg_276|   16   |
|  add_ln769_reg_287  |   16   |
|   tmp_270_reg_260   |    1   |
|   tmp_271_reg_265   |    1   |
|   tmp_272_reg_282   |    1   |
|    tmp_5_reg_250    |   16   |
|    tmp_6_reg_255    |   16   |
|     tmp_reg_236     |    1   |
|    tmp_s_reg_240    |   16   |
|trunc_ln700_7_reg_245|   16   |
+---------------------+--------+
|        Total        |   116  |
+---------------------+--------+

* Multiplexer (MUX) list: 
|--------|------|------|------|--------|
|  Comp  |  Pin | Size |  BW  | S x BW |
|--------|------|------|------|--------|
|  Total |      |      |      |    0   |
|--------|------|------|------|--------|



* Summary:
+-----------+--------+--------+
|           |   FF   |   LUT  |
+-----------+--------+--------+
|  Function |    0   |   195  |
|   Memory  |    -   |    -   |
|Multiplexer|    -   |    -   |
|  Register |   116  |    -   |
+-----------+--------+--------+
|   Total   |   116  |   195  |
+-----------+--------+--------+
