

================================================================
== Vivado HLS Report for 'free_port_table'
================================================================
* Date:           Sat Dec 12 19:34:53 2020

* Version:        2019.2.1 (Build 2724168 on Thu Dec 05 05:19:09 MST 2019)
* Project:        toe_prj
* Solution:       solution1
* Product family: zynq
* Target device:  xc7z020-clg400-1


================================================================
== Performance Estimates
================================================================
+ Timing: 
    * Summary: 
    +--------+---------+----------+------------+
    |  Clock |  Target | Estimated| Uncertainty|
    +--------+---------+----------+------------+
    |ap_clk  | 6.40 ns | 3.254 ns |   0.80 ns  |
    +--------+---------+----------+------------+

+ Latency: 
    * Summary: 
    +---------+---------+-----------+-----------+-----+-----+----------+
    |  Latency (cycles) |   Latency (absolute)  |  Interval | Pipeline |
    |   min   |   max   |    min    |    max    | min | max |   Type   |
    +---------+---------+-----------+-----------+-----+-----+----------+
    |        4|        4| 25.600 ns | 25.600 ns |    1|    1| function |
    +---------+---------+-----------+-----------+-----+-----+----------+

    + Detail: 
        * Instance: 
        N/A

        * Loop: 
        N/A



================================================================
== Utilization Estimates
================================================================
* Summary: 
+-----------------+---------+-------+--------+-------+-----+
|       Name      | BRAM_18K| DSP48E|   FF   |  LUT  | URAM|
+-----------------+---------+-------+--------+-------+-----+
|DSP              |        -|      -|       -|      -|    -|
|Expression       |        -|      -|       0|     59|    -|
|FIFO             |        -|      -|       -|      -|    -|
|Instance         |        -|      -|       -|      -|    -|
|Memory           |        2|      -|       0|      0|    0|
|Multiplexer      |        -|      -|       -|     75|    -|
|Register         |        0|      -|     323|     96|    -|
+-----------------+---------+-------+--------+-------+-----+
|Total            |        2|      0|     323|    230|    0|
+-----------------+---------+-------+--------+-------+-----+
|Available        |      280|    220|  106400|  53200|    0|
+-----------------+---------+-------+--------+-------+-----+
|Utilization (%)  |    ~0   |      0|   ~0   |   ~0  |    0|
+-----------------+---------+-------+--------+-------+-----+

+ Detail: 
    * Instance: 
    N/A

    * DSP48E: 
    N/A

    * Memory: 
    +-----------------+----------------------+---------+---+----+-----+-------+-----+------+-------------+
    |      Memory     |        Module        | BRAM_18K| FF| LUT| URAM| Words | Bits| Banks| W*Bits*Banks|
    +-----------------+----------------------+---------+---+----+-----+-------+-----+------+-------------+
    |freePortTable_U  |free_port_table_fyd2  |        2|  0|   0|    0|  32768|    1|     1|        32768|
    +-----------------+----------------------+---------+---+----+-----+-------+-----+------+-------------+
    |Total            |                      |        2|  0|   0|    0|  32768|    1|     1|        32768|
    +-----------------+----------------------+---------+---+----+-----+-------+-----+------+-------------+

    * FIFO: 
    N/A

    * Expression: 
    +-----------------------------------+----------+-------+---+----+------------+------------+
    |           Variable Name           | Operation| DSP48E| FF| LUT| Bitwidth P0| Bitwidth P1|
    +-----------------------------------+----------+-------+---+----+------------+------------+
    |add_ln700_fu_178_p2                |     +    |      0|  0|  21|          15|           1|
    |ap_block_pp0                       |    and   |      0|  0|   2|           1|           1|
    |ap_block_state2_pp0_stage0_iter1   |    and   |      0|  0|   2|           1|           1|
    |ap_enable_state3_pp0_iter2_stage0  |    and   |      0|  0|   2|           1|           1|
    |ap_enable_state4_pp0_iter3_stage0  |    and   |      0|  0|   2|           1|           1|
    |ap_enable_state5_pp0_iter4_stage0  |    and   |      0|  0|   2|           1|           1|
    |ap_predicate_op14_read_state2      |    and   |      0|  0|   2|           1|           1|
    |ap_predicate_op18_load_state3      |    and   |      0|  0|   2|           1|           1|
    |ap_predicate_op21_load_state3      |    and   |      0|  0|   2|           1|           1|
    |ap_predicate_op24_store_state3     |    and   |      0|  0|   2|           1|           1|
    |ap_predicate_op25_load_state4      |    and   |      0|  0|   2|           1|           1|
    |ap_predicate_op27_load_state4      |    and   |      0|  0|   2|           1|           1|
    |ap_predicate_op39_store_state5     |    and   |      0|  0|   2|           1|           1|
    |ap_predicate_op43_write_state5     |    and   |      0|  0|   2|           1|           1|
    |tmp_267_nbreadreq_fu_78_p3         |    and   |      0|  0|   2|           1|           0|
    |tmp_nbreadreq_fu_64_p3             |    and   |      0|  0|   2|           1|           0|
    |ap_block_pp0_stage0_01001          |    or    |      0|  0|   2|           1|           1|
    |ap_block_state1_pp0_stage0_iter0   |    or    |      0|  0|   2|           1|           1|
    |ap_block_state5_pp0_stage0_iter4   |    or    |      0|  0|   2|           1|           1|
    |ap_enable_pp0                      |    xor   |      0|  0|   2|           1|           2|
    +-----------------------------------+----------+-------+---+----+------------+------------+
    |Total                              |          |      0|  0|  59|          34|          19|
    +-----------------------------------+----------+-------+---+----+------------+------------+

    * Multiplexer: 
    +------------------------------+----+-----------+-----+-----------+
    |             Name             | LUT| Input Size| Bits| Total Bits|
    +------------------------------+----+-----------+-----+-----------+
    |ap_done                       |   9|          2|    1|          2|
    |ap_sig_allocacmp_t_V          |   9|          2|   15|         30|
    |freePortTable_address0        |  21|          4|   15|         60|
    |portTable2txApp_port_1_blk_n  |   9|          2|    1|          2|
    |pt_portCheckUsed_req_1_blk_n  |   9|          2|    1|          2|
    |pt_portCheckUsed_rsp_1_blk_n  |   9|          2|    1|          2|
    |sLookup2portTable_re_1_blk_n  |   9|          2|    1|          2|
    +------------------------------+----+-----------+-----+-----------+
    |Total                         |  75|         16|   35|        100|
    +------------------------------+----+-----------+-----+-----------+

    * Register: 
    +--------------------------------------------+----+----+-----+-----------+
    |                    Name                    | FF | LUT| Bits| Const Bits|
    +--------------------------------------------+----+----+-----+-----------+
    |ap_CS_fsm                                   |   1|   0|    1|          0|
    |ap_done_reg                                 |   1|   0|    1|          0|
    |ap_enable_reg_pp0_iter1                     |   1|   0|    1|          0|
    |ap_enable_reg_pp0_iter2                     |   1|   0|    1|          0|
    |ap_enable_reg_pp0_iter3                     |   1|   0|    1|          0|
    |ap_enable_reg_pp0_iter4                     |   1|   0|    1|          0|
    |freePortTable_addr_2_reg_225                |  15|   0|   15|          0|
    |freePortTable_addr_2_reg_225_pp0_iter3_reg  |  15|   0|   15|          0|
    |freePortTable_load_reg_236                  |   1|   0|    1|          0|
    |pt_cursor_V                                 |  15|   0|   15|          0|
    |t_V_reg_219                                 |  15|   0|   15|          0|
    |t_V_reg_219_pp0_iter3_reg                   |  15|   0|   15|          0|
    |tmp_266_reg_201                             |   1|   0|    1|          0|
    |tmp_267_reg_210                             |   1|   0|    1|          0|
    |tmp_268_reg_240                             |   1|   0|    1|          0|
    |tmp_V_reg_214                               |  15|   0|   15|          0|
    |tmp_reg_197                                 |   1|   0|    1|          0|
    |trunc_ln681_reg_205                         |  15|   0|   15|          0|
    |trunc_ln681_reg_205_pp0_iter1_reg           |  15|   0|   15|          0|
    |tmp_266_reg_201                             |  64|  32|    1|          0|
    |tmp_267_reg_210                             |  64|  32|    1|          0|
    |tmp_reg_197                                 |  64|  32|    1|          0|
    +--------------------------------------------+----+----+-----+-----------+
    |Total                                       | 323|  96|  134|          0|
    +--------------------------------------------+----+----+-----+-----------+



================================================================
== Interface
================================================================
* Summary: 
+--------------------------------+-----+-----+------------+------------------------+--------------+
|            RTL Ports           | Dir | Bits|  Protocol  |      Source Object     |    C Type    |
+--------------------------------+-----+-----+------------+------------------------+--------------+
|ap_clk                          |  in |    1| ap_ctrl_hs |     free_port_table    | return value |
|ap_rst                          |  in |    1| ap_ctrl_hs |     free_port_table    | return value |
|ap_start                        |  in |    1| ap_ctrl_hs |     free_port_table    | return value |
|ap_done                         | out |    1| ap_ctrl_hs |     free_port_table    | return value |
|ap_continue                     |  in |    1| ap_ctrl_hs |     free_port_table    | return value |
|ap_idle                         | out |    1| ap_ctrl_hs |     free_port_table    | return value |
|ap_ready                        | out |    1| ap_ctrl_hs |     free_port_table    | return value |
|sLookup2portTable_re_1_dout     |  in |   16|   ap_fifo  | sLookup2portTable_re_1 |    pointer   |
|sLookup2portTable_re_1_empty_n  |  in |    1|   ap_fifo  | sLookup2portTable_re_1 |    pointer   |
|sLookup2portTable_re_1_read     | out |    1|   ap_fifo  | sLookup2portTable_re_1 |    pointer   |
|pt_portCheckUsed_req_1_dout     |  in |   15|   ap_fifo  | pt_portCheckUsed_req_1 |    pointer   |
|pt_portCheckUsed_req_1_empty_n  |  in |    1|   ap_fifo  | pt_portCheckUsed_req_1 |    pointer   |
|pt_portCheckUsed_req_1_read     | out |    1|   ap_fifo  | pt_portCheckUsed_req_1 |    pointer   |
|portTable2txApp_port_1_din      | out |   16|   ap_fifo  | portTable2txApp_port_1 |    pointer   |
|portTable2txApp_port_1_full_n   |  in |    1|   ap_fifo  | portTable2txApp_port_1 |    pointer   |
|portTable2txApp_port_1_write    | out |    1|   ap_fifo  | portTable2txApp_port_1 |    pointer   |
|pt_portCheckUsed_rsp_1_din      | out |    1|   ap_fifo  | pt_portCheckUsed_rsp_1 |    pointer   |
|pt_portCheckUsed_rsp_1_full_n   |  in |    1|   ap_fifo  | pt_portCheckUsed_rsp_1 |    pointer   |
|pt_portCheckUsed_rsp_1_write    | out |    1|   ap_fifo  | pt_portCheckUsed_rsp_1 |    pointer   |
+--------------------------------+-----+-----+------------+------------------------+--------------+

============================================================
+ Verbose Summary: Synthesis Manager
============================================================
InlineROM: 1
ExposeGlobal: 0
============================================================
+ Verbose Summary: CDFG Model
============================================================
IsTopModel: 0
ResetActiveHigh: 1
IsCombinational: 2
IsDatapathOnly: 0
HasWiredReturn: 1
HasMFsm: 2
HasVarLatency: 0
IsPipeline: 1
IsRtlPipelined: 1
IsInstanceOverlapped: 0
IsDontTouch: 0
HasImplIP: 0
IsGatedGlobalClock: 0

+ Individual pipeline summary: 
  * Pipeline-0: initiation interval (II) = 1, depth = 5


============================================================
+ Verbose Summary: Schedule
============================================================
* Number of FSM states : 5
* Pipeline : 1
  Pipeline-0 : II = 1, D = 5, States = { 1 2 3 4 5 }
* Dataflow Pipeline: 0

* FSM state transitions: 
1 --> 2 
2 --> 3 
3 --> 4 
4 --> 5 
5 --> 

* FSM state operations: 

State 1 <SV = 0> <Delay = 2.80>
ST_1 : Operation 6 [1/1] (0.00ns)   --->   "%tmp = call i1 @_ssdm_op_NbReadReq.ap_fifo.i16P(i16* @sLookup2portTable_re_1, i32 1) nounwind" [/home/paulrr2/Projects/ece527/babelsoc/fpga-network-stack/hls/toe/port_table/port_table.cpp:118]   --->   Operation 6 'nbreadreq' 'tmp' <Predicate = true> <Delay = 0.00> <Core = "FIFO">   --->   Core 32 'FIFO' <Latency = 0> <II = 1> <Delay = 3.54> <Storage> <Opcode : 'read' 'write' 'nbread' 'nbwrite'> <Ports = 0> <Width = 16> <Depth = 8> <FIFO>
ST_1 : Operation 7 [1/1] (0.00ns)   --->   "br i1 %tmp, label %0, label %2" [/home/paulrr2/Projects/ece527/babelsoc/fpga-network-stack/hls/toe/port_table/port_table.cpp:118]   --->   Operation 7 'br' <Predicate = true> <Delay = 0.00>
ST_1 : Operation 8 [1/1] (2.80ns)   --->   "%tmp_V_29 = call i16 @_ssdm_op_Read.ap_fifo.volatile.i16P(i16* @sLookup2portTable_re_1) nounwind" [/home/paulrr2/Projects/ece527/babelsoc/fpga-network-stack/hls/toe/port_table/port_table.cpp:120]   --->   Operation 8 'read' 'tmp_V_29' <Predicate = (tmp)> <Delay = 2.80> <Core = "FIFO">   --->   Core 32 'FIFO' <Latency = 0> <II = 1> <Delay = 3.54> <Storage> <Opcode : 'read' 'write' 'nbread' 'nbwrite'> <Ports = 0> <Width = 16> <Depth = 8> <FIFO>
ST_1 : Operation 9 [1/1] (0.00ns)   --->   "%tmp_266 = call i1 @_ssdm_op_BitSelect.i1.i16.i32(i16 %tmp_V_29, i32 15)" [/home/paulrr2/Projects/ece527/babelsoc/fpga-network-stack/hls/toe/port_table/port_table.cpp:121]   --->   Operation 9 'bitselect' 'tmp_266' <Predicate = (tmp)> <Delay = 0.00>
ST_1 : Operation 10 [1/1] (0.00ns)   --->   "br i1 %tmp_266, label %1, label %._crit_edge1.i" [/home/paulrr2/Projects/ece527/babelsoc/fpga-network-stack/hls/toe/port_table/port_table.cpp:121]   --->   Operation 10 'br' <Predicate = (tmp)> <Delay = 0.00>
ST_1 : Operation 11 [1/1] (0.00ns)   --->   "%trunc_ln681 = trunc i16 %tmp_V_29 to i15" [/home/paulrr2/Projects/ece527/babelsoc/fpga-network-stack/hls/toe/port_table/port_table.cpp:123]   --->   Operation 11 'trunc' 'trunc_ln681' <Predicate = (tmp & tmp_266)> <Delay = 0.00>

State 2 <SV = 1> <Delay = 2.80>
ST_2 : Operation 12 [1/1] (0.00ns)   --->   "%tmp_267 = call i1 @_ssdm_op_NbReadReq.ap_fifo.i15P(i15* @pt_portCheckUsed_req_1, i32 1) nounwind" [/home/paulrr2/Projects/ece527/babelsoc/fpga-network-stack/hls/toe/port_table/port_table.cpp:126]   --->   Operation 12 'nbreadreq' 'tmp_267' <Predicate = (!tmp)> <Delay = 0.00> <Core = "FIFO">   --->   Core 32 'FIFO' <Latency = 0> <II = 1> <Delay = 3.54> <Storage> <Opcode : 'read' 'write' 'nbread' 'nbwrite'> <Ports = 0> <Width = 16> <Depth = 8> <FIFO>
ST_2 : Operation 13 [1/1] (0.00ns)   --->   "br i1 %tmp_267, label %3, label %4" [/home/paulrr2/Projects/ece527/babelsoc/fpga-network-stack/hls/toe/port_table/port_table.cpp:126]   --->   Operation 13 'br' <Predicate = (!tmp)> <Delay = 0.00>
ST_2 : Operation 14 [1/1] (2.80ns)   --->   "%tmp_V = call i15 @_ssdm_op_Read.ap_fifo.volatile.i15P(i15* @pt_portCheckUsed_req_1) nounwind" [/home/paulrr2/Projects/ece527/babelsoc/fpga-network-stack/hls/toe/port_table/port_table.cpp:128]   --->   Operation 14 'read' 'tmp_V' <Predicate = (!tmp & tmp_267)> <Delay = 2.80> <Core = "FIFO">   --->   Core 32 'FIFO' <Latency = 0> <II = 1> <Delay = 3.54> <Storage> <Opcode : 'read' 'write' 'nbread' 'nbwrite'> <Ports = 0> <Width = 16> <Depth = 8> <FIFO>

State 3 <SV = 2> <Delay = 3.25>
ST_3 : Operation 15 [1/1] (0.00ns)   --->   "%t_V = load i15* @pt_cursor_V, align 2" [/home/paulrr2/Projects/ece527/babelsoc/fpga-network-stack/hls/toe/port_table/port_table.cpp:132]   --->   Operation 15 'load' 't_V' <Predicate = true> <Delay = 0.00>
ST_3 : Operation 16 [1/1] (0.00ns)   --->   "%zext_ln544_21 = zext i15 %t_V to i64" [/home/paulrr2/Projects/ece527/babelsoc/fpga-network-stack/hls/toe/port_table/port_table.cpp:132]   --->   Operation 16 'zext' 'zext_ln544_21' <Predicate = (!tmp & !tmp_267)> <Delay = 0.00>
ST_3 : Operation 17 [1/1] (0.00ns)   --->   "%freePortTable_addr_2 = getelementptr inbounds [32768 x i1]* @freePortTable, i64 0, i64 %zext_ln544_21" [/home/paulrr2/Projects/ece527/babelsoc/fpga-network-stack/hls/toe/port_table/port_table.cpp:132]   --->   Operation 17 'getelementptr' 'freePortTable_addr_2' <Predicate = (!tmp & !tmp_267)> <Delay = 0.00>
ST_3 : Operation 18 [2/2] (3.25ns)   --->   "%freePortTable_load = load i1* %freePortTable_addr_2, align 1" [/home/paulrr2/Projects/ece527/babelsoc/fpga-network-stack/hls/toe/port_table/port_table.cpp:132]   --->   Operation 18 'load' 'freePortTable_load' <Predicate = (!tmp & !tmp_267)> <Delay = 3.25> <Core = "RAM_T2P_BRAM">   --->   Core 38 'RAM_T2P_BRAM' <Latency = 1> <II = 1> <Delay = 3.25> <Storage> <Opcode : 'load' 'store'> <Ports = 2> <Width = 1> <Depth = 32768> <RAM>
ST_3 : Operation 19 [1/1] (0.00ns)   --->   "%zext_ln544 = zext i15 %tmp_V to i64" [/home/paulrr2/Projects/ece527/babelsoc/fpga-network-stack/hls/toe/port_table/port_table.cpp:128]   --->   Operation 19 'zext' 'zext_ln544' <Predicate = (!tmp & tmp_267)> <Delay = 0.00>
ST_3 : Operation 20 [1/1] (0.00ns)   --->   "%freePortTable_addr_1 = getelementptr inbounds [32768 x i1]* @freePortTable, i64 0, i64 %zext_ln544" [/home/paulrr2/Projects/ece527/babelsoc/fpga-network-stack/hls/toe/port_table/port_table.cpp:128]   --->   Operation 20 'getelementptr' 'freePortTable_addr_1' <Predicate = (!tmp & tmp_267)> <Delay = 0.00>
ST_3 : Operation 21 [2/2] (3.25ns)   --->   "%tmp_268 = load i1* %freePortTable_addr_1, align 1" [/home/paulrr2/Projects/ece527/babelsoc/fpga-network-stack/hls/toe/port_table/port_table.cpp:128]   --->   Operation 21 'load' 'tmp_268' <Predicate = (!tmp & tmp_267)> <Delay = 3.25> <Core = "RAM_T2P_BRAM">   --->   Core 38 'RAM_T2P_BRAM' <Latency = 1> <II = 1> <Delay = 3.25> <Storage> <Opcode : 'load' 'store'> <Ports = 2> <Width = 1> <Depth = 32768> <RAM>
ST_3 : Operation 22 [1/1] (0.00ns)   --->   "%zext_ln681 = zext i15 %trunc_ln681 to i64" [/home/paulrr2/Projects/ece527/babelsoc/fpga-network-stack/hls/toe/port_table/port_table.cpp:123]   --->   Operation 22 'zext' 'zext_ln681' <Predicate = (tmp & tmp_266)> <Delay = 0.00>
ST_3 : Operation 23 [1/1] (0.00ns)   --->   "%freePortTable_addr = getelementptr inbounds [32768 x i1]* @freePortTable, i64 0, i64 %zext_ln681" [/home/paulrr2/Projects/ece527/babelsoc/fpga-network-stack/hls/toe/port_table/port_table.cpp:123]   --->   Operation 23 'getelementptr' 'freePortTable_addr' <Predicate = (tmp & tmp_266)> <Delay = 0.00>
ST_3 : Operation 24 [1/1] (3.25ns)   --->   "store i1 false, i1* %freePortTable_addr, align 1" [/home/paulrr2/Projects/ece527/babelsoc/fpga-network-stack/hls/toe/port_table/port_table.cpp:123]   --->   Operation 24 'store' <Predicate = (tmp & tmp_266)> <Delay = 3.25> <Core = "RAM_T2P_BRAM">   --->   Core 38 'RAM_T2P_BRAM' <Latency = 1> <II = 1> <Delay = 3.25> <Storage> <Opcode : 'load' 'store'> <Ports = 2> <Width = 1> <Depth = 32768> <RAM>

State 4 <SV = 3> <Delay = 3.25>
ST_4 : Operation 25 [1/2] (3.25ns)   --->   "%freePortTable_load = load i1* %freePortTable_addr_2, align 1" [/home/paulrr2/Projects/ece527/babelsoc/fpga-network-stack/hls/toe/port_table/port_table.cpp:132]   --->   Operation 25 'load' 'freePortTable_load' <Predicate = (!tmp & !tmp_267)> <Delay = 3.25> <Core = "RAM_T2P_BRAM">   --->   Core 38 'RAM_T2P_BRAM' <Latency = 1> <II = 1> <Delay = 3.25> <Storage> <Opcode : 'load' 'store'> <Ports = 2> <Width = 1> <Depth = 32768> <RAM>
ST_4 : Operation 26 [1/1] (0.00ns)   --->   "br i1 %freePortTable_load, label %._crit_edge2.i, label %5" [/home/paulrr2/Projects/ece527/babelsoc/fpga-network-stack/hls/toe/port_table/port_table.cpp:132]   --->   Operation 26 'br' <Predicate = (!tmp & !tmp_267)> <Delay = 0.00>
ST_4 : Operation 27 [1/2] (3.25ns)   --->   "%tmp_268 = load i1* %freePortTable_addr_1, align 1" [/home/paulrr2/Projects/ece527/babelsoc/fpga-network-stack/hls/toe/port_table/port_table.cpp:128]   --->   Operation 27 'load' 'tmp_268' <Predicate = (!tmp & tmp_267)> <Delay = 3.25> <Core = "RAM_T2P_BRAM">   --->   Core 38 'RAM_T2P_BRAM' <Latency = 1> <II = 1> <Delay = 3.25> <Storage> <Opcode : 'load' 'store'> <Ports = 2> <Width = 1> <Depth = 32768> <RAM>
ST_4 : Operation 28 [1/1] (1.94ns)   --->   "%add_ln700 = add i15 %t_V, 1" [/home/paulrr2/Projects/ece527/babelsoc/fpga-network-stack/hls/toe/port_table/port_table.cpp:140]   --->   Operation 28 'add' 'add_ln700' <Predicate = true> <Delay = 1.94> <Core = "AddSub">   --->   Core 14 'AddSub' <Latency = 0> <II = 1> <Delay = 1.94> <FuncUnit> <Opcode : 'add' 'sub'> <InPorts = 2> <OutPorts = 1>
ST_4 : Operation 29 [1/1] (0.00ns)   --->   "store i15 %add_ln700, i15* @pt_cursor_V, align 2" [/home/paulrr2/Projects/ece527/babelsoc/fpga-network-stack/hls/toe/port_table/port_table.cpp:140]   --->   Operation 29 'store' <Predicate = true> <Delay = 0.00>

State 5 <SV = 4> <Delay = 3.25>
ST_5 : Operation 30 [1/1] (0.00ns)   --->   "call void (...)* @_ssdm_op_SpecInterface(i16* @portTable2txApp_port_1, [8 x i8]* @ap_fifo_str, i32 0, i32 0, [1 x i8]* @p_str, i32 0, i32 0, [1 x i8]* @p_str, [1 x i8]* @p_str, [1 x i8]* @p_str, i32 2, i32 2, i32 16, i32 16, [1 x i8]* @p_str, [1 x i8]* @p_str)"   --->   Operation 30 'specinterface' <Predicate = true> <Delay = 0.00>
ST_5 : Operation 31 [1/1] (0.00ns)   --->   "call void (...)* @_ssdm_op_SpecInterface(i15* @pt_portCheckUsed_req_1, [8 x i8]* @ap_fifo_str, i32 0, i32 0, [1 x i8]* @p_str, i32 0, i32 0, [1 x i8]* @p_str, [1 x i8]* @p_str, [1 x i8]* @p_str, i32 2, i32 2, i32 16, i32 16, [1 x i8]* @p_str, [1 x i8]* @p_str)"   --->   Operation 31 'specinterface' <Predicate = true> <Delay = 0.00>
ST_5 : Operation 32 [1/1] (0.00ns)   --->   "call void (...)* @_ssdm_op_SpecInterface(i1* @pt_portCheckUsed_rsp_1, [8 x i8]* @ap_fifo_str, i32 0, i32 0, [1 x i8]* @p_str, i32 0, i32 0, [1 x i8]* @p_str, [1 x i8]* @p_str, [1 x i8]* @p_str, i32 2, i32 2, i32 16, i32 16, [1 x i8]* @p_str, [1 x i8]* @p_str)"   --->   Operation 32 'specinterface' <Predicate = true> <Delay = 0.00>
ST_5 : Operation 33 [1/1] (0.00ns)   --->   "call void (...)* @_ssdm_op_SpecInterface(i16* @sLookup2portTable_re_1, [8 x i8]* @ap_fifo_str, i32 0, i32 0, [1 x i8]* @p_str, i32 0, i32 0, [1 x i8]* @p_str, [1 x i8]* @p_str, [1 x i8]* @p_str, i32 2, i32 2, i32 16, i32 16, [1 x i8]* @p_str, [1 x i8]* @p_str)"   --->   Operation 33 'specinterface' <Predicate = true> <Delay = 0.00>
ST_5 : Operation 34 [1/1] (0.00ns)   --->   "call void (...)* @_ssdm_op_SpecPipeline(i32 1, i32 1, i32 1, i32 0, [1 x i8]* @p_str859) nounwind" [/home/paulrr2/Projects/ece527/babelsoc/fpga-network-stack/hls/toe/port_table/port_table.cpp:101]   --->   Operation 34 'specpipeline' <Predicate = true> <Delay = 0.00>
ST_5 : Operation 35 [1/1] (0.00ns)   --->   "call void (...)* @_ssdm_op_SpecMemCore([32768 x i1]* @freePortTable, [1 x i8]* @p_str859, [13 x i8]* @p_str19860, [1 x i8]* @p_str859, i32 -1, [1 x i8]* @p_str859, [1 x i8]* @p_str859, [1 x i8]* @p_str859, [1 x i8]* @p_str859, [1 x i8]* @p_str859) nounwind" [/home/paulrr2/Projects/ece527/babelsoc/fpga-network-stack/hls/toe/port_table/port_table.cpp:105]   --->   Operation 35 'specmemcore' <Predicate = true> <Delay = 0.00>
ST_5 : Operation 36 [1/1] (0.00ns)   --->   "%tmp_269 = call i1 @_ssdm_op_NbWriteReq.ap_fifo.i16P(i16* @portTable2txApp_port_1, i32 1) nounwind" [/home/paulrr2/Projects/ece527/babelsoc/fpga-network-stack/hls/toe/port_table/port_table.cpp:132]   --->   Operation 36 'nbwritereq' 'tmp_269' <Predicate = (!tmp & !tmp_267 & !freePortTable_load)> <Delay = 0.00> <Core = "FIFO">   --->   Core 32 'FIFO' <Latency = 0> <II = 1> <Delay = 3.54> <Storage> <Opcode : 'read' 'write' 'nbread' 'nbwrite'> <Ports = 0> <Width = 16> <Depth = 8> <FIFO>
ST_5 : Operation 37 [1/1] (0.00ns)   --->   "br i1 %tmp_269, label %6, label %._crit_edge2.i" [/home/paulrr2/Projects/ece527/babelsoc/fpga-network-stack/hls/toe/port_table/port_table.cpp:132]   --->   Operation 37 'br' <Predicate = (!tmp & !tmp_267 & !freePortTable_load)> <Delay = 0.00>
ST_5 : Operation 38 [1/1] (0.00ns)   --->   "%p_Result_s = call i16 @_ssdm_op_BitConcatenate.i16.i1.i15(i1 true, i15 %t_V) nounwind" [/home/paulrr2/Projects/ece527/babelsoc/fpga-network-stack/hls/toe/port_table/port_table.cpp:135]   --->   Operation 38 'bitconcatenate' 'p_Result_s' <Predicate = (!tmp & !tmp_267 & !freePortTable_load & tmp_269)> <Delay = 0.00>
ST_5 : Operation 39 [1/1] (3.25ns)   --->   "store i1 true, i1* %freePortTable_addr_2, align 1" [/home/paulrr2/Projects/ece527/babelsoc/fpga-network-stack/hls/toe/port_table/port_table.cpp:136]   --->   Operation 39 'store' <Predicate = (!tmp & !tmp_267 & !freePortTable_load & tmp_269)> <Delay = 3.25> <Core = "RAM_T2P_BRAM">   --->   Core 38 'RAM_T2P_BRAM' <Latency = 1> <II = 1> <Delay = 3.25> <Storage> <Opcode : 'load' 'store'> <Ports = 2> <Width = 1> <Depth = 32768> <RAM>
ST_5 : Operation 40 [1/1] (2.80ns)   --->   "call void @_ssdm_op_Write.ap_fifo.volatile.i16P(i16* @portTable2txApp_port_1, i16 %p_Result_s) nounwind" [/home/paulrr2/Projects/ece527/babelsoc/fpga-network-stack/hls/toe/port_table/port_table.cpp:137]   --->   Operation 40 'write' <Predicate = (!tmp & !tmp_267 & !freePortTable_load & tmp_269)> <Delay = 2.80> <Core = "FIFO">   --->   Core 32 'FIFO' <Latency = 0> <II = 1> <Delay = 3.54> <Storage> <Opcode : 'read' 'write' 'nbread' 'nbwrite'> <Ports = 0> <Width = 16> <Depth = 8> <FIFO>
ST_5 : Operation 41 [1/1] (0.00ns)   --->   "br label %._crit_edge2.i" [/home/paulrr2/Projects/ece527/babelsoc/fpga-network-stack/hls/toe/port_table/port_table.cpp:138]   --->   Operation 41 'br' <Predicate = (!tmp & !tmp_267 & !freePortTable_load & tmp_269)> <Delay = 0.00>
ST_5 : Operation 42 [1/1] (0.00ns)   --->   "br label %7"   --->   Operation 42 'br' <Predicate = (!tmp & !tmp_267)> <Delay = 0.00>
ST_5 : Operation 43 [1/1] (2.80ns)   --->   "call void @_ssdm_op_Write.ap_fifo.volatile.i1P(i1* @pt_portCheckUsed_rsp_1, i1 %tmp_268) nounwind" [/home/paulrr2/Projects/ece527/babelsoc/fpga-network-stack/hls/toe/port_table/port_table.cpp:128]   --->   Operation 43 'write' <Predicate = (!tmp & tmp_267)> <Delay = 2.80> <Core = "FIFO">   --->   Core 32 'FIFO' <Latency = 0> <II = 1> <Delay = 3.54> <Storage> <Opcode : 'read' 'write' 'nbread' 'nbwrite'> <Ports = 0> <Width = 16> <Depth = 8> <FIFO>
ST_5 : Operation 44 [1/1] (0.00ns)   --->   "br label %7" [/home/paulrr2/Projects/ece527/babelsoc/fpga-network-stack/hls/toe/port_table/port_table.cpp:129]   --->   Operation 44 'br' <Predicate = (!tmp & tmp_267)> <Delay = 0.00>
ST_5 : Operation 45 [1/1] (0.00ns)   --->   "br label %free_port_table.exit"   --->   Operation 45 'br' <Predicate = (!tmp)> <Delay = 0.00>
ST_5 : Operation 46 [1/1] (0.00ns)   --->   "br label %._crit_edge1.i" [/home/paulrr2/Projects/ece527/babelsoc/fpga-network-stack/hls/toe/port_table/port_table.cpp:124]   --->   Operation 46 'br' <Predicate = (tmp & tmp_266)> <Delay = 0.00>
ST_5 : Operation 47 [1/1] (0.00ns)   --->   "br label %free_port_table.exit" [/home/paulrr2/Projects/ece527/babelsoc/fpga-network-stack/hls/toe/port_table/port_table.cpp:125]   --->   Operation 47 'br' <Predicate = (tmp)> <Delay = 0.00>
ST_5 : Operation 48 [1/1] (0.00ns)   --->   "ret void"   --->   Operation 48 'ret' <Predicate = true> <Delay = 0.00>


============================================================
+ Verbose Summary: Binding
============================================================
STG Binding: 
---------------- STG Properties BEGIN ----------------
- Is combinational: 0
- Is one-state seq: 0
- Is datapath-only: 0
- Is pipelined: 1
- Is top level: 0
Port [ Return ] is wired: 1; IO mode=ap_ctrl_hs:ce=0
Port [ sLookup2portTable_re_1]:  wired=1; compound=1; hidden=0; nouse=0; global=1; static=1; extern=0; dir=0; type=3; pingpong=0; private_global=0; linkage=7; visibility=0; IO mode=ap_fifo:ce=0
Port [ pt_cursor_V]:  wired=0; compound=0; hidden=1; nouse=0; global=1; static=1; extern=0; dir=2; type=0; pingpong=0; private_global=1; linkage=7; visibility=0; IO mode=ap_ovld:ce=0
Port [ freePortTable]:  wired=0; compound=1; hidden=1; nouse=0; global=1; static=1; extern=0; dir=2; type=1; pingpong=0; private_global=1; linkage=7; visibility=0; MemPort=[20]; IO mode=ap_memory:ce=0
Port [ pt_portCheckUsed_req_1]:  wired=1; compound=1; hidden=0; nouse=0; global=1; static=1; extern=0; dir=0; type=3; pingpong=0; private_global=0; linkage=7; visibility=0; IO mode=ap_fifo:ce=0
Port [ pt_portCheckUsed_rsp_1]:  wired=1; compound=1; hidden=0; nouse=0; global=1; static=1; extern=0; dir=1; type=3; pingpong=0; private_global=0; linkage=7; visibility=0; IO mode=ap_fifo:ce=0
Port [ portTable2txApp_port_1]:  wired=1; compound=1; hidden=0; nouse=0; global=1; static=1; extern=0; dir=1; type=3; pingpong=0; private_global=0; linkage=7; visibility=0; IO mode=ap_fifo:ce=0
---------------- STG Properties END ------------------

---------------- Datapath Model BEGIN ----------------

<LifeTime>
<method=bitvector/>
tmp                  (nbreadreq     ) [ 011111]
br_ln118             (br            ) [ 000000]
tmp_V_29             (read          ) [ 000000]
tmp_266              (bitselect     ) [ 011111]
br_ln121             (br            ) [ 000000]
trunc_ln681          (trunc         ) [ 011100]
tmp_267              (nbreadreq     ) [ 011111]
br_ln126             (br            ) [ 000000]
tmp_V                (read          ) [ 010100]
t_V                  (load          ) [ 010011]
zext_ln544_21        (zext          ) [ 000000]
freePortTable_addr_2 (getelementptr ) [ 010011]
zext_ln544           (zext          ) [ 000000]
freePortTable_addr_1 (getelementptr ) [ 010010]
zext_ln681           (zext          ) [ 000000]
freePortTable_addr   (getelementptr ) [ 000000]
store_ln123          (store         ) [ 000000]
freePortTable_load   (load          ) [ 010001]
br_ln132             (br            ) [ 000000]
tmp_268              (load          ) [ 010001]
add_ln700            (add           ) [ 000000]
store_ln140          (store         ) [ 000000]
specinterface_ln0    (specinterface ) [ 000000]
specinterface_ln0    (specinterface ) [ 000000]
specinterface_ln0    (specinterface ) [ 000000]
specinterface_ln0    (specinterface ) [ 000000]
specpipeline_ln101   (specpipeline  ) [ 000000]
specmemcore_ln105    (specmemcore   ) [ 000000]
tmp_269              (nbwritereq    ) [ 010001]
br_ln132             (br            ) [ 000000]
p_Result_s           (bitconcatenate) [ 000000]
store_ln136          (store         ) [ 000000]
write_ln137          (write         ) [ 000000]
br_ln138             (br            ) [ 000000]
br_ln0               (br            ) [ 000000]
write_ln128          (write         ) [ 000000]
br_ln129             (br            ) [ 000000]
br_ln0               (br            ) [ 000000]
br_ln124             (br            ) [ 000000]
br_ln125             (br            ) [ 000000]
ret_ln0              (ret           ) [ 000000]
</LifeTime>

<model>

<comp_list>
<comp id="0" class="1000" name="sLookup2portTable_re_1">
<pin_list>
<pin id="1" dir="1" index="0" bw="1" slack="0"/>
</pin_list>
<bind>
<StgValue><ssdm name="sLookup2portTable_re_1"/></StgValue>
</bind>
</comp>

<comp id="2" class="1000" name="pt_cursor_V">
<pin_list>
<pin id="3" dir="1" index="0" bw="1" slack="0"/>
</pin_list>
<bind>
<StgValue><ssdm name="pt_cursor_V"/></StgValue>
</bind>
</comp>

<comp id="4" class="1000" name="freePortTable">
<pin_list>
<pin id="5" dir="1" index="0" bw="1" slack="0"/>
</pin_list>
<bind>
<StgValue><ssdm name="freePortTable"/><MemPortTyVec>2 0 </MemPortTyVec>
</StgValue>
</bind>
</comp>

<comp id="6" class="1000" name="pt_portCheckUsed_req_1">
<pin_list>
<pin id="7" dir="1" index="0" bw="1" slack="0"/>
</pin_list>
<bind>
<StgValue><ssdm name="pt_portCheckUsed_req_1"/></StgValue>
</bind>
</comp>

<comp id="8" class="1000" name="pt_portCheckUsed_rsp_1">
<pin_list>
<pin id="9" dir="1" index="0" bw="1" slack="0"/>
</pin_list>
<bind>
<StgValue><ssdm name="pt_portCheckUsed_rsp_1"/></StgValue>
</bind>
</comp>

<comp id="10" class="1000" name="portTable2txApp_port_1">
<pin_list>
<pin id="11" dir="1" index="0" bw="1" slack="0"/>
</pin_list>
<bind>
<StgValue><ssdm name="portTable2txApp_port_1"/></StgValue>
</bind>
</comp>

<comp id="12" class="1001" name="const_12">
<pin_list>
<pin id="13" dir="1" index="0" bw="1" slack="0"/>
</pin_list>
<bind>
<StgValue><ssdm name="_ssdm_op_NbReadReq.ap_fifo.i16P"/></StgValue>
</bind>
</comp>

<comp id="14" class="1001" name="const_14">
<pin_list>
<pin id="15" dir="1" index="0" bw="1" slack="0"/>
</pin_list>
<bind>
<StgValue><ssdm name=""/></StgValue>
</bind>
</comp>

<comp id="16" class="1001" name="const_16">
<pin_list>
<pin id="17" dir="1" index="0" bw="1" slack="0"/>
</pin_list>
<bind>
<StgValue><ssdm name="_ssdm_op_Read.ap_fifo.volatile.i16P"/></StgValue>
</bind>
</comp>

<comp id="18" class="1001" name="const_18">
<pin_list>
<pin id="19" dir="1" index="0" bw="1" slack="0"/>
</pin_list>
<bind>
<StgValue><ssdm name="_ssdm_op_BitSelect.i1.i16.i32"/></StgValue>
</bind>
</comp>

<comp id="20" class="1001" name="const_20">
<pin_list>
<pin id="21" dir="1" index="0" bw="1" slack="0"/>
</pin_list>
<bind>
<StgValue><ssdm name=""/></StgValue>
</bind>
</comp>

<comp id="22" class="1001" name="const_22">
<pin_list>
<pin id="23" dir="1" index="0" bw="1" slack="0"/>
</pin_list>
<bind>
<StgValue><ssdm name="_ssdm_op_NbReadReq.ap_fifo.i15P"/></StgValue>
</bind>
</comp>

<comp id="24" class="1001" name="const_24">
<pin_list>
<pin id="25" dir="1" index="0" bw="1" slack="0"/>
</pin_list>
<bind>
<StgValue><ssdm name="_ssdm_op_Read.ap_fifo.volatile.i15P"/></StgValue>
</bind>
</comp>

<comp id="26" class="1001" name="const_26">
<pin_list>
<pin id="27" dir="1" index="0" bw="1" slack="0"/>
</pin_list>
<bind>
<StgValue><ssdm name=""/></StgValue>
</bind>
</comp>

<comp id="28" class="1001" name="const_28">
<pin_list>
<pin id="29" dir="1" index="0" bw="1" slack="0"/>
</pin_list>
<bind>
<StgValue><ssdm name=""/></StgValue>
</bind>
</comp>

<comp id="30" class="1001" name="const_30">
<pin_list>
<pin id="31" dir="1" index="0" bw="1" slack="0"/>
</pin_list>
<bind>
<StgValue><ssdm name=""/></StgValue>
</bind>
</comp>

<comp id="32" class="1001" name="const_32">
<pin_list>
<pin id="33" dir="1" index="0" bw="1" slack="2147483647"/>
</pin_list>
<bind>
<StgValue><ssdm name="_ssdm_op_SpecInterface"/></StgValue>
</bind>
</comp>

<comp id="34" class="1001" name="const_34">
<pin_list>
<pin id="35" dir="1" index="0" bw="1" slack="2147483647"/>
</pin_list>
<bind>
<StgValue><ssdm name="ap_fifo_str"/></StgValue>
</bind>
</comp>

<comp id="36" class="1001" name="const_36">
<pin_list>
<pin id="37" dir="1" index="0" bw="1" slack="2147483647"/>
</pin_list>
<bind>
<StgValue><ssdm name=""/></StgValue>
</bind>
</comp>

<comp id="38" class="1001" name="const_38">
<pin_list>
<pin id="39" dir="1" index="0" bw="1" slack="2147483647"/>
</pin_list>
<bind>
<StgValue><ssdm name="p_str"/></StgValue>
</bind>
</comp>

<comp id="40" class="1001" name="const_40">
<pin_list>
<pin id="41" dir="1" index="0" bw="1" slack="2147483647"/>
</pin_list>
<bind>
<StgValue><ssdm name=""/></StgValue>
</bind>
</comp>

<comp id="42" class="1001" name="const_42">
<pin_list>
<pin id="43" dir="1" index="0" bw="1" slack="2147483647"/>
</pin_list>
<bind>
<StgValue><ssdm name=""/></StgValue>
</bind>
</comp>

<comp id="44" class="1001" name="const_44">
<pin_list>
<pin id="45" dir="1" index="0" bw="1" slack="2147483647"/>
</pin_list>
<bind>
<StgValue><ssdm name="_ssdm_op_SpecPipeline"/></StgValue>
</bind>
</comp>

<comp id="46" class="1001" name="const_46">
<pin_list>
<pin id="47" dir="1" index="0" bw="1" slack="2147483647"/>
</pin_list>
<bind>
<StgValue><ssdm name="p_str859"/></StgValue>
</bind>
</comp>

<comp id="48" class="1001" name="const_48">
<pin_list>
<pin id="49" dir="1" index="0" bw="1" slack="2147483647"/>
</pin_list>
<bind>
<StgValue><ssdm name="_ssdm_op_SpecMemCore"/></StgValue>
</bind>
</comp>

<comp id="50" class="1001" name="const_50">
<pin_list>
<pin id="51" dir="1" index="0" bw="1" slack="2147483647"/>
</pin_list>
<bind>
<StgValue><ssdm name="p_str19860"/></StgValue>
</bind>
</comp>

<comp id="52" class="1001" name="const_52">
<pin_list>
<pin id="53" dir="1" index="0" bw="1" slack="2147483647"/>
</pin_list>
<bind>
<StgValue><ssdm name=""/></StgValue>
</bind>
</comp>

<comp id="54" class="1001" name="const_54">
<pin_list>
<pin id="55" dir="1" index="0" bw="1" slack="0"/>
</pin_list>
<bind>
<StgValue><ssdm name="_ssdm_op_NbWriteReq.ap_fifo.i16P"/></StgValue>
</bind>
</comp>

<comp id="56" class="1001" name="const_56">
<pin_list>
<pin id="57" dir="1" index="0" bw="1" slack="0"/>
</pin_list>
<bind>
<StgValue><ssdm name="_ssdm_op_BitConcatenate.i16.i1.i15"/></StgValue>
</bind>
</comp>

<comp id="58" class="1001" name="const_58">
<pin_list>
<pin id="59" dir="1" index="0" bw="1" slack="0"/>
</pin_list>
<bind>
<StgValue><ssdm name=""/></StgValue>
</bind>
</comp>

<comp id="60" class="1001" name="const_60">
<pin_list>
<pin id="61" dir="1" index="0" bw="1" slack="0"/>
</pin_list>
<bind>
<StgValue><ssdm name="_ssdm_op_Write.ap_fifo.volatile.i16P"/></StgValue>
</bind>
</comp>

<comp id="62" class="1001" name="const_62">
<pin_list>
<pin id="63" dir="1" index="0" bw="1" slack="0"/>
</pin_list>
<bind>
<StgValue><ssdm name="_ssdm_op_Write.ap_fifo.volatile.i1P"/></StgValue>
</bind>
</comp>

<comp id="64" class="1004" name="tmp_nbreadreq_fu_64">
<pin_list>
<pin id="65" dir="0" index="0" bw="1" slack="0"/>
<pin id="66" dir="0" index="1" bw="16" slack="0"/>
<pin id="67" dir="0" index="2" bw="1" slack="0"/>
<pin id="68" dir="1" index="3" bw="1" slack="1"/>
</pin_list>
<bind>
<opcode="nbreadreq(1156) " fcode="nbreadreq"/>
<opset="tmp/1 "/>
</bind>
</comp>

<comp id="72" class="1004" name="tmp_V_29_read_fu_72">
<pin_list>
<pin id="73" dir="0" index="0" bw="16" slack="0"/>
<pin id="74" dir="0" index="1" bw="16" slack="0"/>
<pin id="75" dir="1" index="2" bw="16" slack="0"/>
</pin_list>
<bind>
<opcode="read(1150) " fcode="read"/>
<opset="tmp_V_29/1 "/>
</bind>
</comp>

<comp id="78" class="1004" name="tmp_267_nbreadreq_fu_78">
<pin_list>
<pin id="79" dir="0" index="0" bw="1" slack="0"/>
<pin id="80" dir="0" index="1" bw="15" slack="0"/>
<pin id="81" dir="0" index="2" bw="1" slack="0"/>
<pin id="82" dir="1" index="3" bw="1" slack="1"/>
</pin_list>
<bind>
<opcode="nbreadreq(1156) " fcode="nbreadreq"/>
<opset="tmp_267/2 "/>
</bind>
</comp>

<comp id="86" class="1004" name="tmp_V_read_fu_86">
<pin_list>
<pin id="87" dir="0" index="0" bw="15" slack="0"/>
<pin id="88" dir="0" index="1" bw="15" slack="0"/>
<pin id="89" dir="1" index="2" bw="15" slack="1"/>
</pin_list>
<bind>
<opcode="read(1150) " fcode="read"/>
<opset="tmp_V/2 "/>
</bind>
</comp>

<comp id="92" class="1004" name="tmp_269_nbwritereq_fu_92">
<pin_list>
<pin id="93" dir="0" index="0" bw="1" slack="0"/>
<pin id="94" dir="0" index="1" bw="16" slack="0"/>
<pin id="95" dir="0" index="2" bw="1" slack="0"/>
<pin id="96" dir="1" index="3" bw="1" slack="2147483647"/>
</pin_list>
<bind>
<opcode="nbwritereq(1157) " fcode="nbwritereq"/>
<opset="tmp_269/5 "/>
</bind>
</comp>

<comp id="100" class="1004" name="write_ln137_write_fu_100">
<pin_list>
<pin id="101" dir="0" index="0" bw="0" slack="0"/>
<pin id="102" dir="0" index="1" bw="16" slack="0"/>
<pin id="103" dir="0" index="2" bw="16" slack="0"/>
<pin id="104" dir="1" index="3" bw="0" slack="2147483647"/>
</pin_list>
<bind>
<opcode="write(1151) " fcode="write"/>
<opset="write_ln137/5 "/>
</bind>
</comp>

<comp id="107" class="1004" name="write_ln128_write_fu_107">
<pin_list>
<pin id="108" dir="0" index="0" bw="0" slack="0"/>
<pin id="109" dir="0" index="1" bw="1" slack="0"/>
<pin id="110" dir="0" index="2" bw="1" slack="1"/>
<pin id="111" dir="1" index="3" bw="0" slack="2147483647"/>
</pin_list>
<bind>
<opcode="write(1151) " fcode="write"/>
<opset="write_ln128/5 "/>
</bind>
</comp>

<comp id="114" class="1004" name="freePortTable_addr_2_gep_fu_114">
<pin_list>
<pin id="115" dir="0" index="0" bw="1" slack="0"/>
<pin id="116" dir="0" index="1" bw="1" slack="0"/>
<pin id="117" dir="0" index="2" bw="15" slack="0"/>
<pin id="118" dir="1" index="3" bw="15" slack="0"/>
</pin_list>
<bind>
<opcode="getelementptr(29) " fcode="getelementptr"/>
<opset="freePortTable_addr_2/3 "/>
</bind>
</comp>

<comp id="121" class="1004" name="grp_access_fu_121">
<pin_list>
<pin id="122" dir="0" index="0" bw="15" slack="0"/>
<pin id="123" dir="0" index="1" bw="1" slack="0"/>
<pin id="124" dir="0" index="2" bw="0" slack="2"/>
<pin id="144" dir="0" index="4" bw="15" slack="0"/>
<pin id="145" dir="0" index="5" bw="1" slack="2147483647"/>
<pin id="146" dir="0" index="6" bw="0" slack="2147483647"/>
<pin id="125" dir="1" index="3" bw="1" slack="1"/>
<pin id="147" dir="1" index="7" bw="1" slack="2147483647"/>
</pin_list>
<bind>
<opcode="load(27) store(28) " fcode="store"/>
<opset="freePortTable_load/3 tmp_268/3 store_ln123/3 store_ln136/5 "/>
</bind>
</comp>

<comp id="127" class="1004" name="freePortTable_addr_1_gep_fu_127">
<pin_list>
<pin id="128" dir="0" index="0" bw="1" slack="0"/>
<pin id="129" dir="0" index="1" bw="1" slack="0"/>
<pin id="130" dir="0" index="2" bw="15" slack="0"/>
<pin id="131" dir="1" index="3" bw="15" slack="0"/>
</pin_list>
<bind>
<opcode="getelementptr(29) " fcode="getelementptr"/>
<opset="freePortTable_addr_1/3 "/>
</bind>
</comp>

<comp id="135" class="1004" name="freePortTable_addr_gep_fu_135">
<pin_list>
<pin id="136" dir="0" index="0" bw="1" slack="0"/>
<pin id="137" dir="0" index="1" bw="1" slack="0"/>
<pin id="138" dir="0" index="2" bw="15" slack="0"/>
<pin id="139" dir="1" index="3" bw="15" slack="0"/>
</pin_list>
<bind>
<opcode="getelementptr(29) " fcode="getelementptr"/>
<opset="freePortTable_addr/3 "/>
</bind>
</comp>

<comp id="149" class="1004" name="tmp_266_fu_149">
<pin_list>
<pin id="150" dir="0" index="0" bw="1" slack="0"/>
<pin id="151" dir="0" index="1" bw="16" slack="0"/>
<pin id="152" dir="0" index="2" bw="5" slack="0"/>
<pin id="153" dir="1" index="3" bw="1" slack="2"/>
</pin_list>
<bind>
<opcode="bitselect(1000) " fcode="bitselect"/>
<opset="tmp_266/1 "/>
</bind>
</comp>

<comp id="157" class="1004" name="trunc_ln681_fu_157">
<pin_list>
<pin id="158" dir="0" index="0" bw="16" slack="0"/>
<pin id="159" dir="1" index="1" bw="15" slack="2"/>
</pin_list>
<bind>
<opcode="trunc(33) " fcode="trunc"/>
<opset="trunc_ln681/1 "/>
</bind>
</comp>

<comp id="161" class="1004" name="t_V_load_fu_161">
<pin_list>
<pin id="162" dir="0" index="0" bw="15" slack="0"/>
<pin id="163" dir="1" index="1" bw="15" slack="0"/>
</pin_list>
<bind>
<opcode="load(27) " fcode="load"/>
<opset="t_V/3 "/>
</bind>
</comp>

<comp id="165" class="1004" name="zext_ln544_21_fu_165">
<pin_list>
<pin id="166" dir="0" index="0" bw="15" slack="0"/>
<pin id="167" dir="1" index="1" bw="64" slack="0"/>
</pin_list>
<bind>
<opcode="zext(34) " fcode="zext"/>
<opset="zext_ln544_21/3 "/>
</bind>
</comp>

<comp id="170" class="1004" name="zext_ln544_fu_170">
<pin_list>
<pin id="171" dir="0" index="0" bw="15" slack="1"/>
<pin id="172" dir="1" index="1" bw="64" slack="0"/>
</pin_list>
<bind>
<opcode="zext(34) " fcode="zext"/>
<opset="zext_ln544/3 "/>
</bind>
</comp>

<comp id="174" class="1004" name="zext_ln681_fu_174">
<pin_list>
<pin id="175" dir="0" index="0" bw="15" slack="2"/>
<pin id="176" dir="1" index="1" bw="64" slack="0"/>
</pin_list>
<bind>
<opcode="zext(34) " fcode="zext"/>
<opset="zext_ln681/3 "/>
</bind>
</comp>

<comp id="178" class="1004" name="add_ln700_fu_178">
<pin_list>
<pin id="179" dir="0" index="0" bw="15" slack="1"/>
<pin id="180" dir="0" index="1" bw="1" slack="0"/>
<pin id="181" dir="1" index="2" bw="15" slack="0"/>
</pin_list>
<bind>
<opcode="add(8) " fcode="add"/>
<opset="add_ln700/4 "/>
</bind>
</comp>

<comp id="183" class="1004" name="store_ln140_store_fu_183">
<pin_list>
<pin id="184" dir="0" index="0" bw="15" slack="0"/>
<pin id="185" dir="0" index="1" bw="15" slack="0"/>
<pin id="186" dir="1" index="2" bw="0" slack="2147483647"/>
</pin_list>
<bind>
<opcode="store(28) " fcode="store"/>
<opset="store_ln140/4 "/>
</bind>
</comp>

<comp id="189" class="1004" name="p_Result_s_fu_189">
<pin_list>
<pin id="190" dir="0" index="0" bw="16" slack="0"/>
<pin id="191" dir="0" index="1" bw="1" slack="0"/>
<pin id="192" dir="0" index="2" bw="15" slack="2"/>
<pin id="193" dir="1" index="3" bw="16" slack="0"/>
</pin_list>
<bind>
<opcode="bitconcatenate(1004) " fcode="bitconcatenate"/>
<opset="p_Result_s/5 "/>
</bind>
</comp>

<comp id="197" class="1005" name="tmp_reg_197">
<pin_list>
<pin id="198" dir="0" index="0" bw="1" slack="1"/>
<pin id="199" dir="1" index="1" bw="1" slack="2147483647"/>
</pin_list>
<bind>
<opset="tmp "/>
</bind>
</comp>

<comp id="201" class="1005" name="tmp_266_reg_201">
<pin_list>
<pin id="202" dir="0" index="0" bw="1" slack="2"/>
<pin id="203" dir="1" index="1" bw="1" slack="2147483647"/>
</pin_list>
<bind>
<opset="tmp_266 "/>
</bind>
</comp>

<comp id="205" class="1005" name="trunc_ln681_reg_205">
<pin_list>
<pin id="206" dir="0" index="0" bw="15" slack="2"/>
<pin id="207" dir="1" index="1" bw="15" slack="2"/>
</pin_list>
<bind>
<opset="trunc_ln681 "/>
</bind>
</comp>

<comp id="210" class="1005" name="tmp_267_reg_210">
<pin_list>
<pin id="211" dir="0" index="0" bw="1" slack="1"/>
<pin id="212" dir="1" index="1" bw="1" slack="2147483647"/>
</pin_list>
<bind>
<opset="tmp_267 "/>
</bind>
</comp>

<comp id="214" class="1005" name="tmp_V_reg_214">
<pin_list>
<pin id="215" dir="0" index="0" bw="15" slack="1"/>
<pin id="216" dir="1" index="1" bw="15" slack="1"/>
</pin_list>
<bind>
<opset="tmp_V "/>
</bind>
</comp>

<comp id="219" class="1005" name="t_V_reg_219">
<pin_list>
<pin id="220" dir="0" index="0" bw="15" slack="1"/>
<pin id="221" dir="1" index="1" bw="15" slack="1"/>
</pin_list>
<bind>
<opset="t_V "/>
</bind>
</comp>

<comp id="225" class="1005" name="freePortTable_addr_2_reg_225">
<pin_list>
<pin id="226" dir="0" index="0" bw="15" slack="1"/>
<pin id="227" dir="1" index="1" bw="15" slack="1"/>
</pin_list>
<bind>
<opset="freePortTable_addr_2 "/>
</bind>
</comp>

<comp id="231" class="1005" name="freePortTable_addr_1_reg_231">
<pin_list>
<pin id="232" dir="0" index="0" bw="15" slack="1"/>
<pin id="233" dir="1" index="1" bw="15" slack="1"/>
</pin_list>
<bind>
<opset="freePortTable_addr_1 "/>
</bind>
</comp>

<comp id="236" class="1005" name="freePortTable_load_reg_236">
<pin_list>
<pin id="237" dir="0" index="0" bw="1" slack="1"/>
<pin id="238" dir="1" index="1" bw="1" slack="2147483647"/>
</pin_list>
<bind>
<opset="freePortTable_load "/>
</bind>
</comp>

<comp id="240" class="1005" name="tmp_268_reg_240">
<pin_list>
<pin id="241" dir="0" index="0" bw="1" slack="1"/>
<pin id="242" dir="1" index="1" bw="1" slack="1"/>
</pin_list>
<bind>
<opset="tmp_268 "/>
</bind>
</comp>

</comp_list>

<net_list>
<net id="69"><net_src comp="12" pin="0"/><net_sink comp="64" pin=0"/></net>

<net id="70"><net_src comp="0" pin="0"/><net_sink comp="64" pin=1"/></net>

<net id="71"><net_src comp="14" pin="0"/><net_sink comp="64" pin=2"/></net>

<net id="76"><net_src comp="16" pin="0"/><net_sink comp="72" pin=0"/></net>

<net id="77"><net_src comp="0" pin="0"/><net_sink comp="72" pin=1"/></net>

<net id="83"><net_src comp="22" pin="0"/><net_sink comp="78" pin=0"/></net>

<net id="84"><net_src comp="6" pin="0"/><net_sink comp="78" pin=1"/></net>

<net id="85"><net_src comp="14" pin="0"/><net_sink comp="78" pin=2"/></net>

<net id="90"><net_src comp="24" pin="0"/><net_sink comp="86" pin=0"/></net>

<net id="91"><net_src comp="6" pin="0"/><net_sink comp="86" pin=1"/></net>

<net id="97"><net_src comp="54" pin="0"/><net_sink comp="92" pin=0"/></net>

<net id="98"><net_src comp="10" pin="0"/><net_sink comp="92" pin=1"/></net>

<net id="99"><net_src comp="14" pin="0"/><net_sink comp="92" pin=2"/></net>

<net id="105"><net_src comp="60" pin="0"/><net_sink comp="100" pin=0"/></net>

<net id="106"><net_src comp="10" pin="0"/><net_sink comp="100" pin=1"/></net>

<net id="112"><net_src comp="62" pin="0"/><net_sink comp="107" pin=0"/></net>

<net id="113"><net_src comp="8" pin="0"/><net_sink comp="107" pin=1"/></net>

<net id="119"><net_src comp="4" pin="0"/><net_sink comp="114" pin=0"/></net>

<net id="120"><net_src comp="26" pin="0"/><net_sink comp="114" pin=1"/></net>

<net id="126"><net_src comp="114" pin="3"/><net_sink comp="121" pin=0"/></net>

<net id="132"><net_src comp="4" pin="0"/><net_sink comp="127" pin=0"/></net>

<net id="133"><net_src comp="26" pin="0"/><net_sink comp="127" pin=1"/></net>

<net id="134"><net_src comp="127" pin="3"/><net_sink comp="121" pin=0"/></net>

<net id="140"><net_src comp="4" pin="0"/><net_sink comp="135" pin=0"/></net>

<net id="141"><net_src comp="26" pin="0"/><net_sink comp="135" pin=1"/></net>

<net id="142"><net_src comp="28" pin="0"/><net_sink comp="121" pin=1"/></net>

<net id="143"><net_src comp="135" pin="3"/><net_sink comp="121" pin=0"/></net>

<net id="148"><net_src comp="58" pin="0"/><net_sink comp="121" pin=4"/></net>

<net id="154"><net_src comp="18" pin="0"/><net_sink comp="149" pin=0"/></net>

<net id="155"><net_src comp="72" pin="2"/><net_sink comp="149" pin=1"/></net>

<net id="156"><net_src comp="20" pin="0"/><net_sink comp="149" pin=2"/></net>

<net id="160"><net_src comp="72" pin="2"/><net_sink comp="157" pin=0"/></net>

<net id="164"><net_src comp="2" pin="0"/><net_sink comp="161" pin=0"/></net>

<net id="168"><net_src comp="161" pin="1"/><net_sink comp="165" pin=0"/></net>

<net id="169"><net_src comp="165" pin="1"/><net_sink comp="114" pin=2"/></net>

<net id="173"><net_src comp="170" pin="1"/><net_sink comp="127" pin=2"/></net>

<net id="177"><net_src comp="174" pin="1"/><net_sink comp="135" pin=2"/></net>

<net id="182"><net_src comp="30" pin="0"/><net_sink comp="178" pin=1"/></net>

<net id="187"><net_src comp="178" pin="2"/><net_sink comp="183" pin=0"/></net>

<net id="188"><net_src comp="2" pin="0"/><net_sink comp="183" pin=1"/></net>

<net id="194"><net_src comp="56" pin="0"/><net_sink comp="189" pin=0"/></net>

<net id="195"><net_src comp="58" pin="0"/><net_sink comp="189" pin=1"/></net>

<net id="196"><net_src comp="189" pin="3"/><net_sink comp="100" pin=2"/></net>

<net id="200"><net_src comp="64" pin="3"/><net_sink comp="197" pin=0"/></net>

<net id="204"><net_src comp="149" pin="3"/><net_sink comp="201" pin=0"/></net>

<net id="208"><net_src comp="157" pin="1"/><net_sink comp="205" pin=0"/></net>

<net id="209"><net_src comp="205" pin="1"/><net_sink comp="174" pin=0"/></net>

<net id="213"><net_src comp="78" pin="3"/><net_sink comp="210" pin=0"/></net>

<net id="217"><net_src comp="86" pin="2"/><net_sink comp="214" pin=0"/></net>

<net id="218"><net_src comp="214" pin="1"/><net_sink comp="170" pin=0"/></net>

<net id="222"><net_src comp="161" pin="1"/><net_sink comp="219" pin=0"/></net>

<net id="223"><net_src comp="219" pin="1"/><net_sink comp="178" pin=0"/></net>

<net id="224"><net_src comp="219" pin="1"/><net_sink comp="189" pin=2"/></net>

<net id="228"><net_src comp="114" pin="3"/><net_sink comp="225" pin=0"/></net>

<net id="229"><net_src comp="225" pin="1"/><net_sink comp="121" pin=0"/></net>

<net id="230"><net_src comp="225" pin="1"/><net_sink comp="121" pin=2"/></net>

<net id="234"><net_src comp="127" pin="3"/><net_sink comp="231" pin=0"/></net>

<net id="235"><net_src comp="231" pin="1"/><net_sink comp="121" pin=0"/></net>

<net id="239"><net_src comp="121" pin="3"/><net_sink comp="236" pin=0"/></net>

<net id="243"><net_src comp="121" pin="3"/><net_sink comp="240" pin=0"/></net>

<net id="244"><net_src comp="240" pin="1"/><net_sink comp="107" pin=2"/></net>

</net_list>

</model> 
---------------- Datapath Model END ------------------

* FSMD analyzer results:
  - Output states:
	Port: sLookup2portTable_re_1 | {}
	Port: pt_cursor_V | {4 }
	Port: freePortTable | {3 5 }
	Port: pt_portCheckUsed_req_1 | {}
	Port: pt_portCheckUsed_rsp_1 | {5 }
	Port: portTable2txApp_port_1 | {5 }
 - Input state : 
	Port: free_port_table : sLookup2portTable_re_1 | {1 }
	Port: free_port_table : pt_cursor_V | {3 }
	Port: free_port_table : freePortTable | {3 4 }
	Port: free_port_table : pt_portCheckUsed_req_1 | {2 }
	Port: free_port_table : pt_portCheckUsed_rsp_1 | {}
	Port: free_port_table : portTable2txApp_port_1 | {}
  - Chain level:
	State 1
		br_ln121 : 1
	State 2
	State 3
		zext_ln544_21 : 1
		freePortTable_addr_2 : 2
		freePortTable_load : 3
		freePortTable_addr_1 : 1
		tmp_268 : 2
		freePortTable_addr : 1
		store_ln123 : 2
	State 4
		br_ln132 : 1
		store_ln140 : 1
	State 5
		write_ln137 : 1


============================================================
+ Verbose Summary: Datapath Resource usage 
============================================================

* Functional unit list:
|----------|--------------------------|---------|---------|
| Operation|      Functional Unit     |    FF   |   LUT   |
|----------|--------------------------|---------|---------|
|    add   |     add_ln700_fu_178     |    0    |    21   |
|----------|--------------------------|---------|---------|
| nbreadreq|    tmp_nbreadreq_fu_64   |    0    |    0    |
|          |  tmp_267_nbreadreq_fu_78 |    0    |    0    |
|----------|--------------------------|---------|---------|
|   read   |    tmp_V_29_read_fu_72   |    0    |    0    |
|          |     tmp_V_read_fu_86     |    0    |    0    |
|----------|--------------------------|---------|---------|
|nbwritereq| tmp_269_nbwritereq_fu_92 |    0    |    0    |
|----------|--------------------------|---------|---------|
|   write  | write_ln137_write_fu_100 |    0    |    0    |
|          | write_ln128_write_fu_107 |    0    |    0    |
|----------|--------------------------|---------|---------|
| bitselect|      tmp_266_fu_149      |    0    |    0    |
|----------|--------------------------|---------|---------|
|   trunc  |    trunc_ln681_fu_157    |    0    |    0    |
|----------|--------------------------|---------|---------|
|          |   zext_ln544_21_fu_165   |    0    |    0    |
|   zext   |     zext_ln544_fu_170    |    0    |    0    |
|          |     zext_ln681_fu_174    |    0    |    0    |
|----------|--------------------------|---------|---------|
|bitconcatenate|     p_Result_s_fu_189    |    0    |    0    |
|----------|--------------------------|---------|---------|
|   Total  |                          |    0    |    21   |
|----------|--------------------------|---------|---------|

Memories:
N/A

* Register list:
+----------------------------+--------+
|                            |   FF   |
+----------------------------+--------+
|freePortTable_addr_1_reg_231|   15   |
|freePortTable_addr_2_reg_225|   15   |
| freePortTable_load_reg_236 |    1   |
|         t_V_reg_219        |   15   |
|       tmp_266_reg_201      |    1   |
|       tmp_267_reg_210      |    1   |
|       tmp_268_reg_240      |    1   |
|        tmp_V_reg_214       |   15   |
|         tmp_reg_197        |    1   |
|     trunc_ln681_reg_205    |   15   |
+----------------------------+--------+
|            Total           |   80   |
+----------------------------+--------+

* Multiplexer (MUX) list: 
|-------------------|------|------|------|--------||---------||---------|
|        Comp       |  Pin | Size |  BW  | S x BW ||  Delay  ||   LUT   |
|-------------------|------|------|------|--------||---------||---------|
| grp_access_fu_121 |  p0  |   5  |  15  |   75   ||    27   |
|-------------------|------|------|------|--------||---------||---------|
|       Total       |      |      |      |   75   || 1.90625 ||    27   |
|-------------------|------|------|------|--------||---------||---------|



* Summary:
+-----------+--------+--------+--------+
|           |  Delay |   FF   |   LUT  |
+-----------+--------+--------+--------+
|  Function |    -   |    0   |   21   |
|   Memory  |    -   |    -   |    -   |
|Multiplexer|    1   |    -   |   27   |
|  Register |    -   |   80   |    -   |
+-----------+--------+--------+--------+
|   Total   |    1   |   80   |   48   |
+-----------+--------+--------+--------+
