

================================================================
== Vivado HLS Report for 'insert_checksum_64_s'
================================================================
* Date:           Sat Dec 12 19:34:34 2020

* Version:        2019.2.1 (Build 2724168 on Thu Dec 05 05:19:09 MST 2019)
* Project:        toe_prj
* Solution:       solution1
* Product family: zynq
* Target device:  xc7z020-clg400-1


================================================================
== Performance Estimates
================================================================
+ Timing: 
    * Summary: 
    +--------+---------+----------+------------+
    |  Clock |  Target | Estimated| Uncertainty|
    +--------+---------+----------+------------+
    |ap_clk  | 6.40 ns | 5.600 ns |   0.80 ns  |
    +--------+---------+----------+------------+

+ Latency: 
    * Summary: 
    +---------+---------+----------+----------+-----+-----+---------+
    |  Latency (cycles) |  Latency (absolute) |  Interval | Pipeline|
    |   min   |   max   |    min   |    max   | min | max |   Type  |
    +---------+---------+----------+----------+-----+-----+---------+
    |        1|        1| 6.400 ns | 6.400 ns |    1|    1|   none  |
    +---------+---------+----------+----------+-----+-----+---------+

    + Detail: 
        * Instance: 
        N/A

        * Loop: 
        N/A

============================================================
+ Verbose Summary: Synthesis Manager
============================================================
InlineROM: 1
ExposeGlobal: 0
============================================================
+ Verbose Summary: CDFG Model
============================================================
IsTopModel: 0
ResetActiveHigh: 1
IsCombinational: 2
IsDatapathOnly: 0
HasWiredReturn: 1
HasMFsm: 0
HasVarLatency: 1
IsPipeline: 0
IsRtlPipelined: 0
IsInstanceOverlapped: 0
IsDontTouch: 0
HasImplIP: 0
IsGatedGlobalClock: 0


============================================================
+ Verbose Summary: Schedule
============================================================
* Number of FSM states : 2
* Pipeline : 0
* Dataflow Pipeline: 0

* FSM state transitions: 
1 --> 2 
2 --> 

* FSM state operations: 

State 1 <SV = 0> <Delay = 5.60>
ST_1 : Operation 3 [1/1] (0.00ns)   --->   "call void (...)* @_ssdm_op_SpecInterface(i16* @txEng_tcpChecksumFif_1, [8 x i8]* @ap_fifo_str, i32 0, i32 0, [1 x i8]* @p_str, i32 0, i32 0, [1 x i8]* @p_str, [1 x i8]* @p_str, [1 x i8]* @p_str, i32 2, i32 2, i32 16, i32 16, [1 x i8]* @p_str, [1 x i8]* @p_str)"   --->   Operation 3 'specinterface' <Predicate = true> <Delay = 0.00>
ST_1 : Operation 4 [1/1] (0.00ns)   --->   "call void (...)* @_ssdm_op_SpecInterface(i73* @txEng_tcpPkgBuffer4_s_5, [8 x i8]* @ap_fifo_str, i32 0, i32 0, [1 x i8]* @p_str, i32 0, i32 0, [1 x i8]* @p_str, [1 x i8]* @p_str, [1 x i8]* @p_str, i32 2, i32 2, i32 16, i32 16, [1 x i8]* @p_str, [1 x i8]* @p_str)"   --->   Operation 4 'specinterface' <Predicate = true> <Delay = 0.00>
ST_1 : Operation 5 [1/1] (0.00ns)   --->   "call void (...)* @_ssdm_op_SpecInterface(i73* @txEng_tcpPkgBuffer5_s_4, [8 x i8]* @ap_fifo_str, i32 0, i32 0, [1 x i8]* @p_str, i32 0, i32 0, [1 x i8]* @p_str, [1 x i8]* @p_str, [1 x i8]* @p_str, i32 2, i32 2, i32 16, i32 16, [1 x i8]* @p_str, [1 x i8]* @p_str)"   --->   Operation 5 'specinterface' <Predicate = true> <Delay = 0.00>
ST_1 : Operation 6 [1/1] (0.00ns)   --->   "%state_V_2_load = load i2* @state_V_2, align 1" [/home/paulrr2/Projects/ece527/babelsoc/fpga-network-stack/hls/toe/tx_engine/tx_engine.cpp:1532]   --->   Operation 6 'load' 'state_V_2_load' <Predicate = true> <Delay = 0.00>
ST_1 : Operation 7 [1/1] (1.30ns)   --->   "switch i2 %state_V_2_load, label %"insert_checksum<64>.exit" [
    i2 0, label %0
    i2 1, label %3
    i2 -2, label %5
  ]" [/home/paulrr2/Projects/ece527/babelsoc/fpga-network-stack/hls/toe/tx_engine/tx_engine.cpp:1532]   --->   Operation 7 'switch' <Predicate = true> <Delay = 1.30>
ST_1 : Operation 8 [1/1] (0.00ns)   --->   "%tmp_246 = call i1 @_ssdm_op_NbReadReq.ap_fifo.i73P(i73* @txEng_tcpPkgBuffer4_s_5, i32 1) nounwind" [/home/paulrr2/Projects/ece527/babelsoc/fpga-network-stack/hls/toe/tx_engine/tx_engine.cpp:1577]   --->   Operation 8 'nbreadreq' 'tmp_246' <Predicate = (state_V_2_load == 2)> <Delay = 0.00> <Core = "FIFO">   --->   Core 32 'FIFO' <Latency = 0> <II = 1> <Delay = 3.63> <Storage> <Opcode : 'read' 'write' 'nbread' 'nbwrite'> <Ports = 0> <Width = 73> <Depth = 2> <FIFO>
ST_1 : Operation 9 [1/1] (0.00ns)   --->   "br i1 %tmp_246, label %6, label %._crit_edge8.i" [/home/paulrr2/Projects/ece527/babelsoc/fpga-network-stack/hls/toe/tx_engine/tx_engine.cpp:1577]   --->   Operation 9 'br' <Predicate = (state_V_2_load == 2)> <Delay = 0.00>
ST_1 : Operation 10 [1/1] (2.80ns)   --->   "%tmp_4 = call i73 @_ssdm_op_Read.ap_fifo.volatile.i73P(i73* @txEng_tcpPkgBuffer4_s_5) nounwind" [/home/paulrr2/Projects/ece527/babelsoc/fpga-network-stack/hls/toe/tx_engine/tx_engine.cpp:1579]   --->   Operation 10 'read' 'tmp_4' <Predicate = (state_V_2_load == 2 & tmp_246)> <Delay = 2.80> <Core = "FIFO">   --->   Core 32 'FIFO' <Latency = 0> <II = 1> <Delay = 3.63> <Storage> <Opcode : 'read' 'write' 'nbread' 'nbwrite'> <Ports = 0> <Width = 73> <Depth = 2> <FIFO>
ST_1 : Operation 11 [1/1] (0.00ns)   --->   "%tmp_last_V = call i1 @_ssdm_op_BitSelect.i1.i73.i32(i73 %tmp_4, i32 72)" [/home/paulrr2/Projects/ece527/babelsoc/fpga-network-stack/hls/toe/tx_engine/tx_engine.cpp:1580]   --->   Operation 11 'bitselect' 'tmp_last_V' <Predicate = (state_V_2_load == 2 & tmp_246)> <Delay = 0.00>
ST_1 : Operation 12 [1/1] (2.80ns)   --->   "call void @_ssdm_op_Write.ap_fifo.volatile.i73P(i73* @txEng_tcpPkgBuffer5_s_4, i73 %tmp_4) nounwind" [/home/paulrr2/Projects/ece527/babelsoc/fpga-network-stack/hls/toe/tx_engine/tx_engine.cpp:1580]   --->   Operation 12 'write' <Predicate = (state_V_2_load == 2 & tmp_246)> <Delay = 2.80> <Core = "FIFO">   --->   Core 32 'FIFO' <Latency = 0> <II = 1> <Delay = 3.63> <Storage> <Opcode : 'read' 'write' 'nbread' 'nbwrite'> <Ports = 0> <Width = 73> <Depth = 2> <FIFO>
ST_1 : Operation 13 [1/1] (0.00ns)   --->   "br i1 %tmp_last_V, label %7, label %._crit_edge9.i" [/home/paulrr2/Projects/ece527/babelsoc/fpga-network-stack/hls/toe/tx_engine/tx_engine.cpp:1581]   --->   Operation 13 'br' <Predicate = (state_V_2_load == 2 & tmp_246)> <Delay = 0.00>
ST_1 : Operation 14 [1/1] (1.81ns)   --->   "store i2 0, i2* @state_V_2, align 1" [/home/paulrr2/Projects/ece527/babelsoc/fpga-network-stack/hls/toe/tx_engine/tx_engine.cpp:1583]   --->   Operation 14 'store' <Predicate = (state_V_2_load == 2 & tmp_246 & tmp_last_V)> <Delay = 1.81>
ST_1 : Operation 15 [1/1] (0.00ns)   --->   "br label %._crit_edge9.i" [/home/paulrr2/Projects/ece527/babelsoc/fpga-network-stack/hls/toe/tx_engine/tx_engine.cpp:1584]   --->   Operation 15 'br' <Predicate = (state_V_2_load == 2 & tmp_246 & tmp_last_V)> <Delay = 0.00>
ST_1 : Operation 16 [1/1] (0.00ns)   --->   "br label %._crit_edge8.i" [/home/paulrr2/Projects/ece527/babelsoc/fpga-network-stack/hls/toe/tx_engine/tx_engine.cpp:1585]   --->   Operation 16 'br' <Predicate = (state_V_2_load == 2 & tmp_246)> <Delay = 0.00>
ST_1 : Operation 17 [1/1] (0.00ns)   --->   "br label %"insert_checksum<64>.exit"" [/home/paulrr2/Projects/ece527/babelsoc/fpga-network-stack/hls/toe/tx_engine/tx_engine.cpp:1586]   --->   Operation 17 'br' <Predicate = (state_V_2_load == 2)> <Delay = 0.00>
ST_1 : Operation 18 [1/1] (0.00ns)   --->   "%tmp_245 = call i1 @_ssdm_op_NbReadReq.ap_fifo.i16P(i16* @txEng_tcpChecksumFif_1, i32 1) nounwind" [/home/paulrr2/Projects/ece527/babelsoc/fpga-network-stack/hls/toe/tx_engine/tx_engine.cpp:1549]   --->   Operation 18 'nbreadreq' 'tmp_245' <Predicate = (state_V_2_load == 1)> <Delay = 0.00> <Core = "FIFO">   --->   Core 32 'FIFO' <Latency = 0> <II = 1> <Delay = 3.63> <Storage> <Opcode : 'read' 'write' 'nbread' 'nbwrite'> <Ports = 0> <Width = 73> <Depth = 2> <FIFO>
ST_1 : Operation 19 [1/1] (0.00ns)   --->   "br i1 %tmp_245, label %4, label %._crit_edge5.i" [/home/paulrr2/Projects/ece527/babelsoc/fpga-network-stack/hls/toe/tx_engine/tx_engine.cpp:1549]   --->   Operation 19 'br' <Predicate = (state_V_2_load == 1)> <Delay = 0.00>
ST_1 : Operation 20 [1/1] (0.00ns)   --->   "%tmp_247 = call i1 @_ssdm_op_NbReadReq.ap_fifo.i73P(i73* @txEng_tcpPkgBuffer4_s_5, i32 1) nounwind" [/home/paulrr2/Projects/ece527/babelsoc/fpga-network-stack/hls/toe/tx_engine/tx_engine.cpp:1549]   --->   Operation 20 'nbreadreq' 'tmp_247' <Predicate = (state_V_2_load == 1 & tmp_245)> <Delay = 0.00> <Core = "FIFO">   --->   Core 32 'FIFO' <Latency = 0> <II = 1> <Delay = 3.63> <Storage> <Opcode : 'read' 'write' 'nbread' 'nbwrite'> <Ports = 0> <Width = 73> <Depth = 2> <FIFO>
ST_1 : Operation 21 [1/1] (0.00ns)   --->   "br i1 %tmp_247, label %._crit_edge7.i, label %._crit_edge5.i" [/home/paulrr2/Projects/ece527/babelsoc/fpga-network-stack/hls/toe/tx_engine/tx_engine.cpp:1549]   --->   Operation 21 'br' <Predicate = (state_V_2_load == 1 & tmp_245)> <Delay = 0.00>
ST_1 : Operation 22 [1/1] (2.80ns)   --->   "%tmp_V = call i16 @_ssdm_op_Read.ap_fifo.volatile.i16P(i16* @txEng_tcpChecksumFif_1) nounwind" [/home/paulrr2/Projects/ece527/babelsoc/fpga-network-stack/hls/toe/tx_engine/tx_engine.cpp:1551]   --->   Operation 22 'read' 'tmp_V' <Predicate = (state_V_2_load == 1 & tmp_245 & tmp_247)> <Delay = 2.80> <Core = "FIFO">   --->   Core 32 'FIFO' <Latency = 0> <II = 1> <Delay = 3.63> <Storage> <Opcode : 'read' 'write' 'nbread' 'nbwrite'> <Ports = 0> <Width = 73> <Depth = 2> <FIFO>
ST_1 : Operation 23 [1/1] (2.80ns)   --->   "%tmp_2 = call i73 @_ssdm_op_Read.ap_fifo.volatile.i73P(i73* @txEng_tcpPkgBuffer4_s_5) nounwind" [/home/paulrr2/Projects/ece527/babelsoc/fpga-network-stack/hls/toe/tx_engine/tx_engine.cpp:1553]   --->   Operation 23 'read' 'tmp_2' <Predicate = (state_V_2_load == 1 & tmp_245 & tmp_247)> <Delay = 2.80> <Core = "FIFO">   --->   Core 32 'FIFO' <Latency = 0> <II = 1> <Delay = 3.63> <Storage> <Opcode : 'read' 'write' 'nbread' 'nbwrite'> <Ports = 0> <Width = 73> <Depth = 2> <FIFO>
ST_1 : Operation 24 [1/1] (0.00ns)   --->   "%p_Result_127_i_i = call i8 @_ssdm_op_PartSelect.i8.i16.i32.i32(i16 %tmp_V, i32 8, i32 15) nounwind" [/home/paulrr2/Projects/ece527/babelsoc/fpga-network-stack/hls/toe/tx_engine/../../axi_utils.hpp:79->/home/paulrr2/Projects/ece527/babelsoc/fpga-network-stack/hls/toe/tx_engine/tx_engine.cpp:1562]   --->   Operation 24 'partselect' 'p_Result_127_i_i' <Predicate = (state_V_2_load == 1 & tmp_245 & tmp_247)> <Delay = 0.00>
ST_1 : Operation 25 [1/1] (0.00ns)   --->   "%trunc_ln647 = trunc i16 %tmp_V to i8" [/home/paulrr2/Projects/ece527/babelsoc/fpga-network-stack/hls/toe/tx_engine/../../axi_utils.hpp:79->/home/paulrr2/Projects/ece527/babelsoc/fpga-network-stack/hls/toe/tx_engine/tx_engine.cpp:1562]   --->   Operation 25 'trunc' 'trunc_ln647' <Predicate = (state_V_2_load == 1 & tmp_245 & tmp_247)> <Delay = 0.00>
ST_1 : Operation 26 [1/1] (0.00ns)   --->   "%agg_result_V_0_1_i_i = call i16 @_ssdm_op_BitConcatenate.i16.i8.i8(i8 %trunc_ln647, i8 %p_Result_127_i_i) nounwind" [/home/paulrr2/Projects/ece527/babelsoc/fpga-network-stack/hls/toe/tx_engine/../../axi_utils.hpp:79->/home/paulrr2/Projects/ece527/babelsoc/fpga-network-stack/hls/toe/tx_engine/tx_engine.cpp:1562]   --->   Operation 26 'bitconcatenate' 'agg_result_V_0_1_i_i' <Predicate = (state_V_2_load == 1 & tmp_245 & tmp_247)> <Delay = 0.00>
ST_1 : Operation 27 [1/1] (0.00ns)   --->   "%p_Val2_50 = trunc i73 %tmp_2 to i64" [/home/paulrr2/Projects/ece527/babelsoc/fpga-network-stack/hls/toe/tx_engine/tx_engine.cpp:1562]   --->   Operation 27 'trunc' 'p_Val2_50' <Predicate = (state_V_2_load == 1 & tmp_245 & tmp_247)> <Delay = 0.00>
ST_1 : Operation 28 [1/1] (0.00ns)   --->   "%p_Result_s = call i64 @llvm.part.set.i64.i16(i64 %p_Val2_50, i16 %agg_result_V_0_1_i_i, i32 0, i32 15) nounwind" [/home/paulrr2/Projects/ece527/babelsoc/fpga-network-stack/hls/toe/tx_engine/tx_engine.cpp:1562]   --->   Operation 28 'partset' 'p_Result_s' <Predicate = (state_V_2_load == 1 & tmp_245 & tmp_247)> <Delay = 0.00>
ST_1 : Operation 29 [1/1] (0.00ns)   --->   "%tmp_last_V_12 = call i1 @_ssdm_op_BitSelect.i1.i73.i32(i73 %tmp_2, i32 72)" [/home/paulrr2/Projects/ece527/babelsoc/fpga-network-stack/hls/toe/tx_engine/tx_engine.cpp:1564]   --->   Operation 29 'bitselect' 'tmp_last_V_12' <Predicate = (state_V_2_load == 1 & tmp_245 & tmp_247)> <Delay = 0.00>
ST_1 : Operation 30 [1/1] (0.00ns)   --->   "%tmp_130_i = call i9 @_ssdm_op_PartSelect.i9.i73.i32.i32(i73 %tmp_2, i32 64, i32 72) nounwind" [/home/paulrr2/Projects/ece527/babelsoc/fpga-network-stack/hls/toe/tx_engine/tx_engine.cpp:1564]   --->   Operation 30 'partselect' 'tmp_130_i' <Predicate = (state_V_2_load == 1 & tmp_245 & tmp_247)> <Delay = 0.00>
ST_1 : Operation 31 [1/1] (0.00ns)   --->   "%tmp_3 = call i73 @_ssdm_op_BitConcatenate.i73.i9.i64(i9 %tmp_130_i, i64 %p_Result_s) nounwind" [/home/paulrr2/Projects/ece527/babelsoc/fpga-network-stack/hls/toe/tx_engine/tx_engine.cpp:1564]   --->   Operation 31 'bitconcatenate' 'tmp_3' <Predicate = (state_V_2_load == 1 & tmp_245 & tmp_247)> <Delay = 0.00>
ST_1 : Operation 32 [1/1] (2.80ns)   --->   "call void @_ssdm_op_Write.ap_fifo.volatile.i73P(i73* @txEng_tcpPkgBuffer5_s_4, i73 %tmp_3) nounwind" [/home/paulrr2/Projects/ece527/babelsoc/fpga-network-stack/hls/toe/tx_engine/tx_engine.cpp:1564]   --->   Operation 32 'write' <Predicate = (state_V_2_load == 1 & tmp_245 & tmp_247)> <Delay = 2.80> <Core = "FIFO">   --->   Core 32 'FIFO' <Latency = 0> <II = 1> <Delay = 3.63> <Storage> <Opcode : 'read' 'write' 'nbread' 'nbwrite'> <Ports = 0> <Width = 73> <Depth = 2> <FIFO>
ST_1 : Operation 33 [1/1] (0.00ns)   --->   "%tmp = call i1 @_ssdm_op_NbReadReq.ap_fifo.i73P(i73* @txEng_tcpPkgBuffer4_s_5, i32 1) nounwind" [/home/paulrr2/Projects/ece527/babelsoc/fpga-network-stack/hls/toe/tx_engine/tx_engine.cpp:1535]   --->   Operation 33 'nbreadreq' 'tmp' <Predicate = (state_V_2_load == 0)> <Delay = 0.00> <Core = "FIFO">   --->   Core 32 'FIFO' <Latency = 0> <II = 1> <Delay = 3.63> <Storage> <Opcode : 'read' 'write' 'nbread' 'nbwrite'> <Ports = 0> <Width = 73> <Depth = 2> <FIFO>
ST_1 : Operation 34 [1/1] (0.00ns)   --->   "br i1 %tmp, label %1, label %._crit_edge3.i" [/home/paulrr2/Projects/ece527/babelsoc/fpga-network-stack/hls/toe/tx_engine/tx_engine.cpp:1535]   --->   Operation 34 'br' <Predicate = (state_V_2_load == 0)> <Delay = 0.00>
ST_1 : Operation 35 [1/1] (2.80ns)   --->   "%tmp105 = call i73 @_ssdm_op_Read.ap_fifo.volatile.i73P(i73* @txEng_tcpPkgBuffer4_s_5) nounwind" [/home/paulrr2/Projects/ece527/babelsoc/fpga-network-stack/hls/toe/tx_engine/tx_engine.cpp:1537]   --->   Operation 35 'read' 'tmp105' <Predicate = (state_V_2_load == 0 & tmp)> <Delay = 2.80> <Core = "FIFO">   --->   Core 32 'FIFO' <Latency = 0> <II = 1> <Delay = 3.63> <Storage> <Opcode : 'read' 'write' 'nbread' 'nbwrite'> <Ports = 0> <Width = 73> <Depth = 2> <FIFO>
ST_1 : Operation 36 [1/1] (2.80ns)   --->   "call void @_ssdm_op_Write.ap_fifo.volatile.i73P(i73* @txEng_tcpPkgBuffer5_s_4, i73 %tmp105) nounwind" [/home/paulrr2/Projects/ece527/babelsoc/fpga-network-stack/hls/toe/tx_engine/tx_engine.cpp:1538]   --->   Operation 36 'write' <Predicate = (state_V_2_load == 0 & tmp)> <Delay = 2.80> <Core = "FIFO">   --->   Core 32 'FIFO' <Latency = 0> <II = 1> <Delay = 3.63> <Storage> <Opcode : 'read' 'write' 'nbread' 'nbwrite'> <Ports = 0> <Width = 73> <Depth = 2> <FIFO>
ST_1 : Operation 37 [1/1] (0.00ns)   --->   "%t_V = load i3* @wordCount_V, align 1" [/home/paulrr2/Projects/ece527/babelsoc/fpga-network-stack/hls/toe/tx_engine/tx_engine.cpp:1539]   --->   Operation 37 'load' 't_V' <Predicate = (state_V_2_load == 0 & tmp)> <Delay = 0.00>
ST_1 : Operation 38 [1/1] (1.65ns)   --->   "%add_ln700 = add i3 %t_V, 1" [/home/paulrr2/Projects/ece527/babelsoc/fpga-network-stack/hls/toe/tx_engine/tx_engine.cpp:1539]   --->   Operation 38 'add' 'add_ln700' <Predicate = (state_V_2_load == 0 & tmp)> <Delay = 1.65> <Core = "AddSub">   --->   Core 14 'AddSub' <Latency = 0> <II = 1> <Delay = 1.65> <FuncUnit> <Opcode : 'add' 'sub'> <InPorts = 2> <OutPorts = 1>
ST_1 : Operation 39 [1/1] (1.13ns)   --->   "%icmp_ln879 = icmp eq i3 %add_ln700, 2" [/home/paulrr2/Projects/ece527/babelsoc/fpga-network-stack/hls/toe/tx_engine/tx_engine.cpp:1540]   --->   Operation 39 'icmp' 'icmp_ln879' <Predicate = (state_V_2_load == 0 & tmp)> <Delay = 1.13> <Core = "Cmp">   --->   Core 25 'Cmp' <Latency = 0> <II = 1> <Delay = 1.13> <FuncUnit> <Opcode : 'icmp'> <InPorts = 2> <OutPorts = 1>
ST_1 : Operation 40 [1/1] (1.76ns)   --->   "br i1 %icmp_ln879, label %2, label %mergeST.i" [/home/paulrr2/Projects/ece527/babelsoc/fpga-network-stack/hls/toe/tx_engine/tx_engine.cpp:1540]   --->   Operation 40 'br' <Predicate = (state_V_2_load == 0 & tmp)> <Delay = 1.76>
ST_1 : Operation 41 [1/1] (1.81ns)   --->   "store i2 1, i2* @state_V_2, align 1" [/home/paulrr2/Projects/ece527/babelsoc/fpga-network-stack/hls/toe/tx_engine/tx_engine.cpp:1543]   --->   Operation 41 'store' <Predicate = (state_V_2_load == 0 & tmp & icmp_ln879)> <Delay = 1.81>
ST_1 : Operation 42 [1/1] (1.76ns)   --->   "br label %mergeST.i" [/home/paulrr2/Projects/ece527/babelsoc/fpga-network-stack/hls/toe/tx_engine/tx_engine.cpp:1544]   --->   Operation 42 'br' <Predicate = (state_V_2_load == 0 & tmp & icmp_ln879)> <Delay = 1.76>

State 2 <SV = 1> <Delay = 2.80>
ST_2 : Operation 43 [1/1] (0.99ns)   --->   "%select_ln1570 = select i1 %tmp_last_V_12, i2 0, i2 -2" [/home/paulrr2/Projects/ece527/babelsoc/fpga-network-stack/hls/toe/tx_engine/tx_engine.cpp:1570]   --->   Operation 43 'select' 'select_ln1570' <Predicate = (state_V_2_load == 1 & tmp_245 & tmp_247)> <Delay = 0.99> <Core = "Sel">   --->   Core 26 'Sel' <Latency = 0> <II = 1> <Delay = 0.99> <FuncUnit> <Opcode : 'select'> <InPorts = 3> <OutPorts = 1>
ST_2 : Operation 44 [1/1] (1.81ns)   --->   "store i2 %select_ln1570, i2* @state_V_2, align 1" [/home/paulrr2/Projects/ece527/babelsoc/fpga-network-stack/hls/toe/tx_engine/tx_engine.cpp:1569]   --->   Operation 44 'store' <Predicate = (state_V_2_load == 1 & tmp_245 & tmp_247)> <Delay = 1.81>
ST_2 : Operation 45 [1/1] (0.00ns)   --->   "br label %._crit_edge5.i" [/home/paulrr2/Projects/ece527/babelsoc/fpga-network-stack/hls/toe/tx_engine/tx_engine.cpp:1574]   --->   Operation 45 'br' <Predicate = (state_V_2_load == 1 & tmp_245 & tmp_247)> <Delay = 0.00>
ST_2 : Operation 46 [1/1] (0.00ns)   --->   "br label %"insert_checksum<64>.exit"" [/home/paulrr2/Projects/ece527/babelsoc/fpga-network-stack/hls/toe/tx_engine/tx_engine.cpp:1575]   --->   Operation 46 'br' <Predicate = (state_V_2_load == 1)> <Delay = 0.00>
ST_2 : Operation 47 [1/1] (0.00ns)   --->   "%wordCount_V_new_0_i = phi i3 [ 0, %2 ], [ %add_ln700, %1 ]" [/home/paulrr2/Projects/ece527/babelsoc/fpga-network-stack/hls/toe/tx_engine/tx_engine.cpp:1539]   --->   Operation 47 'phi' 'wordCount_V_new_0_i' <Predicate = (state_V_2_load == 0 & tmp)> <Delay = 0.00>
ST_2 : Operation 48 [1/1] (0.00ns)   --->   "store i3 %wordCount_V_new_0_i, i3* @wordCount_V, align 1" [/home/paulrr2/Projects/ece527/babelsoc/fpga-network-stack/hls/toe/tx_engine/tx_engine.cpp:1539]   --->   Operation 48 'store' <Predicate = (state_V_2_load == 0 & tmp)> <Delay = 0.00>
ST_2 : Operation 49 [1/1] (0.00ns)   --->   "br label %._crit_edge3.i" [/home/paulrr2/Projects/ece527/babelsoc/fpga-network-stack/hls/toe/tx_engine/tx_engine.cpp:1545]   --->   Operation 49 'br' <Predicate = (state_V_2_load == 0 & tmp)> <Delay = 0.00>
ST_2 : Operation 50 [1/1] (0.00ns)   --->   "br label %"insert_checksum<64>.exit"" [/home/paulrr2/Projects/ece527/babelsoc/fpga-network-stack/hls/toe/tx_engine/tx_engine.cpp:1546]   --->   Operation 50 'br' <Predicate = (state_V_2_load == 0)> <Delay = 0.00>
ST_2 : Operation 51 [1/1] (0.00ns)   --->   "ret void"   --->   Operation 51 'ret' <Predicate = true> <Delay = 0.00>


============================================================
+ Verbose Summary: Timing violations
============================================================
Target clock period: 6.4ns, clock uncertainty: 0.8ns.

 <State 1>: 5.6ns
The critical path consists of the following:
	fifo read on port 'txEng_tcpPkgBuffer4_s_5' (/home/paulrr2/Projects/ece527/babelsoc/fpga-network-stack/hls/toe/tx_engine/tx_engine.cpp:1579) [19]  (2.8 ns)
	fifo write on port 'txEng_tcpPkgBuffer5_s_4' (/home/paulrr2/Projects/ece527/babelsoc/fpga-network-stack/hls/toe/tx_engine/tx_engine.cpp:1580) [21]  (2.8 ns)

 <State 2>: 2.81ns
The critical path consists of the following:
	'select' operation ('select_ln1570', /home/paulrr2/Projects/ece527/babelsoc/fpga-network-stack/hls/toe/tx_engine/tx_engine.cpp:1570) [48]  (0.993 ns)
	'store' operation ('store_ln1569', /home/paulrr2/Projects/ece527/babelsoc/fpga-network-stack/hls/toe/tx_engine/tx_engine.cpp:1569) of variable 'select_ln1570', /home/paulrr2/Projects/ece527/babelsoc/fpga-network-stack/hls/toe/tx_engine/tx_engine.cpp:1570 on static variable 'state_V_2' [49]  (1.81 ns)


============================================================
+ Verbose Summary: Binding
============================================================
N/A
* FSMD analyzer results:
  - Output states:
 - Input state : 
  - Chain level:
	State 1
	State 2


============================================================
+ Verbose Summary: Datapath Resource usage 
============================================================
N/A
