

================================================================
== Vivado HLS Report for 'listening_port_table'
================================================================
* Date:           Sat Dec 12 19:34:10 2020

* Version:        2019.2.1 (Build 2724168 on Thu Dec 05 05:19:09 MST 2019)
* Project:        toe_prj
* Solution:       solution1
* Product family: zynq
* Target device:  xc7z020-clg400-1


================================================================
== Performance Estimates
================================================================
+ Timing: 
    * Summary: 
    +--------+---------+----------+------------+
    |  Clock |  Target | Estimated| Uncertainty|
    +--------+---------+----------+------------+
    |ap_clk  | 6.40 ns | 4.232 ns |   0.80 ns  |
    +--------+---------+----------+------------+

+ Latency: 
    * Summary: 
    +---------+---------+-----------+-----------+-----+-----+----------+
    |  Latency (cycles) |   Latency (absolute)  |  Interval | Pipeline |
    |   min   |   max   |    min    |    max    | min | max |   Type   |
    +---------+---------+-----------+-----------+-----+-----+----------+
    |        4|        4| 25.600 ns | 25.600 ns |    1|    1| function |
    +---------+---------+-----------+-----------+-----+-----+----------+

    + Detail: 
        * Instance: 
        N/A

        * Loop: 
        N/A

============================================================
+ Verbose Summary: Synthesis Manager
============================================================
InlineROM: 1
ExposeGlobal: 0
============================================================
+ Verbose Summary: CDFG Model
============================================================
IsTopModel: 0
ResetActiveHigh: 1
IsCombinational: 2
IsDatapathOnly: 0
HasWiredReturn: 1
HasMFsm: 2
HasVarLatency: 0
IsPipeline: 1
IsRtlPipelined: 1
IsInstanceOverlapped: 0
IsDontTouch: 0
HasImplIP: 0
IsGatedGlobalClock: 0

+ Individual pipeline summary: 
  * Pipeline-0: initiation interval (II) = 1, depth = 5


============================================================
+ Verbose Summary: Schedule
============================================================
* Number of FSM states : 5
* Pipeline : 1
  Pipeline-0 : II = 1, D = 5, States = { 1 2 3 4 5 }
* Dataflow Pipeline: 0

* FSM state transitions: 
1 --> 2 
2 --> 3 
3 --> 4 
4 --> 5 
5 --> 

* FSM state operations: 

State 1 <SV = 0> <Delay = 2.80>
ST_1 : Operation 6 [1/1] (0.00ns)   --->   "%tmp = call i1 @_ssdm_op_NbReadReq.ap_fifo.i16P(i16* @rxApp2portTable_list_1, i32 1) nounwind" [/home/paulrr2/Projects/ece527/babelsoc/fpga-network-stack/hls/toe/port_table/port_table.cpp:59]   --->   Operation 6 'nbreadreq' 'tmp' <Predicate = true> <Delay = 0.00> <Core = "FIFO">   --->   Core 32 'FIFO' <Latency = 0> <II = 1> <Delay = 3.63> <Storage> <Opcode : 'read' 'write' 'nbread' 'nbwrite'> <Ports = 0> <Width = 1> <Depth = 2> <FIFO>
ST_1 : Operation 7 [1/1] (0.00ns)   --->   "br i1 %tmp, label %0, label %7" [/home/paulrr2/Projects/ece527/babelsoc/fpga-network-stack/hls/toe/port_table/port_table.cpp:59]   --->   Operation 7 'br' <Predicate = true> <Delay = 0.00>
ST_1 : Operation 8 [1/1] (2.80ns)   --->   "%tmp_V_27 = call i16 @_ssdm_op_Read.ap_fifo.volatile.i16P(i16* @rxApp2portTable_list_1) nounwind" [/home/paulrr2/Projects/ece527/babelsoc/fpga-network-stack/hls/toe/port_table/port_table.cpp:61]   --->   Operation 8 'read' 'tmp_V_27' <Predicate = (tmp)> <Delay = 2.80> <Core = "FIFO">   --->   Core 32 'FIFO' <Latency = 0> <II = 1> <Delay = 3.63> <Storage> <Opcode : 'read' 'write' 'nbread' 'nbwrite'> <Ports = 0> <Width = 1> <Depth = 2> <FIFO>
ST_1 : Operation 9 [1/1] (0.00ns)   --->   "%trunc_ln681 = trunc i16 %tmp_V_27 to i15" [/home/paulrr2/Projects/ece527/babelsoc/fpga-network-stack/hls/toe/port_table/port_table.cpp:63]   --->   Operation 9 'trunc' 'trunc_ln681' <Predicate = (tmp)> <Delay = 0.00>
ST_1 : Operation 10 [1/1] (0.00ns)   --->   "%tmp_242 = call i1 @_ssdm_op_BitSelect.i1.i16.i32(i16 %tmp_V_27, i32 15)" [/home/paulrr2/Projects/ece527/babelsoc/fpga-network-stack/hls/toe/port_table/port_table.cpp:63]   --->   Operation 10 'bitselect' 'tmp_242' <Predicate = (tmp)> <Delay = 0.00>

State 2 <SV = 1> <Delay = 3.25>
ST_2 : Operation 11 [1/1] (0.00ns)   --->   "%tmp_243 = call i1 @_ssdm_op_NbReadReq.ap_fifo.i15P(i15* @pt_portCheckListenin_1, i32 1) nounwind" [/home/paulrr2/Projects/ece527/babelsoc/fpga-network-stack/hls/toe/port_table/port_table.cpp:77]   --->   Operation 11 'nbreadreq' 'tmp_243' <Predicate = (!tmp)> <Delay = 0.00> <Core = "FIFO">   --->   Core 32 'FIFO' <Latency = 0> <II = 1> <Delay = 3.63> <Storage> <Opcode : 'read' 'write' 'nbread' 'nbwrite'> <Ports = 0> <Width = 1> <Depth = 2> <FIFO>
ST_2 : Operation 12 [1/1] (0.00ns)   --->   "br i1 %tmp_243, label %8, label %._crit_edge.i" [/home/paulrr2/Projects/ece527/babelsoc/fpga-network-stack/hls/toe/port_table/port_table.cpp:77]   --->   Operation 12 'br' <Predicate = (!tmp)> <Delay = 0.00>
ST_2 : Operation 13 [1/1] (2.80ns)   --->   "%tmp_V = call i15 @_ssdm_op_Read.ap_fifo.volatile.i15P(i15* @pt_portCheckListenin_1) nounwind" [/home/paulrr2/Projects/ece527/babelsoc/fpga-network-stack/hls/toe/port_table/port_table.cpp:81]   --->   Operation 13 'read' 'tmp_V' <Predicate = (!tmp & tmp_243)> <Delay = 2.80> <Core = "FIFO">   --->   Core 32 'FIFO' <Latency = 0> <II = 1> <Delay = 3.63> <Storage> <Opcode : 'read' 'write' 'nbread' 'nbwrite'> <Ports = 0> <Width = 1> <Depth = 2> <FIFO>
ST_2 : Operation 14 [1/1] (0.00ns)   --->   "%zext_ln681 = zext i15 %trunc_ln681 to i64" [/home/paulrr2/Projects/ece527/babelsoc/fpga-network-stack/hls/toe/port_table/port_table.cpp:63]   --->   Operation 14 'zext' 'zext_ln681' <Predicate = (tmp)> <Delay = 0.00>
ST_2 : Operation 15 [1/1] (0.00ns)   --->   "%listeningPortTable_a = getelementptr inbounds [32768 x i1]* @listeningPortTable, i64 0, i64 %zext_ln681" [/home/paulrr2/Projects/ece527/babelsoc/fpga-network-stack/hls/toe/port_table/port_table.cpp:63]   --->   Operation 15 'getelementptr' 'listeningPortTable_a' <Predicate = (tmp)> <Delay = 0.00>
ST_2 : Operation 16 [2/2] (3.25ns)   --->   "%listeningPortTable_l = load i1* %listeningPortTable_a, align 1" [/home/paulrr2/Projects/ece527/babelsoc/fpga-network-stack/hls/toe/port_table/port_table.cpp:63]   --->   Operation 16 'load' 'listeningPortTable_l' <Predicate = (tmp)> <Delay = 3.25> <Core = "RAM_T2P_BRAM">   --->   Core 38 'RAM_T2P_BRAM' <Latency = 1> <II = 1> <Delay = 3.25> <Storage> <Opcode : 'load' 'store'> <Ports = 2> <Width = 1> <Depth = 32768> <RAM>

State 3 <SV = 2> <Delay = 4.23>
ST_3 : Operation 17 [1/1] (0.00ns)   --->   "%zext_ln544 = zext i15 %tmp_V to i64" [/home/paulrr2/Projects/ece527/babelsoc/fpga-network-stack/hls/toe/port_table/port_table.cpp:81]   --->   Operation 17 'zext' 'zext_ln544' <Predicate = (!tmp & tmp_243)> <Delay = 0.00>
ST_3 : Operation 18 [1/1] (0.00ns)   --->   "%listeningPortTable_a_2 = getelementptr inbounds [32768 x i1]* @listeningPortTable, i64 0, i64 %zext_ln544" [/home/paulrr2/Projects/ece527/babelsoc/fpga-network-stack/hls/toe/port_table/port_table.cpp:81]   --->   Operation 18 'getelementptr' 'listeningPortTable_a_2' <Predicate = (!tmp & tmp_243)> <Delay = 0.00>
ST_3 : Operation 19 [2/2] (3.25ns)   --->   "%tmp_244 = load i1* %listeningPortTable_a_2, align 1" [/home/paulrr2/Projects/ece527/babelsoc/fpga-network-stack/hls/toe/port_table/port_table.cpp:81]   --->   Operation 19 'load' 'tmp_244' <Predicate = (!tmp & tmp_243)> <Delay = 3.25> <Core = "RAM_T2P_BRAM">   --->   Core 38 'RAM_T2P_BRAM' <Latency = 1> <II = 1> <Delay = 3.25> <Storage> <Opcode : 'load' 'store'> <Ports = 2> <Width = 1> <Depth = 32768> <RAM>
ST_3 : Operation 20 [1/2] (3.25ns)   --->   "%listeningPortTable_l = load i1* %listeningPortTable_a, align 1" [/home/paulrr2/Projects/ece527/babelsoc/fpga-network-stack/hls/toe/port_table/port_table.cpp:63]   --->   Operation 20 'load' 'listeningPortTable_l' <Predicate = (tmp)> <Delay = 3.25> <Core = "RAM_T2P_BRAM">   --->   Core 38 'RAM_T2P_BRAM' <Latency = 1> <II = 1> <Delay = 3.25> <Storage> <Opcode : 'load' 'store'> <Ports = 2> <Width = 1> <Depth = 32768> <RAM>
ST_3 : Operation 21 [1/1] (0.97ns)   --->   "%xor_ln887 = xor i1 %tmp_242, true" [/home/paulrr2/Projects/ece527/babelsoc/fpga-network-stack/hls/toe/port_table/port_table.cpp:63]   --->   Operation 21 'xor' 'xor_ln887' <Predicate = (tmp)> <Delay = 0.97> <Core = "LogicGate">   --->   Core 27 'LogicGate' <Latency = 0> <II = 1> <Delay = 0.97> <FuncUnit> <Opcode : 'and' 'or' 'xor'> <InPorts = 2> <OutPorts = 1>
ST_3 : Operation 22 [1/1] (0.97ns)   --->   "%and_ln63 = and i1 %listeningPortTable_l, %xor_ln887" [/home/paulrr2/Projects/ece527/babelsoc/fpga-network-stack/hls/toe/port_table/port_table.cpp:63]   --->   Operation 22 'and' 'and_ln63' <Predicate = (tmp)> <Delay = 0.97> <Core = "LogicGate">   --->   Core 27 'LogicGate' <Latency = 0> <II = 1> <Delay = 0.97> <FuncUnit> <Opcode : 'and' 'or' 'xor'> <InPorts = 2> <OutPorts = 1>
ST_3 : Operation 23 [1/1] (0.00ns)   --->   "br i1 %and_ln63, label %1, label %2" [/home/paulrr2/Projects/ece527/babelsoc/fpga-network-stack/hls/toe/port_table/port_table.cpp:63]   --->   Operation 23 'br' <Predicate = (tmp)> <Delay = 0.00>
ST_3 : Operation 24 [1/1] (0.00ns) (grouped into LUT with out node and_ln67)   --->   "%xor_ln67 = xor i1 %listeningPortTable_l, true" [/home/paulrr2/Projects/ece527/babelsoc/fpga-network-stack/hls/toe/port_table/port_table.cpp:67]   --->   Operation 24 'xor' 'xor_ln67' <Predicate = (tmp & !and_ln63)> <Delay = 0.00> <Core = "LogicGate">   --->   Core 27 'LogicGate' <Latency = 0> <II = 1> <Delay = 0.97> <FuncUnit> <Opcode : 'and' 'or' 'xor'> <InPorts = 2> <OutPorts = 1>
ST_3 : Operation 25 [1/1] (0.97ns) (out node of the LUT)   --->   "%and_ln67 = and i1 %xor_ln887, %xor_ln67" [/home/paulrr2/Projects/ece527/babelsoc/fpga-network-stack/hls/toe/port_table/port_table.cpp:67]   --->   Operation 25 'and' 'and_ln67' <Predicate = (tmp & !and_ln63)> <Delay = 0.97> <Core = "LogicGate">   --->   Core 27 'LogicGate' <Latency = 0> <II = 1> <Delay = 0.97> <FuncUnit> <Opcode : 'and' 'or' 'xor'> <InPorts = 2> <OutPorts = 1>
ST_3 : Operation 26 [1/1] (0.00ns)   --->   "br i1 %and_ln67, label %3, label %4" [/home/paulrr2/Projects/ece527/babelsoc/fpga-network-stack/hls/toe/port_table/port_table.cpp:67]   --->   Operation 26 'br' <Predicate = (tmp & !and_ln63)> <Delay = 0.00>
ST_3 : Operation 27 [1/1] (0.00ns)   --->   "%zext_ln544_20 = zext i16 %tmp_V_27 to i64" [/home/paulrr2/Projects/ece527/babelsoc/fpga-network-stack/hls/toe/port_table/port_table.cpp:69]   --->   Operation 27 'zext' 'zext_ln544_20' <Predicate = (tmp & !and_ln63 & and_ln67)> <Delay = 0.00>
ST_3 : Operation 28 [1/1] (0.00ns)   --->   "%listeningPortTable_a_1 = getelementptr inbounds [32768 x i1]* @listeningPortTable, i64 0, i64 %zext_ln544_20" [/home/paulrr2/Projects/ece527/babelsoc/fpga-network-stack/hls/toe/port_table/port_table.cpp:69]   --->   Operation 28 'getelementptr' 'listeningPortTable_a_1' <Predicate = (tmp & !and_ln63 & and_ln67)> <Delay = 0.00>
ST_3 : Operation 29 [1/1] (3.25ns)   --->   "store i1 true, i1* %listeningPortTable_a_1, align 1" [/home/paulrr2/Projects/ece527/babelsoc/fpga-network-stack/hls/toe/port_table/port_table.cpp:69]   --->   Operation 29 'store' <Predicate = (tmp & !and_ln63 & and_ln67)> <Delay = 3.25> <Core = "RAM_T2P_BRAM">   --->   Core 38 'RAM_T2P_BRAM' <Latency = 1> <II = 1> <Delay = 3.25> <Storage> <Opcode : 'load' 'store'> <Ports = 2> <Width = 1> <Depth = 32768> <RAM>

State 4 <SV = 3> <Delay = 3.25>
ST_4 : Operation 30 [1/2] (3.25ns)   --->   "%tmp_244 = load i1* %listeningPortTable_a_2, align 1" [/home/paulrr2/Projects/ece527/babelsoc/fpga-network-stack/hls/toe/port_table/port_table.cpp:81]   --->   Operation 30 'load' 'tmp_244' <Predicate = (!tmp & tmp_243)> <Delay = 3.25> <Core = "RAM_T2P_BRAM">   --->   Core 38 'RAM_T2P_BRAM' <Latency = 1> <II = 1> <Delay = 3.25> <Storage> <Opcode : 'load' 'store'> <Ports = 2> <Width = 1> <Depth = 32768> <RAM>
ST_4 : Operation 31 [1/1] (2.80ns)   --->   "call void @_ssdm_op_Write.ap_fifo.volatile.i1P(i1* @portTable2rxApp_list_1, i1 false) nounwind" [/home/paulrr2/Projects/ece527/babelsoc/fpga-network-stack/hls/toe/port_table/port_table.cpp:74]   --->   Operation 31 'write' <Predicate = (tmp & !and_ln63 & !and_ln67)> <Delay = 2.80> <Core = "FIFO">   --->   Core 32 'FIFO' <Latency = 0> <II = 1> <Delay = 3.63> <Storage> <Opcode : 'read' 'write' 'nbread' 'nbwrite'> <Ports = 0> <Width = 1> <Depth = 2> <FIFO>
ST_4 : Operation 32 [1/1] (2.80ns)   --->   "call void @_ssdm_op_Write.ap_fifo.volatile.i1P(i1* @portTable2rxApp_list_1, i1 true) nounwind" [/home/paulrr2/Projects/ece527/babelsoc/fpga-network-stack/hls/toe/port_table/port_table.cpp:70]   --->   Operation 32 'write' <Predicate = (tmp & !and_ln63 & and_ln67)> <Delay = 2.80> <Core = "FIFO">   --->   Core 32 'FIFO' <Latency = 0> <II = 1> <Delay = 3.63> <Storage> <Opcode : 'read' 'write' 'nbread' 'nbwrite'> <Ports = 0> <Width = 1> <Depth = 2> <FIFO>
ST_4 : Operation 33 [1/1] (2.80ns)   --->   "call void @_ssdm_op_Write.ap_fifo.volatile.i1P(i1* @portTable2rxApp_list_1, i1 true) nounwind" [/home/paulrr2/Projects/ece527/babelsoc/fpga-network-stack/hls/toe/port_table/port_table.cpp:65]   --->   Operation 33 'write' <Predicate = (tmp & and_ln63)> <Delay = 2.80> <Core = "FIFO">   --->   Core 32 'FIFO' <Latency = 0> <II = 1> <Delay = 3.63> <Storage> <Opcode : 'read' 'write' 'nbread' 'nbwrite'> <Ports = 0> <Width = 1> <Depth = 2> <FIFO>

State 5 <SV = 4> <Delay = 2.80>
ST_5 : Operation 34 [1/1] (0.00ns)   --->   "call void (...)* @_ssdm_op_SpecInterface(i1* @portTable2rxApp_list_1, [8 x i8]* @ap_fifo_str, i32 0, i32 0, [1 x i8]* @p_str, i32 0, i32 0, [1 x i8]* @p_str, [1 x i8]* @p_str, [1 x i8]* @p_str, i32 2, i32 2, i32 16, i32 16, [1 x i8]* @p_str, [1 x i8]* @p_str)"   --->   Operation 34 'specinterface' <Predicate = true> <Delay = 0.00>
ST_5 : Operation 35 [1/1] (0.00ns)   --->   "call void (...)* @_ssdm_op_SpecInterface(i15* @pt_portCheckListenin_1, [8 x i8]* @ap_fifo_str, i32 0, i32 0, [1 x i8]* @p_str, i32 0, i32 0, [1 x i8]* @p_str, [1 x i8]* @p_str, [1 x i8]* @p_str, i32 2, i32 2, i32 16, i32 16, [1 x i8]* @p_str, [1 x i8]* @p_str)"   --->   Operation 35 'specinterface' <Predicate = true> <Delay = 0.00>
ST_5 : Operation 36 [1/1] (0.00ns)   --->   "call void (...)* @_ssdm_op_SpecInterface(i1* @pt_portCheckListenin_2, [8 x i8]* @ap_fifo_str, i32 0, i32 0, [1 x i8]* @p_str, i32 0, i32 0, [1 x i8]* @p_str, [1 x i8]* @p_str, [1 x i8]* @p_str, i32 2, i32 2, i32 16, i32 16, [1 x i8]* @p_str, [1 x i8]* @p_str)"   --->   Operation 36 'specinterface' <Predicate = true> <Delay = 0.00>
ST_5 : Operation 37 [1/1] (0.00ns)   --->   "call void (...)* @_ssdm_op_SpecInterface(i16* @rxApp2portTable_list_1, [8 x i8]* @ap_fifo_str, i32 0, i32 0, [1 x i8]* @p_str, i32 0, i32 0, [1 x i8]* @p_str, [1 x i8]* @p_str, [1 x i8]* @p_str, i32 2, i32 2, i32 16, i32 16, [1 x i8]* @p_str, [1 x i8]* @p_str)"   --->   Operation 37 'specinterface' <Predicate = true> <Delay = 0.00>
ST_5 : Operation 38 [1/1] (0.00ns)   --->   "call void (...)* @_ssdm_op_SpecPipeline(i32 1, i32 1, i32 1, i32 0, [1 x i8]* @p_str859) nounwind" [/home/paulrr2/Projects/ece527/babelsoc/fpga-network-stack/hls/toe/port_table/port_table.cpp:50]   --->   Operation 38 'specpipeline' <Predicate = true> <Delay = 0.00>
ST_5 : Operation 39 [1/1] (0.00ns)   --->   "call void (...)* @_ssdm_op_SpecMemCore([32768 x i1]* @listeningPortTable, [1 x i8]* @p_str859, [13 x i8]* @p_str19860, [1 x i8]* @p_str859, i32 -1, [1 x i8]* @p_str859, [1 x i8]* @p_str859, [1 x i8]* @p_str859, [1 x i8]* @p_str859, [1 x i8]* @p_str859) nounwind" [/home/paulrr2/Projects/ece527/babelsoc/fpga-network-stack/hls/toe/port_table/port_table.cpp:54]   --->   Operation 39 'specmemcore' <Predicate = true> <Delay = 0.00>
ST_5 : Operation 40 [1/1] (2.80ns)   --->   "call void @_ssdm_op_Write.ap_fifo.volatile.i1P(i1* @pt_portCheckListenin_2, i1 %tmp_244) nounwind" [/home/paulrr2/Projects/ece527/babelsoc/fpga-network-stack/hls/toe/port_table/port_table.cpp:81]   --->   Operation 40 'write' <Predicate = (!tmp & tmp_243)> <Delay = 2.80> <Core = "FIFO">   --->   Core 32 'FIFO' <Latency = 0> <II = 1> <Delay = 3.63> <Storage> <Opcode : 'read' 'write' 'nbread' 'nbwrite'> <Ports = 0> <Width = 1> <Depth = 2> <FIFO>
ST_5 : Operation 41 [1/1] (0.00ns)   --->   "br label %._crit_edge.i" [/home/paulrr2/Projects/ece527/babelsoc/fpga-network-stack/hls/toe/port_table/port_table.cpp:82]   --->   Operation 41 'br' <Predicate = (!tmp & tmp_243)> <Delay = 0.00>
ST_5 : Operation 42 [1/1] (0.00ns)   --->   "br label %listening_port_table.exit"   --->   Operation 42 'br' <Predicate = (!tmp)> <Delay = 0.00>
ST_5 : Operation 43 [1/1] (0.00ns)   --->   "br label %5"   --->   Operation 43 'br' <Predicate = (tmp & !and_ln63 & !and_ln67)> <Delay = 0.00>
ST_5 : Operation 44 [1/1] (0.00ns)   --->   "br label %5" [/home/paulrr2/Projects/ece527/babelsoc/fpga-network-stack/hls/toe/port_table/port_table.cpp:71]   --->   Operation 44 'br' <Predicate = (tmp & !and_ln63 & and_ln67)> <Delay = 0.00>
ST_5 : Operation 45 [1/1] (0.00ns)   --->   "br label %6"   --->   Operation 45 'br' <Predicate = (tmp & !and_ln63)> <Delay = 0.00>
ST_5 : Operation 46 [1/1] (0.00ns)   --->   "br label %6" [/home/paulrr2/Projects/ece527/babelsoc/fpga-network-stack/hls/toe/port_table/port_table.cpp:66]   --->   Operation 46 'br' <Predicate = (tmp & and_ln63)> <Delay = 0.00>
ST_5 : Operation 47 [1/1] (0.00ns)   --->   "br label %listening_port_table.exit" [/home/paulrr2/Projects/ece527/babelsoc/fpga-network-stack/hls/toe/port_table/port_table.cpp:76]   --->   Operation 47 'br' <Predicate = (tmp)> <Delay = 0.00>
ST_5 : Operation 48 [1/1] (0.00ns)   --->   "ret void"   --->   Operation 48 'ret' <Predicate = true> <Delay = 0.00>


============================================================
+ Verbose Summary: Timing violations
============================================================
Target clock period: 6.4ns, clock uncertainty: 0.8ns.

 <State 1>: 2.8ns
The critical path consists of the following:
	fifo read on port 'rxApp2portTable_list_1' (/home/paulrr2/Projects/ece527/babelsoc/fpga-network-stack/hls/toe/port_table/port_table.cpp:61) [31]  (2.8 ns)

 <State 2>: 3.25ns
The critical path consists of the following:
	'getelementptr' operation ('listeningPortTable_a', /home/paulrr2/Projects/ece527/babelsoc/fpga-network-stack/hls/toe/port_table/port_table.cpp:63) [34]  (0 ns)
	'load' operation ('listeningPortTable_l', /home/paulrr2/Projects/ece527/babelsoc/fpga-network-stack/hls/toe/port_table/port_table.cpp:63) on array 'listeningPortTable' [35]  (3.25 ns)

 <State 3>: 4.23ns
The critical path consists of the following:
	'load' operation ('listeningPortTable_l', /home/paulrr2/Projects/ece527/babelsoc/fpga-network-stack/hls/toe/port_table/port_table.cpp:63) on array 'listeningPortTable' [35]  (3.25 ns)
	'xor' operation ('xor_ln67', /home/paulrr2/Projects/ece527/babelsoc/fpga-network-stack/hls/toe/port_table/port_table.cpp:67) [41]  (0 ns)
	'and' operation ('and_ln67', /home/paulrr2/Projects/ece527/babelsoc/fpga-network-stack/hls/toe/port_table/port_table.cpp:67) [42]  (0.978 ns)

 <State 4>: 3.25ns
The critical path consists of the following:
	'load' operation ('tmp', /home/paulrr2/Projects/ece527/babelsoc/fpga-network-stack/hls/toe/port_table/port_table.cpp:81) on array 'listeningPortTable' [25]  (3.25 ns)

 <State 5>: 2.8ns
The critical path consists of the following:
	fifo write on port 'pt_portCheckListenin_2' (/home/paulrr2/Projects/ece527/babelsoc/fpga-network-stack/hls/toe/port_table/port_table.cpp:81) [26]  (2.8 ns)


============================================================
+ Verbose Summary: Binding
============================================================
N/A
* FSMD analyzer results:
  - Output states:
 - Input state : 
  - Chain level:
	State 1
	State 2
	State 3
	State 4
	State 5


============================================================
+ Verbose Summary: Datapath Resource usage 
============================================================
N/A
