

================================================================
== Vivado HLS Report for 'lshiftWordByOctet_2'
================================================================
* Date:           Sat Dec 12 19:34:15 2020

* Version:        2019.2.1 (Build 2724168 on Thu Dec 05 05:19:09 MST 2019)
* Project:        toe_prj
* Solution:       solution1
* Product family: zynq
* Target device:  xc7z020-clg400-1


================================================================
== Performance Estimates
================================================================
+ Timing: 
    * Summary: 
    +--------+---------+----------+------------+
    |  Clock |  Target | Estimated| Uncertainty|
    +--------+---------+----------+------------+
    |ap_clk  | 6.40 ns | 6.849 ns |   0.80 ns  |
    +--------+---------+----------+------------+

+ Latency: 
    * Summary: 
    +---------+---------+----------+----------+-----+-----+----------+
    |  Latency (cycles) |  Latency (absolute) |  Interval | Pipeline |
    |   min   |   max   |    min   |    max   | min | max |   Type   |
    +---------+---------+----------+----------+-----+-----+----------+
    |        1|        1| 6.849 ns | 6.849 ns |    1|    1| function |
    +---------+---------+----------+----------+-----+-----+----------+

    + Detail: 
        * Instance: 
        N/A

        * Loop: 
        N/A

============================================================
+ Verbose Summary: Synthesis Manager
============================================================
InlineROM: 1
ExposeGlobal: 0
============================================================
+ Verbose Summary: CDFG Model
============================================================
IsTopModel: 0
ResetActiveHigh: 1
IsCombinational: 2
IsDatapathOnly: 0
HasWiredReturn: 1
HasMFsm: 2
HasVarLatency: 0
IsPipeline: 1
IsRtlPipelined: 1
IsInstanceOverlapped: 0
IsDontTouch: 0
HasImplIP: 0
IsGatedGlobalClock: 0

+ Individual pipeline summary: 
  * Pipeline-0: initiation interval (II) = 1, depth = 2


============================================================
+ Verbose Summary: Schedule
============================================================
* Number of FSM states : 2
* Pipeline : 1
  Pipeline-0 : II = 1, D = 2, States = { 1 2 }
* Dataflow Pipeline: 0

* FSM state transitions: 
1 --> 2 
2 --> 

* FSM state operations: 

State 1 <SV = 0> <Delay = 6.84>
ST_1 : Operation 3 [1/1] (0.00ns)   --->   "%ls_writeRemainder_1_s = load i1* @ls_writeRemainder_1, align 1" [/home/paulrr2/Projects/ece527/babelsoc/fpga-network-stack/hls/toe/rx_engine/../../axi_utils.hpp:520]   --->   Operation 3 'load' 'ls_writeRemainder_1_s' <Predicate = true> <Delay = 0.00>
ST_1 : Operation 4 [1/1] (0.00ns)   --->   "%p_Val2_s = load i64* @prevWord_data_V_12, align 8" [/home/paulrr2/Projects/ece527/babelsoc/fpga-network-stack/hls/toe/rx_engine/../../axi_utils.hpp:522]   --->   Operation 4 'load' 'p_Val2_s' <Predicate = true> <Delay = 0.00>
ST_1 : Operation 5 [1/1] (0.00ns)   --->   "%p_Val2_45 = load i8* @prevWord_keep_V_4, align 1" [/home/paulrr2/Projects/ece527/babelsoc/fpga-network-stack/hls/toe/rx_engine/../../axi_utils.hpp:524]   --->   Operation 5 'load' 'p_Val2_45' <Predicate = true> <Delay = 0.00>
ST_1 : Operation 6 [1/1] (0.00ns)   --->   "br i1 %ls_writeRemainder_1_s, label %0, label %1" [/home/paulrr2/Projects/ece527/babelsoc/fpga-network-stack/hls/toe/rx_engine/../../axi_utils.hpp:520]   --->   Operation 6 'br' <Predicate = true> <Delay = 0.00>
ST_1 : Operation 7 [1/1] (0.00ns)   --->   "%tmp = call i1 @_ssdm_op_NbReadReq.ap_fifo.i64P.i8P.i1P(i64* @rxEng_dataBuffer4_V_1, i8* @rxEng_dataBuffer4_V_2, i1* @rxEng_dataBuffer4_V_s, i32 1) nounwind" [/home/paulrr2/Projects/ece527/babelsoc/fpga-network-stack/hls/toe/rx_engine/../../axi_utils.hpp:531]   --->   Operation 7 'nbreadreq' 'tmp' <Predicate = (!ls_writeRemainder_1_s)> <Delay = 0.00> <Core = "FIFO">   --->   Core 32 'FIFO' <Latency = 0> <II = 1> <Delay = 3.63> <Storage> <Opcode : 'read' 'write' 'nbread' 'nbwrite'> <Ports = 0> <Width = 64> <Depth = 2> <FIFO>
ST_1 : Operation 8 [1/1] (0.00ns)   --->   "br i1 %tmp, label %_ifconv, label %._crit_edge80.i" [/home/paulrr2/Projects/ece527/babelsoc/fpga-network-stack/hls/toe/rx_engine/../../axi_utils.hpp:531]   --->   Operation 8 'br' <Predicate = (!ls_writeRemainder_1_s)> <Delay = 0.00>
ST_1 : Operation 9 [1/1] (2.80ns)   --->   "%empty = call { i64, i8, i1 } @_ssdm_op_Read.ap_fifo.volatile.i64P.i8P.i1P(i64* @rxEng_dataBuffer4_V_1, i8* @rxEng_dataBuffer4_V_2, i1* @rxEng_dataBuffer4_V_s) nounwind" [/home/paulrr2/Projects/ece527/babelsoc/fpga-network-stack/hls/toe/rx_engine/../../axi_utils.hpp:533]   --->   Operation 9 'read' 'empty' <Predicate = (!ls_writeRemainder_1_s & tmp)> <Delay = 2.80> <Core = "FIFO">   --->   Core 32 'FIFO' <Latency = 0> <II = 1> <Delay = 3.63> <Storage> <Opcode : 'read' 'write' 'nbread' 'nbwrite'> <Ports = 0> <Width = 64> <Depth = 2> <FIFO>
ST_1 : Operation 10 [1/1] (0.00ns)   --->   "%tmp_data_V = extractvalue { i64, i8, i1 } %empty, 0" [/home/paulrr2/Projects/ece527/babelsoc/fpga-network-stack/hls/toe/rx_engine/../../axi_utils.hpp:533]   --->   Operation 10 'extractvalue' 'tmp_data_V' <Predicate = (!ls_writeRemainder_1_s & tmp)> <Delay = 0.00>
ST_1 : Operation 11 [1/1] (0.00ns)   --->   "%tmp_keep_V = extractvalue { i64, i8, i1 } %empty, 1" [/home/paulrr2/Projects/ece527/babelsoc/fpga-network-stack/hls/toe/rx_engine/../../axi_utils.hpp:533]   --->   Operation 11 'extractvalue' 'tmp_keep_V' <Predicate = (!ls_writeRemainder_1_s & tmp)> <Delay = 0.00>
ST_1 : Operation 12 [1/1] (0.00ns)   --->   "%tmp_last_V = extractvalue { i64, i8, i1 } %empty, 2" [/home/paulrr2/Projects/ece527/babelsoc/fpga-network-stack/hls/toe/rx_engine/../../axi_utils.hpp:533]   --->   Operation 12 'extractvalue' 'tmp_last_V' <Predicate = (!ls_writeRemainder_1_s & tmp)> <Delay = 0.00>
ST_1 : Operation 13 [1/1] (0.00ns)   --->   "%ls_firstWord_1_load = load i1* @ls_firstWord_1, align 1" [/home/paulrr2/Projects/ece527/babelsoc/fpga-network-stack/hls/toe/rx_engine/../../axi_utils.hpp:542]   --->   Operation 13 'load' 'ls_firstWord_1_load' <Predicate = (!ls_writeRemainder_1_s & tmp)> <Delay = 0.00>
ST_1 : Operation 14 [1/1] (0.00ns) (grouped into LUT with out node sendWord_data_V)   --->   "%trunc_ln647 = trunc i64 %tmp_data_V to i32" [/home/paulrr2/Projects/ece527/babelsoc/fpga-network-stack/hls/toe/rx_engine/../../axi_utils.hpp:545]   --->   Operation 14 'trunc' 'trunc_ln647' <Predicate = (!ls_writeRemainder_1_s & tmp)> <Delay = 0.00>
ST_1 : Operation 15 [1/1] (0.00ns) (grouped into LUT with out node sendWord_data_V)   --->   "%p_Result_69 = shl i64 %tmp_data_V, 32" [/home/paulrr2/Projects/ece527/babelsoc/fpga-network-stack/hls/toe/rx_engine/../../axi_utils.hpp:545]   --->   Operation 15 'shl' 'p_Result_69' <Predicate = (!ls_writeRemainder_1_s & tmp)> <Delay = 0.00>
ST_1 : Operation 16 [1/1] (0.00ns)   --->   "%trunc_ln647_7 = trunc i8 %tmp_keep_V to i4" [/home/paulrr2/Projects/ece527/babelsoc/fpga-network-stack/hls/toe/rx_engine/../../axi_utils.hpp:547]   --->   Operation 16 'trunc' 'trunc_ln647_7' <Predicate = (!ls_writeRemainder_1_s & tmp)> <Delay = 0.00>
ST_1 : Operation 17 [1/1] (0.00ns)   --->   "%p_Result_70 = call i8 @_ssdm_op_BitConcatenate.i8.i4.i4(i4 %trunc_ln647_7, i4 -1) nounwind" [/home/paulrr2/Projects/ece527/babelsoc/fpga-network-stack/hls/toe/rx_engine/../../axi_utils.hpp:547]   --->   Operation 17 'bitconcatenate' 'p_Result_70' <Predicate = (!ls_writeRemainder_1_s & tmp)> <Delay = 0.00>
ST_1 : Operation 18 [1/1] (0.00ns)   --->   "%p_Result_40_i = call i4 @_ssdm_op_PartSelect.i4.i8.i32.i32(i8 %tmp_keep_V, i32 4, i32 7) nounwind" [/home/paulrr2/Projects/ece527/babelsoc/fpga-network-stack/hls/toe/rx_engine/../../axi_utils.hpp:548]   --->   Operation 18 'partselect' 'p_Result_40_i' <Predicate = (!ls_writeRemainder_1_s & tmp)> <Delay = 0.00>
ST_1 : Operation 19 [1/1] (0.00ns) (grouped into LUT with out node sendWord_data_V)   --->   "%p_Result_41_i = call i32 @_ssdm_op_PartSelect.i32.i64.i32.i32(i64 %p_Val2_s, i32 32, i32 63) nounwind" [/home/paulrr2/Projects/ece527/babelsoc/fpga-network-stack/hls/toe/rx_engine/../../axi_utils.hpp:552]   --->   Operation 19 'partselect' 'p_Result_41_i' <Predicate = (!ls_writeRemainder_1_s & tmp)> <Delay = 0.00>
ST_1 : Operation 20 [1/1] (0.00ns) (grouped into LUT with out node sendWord_data_V)   --->   "%p_Result_71 = call i64 @_ssdm_op_BitConcatenate.i64.i32.i32(i32 %trunc_ln647, i32 %p_Result_41_i) nounwind" [/home/paulrr2/Projects/ece527/babelsoc/fpga-network-stack/hls/toe/rx_engine/../../axi_utils.hpp:553]   --->   Operation 20 'bitconcatenate' 'p_Result_71' <Predicate = (!ls_writeRemainder_1_s & tmp)> <Delay = 0.00>
ST_1 : Operation 21 [1/1] (0.00ns)   --->   "%p_Result_44_i = call i4 @_ssdm_op_PartSelect.i4.i8.i32.i32(i8 %p_Val2_45, i32 4, i32 7) nounwind" [/home/paulrr2/Projects/ece527/babelsoc/fpga-network-stack/hls/toe/rx_engine/../../axi_utils.hpp:555]   --->   Operation 21 'partselect' 'p_Result_44_i' <Predicate = (!ls_writeRemainder_1_s & tmp)> <Delay = 0.00>
ST_1 : Operation 22 [1/1] (0.00ns)   --->   "%p_Result_72 = call i8 @_ssdm_op_BitConcatenate.i8.i4.i4(i4 %trunc_ln647_7, i4 %p_Result_44_i) nounwind" [/home/paulrr2/Projects/ece527/babelsoc/fpga-network-stack/hls/toe/rx_engine/../../axi_utils.hpp:556]   --->   Operation 22 'bitconcatenate' 'p_Result_72' <Predicate = (!ls_writeRemainder_1_s & tmp)> <Delay = 0.00>
ST_1 : Operation 23 [1/1] (1.24ns)   --->   "%sendWord_keep_V = select i1 %ls_firstWord_1_load, i8 %p_Result_70, i8 %p_Result_72" [/home/paulrr2/Projects/ece527/babelsoc/fpga-network-stack/hls/toe/rx_engine/../../axi_utils.hpp:542]   --->   Operation 23 'select' 'sendWord_keep_V' <Predicate = (!ls_writeRemainder_1_s & tmp)> <Delay = 1.24> <Core = "Sel">   --->   Core 26 'Sel' <Latency = 0> <II = 1> <Delay = 1.48> <FuncUnit> <Opcode : 'select'> <InPorts = 3> <OutPorts = 1>
ST_1 : Operation 24 [1/1] (1.48ns) (out node of the LUT)   --->   "%sendWord_data_V = select i1 %ls_firstWord_1_load, i64 %p_Result_69, i64 %p_Result_71" [/home/paulrr2/Projects/ece527/babelsoc/fpga-network-stack/hls/toe/rx_engine/../../axi_utils.hpp:542]   --->   Operation 24 'select' 'sendWord_data_V' <Predicate = (!ls_writeRemainder_1_s & tmp)> <Delay = 1.48> <Core = "Sel">   --->   Core 26 'Sel' <Latency = 0> <II = 1> <Delay = 1.48> <FuncUnit> <Opcode : 'select'> <InPorts = 3> <OutPorts = 1>
ST_1 : Operation 25 [1/1] (1.30ns)   --->   "%sendWord_last_V = icmp eq i4 %p_Result_40_i, 0" [/home/paulrr2/Projects/ece527/babelsoc/fpga-network-stack/hls/toe/rx_engine/../../axi_utils.hpp:548]   --->   Operation 25 'icmp' 'sendWord_last_V' <Predicate = (!ls_writeRemainder_1_s & tmp)> <Delay = 1.30> <Core = "Cmp">   --->   Core 25 'Cmp' <Latency = 0> <II = 1> <Delay = 1.30> <FuncUnit> <Opcode : 'icmp'> <InPorts = 2> <OutPorts = 1>
ST_1 : Operation 26 [1/1] (0.00ns)   --->   "store i64 %tmp_data_V, i64* @prevWord_data_V_12, align 8" [/home/paulrr2/Projects/ece527/babelsoc/fpga-network-stack/hls/toe/tx_engine/../../axi_utils.hpp:50->/home/paulrr2/Projects/ece527/babelsoc/fpga-network-stack/hls/toe/rx_engine/../../axi_utils.hpp:563]   --->   Operation 26 'store' <Predicate = (!ls_writeRemainder_1_s & tmp)> <Delay = 0.00>
ST_1 : Operation 27 [1/1] (0.00ns)   --->   "store i8 %tmp_keep_V, i8* @prevWord_keep_V_4, align 8" [/home/paulrr2/Projects/ece527/babelsoc/fpga-network-stack/hls/toe/tx_engine/../../axi_utils.hpp:50->/home/paulrr2/Projects/ece527/babelsoc/fpga-network-stack/hls/toe/rx_engine/../../axi_utils.hpp:563]   --->   Operation 27 'store' <Predicate = (!ls_writeRemainder_1_s & tmp)> <Delay = 0.00>
ST_1 : Operation 28 [1/1] (1.76ns)   --->   "br i1 %tmp_last_V, label %2, label %mergeST.i" [/home/paulrr2/Projects/ece527/babelsoc/fpga-network-stack/hls/toe/rx_engine/../../axi_utils.hpp:565]   --->   Operation 28 'br' <Predicate = (!ls_writeRemainder_1_s & tmp)> <Delay = 1.76>
ST_1 : Operation 29 [1/1] (0.97ns)   --->   "%xor_ln761 = xor i1 %sendWord_last_V, true" [/home/paulrr2/Projects/ece527/babelsoc/fpga-network-stack/hls/toe/rx_engine/../../axi_utils.hpp:568]   --->   Operation 29 'xor' 'xor_ln761' <Predicate = (!ls_writeRemainder_1_s & tmp & tmp_last_V)> <Delay = 0.97> <Core = "LogicGate">   --->   Core 27 'LogicGate' <Latency = 0> <II = 1> <Delay = 0.97> <FuncUnit> <Opcode : 'and' 'or' 'xor'> <InPorts = 2> <OutPorts = 1>
ST_1 : Operation 30 [1/1] (1.76ns)   --->   "store i1 %xor_ln761, i1* @ls_writeRemainder_1, align 1" [/home/paulrr2/Projects/ece527/babelsoc/fpga-network-stack/hls/toe/rx_engine/../../axi_utils.hpp:568]   --->   Operation 30 'store' <Predicate = (!ls_writeRemainder_1_s & tmp & tmp_last_V)> <Delay = 1.76>
ST_1 : Operation 31 [1/1] (1.76ns)   --->   "br label %mergeST.i" [/home/paulrr2/Projects/ece527/babelsoc/fpga-network-stack/hls/toe/rx_engine/../../axi_utils.hpp:569]   --->   Operation 31 'br' <Predicate = (!ls_writeRemainder_1_s & tmp & tmp_last_V)> <Delay = 1.76>
ST_1 : Operation 32 [1/1] (0.00ns)   --->   "%p_Result_i = call i32 @_ssdm_op_PartSelect.i32.i64.i32.i32(i64 %p_Val2_s, i32 32, i32 63) nounwind" [/home/paulrr2/Projects/ece527/babelsoc/fpga-network-stack/hls/toe/rx_engine/../../axi_utils.hpp:522]   --->   Operation 32 'partselect' 'p_Result_i' <Predicate = (ls_writeRemainder_1_s)> <Delay = 0.00>
ST_1 : Operation 33 [1/1] (0.00ns)   --->   "%p_Result_i_394 = call i4 @_ssdm_op_PartSelect.i4.i8.i32.i32(i8 %p_Val2_45, i32 4, i32 7) nounwind" [/home/paulrr2/Projects/ece527/babelsoc/fpga-network-stack/hls/toe/rx_engine/../../axi_utils.hpp:524]   --->   Operation 33 'partselect' 'p_Result_i_394' <Predicate = (ls_writeRemainder_1_s)> <Delay = 0.00>
ST_1 : Operation 34 [1/1] (1.76ns)   --->   "store i1 false, i1* @ls_writeRemainder_1, align 1" [/home/paulrr2/Projects/ece527/babelsoc/fpga-network-stack/hls/toe/rx_engine/../../axi_utils.hpp:529]   --->   Operation 34 'store' <Predicate = (ls_writeRemainder_1_s)> <Delay = 1.76>

State 2 <SV = 1> <Delay = 2.80>
ST_2 : Operation 35 [1/1] (0.00ns)   --->   "call void (...)* @_ssdm_op_SpecInterface(i64* @rxEng_dataBuffer4_V_1, [8 x i8]* @ap_fifo_str, i32 0, i32 0, [1 x i8]* @p_str, i32 0, i32 0, [1 x i8]* @p_str, [1 x i8]* @p_str, [1 x i8]* @p_str, i32 2, i32 2, i32 16, i32 16, [1 x i8]* @p_str, [1 x i8]* @p_str)"   --->   Operation 35 'specinterface' <Predicate = true> <Delay = 0.00>
ST_2 : Operation 36 [1/1] (0.00ns)   --->   "call void (...)* @_ssdm_op_SpecInterface(i8* @rxEng_dataBuffer4_V_2, [8 x i8]* @ap_fifo_str, i32 0, i32 0, [1 x i8]* @p_str, i32 0, i32 0, [1 x i8]* @p_str, [1 x i8]* @p_str, [1 x i8]* @p_str, i32 2, i32 2, i32 16, i32 16, [1 x i8]* @p_str, [1 x i8]* @p_str)"   --->   Operation 36 'specinterface' <Predicate = true> <Delay = 0.00>
ST_2 : Operation 37 [1/1] (0.00ns)   --->   "call void (...)* @_ssdm_op_SpecInterface(i1* @rxEng_dataBuffer4_V_s, [8 x i8]* @ap_fifo_str, i32 0, i32 0, [1 x i8]* @p_str, i32 0, i32 0, [1 x i8]* @p_str, [1 x i8]* @p_str, [1 x i8]* @p_str, i32 2, i32 2, i32 16, i32 16, [1 x i8]* @p_str, [1 x i8]* @p_str)"   --->   Operation 37 'specinterface' <Predicate = true> <Delay = 0.00>
ST_2 : Operation 38 [1/1] (0.00ns)   --->   "call void (...)* @_ssdm_op_SpecInterface(i64* @rxEng_dataBuffer5_V_1, [8 x i8]* @ap_fifo_str, i32 0, i32 0, [1 x i8]* @p_str, i32 0, i32 0, [1 x i8]* @p_str, [1 x i8]* @p_str, [1 x i8]* @p_str, i32 2, i32 2, i32 16, i32 16, [1 x i8]* @p_str, [1 x i8]* @p_str)"   --->   Operation 38 'specinterface' <Predicate = true> <Delay = 0.00>
ST_2 : Operation 39 [1/1] (0.00ns)   --->   "call void (...)* @_ssdm_op_SpecInterface(i8* @rxEng_dataBuffer5_V_2, [8 x i8]* @ap_fifo_str, i32 0, i32 0, [1 x i8]* @p_str, i32 0, i32 0, [1 x i8]* @p_str, [1 x i8]* @p_str, [1 x i8]* @p_str, i32 2, i32 2, i32 16, i32 16, [1 x i8]* @p_str, [1 x i8]* @p_str)"   --->   Operation 39 'specinterface' <Predicate = true> <Delay = 0.00>
ST_2 : Operation 40 [1/1] (0.00ns)   --->   "call void (...)* @_ssdm_op_SpecInterface(i1* @rxEng_dataBuffer5_V_s, [8 x i8]* @ap_fifo_str, i32 0, i32 0, [1 x i8]* @p_str, i32 0, i32 0, [1 x i8]* @p_str, [1 x i8]* @p_str, [1 x i8]* @p_str, i32 2, i32 2, i32 16, i32 16, [1 x i8]* @p_str, [1 x i8]* @p_str)"   --->   Operation 40 'specinterface' <Predicate = true> <Delay = 0.00>
ST_2 : Operation 41 [1/1] (0.00ns)   --->   "call void (...)* @_ssdm_op_SpecPipeline(i32 1, i32 1, i32 1, i32 0, [1 x i8]* @p_str566) nounwind" [/home/paulrr2/Projects/ece527/babelsoc/fpga-network-stack/hls/toe/rx_engine/../../axi_utils.hpp:511]   --->   Operation 41 'specpipeline' <Predicate = true> <Delay = 0.00>
ST_2 : Operation 42 [1/1] (2.80ns)   --->   "call void @_ssdm_op_Write.ap_fifo.volatile.i64P.i8P.i1P(i64* @rxEng_dataBuffer5_V_1, i8* @rxEng_dataBuffer5_V_2, i1* @rxEng_dataBuffer5_V_s, i64 %sendWord_data_V, i8 %sendWord_keep_V, i1 %sendWord_last_V) nounwind" [/home/paulrr2/Projects/ece527/babelsoc/fpga-network-stack/hls/toe/rx_engine/../../axi_utils.hpp:561]   --->   Operation 42 'write' <Predicate = (!ls_writeRemainder_1_s & tmp)> <Delay = 2.80> <Core = "FIFO">   --->   Core 32 'FIFO' <Latency = 0> <II = 1> <Delay = 3.63> <Storage> <Opcode : 'read' 'write' 'nbread' 'nbwrite'> <Ports = 0> <Width = 64> <Depth = 2> <FIFO>
ST_2 : Operation 43 [1/1] (0.00ns)   --->   "%ls_firstWord_1_new_0 = phi i1 [ true, %2 ], [ false, %_ifconv ]"   --->   Operation 43 'phi' 'ls_firstWord_1_new_0' <Predicate = (!ls_writeRemainder_1_s & tmp)> <Delay = 0.00>
ST_2 : Operation 44 [1/1] (0.00ns)   --->   "store i1 %ls_firstWord_1_new_0, i1* @ls_firstWord_1, align 1" [/home/paulrr2/Projects/ece527/babelsoc/fpga-network-stack/hls/toe/rx_engine/../../axi_utils.hpp:564]   --->   Operation 44 'store' <Predicate = (!ls_writeRemainder_1_s & tmp)> <Delay = 0.00>
ST_2 : Operation 45 [1/1] (0.00ns)   --->   "br label %._crit_edge80.i" [/home/paulrr2/Projects/ece527/babelsoc/fpga-network-stack/hls/toe/rx_engine/../../axi_utils.hpp:571]   --->   Operation 45 'br' <Predicate = (!ls_writeRemainder_1_s & tmp)> <Delay = 0.00>
ST_2 : Operation 46 [1/1] (0.00ns)   --->   "br label %"lshiftWordByOctet<64, 2>.exit""   --->   Operation 46 'br' <Predicate = (!ls_writeRemainder_1_s)> <Delay = 0.00>
ST_2 : Operation 47 [1/1] (0.00ns)   --->   "%p_Result_s = call i64 @_ssdm_op_BitConcatenate.i64.i32.i32(i32 0, i32 %p_Result_i) nounwind" [/home/paulrr2/Projects/ece527/babelsoc/fpga-network-stack/hls/toe/rx_engine/../../axi_utils.hpp:523]   --->   Operation 47 'bitconcatenate' 'p_Result_s' <Predicate = (ls_writeRemainder_1_s)> <Delay = 0.00>
ST_2 : Operation 48 [1/1] (0.00ns)   --->   "%p_Result_68 = call i8 @_ssdm_op_BitConcatenate.i8.i4.i4(i4 0, i4 %p_Result_i_394) nounwind" [/home/paulrr2/Projects/ece527/babelsoc/fpga-network-stack/hls/toe/rx_engine/../../axi_utils.hpp:525]   --->   Operation 48 'bitconcatenate' 'p_Result_68' <Predicate = (ls_writeRemainder_1_s)> <Delay = 0.00>
ST_2 : Operation 49 [1/1] (2.80ns)   --->   "call void @_ssdm_op_Write.ap_fifo.volatile.i64P.i8P.i1P(i64* @rxEng_dataBuffer5_V_1, i8* @rxEng_dataBuffer5_V_2, i1* @rxEng_dataBuffer5_V_s, i64 %p_Result_s, i8 %p_Result_68, i1 true) nounwind" [/home/paulrr2/Projects/ece527/babelsoc/fpga-network-stack/hls/toe/rx_engine/../../axi_utils.hpp:528]   --->   Operation 49 'write' <Predicate = (ls_writeRemainder_1_s)> <Delay = 2.80> <Core = "FIFO">   --->   Core 32 'FIFO' <Latency = 0> <II = 1> <Delay = 3.63> <Storage> <Opcode : 'read' 'write' 'nbread' 'nbwrite'> <Ports = 0> <Width = 64> <Depth = 2> <FIFO>
ST_2 : Operation 50 [1/1] (0.00ns)   --->   "br label %"lshiftWordByOctet<64, 2>.exit"" [/home/paulrr2/Projects/ece527/babelsoc/fpga-network-stack/hls/toe/rx_engine/../../axi_utils.hpp:530]   --->   Operation 50 'br' <Predicate = (ls_writeRemainder_1_s)> <Delay = 0.00>
ST_2 : Operation 51 [1/1] (0.00ns)   --->   "ret void"   --->   Operation 51 'ret' <Predicate = true> <Delay = 0.00>


============================================================
+ Verbose Summary: Timing violations
============================================================
Target clock period: 6.4ns, clock uncertainty: 0.8ns.

 <State 1>: 6.85ns
The critical path consists of the following:
	fifo read on port 'rxEng_dataBuffer4_V_1' (/home/paulrr2/Projects/ece527/babelsoc/fpga-network-stack/hls/toe/rx_engine/../../axi_utils.hpp:533) [30]  (2.8 ns)
	'icmp' operation ('sendWord.last.V', /home/paulrr2/Projects/ece527/babelsoc/fpga-network-stack/hls/toe/rx_engine/../../axi_utils.hpp:548) [46]  (1.3 ns)
	'xor' operation ('xor_ln761', /home/paulrr2/Projects/ece527/babelsoc/fpga-network-stack/hls/toe/rx_engine/../../axi_utils.hpp:568) [52]  (0.978 ns)
	'store' operation ('store_ln568', /home/paulrr2/Projects/ece527/babelsoc/fpga-network-stack/hls/toe/rx_engine/../../axi_utils.hpp:568) of variable 'xor_ln761', /home/paulrr2/Projects/ece527/babelsoc/fpga-network-stack/hls/toe/rx_engine/../../axi_utils.hpp:568 on static variable 'ls_writeRemainder_1' [53]  (1.77 ns)

 <State 2>: 2.8ns
The critical path consists of the following:
	fifo write on port 'rxEng_dataBuffer5_V_1' (/home/paulrr2/Projects/ece527/babelsoc/fpga-network-stack/hls/toe/rx_engine/../../axi_utils.hpp:561) [47]  (2.8 ns)


============================================================
+ Verbose Summary: Binding
============================================================
N/A
* FSMD analyzer results:
  - Output states:
 - Input state : 
  - Chain level:
	State 1
	State 2


============================================================
+ Verbose Summary: Datapath Resource usage 
============================================================
N/A
