

================================================================
== Vivado HLS Report for 'merge_header_meta'
================================================================
* Date:           Sat Dec 12 19:35:01 2020

* Version:        2019.2.1 (Build 2724168 on Thu Dec 05 05:19:09 MST 2019)
* Project:        toe_prj
* Solution:       solution1
* Product family: zynq
* Target device:  xc7z020-clg400-1


================================================================
== Performance Estimates
================================================================
+ Timing: 
    * Summary: 
    +--------+---------+----------+------------+
    |  Clock |  Target | Estimated| Uncertainty|
    +--------+---------+----------+------------+
    |ap_clk  | 6.40 ns | 5.080 ns |   0.80 ns  |
    +--------+---------+----------+------------+

+ Latency: 
    * Summary: 
    +---------+---------+----------+----------+-----+-----+----------+
    |  Latency (cycles) |  Latency (absolute) |  Interval | Pipeline |
    |   min   |   max   |    min   |    max   | min | max |   Type   |
    +---------+---------+----------+----------+-----+-----+----------+
    |        1|        1| 6.400 ns | 6.400 ns |    1|    1| function |
    +---------+---------+----------+----------+-----+-----+----------+

    + Detail: 
        * Instance: 
        N/A

        * Loop: 
        N/A



================================================================
== Utilization Estimates
================================================================
* Summary: 
+-----------------+---------+-------+--------+-------+-----+
|       Name      | BRAM_18K| DSP48E|   FF   |  LUT  | URAM|
+-----------------+---------+-------+--------+-------+-----+
|DSP              |        -|      -|       -|      -|    -|
|Expression       |        -|      -|       0|     37|    -|
|FIFO             |        -|      -|       -|      -|    -|
|Instance         |        -|      -|       -|      -|    -|
|Memory           |        -|      -|       -|      -|    -|
|Multiplexer      |        -|      -|       -|    132|    -|
|Register         |        -|      -|     220|      -|    -|
+-----------------+---------+-------+--------+-------+-----+
|Total            |        0|      0|     220|    169|    0|
+-----------------+---------+-------+--------+-------+-----+
|Available        |      280|    220|  106400|  53200|    0|
+-----------------+---------+-------+--------+-------+-----+
|Utilization (%)  |        0|      0|   ~0   |   ~0  |    0|
+-----------------+---------+-------+--------+-------+-----+

+ Detail: 
    * Instance: 
    N/A

    * DSP48E: 
    N/A

    * Memory: 
    N/A

    * FIFO: 
    N/A

    * Expression: 
    +----------------------------------+----------+-------+---+----+------------+------------+
    |           Variable Name          | Operation| DSP48E| FF| LUT| Bitwidth P0| Bitwidth P1|
    +----------------------------------+----------+-------+---+----+------------+------------+
    |and_ln719_fu_253_p2               |    and   |      0|  0|   2|           1|           1|
    |ap_condition_137                  |    and   |      0|  0|   2|           1|           1|
    |ap_condition_207                  |    and   |      0|  0|   2|           1|           1|
    |ap_condition_249                  |    and   |      0|  0|   2|           1|           1|
    |ap_predicate_op32_read_state1     |    and   |      0|  0|   2|           1|           1|
    |ap_predicate_op48_write_state2    |    and   |      0|  0|   2|           1|           1|
    |ap_predicate_op63_write_state2    |    and   |      0|  0|   2|           1|           1|
    |ap_predicate_op7_read_state1      |    and   |      0|  0|   2|           1|           1|
    |io_acc_block_signal_op7           |    and   |      0|  0|   2|           1|           1|
    |tmp_nbreadreq_fu_132_p3           |    and   |      0|  0|   2|           1|           0|
    |icmp_ln895_fu_247_p2              |   icmp   |      0|  0|   9|           4|           3|
    |ap_block_pp0_stage0_01001         |    or    |      0|  0|   2|           1|           1|
    |ap_block_state1_pp0_stage0_iter0  |    or    |      0|  0|   2|           1|           1|
    |ap_block_state2_pp0_stage0_iter1  |    or    |      0|  0|   2|           1|           1|
    |ap_enable_pp0                     |    xor   |      0|  0|   2|           1|           2|
    +----------------------------------+----------+-------+---+----+------------+------------+
    |Total                             |          |      0|  0|  37|          18|          17|
    +----------------------------------+----------+-------+---+----+------------+------------+

    * Multiplexer: 
    +-------------------------------+----+-----------+-----+-----------+
    |              Name             | LUT| Input Size| Bits| Total Bits|
    +-------------------------------+----+-----------+-----+-----------+
    |ap_done                        |   9|          2|    1|          2|
    |rxEng_headerMetaFifo_10_blk_n  |   9|          2|    1|          2|
    |rxEng_headerMetaFifo_12_blk_n  |   9|          2|    1|          2|
    |rxEng_headerMetaFifo_14_blk_n  |   9|          2|    1|          2|
    |rxEng_headerMetaFifo_16_blk_n  |   9|          2|    1|          2|
    |rxEng_headerMetaFifo_18_blk_n  |   9|          2|    1|          2|
    |rxEng_headerMetaFifo_19_blk_n  |   9|          2|    1|          2|
    |rxEng_headerMetaFifo_20_blk_n  |   9|          2|    1|          2|
    |rxEng_headerMetaFifo_21_blk_n  |   9|          2|    1|          2|
    |rxEng_headerMetaFifo_22_blk_n  |   9|          2|    1|          2|
    |rxEng_headerMetaFifo_23_blk_n  |   9|          2|    1|          2|
    |rxEng_metaDataFifo_V_blk_n     |   9|          2|    1|          2|
    |rxEng_metaDataFifo_V_din       |  15|          3|  108|        324|
    |rxEng_winScaleFifo_V_blk_n     |   9|          2|    1|          2|
    +-------------------------------+----+-----------+-----+-----------+
    |Total                          | 132|         29|  121|        350|
    +-------------------------------+----+-----------+-----+-----------+

    * Register: 
    +----------------------------+----+----+-----+-----------+
    |            Name            | FF | LUT| Bits| Const Bits|
    +----------------------------+----+----+-----+-----------+
    |and_ln719_reg_400           |   1|   0|    1|          0|
    |ap_CS_fsm                   |   1|   0|    1|          0|
    |ap_done_reg                 |   1|   0|    1|          0|
    |ap_enable_reg_pp0_iter1     |   1|   0|    1|          0|
    |meta_ackNumb_V              |  32|   0|   32|          0|
    |meta_ack_V                  |   1|   0|    1|          0|
    |meta_dataOffset_V           |   4|   0|    4|          0|
    |meta_fin_V                  |   1|   0|    1|          0|
    |meta_length_V               |  16|   0|   16|          0|
    |meta_rst_V                  |   1|   0|    1|          0|
    |meta_seqNumb_V              |  32|   0|   32|          0|
    |meta_syn_V                  |   1|   0|    1|          0|
    |meta_winSize_V              |  16|   0|   16|          0|
    |state_V                     |   1|   0|    1|          0|
    |state_V_load_reg_347        |   1|   0|    1|          0|
    |tmp_231_reg_351             |   1|   0|    1|          0|
    |tmp_V_reg_408               |   4|   0|    4|          0|
    |tmp_ackNumb_V_7_reg_360     |  32|   0|   32|          0|
    |tmp_ack_V_1_reg_375         |   1|   0|    1|          0|
    |tmp_dataOffset_V_2_reg_395  |   4|   0|    4|          0|
    |tmp_fin_V_1_reg_390         |   1|   0|    1|          0|
    |tmp_length_V_6_reg_370      |  16|   0|   16|          0|
    |tmp_reg_404                 |   1|   0|    1|          0|
    |tmp_rst_V_1_reg_380         |   1|   0|    1|          0|
    |tmp_seqNumb_V_7_reg_355     |  32|   0|   32|          0|
    |tmp_syn_V_1_reg_385         |   1|   0|    1|          0|
    |tmp_winSize_V_1_reg_365     |  16|   0|   16|          0|
    +----------------------------+----+----+-----+-----------+
    |Total                       | 220|   0|  220|          0|
    +----------------------------+----+----+-----+-----------+



================================================================
== Interface
================================================================
* Summary: 
+---------------------------------+-----+-----+------------+-------------------------+--------------+
|            RTL Ports            | Dir | Bits|  Protocol  |      Source Object      |    C Type    |
+---------------------------------+-----+-----+------------+-------------------------+--------------+
|ap_clk                           |  in |    1| ap_ctrl_hs |    merge_header_meta    | return value |
|ap_rst                           |  in |    1| ap_ctrl_hs |    merge_header_meta    | return value |
|ap_start                         |  in |    1| ap_ctrl_hs |    merge_header_meta    | return value |
|ap_done                          | out |    1| ap_ctrl_hs |    merge_header_meta    | return value |
|ap_continue                      |  in |    1| ap_ctrl_hs |    merge_header_meta    | return value |
|ap_idle                          | out |    1| ap_ctrl_hs |    merge_header_meta    | return value |
|ap_ready                         | out |    1| ap_ctrl_hs |    merge_header_meta    | return value |
|rxEng_headerMetaFifo_20_dout     |  in |   32|   ap_fifo  | rxEng_headerMetaFifo_20 |    pointer   |
|rxEng_headerMetaFifo_20_empty_n  |  in |    1|   ap_fifo  | rxEng_headerMetaFifo_20 |    pointer   |
|rxEng_headerMetaFifo_20_read     | out |    1|   ap_fifo  | rxEng_headerMetaFifo_20 |    pointer   |
|rxEng_headerMetaFifo_12_dout     |  in |   32|   ap_fifo  | rxEng_headerMetaFifo_12 |    pointer   |
|rxEng_headerMetaFifo_12_empty_n  |  in |    1|   ap_fifo  | rxEng_headerMetaFifo_12 |    pointer   |
|rxEng_headerMetaFifo_12_read     | out |    1|   ap_fifo  | rxEng_headerMetaFifo_12 |    pointer   |
|rxEng_headerMetaFifo_23_dout     |  in |   16|   ap_fifo  | rxEng_headerMetaFifo_23 |    pointer   |
|rxEng_headerMetaFifo_23_empty_n  |  in |    1|   ap_fifo  | rxEng_headerMetaFifo_23 |    pointer   |
|rxEng_headerMetaFifo_23_read     | out |    1|   ap_fifo  | rxEng_headerMetaFifo_23 |    pointer   |
|rxEng_headerMetaFifo_22_dout     |  in |    4|   ap_fifo  | rxEng_headerMetaFifo_22 |    pointer   |
|rxEng_headerMetaFifo_22_empty_n  |  in |    1|   ap_fifo  | rxEng_headerMetaFifo_22 |    pointer   |
|rxEng_headerMetaFifo_22_read     | out |    1|   ap_fifo  | rxEng_headerMetaFifo_22 |    pointer   |
|rxEng_headerMetaFifo_18_dout     |  in |   16|   ap_fifo  | rxEng_headerMetaFifo_18 |    pointer   |
|rxEng_headerMetaFifo_18_empty_n  |  in |    1|   ap_fifo  | rxEng_headerMetaFifo_18 |    pointer   |
|rxEng_headerMetaFifo_18_read     | out |    1|   ap_fifo  | rxEng_headerMetaFifo_18 |    pointer   |
|rxEng_headerMetaFifo_10_dout     |  in |    1|   ap_fifo  | rxEng_headerMetaFifo_10 |    pointer   |
|rxEng_headerMetaFifo_10_empty_n  |  in |    1|   ap_fifo  | rxEng_headerMetaFifo_10 |    pointer   |
|rxEng_headerMetaFifo_10_read     | out |    1|   ap_fifo  | rxEng_headerMetaFifo_10 |    pointer   |
|rxEng_headerMetaFifo_19_dout     |  in |    1|   ap_fifo  | rxEng_headerMetaFifo_19 |    pointer   |
|rxEng_headerMetaFifo_19_empty_n  |  in |    1|   ap_fifo  | rxEng_headerMetaFifo_19 |    pointer   |
|rxEng_headerMetaFifo_19_read     | out |    1|   ap_fifo  | rxEng_headerMetaFifo_19 |    pointer   |
|rxEng_headerMetaFifo_21_dout     |  in |    1|   ap_fifo  | rxEng_headerMetaFifo_21 |    pointer   |
|rxEng_headerMetaFifo_21_empty_n  |  in |    1|   ap_fifo  | rxEng_headerMetaFifo_21 |    pointer   |
|rxEng_headerMetaFifo_21_read     | out |    1|   ap_fifo  | rxEng_headerMetaFifo_21 |    pointer   |
|rxEng_headerMetaFifo_16_dout     |  in |    1|   ap_fifo  | rxEng_headerMetaFifo_16 |    pointer   |
|rxEng_headerMetaFifo_16_empty_n  |  in |    1|   ap_fifo  | rxEng_headerMetaFifo_16 |    pointer   |
|rxEng_headerMetaFifo_16_read     | out |    1|   ap_fifo  | rxEng_headerMetaFifo_16 |    pointer   |
|rxEng_headerMetaFifo_14_dout     |  in |    4|   ap_fifo  | rxEng_headerMetaFifo_14 |    pointer   |
|rxEng_headerMetaFifo_14_empty_n  |  in |    1|   ap_fifo  | rxEng_headerMetaFifo_14 |    pointer   |
|rxEng_headerMetaFifo_14_read     | out |    1|   ap_fifo  | rxEng_headerMetaFifo_14 |    pointer   |
|rxEng_winScaleFifo_V_dout        |  in |    4|   ap_fifo  |   rxEng_winScaleFifo_V  |    pointer   |
|rxEng_winScaleFifo_V_empty_n     |  in |    1|   ap_fifo  |   rxEng_winScaleFifo_V  |    pointer   |
|rxEng_winScaleFifo_V_read        | out |    1|   ap_fifo  |   rxEng_winScaleFifo_V  |    pointer   |
|rxEng_metaDataFifo_V_din         | out |  108|   ap_fifo  |   rxEng_metaDataFifo_V  |    pointer   |
|rxEng_metaDataFifo_V_full_n      |  in |    1|   ap_fifo  |   rxEng_metaDataFifo_V  |    pointer   |
|rxEng_metaDataFifo_V_write       | out |    1|   ap_fifo  |   rxEng_metaDataFifo_V  |    pointer   |
+---------------------------------+-----+-----+------------+-------------------------+--------------+

============================================================
+ Verbose Summary: Synthesis Manager
============================================================
InlineROM: 1
ExposeGlobal: 0
============================================================
+ Verbose Summary: CDFG Model
============================================================
IsTopModel: 0
ResetActiveHigh: 1
IsCombinational: 2
IsDatapathOnly: 0
HasWiredReturn: 1
HasMFsm: 2
HasVarLatency: 0
IsPipeline: 1
IsRtlPipelined: 1
IsInstanceOverlapped: 0
IsDontTouch: 0
HasImplIP: 0
IsGatedGlobalClock: 0

+ Individual pipeline summary: 
  * Pipeline-0: initiation interval (II) = 1, depth = 2


============================================================
+ Verbose Summary: Schedule
============================================================
* Number of FSM states : 2
* Pipeline : 1
  Pipeline-0 : II = 1, D = 2, States = { 1 2 }
* Dataflow Pipeline: 0

* FSM state transitions: 
1 --> 2 
2 --> 

* FSM state operations: 

State 1 <SV = 0> <Delay = 5.08>
ST_1 : Operation 3 [1/1] (0.00ns)   --->   "%state_V_load = load i1* @state_V, align 1" [/home/paulrr2/Projects/ece527/babelsoc/fpga-network-stack/hls/toe/rx_engine/rx_engine.cpp:712]   --->   Operation 3 'load' 'state_V_load' <Predicate = true> <Delay = 0.00>
ST_1 : Operation 4 [1/1] (0.00ns)   --->   "br i1 %state_V_load, label %4, label %0" [/home/paulrr2/Projects/ece527/babelsoc/fpga-network-stack/hls/toe/rx_engine/rx_engine.cpp:712]   --->   Operation 4 'br' <Predicate = true> <Delay = 0.00>
ST_1 : Operation 5 [1/1] (0.00ns)   --->   "%tmp_231 = call i1 @_ssdm_op_NbReadReq.ap_fifo.i32P.i32P.i16P.i4P.i16P.i1P.i1P.i1P.i1P.i4P(i32* @rxEng_headerMetaFifo_20, i32* @rxEng_headerMetaFifo_12, i16* @rxEng_headerMetaFifo_23, i4* @rxEng_headerMetaFifo_22, i16* @rxEng_headerMetaFifo_18, i1* @rxEng_headerMetaFifo_10, i1* @rxEng_headerMetaFifo_19, i1* @rxEng_headerMetaFifo_21, i1* @rxEng_headerMetaFifo_16, i4* @rxEng_headerMetaFifo_14, i32 1) nounwind" [/home/paulrr2/Projects/ece527/babelsoc/fpga-network-stack/hls/toe/rx_engine/rx_engine.cpp:715]   --->   Operation 5 'nbreadreq' 'tmp_231' <Predicate = (!state_V_load)> <Delay = 0.00> <Core = "FIFO">   --->   Core 32 'FIFO' <Latency = 0> <II = 1> <Delay = 3.54> <Storage> <Opcode : 'read' 'write' 'nbread' 'nbwrite'> <Ports = 0> <Width = 16> <Depth = 8> <FIFO>
ST_1 : Operation 6 [1/1] (0.00ns)   --->   "br i1 %tmp_231, label %1, label %._crit_edge3.i" [/home/paulrr2/Projects/ece527/babelsoc/fpga-network-stack/hls/toe/rx_engine/rx_engine.cpp:715]   --->   Operation 6 'br' <Predicate = (!state_V_load)> <Delay = 0.00>
ST_1 : Operation 7 [1/1] (2.80ns)   --->   "%empty = call { i32, i32, i16, i4, i16, i1, i1, i1, i1, i4 } @_ssdm_op_Read.ap_fifo.volatile.i32P.i32P.i16P.i4P.i16P.i1P.i1P.i1P.i1P.i4P(i32* @rxEng_headerMetaFifo_20, i32* @rxEng_headerMetaFifo_12, i16* @rxEng_headerMetaFifo_23, i4* @rxEng_headerMetaFifo_22, i16* @rxEng_headerMetaFifo_18, i1* @rxEng_headerMetaFifo_10, i1* @rxEng_headerMetaFifo_19, i1* @rxEng_headerMetaFifo_21, i1* @rxEng_headerMetaFifo_16, i4* @rxEng_headerMetaFifo_14) nounwind" [/home/paulrr2/Projects/ece527/babelsoc/fpga-network-stack/hls/toe/rx_engine/rx_engine.cpp:718]   --->   Operation 7 'read' 'empty' <Predicate = (!state_V_load & tmp_231)> <Delay = 2.80> <Core = "FIFO">   --->   Core 32 'FIFO' <Latency = 0> <II = 1> <Delay = 3.54> <Storage> <Opcode : 'read' 'write' 'nbread' 'nbwrite'> <Ports = 0> <Width = 16> <Depth = 8> <FIFO>
ST_1 : Operation 8 [1/1] (0.00ns)   --->   "%tmp_seqNumb_V_7 = extractvalue { i32, i32, i16, i4, i16, i1, i1, i1, i1, i4 } %empty, 0" [/home/paulrr2/Projects/ece527/babelsoc/fpga-network-stack/hls/toe/rx_engine/rx_engine.cpp:718]   --->   Operation 8 'extractvalue' 'tmp_seqNumb_V_7' <Predicate = (!state_V_load & tmp_231)> <Delay = 0.00>
ST_1 : Operation 9 [1/1] (0.00ns)   --->   "%tmp_ackNumb_V_7 = extractvalue { i32, i32, i16, i4, i16, i1, i1, i1, i1, i4 } %empty, 1" [/home/paulrr2/Projects/ece527/babelsoc/fpga-network-stack/hls/toe/rx_engine/rx_engine.cpp:718]   --->   Operation 9 'extractvalue' 'tmp_ackNumb_V_7' <Predicate = (!state_V_load & tmp_231)> <Delay = 0.00>
ST_1 : Operation 10 [1/1] (0.00ns)   --->   "%tmp_winSize_V_1 = extractvalue { i32, i32, i16, i4, i16, i1, i1, i1, i1, i4 } %empty, 2" [/home/paulrr2/Projects/ece527/babelsoc/fpga-network-stack/hls/toe/rx_engine/rx_engine.cpp:718]   --->   Operation 10 'extractvalue' 'tmp_winSize_V_1' <Predicate = (!state_V_load & tmp_231)> <Delay = 0.00>
ST_1 : Operation 11 [1/1] (0.00ns)   --->   "%tmp_length_V_6 = extractvalue { i32, i32, i16, i4, i16, i1, i1, i1, i1, i4 } %empty, 4" [/home/paulrr2/Projects/ece527/babelsoc/fpga-network-stack/hls/toe/rx_engine/rx_engine.cpp:718]   --->   Operation 11 'extractvalue' 'tmp_length_V_6' <Predicate = (!state_V_load & tmp_231)> <Delay = 0.00>
ST_1 : Operation 12 [1/1] (0.00ns)   --->   "%tmp_ack_V_1 = extractvalue { i32, i32, i16, i4, i16, i1, i1, i1, i1, i4 } %empty, 5" [/home/paulrr2/Projects/ece527/babelsoc/fpga-network-stack/hls/toe/rx_engine/rx_engine.cpp:718]   --->   Operation 12 'extractvalue' 'tmp_ack_V_1' <Predicate = (!state_V_load & tmp_231)> <Delay = 0.00>
ST_1 : Operation 13 [1/1] (0.00ns)   --->   "%tmp_rst_V_1 = extractvalue { i32, i32, i16, i4, i16, i1, i1, i1, i1, i4 } %empty, 6" [/home/paulrr2/Projects/ece527/babelsoc/fpga-network-stack/hls/toe/rx_engine/rx_engine.cpp:718]   --->   Operation 13 'extractvalue' 'tmp_rst_V_1' <Predicate = (!state_V_load & tmp_231)> <Delay = 0.00>
ST_1 : Operation 14 [1/1] (0.00ns)   --->   "%tmp_syn_V_1 = extractvalue { i32, i32, i16, i4, i16, i1, i1, i1, i1, i4 } %empty, 7" [/home/paulrr2/Projects/ece527/babelsoc/fpga-network-stack/hls/toe/rx_engine/rx_engine.cpp:718]   --->   Operation 14 'extractvalue' 'tmp_syn_V_1' <Predicate = (!state_V_load & tmp_231)> <Delay = 0.00>
ST_1 : Operation 15 [1/1] (0.00ns)   --->   "%tmp_fin_V_1 = extractvalue { i32, i32, i16, i4, i16, i1, i1, i1, i1, i4 } %empty, 8" [/home/paulrr2/Projects/ece527/babelsoc/fpga-network-stack/hls/toe/rx_engine/rx_engine.cpp:718]   --->   Operation 15 'extractvalue' 'tmp_fin_V_1' <Predicate = (!state_V_load & tmp_231)> <Delay = 0.00>
ST_1 : Operation 16 [1/1] (0.00ns)   --->   "%tmp_dataOffset_V_2 = extractvalue { i32, i32, i16, i4, i16, i1, i1, i1, i1, i4 } %empty, 9" [/home/paulrr2/Projects/ece527/babelsoc/fpga-network-stack/hls/toe/rx_engine/rx_engine.cpp:718]   --->   Operation 16 'extractvalue' 'tmp_dataOffset_V_2' <Predicate = (!state_V_load & tmp_231)> <Delay = 0.00>
ST_1 : Operation 17 [1/1] (0.00ns)   --->   "store i32 %tmp_seqNumb_V_7, i32* @meta_seqNumb_V, align 4" [/home/paulrr2/Projects/ece527/babelsoc/fpga-network-stack/hls/toe/rx_engine/rx_engine.hpp:53->/home/paulrr2/Projects/ece527/babelsoc/fpga-network-stack/hls/toe/rx_engine/rx_engine.cpp:718]   --->   Operation 17 'store' <Predicate = (!state_V_load & tmp_231)> <Delay = 0.00>
ST_1 : Operation 18 [1/1] (0.00ns)   --->   "store i32 %tmp_ackNumb_V_7, i32* @meta_ackNumb_V, align 4" [/home/paulrr2/Projects/ece527/babelsoc/fpga-network-stack/hls/toe/rx_engine/rx_engine.hpp:53->/home/paulrr2/Projects/ece527/babelsoc/fpga-network-stack/hls/toe/rx_engine/rx_engine.cpp:718]   --->   Operation 18 'store' <Predicate = (!state_V_load & tmp_231)> <Delay = 0.00>
ST_1 : Operation 19 [1/1] (0.00ns)   --->   "store i16 %tmp_winSize_V_1, i16* @meta_winSize_V, align 4" [/home/paulrr2/Projects/ece527/babelsoc/fpga-network-stack/hls/toe/rx_engine/rx_engine.hpp:53->/home/paulrr2/Projects/ece527/babelsoc/fpga-network-stack/hls/toe/rx_engine/rx_engine.cpp:718]   --->   Operation 19 'store' <Predicate = (!state_V_load & tmp_231)> <Delay = 0.00>
ST_1 : Operation 20 [1/1] (0.00ns)   --->   "store i16 %tmp_length_V_6, i16* @meta_length_V, align 4" [/home/paulrr2/Projects/ece527/babelsoc/fpga-network-stack/hls/toe/rx_engine/rx_engine.hpp:53->/home/paulrr2/Projects/ece527/babelsoc/fpga-network-stack/hls/toe/rx_engine/rx_engine.cpp:718]   --->   Operation 20 'store' <Predicate = (!state_V_load & tmp_231)> <Delay = 0.00>
ST_1 : Operation 21 [1/1] (0.00ns)   --->   "store i1 %tmp_ack_V_1, i1* @meta_ack_V, align 2" [/home/paulrr2/Projects/ece527/babelsoc/fpga-network-stack/hls/toe/rx_engine/rx_engine.hpp:53->/home/paulrr2/Projects/ece527/babelsoc/fpga-network-stack/hls/toe/rx_engine/rx_engine.cpp:718]   --->   Operation 21 'store' <Predicate = (!state_V_load & tmp_231)> <Delay = 0.00>
ST_1 : Operation 22 [1/1] (0.00ns)   --->   "store i1 %tmp_rst_V_1, i1* @meta_rst_V, align 1" [/home/paulrr2/Projects/ece527/babelsoc/fpga-network-stack/hls/toe/rx_engine/rx_engine.hpp:53->/home/paulrr2/Projects/ece527/babelsoc/fpga-network-stack/hls/toe/rx_engine/rx_engine.cpp:718]   --->   Operation 22 'store' <Predicate = (!state_V_load & tmp_231)> <Delay = 0.00>
ST_1 : Operation 23 [1/1] (0.00ns)   --->   "store i1 %tmp_syn_V_1, i1* @meta_syn_V, align 4" [/home/paulrr2/Projects/ece527/babelsoc/fpga-network-stack/hls/toe/rx_engine/rx_engine.hpp:53->/home/paulrr2/Projects/ece527/babelsoc/fpga-network-stack/hls/toe/rx_engine/rx_engine.cpp:718]   --->   Operation 23 'store' <Predicate = (!state_V_load & tmp_231)> <Delay = 0.00>
ST_1 : Operation 24 [1/1] (0.00ns)   --->   "store i1 %tmp_fin_V_1, i1* @meta_fin_V, align 1" [/home/paulrr2/Projects/ece527/babelsoc/fpga-network-stack/hls/toe/rx_engine/rx_engine.hpp:53->/home/paulrr2/Projects/ece527/babelsoc/fpga-network-stack/hls/toe/rx_engine/rx_engine.cpp:718]   --->   Operation 24 'store' <Predicate = (!state_V_load & tmp_231)> <Delay = 0.00>
ST_1 : Operation 25 [1/1] (0.00ns)   --->   "store i4 %tmp_dataOffset_V_2, i4* @meta_dataOffset_V, align 2" [/home/paulrr2/Projects/ece527/babelsoc/fpga-network-stack/hls/toe/rx_engine/rx_engine.hpp:53->/home/paulrr2/Projects/ece527/babelsoc/fpga-network-stack/hls/toe/rx_engine/rx_engine.cpp:718]   --->   Operation 25 'store' <Predicate = (!state_V_load & tmp_231)> <Delay = 0.00>
ST_1 : Operation 26 [1/1] (1.30ns)   --->   "%icmp_ln895 = icmp ugt i4 %tmp_dataOffset_V_2, 5" [/home/paulrr2/Projects/ece527/babelsoc/fpga-network-stack/hls/toe/rx_engine/rx_engine.cpp:719]   --->   Operation 26 'icmp' 'icmp_ln895' <Predicate = (!state_V_load & tmp_231)> <Delay = 1.30> <Core = "Cmp">   --->   Core 25 'Cmp' <Latency = 0> <II = 1> <Delay = 1.30> <FuncUnit> <Opcode : 'icmp'> <InPorts = 2> <OutPorts = 1>
ST_1 : Operation 27 [1/1] (0.97ns)   --->   "%and_ln719 = and i1 %tmp_syn_V_1, %icmp_ln895" [/home/paulrr2/Projects/ece527/babelsoc/fpga-network-stack/hls/toe/rx_engine/rx_engine.cpp:719]   --->   Operation 27 'and' 'and_ln719' <Predicate = (!state_V_load & tmp_231)> <Delay = 0.97> <Core = "LogicGate">   --->   Core 27 'LogicGate' <Latency = 0> <II = 1> <Delay = 0.97> <FuncUnit> <Opcode : 'and' 'or' 'xor'> <InPorts = 2> <OutPorts = 1>
ST_1 : Operation 28 [1/1] (0.00ns)   --->   "br i1 %and_ln719, label %2, label %._crit_edge4.i" [/home/paulrr2/Projects/ece527/babelsoc/fpga-network-stack/hls/toe/rx_engine/rx_engine.cpp:719]   --->   Operation 28 'br' <Predicate = (!state_V_load & tmp_231)> <Delay = 0.00>
ST_1 : Operation 29 [1/1] (1.76ns)   --->   "store i1 true, i1* @state_V, align 1" [/home/paulrr2/Projects/ece527/babelsoc/fpga-network-stack/hls/toe/rx_engine/rx_engine.cpp:721]   --->   Operation 29 'store' <Predicate = (!state_V_load & tmp_231 & and_ln719)> <Delay = 1.76>
ST_1 : Operation 30 [1/1] (0.00ns)   --->   "%tmp = call i1 @_ssdm_op_NbReadReq.ap_fifo.i4P(i4* @rxEng_winScaleFifo_V, i32 1) nounwind" [/home/paulrr2/Projects/ece527/babelsoc/fpga-network-stack/hls/toe/rx_engine/rx_engine.cpp:731]   --->   Operation 30 'nbreadreq' 'tmp' <Predicate = (state_V_load)> <Delay = 0.00> <Core = "FIFO">   --->   Core 32 'FIFO' <Latency = 0> <II = 1> <Delay = 3.54> <Storage> <Opcode : 'read' 'write' 'nbread' 'nbwrite'> <Ports = 0> <Width = 16> <Depth = 8> <FIFO>
ST_1 : Operation 31 [1/1] (0.00ns)   --->   "br i1 %tmp, label %5, label %._crit_edge6.i" [/home/paulrr2/Projects/ece527/babelsoc/fpga-network-stack/hls/toe/rx_engine/rx_engine.cpp:731]   --->   Operation 31 'br' <Predicate = (state_V_load)> <Delay = 0.00>
ST_1 : Operation 32 [1/1] (2.80ns)   --->   "%tmp_V = call i4 @_ssdm_op_Read.ap_fifo.volatile.i4P(i4* @rxEng_winScaleFifo_V) nounwind" [/home/paulrr2/Projects/ece527/babelsoc/fpga-network-stack/hls/toe/rx_engine/rx_engine.cpp:734]   --->   Operation 32 'read' 'tmp_V' <Predicate = (state_V_load & tmp)> <Delay = 2.80> <Core = "FIFO">   --->   Core 32 'FIFO' <Latency = 0> <II = 1> <Delay = 3.54> <Storage> <Opcode : 'read' 'write' 'nbread' 'nbwrite'> <Ports = 0> <Width = 16> <Depth = 8> <FIFO>
ST_1 : Operation 33 [1/1] (1.76ns)   --->   "store i1 false, i1* @state_V, align 1" [/home/paulrr2/Projects/ece527/babelsoc/fpga-network-stack/hls/toe/rx_engine/rx_engine.cpp:736]   --->   Operation 33 'store' <Predicate = (state_V_load & tmp)> <Delay = 1.76>

State 2 <SV = 1> <Delay = 2.80>
ST_2 : Operation 34 [1/1] (0.00ns)   --->   "call void (...)* @_ssdm_op_SpecInterface(i1* @rxEng_headerMetaFifo_10, [8 x i8]* @ap_fifo_str, i32 0, i32 0, [1 x i8]* @p_str, i32 0, i32 0, [1 x i8]* @p_str, [1 x i8]* @p_str, [1 x i8]* @p_str, i32 2, i32 2, i32 16, i32 16, [1 x i8]* @p_str, [1 x i8]* @p_str)"   --->   Operation 34 'specinterface' <Predicate = true> <Delay = 0.00>
ST_2 : Operation 35 [1/1] (0.00ns)   --->   "call void (...)* @_ssdm_op_SpecInterface(i32* @rxEng_headerMetaFifo_12, [8 x i8]* @ap_fifo_str, i32 0, i32 0, [1 x i8]* @p_str, i32 0, i32 0, [1 x i8]* @p_str, [1 x i8]* @p_str, [1 x i8]* @p_str, i32 2, i32 2, i32 16, i32 16, [1 x i8]* @p_str, [1 x i8]* @p_str)"   --->   Operation 35 'specinterface' <Predicate = true> <Delay = 0.00>
ST_2 : Operation 36 [1/1] (0.00ns)   --->   "call void (...)* @_ssdm_op_SpecInterface(i4* @rxEng_headerMetaFifo_14, [8 x i8]* @ap_fifo_str, i32 0, i32 0, [1 x i8]* @p_str, i32 0, i32 0, [1 x i8]* @p_str, [1 x i8]* @p_str, [1 x i8]* @p_str, i32 2, i32 2, i32 16, i32 16, [1 x i8]* @p_str, [1 x i8]* @p_str)"   --->   Operation 36 'specinterface' <Predicate = true> <Delay = 0.00>
ST_2 : Operation 37 [1/1] (0.00ns)   --->   "call void (...)* @_ssdm_op_SpecInterface(i1* @rxEng_headerMetaFifo_16, [8 x i8]* @ap_fifo_str, i32 0, i32 0, [1 x i8]* @p_str, i32 0, i32 0, [1 x i8]* @p_str, [1 x i8]* @p_str, [1 x i8]* @p_str, i32 2, i32 2, i32 16, i32 16, [1 x i8]* @p_str, [1 x i8]* @p_str)"   --->   Operation 37 'specinterface' <Predicate = true> <Delay = 0.00>
ST_2 : Operation 38 [1/1] (0.00ns)   --->   "call void (...)* @_ssdm_op_SpecInterface(i16* @rxEng_headerMetaFifo_18, [8 x i8]* @ap_fifo_str, i32 0, i32 0, [1 x i8]* @p_str, i32 0, i32 0, [1 x i8]* @p_str, [1 x i8]* @p_str, [1 x i8]* @p_str, i32 2, i32 2, i32 16, i32 16, [1 x i8]* @p_str, [1 x i8]* @p_str)"   --->   Operation 38 'specinterface' <Predicate = true> <Delay = 0.00>
ST_2 : Operation 39 [1/1] (0.00ns)   --->   "call void (...)* @_ssdm_op_SpecInterface(i1* @rxEng_headerMetaFifo_19, [8 x i8]* @ap_fifo_str, i32 0, i32 0, [1 x i8]* @p_str, i32 0, i32 0, [1 x i8]* @p_str, [1 x i8]* @p_str, [1 x i8]* @p_str, i32 2, i32 2, i32 16, i32 16, [1 x i8]* @p_str, [1 x i8]* @p_str)"   --->   Operation 39 'specinterface' <Predicate = true> <Delay = 0.00>
ST_2 : Operation 40 [1/1] (0.00ns)   --->   "call void (...)* @_ssdm_op_SpecInterface(i32* @rxEng_headerMetaFifo_20, [8 x i8]* @ap_fifo_str, i32 0, i32 0, [1 x i8]* @p_str, i32 0, i32 0, [1 x i8]* @p_str, [1 x i8]* @p_str, [1 x i8]* @p_str, i32 2, i32 2, i32 16, i32 16, [1 x i8]* @p_str, [1 x i8]* @p_str)"   --->   Operation 40 'specinterface' <Predicate = true> <Delay = 0.00>
ST_2 : Operation 41 [1/1] (0.00ns)   --->   "call void (...)* @_ssdm_op_SpecInterface(i1* @rxEng_headerMetaFifo_21, [8 x i8]* @ap_fifo_str, i32 0, i32 0, [1 x i8]* @p_str, i32 0, i32 0, [1 x i8]* @p_str, [1 x i8]* @p_str, [1 x i8]* @p_str, i32 2, i32 2, i32 16, i32 16, [1 x i8]* @p_str, [1 x i8]* @p_str)"   --->   Operation 41 'specinterface' <Predicate = true> <Delay = 0.00>
ST_2 : Operation 42 [1/1] (0.00ns)   --->   "call void (...)* @_ssdm_op_SpecInterface(i4* @rxEng_headerMetaFifo_22, [8 x i8]* @ap_fifo_str, i32 0, i32 0, [1 x i8]* @p_str, i32 0, i32 0, [1 x i8]* @p_str, [1 x i8]* @p_str, [1 x i8]* @p_str, i32 2, i32 2, i32 16, i32 16, [1 x i8]* @p_str, [1 x i8]* @p_str)"   --->   Operation 42 'specinterface' <Predicate = true> <Delay = 0.00>
ST_2 : Operation 43 [1/1] (0.00ns)   --->   "call void (...)* @_ssdm_op_SpecInterface(i16* @rxEng_headerMetaFifo_23, [8 x i8]* @ap_fifo_str, i32 0, i32 0, [1 x i8]* @p_str, i32 0, i32 0, [1 x i8]* @p_str, [1 x i8]* @p_str, [1 x i8]* @p_str, i32 2, i32 2, i32 16, i32 16, [1 x i8]* @p_str, [1 x i8]* @p_str)"   --->   Operation 43 'specinterface' <Predicate = true> <Delay = 0.00>
ST_2 : Operation 44 [1/1] (0.00ns)   --->   "call void (...)* @_ssdm_op_SpecInterface(i108* @rxEng_metaDataFifo_V, [8 x i8]* @ap_fifo_str, i32 0, i32 0, [1 x i8]* @p_str, i32 0, i32 0, [1 x i8]* @p_str, [1 x i8]* @p_str, [1 x i8]* @p_str, i32 2, i32 2, i32 16, i32 16, [1 x i8]* @p_str, [1 x i8]* @p_str)"   --->   Operation 44 'specinterface' <Predicate = true> <Delay = 0.00>
ST_2 : Operation 45 [1/1] (0.00ns)   --->   "call void (...)* @_ssdm_op_SpecInterface(i4* @rxEng_winScaleFifo_V, [8 x i8]* @ap_fifo_str, i32 0, i32 0, [1 x i8]* @p_str, i32 0, i32 0, [1 x i8]* @p_str, [1 x i8]* @p_str, [1 x i8]* @p_str, i32 2, i32 2, i32 16, i32 16, [1 x i8]* @p_str, [1 x i8]* @p_str)"   --->   Operation 45 'specinterface' <Predicate = true> <Delay = 0.00>
ST_2 : Operation 46 [1/1] (0.00ns)   --->   "call void (...)* @_ssdm_op_SpecPipeline(i32 1, i32 1, i32 1, i32 0, [1 x i8]* @p_str566) nounwind" [/home/paulrr2/Projects/ece527/babelsoc/fpga-network-stack/hls/toe/rx_engine/rx_engine.cpp:706]   --->   Operation 46 'specpipeline' <Predicate = true> <Delay = 0.00>
ST_2 : Operation 47 [1/1] (0.00ns)   --->   "%tmp113 = call i108 @_ssdm_op_BitConcatenate.i108.i4.i1.i1.i1.i1.i16.i4.i16.i32.i32(i4 %tmp_dataOffset_V_2, i1 %tmp_fin_V_1, i1 %tmp_syn_V_1, i1 %tmp_rst_V_1, i1 %tmp_ack_V_1, i16 %tmp_length_V_6, i4 0, i16 %tmp_winSize_V_1, i32 %tmp_ackNumb_V_7, i32 %tmp_seqNumb_V_7) nounwind" [/home/paulrr2/Projects/ece527/babelsoc/fpga-network-stack/hls/toe/rx_engine/rx_engine.cpp:726]   --->   Operation 47 'bitconcatenate' 'tmp113' <Predicate = (!state_V_load & tmp_231 & !and_ln719)> <Delay = 0.00>
ST_2 : Operation 48 [1/1] (2.80ns)   --->   "call void @_ssdm_op_Write.ap_fifo.volatile.i108P(i108* @rxEng_metaDataFifo_V, i108 %tmp113) nounwind" [/home/paulrr2/Projects/ece527/babelsoc/fpga-network-stack/hls/toe/rx_engine/rx_engine.cpp:726]   --->   Operation 48 'write' <Predicate = (!state_V_load & tmp_231 & !and_ln719)> <Delay = 2.80> <Core = "FIFO">   --->   Core 32 'FIFO' <Latency = 0> <II = 1> <Delay = 3.54> <Storage> <Opcode : 'read' 'write' 'nbread' 'nbwrite'> <Ports = 0> <Width = 16> <Depth = 8> <FIFO>
ST_2 : Operation 49 [1/1] (0.00ns)   --->   "br label %3"   --->   Operation 49 'br' <Predicate = (!state_V_load & tmp_231 & !and_ln719)> <Delay = 0.00>
ST_2 : Operation 50 [1/1] (0.00ns)   --->   "br label %3" [/home/paulrr2/Projects/ece527/babelsoc/fpga-network-stack/hls/toe/rx_engine/rx_engine.cpp:722]   --->   Operation 50 'br' <Predicate = (!state_V_load & tmp_231 & and_ln719)> <Delay = 0.00>
ST_2 : Operation 51 [1/1] (0.00ns)   --->   "br label %._crit_edge3.i" [/home/paulrr2/Projects/ece527/babelsoc/fpga-network-stack/hls/toe/rx_engine/rx_engine.cpp:728]   --->   Operation 51 'br' <Predicate = (!state_V_load & tmp_231)> <Delay = 0.00>
ST_2 : Operation 52 [1/1] (0.00ns)   --->   "br label %merge_header_meta.exit" [/home/paulrr2/Projects/ece527/babelsoc/fpga-network-stack/hls/toe/rx_engine/rx_engine.cpp:729]   --->   Operation 52 'br' <Predicate = (!state_V_load)> <Delay = 0.00>
ST_2 : Operation 53 [1/1] (0.00ns)   --->   "%tmp_seqNumb_V = load i32* @meta_seqNumb_V, align 4" [/home/paulrr2/Projects/ece527/babelsoc/fpga-network-stack/hls/toe/rx_engine/rx_engine.cpp:735]   --->   Operation 53 'load' 'tmp_seqNumb_V' <Predicate = (state_V_load & tmp)> <Delay = 0.00>
ST_2 : Operation 54 [1/1] (0.00ns)   --->   "%tmp_ackNumb_V = load i32* @meta_ackNumb_V, align 4" [/home/paulrr2/Projects/ece527/babelsoc/fpga-network-stack/hls/toe/rx_engine/rx_engine.cpp:735]   --->   Operation 54 'load' 'tmp_ackNumb_V' <Predicate = (state_V_load & tmp)> <Delay = 0.00>
ST_2 : Operation 55 [1/1] (0.00ns)   --->   "%tmp_winSize_V = load i16* @meta_winSize_V, align 4" [/home/paulrr2/Projects/ece527/babelsoc/fpga-network-stack/hls/toe/rx_engine/rx_engine.cpp:735]   --->   Operation 55 'load' 'tmp_winSize_V' <Predicate = (state_V_load & tmp)> <Delay = 0.00>
ST_2 : Operation 56 [1/1] (0.00ns)   --->   "%tmp_length_V = load i16* @meta_length_V, align 4" [/home/paulrr2/Projects/ece527/babelsoc/fpga-network-stack/hls/toe/rx_engine/rx_engine.cpp:735]   --->   Operation 56 'load' 'tmp_length_V' <Predicate = (state_V_load & tmp)> <Delay = 0.00>
ST_2 : Operation 57 [1/1] (0.00ns)   --->   "%tmp_ack_V = load i1* @meta_ack_V, align 2" [/home/paulrr2/Projects/ece527/babelsoc/fpga-network-stack/hls/toe/rx_engine/rx_engine.cpp:735]   --->   Operation 57 'load' 'tmp_ack_V' <Predicate = (state_V_load & tmp)> <Delay = 0.00>
ST_2 : Operation 58 [1/1] (0.00ns)   --->   "%tmp_rst_V = load i1* @meta_rst_V, align 1" [/home/paulrr2/Projects/ece527/babelsoc/fpga-network-stack/hls/toe/rx_engine/rx_engine.cpp:735]   --->   Operation 58 'load' 'tmp_rst_V' <Predicate = (state_V_load & tmp)> <Delay = 0.00>
ST_2 : Operation 59 [1/1] (0.00ns)   --->   "%tmp_syn_V = load i1* @meta_syn_V, align 4" [/home/paulrr2/Projects/ece527/babelsoc/fpga-network-stack/hls/toe/rx_engine/rx_engine.cpp:735]   --->   Operation 59 'load' 'tmp_syn_V' <Predicate = (state_V_load & tmp)> <Delay = 0.00>
ST_2 : Operation 60 [1/1] (0.00ns)   --->   "%tmp_fin_V = load i1* @meta_fin_V, align 1" [/home/paulrr2/Projects/ece527/babelsoc/fpga-network-stack/hls/toe/rx_engine/rx_engine.cpp:735]   --->   Operation 60 'load' 'tmp_fin_V' <Predicate = (state_V_load & tmp)> <Delay = 0.00>
ST_2 : Operation 61 [1/1] (0.00ns)   --->   "%tmp_dataOffset_V = load i4* @meta_dataOffset_V, align 2" [/home/paulrr2/Projects/ece527/babelsoc/fpga-network-stack/hls/toe/rx_engine/rx_engine.cpp:735]   --->   Operation 61 'load' 'tmp_dataOffset_V' <Predicate = (state_V_load & tmp)> <Delay = 0.00>
ST_2 : Operation 62 [1/1] (0.00ns)   --->   "%tmp_1 = call i108 @_ssdm_op_BitConcatenate.i108.i4.i1.i1.i1.i1.i16.i4.i16.i32.i32(i4 %tmp_dataOffset_V, i1 %tmp_fin_V, i1 %tmp_syn_V, i1 %tmp_rst_V, i1 %tmp_ack_V, i16 %tmp_length_V, i4 %tmp_V, i16 %tmp_winSize_V, i32 %tmp_ackNumb_V, i32 %tmp_seqNumb_V) nounwind" [/home/paulrr2/Projects/ece527/babelsoc/fpga-network-stack/hls/toe/rx_engine/rx_engine.cpp:735]   --->   Operation 62 'bitconcatenate' 'tmp_1' <Predicate = (state_V_load & tmp)> <Delay = 0.00>
ST_2 : Operation 63 [1/1] (2.80ns)   --->   "call void @_ssdm_op_Write.ap_fifo.volatile.i108P(i108* @rxEng_metaDataFifo_V, i108 %tmp_1) nounwind" [/home/paulrr2/Projects/ece527/babelsoc/fpga-network-stack/hls/toe/rx_engine/rx_engine.cpp:735]   --->   Operation 63 'write' <Predicate = (state_V_load & tmp)> <Delay = 2.80> <Core = "FIFO">   --->   Core 32 'FIFO' <Latency = 0> <II = 1> <Delay = 3.54> <Storage> <Opcode : 'read' 'write' 'nbread' 'nbwrite'> <Ports = 0> <Width = 16> <Depth = 8> <FIFO>
ST_2 : Operation 64 [1/1] (0.00ns)   --->   "br label %._crit_edge6.i" [/home/paulrr2/Projects/ece527/babelsoc/fpga-network-stack/hls/toe/rx_engine/rx_engine.cpp:737]   --->   Operation 64 'br' <Predicate = (state_V_load & tmp)> <Delay = 0.00>
ST_2 : Operation 65 [1/1] (0.00ns)   --->   "br label %merge_header_meta.exit" [/home/paulrr2/Projects/ece527/babelsoc/fpga-network-stack/hls/toe/rx_engine/rx_engine.cpp:738]   --->   Operation 65 'br' <Predicate = (state_V_load)> <Delay = 0.00>
ST_2 : Operation 66 [1/1] (0.00ns)   --->   "ret void"   --->   Operation 66 'ret' <Predicate = true> <Delay = 0.00>


============================================================
+ Verbose Summary: Binding
============================================================
STG Binding: 
---------------- STG Properties BEGIN ----------------
- Is combinational: 0
- Is one-state seq: 0
- Is datapath-only: 0
- Is pipelined: 1
- Is top level: 0
Port [ Return ] is wired: 1; IO mode=ap_ctrl_hs:ce=0
Port [ state_V]:  wired=0; compound=0; hidden=1; nouse=0; global=1; static=1; extern=0; dir=2; type=0; pingpong=0; private_global=1; linkage=7; visibility=0; IO mode=ap_ovld:ce=0
Port [ rxEng_headerMetaFifo_20]:  wired=1; compound=1; hidden=0; nouse=0; global=1; static=1; extern=0; dir=0; type=3; pingpong=0; private_global=0; linkage=7; visibility=0; IO mode=ap_fifo:ce=0
Port [ rxEng_headerMetaFifo_12]:  wired=1; compound=1; hidden=0; nouse=0; global=1; static=1; extern=0; dir=0; type=3; pingpong=0; private_global=0; linkage=7; visibility=0; IO mode=ap_fifo:ce=0
Port [ rxEng_headerMetaFifo_23]:  wired=1; compound=1; hidden=0; nouse=0; global=1; static=1; extern=0; dir=0; type=3; pingpong=0; private_global=0; linkage=7; visibility=0; IO mode=ap_fifo:ce=0
Port [ rxEng_headerMetaFifo_22]:  wired=1; compound=1; hidden=0; nouse=0; global=1; static=1; extern=0; dir=0; type=3; pingpong=0; private_global=0; linkage=7; visibility=0; IO mode=ap_fifo:ce=0
Port [ rxEng_headerMetaFifo_18]:  wired=1; compound=1; hidden=0; nouse=0; global=1; static=1; extern=0; dir=0; type=3; pingpong=0; private_global=0; linkage=7; visibility=0; IO mode=ap_fifo:ce=0
Port [ rxEng_headerMetaFifo_10]:  wired=1; compound=1; hidden=0; nouse=0; global=1; static=1; extern=0; dir=0; type=3; pingpong=0; private_global=0; linkage=7; visibility=0; IO mode=ap_fifo:ce=0
Port [ rxEng_headerMetaFifo_19]:  wired=1; compound=1; hidden=0; nouse=0; global=1; static=1; extern=0; dir=0; type=3; pingpong=0; private_global=0; linkage=7; visibility=0; IO mode=ap_fifo:ce=0
Port [ rxEng_headerMetaFifo_21]:  wired=1; compound=1; hidden=0; nouse=0; global=1; static=1; extern=0; dir=0; type=3; pingpong=0; private_global=0; linkage=7; visibility=0; IO mode=ap_fifo:ce=0
Port [ rxEng_headerMetaFifo_16]:  wired=1; compound=1; hidden=0; nouse=0; global=1; static=1; extern=0; dir=0; type=3; pingpong=0; private_global=0; linkage=7; visibility=0; IO mode=ap_fifo:ce=0
Port [ rxEng_headerMetaFifo_14]:  wired=1; compound=1; hidden=0; nouse=0; global=1; static=1; extern=0; dir=0; type=3; pingpong=0; private_global=0; linkage=7; visibility=0; IO mode=ap_fifo:ce=0
Port [ meta_seqNumb_V]:  wired=0; compound=0; hidden=1; nouse=0; global=1; static=1; extern=0; dir=2; type=0; pingpong=0; private_global=1; linkage=7; visibility=0; IO mode=ap_ovld:ce=0
Port [ meta_ackNumb_V]:  wired=0; compound=0; hidden=1; nouse=0; global=1; static=1; extern=0; dir=2; type=0; pingpong=0; private_global=1; linkage=7; visibility=0; IO mode=ap_ovld:ce=0
Port [ meta_winSize_V]:  wired=0; compound=0; hidden=1; nouse=0; global=1; static=1; extern=0; dir=2; type=0; pingpong=0; private_global=1; linkage=7; visibility=0; IO mode=ap_ovld:ce=0
Port [ meta_length_V]:  wired=0; compound=0; hidden=1; nouse=0; global=1; static=1; extern=0; dir=2; type=0; pingpong=0; private_global=1; linkage=7; visibility=0; IO mode=ap_ovld:ce=0
Port [ meta_ack_V]:  wired=0; compound=0; hidden=1; nouse=0; global=1; static=1; extern=0; dir=2; type=0; pingpong=0; private_global=1; linkage=7; visibility=0; IO mode=ap_ovld:ce=0
Port [ meta_rst_V]:  wired=0; compound=0; hidden=1; nouse=0; global=1; static=1; extern=0; dir=2; type=0; pingpong=0; private_global=1; linkage=7; visibility=0; IO mode=ap_ovld:ce=0
Port [ meta_syn_V]:  wired=0; compound=0; hidden=1; nouse=0; global=1; static=1; extern=0; dir=2; type=0; pingpong=0; private_global=1; linkage=7; visibility=0; IO mode=ap_ovld:ce=0
Port [ meta_fin_V]:  wired=0; compound=0; hidden=1; nouse=0; global=1; static=1; extern=0; dir=2; type=0; pingpong=0; private_global=1; linkage=7; visibility=0; IO mode=ap_ovld:ce=0
Port [ meta_dataOffset_V]:  wired=0; compound=0; hidden=1; nouse=0; global=1; static=1; extern=0; dir=2; type=0; pingpong=0; private_global=1; linkage=7; visibility=0; IO mode=ap_ovld:ce=0
Port [ rxEng_metaDataFifo_V]:  wired=1; compound=1; hidden=0; nouse=0; global=1; static=1; extern=0; dir=1; type=3; pingpong=0; private_global=0; linkage=7; visibility=0; IO mode=ap_fifo:ce=0
Port [ rxEng_winScaleFifo_V]:  wired=1; compound=1; hidden=0; nouse=0; global=1; static=1; extern=0; dir=0; type=3; pingpong=0; private_global=0; linkage=7; visibility=0; IO mode=ap_fifo:ce=0
---------------- STG Properties END ------------------

---------------- Datapath Model BEGIN ----------------

<LifeTime>
<method=bitvector/>
state_V_load       (load          ) [ 011]
br_ln712           (br            ) [ 000]
tmp_231            (nbreadreq     ) [ 011]
br_ln715           (br            ) [ 000]
empty              (read          ) [ 000]
tmp_seqNumb_V_7    (extractvalue  ) [ 011]
tmp_ackNumb_V_7    (extractvalue  ) [ 011]
tmp_winSize_V_1    (extractvalue  ) [ 011]
tmp_length_V_6     (extractvalue  ) [ 011]
tmp_ack_V_1        (extractvalue  ) [ 011]
tmp_rst_V_1        (extractvalue  ) [ 011]
tmp_syn_V_1        (extractvalue  ) [ 011]
tmp_fin_V_1        (extractvalue  ) [ 011]
tmp_dataOffset_V_2 (extractvalue  ) [ 011]
store_ln53         (store         ) [ 000]
store_ln53         (store         ) [ 000]
store_ln53         (store         ) [ 000]
store_ln53         (store         ) [ 000]
store_ln53         (store         ) [ 000]
store_ln53         (store         ) [ 000]
store_ln53         (store         ) [ 000]
store_ln53         (store         ) [ 000]
store_ln53         (store         ) [ 000]
icmp_ln895         (icmp          ) [ 000]
and_ln719          (and           ) [ 011]
br_ln719           (br            ) [ 000]
store_ln721        (store         ) [ 000]
tmp                (nbreadreq     ) [ 011]
br_ln731           (br            ) [ 000]
tmp_V              (read          ) [ 011]
store_ln736        (store         ) [ 000]
specinterface_ln0  (specinterface ) [ 000]
specinterface_ln0  (specinterface ) [ 000]
specinterface_ln0  (specinterface ) [ 000]
specinterface_ln0  (specinterface ) [ 000]
specinterface_ln0  (specinterface ) [ 000]
specinterface_ln0  (specinterface ) [ 000]
specinterface_ln0  (specinterface ) [ 000]
specinterface_ln0  (specinterface ) [ 000]
specinterface_ln0  (specinterface ) [ 000]
specinterface_ln0  (specinterface ) [ 000]
specinterface_ln0  (specinterface ) [ 000]
specinterface_ln0  (specinterface ) [ 000]
specpipeline_ln706 (specpipeline  ) [ 000]
tmp113             (bitconcatenate) [ 000]
write_ln726        (write         ) [ 000]
br_ln0             (br            ) [ 000]
br_ln722           (br            ) [ 000]
br_ln728           (br            ) [ 000]
br_ln729           (br            ) [ 000]
tmp_seqNumb_V      (load          ) [ 000]
tmp_ackNumb_V      (load          ) [ 000]
tmp_winSize_V      (load          ) [ 000]
tmp_length_V       (load          ) [ 000]
tmp_ack_V          (load          ) [ 000]
tmp_rst_V          (load          ) [ 000]
tmp_syn_V          (load          ) [ 000]
tmp_fin_V          (load          ) [ 000]
tmp_dataOffset_V   (load          ) [ 000]
tmp_1              (bitconcatenate) [ 000]
write_ln735        (write         ) [ 000]
br_ln737           (br            ) [ 000]
br_ln738           (br            ) [ 000]
ret_ln0            (ret           ) [ 000]
</LifeTime>

<model>

<comp_list>
<comp id="0" class="1000" name="state_V">
<pin_list>
<pin id="1" dir="1" index="0" bw="1" slack="0"/>
</pin_list>
<bind>
<StgValue><ssdm name="state_V"/></StgValue>
</bind>
</comp>

<comp id="2" class="1000" name="rxEng_headerMetaFifo_20">
<pin_list>
<pin id="3" dir="1" index="0" bw="1" slack="0"/>
</pin_list>
<bind>
<StgValue><ssdm name="rxEng_headerMetaFifo_20"/></StgValue>
</bind>
</comp>

<comp id="4" class="1000" name="rxEng_headerMetaFifo_12">
<pin_list>
<pin id="5" dir="1" index="0" bw="1" slack="0"/>
</pin_list>
<bind>
<StgValue><ssdm name="rxEng_headerMetaFifo_12"/></StgValue>
</bind>
</comp>

<comp id="6" class="1000" name="rxEng_headerMetaFifo_23">
<pin_list>
<pin id="7" dir="1" index="0" bw="1" slack="0"/>
</pin_list>
<bind>
<StgValue><ssdm name="rxEng_headerMetaFifo_23"/></StgValue>
</bind>
</comp>

<comp id="8" class="1000" name="rxEng_headerMetaFifo_22">
<pin_list>
<pin id="9" dir="1" index="0" bw="1" slack="0"/>
</pin_list>
<bind>
<StgValue><ssdm name="rxEng_headerMetaFifo_22"/></StgValue>
</bind>
</comp>

<comp id="10" class="1000" name="rxEng_headerMetaFifo_18">
<pin_list>
<pin id="11" dir="1" index="0" bw="1" slack="0"/>
</pin_list>
<bind>
<StgValue><ssdm name="rxEng_headerMetaFifo_18"/></StgValue>
</bind>
</comp>

<comp id="12" class="1000" name="rxEng_headerMetaFifo_10">
<pin_list>
<pin id="13" dir="1" index="0" bw="1" slack="0"/>
</pin_list>
<bind>
<StgValue><ssdm name="rxEng_headerMetaFifo_10"/></StgValue>
</bind>
</comp>

<comp id="14" class="1000" name="rxEng_headerMetaFifo_19">
<pin_list>
<pin id="15" dir="1" index="0" bw="1" slack="0"/>
</pin_list>
<bind>
<StgValue><ssdm name="rxEng_headerMetaFifo_19"/></StgValue>
</bind>
</comp>

<comp id="16" class="1000" name="rxEng_headerMetaFifo_21">
<pin_list>
<pin id="17" dir="1" index="0" bw="1" slack="0"/>
</pin_list>
<bind>
<StgValue><ssdm name="rxEng_headerMetaFifo_21"/></StgValue>
</bind>
</comp>

<comp id="18" class="1000" name="rxEng_headerMetaFifo_16">
<pin_list>
<pin id="19" dir="1" index="0" bw="1" slack="0"/>
</pin_list>
<bind>
<StgValue><ssdm name="rxEng_headerMetaFifo_16"/></StgValue>
</bind>
</comp>

<comp id="20" class="1000" name="rxEng_headerMetaFifo_14">
<pin_list>
<pin id="21" dir="1" index="0" bw="1" slack="0"/>
</pin_list>
<bind>
<StgValue><ssdm name="rxEng_headerMetaFifo_14"/></StgValue>
</bind>
</comp>

<comp id="22" class="1000" name="meta_seqNumb_V">
<pin_list>
<pin id="23" dir="1" index="0" bw="1" slack="0"/>
</pin_list>
<bind>
<StgValue><ssdm name="meta_seqNumb_V"/></StgValue>
</bind>
</comp>

<comp id="24" class="1000" name="meta_ackNumb_V">
<pin_list>
<pin id="25" dir="1" index="0" bw="1" slack="0"/>
</pin_list>
<bind>
<StgValue><ssdm name="meta_ackNumb_V"/></StgValue>
</bind>
</comp>

<comp id="26" class="1000" name="meta_winSize_V">
<pin_list>
<pin id="27" dir="1" index="0" bw="1" slack="0"/>
</pin_list>
<bind>
<StgValue><ssdm name="meta_winSize_V"/></StgValue>
</bind>
</comp>

<comp id="28" class="1000" name="meta_length_V">
<pin_list>
<pin id="29" dir="1" index="0" bw="1" slack="0"/>
</pin_list>
<bind>
<StgValue><ssdm name="meta_length_V"/></StgValue>
</bind>
</comp>

<comp id="30" class="1000" name="meta_ack_V">
<pin_list>
<pin id="31" dir="1" index="0" bw="1" slack="0"/>
</pin_list>
<bind>
<StgValue><ssdm name="meta_ack_V"/></StgValue>
</bind>
</comp>

<comp id="32" class="1000" name="meta_rst_V">
<pin_list>
<pin id="33" dir="1" index="0" bw="1" slack="0"/>
</pin_list>
<bind>
<StgValue><ssdm name="meta_rst_V"/></StgValue>
</bind>
</comp>

<comp id="34" class="1000" name="meta_syn_V">
<pin_list>
<pin id="35" dir="1" index="0" bw="1" slack="0"/>
</pin_list>
<bind>
<StgValue><ssdm name="meta_syn_V"/></StgValue>
</bind>
</comp>

<comp id="36" class="1000" name="meta_fin_V">
<pin_list>
<pin id="37" dir="1" index="0" bw="1" slack="0"/>
</pin_list>
<bind>
<StgValue><ssdm name="meta_fin_V"/></StgValue>
</bind>
</comp>

<comp id="38" class="1000" name="meta_dataOffset_V">
<pin_list>
<pin id="39" dir="1" index="0" bw="1" slack="0"/>
</pin_list>
<bind>
<StgValue><ssdm name="meta_dataOffset_V"/></StgValue>
</bind>
</comp>

<comp id="40" class="1000" name="rxEng_metaDataFifo_V">
<pin_list>
<pin id="41" dir="1" index="0" bw="1" slack="0"/>
</pin_list>
<bind>
<StgValue><ssdm name="rxEng_metaDataFifo_V"/></StgValue>
</bind>
</comp>

<comp id="42" class="1000" name="rxEng_winScaleFifo_V">
<pin_list>
<pin id="43" dir="1" index="0" bw="1" slack="0"/>
</pin_list>
<bind>
<StgValue><ssdm name="rxEng_winScaleFifo_V"/></StgValue>
</bind>
</comp>

<comp id="44" class="1001" name="const_44">
<pin_list>
<pin id="45" dir="1" index="0" bw="1" slack="0"/>
</pin_list>
<bind>
<StgValue><ssdm name="_ssdm_op_NbReadReq.ap_fifo.i32P.i32P.i16P.i4P.i16P.i1P.i1P.i1P.i1P.i4P"/></StgValue>
</bind>
</comp>

<comp id="46" class="1001" name="const_46">
<pin_list>
<pin id="47" dir="1" index="0" bw="1" slack="0"/>
</pin_list>
<bind>
<StgValue><ssdm name=""/></StgValue>
</bind>
</comp>

<comp id="48" class="1001" name="const_48">
<pin_list>
<pin id="49" dir="1" index="0" bw="1" slack="0"/>
</pin_list>
<bind>
<StgValue><ssdm name="_ssdm_op_Read.ap_fifo.volatile.i32P.i32P.i16P.i4P.i16P.i1P.i1P.i1P.i1P.i4P"/></StgValue>
</bind>
</comp>

<comp id="50" class="1001" name="const_50">
<pin_list>
<pin id="51" dir="1" index="0" bw="1" slack="0"/>
</pin_list>
<bind>
<StgValue><ssdm name=""/></StgValue>
</bind>
</comp>

<comp id="52" class="1001" name="const_52">
<pin_list>
<pin id="53" dir="1" index="0" bw="1" slack="0"/>
</pin_list>
<bind>
<StgValue><ssdm name=""/></StgValue>
</bind>
</comp>

<comp id="54" class="1001" name="const_54">
<pin_list>
<pin id="55" dir="1" index="0" bw="1" slack="0"/>
</pin_list>
<bind>
<StgValue><ssdm name="_ssdm_op_NbReadReq.ap_fifo.i4P"/></StgValue>
</bind>
</comp>

<comp id="56" class="1001" name="const_56">
<pin_list>
<pin id="57" dir="1" index="0" bw="1" slack="0"/>
</pin_list>
<bind>
<StgValue><ssdm name="_ssdm_op_Read.ap_fifo.volatile.i4P"/></StgValue>
</bind>
</comp>

<comp id="58" class="1001" name="const_58">
<pin_list>
<pin id="59" dir="1" index="0" bw="1" slack="0"/>
</pin_list>
<bind>
<StgValue><ssdm name=""/></StgValue>
</bind>
</comp>

<comp id="60" class="1001" name="const_60">
<pin_list>
<pin id="61" dir="1" index="0" bw="1" slack="2147483647"/>
</pin_list>
<bind>
<StgValue><ssdm name="_ssdm_op_SpecInterface"/></StgValue>
</bind>
</comp>

<comp id="62" class="1001" name="const_62">
<pin_list>
<pin id="63" dir="1" index="0" bw="1" slack="2147483647"/>
</pin_list>
<bind>
<StgValue><ssdm name="ap_fifo_str"/></StgValue>
</bind>
</comp>

<comp id="64" class="1001" name="const_64">
<pin_list>
<pin id="65" dir="1" index="0" bw="1" slack="2147483647"/>
</pin_list>
<bind>
<StgValue><ssdm name=""/></StgValue>
</bind>
</comp>

<comp id="66" class="1001" name="const_66">
<pin_list>
<pin id="67" dir="1" index="0" bw="1" slack="2147483647"/>
</pin_list>
<bind>
<StgValue><ssdm name="p_str"/></StgValue>
</bind>
</comp>

<comp id="68" class="1001" name="const_68">
<pin_list>
<pin id="69" dir="1" index="0" bw="1" slack="2147483647"/>
</pin_list>
<bind>
<StgValue><ssdm name=""/></StgValue>
</bind>
</comp>

<comp id="70" class="1001" name="const_70">
<pin_list>
<pin id="71" dir="1" index="0" bw="1" slack="2147483647"/>
</pin_list>
<bind>
<StgValue><ssdm name=""/></StgValue>
</bind>
</comp>

<comp id="72" class="1001" name="const_72">
<pin_list>
<pin id="73" dir="1" index="0" bw="1" slack="2147483647"/>
</pin_list>
<bind>
<StgValue><ssdm name="_ssdm_op_SpecPipeline"/></StgValue>
</bind>
</comp>

<comp id="74" class="1001" name="const_74">
<pin_list>
<pin id="75" dir="1" index="0" bw="1" slack="2147483647"/>
</pin_list>
<bind>
<StgValue><ssdm name="p_str566"/></StgValue>
</bind>
</comp>

<comp id="76" class="1001" name="const_76">
<pin_list>
<pin id="77" dir="1" index="0" bw="1" slack="0"/>
</pin_list>
<bind>
<StgValue><ssdm name="_ssdm_op_BitConcatenate.i108.i4.i1.i1.i1.i1.i16.i4.i16.i32.i32"/></StgValue>
</bind>
</comp>

<comp id="78" class="1001" name="const_78">
<pin_list>
<pin id="79" dir="1" index="0" bw="1" slack="0"/>
</pin_list>
<bind>
<StgValue><ssdm name=""/></StgValue>
</bind>
</comp>

<comp id="80" class="1001" name="const_80">
<pin_list>
<pin id="81" dir="1" index="0" bw="1" slack="0"/>
</pin_list>
<bind>
<StgValue><ssdm name="_ssdm_op_Write.ap_fifo.volatile.i108P"/></StgValue>
</bind>
</comp>

<comp id="82" class="1004" name="tmp_231_nbreadreq_fu_82">
<pin_list>
<pin id="83" dir="0" index="0" bw="1" slack="0"/>
<pin id="84" dir="0" index="1" bw="32" slack="0"/>
<pin id="85" dir="0" index="2" bw="32" slack="0"/>
<pin id="86" dir="0" index="3" bw="16" slack="0"/>
<pin id="87" dir="0" index="4" bw="4" slack="0"/>
<pin id="88" dir="0" index="5" bw="16" slack="0"/>
<pin id="89" dir="0" index="6" bw="1" slack="0"/>
<pin id="90" dir="0" index="7" bw="1" slack="0"/>
<pin id="91" dir="0" index="8" bw="1" slack="0"/>
<pin id="92" dir="0" index="9" bw="1" slack="0"/>
<pin id="93" dir="0" index="10" bw="4" slack="0"/>
<pin id="94" dir="0" index="11" bw="1" slack="0"/>
<pin id="95" dir="1" index="12" bw="1" slack="1"/>
</pin_list>
<bind>
<opcode="nbreadreq(1156) " fcode="nbreadreq"/>
<opset="tmp_231/1 "/>
</bind>
</comp>

<comp id="108" class="1004" name="empty_read_fu_108">
<pin_list>
<pin id="109" dir="0" index="0" bw="108" slack="0"/>
<pin id="110" dir="0" index="1" bw="32" slack="0"/>
<pin id="111" dir="0" index="2" bw="32" slack="0"/>
<pin id="112" dir="0" index="3" bw="16" slack="0"/>
<pin id="113" dir="0" index="4" bw="4" slack="0"/>
<pin id="114" dir="0" index="5" bw="16" slack="0"/>
<pin id="115" dir="0" index="6" bw="1" slack="0"/>
<pin id="116" dir="0" index="7" bw="1" slack="0"/>
<pin id="117" dir="0" index="8" bw="1" slack="0"/>
<pin id="118" dir="0" index="9" bw="1" slack="0"/>
<pin id="119" dir="0" index="10" bw="4" slack="0"/>
<pin id="120" dir="1" index="11" bw="108" slack="0"/>
</pin_list>
<bind>
<opcode="read(1150) " fcode="read"/>
<opset="empty/1 "/>
</bind>
</comp>

<comp id="132" class="1004" name="tmp_nbreadreq_fu_132">
<pin_list>
<pin id="133" dir="0" index="0" bw="1" slack="0"/>
<pin id="134" dir="0" index="1" bw="4" slack="0"/>
<pin id="135" dir="0" index="2" bw="1" slack="0"/>
<pin id="136" dir="1" index="3" bw="1" slack="1"/>
</pin_list>
<bind>
<opcode="nbreadreq(1156) " fcode="nbreadreq"/>
<opset="tmp/1 "/>
</bind>
</comp>

<comp id="140" class="1004" name="tmp_V_read_fu_140">
<pin_list>
<pin id="141" dir="0" index="0" bw="4" slack="0"/>
<pin id="142" dir="0" index="1" bw="4" slack="0"/>
<pin id="143" dir="1" index="2" bw="4" slack="1"/>
</pin_list>
<bind>
<opcode="read(1150) " fcode="read"/>
<opset="tmp_V/1 "/>
</bind>
</comp>

<comp id="146" class="1004" name="grp_write_fu_146">
<pin_list>
<pin id="147" dir="0" index="0" bw="0" slack="0"/>
<pin id="148" dir="0" index="1" bw="108" slack="0"/>
<pin id="149" dir="0" index="2" bw="108" slack="0"/>
<pin id="150" dir="1" index="3" bw="0" slack="2147483647"/>
</pin_list>
<bind>
<opcode="write(1151) " fcode="write"/>
<opset="write_ln726/2 write_ln735/2 "/>
</bind>
</comp>

<comp id="153" class="1004" name="state_V_load_load_fu_153">
<pin_list>
<pin id="154" dir="0" index="0" bw="1" slack="0"/>
<pin id="155" dir="1" index="1" bw="1" slack="1"/>
</pin_list>
<bind>
<opcode="load(27) " fcode="load"/>
<opset="state_V_load/1 "/>
</bind>
</comp>

<comp id="157" class="1004" name="tmp_seqNumb_V_7_fu_157">
<pin_list>
<pin id="158" dir="0" index="0" bw="108" slack="0"/>
<pin id="159" dir="1" index="1" bw="32" slack="0"/>
</pin_list>
<bind>
<opcode="extractvalue(56) " fcode="extractvalue"/>
<opset="tmp_seqNumb_V_7/1 "/>
</bind>
</comp>

<comp id="161" class="1004" name="tmp_ackNumb_V_7_fu_161">
<pin_list>
<pin id="162" dir="0" index="0" bw="108" slack="0"/>
<pin id="163" dir="1" index="1" bw="32" slack="0"/>
</pin_list>
<bind>
<opcode="extractvalue(56) " fcode="extractvalue"/>
<opset="tmp_ackNumb_V_7/1 "/>
</bind>
</comp>

<comp id="165" class="1004" name="tmp_winSize_V_1_fu_165">
<pin_list>
<pin id="166" dir="0" index="0" bw="108" slack="0"/>
<pin id="167" dir="1" index="1" bw="16" slack="0"/>
</pin_list>
<bind>
<opcode="extractvalue(56) " fcode="extractvalue"/>
<opset="tmp_winSize_V_1/1 "/>
</bind>
</comp>

<comp id="169" class="1004" name="tmp_length_V_6_fu_169">
<pin_list>
<pin id="170" dir="0" index="0" bw="108" slack="0"/>
<pin id="171" dir="1" index="1" bw="16" slack="0"/>
</pin_list>
<bind>
<opcode="extractvalue(56) " fcode="extractvalue"/>
<opset="tmp_length_V_6/1 "/>
</bind>
</comp>

<comp id="173" class="1004" name="tmp_ack_V_1_fu_173">
<pin_list>
<pin id="174" dir="0" index="0" bw="108" slack="0"/>
<pin id="175" dir="1" index="1" bw="1" slack="0"/>
</pin_list>
<bind>
<opcode="extractvalue(56) " fcode="extractvalue"/>
<opset="tmp_ack_V_1/1 "/>
</bind>
</comp>

<comp id="177" class="1004" name="tmp_rst_V_1_fu_177">
<pin_list>
<pin id="178" dir="0" index="0" bw="108" slack="0"/>
<pin id="179" dir="1" index="1" bw="1" slack="0"/>
</pin_list>
<bind>
<opcode="extractvalue(56) " fcode="extractvalue"/>
<opset="tmp_rst_V_1/1 "/>
</bind>
</comp>

<comp id="181" class="1004" name="tmp_syn_V_1_fu_181">
<pin_list>
<pin id="182" dir="0" index="0" bw="108" slack="0"/>
<pin id="183" dir="1" index="1" bw="1" slack="0"/>
</pin_list>
<bind>
<opcode="extractvalue(56) " fcode="extractvalue"/>
<opset="tmp_syn_V_1/1 "/>
</bind>
</comp>

<comp id="185" class="1004" name="tmp_fin_V_1_fu_185">
<pin_list>
<pin id="186" dir="0" index="0" bw="108" slack="0"/>
<pin id="187" dir="1" index="1" bw="1" slack="0"/>
</pin_list>
<bind>
<opcode="extractvalue(56) " fcode="extractvalue"/>
<opset="tmp_fin_V_1/1 "/>
</bind>
</comp>

<comp id="189" class="1004" name="tmp_dataOffset_V_2_fu_189">
<pin_list>
<pin id="190" dir="0" index="0" bw="108" slack="0"/>
<pin id="191" dir="1" index="1" bw="4" slack="0"/>
</pin_list>
<bind>
<opcode="extractvalue(56) " fcode="extractvalue"/>
<opset="tmp_dataOffset_V_2/1 "/>
</bind>
</comp>

<comp id="193" class="1004" name="store_ln53_store_fu_193">
<pin_list>
<pin id="194" dir="0" index="0" bw="32" slack="0"/>
<pin id="195" dir="0" index="1" bw="32" slack="0"/>
<pin id="196" dir="1" index="2" bw="0" slack="2147483647"/>
</pin_list>
<bind>
<opcode="store(28) " fcode="store"/>
<opset="store_ln53/1 "/>
</bind>
</comp>

<comp id="199" class="1004" name="store_ln53_store_fu_199">
<pin_list>
<pin id="200" dir="0" index="0" bw="32" slack="0"/>
<pin id="201" dir="0" index="1" bw="32" slack="0"/>
<pin id="202" dir="1" index="2" bw="0" slack="2147483647"/>
</pin_list>
<bind>
<opcode="store(28) " fcode="store"/>
<opset="store_ln53/1 "/>
</bind>
</comp>

<comp id="205" class="1004" name="store_ln53_store_fu_205">
<pin_list>
<pin id="206" dir="0" index="0" bw="16" slack="0"/>
<pin id="207" dir="0" index="1" bw="16" slack="0"/>
<pin id="208" dir="1" index="2" bw="0" slack="2147483647"/>
</pin_list>
<bind>
<opcode="store(28) " fcode="store"/>
<opset="store_ln53/1 "/>
</bind>
</comp>

<comp id="211" class="1004" name="store_ln53_store_fu_211">
<pin_list>
<pin id="212" dir="0" index="0" bw="16" slack="0"/>
<pin id="213" dir="0" index="1" bw="16" slack="0"/>
<pin id="214" dir="1" index="2" bw="0" slack="2147483647"/>
</pin_list>
<bind>
<opcode="store(28) " fcode="store"/>
<opset="store_ln53/1 "/>
</bind>
</comp>

<comp id="217" class="1004" name="store_ln53_store_fu_217">
<pin_list>
<pin id="218" dir="0" index="0" bw="1" slack="0"/>
<pin id="219" dir="0" index="1" bw="1" slack="0"/>
<pin id="220" dir="1" index="2" bw="0" slack="2147483647"/>
</pin_list>
<bind>
<opcode="store(28) " fcode="store"/>
<opset="store_ln53/1 "/>
</bind>
</comp>

<comp id="223" class="1004" name="store_ln53_store_fu_223">
<pin_list>
<pin id="224" dir="0" index="0" bw="1" slack="0"/>
<pin id="225" dir="0" index="1" bw="1" slack="0"/>
<pin id="226" dir="1" index="2" bw="0" slack="2147483647"/>
</pin_list>
<bind>
<opcode="store(28) " fcode="store"/>
<opset="store_ln53/1 "/>
</bind>
</comp>

<comp id="229" class="1004" name="store_ln53_store_fu_229">
<pin_list>
<pin id="230" dir="0" index="0" bw="1" slack="0"/>
<pin id="231" dir="0" index="1" bw="1" slack="0"/>
<pin id="232" dir="1" index="2" bw="0" slack="2147483647"/>
</pin_list>
<bind>
<opcode="store(28) " fcode="store"/>
<opset="store_ln53/1 "/>
</bind>
</comp>

<comp id="235" class="1004" name="store_ln53_store_fu_235">
<pin_list>
<pin id="236" dir="0" index="0" bw="1" slack="0"/>
<pin id="237" dir="0" index="1" bw="1" slack="0"/>
<pin id="238" dir="1" index="2" bw="0" slack="2147483647"/>
</pin_list>
<bind>
<opcode="store(28) " fcode="store"/>
<opset="store_ln53/1 "/>
</bind>
</comp>

<comp id="241" class="1004" name="store_ln53_store_fu_241">
<pin_list>
<pin id="242" dir="0" index="0" bw="4" slack="0"/>
<pin id="243" dir="0" index="1" bw="4" slack="0"/>
<pin id="244" dir="1" index="2" bw="0" slack="2147483647"/>
</pin_list>
<bind>
<opcode="store(28) " fcode="store"/>
<opset="store_ln53/1 "/>
</bind>
</comp>

<comp id="247" class="1004" name="icmp_ln895_fu_247">
<pin_list>
<pin id="248" dir="0" index="0" bw="4" slack="0"/>
<pin id="249" dir="0" index="1" bw="4" slack="0"/>
<pin id="250" dir="1" index="2" bw="1" slack="0"/>
</pin_list>
<bind>
<opcode="icmp(45) " fcode="icmp"/>
<opset="icmp_ln895/1 "/>
</bind>
</comp>

<comp id="253" class="1004" name="and_ln719_fu_253">
<pin_list>
<pin id="254" dir="0" index="0" bw="1" slack="0"/>
<pin id="255" dir="0" index="1" bw="1" slack="0"/>
<pin id="256" dir="1" index="2" bw="1" slack="1"/>
</pin_list>
<bind>
<opcode="and(23) " fcode="and"/>
<opset="and_ln719/1 "/>
</bind>
</comp>

<comp id="259" class="1004" name="store_ln721_store_fu_259">
<pin_list>
<pin id="260" dir="0" index="0" bw="1" slack="0"/>
<pin id="261" dir="0" index="1" bw="1" slack="0"/>
<pin id="262" dir="1" index="2" bw="0" slack="2147483647"/>
</pin_list>
<bind>
<opcode="store(28) " fcode="store"/>
<opset="store_ln721/1 "/>
</bind>
</comp>

<comp id="265" class="1004" name="store_ln736_store_fu_265">
<pin_list>
<pin id="266" dir="0" index="0" bw="1" slack="0"/>
<pin id="267" dir="0" index="1" bw="1" slack="0"/>
<pin id="268" dir="1" index="2" bw="0" slack="2147483647"/>
</pin_list>
<bind>
<opcode="store(28) " fcode="store"/>
<opset="store_ln736/1 "/>
</bind>
</comp>

<comp id="271" class="1004" name="tmp113_fu_271">
<pin_list>
<pin id="272" dir="0" index="0" bw="108" slack="0"/>
<pin id="273" dir="0" index="1" bw="4" slack="1"/>
<pin id="274" dir="0" index="2" bw="1" slack="1"/>
<pin id="275" dir="0" index="3" bw="1" slack="1"/>
<pin id="276" dir="0" index="4" bw="1" slack="1"/>
<pin id="277" dir="0" index="5" bw="1" slack="1"/>
<pin id="278" dir="0" index="6" bw="16" slack="1"/>
<pin id="279" dir="0" index="7" bw="1" slack="0"/>
<pin id="280" dir="0" index="8" bw="16" slack="1"/>
<pin id="281" dir="0" index="9" bw="32" slack="1"/>
<pin id="282" dir="0" index="10" bw="32" slack="1"/>
<pin id="283" dir="1" index="11" bw="108" slack="0"/>
</pin_list>
<bind>
<opcode="bitconcatenate(1004) " fcode="bitconcatenate"/>
<opset="tmp113/2 "/>
</bind>
</comp>

<comp id="287" class="1004" name="tmp_seqNumb_V_load_fu_287">
<pin_list>
<pin id="288" dir="0" index="0" bw="32" slack="0"/>
<pin id="289" dir="1" index="1" bw="32" slack="0"/>
</pin_list>
<bind>
<opcode="load(27) " fcode="load"/>
<opset="tmp_seqNumb_V/2 "/>
</bind>
</comp>

<comp id="291" class="1004" name="tmp_ackNumb_V_load_fu_291">
<pin_list>
<pin id="292" dir="0" index="0" bw="32" slack="0"/>
<pin id="293" dir="1" index="1" bw="32" slack="0"/>
</pin_list>
<bind>
<opcode="load(27) " fcode="load"/>
<opset="tmp_ackNumb_V/2 "/>
</bind>
</comp>

<comp id="295" class="1004" name="tmp_winSize_V_load_fu_295">
<pin_list>
<pin id="296" dir="0" index="0" bw="16" slack="0"/>
<pin id="297" dir="1" index="1" bw="16" slack="0"/>
</pin_list>
<bind>
<opcode="load(27) " fcode="load"/>
<opset="tmp_winSize_V/2 "/>
</bind>
</comp>

<comp id="299" class="1004" name="tmp_length_V_load_fu_299">
<pin_list>
<pin id="300" dir="0" index="0" bw="16" slack="0"/>
<pin id="301" dir="1" index="1" bw="16" slack="0"/>
</pin_list>
<bind>
<opcode="load(27) " fcode="load"/>
<opset="tmp_length_V/2 "/>
</bind>
</comp>

<comp id="303" class="1004" name="tmp_ack_V_load_fu_303">
<pin_list>
<pin id="304" dir="0" index="0" bw="1" slack="0"/>
<pin id="305" dir="1" index="1" bw="1" slack="0"/>
</pin_list>
<bind>
<opcode="load(27) " fcode="load"/>
<opset="tmp_ack_V/2 "/>
</bind>
</comp>

<comp id="307" class="1004" name="tmp_rst_V_load_fu_307">
<pin_list>
<pin id="308" dir="0" index="0" bw="1" slack="0"/>
<pin id="309" dir="1" index="1" bw="1" slack="0"/>
</pin_list>
<bind>
<opcode="load(27) " fcode="load"/>
<opset="tmp_rst_V/2 "/>
</bind>
</comp>

<comp id="311" class="1004" name="tmp_syn_V_load_fu_311">
<pin_list>
<pin id="312" dir="0" index="0" bw="1" slack="0"/>
<pin id="313" dir="1" index="1" bw="1" slack="0"/>
</pin_list>
<bind>
<opcode="load(27) " fcode="load"/>
<opset="tmp_syn_V/2 "/>
</bind>
</comp>

<comp id="315" class="1004" name="tmp_fin_V_load_fu_315">
<pin_list>
<pin id="316" dir="0" index="0" bw="1" slack="0"/>
<pin id="317" dir="1" index="1" bw="1" slack="0"/>
</pin_list>
<bind>
<opcode="load(27) " fcode="load"/>
<opset="tmp_fin_V/2 "/>
</bind>
</comp>

<comp id="319" class="1004" name="tmp_dataOffset_V_load_fu_319">
<pin_list>
<pin id="320" dir="0" index="0" bw="4" slack="0"/>
<pin id="321" dir="1" index="1" bw="4" slack="0"/>
</pin_list>
<bind>
<opcode="load(27) " fcode="load"/>
<opset="tmp_dataOffset_V/2 "/>
</bind>
</comp>

<comp id="323" class="1004" name="tmp_1_fu_323">
<pin_list>
<pin id="324" dir="0" index="0" bw="108" slack="0"/>
<pin id="325" dir="0" index="1" bw="4" slack="0"/>
<pin id="326" dir="0" index="2" bw="1" slack="0"/>
<pin id="327" dir="0" index="3" bw="1" slack="0"/>
<pin id="328" dir="0" index="4" bw="1" slack="0"/>
<pin id="329" dir="0" index="5" bw="1" slack="0"/>
<pin id="330" dir="0" index="6" bw="16" slack="0"/>
<pin id="331" dir="0" index="7" bw="4" slack="1"/>
<pin id="332" dir="0" index="8" bw="16" slack="0"/>
<pin id="333" dir="0" index="9" bw="32" slack="0"/>
<pin id="334" dir="0" index="10" bw="32" slack="0"/>
<pin id="335" dir="1" index="11" bw="108" slack="0"/>
</pin_list>
<bind>
<opcode="bitconcatenate(1004) " fcode="bitconcatenate"/>
<opset="tmp_1/2 "/>
</bind>
</comp>

<comp id="347" class="1005" name="state_V_load_reg_347">
<pin_list>
<pin id="348" dir="0" index="0" bw="1" slack="1"/>
<pin id="349" dir="1" index="1" bw="1" slack="2147483647"/>
</pin_list>
<bind>
<opset="state_V_load "/>
</bind>
</comp>

<comp id="351" class="1005" name="tmp_231_reg_351">
<pin_list>
<pin id="352" dir="0" index="0" bw="1" slack="1"/>
<pin id="353" dir="1" index="1" bw="1" slack="2147483647"/>
</pin_list>
<bind>
<opset="tmp_231 "/>
</bind>
</comp>

<comp id="355" class="1005" name="tmp_seqNumb_V_7_reg_355">
<pin_list>
<pin id="356" dir="0" index="0" bw="32" slack="1"/>
<pin id="357" dir="1" index="1" bw="32" slack="1"/>
</pin_list>
<bind>
<opset="tmp_seqNumb_V_7 "/>
</bind>
</comp>

<comp id="360" class="1005" name="tmp_ackNumb_V_7_reg_360">
<pin_list>
<pin id="361" dir="0" index="0" bw="32" slack="1"/>
<pin id="362" dir="1" index="1" bw="32" slack="1"/>
</pin_list>
<bind>
<opset="tmp_ackNumb_V_7 "/>
</bind>
</comp>

<comp id="365" class="1005" name="tmp_winSize_V_1_reg_365">
<pin_list>
<pin id="366" dir="0" index="0" bw="16" slack="1"/>
<pin id="367" dir="1" index="1" bw="16" slack="1"/>
</pin_list>
<bind>
<opset="tmp_winSize_V_1 "/>
</bind>
</comp>

<comp id="370" class="1005" name="tmp_length_V_6_reg_370">
<pin_list>
<pin id="371" dir="0" index="0" bw="16" slack="1"/>
<pin id="372" dir="1" index="1" bw="16" slack="1"/>
</pin_list>
<bind>
<opset="tmp_length_V_6 "/>
</bind>
</comp>

<comp id="375" class="1005" name="tmp_ack_V_1_reg_375">
<pin_list>
<pin id="376" dir="0" index="0" bw="1" slack="1"/>
<pin id="377" dir="1" index="1" bw="1" slack="1"/>
</pin_list>
<bind>
<opset="tmp_ack_V_1 "/>
</bind>
</comp>

<comp id="380" class="1005" name="tmp_rst_V_1_reg_380">
<pin_list>
<pin id="381" dir="0" index="0" bw="1" slack="1"/>
<pin id="382" dir="1" index="1" bw="1" slack="1"/>
</pin_list>
<bind>
<opset="tmp_rst_V_1 "/>
</bind>
</comp>

<comp id="385" class="1005" name="tmp_syn_V_1_reg_385">
<pin_list>
<pin id="386" dir="0" index="0" bw="1" slack="1"/>
<pin id="387" dir="1" index="1" bw="1" slack="1"/>
</pin_list>
<bind>
<opset="tmp_syn_V_1 "/>
</bind>
</comp>

<comp id="390" class="1005" name="tmp_fin_V_1_reg_390">
<pin_list>
<pin id="391" dir="0" index="0" bw="1" slack="1"/>
<pin id="392" dir="1" index="1" bw="1" slack="1"/>
</pin_list>
<bind>
<opset="tmp_fin_V_1 "/>
</bind>
</comp>

<comp id="395" class="1005" name="tmp_dataOffset_V_2_reg_395">
<pin_list>
<pin id="396" dir="0" index="0" bw="4" slack="1"/>
<pin id="397" dir="1" index="1" bw="4" slack="1"/>
</pin_list>
<bind>
<opset="tmp_dataOffset_V_2 "/>
</bind>
</comp>

<comp id="400" class="1005" name="and_ln719_reg_400">
<pin_list>
<pin id="401" dir="0" index="0" bw="1" slack="1"/>
<pin id="402" dir="1" index="1" bw="1" slack="2147483647"/>
</pin_list>
<bind>
<opset="and_ln719 "/>
</bind>
</comp>

<comp id="404" class="1005" name="tmp_reg_404">
<pin_list>
<pin id="405" dir="0" index="0" bw="1" slack="1"/>
<pin id="406" dir="1" index="1" bw="1" slack="2147483647"/>
</pin_list>
<bind>
<opset="tmp "/>
</bind>
</comp>

<comp id="408" class="1005" name="tmp_V_reg_408">
<pin_list>
<pin id="409" dir="0" index="0" bw="4" slack="1"/>
<pin id="410" dir="1" index="1" bw="4" slack="1"/>
</pin_list>
<bind>
<opset="tmp_V "/>
</bind>
</comp>

</comp_list>

<net_list>
<net id="96"><net_src comp="44" pin="0"/><net_sink comp="82" pin=0"/></net>

<net id="97"><net_src comp="2" pin="0"/><net_sink comp="82" pin=1"/></net>

<net id="98"><net_src comp="4" pin="0"/><net_sink comp="82" pin=2"/></net>

<net id="99"><net_src comp="6" pin="0"/><net_sink comp="82" pin=3"/></net>

<net id="100"><net_src comp="8" pin="0"/><net_sink comp="82" pin=4"/></net>

<net id="101"><net_src comp="10" pin="0"/><net_sink comp="82" pin=5"/></net>

<net id="102"><net_src comp="12" pin="0"/><net_sink comp="82" pin=6"/></net>

<net id="103"><net_src comp="14" pin="0"/><net_sink comp="82" pin=7"/></net>

<net id="104"><net_src comp="16" pin="0"/><net_sink comp="82" pin=8"/></net>

<net id="105"><net_src comp="18" pin="0"/><net_sink comp="82" pin=9"/></net>

<net id="106"><net_src comp="20" pin="0"/><net_sink comp="82" pin=10"/></net>

<net id="107"><net_src comp="46" pin="0"/><net_sink comp="82" pin=11"/></net>

<net id="121"><net_src comp="48" pin="0"/><net_sink comp="108" pin=0"/></net>

<net id="122"><net_src comp="2" pin="0"/><net_sink comp="108" pin=1"/></net>

<net id="123"><net_src comp="4" pin="0"/><net_sink comp="108" pin=2"/></net>

<net id="124"><net_src comp="6" pin="0"/><net_sink comp="108" pin=3"/></net>

<net id="125"><net_src comp="8" pin="0"/><net_sink comp="108" pin=4"/></net>

<net id="126"><net_src comp="10" pin="0"/><net_sink comp="108" pin=5"/></net>

<net id="127"><net_src comp="12" pin="0"/><net_sink comp="108" pin=6"/></net>

<net id="128"><net_src comp="14" pin="0"/><net_sink comp="108" pin=7"/></net>

<net id="129"><net_src comp="16" pin="0"/><net_sink comp="108" pin=8"/></net>

<net id="130"><net_src comp="18" pin="0"/><net_sink comp="108" pin=9"/></net>

<net id="131"><net_src comp="20" pin="0"/><net_sink comp="108" pin=10"/></net>

<net id="137"><net_src comp="54" pin="0"/><net_sink comp="132" pin=0"/></net>

<net id="138"><net_src comp="42" pin="0"/><net_sink comp="132" pin=1"/></net>

<net id="139"><net_src comp="46" pin="0"/><net_sink comp="132" pin=2"/></net>

<net id="144"><net_src comp="56" pin="0"/><net_sink comp="140" pin=0"/></net>

<net id="145"><net_src comp="42" pin="0"/><net_sink comp="140" pin=1"/></net>

<net id="151"><net_src comp="80" pin="0"/><net_sink comp="146" pin=0"/></net>

<net id="152"><net_src comp="40" pin="0"/><net_sink comp="146" pin=1"/></net>

<net id="156"><net_src comp="0" pin="0"/><net_sink comp="153" pin=0"/></net>

<net id="160"><net_src comp="108" pin="11"/><net_sink comp="157" pin=0"/></net>

<net id="164"><net_src comp="108" pin="11"/><net_sink comp="161" pin=0"/></net>

<net id="168"><net_src comp="108" pin="11"/><net_sink comp="165" pin=0"/></net>

<net id="172"><net_src comp="108" pin="11"/><net_sink comp="169" pin=0"/></net>

<net id="176"><net_src comp="108" pin="11"/><net_sink comp="173" pin=0"/></net>

<net id="180"><net_src comp="108" pin="11"/><net_sink comp="177" pin=0"/></net>

<net id="184"><net_src comp="108" pin="11"/><net_sink comp="181" pin=0"/></net>

<net id="188"><net_src comp="108" pin="11"/><net_sink comp="185" pin=0"/></net>

<net id="192"><net_src comp="108" pin="11"/><net_sink comp="189" pin=0"/></net>

<net id="197"><net_src comp="157" pin="1"/><net_sink comp="193" pin=0"/></net>

<net id="198"><net_src comp="22" pin="0"/><net_sink comp="193" pin=1"/></net>

<net id="203"><net_src comp="161" pin="1"/><net_sink comp="199" pin=0"/></net>

<net id="204"><net_src comp="24" pin="0"/><net_sink comp="199" pin=1"/></net>

<net id="209"><net_src comp="165" pin="1"/><net_sink comp="205" pin=0"/></net>

<net id="210"><net_src comp="26" pin="0"/><net_sink comp="205" pin=1"/></net>

<net id="215"><net_src comp="169" pin="1"/><net_sink comp="211" pin=0"/></net>

<net id="216"><net_src comp="28" pin="0"/><net_sink comp="211" pin=1"/></net>

<net id="221"><net_src comp="173" pin="1"/><net_sink comp="217" pin=0"/></net>

<net id="222"><net_src comp="30" pin="0"/><net_sink comp="217" pin=1"/></net>

<net id="227"><net_src comp="177" pin="1"/><net_sink comp="223" pin=0"/></net>

<net id="228"><net_src comp="32" pin="0"/><net_sink comp="223" pin=1"/></net>

<net id="233"><net_src comp="181" pin="1"/><net_sink comp="229" pin=0"/></net>

<net id="234"><net_src comp="34" pin="0"/><net_sink comp="229" pin=1"/></net>

<net id="239"><net_src comp="185" pin="1"/><net_sink comp="235" pin=0"/></net>

<net id="240"><net_src comp="36" pin="0"/><net_sink comp="235" pin=1"/></net>

<net id="245"><net_src comp="189" pin="1"/><net_sink comp="241" pin=0"/></net>

<net id="246"><net_src comp="38" pin="0"/><net_sink comp="241" pin=1"/></net>

<net id="251"><net_src comp="189" pin="1"/><net_sink comp="247" pin=0"/></net>

<net id="252"><net_src comp="50" pin="0"/><net_sink comp="247" pin=1"/></net>

<net id="257"><net_src comp="181" pin="1"/><net_sink comp="253" pin=0"/></net>

<net id="258"><net_src comp="247" pin="2"/><net_sink comp="253" pin=1"/></net>

<net id="263"><net_src comp="52" pin="0"/><net_sink comp="259" pin=0"/></net>

<net id="264"><net_src comp="0" pin="0"/><net_sink comp="259" pin=1"/></net>

<net id="269"><net_src comp="58" pin="0"/><net_sink comp="265" pin=0"/></net>

<net id="270"><net_src comp="0" pin="0"/><net_sink comp="265" pin=1"/></net>

<net id="284"><net_src comp="76" pin="0"/><net_sink comp="271" pin=0"/></net>

<net id="285"><net_src comp="78" pin="0"/><net_sink comp="271" pin=7"/></net>

<net id="286"><net_src comp="271" pin="11"/><net_sink comp="146" pin=2"/></net>

<net id="290"><net_src comp="22" pin="0"/><net_sink comp="287" pin=0"/></net>

<net id="294"><net_src comp="24" pin="0"/><net_sink comp="291" pin=0"/></net>

<net id="298"><net_src comp="26" pin="0"/><net_sink comp="295" pin=0"/></net>

<net id="302"><net_src comp="28" pin="0"/><net_sink comp="299" pin=0"/></net>

<net id="306"><net_src comp="30" pin="0"/><net_sink comp="303" pin=0"/></net>

<net id="310"><net_src comp="32" pin="0"/><net_sink comp="307" pin=0"/></net>

<net id="314"><net_src comp="34" pin="0"/><net_sink comp="311" pin=0"/></net>

<net id="318"><net_src comp="36" pin="0"/><net_sink comp="315" pin=0"/></net>

<net id="322"><net_src comp="38" pin="0"/><net_sink comp="319" pin=0"/></net>

<net id="336"><net_src comp="76" pin="0"/><net_sink comp="323" pin=0"/></net>

<net id="337"><net_src comp="319" pin="1"/><net_sink comp="323" pin=1"/></net>

<net id="338"><net_src comp="315" pin="1"/><net_sink comp="323" pin=2"/></net>

<net id="339"><net_src comp="311" pin="1"/><net_sink comp="323" pin=3"/></net>

<net id="340"><net_src comp="307" pin="1"/><net_sink comp="323" pin=4"/></net>

<net id="341"><net_src comp="303" pin="1"/><net_sink comp="323" pin=5"/></net>

<net id="342"><net_src comp="299" pin="1"/><net_sink comp="323" pin=6"/></net>

<net id="343"><net_src comp="295" pin="1"/><net_sink comp="323" pin=8"/></net>

<net id="344"><net_src comp="291" pin="1"/><net_sink comp="323" pin=9"/></net>

<net id="345"><net_src comp="287" pin="1"/><net_sink comp="323" pin=10"/></net>

<net id="346"><net_src comp="323" pin="11"/><net_sink comp="146" pin=2"/></net>

<net id="350"><net_src comp="153" pin="1"/><net_sink comp="347" pin=0"/></net>

<net id="354"><net_src comp="82" pin="12"/><net_sink comp="351" pin=0"/></net>

<net id="358"><net_src comp="157" pin="1"/><net_sink comp="355" pin=0"/></net>

<net id="359"><net_src comp="355" pin="1"/><net_sink comp="271" pin=10"/></net>

<net id="363"><net_src comp="161" pin="1"/><net_sink comp="360" pin=0"/></net>

<net id="364"><net_src comp="360" pin="1"/><net_sink comp="271" pin=9"/></net>

<net id="368"><net_src comp="165" pin="1"/><net_sink comp="365" pin=0"/></net>

<net id="369"><net_src comp="365" pin="1"/><net_sink comp="271" pin=8"/></net>

<net id="373"><net_src comp="169" pin="1"/><net_sink comp="370" pin=0"/></net>

<net id="374"><net_src comp="370" pin="1"/><net_sink comp="271" pin=6"/></net>

<net id="378"><net_src comp="173" pin="1"/><net_sink comp="375" pin=0"/></net>

<net id="379"><net_src comp="375" pin="1"/><net_sink comp="271" pin=5"/></net>

<net id="383"><net_src comp="177" pin="1"/><net_sink comp="380" pin=0"/></net>

<net id="384"><net_src comp="380" pin="1"/><net_sink comp="271" pin=4"/></net>

<net id="388"><net_src comp="181" pin="1"/><net_sink comp="385" pin=0"/></net>

<net id="389"><net_src comp="385" pin="1"/><net_sink comp="271" pin=3"/></net>

<net id="393"><net_src comp="185" pin="1"/><net_sink comp="390" pin=0"/></net>

<net id="394"><net_src comp="390" pin="1"/><net_sink comp="271" pin=2"/></net>

<net id="398"><net_src comp="189" pin="1"/><net_sink comp="395" pin=0"/></net>

<net id="399"><net_src comp="395" pin="1"/><net_sink comp="271" pin=1"/></net>

<net id="403"><net_src comp="253" pin="2"/><net_sink comp="400" pin=0"/></net>

<net id="407"><net_src comp="132" pin="3"/><net_sink comp="404" pin=0"/></net>

<net id="411"><net_src comp="140" pin="2"/><net_sink comp="408" pin=0"/></net>

<net id="412"><net_src comp="408" pin="1"/><net_sink comp="323" pin=7"/></net>

</net_list>

</model> 
---------------- Datapath Model END ------------------

* FSMD analyzer results:
  - Output states:
	Port: state_V | {1 }
	Port: rxEng_headerMetaFifo_20 | {}
	Port: rxEng_headerMetaFifo_12 | {}
	Port: rxEng_headerMetaFifo_23 | {}
	Port: rxEng_headerMetaFifo_22 | {}
	Port: rxEng_headerMetaFifo_18 | {}
	Port: rxEng_headerMetaFifo_10 | {}
	Port: rxEng_headerMetaFifo_19 | {}
	Port: rxEng_headerMetaFifo_21 | {}
	Port: rxEng_headerMetaFifo_16 | {}
	Port: rxEng_headerMetaFifo_14 | {}
	Port: meta_seqNumb_V | {1 }
	Port: meta_ackNumb_V | {1 }
	Port: meta_winSize_V | {1 }
	Port: meta_length_V | {1 }
	Port: meta_ack_V | {1 }
	Port: meta_rst_V | {1 }
	Port: meta_syn_V | {1 }
	Port: meta_fin_V | {1 }
	Port: meta_dataOffset_V | {1 }
	Port: rxEng_metaDataFifo_V | {2 }
	Port: rxEng_winScaleFifo_V | {}
 - Input state : 
	Port: merge_header_meta : state_V | {1 }
	Port: merge_header_meta : rxEng_headerMetaFifo_20 | {1 }
	Port: merge_header_meta : rxEng_headerMetaFifo_12 | {1 }
	Port: merge_header_meta : rxEng_headerMetaFifo_23 | {1 }
	Port: merge_header_meta : rxEng_headerMetaFifo_22 | {1 }
	Port: merge_header_meta : rxEng_headerMetaFifo_18 | {1 }
	Port: merge_header_meta : rxEng_headerMetaFifo_10 | {1 }
	Port: merge_header_meta : rxEng_headerMetaFifo_19 | {1 }
	Port: merge_header_meta : rxEng_headerMetaFifo_21 | {1 }
	Port: merge_header_meta : rxEng_headerMetaFifo_16 | {1 }
	Port: merge_header_meta : rxEng_headerMetaFifo_14 | {1 }
	Port: merge_header_meta : meta_seqNumb_V | {2 }
	Port: merge_header_meta : meta_ackNumb_V | {2 }
	Port: merge_header_meta : meta_winSize_V | {2 }
	Port: merge_header_meta : meta_length_V | {2 }
	Port: merge_header_meta : meta_ack_V | {2 }
	Port: merge_header_meta : meta_rst_V | {2 }
	Port: merge_header_meta : meta_syn_V | {2 }
	Port: merge_header_meta : meta_fin_V | {2 }
	Port: merge_header_meta : meta_dataOffset_V | {2 }
	Port: merge_header_meta : rxEng_metaDataFifo_V | {}
	Port: merge_header_meta : rxEng_winScaleFifo_V | {1 }
  - Chain level:
	State 1
		br_ln712 : 1
		store_ln53 : 1
		store_ln53 : 1
		store_ln53 : 1
		store_ln53 : 1
		store_ln53 : 1
		store_ln53 : 1
		store_ln53 : 1
		store_ln53 : 1
		store_ln53 : 1
		icmp_ln895 : 1
		and_ln719 : 2
		br_ln719 : 2
	State 2
		write_ln726 : 1
		tmp_1 : 1
		write_ln735 : 2


============================================================
+ Verbose Summary: Datapath Resource usage 
============================================================

* Functional unit list:
|----------|---------------------------|---------|---------|
| Operation|      Functional Unit      |    FF   |   LUT   |
|----------|---------------------------|---------|---------|
|   icmp   |     icmp_ln895_fu_247     |    0    |    9    |
|----------|---------------------------|---------|---------|
|    and   |      and_ln719_fu_253     |    0    |    2    |
|----------|---------------------------|---------|---------|
| nbreadreq|  tmp_231_nbreadreq_fu_82  |    0    |    0    |
|          |    tmp_nbreadreq_fu_132   |    0    |    0    |
|----------|---------------------------|---------|---------|
|   read   |     empty_read_fu_108     |    0    |    0    |
|          |     tmp_V_read_fu_140     |    0    |    0    |
|----------|---------------------------|---------|---------|
|   write  |      grp_write_fu_146     |    0    |    0    |
|----------|---------------------------|---------|---------|
|          |   tmp_seqNumb_V_7_fu_157  |    0    |    0    |
|          |   tmp_ackNumb_V_7_fu_161  |    0    |    0    |
|          |   tmp_winSize_V_1_fu_165  |    0    |    0    |
|          |   tmp_length_V_6_fu_169   |    0    |    0    |
|extractvalue|     tmp_ack_V_1_fu_173    |    0    |    0    |
|          |     tmp_rst_V_1_fu_177    |    0    |    0    |
|          |     tmp_syn_V_1_fu_181    |    0    |    0    |
|          |     tmp_fin_V_1_fu_185    |    0    |    0    |
|          | tmp_dataOffset_V_2_fu_189 |    0    |    0    |
|----------|---------------------------|---------|---------|
|bitconcatenate|       tmp113_fu_271       |    0    |    0    |
|          |        tmp_1_fu_323       |    0    |    0    |
|----------|---------------------------|---------|---------|
|   Total  |                           |    0    |    11   |
|----------|---------------------------|---------|---------|

Memories:
N/A

* Register list:
+--------------------------+--------+
|                          |   FF   |
+--------------------------+--------+
|     and_ln719_reg_400    |    1   |
|   state_V_load_reg_347   |    1   |
|      tmp_231_reg_351     |    1   |
|       tmp_V_reg_408      |    4   |
|  tmp_ackNumb_V_7_reg_360 |   32   |
|    tmp_ack_V_1_reg_375   |    1   |
|tmp_dataOffset_V_2_reg_395|    4   |
|    tmp_fin_V_1_reg_390   |    1   |
|  tmp_length_V_6_reg_370  |   16   |
|        tmp_reg_404       |    1   |
|    tmp_rst_V_1_reg_380   |    1   |
|  tmp_seqNumb_V_7_reg_355 |   32   |
|    tmp_syn_V_1_reg_385   |    1   |
|  tmp_winSize_V_1_reg_365 |   16   |
+--------------------------+--------+
|           Total          |   112  |
+--------------------------+--------+

* Multiplexer (MUX) list: 
|------------------|------|------|------|--------||---------||---------|
|       Comp       |  Pin | Size |  BW  | S x BW ||  Delay  ||   LUT   |
|------------------|------|------|------|--------||---------||---------|
| grp_write_fu_146 |  p2  |   2  |  108 |   216  ||    9    |
|------------------|------|------|------|--------||---------||---------|
|       Total      |      |      |      |   216  ||  1.769  ||    9    |
|------------------|------|------|------|--------||---------||---------|



* Summary:
+-----------+--------+--------+--------+
|           |  Delay |   FF   |   LUT  |
+-----------+--------+--------+--------+
|  Function |    -   |    0   |   11   |
|   Memory  |    -   |    -   |    -   |
|Multiplexer|    1   |    -   |    9   |
|  Register |    -   |   112  |    -   |
+-----------+--------+--------+--------+
|   Total   |    1   |   112  |   20   |
+-----------+--------+--------+--------+
