

================================================================
== Vivado HLS Report for 'prependPseudoHeader'
================================================================
* Date:           Sat Dec 12 19:34:16 2020

* Version:        2019.2.1 (Build 2724168 on Thu Dec 05 05:19:09 MST 2019)
* Project:        toe_prj
* Solution:       solution1
* Product family: zynq
* Target device:  xc7z020-clg400-1


================================================================
== Performance Estimates
================================================================
+ Timing: 
    * Summary: 
    +--------+---------+----------+------------+
    |  Clock |  Target | Estimated| Uncertainty|
    +--------+---------+----------+------------+
    |ap_clk  | 6.40 ns | 2.800 ns |   0.80 ns  |
    +--------+---------+----------+------------+

+ Latency: 
    * Summary: 
    +---------+---------+----------+----------+-----+-----+----------+
    |  Latency (cycles) |  Latency (absolute) |  Interval | Pipeline |
    |   min   |   max   |    min   |    max   | min | max |   Type   |
    +---------+---------+----------+----------+-----+-----+----------+
    |        1|        1| 6.400 ns | 6.400 ns |    1|    1| function |
    +---------+---------+----------+----------+-----+-----+----------+

    + Detail: 
        * Instance: 
        N/A

        * Loop: 
        N/A

============================================================
+ Verbose Summary: Synthesis Manager
============================================================
InlineROM: 1
ExposeGlobal: 0
============================================================
+ Verbose Summary: CDFG Model
============================================================
IsTopModel: 0
ResetActiveHigh: 1
IsCombinational: 2
IsDatapathOnly: 0
HasWiredReturn: 1
HasMFsm: 2
HasVarLatency: 0
IsPipeline: 1
IsRtlPipelined: 1
IsInstanceOverlapped: 0
IsDontTouch: 0
HasImplIP: 0
IsGatedGlobalClock: 0

+ Individual pipeline summary: 
  * Pipeline-0: initiation interval (II) = 1, depth = 2


============================================================
+ Verbose Summary: Schedule
============================================================
* Number of FSM states : 2
* Pipeline : 1
  Pipeline-0 : II = 1, D = 2, States = { 1 2 }
* Dataflow Pipeline: 0

* FSM state transitions: 
1 --> 2 
2 --> 

* FSM state operations: 

State 1 <SV = 0> <Delay = 2.80>
ST_1 : Operation 3 [1/1] (0.00ns)   --->   "%state_2_load = load i1* @state_2, align 1" [/home/paulrr2/Projects/ece527/babelsoc/fpga-network-stack/hls/toe/rx_engine/rx_engine.cpp:131]   --->   Operation 3 'load' 'state_2_load' <Predicate = true> <Delay = 0.00>
ST_1 : Operation 4 [1/1] (0.00ns)   --->   "%firstPayload_load = load i1* @firstPayload, align 1" [/home/paulrr2/Projects/ece527/babelsoc/fpga-network-stack/hls/toe/rx_engine/rx_engine.cpp:157]   --->   Operation 4 'load' 'firstPayload_load' <Predicate = true> <Delay = 0.00>
ST_1 : Operation 5 [1/1] (0.00ns)   --->   "br i1 %state_2_load, label %5, label %0" [/home/paulrr2/Projects/ece527/babelsoc/fpga-network-stack/hls/toe/rx_engine/rx_engine.cpp:131]   --->   Operation 5 'br' <Predicate = true> <Delay = 0.00>
ST_1 : Operation 6 [1/1] (0.00ns)   --->   "%tmp_214 = call i1 @_ssdm_op_NbReadReq.ap_fifo.i64P.i8P.i1P(i64* @rxEng_pseudoHeaderFi_3, i8* @rxEng_pseudoHeaderFi_5, i1* @rxEng_pseudoHeaderFi_6, i32 1) nounwind" [/home/paulrr2/Projects/ece527/babelsoc/fpga-network-stack/hls/toe/rx_engine/rx_engine.cpp:134]   --->   Operation 6 'nbreadreq' 'tmp_214' <Predicate = (!state_2_load)> <Delay = 0.00> <Core = "FIFO">   --->   Core 32 'FIFO' <Latency = 0> <II = 1> <Delay = 3.63> <Storage> <Opcode : 'read' 'write' 'nbread' 'nbwrite'> <Ports = 0> <Width = 73> <Depth = 2> <FIFO>
ST_1 : Operation 7 [1/1] (0.00ns)   --->   "br i1 %tmp_214, label %1, label %._crit_edge2.i" [/home/paulrr2/Projects/ece527/babelsoc/fpga-network-stack/hls/toe/rx_engine/rx_engine.cpp:134]   --->   Operation 7 'br' <Predicate = (!state_2_load)> <Delay = 0.00>
ST_1 : Operation 8 [1/1] (2.80ns)   --->   "%empty = call { i64, i8, i1 } @_ssdm_op_Read.ap_fifo.volatile.i64P.i8P.i1P(i64* @rxEng_pseudoHeaderFi_3, i8* @rxEng_pseudoHeaderFi_5, i1* @rxEng_pseudoHeaderFi_6) nounwind" [/home/paulrr2/Projects/ece527/babelsoc/fpga-network-stack/hls/toe/rx_engine/rx_engine.cpp:136]   --->   Operation 8 'read' 'empty' <Predicate = (!state_2_load & tmp_214)> <Delay = 2.80> <Core = "FIFO">   --->   Core 32 'FIFO' <Latency = 0> <II = 1> <Delay = 3.63> <Storage> <Opcode : 'read' 'write' 'nbread' 'nbwrite'> <Ports = 0> <Width = 73> <Depth = 2> <FIFO>
ST_1 : Operation 9 [1/1] (0.00ns)   --->   "%tmp_data_V = extractvalue { i64, i8, i1 } %empty, 0" [/home/paulrr2/Projects/ece527/babelsoc/fpga-network-stack/hls/toe/rx_engine/rx_engine.cpp:136]   --->   Operation 9 'extractvalue' 'tmp_data_V' <Predicate = (!state_2_load & tmp_214)> <Delay = 0.00>
ST_1 : Operation 10 [1/1] (0.00ns)   --->   "%tmp_keep_V = extractvalue { i64, i8, i1 } %empty, 1" [/home/paulrr2/Projects/ece527/babelsoc/fpga-network-stack/hls/toe/rx_engine/rx_engine.cpp:136]   --->   Operation 10 'extractvalue' 'tmp_keep_V' <Predicate = (!state_2_load & tmp_214)> <Delay = 0.00>
ST_1 : Operation 11 [1/1] (0.00ns)   --->   "%tmp_last_V = extractvalue { i64, i8, i1 } %empty, 2" [/home/paulrr2/Projects/ece527/babelsoc/fpga-network-stack/hls/toe/rx_engine/rx_engine.cpp:136]   --->   Operation 11 'extractvalue' 'tmp_last_V' <Predicate = (!state_2_load & tmp_214)> <Delay = 0.00>
ST_1 : Operation 12 [1/1] (0.00ns)   --->   "store i64 %tmp_data_V, i64* @prevWord_data_V_10, align 8" [/home/paulrr2/Projects/ece527/babelsoc/fpga-network-stack/hls/toe/tx_engine/../../axi_utils.hpp:50->/home/paulrr2/Projects/ece527/babelsoc/fpga-network-stack/hls/toe/rx_engine/rx_engine.cpp:136]   --->   Operation 12 'store' <Predicate = (!state_2_load & tmp_214)> <Delay = 0.00>
ST_1 : Operation 13 [1/1] (0.00ns)   --->   "br i1 %tmp_last_V, label %3, label %2" [/home/paulrr2/Projects/ece527/babelsoc/fpga-network-stack/hls/toe/rx_engine/rx_engine.cpp:138]   --->   Operation 13 'br' <Predicate = (!state_2_load & tmp_214)> <Delay = 0.00>
ST_1 : Operation 14 [1/1] (1.76ns)   --->   "store i1 true, i1* @firstPayload, align 1" [/home/paulrr2/Projects/ece527/babelsoc/fpga-network-stack/hls/toe/rx_engine/rx_engine.cpp:145]   --->   Operation 14 'store' <Predicate = (!state_2_load & tmp_214 & tmp_last_V)> <Delay = 1.76>
ST_1 : Operation 15 [1/1] (1.76ns)   --->   "store i1 true, i1* @state_2, align 1" [/home/paulrr2/Projects/ece527/babelsoc/fpga-network-stack/hls/toe/rx_engine/rx_engine.cpp:146]   --->   Operation 15 'store' <Predicate = (!state_2_load & tmp_214 & tmp_last_V)> <Delay = 1.76>
ST_1 : Operation 16 [1/1] (0.00ns)   --->   "%tmp = call i1 @_ssdm_op_NbReadReq.ap_fifo.i64P.i8P.i1P(i64* @rxEng_dataBuffer5_V_1, i8* @rxEng_dataBuffer5_V_2, i1* @rxEng_dataBuffer5_V_s, i32 1) nounwind" [/home/paulrr2/Projects/ece527/babelsoc/fpga-network-stack/hls/toe/rx_engine/rx_engine.cpp:152]   --->   Operation 16 'nbreadreq' 'tmp' <Predicate = (state_2_load)> <Delay = 0.00> <Core = "FIFO">   --->   Core 32 'FIFO' <Latency = 0> <II = 1> <Delay = 3.63> <Storage> <Opcode : 'read' 'write' 'nbread' 'nbwrite'> <Ports = 0> <Width = 73> <Depth = 2> <FIFO>
ST_1 : Operation 17 [1/1] (0.00ns)   --->   "br i1 %tmp, label %6, label %._crit_edge3.i" [/home/paulrr2/Projects/ece527/babelsoc/fpga-network-stack/hls/toe/rx_engine/rx_engine.cpp:152]   --->   Operation 17 'br' <Predicate = (state_2_load)> <Delay = 0.00>
ST_1 : Operation 18 [1/1] (2.80ns)   --->   "%empty_393 = call { i64, i8, i1 } @_ssdm_op_Read.ap_fifo.volatile.i64P.i8P.i1P(i64* @rxEng_dataBuffer5_V_1, i8* @rxEng_dataBuffer5_V_2, i1* @rxEng_dataBuffer5_V_s) nounwind" [/home/paulrr2/Projects/ece527/babelsoc/fpga-network-stack/hls/toe/rx_engine/rx_engine.cpp:154]   --->   Operation 18 'read' 'empty_393' <Predicate = (state_2_load & tmp)> <Delay = 2.80> <Core = "FIFO">   --->   Core 32 'FIFO' <Latency = 0> <II = 1> <Delay = 3.63> <Storage> <Opcode : 'read' 'write' 'nbread' 'nbwrite'> <Ports = 0> <Width = 73> <Depth = 2> <FIFO>
ST_1 : Operation 19 [1/1] (0.00ns)   --->   "%tmp_data_V_13 = extractvalue { i64, i8, i1 } %empty_393, 0" [/home/paulrr2/Projects/ece527/babelsoc/fpga-network-stack/hls/toe/rx_engine/rx_engine.cpp:154]   --->   Operation 19 'extractvalue' 'tmp_data_V_13' <Predicate = (state_2_load & tmp)> <Delay = 0.00>
ST_1 : Operation 20 [1/1] (0.00ns)   --->   "%tmp_keep_V_12 = extractvalue { i64, i8, i1 } %empty_393, 1" [/home/paulrr2/Projects/ece527/babelsoc/fpga-network-stack/hls/toe/rx_engine/rx_engine.cpp:154]   --->   Operation 20 'extractvalue' 'tmp_keep_V_12' <Predicate = (state_2_load & tmp)> <Delay = 0.00>
ST_1 : Operation 21 [1/1] (0.00ns)   --->   "%tmp_last_V_10 = extractvalue { i64, i8, i1 } %empty_393, 2" [/home/paulrr2/Projects/ece527/babelsoc/fpga-network-stack/hls/toe/rx_engine/rx_engine.cpp:154]   --->   Operation 21 'extractvalue' 'tmp_last_V_10' <Predicate = (state_2_load & tmp)> <Delay = 0.00>
ST_1 : Operation 22 [1/1] (1.76ns)   --->   "br i1 %firstPayload_load, label %7, label %._crit_edge4.i" [/home/paulrr2/Projects/ece527/babelsoc/fpga-network-stack/hls/toe/rx_engine/rx_engine.cpp:157]   --->   Operation 22 'br' <Predicate = (state_2_load & tmp)> <Delay = 1.76>
ST_1 : Operation 23 [1/1] (0.00ns)   --->   "%p_Val2_s = load i64* @prevWord_data_V_10, align 8" [/home/paulrr2/Projects/ece527/babelsoc/fpga-network-stack/hls/toe/rx_engine/rx_engine.cpp:161]   --->   Operation 23 'load' 'p_Val2_s' <Predicate = (state_2_load & tmp & firstPayload_load)> <Delay = 0.00>
ST_1 : Operation 24 [1/1] (0.00ns)   --->   "%trunc_ln647 = trunc i64 %p_Val2_s to i32" [/home/paulrr2/Projects/ece527/babelsoc/fpga-network-stack/hls/toe/rx_engine/rx_engine.cpp:161]   --->   Operation 24 'trunc' 'trunc_ln647' <Predicate = (state_2_load & tmp & firstPayload_load)> <Delay = 0.00>
ST_1 : Operation 25 [1/1] (0.00ns)   --->   "%p_Result_s = call i64 @llvm.part.set.i64.i32(i64 %tmp_data_V_13, i32 %trunc_ln647, i32 0, i32 31) nounwind" [/home/paulrr2/Projects/ece527/babelsoc/fpga-network-stack/hls/toe/rx_engine/rx_engine.cpp:161]   --->   Operation 25 'partset' 'p_Result_s' <Predicate = (state_2_load & tmp & firstPayload_load)> <Delay = 0.00>
ST_1 : Operation 26 [1/1] (1.76ns)   --->   "store i1 false, i1* @firstPayload, align 1" [/home/paulrr2/Projects/ece527/babelsoc/fpga-network-stack/hls/toe/rx_engine/rx_engine.cpp:167]   --->   Operation 26 'store' <Predicate = (state_2_load & tmp & firstPayload_load)> <Delay = 1.76>
ST_1 : Operation 27 [1/1] (1.76ns)   --->   "br label %._crit_edge4.i" [/home/paulrr2/Projects/ece527/babelsoc/fpga-network-stack/hls/toe/rx_engine/rx_engine.cpp:168]   --->   Operation 27 'br' <Predicate = (state_2_load & tmp & firstPayload_load)> <Delay = 1.76>
ST_1 : Operation 28 [1/1] (1.76ns)   --->   "store i1 false, i1* @state_2, align 1" [/home/paulrr2/Projects/ece527/babelsoc/fpga-network-stack/hls/toe/rx_engine/rx_engine.cpp:175]   --->   Operation 28 'store' <Predicate = (state_2_load & tmp & tmp_last_V_10)> <Delay = 1.76>

State 2 <SV = 1> <Delay = 2.80>
ST_2 : Operation 29 [1/1] (0.00ns)   --->   "call void (...)* @_ssdm_op_SpecInterface(i73* @rxEng_dataBuffer1_V, [8 x i8]* @ap_fifo_str, i32 0, i32 0, [1 x i8]* @p_str, i32 0, i32 0, [1 x i8]* @p_str, [1 x i8]* @p_str, [1 x i8]* @p_str, i32 2, i32 2, i32 16, i32 16, [1 x i8]* @p_str, [1 x i8]* @p_str)"   --->   Operation 29 'specinterface' <Predicate = true> <Delay = 0.00>
ST_2 : Operation 30 [1/1] (0.00ns)   --->   "call void (...)* @_ssdm_op_SpecInterface(i64* @rxEng_dataBuffer5_V_1, [8 x i8]* @ap_fifo_str, i32 0, i32 0, [1 x i8]* @p_str, i32 0, i32 0, [1 x i8]* @p_str, [1 x i8]* @p_str, [1 x i8]* @p_str, i32 2, i32 2, i32 16, i32 16, [1 x i8]* @p_str, [1 x i8]* @p_str)"   --->   Operation 30 'specinterface' <Predicate = true> <Delay = 0.00>
ST_2 : Operation 31 [1/1] (0.00ns)   --->   "call void (...)* @_ssdm_op_SpecInterface(i8* @rxEng_dataBuffer5_V_2, [8 x i8]* @ap_fifo_str, i32 0, i32 0, [1 x i8]* @p_str, i32 0, i32 0, [1 x i8]* @p_str, [1 x i8]* @p_str, [1 x i8]* @p_str, i32 2, i32 2, i32 16, i32 16, [1 x i8]* @p_str, [1 x i8]* @p_str)"   --->   Operation 31 'specinterface' <Predicate = true> <Delay = 0.00>
ST_2 : Operation 32 [1/1] (0.00ns)   --->   "call void (...)* @_ssdm_op_SpecInterface(i1* @rxEng_dataBuffer5_V_s, [8 x i8]* @ap_fifo_str, i32 0, i32 0, [1 x i8]* @p_str, i32 0, i32 0, [1 x i8]* @p_str, [1 x i8]* @p_str, [1 x i8]* @p_str, i32 2, i32 2, i32 16, i32 16, [1 x i8]* @p_str, [1 x i8]* @p_str)"   --->   Operation 32 'specinterface' <Predicate = true> <Delay = 0.00>
ST_2 : Operation 33 [1/1] (0.00ns)   --->   "call void (...)* @_ssdm_op_SpecInterface(i64* @rxEng_pseudoHeaderFi_3, [8 x i8]* @ap_fifo_str, i32 0, i32 0, [1 x i8]* @p_str, i32 0, i32 0, [1 x i8]* @p_str, [1 x i8]* @p_str, [1 x i8]* @p_str, i32 2, i32 2, i32 16, i32 16, [1 x i8]* @p_str, [1 x i8]* @p_str)"   --->   Operation 33 'specinterface' <Predicate = true> <Delay = 0.00>
ST_2 : Operation 34 [1/1] (0.00ns)   --->   "call void (...)* @_ssdm_op_SpecInterface(i8* @rxEng_pseudoHeaderFi_5, [8 x i8]* @ap_fifo_str, i32 0, i32 0, [1 x i8]* @p_str, i32 0, i32 0, [1 x i8]* @p_str, [1 x i8]* @p_str, [1 x i8]* @p_str, i32 2, i32 2, i32 16, i32 16, [1 x i8]* @p_str, [1 x i8]* @p_str)"   --->   Operation 34 'specinterface' <Predicate = true> <Delay = 0.00>
ST_2 : Operation 35 [1/1] (0.00ns)   --->   "call void (...)* @_ssdm_op_SpecInterface(i1* @rxEng_pseudoHeaderFi_6, [8 x i8]* @ap_fifo_str, i32 0, i32 0, [1 x i8]* @p_str, i32 0, i32 0, [1 x i8]* @p_str, [1 x i8]* @p_str, [1 x i8]* @p_str, i32 2, i32 2, i32 16, i32 16, [1 x i8]* @p_str, [1 x i8]* @p_str)"   --->   Operation 35 'specinterface' <Predicate = true> <Delay = 0.00>
ST_2 : Operation 36 [1/1] (0.00ns)   --->   "call void (...)* @_ssdm_op_SpecPipeline(i32 1, i32 1, i32 1, i32 0, [1 x i8]* @p_str566) nounwind" [/home/paulrr2/Projects/ece527/babelsoc/fpga-network-stack/hls/toe/rx_engine/rx_engine.cpp:123]   --->   Operation 36 'specpipeline' <Predicate = true> <Delay = 0.00>
ST_2 : Operation 37 [1/1] (0.00ns)   --->   "%tmp48 = call i73 @_ssdm_op_BitConcatenate.i73.i1.i8.i64(i1 false, i8 %tmp_keep_V, i64 %tmp_data_V) nounwind" [/home/paulrr2/Projects/ece527/babelsoc/fpga-network-stack/hls/toe/rx_engine/rx_engine.cpp:140]   --->   Operation 37 'bitconcatenate' 'tmp48' <Predicate = (!state_2_load & tmp_214 & !tmp_last_V)> <Delay = 0.00>
ST_2 : Operation 38 [1/1] (2.80ns)   --->   "call void @_ssdm_op_Write.ap_fifo.volatile.i73P(i73* @rxEng_dataBuffer1_V, i73 %tmp48) nounwind" [/home/paulrr2/Projects/ece527/babelsoc/fpga-network-stack/hls/toe/rx_engine/rx_engine.cpp:140]   --->   Operation 38 'write' <Predicate = (!state_2_load & tmp_214 & !tmp_last_V)> <Delay = 2.80> <Core = "FIFO">   --->   Core 32 'FIFO' <Latency = 0> <II = 1> <Delay = 3.63> <Storage> <Opcode : 'read' 'write' 'nbread' 'nbwrite'> <Ports = 0> <Width = 73> <Depth = 2> <FIFO>
ST_2 : Operation 39 [1/1] (0.00ns)   --->   "br label %4" [/home/paulrr2/Projects/ece527/babelsoc/fpga-network-stack/hls/toe/rx_engine/rx_engine.cpp:141]   --->   Operation 39 'br' <Predicate = (!state_2_load & tmp_214 & !tmp_last_V)> <Delay = 0.00>
ST_2 : Operation 40 [1/1] (0.00ns)   --->   "br label %4"   --->   Operation 40 'br' <Predicate = (!state_2_load & tmp_214 & tmp_last_V)> <Delay = 0.00>
ST_2 : Operation 41 [1/1] (0.00ns)   --->   "br label %._crit_edge2.i" [/home/paulrr2/Projects/ece527/babelsoc/fpga-network-stack/hls/toe/rx_engine/rx_engine.cpp:149]   --->   Operation 41 'br' <Predicate = (!state_2_load & tmp_214)> <Delay = 0.00>
ST_2 : Operation 42 [1/1] (0.00ns)   --->   "br label %"prependPseudoHeader<64>.exit"" [/home/paulrr2/Projects/ece527/babelsoc/fpga-network-stack/hls/toe/rx_engine/rx_engine.cpp:150]   --->   Operation 42 'br' <Predicate = (!state_2_load)> <Delay = 0.00>
ST_2 : Operation 43 [1/1] (0.00ns)   --->   "%tmp_data_V_12 = phi i64 [ %p_Result_s, %7 ], [ %tmp_data_V_13, %6 ]"   --->   Operation 43 'phi' 'tmp_data_V_12' <Predicate = (state_2_load & tmp)> <Delay = 0.00>
ST_2 : Operation 44 [1/1] (0.00ns)   --->   "%tmp_1 = call i73 @_ssdm_op_BitConcatenate.i73.i1.i8.i64(i1 %tmp_last_V_10, i8 %tmp_keep_V_12, i64 %tmp_data_V_12) nounwind" [/home/paulrr2/Projects/ece527/babelsoc/fpga-network-stack/hls/toe/rx_engine/rx_engine.cpp:170]   --->   Operation 44 'bitconcatenate' 'tmp_1' <Predicate = (state_2_load & tmp)> <Delay = 0.00>
ST_2 : Operation 45 [1/1] (2.80ns)   --->   "call void @_ssdm_op_Write.ap_fifo.volatile.i73P(i73* @rxEng_dataBuffer1_V, i73 %tmp_1) nounwind" [/home/paulrr2/Projects/ece527/babelsoc/fpga-network-stack/hls/toe/rx_engine/rx_engine.cpp:170]   --->   Operation 45 'write' <Predicate = (state_2_load & tmp)> <Delay = 2.80> <Core = "FIFO">   --->   Core 32 'FIFO' <Latency = 0> <II = 1> <Delay = 3.63> <Storage> <Opcode : 'read' 'write' 'nbread' 'nbwrite'> <Ports = 0> <Width = 73> <Depth = 2> <FIFO>
ST_2 : Operation 46 [1/1] (0.00ns)   --->   "br i1 %tmp_last_V_10, label %8, label %._crit_edge5.i" [/home/paulrr2/Projects/ece527/babelsoc/fpga-network-stack/hls/toe/rx_engine/rx_engine.cpp:172]   --->   Operation 46 'br' <Predicate = (state_2_load & tmp)> <Delay = 0.00>
ST_2 : Operation 47 [1/1] (0.00ns)   --->   "br label %._crit_edge5.i" [/home/paulrr2/Projects/ece527/babelsoc/fpga-network-stack/hls/toe/rx_engine/rx_engine.cpp:176]   --->   Operation 47 'br' <Predicate = (state_2_load & tmp & tmp_last_V_10)> <Delay = 0.00>
ST_2 : Operation 48 [1/1] (0.00ns)   --->   "br label %._crit_edge3.i" [/home/paulrr2/Projects/ece527/babelsoc/fpga-network-stack/hls/toe/rx_engine/rx_engine.cpp:177]   --->   Operation 48 'br' <Predicate = (state_2_load & tmp)> <Delay = 0.00>
ST_2 : Operation 49 [1/1] (0.00ns)   --->   "br label %"prependPseudoHeader<64>.exit"" [/home/paulrr2/Projects/ece527/babelsoc/fpga-network-stack/hls/toe/rx_engine/rx_engine.cpp:178]   --->   Operation 49 'br' <Predicate = (state_2_load)> <Delay = 0.00>
ST_2 : Operation 50 [1/1] (0.00ns)   --->   "ret void"   --->   Operation 50 'ret' <Predicate = true> <Delay = 0.00>


============================================================
+ Verbose Summary: Binding
============================================================
STG Binding: 
---------------- STG Properties BEGIN ----------------
- Is combinational: 0
- Is one-state seq: 0
- Is datapath-only: 0
- Is pipelined: 1
- Is top level: 0
Port [ Return ] is wired: 1; IO mode=ap_ctrl_hs:ce=0
Port [ state_2]:  wired=0; compound=0; hidden=1; nouse=0; global=1; static=1; extern=0; dir=2; type=0; pingpong=0; private_global=1; linkage=7; visibility=0; IO mode=ap_ovld:ce=0
Port [ firstPayload]:  wired=0; compound=0; hidden=1; nouse=0; global=1; static=1; extern=0; dir=2; type=0; pingpong=0; private_global=1; linkage=7; visibility=0; IO mode=ap_ovld:ce=0
Port [ rxEng_pseudoHeaderFi_3]:  wired=1; compound=1; hidden=0; nouse=0; global=1; static=1; extern=0; dir=0; type=3; pingpong=0; private_global=0; linkage=7; visibility=0; IO mode=ap_fifo:ce=0
Port [ rxEng_pseudoHeaderFi_5]:  wired=1; compound=1; hidden=0; nouse=0; global=1; static=1; extern=0; dir=0; type=3; pingpong=0; private_global=0; linkage=7; visibility=0; IO mode=ap_fifo:ce=0
Port [ rxEng_pseudoHeaderFi_6]:  wired=1; compound=1; hidden=0; nouse=0; global=1; static=1; extern=0; dir=0; type=3; pingpong=0; private_global=0; linkage=7; visibility=0; IO mode=ap_fifo:ce=0
Port [ prevWord_data_V_10]:  wired=0; compound=0; hidden=1; nouse=0; global=1; static=1; extern=0; dir=2; type=0; pingpong=0; private_global=1; linkage=7; visibility=0; IO mode=ap_ovld:ce=0
Port [ rxEng_dataBuffer1_V]:  wired=1; compound=1; hidden=0; nouse=0; global=1; static=1; extern=0; dir=1; type=3; pingpong=0; private_global=0; linkage=7; visibility=0; IO mode=ap_fifo:ce=0
Port [ rxEng_dataBuffer5_V_1]:  wired=1; compound=1; hidden=0; nouse=0; global=1; static=1; extern=0; dir=0; type=3; pingpong=0; private_global=0; linkage=7; visibility=0; IO mode=ap_fifo:ce=0
Port [ rxEng_dataBuffer5_V_2]:  wired=1; compound=1; hidden=0; nouse=0; global=1; static=1; extern=0; dir=0; type=3; pingpong=0; private_global=0; linkage=7; visibility=0; IO mode=ap_fifo:ce=0
Port [ rxEng_dataBuffer5_V_s]:  wired=1; compound=1; hidden=0; nouse=0; global=1; static=1; extern=0; dir=0; type=3; pingpong=0; private_global=0; linkage=7; visibility=0; IO mode=ap_fifo:ce=0
---------------- STG Properties END ------------------

---------------- Datapath Model BEGIN ----------------

<LifeTime>
<method=bitvector/>
state_2_load       (load          ) [ 011]
firstPayload_load  (load          ) [ 010]
br_ln131           (br            ) [ 000]
tmp_214            (nbreadreq     ) [ 011]
br_ln134           (br            ) [ 000]
empty              (read          ) [ 000]
tmp_data_V         (extractvalue  ) [ 011]
tmp_keep_V         (extractvalue  ) [ 011]
tmp_last_V         (extractvalue  ) [ 011]
store_ln50         (store         ) [ 000]
br_ln138           (br            ) [ 000]
store_ln145        (store         ) [ 000]
store_ln146        (store         ) [ 000]
tmp                (nbreadreq     ) [ 011]
br_ln152           (br            ) [ 000]
empty_393          (read          ) [ 000]
tmp_data_V_13      (extractvalue  ) [ 011]
tmp_keep_V_12      (extractvalue  ) [ 011]
tmp_last_V_10      (extractvalue  ) [ 011]
br_ln157           (br            ) [ 011]
p_Val2_s           (load          ) [ 000]
trunc_ln647        (trunc         ) [ 000]
p_Result_s         (partset       ) [ 011]
store_ln167        (store         ) [ 000]
br_ln168           (br            ) [ 011]
store_ln175        (store         ) [ 000]
specinterface_ln0  (specinterface ) [ 000]
specinterface_ln0  (specinterface ) [ 000]
specinterface_ln0  (specinterface ) [ 000]
specinterface_ln0  (specinterface ) [ 000]
specinterface_ln0  (specinterface ) [ 000]
specinterface_ln0  (specinterface ) [ 000]
specinterface_ln0  (specinterface ) [ 000]
specpipeline_ln123 (specpipeline  ) [ 000]
tmp48              (bitconcatenate) [ 000]
write_ln140        (write         ) [ 000]
br_ln141           (br            ) [ 000]
br_ln0             (br            ) [ 000]
br_ln149           (br            ) [ 000]
br_ln150           (br            ) [ 000]
tmp_data_V_12      (phi           ) [ 011]
tmp_1              (bitconcatenate) [ 000]
write_ln170        (write         ) [ 000]
br_ln172           (br            ) [ 000]
br_ln176           (br            ) [ 000]
br_ln177           (br            ) [ 000]
br_ln178           (br            ) [ 000]
ret_ln0            (ret           ) [ 000]
</LifeTime>

<model>

<comp_list>
<comp id="0" class="1000" name="state_2">
<pin_list>
<pin id="1" dir="1" index="0" bw="1" slack="0"/>
</pin_list>
<bind>
<StgValue><ssdm name="state_2"/></StgValue>
</bind>
</comp>

<comp id="2" class="1000" name="firstPayload">
<pin_list>
<pin id="3" dir="1" index="0" bw="1" slack="0"/>
</pin_list>
<bind>
<StgValue><ssdm name="firstPayload"/></StgValue>
</bind>
</comp>

<comp id="4" class="1000" name="rxEng_pseudoHeaderFi_3">
<pin_list>
<pin id="5" dir="1" index="0" bw="1" slack="0"/>
</pin_list>
<bind>
<StgValue><ssdm name="rxEng_pseudoHeaderFi_3"/></StgValue>
</bind>
</comp>

<comp id="6" class="1000" name="rxEng_pseudoHeaderFi_5">
<pin_list>
<pin id="7" dir="1" index="0" bw="1" slack="0"/>
</pin_list>
<bind>
<StgValue><ssdm name="rxEng_pseudoHeaderFi_5"/></StgValue>
</bind>
</comp>

<comp id="8" class="1000" name="rxEng_pseudoHeaderFi_6">
<pin_list>
<pin id="9" dir="1" index="0" bw="1" slack="0"/>
</pin_list>
<bind>
<StgValue><ssdm name="rxEng_pseudoHeaderFi_6"/></StgValue>
</bind>
</comp>

<comp id="10" class="1000" name="prevWord_data_V_10">
<pin_list>
<pin id="11" dir="1" index="0" bw="1" slack="0"/>
</pin_list>
<bind>
<StgValue><ssdm name="prevWord_data_V_10"/></StgValue>
</bind>
</comp>

<comp id="12" class="1000" name="rxEng_dataBuffer1_V">
<pin_list>
<pin id="13" dir="1" index="0" bw="1" slack="0"/>
</pin_list>
<bind>
<StgValue><ssdm name="rxEng_dataBuffer1_V"/></StgValue>
</bind>
</comp>

<comp id="14" class="1000" name="rxEng_dataBuffer5_V_1">
<pin_list>
<pin id="15" dir="1" index="0" bw="1" slack="0"/>
</pin_list>
<bind>
<StgValue><ssdm name="rxEng_dataBuffer5_V_1"/></StgValue>
</bind>
</comp>

<comp id="16" class="1000" name="rxEng_dataBuffer5_V_2">
<pin_list>
<pin id="17" dir="1" index="0" bw="1" slack="0"/>
</pin_list>
<bind>
<StgValue><ssdm name="rxEng_dataBuffer5_V_2"/></StgValue>
</bind>
</comp>

<comp id="18" class="1000" name="rxEng_dataBuffer5_V_s">
<pin_list>
<pin id="19" dir="1" index="0" bw="1" slack="0"/>
</pin_list>
<bind>
<StgValue><ssdm name="rxEng_dataBuffer5_V_s"/></StgValue>
</bind>
</comp>

<comp id="20" class="1001" name="const_20">
<pin_list>
<pin id="21" dir="1" index="0" bw="1" slack="0"/>
</pin_list>
<bind>
<StgValue><ssdm name="_ssdm_op_NbReadReq.ap_fifo.i64P.i8P.i1P"/></StgValue>
</bind>
</comp>

<comp id="22" class="1001" name="const_22">
<pin_list>
<pin id="23" dir="1" index="0" bw="1" slack="0"/>
</pin_list>
<bind>
<StgValue><ssdm name=""/></StgValue>
</bind>
</comp>

<comp id="24" class="1001" name="const_24">
<pin_list>
<pin id="25" dir="1" index="0" bw="1" slack="0"/>
</pin_list>
<bind>
<StgValue><ssdm name="_ssdm_op_Read.ap_fifo.volatile.i64P.i8P.i1P"/></StgValue>
</bind>
</comp>

<comp id="26" class="1001" name="const_26">
<pin_list>
<pin id="27" dir="1" index="0" bw="1" slack="0"/>
</pin_list>
<bind>
<StgValue><ssdm name=""/></StgValue>
</bind>
</comp>

<comp id="28" class="1001" name="const_28">
<pin_list>
<pin id="29" dir="1" index="0" bw="1" slack="0"/>
</pin_list>
<bind>
<StgValue><ssdm name="llvm.part.set.i64.i32"/></StgValue>
</bind>
</comp>

<comp id="30" class="1001" name="const_30">
<pin_list>
<pin id="31" dir="1" index="0" bw="1" slack="0"/>
</pin_list>
<bind>
<StgValue><ssdm name=""/></StgValue>
</bind>
</comp>

<comp id="32" class="1001" name="const_32">
<pin_list>
<pin id="33" dir="1" index="0" bw="1" slack="0"/>
</pin_list>
<bind>
<StgValue><ssdm name=""/></StgValue>
</bind>
</comp>

<comp id="34" class="1001" name="const_34">
<pin_list>
<pin id="35" dir="1" index="0" bw="1" slack="0"/>
</pin_list>
<bind>
<StgValue><ssdm name=""/></StgValue>
</bind>
</comp>

<comp id="36" class="1001" name="const_36">
<pin_list>
<pin id="37" dir="1" index="0" bw="1" slack="2147483647"/>
</pin_list>
<bind>
<StgValue><ssdm name="_ssdm_op_SpecInterface"/></StgValue>
</bind>
</comp>

<comp id="38" class="1001" name="const_38">
<pin_list>
<pin id="39" dir="1" index="0" bw="1" slack="2147483647"/>
</pin_list>
<bind>
<StgValue><ssdm name="ap_fifo_str"/></StgValue>
</bind>
</comp>

<comp id="40" class="1001" name="const_40">
<pin_list>
<pin id="41" dir="1" index="0" bw="1" slack="2147483647"/>
</pin_list>
<bind>
<StgValue><ssdm name="p_str"/></StgValue>
</bind>
</comp>

<comp id="42" class="1001" name="const_42">
<pin_list>
<pin id="43" dir="1" index="0" bw="1" slack="2147483647"/>
</pin_list>
<bind>
<StgValue><ssdm name=""/></StgValue>
</bind>
</comp>

<comp id="44" class="1001" name="const_44">
<pin_list>
<pin id="45" dir="1" index="0" bw="1" slack="2147483647"/>
</pin_list>
<bind>
<StgValue><ssdm name=""/></StgValue>
</bind>
</comp>

<comp id="46" class="1001" name="const_46">
<pin_list>
<pin id="47" dir="1" index="0" bw="1" slack="2147483647"/>
</pin_list>
<bind>
<StgValue><ssdm name="_ssdm_op_SpecPipeline"/></StgValue>
</bind>
</comp>

<comp id="48" class="1001" name="const_48">
<pin_list>
<pin id="49" dir="1" index="0" bw="1" slack="2147483647"/>
</pin_list>
<bind>
<StgValue><ssdm name="p_str566"/></StgValue>
</bind>
</comp>

<comp id="50" class="1001" name="const_50">
<pin_list>
<pin id="51" dir="1" index="0" bw="1" slack="0"/>
</pin_list>
<bind>
<StgValue><ssdm name="_ssdm_op_BitConcatenate.i73.i1.i8.i64"/></StgValue>
</bind>
</comp>

<comp id="52" class="1001" name="const_52">
<pin_list>
<pin id="53" dir="1" index="0" bw="1" slack="0"/>
</pin_list>
<bind>
<StgValue><ssdm name="_ssdm_op_Write.ap_fifo.volatile.i73P"/></StgValue>
</bind>
</comp>

<comp id="54" class="1004" name="tmp_214_nbreadreq_fu_54">
<pin_list>
<pin id="55" dir="0" index="0" bw="1" slack="0"/>
<pin id="56" dir="0" index="1" bw="64" slack="0"/>
<pin id="57" dir="0" index="2" bw="8" slack="0"/>
<pin id="58" dir="0" index="3" bw="1" slack="0"/>
<pin id="59" dir="0" index="4" bw="1" slack="0"/>
<pin id="60" dir="1" index="5" bw="1" slack="1"/>
</pin_list>
<bind>
<opcode="nbreadreq(1156) " fcode="nbreadreq"/>
<opset="tmp_214/1 "/>
</bind>
</comp>

<comp id="66" class="1004" name="empty_read_fu_66">
<pin_list>
<pin id="67" dir="0" index="0" bw="73" slack="0"/>
<pin id="68" dir="0" index="1" bw="64" slack="0"/>
<pin id="69" dir="0" index="2" bw="8" slack="0"/>
<pin id="70" dir="0" index="3" bw="1" slack="0"/>
<pin id="71" dir="1" index="4" bw="73" slack="0"/>
</pin_list>
<bind>
<opcode="read(1150) " fcode="read"/>
<opset="empty/1 "/>
</bind>
</comp>

<comp id="76" class="1004" name="tmp_nbreadreq_fu_76">
<pin_list>
<pin id="77" dir="0" index="0" bw="1" slack="0"/>
<pin id="78" dir="0" index="1" bw="64" slack="0"/>
<pin id="79" dir="0" index="2" bw="8" slack="0"/>
<pin id="80" dir="0" index="3" bw="1" slack="0"/>
<pin id="81" dir="0" index="4" bw="1" slack="0"/>
<pin id="82" dir="1" index="5" bw="1" slack="1"/>
</pin_list>
<bind>
<opcode="nbreadreq(1156) " fcode="nbreadreq"/>
<opset="tmp/1 "/>
</bind>
</comp>

<comp id="88" class="1004" name="empty_393_read_fu_88">
<pin_list>
<pin id="89" dir="0" index="0" bw="73" slack="0"/>
<pin id="90" dir="0" index="1" bw="64" slack="0"/>
<pin id="91" dir="0" index="2" bw="8" slack="0"/>
<pin id="92" dir="0" index="3" bw="1" slack="0"/>
<pin id="93" dir="1" index="4" bw="73" slack="0"/>
</pin_list>
<bind>
<opcode="read(1150) " fcode="read"/>
<opset="empty_393/1 "/>
</bind>
</comp>

<comp id="98" class="1004" name="grp_write_fu_98">
<pin_list>
<pin id="99" dir="0" index="0" bw="0" slack="0"/>
<pin id="100" dir="0" index="1" bw="73" slack="0"/>
<pin id="101" dir="0" index="2" bw="73" slack="0"/>
<pin id="102" dir="1" index="3" bw="0" slack="2147483647"/>
</pin_list>
<bind>
<opcode="write(1151) " fcode="write"/>
<opset="write_ln140/2 write_ln170/2 "/>
</bind>
</comp>

<comp id="105" class="1005" name="tmp_data_V_12_reg_105">
<pin_list>
<pin id="106" dir="0" index="0" bw="64" slack="2147483647"/>
<pin id="107" dir="1" index="1" bw="64" slack="2147483647"/>
</pin_list>
<bind>
<opset="tmp_data_V_12 (phireg) "/>
</bind>
</comp>

<comp id="108" class="1004" name="tmp_data_V_12_phi_fu_108">
<pin_list>
<pin id="109" dir="0" index="0" bw="64" slack="1"/>
<pin id="110" dir="0" index="1" bw="0" slack="2147483647"/>
<pin id="111" dir="0" index="2" bw="64" slack="1"/>
<pin id="112" dir="0" index="3" bw="0" slack="2147483647"/>
<pin id="113" dir="1" index="4" bw="64" slack="0"/>
</pin_list>
<bind>
<opcode="phi(47) " fcode="phi"/>
<opset="tmp_data_V_12/2 "/>
</bind>
</comp>

<comp id="114" class="1004" name="state_2_load_load_fu_114">
<pin_list>
<pin id="115" dir="0" index="0" bw="1" slack="0"/>
<pin id="116" dir="1" index="1" bw="1" slack="1"/>
</pin_list>
<bind>
<opcode="load(27) " fcode="load"/>
<opset="state_2_load/1 "/>
</bind>
</comp>

<comp id="118" class="1004" name="firstPayload_load_load_fu_118">
<pin_list>
<pin id="119" dir="0" index="0" bw="1" slack="0"/>
<pin id="120" dir="1" index="1" bw="1" slack="2147483647"/>
</pin_list>
<bind>
<opcode="load(27) " fcode="load"/>
<opset="firstPayload_load/1 "/>
</bind>
</comp>

<comp id="122" class="1004" name="tmp_data_V_fu_122">
<pin_list>
<pin id="123" dir="0" index="0" bw="73" slack="0"/>
<pin id="124" dir="1" index="1" bw="64" slack="0"/>
</pin_list>
<bind>
<opcode="extractvalue(56) " fcode="extractvalue"/>
<opset="tmp_data_V/1 "/>
</bind>
</comp>

<comp id="126" class="1004" name="tmp_keep_V_fu_126">
<pin_list>
<pin id="127" dir="0" index="0" bw="73" slack="0"/>
<pin id="128" dir="1" index="1" bw="8" slack="1"/>
</pin_list>
<bind>
<opcode="extractvalue(56) " fcode="extractvalue"/>
<opset="tmp_keep_V/1 "/>
</bind>
</comp>

<comp id="130" class="1004" name="tmp_last_V_fu_130">
<pin_list>
<pin id="131" dir="0" index="0" bw="73" slack="0"/>
<pin id="132" dir="1" index="1" bw="1" slack="1"/>
</pin_list>
<bind>
<opcode="extractvalue(56) " fcode="extractvalue"/>
<opset="tmp_last_V/1 "/>
</bind>
</comp>

<comp id="134" class="1004" name="store_ln50_store_fu_134">
<pin_list>
<pin id="135" dir="0" index="0" bw="64" slack="0"/>
<pin id="136" dir="0" index="1" bw="64" slack="0"/>
<pin id="137" dir="1" index="2" bw="0" slack="2147483647"/>
</pin_list>
<bind>
<opcode="store(28) " fcode="store"/>
<opset="store_ln50/1 "/>
</bind>
</comp>

<comp id="140" class="1004" name="store_ln145_store_fu_140">
<pin_list>
<pin id="141" dir="0" index="0" bw="1" slack="0"/>
<pin id="142" dir="0" index="1" bw="1" slack="0"/>
<pin id="143" dir="1" index="2" bw="0" slack="2147483647"/>
</pin_list>
<bind>
<opcode="store(28) " fcode="store"/>
<opset="store_ln145/1 "/>
</bind>
</comp>

<comp id="146" class="1004" name="store_ln146_store_fu_146">
<pin_list>
<pin id="147" dir="0" index="0" bw="1" slack="0"/>
<pin id="148" dir="0" index="1" bw="1" slack="0"/>
<pin id="149" dir="1" index="2" bw="0" slack="2147483647"/>
</pin_list>
<bind>
<opcode="store(28) " fcode="store"/>
<opset="store_ln146/1 "/>
</bind>
</comp>

<comp id="152" class="1004" name="tmp_data_V_13_fu_152">
<pin_list>
<pin id="153" dir="0" index="0" bw="73" slack="0"/>
<pin id="154" dir="1" index="1" bw="64" slack="0"/>
</pin_list>
<bind>
<opcode="extractvalue(56) " fcode="extractvalue"/>
<opset="tmp_data_V_13/1 "/>
</bind>
</comp>

<comp id="156" class="1004" name="tmp_keep_V_12_fu_156">
<pin_list>
<pin id="157" dir="0" index="0" bw="73" slack="0"/>
<pin id="158" dir="1" index="1" bw="8" slack="1"/>
</pin_list>
<bind>
<opcode="extractvalue(56) " fcode="extractvalue"/>
<opset="tmp_keep_V_12/1 "/>
</bind>
</comp>

<comp id="160" class="1004" name="tmp_last_V_10_fu_160">
<pin_list>
<pin id="161" dir="0" index="0" bw="73" slack="0"/>
<pin id="162" dir="1" index="1" bw="1" slack="1"/>
</pin_list>
<bind>
<opcode="extractvalue(56) " fcode="extractvalue"/>
<opset="tmp_last_V_10/1 "/>
</bind>
</comp>

<comp id="164" class="1004" name="p_Val2_s_load_fu_164">
<pin_list>
<pin id="165" dir="0" index="0" bw="64" slack="0"/>
<pin id="166" dir="1" index="1" bw="64" slack="0"/>
</pin_list>
<bind>
<opcode="load(27) " fcode="load"/>
<opset="p_Val2_s/1 "/>
</bind>
</comp>

<comp id="168" class="1004" name="trunc_ln647_fu_168">
<pin_list>
<pin id="169" dir="0" index="0" bw="64" slack="0"/>
<pin id="170" dir="1" index="1" bw="32" slack="0"/>
</pin_list>
<bind>
<opcode="trunc(33) " fcode="trunc"/>
<opset="trunc_ln647/1 "/>
</bind>
</comp>

<comp id="172" class="1004" name="p_Result_s_fu_172">
<pin_list>
<pin id="173" dir="0" index="0" bw="64" slack="0"/>
<pin id="174" dir="0" index="1" bw="64" slack="0"/>
<pin id="175" dir="0" index="2" bw="32" slack="0"/>
<pin id="176" dir="0" index="3" bw="1" slack="0"/>
<pin id="177" dir="0" index="4" bw="6" slack="0"/>
<pin id="178" dir="1" index="5" bw="64" slack="1"/>
</pin_list>
<bind>
<opcode="partset(1003) " fcode="partset"/>
<opset="p_Result_s/1 "/>
</bind>
</comp>

<comp id="184" class="1004" name="store_ln167_store_fu_184">
<pin_list>
<pin id="185" dir="0" index="0" bw="1" slack="0"/>
<pin id="186" dir="0" index="1" bw="1" slack="0"/>
<pin id="187" dir="1" index="2" bw="0" slack="2147483647"/>
</pin_list>
<bind>
<opcode="store(28) " fcode="store"/>
<opset="store_ln167/1 "/>
</bind>
</comp>

<comp id="190" class="1004" name="store_ln175_store_fu_190">
<pin_list>
<pin id="191" dir="0" index="0" bw="1" slack="0"/>
<pin id="192" dir="0" index="1" bw="1" slack="0"/>
<pin id="193" dir="1" index="2" bw="0" slack="2147483647"/>
</pin_list>
<bind>
<opcode="store(28) " fcode="store"/>
<opset="store_ln175/1 "/>
</bind>
</comp>

<comp id="196" class="1004" name="tmp48_fu_196">
<pin_list>
<pin id="197" dir="0" index="0" bw="73" slack="0"/>
<pin id="198" dir="0" index="1" bw="1" slack="0"/>
<pin id="199" dir="0" index="2" bw="8" slack="1"/>
<pin id="200" dir="0" index="3" bw="64" slack="1"/>
<pin id="201" dir="1" index="4" bw="73" slack="0"/>
</pin_list>
<bind>
<opcode="bitconcatenate(1004) " fcode="bitconcatenate"/>
<opset="tmp48/2 "/>
</bind>
</comp>

<comp id="205" class="1004" name="tmp_1_fu_205">
<pin_list>
<pin id="206" dir="0" index="0" bw="73" slack="0"/>
<pin id="207" dir="0" index="1" bw="1" slack="1"/>
<pin id="208" dir="0" index="2" bw="8" slack="1"/>
<pin id="209" dir="0" index="3" bw="64" slack="0"/>
<pin id="210" dir="1" index="4" bw="73" slack="0"/>
</pin_list>
<bind>
<opcode="bitconcatenate(1004) " fcode="bitconcatenate"/>
<opset="tmp_1/2 "/>
</bind>
</comp>

<comp id="214" class="1005" name="state_2_load_reg_214">
<pin_list>
<pin id="215" dir="0" index="0" bw="1" slack="1"/>
<pin id="216" dir="1" index="1" bw="1" slack="2147483647"/>
</pin_list>
<bind>
<opset="state_2_load "/>
</bind>
</comp>

<comp id="221" class="1005" name="tmp_214_reg_221">
<pin_list>
<pin id="222" dir="0" index="0" bw="1" slack="1"/>
<pin id="223" dir="1" index="1" bw="1" slack="2147483647"/>
</pin_list>
<bind>
<opset="tmp_214 "/>
</bind>
</comp>

<comp id="225" class="1005" name="tmp_data_V_reg_225">
<pin_list>
<pin id="226" dir="0" index="0" bw="64" slack="1"/>
<pin id="227" dir="1" index="1" bw="64" slack="1"/>
</pin_list>
<bind>
<opset="tmp_data_V "/>
</bind>
</comp>

<comp id="230" class="1005" name="tmp_keep_V_reg_230">
<pin_list>
<pin id="231" dir="0" index="0" bw="8" slack="1"/>
<pin id="232" dir="1" index="1" bw="8" slack="1"/>
</pin_list>
<bind>
<opset="tmp_keep_V "/>
</bind>
</comp>

<comp id="235" class="1005" name="tmp_last_V_reg_235">
<pin_list>
<pin id="236" dir="0" index="0" bw="1" slack="1"/>
<pin id="237" dir="1" index="1" bw="1" slack="2147483647"/>
</pin_list>
<bind>
<opset="tmp_last_V "/>
</bind>
</comp>

<comp id="239" class="1005" name="tmp_reg_239">
<pin_list>
<pin id="240" dir="0" index="0" bw="1" slack="1"/>
<pin id="241" dir="1" index="1" bw="1" slack="2147483647"/>
</pin_list>
<bind>
<opset="tmp "/>
</bind>
</comp>

<comp id="243" class="1005" name="tmp_data_V_13_reg_243">
<pin_list>
<pin id="244" dir="0" index="0" bw="64" slack="1"/>
<pin id="245" dir="1" index="1" bw="64" slack="1"/>
</pin_list>
<bind>
<opset="tmp_data_V_13 "/>
</bind>
</comp>

<comp id="248" class="1005" name="tmp_keep_V_12_reg_248">
<pin_list>
<pin id="249" dir="0" index="0" bw="8" slack="1"/>
<pin id="250" dir="1" index="1" bw="8" slack="1"/>
</pin_list>
<bind>
<opset="tmp_keep_V_12 "/>
</bind>
</comp>

<comp id="253" class="1005" name="tmp_last_V_10_reg_253">
<pin_list>
<pin id="254" dir="0" index="0" bw="1" slack="1"/>
<pin id="255" dir="1" index="1" bw="1" slack="1"/>
</pin_list>
<bind>
<opset="tmp_last_V_10 "/>
</bind>
</comp>

<comp id="258" class="1005" name="p_Result_s_reg_258">
<pin_list>
<pin id="259" dir="0" index="0" bw="64" slack="1"/>
<pin id="260" dir="1" index="1" bw="64" slack="1"/>
</pin_list>
<bind>
<opset="p_Result_s "/>
</bind>
</comp>

</comp_list>

<net_list>
<net id="61"><net_src comp="20" pin="0"/><net_sink comp="54" pin=0"/></net>

<net id="62"><net_src comp="4" pin="0"/><net_sink comp="54" pin=1"/></net>

<net id="63"><net_src comp="6" pin="0"/><net_sink comp="54" pin=2"/></net>

<net id="64"><net_src comp="8" pin="0"/><net_sink comp="54" pin=3"/></net>

<net id="65"><net_src comp="22" pin="0"/><net_sink comp="54" pin=4"/></net>

<net id="72"><net_src comp="24" pin="0"/><net_sink comp="66" pin=0"/></net>

<net id="73"><net_src comp="4" pin="0"/><net_sink comp="66" pin=1"/></net>

<net id="74"><net_src comp="6" pin="0"/><net_sink comp="66" pin=2"/></net>

<net id="75"><net_src comp="8" pin="0"/><net_sink comp="66" pin=3"/></net>

<net id="83"><net_src comp="20" pin="0"/><net_sink comp="76" pin=0"/></net>

<net id="84"><net_src comp="14" pin="0"/><net_sink comp="76" pin=1"/></net>

<net id="85"><net_src comp="16" pin="0"/><net_sink comp="76" pin=2"/></net>

<net id="86"><net_src comp="18" pin="0"/><net_sink comp="76" pin=3"/></net>

<net id="87"><net_src comp="22" pin="0"/><net_sink comp="76" pin=4"/></net>

<net id="94"><net_src comp="24" pin="0"/><net_sink comp="88" pin=0"/></net>

<net id="95"><net_src comp="14" pin="0"/><net_sink comp="88" pin=1"/></net>

<net id="96"><net_src comp="16" pin="0"/><net_sink comp="88" pin=2"/></net>

<net id="97"><net_src comp="18" pin="0"/><net_sink comp="88" pin=3"/></net>

<net id="103"><net_src comp="52" pin="0"/><net_sink comp="98" pin=0"/></net>

<net id="104"><net_src comp="12" pin="0"/><net_sink comp="98" pin=1"/></net>

<net id="117"><net_src comp="0" pin="0"/><net_sink comp="114" pin=0"/></net>

<net id="121"><net_src comp="2" pin="0"/><net_sink comp="118" pin=0"/></net>

<net id="125"><net_src comp="66" pin="4"/><net_sink comp="122" pin=0"/></net>

<net id="129"><net_src comp="66" pin="4"/><net_sink comp="126" pin=0"/></net>

<net id="133"><net_src comp="66" pin="4"/><net_sink comp="130" pin=0"/></net>

<net id="138"><net_src comp="122" pin="1"/><net_sink comp="134" pin=0"/></net>

<net id="139"><net_src comp="10" pin="0"/><net_sink comp="134" pin=1"/></net>

<net id="144"><net_src comp="26" pin="0"/><net_sink comp="140" pin=0"/></net>

<net id="145"><net_src comp="2" pin="0"/><net_sink comp="140" pin=1"/></net>

<net id="150"><net_src comp="26" pin="0"/><net_sink comp="146" pin=0"/></net>

<net id="151"><net_src comp="0" pin="0"/><net_sink comp="146" pin=1"/></net>

<net id="155"><net_src comp="88" pin="4"/><net_sink comp="152" pin=0"/></net>

<net id="159"><net_src comp="88" pin="4"/><net_sink comp="156" pin=0"/></net>

<net id="163"><net_src comp="88" pin="4"/><net_sink comp="160" pin=0"/></net>

<net id="167"><net_src comp="10" pin="0"/><net_sink comp="164" pin=0"/></net>

<net id="171"><net_src comp="164" pin="1"/><net_sink comp="168" pin=0"/></net>

<net id="179"><net_src comp="28" pin="0"/><net_sink comp="172" pin=0"/></net>

<net id="180"><net_src comp="152" pin="1"/><net_sink comp="172" pin=1"/></net>

<net id="181"><net_src comp="168" pin="1"/><net_sink comp="172" pin=2"/></net>

<net id="182"><net_src comp="30" pin="0"/><net_sink comp="172" pin=3"/></net>

<net id="183"><net_src comp="32" pin="0"/><net_sink comp="172" pin=4"/></net>

<net id="188"><net_src comp="34" pin="0"/><net_sink comp="184" pin=0"/></net>

<net id="189"><net_src comp="2" pin="0"/><net_sink comp="184" pin=1"/></net>

<net id="194"><net_src comp="34" pin="0"/><net_sink comp="190" pin=0"/></net>

<net id="195"><net_src comp="0" pin="0"/><net_sink comp="190" pin=1"/></net>

<net id="202"><net_src comp="50" pin="0"/><net_sink comp="196" pin=0"/></net>

<net id="203"><net_src comp="34" pin="0"/><net_sink comp="196" pin=1"/></net>

<net id="204"><net_src comp="196" pin="4"/><net_sink comp="98" pin=2"/></net>

<net id="211"><net_src comp="50" pin="0"/><net_sink comp="205" pin=0"/></net>

<net id="212"><net_src comp="108" pin="4"/><net_sink comp="205" pin=3"/></net>

<net id="213"><net_src comp="205" pin="4"/><net_sink comp="98" pin=2"/></net>

<net id="217"><net_src comp="114" pin="1"/><net_sink comp="214" pin=0"/></net>

<net id="224"><net_src comp="54" pin="5"/><net_sink comp="221" pin=0"/></net>

<net id="228"><net_src comp="122" pin="1"/><net_sink comp="225" pin=0"/></net>

<net id="229"><net_src comp="225" pin="1"/><net_sink comp="196" pin=3"/></net>

<net id="233"><net_src comp="126" pin="1"/><net_sink comp="230" pin=0"/></net>

<net id="234"><net_src comp="230" pin="1"/><net_sink comp="196" pin=2"/></net>

<net id="238"><net_src comp="130" pin="1"/><net_sink comp="235" pin=0"/></net>

<net id="242"><net_src comp="76" pin="5"/><net_sink comp="239" pin=0"/></net>

<net id="246"><net_src comp="152" pin="1"/><net_sink comp="243" pin=0"/></net>

<net id="247"><net_src comp="243" pin="1"/><net_sink comp="108" pin=2"/></net>

<net id="251"><net_src comp="156" pin="1"/><net_sink comp="248" pin=0"/></net>

<net id="252"><net_src comp="248" pin="1"/><net_sink comp="205" pin=2"/></net>

<net id="256"><net_src comp="160" pin="1"/><net_sink comp="253" pin=0"/></net>

<net id="257"><net_src comp="253" pin="1"/><net_sink comp="205" pin=1"/></net>

<net id="261"><net_src comp="172" pin="5"/><net_sink comp="258" pin=0"/></net>

<net id="262"><net_src comp="258" pin="1"/><net_sink comp="108" pin=0"/></net>

</net_list>

</model> 
---------------- Datapath Model END ------------------

* FSMD analyzer results:
  - Output states:
	Port: state_2 | {1 }
	Port: firstPayload | {1 }
	Port: prevWord_data_V_10 | {1 }
	Port: rxEng_dataBuffer1_V | {2 }
 - Input state : 
	Port: prependPseudoHeader : state_2 | {1 }
	Port: prependPseudoHeader : firstPayload | {1 }
	Port: prependPseudoHeader : rxEng_pseudoHeaderFi_3 | {1 }
	Port: prependPseudoHeader : rxEng_pseudoHeaderFi_5 | {1 }
	Port: prependPseudoHeader : rxEng_pseudoHeaderFi_6 | {1 }
	Port: prependPseudoHeader : prevWord_data_V_10 | {1 }
	Port: prependPseudoHeader : rxEng_dataBuffer5_V_1 | {1 }
	Port: prependPseudoHeader : rxEng_dataBuffer5_V_2 | {1 }
	Port: prependPseudoHeader : rxEng_dataBuffer5_V_s | {1 }
  - Chain level:
	State 1
		br_ln131 : 1
		store_ln50 : 1
		br_ln138 : 1
		br_ln157 : 1
		trunc_ln647 : 1
		p_Result_s : 2
	State 2
		write_ln140 : 1
		tmp_1 : 1
		write_ln170 : 2


============================================================
+ Verbose Summary: Datapath Resource usage 
============================================================

* Functional unit list:
|----------|-------------------------|
| Operation|     Functional Unit     |
|----------|-------------------------|
| nbreadreq| tmp_214_nbreadreq_fu_54 |
|          |   tmp_nbreadreq_fu_76   |
|----------|-------------------------|
|   read   |     empty_read_fu_66    |
|          |   empty_393_read_fu_88  |
|----------|-------------------------|
|   write  |     grp_write_fu_98     |
|----------|-------------------------|
|          |    tmp_data_V_fu_122    |
|          |    tmp_keep_V_fu_126    |
|extractvalue|    tmp_last_V_fu_130    |
|          |   tmp_data_V_13_fu_152  |
|          |   tmp_keep_V_12_fu_156  |
|          |   tmp_last_V_10_fu_160  |
|----------|-------------------------|
|   trunc  |    trunc_ln647_fu_168   |
|----------|-------------------------|
|  partset |    p_Result_s_fu_172    |
|----------|-------------------------|
|bitconcatenate|       tmp48_fu_196      |
|          |       tmp_1_fu_205      |
|----------|-------------------------|
|   Total  |                         |
|----------|-------------------------|

Memories:
N/A

* Register list:
+---------------------+--------+
|                     |   FF   |
+---------------------+--------+
|  p_Result_s_reg_258 |   64   |
| state_2_load_reg_214|    1   |
|   tmp_214_reg_221   |    1   |
|tmp_data_V_12_reg_105|   64   |
|tmp_data_V_13_reg_243|   64   |
|  tmp_data_V_reg_225 |   64   |
|tmp_keep_V_12_reg_248|    8   |
|  tmp_keep_V_reg_230 |    8   |
|tmp_last_V_10_reg_253|    1   |
|  tmp_last_V_reg_235 |    1   |
|     tmp_reg_239     |    1   |
+---------------------+--------+
|        Total        |   277  |
+---------------------+--------+

* Multiplexer (MUX) list: 
|-----------------|------|------|------|--------||---------||---------|
|       Comp      |  Pin | Size |  BW  | S x BW ||  Delay  ||   LUT   |
|-----------------|------|------|------|--------||---------||---------|
| grp_write_fu_98 |  p2  |   2  |  73  |   146  ||    9    |
|-----------------|------|------|------|--------||---------||---------|
|      Total      |      |      |      |   146  ||  1.769  ||    9    |
|-----------------|------|------|------|--------||---------||---------|



* Summary:
+-----------+--------+--------+--------+
|           |  Delay |   FF   |   LUT  |
+-----------+--------+--------+--------+
|  Function |    -   |    -   |    -   |
|   Memory  |    -   |    -   |    -   |
|Multiplexer|    1   |    -   |    9   |
|  Register |    -   |   277  |    -   |
+-----------+--------+--------+--------+
|   Total   |    1   |   277  |    9   |
+-----------+--------+--------+--------+
