

================================================================
== Vivado HLS Report for 'processPseudoHeader'
================================================================
* Date:           Sat Dec 12 19:34:18 2020

* Version:        2019.2.1 (Build 2724168 on Thu Dec 05 05:19:09 MST 2019)
* Project:        toe_prj
* Solution:       solution1
* Product family: zynq
* Target device:  xc7z020-clg400-1


================================================================
== Performance Estimates
================================================================
+ Timing: 
    * Summary: 
    +--------+---------+----------+------------+
    |  Clock |  Target | Estimated| Uncertainty|
    +--------+---------+----------+------------+
    |ap_clk  | 6.40 ns | 5.552 ns |   0.80 ns  |
    +--------+---------+----------+------------+

+ Latency: 
    * Summary: 
    +---------+---------+-----------+-----------+-----+-----+----------+
    |  Latency (cycles) |   Latency (absolute)  |  Interval | Pipeline |
    |   min   |   max   |    min    |    max    | min | max |   Type   |
    +---------+---------+-----------+-----------+-----+-----+----------+
    |        5|        5| 32.000 ns | 32.000 ns |    1|    1| function |
    +---------+---------+-----------+-----------+-----+-----+----------+

    + Detail: 
        * Instance: 
        N/A

        * Loop: 
        N/A

============================================================
+ Verbose Summary: Synthesis Manager
============================================================
InlineROM: 1
ExposeGlobal: 0
============================================================
+ Verbose Summary: CDFG Model
============================================================
IsTopModel: 0
ResetActiveHigh: 1
IsCombinational: 2
IsDatapathOnly: 0
HasWiredReturn: 1
HasMFsm: 2
HasVarLatency: 0
IsPipeline: 1
IsRtlPipelined: 1
IsInstanceOverlapped: 0
IsDontTouch: 0
HasImplIP: 0
IsGatedGlobalClock: 0

+ Individual pipeline summary: 
  * Pipeline-0: initiation interval (II) = 1, depth = 6


============================================================
+ Verbose Summary: Schedule
============================================================
* Number of FSM states : 6
* Pipeline : 1
  Pipeline-0 : II = 1, D = 6, States = { 1 2 3 4 5 6 }
* Dataflow Pipeline: 0

* FSM state transitions: 
1 --> 2 
2 --> 3 
3 --> 4 
4 --> 5 
5 --> 6 
6 --> 

* FSM state operations: 

State 1 <SV = 0> <Delay = 5.55>
ST_1 : Operation 7 [1/1] (0.00ns)   --->   "%tmp = call i1 @_ssdm_op_NbReadReq.ap_fifo.i73P(i73* @rxEng_dataBuffer2_V, i32 1) nounwind" [/home/paulrr2/Projects/ece527/babelsoc/fpga-network-stack/hls/toe/rx_engine/rx_engine.cpp:437]   --->   Operation 7 'nbreadreq' 'tmp' <Predicate = true> <Delay = 0.00> <Core = "FIFO">   --->   Core 32 'FIFO' <Latency = 0> <II = 1> <Delay = 3.63> <Storage> <Opcode : 'read' 'write' 'nbread' 'nbwrite'> <Ports = 0> <Width = 4> <Depth = 2> <FIFO>
ST_1 : Operation 8 [1/1] (0.00ns)   --->   "br i1 %tmp, label %0, label %"processPseudoHeader<64>.exit"" [/home/paulrr2/Projects/ece527/babelsoc/fpga-network-stack/hls/toe/rx_engine/rx_engine.cpp:437]   --->   Operation 8 'br' <Predicate = true> <Delay = 0.00>
ST_1 : Operation 9 [1/1] (0.00ns)   --->   "%firstWord_1_load = load i1* @firstWord_1, align 1" [/home/paulrr2/Projects/ece527/babelsoc/fpga-network-stack/hls/toe/rx_engine/rx_engine.cpp:437]   --->   Operation 9 'load' 'firstWord_1_load' <Predicate = (tmp)> <Delay = 0.00>
ST_1 : Operation 10 [1/1] (0.00ns)   --->   "br i1 %firstWord_1_load, label %1, label %._crit_edge57.i" [/home/paulrr2/Projects/ece527/babelsoc/fpga-network-stack/hls/toe/rx_engine/rx_engine.cpp:437]   --->   Operation 10 'br' <Predicate = (tmp)> <Delay = 0.00>
ST_1 : Operation 11 [1/1] (0.00ns)   --->   "%tmp_4 = call i1 @_ssdm_op_NbReadReq.ap_fifo.i1P(i1* @rxEng_checksumValidF_1, i32 1) nounwind" [/home/paulrr2/Projects/ece527/babelsoc/fpga-network-stack/hls/toe/rx_engine/rx_engine.cpp:437]   --->   Operation 11 'nbreadreq' 'tmp_4' <Predicate = (tmp & firstWord_1_load)> <Delay = 0.00> <Core = "FIFO">   --->   Core 32 'FIFO' <Latency = 0> <II = 1> <Delay = 3.63> <Storage> <Opcode : 'read' 'write' 'nbread' 'nbwrite'> <Ports = 0> <Width = 4> <Depth = 2> <FIFO>
ST_1 : Operation 12 [1/1] (0.00ns)   --->   "br i1 %tmp_4, label %._crit_edge57.i, label %"processPseudoHeader<64>.exit"" [/home/paulrr2/Projects/ece527/babelsoc/fpga-network-stack/hls/toe/rx_engine/rx_engine.cpp:437]   --->   Operation 12 'br' <Predicate = (tmp & firstWord_1_load)> <Delay = 0.00>
ST_1 : Operation 13 [1/1] (2.80ns)   --->   "%tmp_1 = call i73 @_ssdm_op_Read.ap_fifo.volatile.i73P(i73* @rxEng_dataBuffer2_V) nounwind" [/home/paulrr2/Projects/ece527/babelsoc/fpga-network-stack/hls/toe/rx_engine/rx_engine.cpp:439]   --->   Operation 13 'read' 'tmp_1' <Predicate = (tmp & tmp_4) | (tmp & !firstWord_1_load)> <Delay = 2.80> <Core = "FIFO">   --->   Core 32 'FIFO' <Latency = 0> <II = 1> <Delay = 3.63> <Storage> <Opcode : 'read' 'write' 'nbread' 'nbwrite'> <Ports = 0> <Width = 4> <Depth = 2> <FIFO>
ST_1 : Operation 14 [1/1] (0.00ns)   --->   "%header_ready_1_load = load i1* @header_ready_1, align 1" [/home/paulrr2/Projects/ece527/babelsoc/fpga-network-stack/hls/toe/rx_engine/rx_engine.cpp:443]   --->   Operation 14 'load' 'header_ready_1_load' <Predicate = (tmp & tmp_4) | (tmp & !firstWord_1_load)> <Delay = 0.00>
ST_1 : Operation 15 [1/1] (0.00ns)   --->   "%header_idx_6_load = load i16* @header_idx_6, align 2" [/home/paulrr2/Projects/ece527/babelsoc/fpga-network-stack/hls/toe/rx_engine/rx_engine.cpp:443]   --->   Operation 15 'load' 'header_idx_6_load' <Predicate = (tmp & tmp_4) | (tmp & !firstWord_1_load)> <Delay = 0.00>
ST_1 : Operation 16 [1/1] (0.00ns)   --->   "%trunc_ln443 = trunc i73 %tmp_1 to i64" [/home/paulrr2/Projects/ece527/babelsoc/fpga-network-stack/hls/toe/rx_engine/rx_engine.cpp:443]   --->   Operation 16 'trunc' 'trunc_ln443' <Predicate = (tmp & tmp_4) | (tmp & !firstWord_1_load)> <Delay = 0.00>
ST_1 : Operation 17 [1/1] (1.76ns)   --->   "br i1 %header_ready_1_load, label %parseWord.exit.i, label %_ifconv" [/home/paulrr2/Projects/ece527/babelsoc/fpga-network-stack/hls/toe/rx_engine/../../packet.hpp:55->/home/paulrr2/Projects/ece527/babelsoc/fpga-network-stack/hls/toe/rx_engine/rx_engine.cpp:443]   --->   Operation 17 'br' <Predicate = (tmp & tmp_4) | (tmp & !firstWord_1_load)> <Delay = 1.76>
ST_1 : Operation 18 [1/1] (0.00ns)   --->   "%Lo_assign = call i22 @_ssdm_op_BitConcatenate.i22.i16.i6(i16 %header_idx_6_load, i6 0)" [/home/paulrr2/Projects/ece527/babelsoc/fpga-network-stack/hls/toe/rx_engine/../../packet.hpp:58->/home/paulrr2/Projects/ece527/babelsoc/fpga-network-stack/hls/toe/rx_engine/rx_engine.cpp:443]   --->   Operation 18 'bitconcatenate' 'Lo_assign' <Predicate = (tmp & tmp_4 & !header_ready_1_load) | (tmp & !firstWord_1_load & !header_ready_1_load)> <Delay = 0.00>
ST_1 : Operation 19 [1/1] (0.00ns)   --->   "%zext_ln58 = zext i22 %Lo_assign to i23" [/home/paulrr2/Projects/ece527/babelsoc/fpga-network-stack/hls/toe/rx_engine/../../packet.hpp:58->/home/paulrr2/Projects/ece527/babelsoc/fpga-network-stack/hls/toe/rx_engine/rx_engine.cpp:443]   --->   Operation 19 'zext' 'zext_ln58' <Predicate = (tmp & tmp_4 & !header_ready_1_load) | (tmp & !firstWord_1_load & !header_ready_1_load)> <Delay = 0.00>
ST_1 : Operation 20 [1/1] (2.25ns)   --->   "%add_ln58 = add i23 %zext_ln58, 64" [/home/paulrr2/Projects/ece527/babelsoc/fpga-network-stack/hls/toe/rx_engine/../../packet.hpp:58->/home/paulrr2/Projects/ece527/babelsoc/fpga-network-stack/hls/toe/rx_engine/rx_engine.cpp:443]   --->   Operation 20 'add' 'add_ln58' <Predicate = (tmp & tmp_4 & !header_ready_1_load) | (tmp & !firstWord_1_load & !header_ready_1_load)> <Delay = 2.25> <Core = "AddSub">   --->   Core 14 'AddSub' <Latency = 0> <II = 1> <Delay = 1.73> <FuncUnit> <Opcode : 'add' 'sub'> <InPorts = 2> <OutPorts = 1>
ST_1 : Operation 21 [1/1] (0.00ns)   --->   "%tmp_202 = call i15 @_ssdm_op_PartSelect.i15.i23.i32.i32(i23 %add_ln58, i32 8, i32 22)" [/home/paulrr2/Projects/ece527/babelsoc/fpga-network-stack/hls/toe/rx_engine/../../packet.hpp:58->/home/paulrr2/Projects/ece527/babelsoc/fpga-network-stack/hls/toe/rx_engine/rx_engine.cpp:443]   --->   Operation 21 'partselect' 'tmp_202' <Predicate = (tmp & tmp_4 & !header_ready_1_load) | (tmp & !firstWord_1_load & !header_ready_1_load)> <Delay = 0.00>
ST_1 : Operation 22 [1/1] (2.31ns)   --->   "%icmp_ln58 = icmp eq i15 %tmp_202, 0" [/home/paulrr2/Projects/ece527/babelsoc/fpga-network-stack/hls/toe/rx_engine/../../packet.hpp:58->/home/paulrr2/Projects/ece527/babelsoc/fpga-network-stack/hls/toe/rx_engine/rx_engine.cpp:443]   --->   Operation 22 'icmp' 'icmp_ln58' <Predicate = (tmp & tmp_4 & !header_ready_1_load) | (tmp & !firstWord_1_load & !header_ready_1_load)> <Delay = 2.31> <Core = "Cmp">   --->   Core 25 'Cmp' <Latency = 0> <II = 1> <Delay = 1.30> <FuncUnit> <Opcode : 'icmp'> <InPorts = 2> <OutPorts = 1>
ST_1 : Operation 23 [1/1] (0.97ns)   --->   "%xor_ln58 = xor i1 %icmp_ln58, true" [/home/paulrr2/Projects/ece527/babelsoc/fpga-network-stack/hls/toe/rx_engine/../../packet.hpp:58->/home/paulrr2/Projects/ece527/babelsoc/fpga-network-stack/hls/toe/rx_engine/rx_engine.cpp:443]   --->   Operation 23 'xor' 'xor_ln58' <Predicate = (tmp & tmp_4 & !header_ready_1_load) | (tmp & !firstWord_1_load & !header_ready_1_load)> <Delay = 0.97> <Core = "LogicGate">   --->   Core 27 'LogicGate' <Latency = 0> <II = 1> <Delay = 0.97> <FuncUnit> <Opcode : 'and' 'or' 'xor'> <InPorts = 2> <OutPorts = 1>
ST_1 : Operation 24 [1/1] (2.07ns)   --->   "%add_ln67 = add i16 %header_idx_6_load, 1" [/home/paulrr2/Projects/ece527/babelsoc/fpga-network-stack/hls/toe/rx_engine/../../packet.hpp:67->/home/paulrr2/Projects/ece527/babelsoc/fpga-network-stack/hls/toe/rx_engine/rx_engine.cpp:443]   --->   Operation 24 'add' 'add_ln67' <Predicate = (tmp & tmp_4 & !header_ready_1_load) | (tmp & !firstWord_1_load & !header_ready_1_load)> <Delay = 2.07> <Core = "AddSub">   --->   Core 14 'AddSub' <Latency = 0> <II = 1> <Delay = 1.73> <FuncUnit> <Opcode : 'add' 'sub'> <InPorts = 2> <OutPorts = 1>
ST_1 : Operation 25 [1/1] (0.00ns)   --->   "%pkgValid_load = load i1* @pkgValid, align 1" [/home/paulrr2/Projects/ece527/babelsoc/fpga-network-stack/hls/toe/rx_engine/rx_engine.cpp:450]   --->   Operation 25 'load' 'pkgValid_load' <Predicate = (tmp & tmp_4) | (tmp & !firstWord_1_load)> <Delay = 0.00>
ST_1 : Operation 26 [1/1] (1.76ns)   --->   "br i1 %firstWord_1_load, label %2, label %._crit_edge60.i" [/home/paulrr2/Projects/ece527/babelsoc/fpga-network-stack/hls/toe/rx_engine/rx_engine.cpp:444]   --->   Operation 26 'br' <Predicate = (tmp & tmp_4) | (tmp & !firstWord_1_load)> <Delay = 1.76>
ST_1 : Operation 27 [1/1] (2.80ns)   --->   "%tmp_205 = call i1 @_ssdm_op_Read.ap_fifo.volatile.i1P(i1* @rxEng_checksumValidF_1) nounwind" [/home/paulrr2/Projects/ece527/babelsoc/fpga-network-stack/hls/toe/rx_engine/rx_engine.cpp:446]   --->   Operation 27 'read' 'tmp_205' <Predicate = (tmp & firstWord_1_load & tmp_4)> <Delay = 2.80> <Core = "FIFO">   --->   Core 32 'FIFO' <Latency = 0> <II = 1> <Delay = 3.63> <Storage> <Opcode : 'read' 'write' 'nbread' 'nbwrite'> <Ports = 0> <Width = 4> <Depth = 2> <FIFO>
ST_1 : Operation 28 [1/1] (0.00ns)   --->   "store i1 %tmp_205, i1* @pkgValid, align 1" [/home/paulrr2/Projects/ece527/babelsoc/fpga-network-stack/hls/toe/rx_engine/rx_engine.cpp:446]   --->   Operation 28 'store' <Predicate = (tmp & firstWord_1_load & tmp_4)> <Delay = 0.00>
ST_1 : Operation 29 [1/1] (1.76ns)   --->   "br label %._crit_edge60.i" [/home/paulrr2/Projects/ece527/babelsoc/fpga-network-stack/hls/toe/rx_engine/rx_engine.cpp:448]   --->   Operation 29 'br' <Predicate = (tmp & firstWord_1_load & tmp_4)> <Delay = 1.76>

State 2 <SV = 1> <Delay = 5.49>
ST_2 : Operation 30 [1/1] (0.00ns)   --->   "%trunc_ln58 = trunc i16 %header_idx_6_load to i3" [/home/paulrr2/Projects/ece527/babelsoc/fpga-network-stack/hls/toe/rx_engine/../../packet.hpp:58->/home/paulrr2/Projects/ece527/babelsoc/fpga-network-stack/hls/toe/rx_engine/rx_engine.cpp:443]   --->   Operation 30 'trunc' 'trunc_ln58' <Predicate = (tmp & tmp_4 & !header_ready_1_load) | (tmp & !firstWord_1_load & !header_ready_1_load)> <Delay = 0.00>
ST_2 : Operation 31 [1/1] (0.00ns) (grouped into LUT with out node select_ln58)   --->   "%or_ln60 = or i22 %Lo_assign, 63" [/home/paulrr2/Projects/ece527/babelsoc/fpga-network-stack/hls/toe/rx_engine/../../packet.hpp:60->/home/paulrr2/Projects/ece527/babelsoc/fpga-network-stack/hls/toe/rx_engine/rx_engine.cpp:443]   --->   Operation 31 'or' 'or_ln60' <Predicate = (tmp & tmp_4 & !header_ready_1_load & icmp_ln58) | (tmp & !firstWord_1_load & !header_ready_1_load & icmp_ln58)> <Delay = 0.00>
ST_2 : Operation 32 [1/1] (0.70ns) (out node of the LUT)   --->   "%select_ln58 = select i1 %icmp_ln58, i22 %or_ln60, i22 255" [/home/paulrr2/Projects/ece527/babelsoc/fpga-network-stack/hls/toe/rx_engine/../../packet.hpp:58->/home/paulrr2/Projects/ece527/babelsoc/fpga-network-stack/hls/toe/rx_engine/rx_engine.cpp:443]   --->   Operation 32 'select' 'select_ln58' <Predicate = (tmp & tmp_4 & !header_ready_1_load) | (tmp & !firstWord_1_load & !header_ready_1_load)> <Delay = 0.70> <Core = "Sel">   --->   Core 26 'Sel' <Latency = 0> <II = 1> <Delay = 0.80> <FuncUnit> <Opcode : 'select'> <InPorts = 3> <OutPorts = 1>
ST_2 : Operation 33 [1/1] (2.44ns)   --->   "%icmp_ln58_2 = icmp ugt i22 %Lo_assign, %select_ln58" [/home/paulrr2/Projects/ece527/babelsoc/fpga-network-stack/hls/toe/rx_engine/../../packet.hpp:58->/home/paulrr2/Projects/ece527/babelsoc/fpga-network-stack/hls/toe/rx_engine/rx_engine.cpp:443]   --->   Operation 33 'icmp' 'icmp_ln58_2' <Predicate = (tmp & tmp_4 & !header_ready_1_load) | (tmp & !firstWord_1_load & !header_ready_1_load)> <Delay = 2.44> <Core = "Cmp">   --->   Core 25 'Cmp' <Latency = 0> <II = 1> <Delay = 1.30> <FuncUnit> <Opcode : 'icmp'> <InPorts = 2> <OutPorts = 1>
ST_2 : Operation 34 [1/1] (0.00ns)   --->   "%tmp_203 = call i9 @_ssdm_op_BitConcatenate.i9.i3.i6(i3 %trunc_ln58, i6 0)" [/home/paulrr2/Projects/ece527/babelsoc/fpga-network-stack/hls/toe/rx_engine/../../packet.hpp:58->/home/paulrr2/Projects/ece527/babelsoc/fpga-network-stack/hls/toe/rx_engine/rx_engine.cpp:443]   --->   Operation 34 'bitconcatenate' 'tmp_203' <Predicate = (tmp & tmp_4 & !header_ready_1_load) | (tmp & !firstWord_1_load & !header_ready_1_load)> <Delay = 0.00>
ST_2 : Operation 35 [1/1] (0.00ns)   --->   "%trunc_ln58_2 = trunc i22 %select_ln58 to i9" [/home/paulrr2/Projects/ece527/babelsoc/fpga-network-stack/hls/toe/rx_engine/../../packet.hpp:58->/home/paulrr2/Projects/ece527/babelsoc/fpga-network-stack/hls/toe/rx_engine/rx_engine.cpp:443]   --->   Operation 35 'trunc' 'trunc_ln58_2' <Predicate = (tmp & tmp_4 & !header_ready_1_load) | (tmp & !firstWord_1_load & !header_ready_1_load)> <Delay = 0.00>
ST_2 : Operation 36 [1/1] (1.82ns)   --->   "%sub_ln58 = sub i9 255, %tmp_203" [/home/paulrr2/Projects/ece527/babelsoc/fpga-network-stack/hls/toe/rx_engine/../../packet.hpp:58->/home/paulrr2/Projects/ece527/babelsoc/fpga-network-stack/hls/toe/rx_engine/rx_engine.cpp:443]   --->   Operation 36 'sub' 'sub_ln58' <Predicate = (tmp & tmp_4 & !header_ready_1_load) | (tmp & !firstWord_1_load & !header_ready_1_load)> <Delay = 1.82> <Core = "AddSub">   --->   Core 14 'AddSub' <Latency = 0> <II = 1> <Delay = 1.73> <FuncUnit> <Opcode : 'add' 'sub'> <InPorts = 2> <OutPorts = 1>
ST_2 : Operation 37 [1/1] (1.76ns)   --->   "br label %parseWord.exit.i" [/home/paulrr2/Projects/ece527/babelsoc/fpga-network-stack/hls/toe/rx_engine/../../packet.hpp:73->/home/paulrr2/Projects/ece527/babelsoc/fpga-network-stack/hls/toe/rx_engine/rx_engine.cpp:443]   --->   Operation 37 'br' <Predicate = (tmp & tmp_4 & !header_ready_1_load) | (tmp & !firstWord_1_load & !header_ready_1_load)> <Delay = 1.76>
ST_2 : Operation 38 [1/1] (0.00ns)   --->   "%phi_ln73 = phi i16 [ %header_idx_6_load, %._crit_edge57.i ], [ %add_ln67, %_ifconv ]" [/home/paulrr2/Projects/ece527/babelsoc/fpga-network-stack/hls/toe/rx_engine/../../packet.hpp:73->/home/paulrr2/Projects/ece527/babelsoc/fpga-network-stack/hls/toe/rx_engine/rx_engine.cpp:443]   --->   Operation 38 'phi' 'phi_ln73' <Predicate = (tmp & tmp_4) | (tmp & !firstWord_1_load)> <Delay = 0.00>
ST_2 : Operation 39 [1/1] (0.00ns) (grouped into LUT with out node or_ln73)   --->   "%write_flag_1_i_i = phi i1 [ false, %._crit_edge57.i ], [ %xor_ln58, %_ifconv ]" [/home/paulrr2/Projects/ece527/babelsoc/fpga-network-stack/hls/toe/rx_engine/../../packet.hpp:58->/home/paulrr2/Projects/ece527/babelsoc/fpga-network-stack/hls/toe/rx_engine/rx_engine.cpp:443]   --->   Operation 39 'phi' 'write_flag_1_i_i' <Predicate = (tmp & tmp_4) | (tmp & !firstWord_1_load)> <Delay = 0.00>
ST_2 : Operation 40 [1/1] (0.97ns) (out node of the LUT)   --->   "%or_ln73 = or i1 %header_ready_1_load, %write_flag_1_i_i" [/home/paulrr2/Projects/ece527/babelsoc/fpga-network-stack/hls/toe/rx_engine/../../packet.hpp:73->/home/paulrr2/Projects/ece527/babelsoc/fpga-network-stack/hls/toe/rx_engine/rx_engine.cpp:443]   --->   Operation 40 'or' 'or_ln73' <Predicate = (tmp & tmp_4) | (tmp & !firstWord_1_load)> <Delay = 0.97> <Core = "LogicGate">   --->   Core 27 'LogicGate' <Latency = 0> <II = 1> <Delay = 0.97> <FuncUnit> <Opcode : 'and' 'or' 'xor'> <InPorts = 2> <OutPorts = 1>
ST_2 : Operation 41 [1/1] (0.00ns)   --->   "%firstWord_1_flag_0_i = phi i1 [ true, %2 ], [ false, %parseWord.exit.i ]"   --->   Operation 41 'phi' 'firstWord_1_flag_0_i' <Predicate = (tmp & tmp_4) | (tmp & !firstWord_1_load)> <Delay = 0.00>
ST_2 : Operation 42 [1/1] (0.00ns)   --->   "%pkgValid_loc_0_i = phi i1 [ %tmp_205, %2 ], [ %pkgValid_load, %parseWord.exit.i ]"   --->   Operation 42 'phi' 'pkgValid_loc_0_i' <Predicate = (tmp & tmp_4) | (tmp & !firstWord_1_load)> <Delay = 0.00>
ST_2 : Operation 43 [1/1] (0.00ns)   --->   "%metaWritten_1_load = load i1* @metaWritten_1, align 1" [/home/paulrr2/Projects/ece527/babelsoc/fpga-network-stack/hls/toe/rx_engine/rx_engine.cpp:450]   --->   Operation 43 'load' 'metaWritten_1_load' <Predicate = (tmp & tmp_4) | (tmp & !firstWord_1_load)> <Delay = 0.00>
ST_2 : Operation 44 [1/1] (0.97ns)   --->   "%and_ln450 = and i1 %metaWritten_1_load, %pkgValid_loc_0_i" [/home/paulrr2/Projects/ece527/babelsoc/fpga-network-stack/hls/toe/rx_engine/rx_engine.cpp:450]   --->   Operation 44 'and' 'and_ln450' <Predicate = (tmp & tmp_4) | (tmp & !firstWord_1_load)> <Delay = 0.97> <Core = "LogicGate">   --->   Core 27 'LogicGate' <Latency = 0> <II = 1> <Delay = 0.97> <FuncUnit> <Opcode : 'and' 'or' 'xor'> <InPorts = 2> <OutPorts = 1>
ST_2 : Operation 45 [1/1] (0.00ns)   --->   "br i1 %and_ln450, label %3, label %._crit_edge61.i" [/home/paulrr2/Projects/ece527/babelsoc/fpga-network-stack/hls/toe/rx_engine/rx_engine.cpp:450]   --->   Operation 45 'br' <Predicate = (tmp & tmp_4) | (tmp & !firstWord_1_load)> <Delay = 0.00>
ST_2 : Operation 46 [1/1] (0.00ns) (grouped into LUT with out node or_ln455)   --->   "%xor_ln455 = xor i1 %or_ln73, true" [/home/paulrr2/Projects/ece527/babelsoc/fpga-network-stack/hls/toe/rx_engine/rx_engine.cpp:455]   --->   Operation 46 'xor' 'xor_ln455' <Predicate = (tmp & tmp_4) | (tmp & !firstWord_1_load)> <Delay = 0.00> <Core = "LogicGate">   --->   Core 27 'LogicGate' <Latency = 0> <II = 1> <Delay = 0.97> <FuncUnit> <Opcode : 'and' 'or' 'xor'> <InPorts = 2> <OutPorts = 1>
ST_2 : Operation 47 [1/1] (0.97ns) (out node of the LUT)   --->   "%or_ln455 = or i1 %metaWritten_1_load, %xor_ln455" [/home/paulrr2/Projects/ece527/babelsoc/fpga-network-stack/hls/toe/rx_engine/rx_engine.cpp:455]   --->   Operation 47 'or' 'or_ln455' <Predicate = (tmp & tmp_4) | (tmp & !firstWord_1_load)> <Delay = 0.97> <Core = "LogicGate">   --->   Core 27 'LogicGate' <Latency = 0> <II = 1> <Delay = 0.97> <FuncUnit> <Opcode : 'and' 'or' 'xor'> <InPorts = 2> <OutPorts = 1>
ST_2 : Operation 48 [1/1] (1.76ns)   --->   "br i1 %or_ln455, label %._crit_edge63.i, label %4" [/home/paulrr2/Projects/ece527/babelsoc/fpga-network-stack/hls/toe/rx_engine/rx_engine.cpp:455]   --->   Operation 48 'br' <Predicate = (tmp & tmp_4) | (tmp & !firstWord_1_load)> <Delay = 1.76>
ST_2 : Operation 49 [1/1] (0.00ns)   --->   "br i1 %pkgValid_loc_0_i, label %5, label %._crit_edge65.i" [/home/paulrr2/Projects/ece527/babelsoc/fpga-network-stack/hls/toe/rx_engine/rx_engine.cpp:473]   --->   Operation 49 'br' <Predicate = (tmp & tmp_4 & !or_ln455) | (tmp & !firstWord_1_load & !or_ln455)> <Delay = 0.00>
ST_2 : Operation 50 [1/1] (1.76ns)   --->   "br label %._crit_edge63.i" [/home/paulrr2/Projects/ece527/babelsoc/fpga-network-stack/hls/toe/rx_engine/rx_engine.cpp:489]   --->   Operation 50 'br' <Predicate = (tmp & tmp_4 & !or_ln455) | (tmp & !firstWord_1_load & !or_ln455)> <Delay = 1.76>
ST_2 : Operation 51 [1/1] (0.00ns)   --->   "%tmp_210 = call i1 @_ssdm_op_BitSelect.i1.i73.i32(i73 %tmp_1, i32 72)" [/home/paulrr2/Projects/ece527/babelsoc/fpga-network-stack/hls/toe/rx_engine/rx_engine.cpp:492]   --->   Operation 51 'bitselect' 'tmp_210' <Predicate = (tmp & tmp_4) | (tmp & !firstWord_1_load)> <Delay = 0.00>
ST_2 : Operation 52 [1/1] (0.97ns)   --->   "%or_ln492 = or i1 %tmp_210, %firstWord_1_flag_0_i" [/home/paulrr2/Projects/ece527/babelsoc/fpga-network-stack/hls/toe/rx_engine/rx_engine.cpp:492]   --->   Operation 52 'or' 'or_ln492' <Predicate = (tmp & tmp_4) | (tmp & !firstWord_1_load)> <Delay = 0.97> <Core = "LogicGate">   --->   Core 27 'LogicGate' <Latency = 0> <II = 1> <Delay = 0.97> <FuncUnit> <Opcode : 'and' 'or' 'xor'> <InPorts = 2> <OutPorts = 1>
ST_2 : Operation 53 [1/1] (0.97ns)   --->   "%xor_ln492 = xor i1 %tmp_210, true" [/home/paulrr2/Projects/ece527/babelsoc/fpga-network-stack/hls/toe/rx_engine/rx_engine.cpp:492]   --->   Operation 53 'xor' 'xor_ln492' <Predicate = (tmp & tmp_4) | (tmp & !firstWord_1_load)> <Delay = 0.97> <Core = "LogicGate">   --->   Core 27 'LogicGate' <Latency = 0> <II = 1> <Delay = 0.97> <FuncUnit> <Opcode : 'and' 'or' 'xor'> <InPorts = 2> <OutPorts = 1>
ST_2 : Operation 54 [1/1] (0.97ns)   --->   "%and_ln492 = and i1 %or_ln73, %xor_ln492" [/home/paulrr2/Projects/ece527/babelsoc/fpga-network-stack/hls/toe/rx_engine/rx_engine.cpp:492]   --->   Operation 54 'and' 'and_ln492' <Predicate = (tmp & tmp_4) | (tmp & !firstWord_1_load)> <Delay = 0.97> <Core = "LogicGate">   --->   Core 27 'LogicGate' <Latency = 0> <II = 1> <Delay = 0.97> <FuncUnit> <Opcode : 'and' 'or' 'xor'> <InPorts = 2> <OutPorts = 1>
ST_2 : Operation 55 [1/1] (0.80ns)   --->   "%select_ln492 = select i1 %tmp_210, i16 0, i16 %phi_ln73" [/home/paulrr2/Projects/ece527/babelsoc/fpga-network-stack/hls/toe/rx_engine/rx_engine.cpp:492]   --->   Operation 55 'select' 'select_ln492' <Predicate = (tmp & tmp_4) | (tmp & !firstWord_1_load)> <Delay = 0.80> <Core = "Sel">   --->   Core 26 'Sel' <Latency = 0> <II = 1> <Delay = 0.80> <FuncUnit> <Opcode : 'select'> <InPorts = 3> <OutPorts = 1>
ST_2 : Operation 56 [1/1] (0.00ns)   --->   "store i16 %select_ln492, i16* @header_idx_6, align 2" [/home/paulrr2/Projects/ece527/babelsoc/fpga-network-stack/hls/toe/rx_engine/rx_engine.cpp:443]   --->   Operation 56 'store' <Predicate = (tmp & tmp_4) | (tmp & !firstWord_1_load)> <Delay = 0.00>
ST_2 : Operation 57 [1/1] (0.00ns)   --->   "store i1 %and_ln492, i1* @header_ready_1, align 1" [/home/paulrr2/Projects/ece527/babelsoc/fpga-network-stack/hls/toe/rx_engine/rx_engine.cpp:443]   --->   Operation 57 'store' <Predicate = (tmp & tmp_4) | (tmp & !firstWord_1_load)> <Delay = 0.00>
ST_2 : Operation 58 [1/1] (0.00ns)   --->   "br i1 %or_ln492, label %mergeST.i, label %._crit_edge69.new.i" [/home/paulrr2/Projects/ece527/babelsoc/fpga-network-stack/hls/toe/rx_engine/rx_engine.cpp:492]   --->   Operation 58 'br' <Predicate = (tmp & tmp_4) | (tmp & !firstWord_1_load)> <Delay = 0.00>
ST_2 : Operation 59 [1/1] (0.00ns)   --->   "store i1 %tmp_210, i1* @firstWord_1, align 1" [/home/paulrr2/Projects/ece527/babelsoc/fpga-network-stack/hls/toe/rx_engine/rx_engine.cpp:447]   --->   Operation 59 'store' <Predicate = (tmp & tmp_4 & or_ln492) | (tmp & !firstWord_1_load & or_ln492)> <Delay = 0.00>

State 3 <SV = 2> <Delay = 4.59>
ST_3 : Operation 60 [1/1] (0.00ns) (grouped into LUT with out node shl_ln58)   --->   "%tmp_V_13 = zext i64 %trunc_ln443 to i256" [/home/paulrr2/Projects/ece527/babelsoc/fpga-network-stack/hls/toe/rx_engine/../../packet.hpp:60->/home/paulrr2/Projects/ece527/babelsoc/fpga-network-stack/hls/toe/rx_engine/rx_engine.cpp:443]   --->   Operation 60 'zext' 'tmp_V_13' <Predicate = (tmp & tmp_4 & !header_ready_1_load) | (tmp & !firstWord_1_load & !header_ready_1_load)> <Delay = 0.00>
ST_3 : Operation 61 [1/1] (0.00ns) (grouped into LUT with out node sub_ln58_2)   --->   "%select_ln58_5 = select i1 %icmp_ln58_2, i9 %tmp_203, i9 %trunc_ln58_2" [/home/paulrr2/Projects/ece527/babelsoc/fpga-network-stack/hls/toe/rx_engine/../../packet.hpp:58->/home/paulrr2/Projects/ece527/babelsoc/fpga-network-stack/hls/toe/rx_engine/rx_engine.cpp:443]   --->   Operation 61 'select' 'select_ln58_5' <Predicate = (tmp & tmp_4 & !header_ready_1_load) | (tmp & !firstWord_1_load & !header_ready_1_load)> <Delay = 0.00> <Core = "Sel">   --->   Core 26 'Sel' <Latency = 0> <II = 1> <Delay = 0.80> <FuncUnit> <Opcode : 'select'> <InPorts = 3> <OutPorts = 1>
ST_3 : Operation 62 [1/1] (0.00ns) (grouped into LUT with out node shl_ln58)   --->   "%select_ln58_7 = select i1 %icmp_ln58_2, i9 %sub_ln58, i9 %tmp_203" [/home/paulrr2/Projects/ece527/babelsoc/fpga-network-stack/hls/toe/rx_engine/../../packet.hpp:58->/home/paulrr2/Projects/ece527/babelsoc/fpga-network-stack/hls/toe/rx_engine/rx_engine.cpp:443]   --->   Operation 62 'select' 'select_ln58_7' <Predicate = (tmp & tmp_4 & !header_ready_1_load) | (tmp & !firstWord_1_load & !header_ready_1_load)> <Delay = 0.00> <Core = "Sel">   --->   Core 26 'Sel' <Latency = 0> <II = 1> <Delay = 0.80> <FuncUnit> <Opcode : 'select'> <InPorts = 3> <OutPorts = 1>
ST_3 : Operation 63 [1/1] (1.82ns) (out node of the LUT)   --->   "%sub_ln58_2 = sub i9 255, %select_ln58_5" [/home/paulrr2/Projects/ece527/babelsoc/fpga-network-stack/hls/toe/rx_engine/../../packet.hpp:58->/home/paulrr2/Projects/ece527/babelsoc/fpga-network-stack/hls/toe/rx_engine/rx_engine.cpp:443]   --->   Operation 63 'sub' 'sub_ln58_2' <Predicate = (tmp & tmp_4 & !header_ready_1_load) | (tmp & !firstWord_1_load & !header_ready_1_load)> <Delay = 1.82> <Core = "AddSub">   --->   Core 14 'AddSub' <Latency = 0> <II = 1> <Delay = 1.73> <FuncUnit> <Opcode : 'add' 'sub'> <InPorts = 2> <OutPorts = 1>
ST_3 : Operation 64 [1/1] (0.00ns) (grouped into LUT with out node shl_ln58)   --->   "%zext_ln58_4 = zext i9 %select_ln58_7 to i256" [/home/paulrr2/Projects/ece527/babelsoc/fpga-network-stack/hls/toe/rx_engine/../../packet.hpp:58->/home/paulrr2/Projects/ece527/babelsoc/fpga-network-stack/hls/toe/rx_engine/rx_engine.cpp:443]   --->   Operation 64 'zext' 'zext_ln58_4' <Predicate = (tmp & tmp_4 & !header_ready_1_load) | (tmp & !firstWord_1_load & !header_ready_1_load)> <Delay = 0.00>
ST_3 : Operation 65 [1/1] (4.59ns) (out node of the LUT)   --->   "%shl_ln58 = shl i256 %tmp_V_13, %zext_ln58_4" [/home/paulrr2/Projects/ece527/babelsoc/fpga-network-stack/hls/toe/rx_engine/../../packet.hpp:58->/home/paulrr2/Projects/ece527/babelsoc/fpga-network-stack/hls/toe/rx_engine/rx_engine.cpp:443]   --->   Operation 65 'shl' 'shl_ln58' <Predicate = (tmp & tmp_4 & !header_ready_1_load) | (tmp & !firstWord_1_load & !header_ready_1_load)> <Delay = 4.59> <Core = "Shift">   --->   Core 28 'Shift' <Latency = 0> <II = 1> <Delay = 3.25> <FuncUnit> <Opcode : 'shl' 'lshr' 'ashr'> <InPorts = 2> <OutPorts = 1>
ST_3 : Operation 66 [1/1] (2.80ns)   --->   "call void @_ssdm_op_Write.ap_fifo.volatile.i73P(i73* @rxEng_dataBuffer3a_V, i73 %tmp_1) nounwind" [/home/paulrr2/Projects/ece527/babelsoc/fpga-network-stack/hls/toe/rx_engine/rx_engine.cpp:452]   --->   Operation 66 'write' <Predicate = (tmp & tmp_4 & and_ln450) | (tmp & !firstWord_1_load & and_ln450)> <Delay = 2.80> <Core = "FIFO">   --->   Core 32 'FIFO' <Latency = 0> <II = 1> <Delay = 3.63> <Storage> <Opcode : 'read' 'write' 'nbread' 'nbwrite'> <Ports = 0> <Width = 4> <Depth = 2> <FIFO>
ST_3 : Operation 67 [1/1] (0.00ns) (grouped into LUT with out node or_ln492_1)   --->   "%metaWritten_1_flag_1 = phi i1 [ false, %._crit_edge61.i ], [ true, %._crit_edge65.i ]"   --->   Operation 67 'phi' 'metaWritten_1_flag_1' <Predicate = (tmp & tmp_4) | (tmp & !firstWord_1_load)> <Delay = 0.00>
ST_3 : Operation 68 [1/1] (0.97ns) (out node of the LUT)   --->   "%or_ln492_1 = or i1 %tmp_210, %metaWritten_1_flag_1" [/home/paulrr2/Projects/ece527/babelsoc/fpga-network-stack/hls/toe/rx_engine/rx_engine.cpp:492]   --->   Operation 68 'or' 'or_ln492_1' <Predicate = (tmp & tmp_4) | (tmp & !firstWord_1_load)> <Delay = 0.97> <Core = "LogicGate">   --->   Core 27 'LogicGate' <Latency = 0> <II = 1> <Delay = 0.97> <FuncUnit> <Opcode : 'and' 'or' 'xor'> <InPorts = 2> <OutPorts = 1>
ST_3 : Operation 69 [1/1] (0.00ns)   --->   "br i1 %or_ln492_1, label %mergeST172.i, label %._crit_edge69.new173.i" [/home/paulrr2/Projects/ece527/babelsoc/fpga-network-stack/hls/toe/rx_engine/rx_engine.cpp:492]   --->   Operation 69 'br' <Predicate = (tmp & tmp_4) | (tmp & !firstWord_1_load)> <Delay = 0.00>
ST_3 : Operation 70 [1/1] (0.00ns)   --->   "store i1 %xor_ln492, i1* @metaWritten_1, align 1" [/home/paulrr2/Projects/ece527/babelsoc/fpga-network-stack/hls/toe/rx_engine/rx_engine.cpp:488]   --->   Operation 70 'store' <Predicate = (tmp & tmp_4 & or_ln492_1) | (tmp & !firstWord_1_load & or_ln492_1)> <Delay = 0.00>

State 4 <SV = 3> <Delay = 4.80>
ST_4 : Operation 71 [1/1] (0.00ns)   --->   "%p_Val2_s = load i256* @header_header_V_5, align 16" [/home/paulrr2/Projects/ece527/babelsoc/fpga-network-stack/hls/toe/rx_engine/../../packet.hpp:60->/home/paulrr2/Projects/ece527/babelsoc/fpga-network-stack/hls/toe/rx_engine/rx_engine.cpp:443]   --->   Operation 71 'load' 'p_Val2_s' <Predicate = (tmp & tmp_4 & !header_ready_1_load) | (tmp & !firstWord_1_load & !header_ready_1_load)> <Delay = 0.00>
ST_4 : Operation 72 [1/1] (0.00ns) (grouped into LUT with out node and_ln58)   --->   "%select_ln58_6 = select i1 %icmp_ln58_2, i9 %trunc_ln58_2, i9 %tmp_203" [/home/paulrr2/Projects/ece527/babelsoc/fpga-network-stack/hls/toe/rx_engine/../../packet.hpp:58->/home/paulrr2/Projects/ece527/babelsoc/fpga-network-stack/hls/toe/rx_engine/rx_engine.cpp:443]   --->   Operation 72 'select' 'select_ln58_6' <Predicate = (tmp & tmp_4 & !header_ready_1_load) | (tmp & !firstWord_1_load & !header_ready_1_load)> <Delay = 0.00> <Core = "Sel">   --->   Core 26 'Sel' <Latency = 0> <II = 1> <Delay = 0.80> <FuncUnit> <Opcode : 'select'> <InPorts = 3> <OutPorts = 1>
ST_4 : Operation 73 [1/1] (0.00ns) (grouped into LUT with out node and_ln58)   --->   "%zext_ln58_5 = zext i9 %select_ln58_6 to i256" [/home/paulrr2/Projects/ece527/babelsoc/fpga-network-stack/hls/toe/rx_engine/../../packet.hpp:58->/home/paulrr2/Projects/ece527/babelsoc/fpga-network-stack/hls/toe/rx_engine/rx_engine.cpp:443]   --->   Operation 73 'zext' 'zext_ln58_5' <Predicate = (tmp & tmp_4 & !header_ready_1_load) | (tmp & !firstWord_1_load & !header_ready_1_load)> <Delay = 0.00>
ST_4 : Operation 74 [1/1] (0.00ns) (grouped into LUT with out node and_ln58)   --->   "%zext_ln58_6 = zext i9 %sub_ln58_2 to i256" [/home/paulrr2/Projects/ece527/babelsoc/fpga-network-stack/hls/toe/rx_engine/../../packet.hpp:58->/home/paulrr2/Projects/ece527/babelsoc/fpga-network-stack/hls/toe/rx_engine/rx_engine.cpp:443]   --->   Operation 74 'zext' 'zext_ln58_6' <Predicate = (tmp & tmp_4 & !header_ready_1_load) | (tmp & !firstWord_1_load & !header_ready_1_load)> <Delay = 0.00>
ST_4 : Operation 75 [1/1] (0.00ns) (grouped into LUT with out node or_ln58)   --->   "%tmp_204 = call i256 @llvm.part.select.i256(i256 %shl_ln58, i32 255, i32 0)" [/home/paulrr2/Projects/ece527/babelsoc/fpga-network-stack/hls/toe/rx_engine/../../packet.hpp:58->/home/paulrr2/Projects/ece527/babelsoc/fpga-network-stack/hls/toe/rx_engine/rx_engine.cpp:443]   --->   Operation 75 'partselect' 'tmp_204' <Predicate = (tmp & tmp_4 & !header_ready_1_load & icmp_ln58_2) | (tmp & !firstWord_1_load & !header_ready_1_load & icmp_ln58_2)> <Delay = 0.00>
ST_4 : Operation 76 [1/1] (0.00ns) (grouped into LUT with out node or_ln58)   --->   "%select_ln58_8 = select i1 %icmp_ln58_2, i256 %tmp_204, i256 %shl_ln58" [/home/paulrr2/Projects/ece527/babelsoc/fpga-network-stack/hls/toe/rx_engine/../../packet.hpp:58->/home/paulrr2/Projects/ece527/babelsoc/fpga-network-stack/hls/toe/rx_engine/rx_engine.cpp:443]   --->   Operation 76 'select' 'select_ln58_8' <Predicate = (tmp & tmp_4 & !header_ready_1_load) | (tmp & !firstWord_1_load & !header_ready_1_load)> <Delay = 0.00> <Core = "Sel">   --->   Core 26 'Sel' <Latency = 0> <II = 1> <Delay = 0.80> <FuncUnit> <Opcode : 'select'> <InPorts = 3> <OutPorts = 1>
ST_4 : Operation 77 [1/1] (0.00ns) (grouped into LUT with out node and_ln58)   --->   "%shl_ln58_2 = shl i256 -1, %zext_ln58_5" [/home/paulrr2/Projects/ece527/babelsoc/fpga-network-stack/hls/toe/rx_engine/../../packet.hpp:58->/home/paulrr2/Projects/ece527/babelsoc/fpga-network-stack/hls/toe/rx_engine/rx_engine.cpp:443]   --->   Operation 77 'shl' 'shl_ln58_2' <Predicate = (tmp & tmp_4 & !header_ready_1_load) | (tmp & !firstWord_1_load & !header_ready_1_load)> <Delay = 0.00> <Core = "Shift">   --->   Core 28 'Shift' <Latency = 0> <II = 1> <Delay = 3.25> <FuncUnit> <Opcode : 'shl' 'lshr' 'ashr'> <InPorts = 2> <OutPorts = 1>
ST_4 : Operation 78 [1/1] (0.00ns) (grouped into LUT with out node and_ln58)   --->   "%lshr_ln58 = lshr i256 -1, %zext_ln58_6" [/home/paulrr2/Projects/ece527/babelsoc/fpga-network-stack/hls/toe/rx_engine/../../packet.hpp:58->/home/paulrr2/Projects/ece527/babelsoc/fpga-network-stack/hls/toe/rx_engine/rx_engine.cpp:443]   --->   Operation 78 'lshr' 'lshr_ln58' <Predicate = (tmp & tmp_4 & !header_ready_1_load) | (tmp & !firstWord_1_load & !header_ready_1_load)> <Delay = 0.00> <Core = "Shift">   --->   Core 28 'Shift' <Latency = 0> <II = 1> <Delay = 3.25> <FuncUnit> <Opcode : 'shl' 'lshr' 'ashr'> <InPorts = 2> <OutPorts = 1>
ST_4 : Operation 79 [1/1] (3.25ns) (out node of the LUT)   --->   "%and_ln58 = and i256 %shl_ln58_2, %lshr_ln58" [/home/paulrr2/Projects/ece527/babelsoc/fpga-network-stack/hls/toe/rx_engine/../../packet.hpp:58->/home/paulrr2/Projects/ece527/babelsoc/fpga-network-stack/hls/toe/rx_engine/rx_engine.cpp:443]   --->   Operation 79 'and' 'and_ln58' <Predicate = (tmp & tmp_4 & !header_ready_1_load) | (tmp & !firstWord_1_load & !header_ready_1_load)> <Delay = 3.25> <Core = "LogicGate">   --->   Core 27 'LogicGate' <Latency = 0> <II = 1> <Delay = 0.97> <FuncUnit> <Opcode : 'and' 'or' 'xor'> <InPorts = 2> <OutPorts = 1>
ST_4 : Operation 80 [1/1] (0.00ns) (grouped into LUT with out node or_ln58)   --->   "%xor_ln58_2 = xor i256 %and_ln58, -1" [/home/paulrr2/Projects/ece527/babelsoc/fpga-network-stack/hls/toe/rx_engine/../../packet.hpp:58->/home/paulrr2/Projects/ece527/babelsoc/fpga-network-stack/hls/toe/rx_engine/rx_engine.cpp:443]   --->   Operation 80 'xor' 'xor_ln58_2' <Predicate = (tmp & tmp_4 & !header_ready_1_load) | (tmp & !firstWord_1_load & !header_ready_1_load)> <Delay = 0.00> <Core = "LogicGate">   --->   Core 27 'LogicGate' <Latency = 0> <II = 1> <Delay = 0.97> <FuncUnit> <Opcode : 'and' 'or' 'xor'> <InPorts = 2> <OutPorts = 1>
ST_4 : Operation 81 [1/1] (0.00ns) (grouped into LUT with out node or_ln58)   --->   "%and_ln58_3 = and i256 %p_Val2_s, %xor_ln58_2" [/home/paulrr2/Projects/ece527/babelsoc/fpga-network-stack/hls/toe/rx_engine/../../packet.hpp:58->/home/paulrr2/Projects/ece527/babelsoc/fpga-network-stack/hls/toe/rx_engine/rx_engine.cpp:443]   --->   Operation 81 'and' 'and_ln58_3' <Predicate = (tmp & tmp_4 & !header_ready_1_load) | (tmp & !firstWord_1_load & !header_ready_1_load)> <Delay = 0.00> <Core = "LogicGate">   --->   Core 27 'LogicGate' <Latency = 0> <II = 1> <Delay = 0.97> <FuncUnit> <Opcode : 'and' 'or' 'xor'> <InPorts = 2> <OutPorts = 1>
ST_4 : Operation 82 [1/1] (0.00ns) (grouped into LUT with out node or_ln58)   --->   "%and_ln58_4 = and i256 %select_ln58_8, %and_ln58" [/home/paulrr2/Projects/ece527/babelsoc/fpga-network-stack/hls/toe/rx_engine/../../packet.hpp:58->/home/paulrr2/Projects/ece527/babelsoc/fpga-network-stack/hls/toe/rx_engine/rx_engine.cpp:443]   --->   Operation 82 'and' 'and_ln58_4' <Predicate = (tmp & tmp_4 & !header_ready_1_load) | (tmp & !firstWord_1_load & !header_ready_1_load)> <Delay = 0.00> <Core = "LogicGate">   --->   Core 27 'LogicGate' <Latency = 0> <II = 1> <Delay = 0.97> <FuncUnit> <Opcode : 'and' 'or' 'xor'> <InPorts = 2> <OutPorts = 1>
ST_4 : Operation 83 [1/1] (1.55ns) (out node of the LUT)   --->   "%or_ln58 = or i256 %and_ln58_3, %and_ln58_4" [/home/paulrr2/Projects/ece527/babelsoc/fpga-network-stack/hls/toe/rx_engine/../../packet.hpp:58->/home/paulrr2/Projects/ece527/babelsoc/fpga-network-stack/hls/toe/rx_engine/rx_engine.cpp:443]   --->   Operation 83 'or' 'or_ln58' <Predicate = (tmp & tmp_4 & !header_ready_1_load) | (tmp & !firstWord_1_load & !header_ready_1_load)> <Delay = 1.55> <Core = "LogicGate">   --->   Core 27 'LogicGate' <Latency = 0> <II = 1> <Delay = 0.97> <FuncUnit> <Opcode : 'and' 'or' 'xor'> <InPorts = 2> <OutPorts = 1>
ST_4 : Operation 84 [1/1] (0.00ns)   --->   "store i256 %or_ln58, i256* @header_header_V_5, align 32" [/home/paulrr2/Projects/ece527/babelsoc/fpga-network-stack/hls/toe/rx_engine/../../packet.hpp:60->/home/paulrr2/Projects/ece527/babelsoc/fpga-network-stack/hls/toe/rx_engine/rx_engine.cpp:443]   --->   Operation 84 'store' <Predicate = (tmp & tmp_4 & !header_ready_1_load) | (tmp & !firstWord_1_load & !header_ready_1_load)> <Delay = 0.00>

State 5 <SV = 4> <Delay = 4.87>
ST_5 : Operation 85 [1/1] (0.00ns)   --->   "%p_Val2_42 = load i256* @header_header_V_5, align 32" [/home/paulrr2/Projects/ece527/babelsoc/fpga-network-stack/hls/toe/rx_engine/../toe_internals.hpp:580->/home/paulrr2/Projects/ece527/babelsoc/fpga-network-stack/hls/toe/rx_engine/rx_engine.cpp:464]   --->   Operation 85 'load' 'p_Val2_42' <Predicate = (tmp & tmp_4 & !or_ln455) | (tmp & !firstWord_1_load & !or_ln455)> <Delay = 0.00>
ST_5 : Operation 86 [1/1] (0.00ns)   --->   "%p_Result_125_i_i_i = call i8 @_ssdm_op_PartSelect.i8.i256.i32.i32(i256 %p_Val2_42, i32 152, i32 159) nounwind" [/home/paulrr2/Projects/ece527/babelsoc/fpga-network-stack/hls/toe/tx_engine/../../axi_utils.hpp:79->/home/paulrr2/Projects/ece527/babelsoc/fpga-network-stack/hls/toe/rx_engine/../toe_internals.hpp:580->/home/paulrr2/Projects/ece527/babelsoc/fpga-network-stack/hls/toe/rx_engine/rx_engine.cpp:464]   --->   Operation 86 'partselect' 'p_Result_125_i_i_i' <Predicate = (tmp & tmp_4 & !or_ln455) | (tmp & !firstWord_1_load & !or_ln455)> <Delay = 0.00>
ST_5 : Operation 87 [1/1] (0.00ns)   --->   "%p_Result_125_1_i_i = call i8 @_ssdm_op_PartSelect.i8.i256.i32.i32(i256 %p_Val2_42, i32 144, i32 151) nounwind" [/home/paulrr2/Projects/ece527/babelsoc/fpga-network-stack/hls/toe/tx_engine/../../axi_utils.hpp:79->/home/paulrr2/Projects/ece527/babelsoc/fpga-network-stack/hls/toe/rx_engine/../toe_internals.hpp:580->/home/paulrr2/Projects/ece527/babelsoc/fpga-network-stack/hls/toe/rx_engine/rx_engine.cpp:464]   --->   Operation 87 'partselect' 'p_Result_125_1_i_i' <Predicate = (tmp & tmp_4 & !or_ln455) | (tmp & !firstWord_1_load & !or_ln455)> <Delay = 0.00>
ST_5 : Operation 88 [1/1] (0.00ns)   --->   "%p_Result_125_2_i_i = call i8 @_ssdm_op_PartSelect.i8.i256.i32.i32(i256 %p_Val2_42, i32 136, i32 143) nounwind" [/home/paulrr2/Projects/ece527/babelsoc/fpga-network-stack/hls/toe/tx_engine/../../axi_utils.hpp:79->/home/paulrr2/Projects/ece527/babelsoc/fpga-network-stack/hls/toe/rx_engine/../toe_internals.hpp:580->/home/paulrr2/Projects/ece527/babelsoc/fpga-network-stack/hls/toe/rx_engine/rx_engine.cpp:464]   --->   Operation 88 'partselect' 'p_Result_125_2_i_i' <Predicate = (tmp & tmp_4 & !or_ln455) | (tmp & !firstWord_1_load & !or_ln455)> <Delay = 0.00>
ST_5 : Operation 89 [1/1] (0.00ns)   --->   "%p_Result_125_3_i_i = call i8 @_ssdm_op_PartSelect.i8.i256.i32.i32(i256 %p_Val2_42, i32 128, i32 135) nounwind" [/home/paulrr2/Projects/ece527/babelsoc/fpga-network-stack/hls/toe/tx_engine/../../axi_utils.hpp:79->/home/paulrr2/Projects/ece527/babelsoc/fpga-network-stack/hls/toe/rx_engine/../toe_internals.hpp:580->/home/paulrr2/Projects/ece527/babelsoc/fpga-network-stack/hls/toe/rx_engine/rx_engine.cpp:464]   --->   Operation 89 'partselect' 'p_Result_125_3_i_i' <Predicate = (tmp & tmp_4 & !or_ln455) | (tmp & !firstWord_1_load & !or_ln455)> <Delay = 0.00>
ST_5 : Operation 90 [1/1] (0.00ns)   --->   "%meta_seqNumb_V_1 = call i32 @_ssdm_op_BitConcatenate.i32.i8.i8.i8.i8(i8 %p_Result_125_3_i_i, i8 %p_Result_125_2_i_i, i8 %p_Result_125_1_i_i, i8 %p_Result_125_i_i_i) nounwind" [/home/paulrr2/Projects/ece527/babelsoc/fpga-network-stack/hls/toe/tx_engine/../../axi_utils.hpp:79->/home/paulrr2/Projects/ece527/babelsoc/fpga-network-stack/hls/toe/rx_engine/../toe_internals.hpp:580->/home/paulrr2/Projects/ece527/babelsoc/fpga-network-stack/hls/toe/rx_engine/rx_engine.cpp:464]   --->   Operation 90 'bitconcatenate' 'meta_seqNumb_V_1' <Predicate = (tmp & tmp_4 & !or_ln455) | (tmp & !firstWord_1_load & !or_ln455)> <Delay = 0.00>
ST_5 : Operation 91 [1/1] (0.00ns)   --->   "%p_Result_125_i_i = call i8 @_ssdm_op_PartSelect.i8.i256.i32.i32(i256 %p_Val2_42, i32 184, i32 191) nounwind" [/home/paulrr2/Projects/ece527/babelsoc/fpga-network-stack/hls/toe/tx_engine/../../axi_utils.hpp:79->/home/paulrr2/Projects/ece527/babelsoc/fpga-network-stack/hls/toe/rx_engine/../toe_internals.hpp:588->/home/paulrr2/Projects/ece527/babelsoc/fpga-network-stack/hls/toe/rx_engine/rx_engine.cpp:465]   --->   Operation 91 'partselect' 'p_Result_125_i_i' <Predicate = (tmp & tmp_4 & !or_ln455) | (tmp & !firstWord_1_load & !or_ln455)> <Delay = 0.00>
ST_5 : Operation 92 [1/1] (0.00ns)   --->   "%p_Result_125_1_i_i_2 = call i8 @_ssdm_op_PartSelect.i8.i256.i32.i32(i256 %p_Val2_42, i32 176, i32 183) nounwind" [/home/paulrr2/Projects/ece527/babelsoc/fpga-network-stack/hls/toe/tx_engine/../../axi_utils.hpp:79->/home/paulrr2/Projects/ece527/babelsoc/fpga-network-stack/hls/toe/rx_engine/../toe_internals.hpp:588->/home/paulrr2/Projects/ece527/babelsoc/fpga-network-stack/hls/toe/rx_engine/rx_engine.cpp:465]   --->   Operation 92 'partselect' 'p_Result_125_1_i_i_2' <Predicate = (tmp & tmp_4 & !or_ln455) | (tmp & !firstWord_1_load & !or_ln455)> <Delay = 0.00>
ST_5 : Operation 93 [1/1] (0.00ns)   --->   "%p_Result_125_2_i_i_2 = call i8 @_ssdm_op_PartSelect.i8.i256.i32.i32(i256 %p_Val2_42, i32 168, i32 175) nounwind" [/home/paulrr2/Projects/ece527/babelsoc/fpga-network-stack/hls/toe/tx_engine/../../axi_utils.hpp:79->/home/paulrr2/Projects/ece527/babelsoc/fpga-network-stack/hls/toe/rx_engine/../toe_internals.hpp:588->/home/paulrr2/Projects/ece527/babelsoc/fpga-network-stack/hls/toe/rx_engine/rx_engine.cpp:465]   --->   Operation 93 'partselect' 'p_Result_125_2_i_i_2' <Predicate = (tmp & tmp_4 & !or_ln455) | (tmp & !firstWord_1_load & !or_ln455)> <Delay = 0.00>
ST_5 : Operation 94 [1/1] (0.00ns)   --->   "%p_Result_125_3_i_i_2 = call i8 @_ssdm_op_PartSelect.i8.i256.i32.i32(i256 %p_Val2_42, i32 160, i32 167) nounwind" [/home/paulrr2/Projects/ece527/babelsoc/fpga-network-stack/hls/toe/tx_engine/../../axi_utils.hpp:79->/home/paulrr2/Projects/ece527/babelsoc/fpga-network-stack/hls/toe/rx_engine/../toe_internals.hpp:588->/home/paulrr2/Projects/ece527/babelsoc/fpga-network-stack/hls/toe/rx_engine/rx_engine.cpp:465]   --->   Operation 94 'partselect' 'p_Result_125_3_i_i_2' <Predicate = (tmp & tmp_4 & !or_ln455) | (tmp & !firstWord_1_load & !or_ln455)> <Delay = 0.00>
ST_5 : Operation 95 [1/1] (0.00ns)   --->   "%meta_ackNumb_V_1 = call i32 @_ssdm_op_BitConcatenate.i32.i8.i8.i8.i8(i8 %p_Result_125_3_i_i_2, i8 %p_Result_125_2_i_i_2, i8 %p_Result_125_1_i_i_2, i8 %p_Result_125_i_i) nounwind" [/home/paulrr2/Projects/ece527/babelsoc/fpga-network-stack/hls/toe/tx_engine/../../axi_utils.hpp:79->/home/paulrr2/Projects/ece527/babelsoc/fpga-network-stack/hls/toe/rx_engine/../toe_internals.hpp:588->/home/paulrr2/Projects/ece527/babelsoc/fpga-network-stack/hls/toe/rx_engine/rx_engine.cpp:465]   --->   Operation 95 'bitconcatenate' 'meta_ackNumb_V_1' <Predicate = (tmp & tmp_4 & !or_ln455) | (tmp & !firstWord_1_load & !or_ln455)> <Delay = 0.00>
ST_5 : Operation 96 [1/1] (0.00ns)   --->   "%p_Result_127_i_i_i = call i8 @_ssdm_op_PartSelect.i8.i256.i32.i32(i256 %p_Val2_42, i32 216, i32 223) nounwind" [/home/paulrr2/Projects/ece527/babelsoc/fpga-network-stack/hls/toe/tx_engine/../../axi_utils.hpp:79->/home/paulrr2/Projects/ece527/babelsoc/fpga-network-stack/hls/toe/rx_engine/../toe_internals.hpp:636->/home/paulrr2/Projects/ece527/babelsoc/fpga-network-stack/hls/toe/rx_engine/rx_engine.cpp:466]   --->   Operation 96 'partselect' 'p_Result_127_i_i_i' <Predicate = (tmp & tmp_4 & !or_ln455) | (tmp & !firstWord_1_load & !or_ln455)> <Delay = 0.00>
ST_5 : Operation 97 [1/1] (0.00ns)   --->   "%p_Result_127_1_i_i = call i8 @_ssdm_op_PartSelect.i8.i256.i32.i32(i256 %p_Val2_42, i32 208, i32 215) nounwind" [/home/paulrr2/Projects/ece527/babelsoc/fpga-network-stack/hls/toe/tx_engine/../../axi_utils.hpp:79->/home/paulrr2/Projects/ece527/babelsoc/fpga-network-stack/hls/toe/rx_engine/../toe_internals.hpp:636->/home/paulrr2/Projects/ece527/babelsoc/fpga-network-stack/hls/toe/rx_engine/rx_engine.cpp:466]   --->   Operation 97 'partselect' 'p_Result_127_1_i_i' <Predicate = (tmp & tmp_4 & !or_ln455) | (tmp & !firstWord_1_load & !or_ln455)> <Delay = 0.00>
ST_5 : Operation 98 [1/1] (0.00ns)   --->   "%meta_winSize_V_1 = call i16 @_ssdm_op_BitConcatenate.i16.i8.i8(i8 %p_Result_127_1_i_i, i8 %p_Result_127_i_i_i) nounwind" [/home/paulrr2/Projects/ece527/babelsoc/fpga-network-stack/hls/toe/tx_engine/../../axi_utils.hpp:79->/home/paulrr2/Projects/ece527/babelsoc/fpga-network-stack/hls/toe/rx_engine/../toe_internals.hpp:636->/home/paulrr2/Projects/ece527/babelsoc/fpga-network-stack/hls/toe/rx_engine/rx_engine.cpp:466]   --->   Operation 98 'bitconcatenate' 'meta_winSize_V_1' <Predicate = (tmp & tmp_4 & !or_ln455) | (tmp & !firstWord_1_load & !or_ln455)> <Delay = 0.00>
ST_5 : Operation 99 [1/1] (0.00ns)   --->   "%p_Result_127_i_i = call i8 @_ssdm_op_PartSelect.i8.i256.i32.i32(i256 %p_Val2_42, i32 88, i32 95) nounwind" [/home/paulrr2/Projects/ece527/babelsoc/fpga-network-stack/hls/toe/tx_engine/../../axi_utils.hpp:79->/home/paulrr2/Projects/ece527/babelsoc/fpga-network-stack/hls/toe/rx_engine/../toe_internals.hpp:556->/home/paulrr2/Projects/ece527/babelsoc/fpga-network-stack/hls/toe/rx_engine/rx_engine.cpp:467]   --->   Operation 99 'partselect' 'p_Result_127_i_i' <Predicate = (tmp & tmp_4 & !or_ln455) | (tmp & !firstWord_1_load & !or_ln455)> <Delay = 0.00>
ST_5 : Operation 100 [1/1] (0.00ns)   --->   "%p_Result_127_1_i_i_2 = call i8 @_ssdm_op_PartSelect.i8.i256.i32.i32(i256 %p_Val2_42, i32 80, i32 87) nounwind" [/home/paulrr2/Projects/ece527/babelsoc/fpga-network-stack/hls/toe/tx_engine/../../axi_utils.hpp:79->/home/paulrr2/Projects/ece527/babelsoc/fpga-network-stack/hls/toe/rx_engine/../toe_internals.hpp:556->/home/paulrr2/Projects/ece527/babelsoc/fpga-network-stack/hls/toe/rx_engine/rx_engine.cpp:467]   --->   Operation 100 'partselect' 'p_Result_127_1_i_i_2' <Predicate = (tmp & tmp_4 & !or_ln455) | (tmp & !firstWord_1_load & !or_ln455)> <Delay = 0.00>
ST_5 : Operation 101 [1/1] (0.00ns)   --->   "%agg_result_V_0_1_i_i = call i16 @_ssdm_op_BitConcatenate.i16.i8.i8(i8 %p_Result_127_1_i_i_2, i8 %p_Result_127_i_i) nounwind" [/home/paulrr2/Projects/ece527/babelsoc/fpga-network-stack/hls/toe/tx_engine/../../axi_utils.hpp:79->/home/paulrr2/Projects/ece527/babelsoc/fpga-network-stack/hls/toe/rx_engine/../toe_internals.hpp:556->/home/paulrr2/Projects/ece527/babelsoc/fpga-network-stack/hls/toe/rx_engine/rx_engine.cpp:467]   --->   Operation 101 'bitconcatenate' 'agg_result_V_0_1_i_i' <Predicate = (tmp & tmp_4 & !or_ln455) | (tmp & !firstWord_1_load & !or_ln455)> <Delay = 0.00>
ST_5 : Operation 102 [1/1] (0.00ns)   --->   "%meta_dataOffset_V_1 = call i4 @_ssdm_op_PartSelect.i4.i256.i32.i32(i256 %p_Val2_42, i32 196, i32 199) nounwind" [/home/paulrr2/Projects/ece527/babelsoc/fpga-network-stack/hls/toe/rx_engine/../toe_internals.hpp:596->/home/paulrr2/Projects/ece527/babelsoc/fpga-network-stack/hls/toe/rx_engine/rx_engine.cpp:467]   --->   Operation 102 'partselect' 'meta_dataOffset_V_1' <Predicate = (tmp & tmp_4 & !or_ln455) | (tmp & !firstWord_1_load & !or_ln455)> <Delay = 0.00>
ST_5 : Operation 103 [1/1] (0.00ns)   --->   "%shl_ln = call i6 @_ssdm_op_BitConcatenate.i6.i4.i2(i4 %meta_dataOffset_V_1, i2 0)" [/home/paulrr2/Projects/ece527/babelsoc/fpga-network-stack/hls/toe/rx_engine/rx_engine.cpp:467]   --->   Operation 103 'bitconcatenate' 'shl_ln' <Predicate = (tmp & tmp_4 & !or_ln455) | (tmp & !firstWord_1_load & !or_ln455)> <Delay = 0.00>
ST_5 : Operation 104 [1/1] (0.00ns)   --->   "%zext_ln214_8 = zext i6 %shl_ln to i16" [/home/paulrr2/Projects/ece527/babelsoc/fpga-network-stack/hls/toe/rx_engine/rx_engine.cpp:467]   --->   Operation 104 'zext' 'zext_ln214_8' <Predicate = (tmp & tmp_4 & !or_ln455) | (tmp & !firstWord_1_load & !or_ln455)> <Delay = 0.00>
ST_5 : Operation 105 [1/1] (2.07ns)   --->   "%meta_length_V_1 = sub i16 %agg_result_V_0_1_i_i, %zext_ln214_8" [/home/paulrr2/Projects/ece527/babelsoc/fpga-network-stack/hls/toe/rx_engine/rx_engine.cpp:467]   --->   Operation 105 'sub' 'meta_length_V_1' <Predicate = (tmp & tmp_4 & !or_ln455) | (tmp & !firstWord_1_load & !or_ln455)> <Delay = 2.07> <Core = "AddSub">   --->   Core 14 'AddSub' <Latency = 0> <II = 1> <Delay = 1.73> <FuncUnit> <Opcode : 'add' 'sub'> <InPorts = 2> <OutPorts = 1>
ST_5 : Operation 106 [1/1] (0.00ns)   --->   "%p_Result_s = call i1 @_ssdm_op_BitSelect.i1.i256.i32(i256 %p_Val2_42, i32 204)" [/home/paulrr2/Projects/ece527/babelsoc/fpga-network-stack/hls/toe/rx_engine/../toe_internals.hpp:600->/home/paulrr2/Projects/ece527/babelsoc/fpga-network-stack/hls/toe/rx_engine/rx_engine.cpp:468]   --->   Operation 106 'bitselect' 'p_Result_s' <Predicate = (tmp & tmp_4 & !or_ln455) | (tmp & !firstWord_1_load & !or_ln455)> <Delay = 0.00>
ST_5 : Operation 107 [1/1] (0.00ns)   --->   "%p_Result_64 = call i1 @_ssdm_op_BitSelect.i1.i256.i32(i256 %p_Val2_42, i32 202)" [/home/paulrr2/Projects/ece527/babelsoc/fpga-network-stack/hls/toe/rx_engine/../toe_internals.hpp:608->/home/paulrr2/Projects/ece527/babelsoc/fpga-network-stack/hls/toe/rx_engine/rx_engine.cpp:469]   --->   Operation 107 'bitselect' 'p_Result_64' <Predicate = (tmp & tmp_4 & !or_ln455) | (tmp & !firstWord_1_load & !or_ln455)> <Delay = 0.00>
ST_5 : Operation 108 [1/1] (0.00ns)   --->   "%p_Result_65 = call i1 @_ssdm_op_BitSelect.i1.i256.i32(i256 %p_Val2_42, i32 201)" [/home/paulrr2/Projects/ece527/babelsoc/fpga-network-stack/hls/toe/rx_engine/../toe_internals.hpp:616->/home/paulrr2/Projects/ece527/babelsoc/fpga-network-stack/hls/toe/rx_engine/rx_engine.cpp:470]   --->   Operation 108 'bitselect' 'p_Result_65' <Predicate = (tmp & tmp_4 & !or_ln455) | (tmp & !firstWord_1_load & !or_ln455)> <Delay = 0.00>
ST_5 : Operation 109 [1/1] (0.00ns)   --->   "%p_Result_66 = call i1 @_ssdm_op_BitSelect.i1.i256.i32(i256 %p_Val2_42, i32 200)" [/home/paulrr2/Projects/ece527/babelsoc/fpga-network-stack/hls/toe/rx_engine/../toe_internals.hpp:624->/home/paulrr2/Projects/ece527/babelsoc/fpga-network-stack/hls/toe/rx_engine/rx_engine.cpp:471]   --->   Operation 109 'bitselect' 'p_Result_66' <Predicate = (tmp & tmp_4 & !or_ln455) | (tmp & !firstWord_1_load & !or_ln455)> <Delay = 0.00>
ST_5 : Operation 110 [1/1] (2.80ns)   --->   "call void @_ssdm_op_Write.ap_fifo.volatile.i32P.i32P.i16P.i4P.i16P.i1P.i1P.i1P.i1P.i4P(i32* @rxEng_headerMetaFifo_20, i32* @rxEng_headerMetaFifo_12, i16* @rxEng_headerMetaFifo_23, i4* @rxEng_headerMetaFifo_22, i16* @rxEng_headerMetaFifo_18, i1* @rxEng_headerMetaFifo_10, i1* @rxEng_headerMetaFifo_19, i1* @rxEng_headerMetaFifo_21, i1* @rxEng_headerMetaFifo_16, i4* @rxEng_headerMetaFifo_14, i32 %meta_seqNumb_V_1, i32 %meta_ackNumb_V_1, i16 %meta_winSize_V_1, i4 undef, i16 %meta_length_V_1, i1 %p_Result_s, i1 %p_Result_64, i1 %p_Result_65, i1 %p_Result_66, i4 %meta_dataOffset_V_1) nounwind" [/home/paulrr2/Projects/ece527/babelsoc/fpga-network-stack/hls/toe/rx_engine/rx_engine.cpp:475]   --->   Operation 110 'write' <Predicate = (tmp & tmp_4 & !or_ln455 & pkgValid_loc_0_i) | (tmp & !firstWord_1_load & !or_ln455 & pkgValid_loc_0_i)> <Delay = 2.80> <Core = "FIFO">   --->   Core 32 'FIFO' <Latency = 0> <II = 1> <Delay = 3.63> <Storage> <Opcode : 'read' 'write' 'nbread' 'nbwrite'> <Ports = 0> <Width = 4> <Depth = 2> <FIFO>
ST_5 : Operation 111 [1/1] (0.00ns)   --->   "%tmp_V = call i16 @_ssdm_op_PartSelect.i16.i256.i32.i32(i256 %p_Val2_42, i32 112, i32 127) nounwind" [/home/paulrr2/Projects/ece527/babelsoc/fpga-network-stack/hls/toe/rx_engine/../toe_internals.hpp:572->/home/paulrr2/Projects/ece527/babelsoc/fpga-network-stack/hls/toe/rx_engine/rx_engine.cpp:476]   --->   Operation 111 'partselect' 'tmp_V' <Predicate = (tmp & tmp_4 & !or_ln455 & pkgValid_loc_0_i) | (tmp & !firstWord_1_load & !or_ln455 & pkgValid_loc_0_i)> <Delay = 0.00>
ST_5 : Operation 112 [1/1] (2.80ns)   --->   "call void @_ssdm_op_Write.ap_fifo.volatile.i16P(i16* @rxEng2portTable_chec_1, i16 %tmp_V) nounwind" [/home/paulrr2/Projects/ece527/babelsoc/fpga-network-stack/hls/toe/rx_engine/rx_engine.cpp:476]   --->   Operation 112 'write' <Predicate = (tmp & tmp_4 & !or_ln455 & pkgValid_loc_0_i) | (tmp & !firstWord_1_load & !or_ln455 & pkgValid_loc_0_i)> <Delay = 2.80> <Core = "FIFO">   --->   Core 32 'FIFO' <Latency = 0> <II = 1> <Delay = 3.63> <Storage> <Opcode : 'read' 'write' 'nbread' 'nbwrite'> <Ports = 0> <Width = 4> <Depth = 2> <FIFO>
ST_5 : Operation 113 [1/1] (0.00ns)   --->   "%tmp_s = call i32 @_ssdm_op_PartSelect.i32.i256.i32.i32(i256 %p_Val2_42, i32 96, i32 127)" [/home/paulrr2/Projects/ece527/babelsoc/fpga-network-stack/hls/toe/rx_engine/rx_engine.cpp:477]   --->   Operation 113 'partselect' 'tmp_s' <Predicate = (tmp & tmp_4 & !or_ln455 & pkgValid_loc_0_i) | (tmp & !firstWord_1_load & !or_ln455 & pkgValid_loc_0_i)> <Delay = 0.00>
ST_5 : Operation 114 [1/1] (0.00ns)   --->   "%trunc_ln176 = trunc i256 %p_Val2_42 to i64" [/home/paulrr2/Projects/ece527/babelsoc/fpga-network-stack/hls/toe/rx_engine/rx_engine.cpp:477]   --->   Operation 114 'trunc' 'trunc_ln176' <Predicate = (tmp & tmp_4 & !or_ln455 & pkgValid_loc_0_i) | (tmp & !firstWord_1_load & !or_ln455 & pkgValid_loc_0_i)> <Delay = 0.00>
ST_5 : Operation 115 [1/1] (0.00ns)   --->   "%tmp_2 = call i96 @_ssdm_op_BitConcatenate.i96.i32.i64(i32 %tmp_s, i64 %trunc_ln176)" [/home/paulrr2/Projects/ece527/babelsoc/fpga-network-stack/hls/toe/rx_engine/rx_engine.cpp:477]   --->   Operation 115 'bitconcatenate' 'tmp_2' <Predicate = (tmp & tmp_4 & !or_ln455 & pkgValid_loc_0_i) | (tmp & !firstWord_1_load & !or_ln455 & pkgValid_loc_0_i)> <Delay = 0.00>
ST_5 : Operation 116 [1/1] (2.80ns)   --->   "call void @_ssdm_op_Write.ap_fifo.volatile.i96P(i96* @rxEng_tupleBuffer_V, i96 %tmp_2) nounwind" [/home/paulrr2/Projects/ece527/babelsoc/fpga-network-stack/hls/toe/rx_engine/rx_engine.cpp:477]   --->   Operation 116 'write' <Predicate = (tmp & tmp_4 & !or_ln455 & pkgValid_loc_0_i) | (tmp & !firstWord_1_load & !or_ln455 & pkgValid_loc_0_i)> <Delay = 2.80> <Core = "FIFO">   --->   Core 32 'FIFO' <Latency = 0> <II = 1> <Delay = 3.63> <Storage> <Opcode : 'read' 'write' 'nbread' 'nbwrite'> <Ports = 0> <Width = 4> <Depth = 2> <FIFO>
ST_5 : Operation 117 [1/1] (2.42ns)   --->   "%icmp_ln478 = icmp ne i16 %agg_result_V_0_1_i_i, %zext_ln214_8" [/home/paulrr2/Projects/ece527/babelsoc/fpga-network-stack/hls/toe/rx_engine/rx_engine.cpp:478]   --->   Operation 117 'icmp' 'icmp_ln478' <Predicate = (tmp & tmp_4 & !or_ln455 & pkgValid_loc_0_i) | (tmp & !firstWord_1_load & !or_ln455 & pkgValid_loc_0_i)> <Delay = 2.42> <Core = "Cmp">   --->   Core 25 'Cmp' <Latency = 0> <II = 1> <Delay = 1.30> <FuncUnit> <Opcode : 'icmp'> <InPorts = 2> <OutPorts = 1>
ST_5 : Operation 118 [1/1] (1.30ns)   --->   "%icmp_ln895 = icmp ugt i4 %meta_dataOffset_V_1, 5" [/home/paulrr2/Projects/ece527/babelsoc/fpga-network-stack/hls/toe/rx_engine/rx_engine.cpp:478]   --->   Operation 118 'icmp' 'icmp_ln895' <Predicate = (tmp & tmp_4 & !or_ln455 & pkgValid_loc_0_i) | (tmp & !firstWord_1_load & !or_ln455 & pkgValid_loc_0_i)> <Delay = 1.30> <Core = "Cmp">   --->   Core 25 'Cmp' <Latency = 0> <II = 1> <Delay = 1.30> <FuncUnit> <Opcode : 'icmp'> <InPorts = 2> <OutPorts = 1>
ST_5 : Operation 119 [1/1] (0.97ns)   --->   "%or_ln478 = or i1 %icmp_ln478, %icmp_ln895" [/home/paulrr2/Projects/ece527/babelsoc/fpga-network-stack/hls/toe/rx_engine/rx_engine.cpp:478]   --->   Operation 119 'or' 'or_ln478' <Predicate = (tmp & tmp_4 & !or_ln455 & pkgValid_loc_0_i) | (tmp & !firstWord_1_load & !or_ln455 & pkgValid_loc_0_i)> <Delay = 0.97> <Core = "LogicGate">   --->   Core 27 'LogicGate' <Latency = 0> <II = 1> <Delay = 0.97> <FuncUnit> <Opcode : 'and' 'or' 'xor'> <InPorts = 2> <OutPorts = 1>
ST_5 : Operation 120 [1/1] (0.00ns)   --->   "br i1 %or_ln478, label %._crit_edge66.i, label %._crit_edge68.i" [/home/paulrr2/Projects/ece527/babelsoc/fpga-network-stack/hls/toe/rx_engine/rx_engine.cpp:478]   --->   Operation 120 'br' <Predicate = (tmp & tmp_4 & !or_ln455 & pkgValid_loc_0_i) | (tmp & !firstWord_1_load & !or_ln455 & pkgValid_loc_0_i)> <Delay = 0.00>

State 6 <SV = 5> <Delay = 4.53>
ST_6 : Operation 121 [1/1] (0.00ns)   --->   "call void (...)* @_ssdm_op_SpecInterface(i16* @rxEng2portTable_chec_1, [8 x i8]* @ap_fifo_str, i32 0, i32 0, [1 x i8]* @p_str, i32 0, i32 0, [1 x i8]* @p_str, [1 x i8]* @p_str, [1 x i8]* @p_str, i32 2, i32 2, i32 16, i32 16, [1 x i8]* @p_str, [1 x i8]* @p_str)"   --->   Operation 121 'specinterface' <Predicate = true> <Delay = 0.00>
ST_6 : Operation 122 [1/1] (0.00ns)   --->   "call void (...)* @_ssdm_op_SpecInterface(i1* @rxEng_checksumValidF_1, [8 x i8]* @ap_fifo_str, i32 0, i32 0, [1 x i8]* @p_str, i32 0, i32 0, [1 x i8]* @p_str, [1 x i8]* @p_str, [1 x i8]* @p_str, i32 2, i32 2, i32 16, i32 16, [1 x i8]* @p_str, [1 x i8]* @p_str)"   --->   Operation 122 'specinterface' <Predicate = true> <Delay = 0.00>
ST_6 : Operation 123 [1/1] (0.00ns)   --->   "call void (...)* @_ssdm_op_SpecInterface(i73* @rxEng_dataBuffer2_V, [8 x i8]* @ap_fifo_str, i32 0, i32 0, [1 x i8]* @p_str, i32 0, i32 0, [1 x i8]* @p_str, [1 x i8]* @p_str, [1 x i8]* @p_str, i32 2, i32 2, i32 16, i32 16, [1 x i8]* @p_str, [1 x i8]* @p_str)"   --->   Operation 123 'specinterface' <Predicate = true> <Delay = 0.00>
ST_6 : Operation 124 [1/1] (0.00ns)   --->   "call void (...)* @_ssdm_op_SpecInterface(i73* @rxEng_dataBuffer3a_V, [8 x i8]* @ap_fifo_str, i32 0, i32 0, [1 x i8]* @p_str, i32 0, i32 0, [1 x i8]* @p_str, [1 x i8]* @p_str, [1 x i8]* @p_str, i32 2, i32 2, i32 16, i32 16, [1 x i8]* @p_str, [1 x i8]* @p_str)"   --->   Operation 124 'specinterface' <Predicate = true> <Delay = 0.00>
ST_6 : Operation 125 [1/1] (0.00ns)   --->   "call void (...)* @_ssdm_op_SpecInterface(i1* @rxEng_headerMetaFifo_10, [8 x i8]* @ap_fifo_str, i32 0, i32 0, [1 x i8]* @p_str, i32 0, i32 0, [1 x i8]* @p_str, [1 x i8]* @p_str, [1 x i8]* @p_str, i32 2, i32 2, i32 16, i32 16, [1 x i8]* @p_str, [1 x i8]* @p_str)"   --->   Operation 125 'specinterface' <Predicate = true> <Delay = 0.00>
ST_6 : Operation 126 [1/1] (0.00ns)   --->   "call void (...)* @_ssdm_op_SpecInterface(i32* @rxEng_headerMetaFifo_12, [8 x i8]* @ap_fifo_str, i32 0, i32 0, [1 x i8]* @p_str, i32 0, i32 0, [1 x i8]* @p_str, [1 x i8]* @p_str, [1 x i8]* @p_str, i32 2, i32 2, i32 16, i32 16, [1 x i8]* @p_str, [1 x i8]* @p_str)"   --->   Operation 126 'specinterface' <Predicate = true> <Delay = 0.00>
ST_6 : Operation 127 [1/1] (0.00ns)   --->   "call void (...)* @_ssdm_op_SpecInterface(i4* @rxEng_headerMetaFifo_14, [8 x i8]* @ap_fifo_str, i32 0, i32 0, [1 x i8]* @p_str, i32 0, i32 0, [1 x i8]* @p_str, [1 x i8]* @p_str, [1 x i8]* @p_str, i32 2, i32 2, i32 16, i32 16, [1 x i8]* @p_str, [1 x i8]* @p_str)"   --->   Operation 127 'specinterface' <Predicate = true> <Delay = 0.00>
ST_6 : Operation 128 [1/1] (0.00ns)   --->   "call void (...)* @_ssdm_op_SpecInterface(i1* @rxEng_headerMetaFifo_16, [8 x i8]* @ap_fifo_str, i32 0, i32 0, [1 x i8]* @p_str, i32 0, i32 0, [1 x i8]* @p_str, [1 x i8]* @p_str, [1 x i8]* @p_str, i32 2, i32 2, i32 16, i32 16, [1 x i8]* @p_str, [1 x i8]* @p_str)"   --->   Operation 128 'specinterface' <Predicate = true> <Delay = 0.00>
ST_6 : Operation 129 [1/1] (0.00ns)   --->   "call void (...)* @_ssdm_op_SpecInterface(i16* @rxEng_headerMetaFifo_18, [8 x i8]* @ap_fifo_str, i32 0, i32 0, [1 x i8]* @p_str, i32 0, i32 0, [1 x i8]* @p_str, [1 x i8]* @p_str, [1 x i8]* @p_str, i32 2, i32 2, i32 16, i32 16, [1 x i8]* @p_str, [1 x i8]* @p_str)"   --->   Operation 129 'specinterface' <Predicate = true> <Delay = 0.00>
ST_6 : Operation 130 [1/1] (0.00ns)   --->   "call void (...)* @_ssdm_op_SpecInterface(i1* @rxEng_headerMetaFifo_19, [8 x i8]* @ap_fifo_str, i32 0, i32 0, [1 x i8]* @p_str, i32 0, i32 0, [1 x i8]* @p_str, [1 x i8]* @p_str, [1 x i8]* @p_str, i32 2, i32 2, i32 16, i32 16, [1 x i8]* @p_str, [1 x i8]* @p_str)"   --->   Operation 130 'specinterface' <Predicate = true> <Delay = 0.00>
ST_6 : Operation 131 [1/1] (0.00ns)   --->   "call void (...)* @_ssdm_op_SpecInterface(i32* @rxEng_headerMetaFifo_20, [8 x i8]* @ap_fifo_str, i32 0, i32 0, [1 x i8]* @p_str, i32 0, i32 0, [1 x i8]* @p_str, [1 x i8]* @p_str, [1 x i8]* @p_str, i32 2, i32 2, i32 16, i32 16, [1 x i8]* @p_str, [1 x i8]* @p_str)"   --->   Operation 131 'specinterface' <Predicate = true> <Delay = 0.00>
ST_6 : Operation 132 [1/1] (0.00ns)   --->   "call void (...)* @_ssdm_op_SpecInterface(i1* @rxEng_headerMetaFifo_21, [8 x i8]* @ap_fifo_str, i32 0, i32 0, [1 x i8]* @p_str, i32 0, i32 0, [1 x i8]* @p_str, [1 x i8]* @p_str, [1 x i8]* @p_str, i32 2, i32 2, i32 16, i32 16, [1 x i8]* @p_str, [1 x i8]* @p_str)"   --->   Operation 132 'specinterface' <Predicate = true> <Delay = 0.00>
ST_6 : Operation 133 [1/1] (0.00ns)   --->   "call void (...)* @_ssdm_op_SpecInterface(i4* @rxEng_headerMetaFifo_22, [8 x i8]* @ap_fifo_str, i32 0, i32 0, [1 x i8]* @p_str, i32 0, i32 0, [1 x i8]* @p_str, [1 x i8]* @p_str, [1 x i8]* @p_str, i32 2, i32 2, i32 16, i32 16, [1 x i8]* @p_str, [1 x i8]* @p_str)"   --->   Operation 133 'specinterface' <Predicate = true> <Delay = 0.00>
ST_6 : Operation 134 [1/1] (0.00ns)   --->   "call void (...)* @_ssdm_op_SpecInterface(i16* @rxEng_headerMetaFifo_23, [8 x i8]* @ap_fifo_str, i32 0, i32 0, [1 x i8]* @p_str, i32 0, i32 0, [1 x i8]* @p_str, [1 x i8]* @p_str, [1 x i8]* @p_str, i32 2, i32 2, i32 16, i32 16, [1 x i8]* @p_str, [1 x i8]* @p_str)"   --->   Operation 134 'specinterface' <Predicate = true> <Delay = 0.00>
ST_6 : Operation 135 [1/1] (0.00ns)   --->   "call void (...)* @_ssdm_op_SpecInterface(i4* @rxEng_optionalFields_4, [8 x i8]* @ap_fifo_str, i32 0, i32 0, [1 x i8]* @p_str, i32 0, i32 0, [1 x i8]* @p_str, [1 x i8]* @p_str, [1 x i8]* @p_str, i32 2, i32 2, i32 16, i32 16, [1 x i8]* @p_str, [1 x i8]* @p_str)"   --->   Operation 135 'specinterface' <Predicate = true> <Delay = 0.00>
ST_6 : Operation 136 [1/1] (0.00ns)   --->   "call void (...)* @_ssdm_op_SpecInterface(i1* @rxEng_optionalFields_5, [8 x i8]* @ap_fifo_str, i32 0, i32 0, [1 x i8]* @p_str, i32 0, i32 0, [1 x i8]* @p_str, [1 x i8]* @p_str, [1 x i8]* @p_str, i32 2, i32 2, i32 16, i32 16, [1 x i8]* @p_str, [1 x i8]* @p_str)"   --->   Operation 136 'specinterface' <Predicate = true> <Delay = 0.00>
ST_6 : Operation 137 [1/1] (0.00ns)   --->   "call void (...)* @_ssdm_op_SpecInterface(i96* @rxEng_tupleBuffer_V, [8 x i8]* @ap_fifo_str, i32 0, i32 0, [1 x i8]* @p_str, i32 0, i32 0, [1 x i8]* @p_str, [1 x i8]* @p_str, [1 x i8]* @p_str, i32 2, i32 2, i32 16, i32 16, [1 x i8]* @p_str, [1 x i8]* @p_str)"   --->   Operation 137 'specinterface' <Predicate = true> <Delay = 0.00>
ST_6 : Operation 138 [1/1] (0.00ns)   --->   "call void (...)* @_ssdm_op_SpecPipeline(i32 1, i32 1, i32 1, i32 0, [1 x i8]* @p_str566) nounwind" [/home/paulrr2/Projects/ece527/babelsoc/fpga-network-stack/hls/toe/rx_engine/rx_engine.cpp:429]   --->   Operation 138 'specpipeline' <Predicate = true> <Delay = 0.00>
ST_6 : Operation 139 [1/1] (0.00ns)   --->   "br label %._crit_edge61.i" [/home/paulrr2/Projects/ece527/babelsoc/fpga-network-stack/hls/toe/rx_engine/rx_engine.cpp:453]   --->   Operation 139 'br' <Predicate = (tmp & tmp_4 & and_ln450) | (tmp & !firstWord_1_load & and_ln450)> <Delay = 0.00>
ST_6 : Operation 140 [1/1] (1.73ns)   --->   "%tmp_dataOffset_V_1 = add i4 %meta_dataOffset_V_1, -5" [/home/paulrr2/Projects/ece527/babelsoc/fpga-network-stack/hls/toe/rx_engine/rx_engine.cpp:480]   --->   Operation 140 'add' 'tmp_dataOffset_V_1' <Predicate = (tmp & tmp_4 & !or_ln455 & pkgValid_loc_0_i & or_ln478) | (tmp & !firstWord_1_load & !or_ln455 & pkgValid_loc_0_i & or_ln478)> <Delay = 1.73> <Core = "AddSub">   --->   Core 14 'AddSub' <Latency = 0> <II = 1> <Delay = 1.73> <FuncUnit> <Opcode : 'add' 'sub'> <InPorts = 2> <OutPorts = 1>
ST_6 : Operation 141 [1/1] (2.80ns)   --->   "call void @_ssdm_op_Write.ap_fifo.volatile.i4P.i1P(i4* @rxEng_optionalFields_4, i1* @rxEng_optionalFields_5, i4 %tmp_dataOffset_V_1, i1 %p_Result_65) nounwind" [/home/paulrr2/Projects/ece527/babelsoc/fpga-network-stack/hls/toe/rx_engine/rx_engine.cpp:480]   --->   Operation 141 'write' <Predicate = (tmp & tmp_4 & !or_ln455 & pkgValid_loc_0_i & or_ln478) | (tmp & !firstWord_1_load & !or_ln455 & pkgValid_loc_0_i & or_ln478)> <Delay = 2.80> <Core = "FIFO">   --->   Core 32 'FIFO' <Latency = 0> <II = 1> <Delay = 3.63> <Storage> <Opcode : 'read' 'write' 'nbread' 'nbwrite'> <Ports = 0> <Width = 4> <Depth = 2> <FIFO>
ST_6 : Operation 142 [1/1] (0.00ns)   --->   "br label %._crit_edge68.i" [/home/paulrr2/Projects/ece527/babelsoc/fpga-network-stack/hls/toe/rx_engine/rx_engine.cpp:481]   --->   Operation 142 'br' <Predicate = (tmp & tmp_4 & !or_ln455 & pkgValid_loc_0_i & or_ln478) | (tmp & !firstWord_1_load & !or_ln455 & pkgValid_loc_0_i & or_ln478)> <Delay = 0.00>
ST_6 : Operation 143 [1/1] (0.00ns)   --->   "br label %._crit_edge65.i" [/home/paulrr2/Projects/ece527/babelsoc/fpga-network-stack/hls/toe/rx_engine/rx_engine.cpp:482]   --->   Operation 143 'br' <Predicate = (tmp & tmp_4 & !or_ln455 & pkgValid_loc_0_i) | (tmp & !firstWord_1_load & !or_ln455 & pkgValid_loc_0_i)> <Delay = 0.00>
ST_6 : Operation 144 [1/1] (0.00ns)   --->   "br label %._crit_edge69.new173.i"   --->   Operation 144 'br' <Predicate = (tmp & tmp_4 & or_ln492_1) | (tmp & !firstWord_1_load & or_ln492_1)> <Delay = 0.00>
ST_6 : Operation 145 [1/1] (0.00ns)   --->   "br label %._crit_edge69.new.i"   --->   Operation 145 'br' <Predicate = (tmp & tmp_4 & or_ln492) | (tmp & !firstWord_1_load & or_ln492)> <Delay = 0.00>
ST_6 : Operation 146 [1/1] (0.00ns)   --->   "br label %"processPseudoHeader<64>.exit"" [/home/paulrr2/Projects/ece527/babelsoc/fpga-network-stack/hls/toe/rx_engine/rx_engine.cpp:498]   --->   Operation 146 'br' <Predicate = (tmp & tmp_4) | (tmp & !firstWord_1_load)> <Delay = 0.00>
ST_6 : Operation 147 [1/1] (0.00ns)   --->   "ret void"   --->   Operation 147 'ret' <Predicate = true> <Delay = 0.00>


============================================================
+ Verbose Summary: Timing violations
============================================================
Target clock period: 6.4ns, clock uncertainty: 0.8ns.

 <State 1>: 5.55ns
The critical path consists of the following:
	'load' operation ('packetHeader<64, 256>.idx', /home/paulrr2/Projects/ece527/babelsoc/fpga-network-stack/hls/toe/rx_engine/rx_engine.cpp:443) on static variable 'header_idx_6' [61]  (0 ns)
	'add' operation ('add_ln58', /home/paulrr2/Projects/ece527/babelsoc/fpga-network-stack/hls/toe/rx_engine/../../packet.hpp:58->/home/paulrr2/Projects/ece527/babelsoc/fpga-network-stack/hls/toe/rx_engine/rx_engine.cpp:443) [68]  (2.26 ns)
	'icmp' operation ('icmp_ln58', /home/paulrr2/Projects/ece527/babelsoc/fpga-network-stack/hls/toe/rx_engine/../../packet.hpp:58->/home/paulrr2/Projects/ece527/babelsoc/fpga-network-stack/hls/toe/rx_engine/rx_engine.cpp:443) [70]  (2.32 ns)
	'xor' operation ('xor_ln58', /home/paulrr2/Projects/ece527/babelsoc/fpga-network-stack/hls/toe/rx_engine/../../packet.hpp:58->/home/paulrr2/Projects/ece527/babelsoc/fpga-network-stack/hls/toe/rx_engine/rx_engine.cpp:443) [96]  (0.978 ns)

 <State 2>: 5.49ns
The critical path consists of the following:
	multiplexor before 'phi' operation ('write_flag_1_i_i', /home/paulrr2/Projects/ece527/babelsoc/fpga-network-stack/hls/toe/rx_engine/../../packet.hpp:58->/home/paulrr2/Projects/ece527/babelsoc/fpga-network-stack/hls/toe/rx_engine/rx_engine.cpp:443) with incoming values : ('xor_ln58', /home/paulrr2/Projects/ece527/babelsoc/fpga-network-stack/hls/toe/rx_engine/../../packet.hpp:58->/home/paulrr2/Projects/ece527/babelsoc/fpga-network-stack/hls/toe/rx_engine/rx_engine.cpp:443) [102]  (1.77 ns)
	'phi' operation ('write_flag_1_i_i', /home/paulrr2/Projects/ece527/babelsoc/fpga-network-stack/hls/toe/rx_engine/../../packet.hpp:58->/home/paulrr2/Projects/ece527/babelsoc/fpga-network-stack/hls/toe/rx_engine/rx_engine.cpp:443) with incoming values : ('xor_ln58', /home/paulrr2/Projects/ece527/babelsoc/fpga-network-stack/hls/toe/rx_engine/../../packet.hpp:58->/home/paulrr2/Projects/ece527/babelsoc/fpga-network-stack/hls/toe/rx_engine/rx_engine.cpp:443) [102]  (0 ns)
	'or' operation ('packetHeader<64, 256>.ready', /home/paulrr2/Projects/ece527/babelsoc/fpga-network-stack/hls/toe/rx_engine/../../packet.hpp:73->/home/paulrr2/Projects/ece527/babelsoc/fpga-network-stack/hls/toe/rx_engine/rx_engine.cpp:443) [103]  (0.978 ns)
	'xor' operation ('xor_ln455', /home/paulrr2/Projects/ece527/babelsoc/fpga-network-stack/hls/toe/rx_engine/rx_engine.cpp:455) [120]  (0 ns)
	'or' operation ('or_ln455', /home/paulrr2/Projects/ece527/babelsoc/fpga-network-stack/hls/toe/rx_engine/rx_engine.cpp:455) [121]  (0.978 ns)
	multiplexor before 'phi' operation ('metaWritten_1_flag_1') [171]  (1.77 ns)

 <State 3>: 4.59ns
The critical path consists of the following:
	'shl' operation ('shl_ln58', /home/paulrr2/Projects/ece527/babelsoc/fpga-network-stack/hls/toe/rx_engine/../../packet.hpp:58->/home/paulrr2/Projects/ece527/babelsoc/fpga-network-stack/hls/toe/rx_engine/rx_engine.cpp:443) [86]  (4.59 ns)

 <State 4>: 4.81ns
The critical path consists of the following:
	'select' operation ('select_ln58_6', /home/paulrr2/Projects/ece527/babelsoc/fpga-network-stack/hls/toe/rx_engine/../../packet.hpp:58->/home/paulrr2/Projects/ece527/babelsoc/fpga-network-stack/hls/toe/rx_engine/rx_engine.cpp:443) [80]  (0 ns)
	'shl' operation ('shl_ln58_2', /home/paulrr2/Projects/ece527/babelsoc/fpga-network-stack/hls/toe/rx_engine/../../packet.hpp:58->/home/paulrr2/Projects/ece527/babelsoc/fpga-network-stack/hls/toe/rx_engine/rx_engine.cpp:443) [89]  (0 ns)
	'and' operation ('and_ln58', /home/paulrr2/Projects/ece527/babelsoc/fpga-network-stack/hls/toe/rx_engine/../../packet.hpp:58->/home/paulrr2/Projects/ece527/babelsoc/fpga-network-stack/hls/toe/rx_engine/rx_engine.cpp:443) [91]  (3.25 ns)
	'and' operation ('and_ln58_4', /home/paulrr2/Projects/ece527/babelsoc/fpga-network-stack/hls/toe/rx_engine/../../packet.hpp:58->/home/paulrr2/Projects/ece527/babelsoc/fpga-network-stack/hls/toe/rx_engine/rx_engine.cpp:443) [94]  (0 ns)
	'or' operation ('or_ln58', /home/paulrr2/Projects/ece527/babelsoc/fpga-network-stack/hls/toe/rx_engine/../../packet.hpp:58->/home/paulrr2/Projects/ece527/babelsoc/fpga-network-stack/hls/toe/rx_engine/rx_engine.cpp:443) [95]  (1.55 ns)

 <State 5>: 4.88ns
The critical path consists of the following:
	'load' operation ('__Val2__', /home/paulrr2/Projects/ece527/babelsoc/fpga-network-stack/hls/toe/rx_engine/../toe_internals.hpp:580->/home/paulrr2/Projects/ece527/babelsoc/fpga-network-stack/hls/toe/rx_engine/rx_engine.cpp:464) on static variable 'header_header_V_5' [124]  (0 ns)
	'sub' operation ('meta.length.V', /home/paulrr2/Projects/ece527/babelsoc/fpga-network-stack/hls/toe/rx_engine/rx_engine.cpp:467) [144]  (2.08 ns)
	fifo write on port 'rxEng_headerMetaFifo_20' (/home/paulrr2/Projects/ece527/babelsoc/fpga-network-stack/hls/toe/rx_engine/rx_engine.cpp:475) [151]  (2.8 ns)

 <State 6>: 4.53ns
The critical path consists of the following:
	'add' operation ('tmp.dataOffset.V', /home/paulrr2/Projects/ece527/babelsoc/fpga-network-stack/hls/toe/rx_engine/rx_engine.cpp:480) [163]  (1.74 ns)
	fifo write on port 'rxEng_optionalFields_4' (/home/paulrr2/Projects/ece527/babelsoc/fpga-network-stack/hls/toe/rx_engine/rx_engine.cpp:480) [164]  (2.8 ns)


============================================================
+ Verbose Summary: Binding
============================================================
N/A
* FSMD analyzer results:
  - Output states:
 - Input state : 
  - Chain level:
	State 1
	State 2
	State 3
	State 4
	State 5
	State 6


============================================================
+ Verbose Summary: Datapath Resource usage 
============================================================
N/A
