

================================================================
== Vivado HLS Report for 'rshiftWordByOctet'
================================================================
* Date:           Sat Dec 12 19:35:12 2020

* Version:        2019.2.1 (Build 2724168 on Thu Dec 05 05:19:09 MST 2019)
* Project:        toe_prj
* Solution:       solution1
* Product family: zynq
* Target device:  xc7z020-clg400-1


================================================================
== Performance Estimates
================================================================
+ Timing: 
    * Summary: 
    +--------+---------+----------+------------+
    |  Clock |  Target | Estimated| Uncertainty|
    +--------+---------+----------+------------+
    |ap_clk  | 6.40 ns | 5.871 ns |   0.80 ns  |
    +--------+---------+----------+------------+

+ Latency: 
    * Summary: 
    +---------+---------+----------+----------+-----+-----+----------+
    |  Latency (cycles) |  Latency (absolute) |  Interval | Pipeline |
    |   min   |   max   |    min   |    max   | min | max |   Type   |
    +---------+---------+----------+----------+-----+-----+----------+
    |        1|        1| 6.400 ns | 6.400 ns |    1|    1| function |
    +---------+---------+----------+----------+-----+-----+----------+

    + Detail: 
        * Instance: 
        N/A

        * Loop: 
        N/A



================================================================
== Utilization Estimates
================================================================
* Summary: 
+-----------------+---------+-------+--------+-------+-----+
|       Name      | BRAM_18K| DSP48E|   FF   |  LUT  | URAM|
+-----------------+---------+-------+--------+-------+-----+
|DSP              |        -|      -|       -|      -|    -|
|Expression       |        -|      -|       0|     33|    -|
|FIFO             |        -|      -|       -|      -|    -|
|Instance         |        -|      -|       -|      -|    -|
|Memory           |        -|      -|       -|      -|    -|
|Multiplexer      |        -|      -|       -|     81|    -|
|Register         |        -|      -|     190|      -|    -|
+-----------------+---------+-------+--------+-------+-----+
|Total            |        0|      0|     190|    114|    0|
+-----------------+---------+-------+--------+-------+-----+
|Available        |      280|    220|  106400|  53200|    0|
+-----------------+---------+-------+--------+-------+-----+
|Utilization (%)  |        0|      0|   ~0   |   ~0  |    0|
+-----------------+---------+-------+--------+-------+-----+

+ Detail: 
    * Instance: 
    N/A

    * DSP48E: 
    N/A

    * Memory: 
    N/A

    * FIFO: 
    N/A

    * Expression: 
    +----------------------------------+----------+-------+---+----+------------+------------+
    |           Variable Name          | Operation| DSP48E| FF| LUT| Bitwidth P0| Bitwidth P1|
    +----------------------------------+----------+-------+---+----+------------+------------+
    |ap_condition_139                  |    and   |      0|  0|   2|           1|           1|
    |ap_condition_143                  |    and   |      0|  0|   2|           1|           1|
    |ap_condition_146                  |    and   |      0|  0|   2|           1|           1|
    |ap_condition_166                  |    and   |      0|  0|   2|           1|           1|
    |ap_condition_81                   |    and   |      0|  0|   2|           1|           1|
    |ap_predicate_op32_write_state2    |    and   |      0|  0|   2|           1|           1|
    |ap_predicate_op7_read_state1      |    and   |      0|  0|   2|           1|           1|
    |tmp_nbreadreq_fu_76_p3            |    and   |      0|  0|   2|           1|           0|
    |tmp_last_V_fu_193_p2              |   icmp   |      0|  0|   9|           4|           1|
    |ap_block_pp0_stage0_01001         |    or    |      0|  0|   2|           1|           1|
    |ap_block_state1_pp0_stage0_iter0  |    or    |      0|  0|   2|           1|           1|
    |ap_block_state2_pp0_stage0_iter1  |    or    |      0|  0|   2|           1|           1|
    |ap_enable_pp0                     |    xor   |      0|  0|   2|           1|           2|
    +----------------------------------+----------+-------+---+----+------------+------------+
    |Total                             |          |      0|  0|  33|          16|          13|
    +----------------------------------+----------+-------+---+----+------------+------------+

    * Multiplexer: 
    +---------------------------------------------------+----+-----------+-----+-----------+
    |                        Name                       | LUT| Input Size| Bits| Total Bits|
    +---------------------------------------------------+----+-----------+-----+-----------+
    |ap_done                                            |   9|          2|    1|          2|
    |ap_phi_mux_p_0256_2_0_i_phi_fu_100_p4              |  15|          3|    1|          3|
    |ap_phi_reg_pp0_iter1_rs_firstWord_new_0_i_reg_108  |  15|          3|    1|          3|
    |ap_sig_allocacmp_rs_firstWord_load                 |   9|          2|    1|          2|
    |txEng_tcpPkgBuffer3_s_6_blk_n                      |   9|          2|    1|          2|
    |txEng_tcpPkgBuffer4_s_5_blk_n                      |   9|          2|    1|          2|
    |txEng_tcpPkgBuffer4_s_5_din                        |  15|          3|   73|        219|
    +---------------------------------------------------+----+-----------+-----+-----------+
    |Total                                              |  81|         17|   79|        233|
    +---------------------------------------------------+----+-----------+-----+-----------+

    * Register: 
    +---------------------------------------------------+----+----+-----+-----------+
    |                        Name                       | FF | LUT| Bits| Const Bits|
    +---------------------------------------------------+----+----+-----+-----------+
    |ap_CS_fsm                                          |   1|   0|    1|          0|
    |ap_done_reg                                        |   1|   0|    1|          0|
    |ap_enable_reg_pp0_iter1                            |   1|   0|    1|          0|
    |ap_phi_reg_pp0_iter1_rs_firstWord_new_0_i_reg_108  |   1|   0|    1|          0|
    |fsmState                                           |   1|   0|    1|          0|
    |fsmState_load_reg_263                              |   1|   0|    1|          0|
    |p_Result_21_i_reg_294                              |   4|   0|    4|          0|
    |p_Val2_20_reg_271                                  |  64|   0|   64|          0|
    |p_Val2_2_reg_276                                   |   8|   0|    8|          0|
    |prevWord_data_V_8                                  |  64|   0|   64|          0|
    |prevWord_keep_V_7                                  |   8|   0|    8|          0|
    |rs_firstWord                                       |   1|   0|    1|          0|
    |rs_firstWord_load_reg_285                          |   1|   0|    1|          0|
    |tmp_last_V_reg_299                                 |   1|   0|    1|          0|
    |tmp_reg_267                                        |   1|   0|    1|          0|
    |trunc_ln647_reg_289                                |  32|   0|   32|          0|
    +---------------------------------------------------+----+----+-----+-----------+
    |Total                                              | 190|   0|  190|          0|
    +---------------------------------------------------+----+----+-----+-----------+



================================================================
== Interface
================================================================
* Summary: 
+---------------------------------+-----+-----+------------+-------------------------+--------------+
|            RTL Ports            | Dir | Bits|  Protocol  |      Source Object      |    C Type    |
+---------------------------------+-----+-----+------------+-------------------------+--------------+
|ap_clk                           |  in |    1| ap_ctrl_hs |    rshiftWordByOctet    | return value |
|ap_rst                           |  in |    1| ap_ctrl_hs |    rshiftWordByOctet    | return value |
|ap_start                         |  in |    1| ap_ctrl_hs |    rshiftWordByOctet    | return value |
|ap_done                          | out |    1| ap_ctrl_hs |    rshiftWordByOctet    | return value |
|ap_continue                      |  in |    1| ap_ctrl_hs |    rshiftWordByOctet    | return value |
|ap_idle                          | out |    1| ap_ctrl_hs |    rshiftWordByOctet    | return value |
|ap_ready                         | out |    1| ap_ctrl_hs |    rshiftWordByOctet    | return value |
|txEng_tcpPkgBuffer3_s_6_dout     |  in |   73|   ap_fifo  | txEng_tcpPkgBuffer3_s_6 |    pointer   |
|txEng_tcpPkgBuffer3_s_6_empty_n  |  in |    1|   ap_fifo  | txEng_tcpPkgBuffer3_s_6 |    pointer   |
|txEng_tcpPkgBuffer3_s_6_read     | out |    1|   ap_fifo  | txEng_tcpPkgBuffer3_s_6 |    pointer   |
|txEng_tcpPkgBuffer4_s_5_din      | out |   73|   ap_fifo  | txEng_tcpPkgBuffer4_s_5 |    pointer   |
|txEng_tcpPkgBuffer4_s_5_full_n   |  in |    1|   ap_fifo  | txEng_tcpPkgBuffer4_s_5 |    pointer   |
|txEng_tcpPkgBuffer4_s_5_write    | out |    1|   ap_fifo  | txEng_tcpPkgBuffer4_s_5 |    pointer   |
+---------------------------------+-----+-----+------------+-------------------------+--------------+

============================================================
+ Verbose Summary: Synthesis Manager
============================================================
InlineROM: 1
ExposeGlobal: 0
============================================================
+ Verbose Summary: CDFG Model
============================================================
IsTopModel: 0
ResetActiveHigh: 1
IsCombinational: 2
IsDatapathOnly: 0
HasWiredReturn: 1
HasMFsm: 2
HasVarLatency: 0
IsPipeline: 1
IsRtlPipelined: 1
IsInstanceOverlapped: 0
IsDontTouch: 0
HasImplIP: 0
IsGatedGlobalClock: 0

+ Individual pipeline summary: 
  * Pipeline-0: initiation interval (II) = 1, depth = 2


============================================================
+ Verbose Summary: Schedule
============================================================
* Number of FSM states : 2
* Pipeline : 1
  Pipeline-0 : II = 1, D = 2, States = { 1 2 }
* Dataflow Pipeline: 0

* FSM state transitions: 
1 --> 2 
2 --> 

* FSM state operations: 

State 1 <SV = 0> <Delay = 5.87>
ST_1 : Operation 3 [1/1] (0.00ns)   --->   "%fsmState_load = load i1* @fsmState, align 1" [/home/paulrr2/Projects/ece527/babelsoc/fpga-network-stack/hls/toe/tx_engine/../../axi_utils.hpp:447]   --->   Operation 3 'load' 'fsmState_load' <Predicate = true> <Delay = 0.00>
ST_1 : Operation 4 [1/1] (0.00ns)   --->   "br i1 %fsmState_load, label %5, label %0" [/home/paulrr2/Projects/ece527/babelsoc/fpga-network-stack/hls/toe/tx_engine/../../axi_utils.hpp:447]   --->   Operation 4 'br' <Predicate = true> <Delay = 0.00>
ST_1 : Operation 5 [1/1] (0.00ns)   --->   "%tmp = call i1 @_ssdm_op_NbReadReq.ap_fifo.i73P(i73* @txEng_tcpPkgBuffer3_s_6, i32 1) nounwind" [/home/paulrr2/Projects/ece527/babelsoc/fpga-network-stack/hls/toe/tx_engine/../../axi_utils.hpp:450]   --->   Operation 5 'nbreadreq' 'tmp' <Predicate = (!fsmState_load)> <Delay = 0.00> <Core = "FIFO">   --->   Core 32 'FIFO' <Latency = 0> <II = 1> <Delay = 3.54> <Storage> <Opcode : 'read' 'write' 'nbread' 'nbwrite'> <Ports = 0> <Width = 16> <Depth = 8> <FIFO>
ST_1 : Operation 6 [1/1] (0.00ns)   --->   "br i1 %tmp, label %1, label %._crit_edge64.i" [/home/paulrr2/Projects/ece527/babelsoc/fpga-network-stack/hls/toe/tx_engine/../../axi_utils.hpp:450]   --->   Operation 6 'br' <Predicate = (!fsmState_load)> <Delay = 0.00>
ST_1 : Operation 7 [1/1] (2.80ns)   --->   "%tmp45 = call i73 @_ssdm_op_Read.ap_fifo.volatile.i73P(i73* @txEng_tcpPkgBuffer3_s_6) nounwind" [/home/paulrr2/Projects/ece527/babelsoc/fpga-network-stack/hls/toe/tx_engine/../../axi_utils.hpp:452]   --->   Operation 7 'read' 'tmp45' <Predicate = (!fsmState_load & tmp)> <Delay = 2.80> <Core = "FIFO">   --->   Core 32 'FIFO' <Latency = 0> <II = 1> <Delay = 3.54> <Storage> <Opcode : 'read' 'write' 'nbread' 'nbwrite'> <Ports = 0> <Width = 16> <Depth = 8> <FIFO>
ST_1 : Operation 8 [1/1] (0.00ns)   --->   "%p_Val2_20 = trunc i73 %tmp45 to i64" [/home/paulrr2/Projects/ece527/babelsoc/fpga-network-stack/hls/toe/tx_engine/../../axi_utils.hpp:50->/home/paulrr2/Projects/ece527/babelsoc/fpga-network-stack/hls/toe/tx_engine/../../axi_utils.hpp:452]   --->   Operation 8 'trunc' 'p_Val2_20' <Predicate = (!fsmState_load & tmp)> <Delay = 0.00>
ST_1 : Operation 9 [1/1] (0.00ns)   --->   "%p_Val2_2 = call i8 @_ssdm_op_PartSelect.i8.i73.i32.i32(i73 %tmp45, i32 64, i32 71) nounwind" [/home/paulrr2/Projects/ece527/babelsoc/fpga-network-stack/hls/toe/tx_engine/../../axi_utils.hpp:50->/home/paulrr2/Projects/ece527/babelsoc/fpga-network-stack/hls/toe/tx_engine/../../axi_utils.hpp:452]   --->   Operation 9 'partselect' 'p_Val2_2' <Predicate = (!fsmState_load & tmp)> <Delay = 0.00>
ST_1 : Operation 10 [1/1] (0.00ns)   --->   "%tmp_143 = call i1 @_ssdm_op_BitSelect.i1.i73.i32(i73 %tmp45, i32 72)" [/home/paulrr2/Projects/ece527/babelsoc/fpga-network-stack/hls/toe/tx_engine/../../axi_utils.hpp:50->/home/paulrr2/Projects/ece527/babelsoc/fpga-network-stack/hls/toe/tx_engine/../../axi_utils.hpp:452]   --->   Operation 10 'bitselect' 'tmp_143' <Predicate = (!fsmState_load & tmp)> <Delay = 0.00>
ST_1 : Operation 11 [1/1] (0.00ns)   --->   "%rs_firstWord_load = load i1* @rs_firstWord, align 1" [/home/paulrr2/Projects/ece527/babelsoc/fpga-network-stack/hls/toe/tx_engine/../../axi_utils.hpp:454]   --->   Operation 11 'load' 'rs_firstWord_load' <Predicate = (!fsmState_load & tmp)> <Delay = 0.00>
ST_1 : Operation 12 [1/1] (1.76ns)   --->   "br i1 %rs_firstWord_load, label %._crit_edge65.i, label %2" [/home/paulrr2/Projects/ece527/babelsoc/fpga-network-stack/hls/toe/tx_engine/../../axi_utils.hpp:454]   --->   Operation 12 'br' <Predicate = (!fsmState_load & tmp)> <Delay = 1.76>
ST_1 : Operation 13 [1/1] (0.00ns)   --->   "%trunc_ln647 = trunc i73 %tmp45 to i32" [/home/paulrr2/Projects/ece527/babelsoc/fpga-network-stack/hls/toe/tx_engine/../../axi_utils.hpp:463]   --->   Operation 13 'trunc' 'trunc_ln647' <Predicate = (!fsmState_load & tmp & !rs_firstWord_load)> <Delay = 0.00>
ST_1 : Operation 14 [1/1] (0.00ns)   --->   "%p_Result_21_i = call i4 @_ssdm_op_PartSelect.i4.i73.i32.i32(i73 %tmp45, i32 64, i32 67) nounwind" [/home/paulrr2/Projects/ece527/babelsoc/fpga-network-stack/hls/toe/tx_engine/../../axi_utils.hpp:466]   --->   Operation 14 'partselect' 'p_Result_21_i' <Predicate = (!fsmState_load & tmp & !rs_firstWord_load)> <Delay = 0.00>
ST_1 : Operation 15 [1/1] (0.00ns)   --->   "%p_Result_22_i = call i4 @_ssdm_op_PartSelect.i4.i73.i32.i32(i73 %tmp45, i32 68, i32 71) nounwind" [/home/paulrr2/Projects/ece527/babelsoc/fpga-network-stack/hls/toe/tx_engine/../../axi_utils.hpp:468]   --->   Operation 15 'partselect' 'p_Result_22_i' <Predicate = (!fsmState_load & tmp & !rs_firstWord_load)> <Delay = 0.00>
ST_1 : Operation 16 [1/1] (1.30ns)   --->   "%tmp_last_V = icmp eq i4 %p_Result_22_i, 0" [/home/paulrr2/Projects/ece527/babelsoc/fpga-network-stack/hls/toe/tx_engine/../../axi_utils.hpp:468]   --->   Operation 16 'icmp' 'tmp_last_V' <Predicate = (!fsmState_load & tmp & !rs_firstWord_load)> <Delay = 1.30> <Core = "Cmp">   --->   Core 25 'Cmp' <Latency = 0> <II = 1> <Delay = 1.30> <FuncUnit> <Opcode : 'icmp'> <InPorts = 2> <OutPorts = 1>
ST_1 : Operation 17 [1/1] (1.76ns)   --->   "br label %._crit_edge65.i" [/home/paulrr2/Projects/ece527/babelsoc/fpga-network-stack/hls/toe/tx_engine/../../axi_utils.hpp:473]   --->   Operation 17 'br' <Predicate = (!fsmState_load & tmp & !rs_firstWord_load)> <Delay = 1.76>
ST_1 : Operation 18 [1/1] (0.00ns)   --->   "%p_0256_2_0_i = phi i1 [ %tmp_last_V, %2 ], [ false, %1 ]"   --->   Operation 18 'phi' 'p_0256_2_0_i' <Predicate = (!fsmState_load & tmp)> <Delay = 0.00>
ST_1 : Operation 19 [1/1] (1.76ns)   --->   "br i1 %tmp_143, label %3, label %mergeST.i" [/home/paulrr2/Projects/ece527/babelsoc/fpga-network-stack/hls/toe/tx_engine/../../axi_utils.hpp:477]   --->   Operation 19 'br' <Predicate = (!fsmState_load & tmp)> <Delay = 1.76>
ST_1 : Operation 20 [1/1] (0.00ns)   --->   "br i1 %p_0256_2_0_i, label %._crit_edge67.i, label %4" [/home/paulrr2/Projects/ece527/babelsoc/fpga-network-stack/hls/toe/tx_engine/../../axi_utils.hpp:481]   --->   Operation 20 'br' <Predicate = (!fsmState_load & tmp & tmp_143)> <Delay = 0.00>
ST_1 : Operation 21 [1/1] (1.76ns)   --->   "store i1 true, i1* @fsmState, align 1" [/home/paulrr2/Projects/ece527/babelsoc/fpga-network-stack/hls/toe/tx_engine/../../axi_utils.hpp:483]   --->   Operation 21 'store' <Predicate = (!fsmState_load & tmp & tmp_143 & !p_0256_2_0_i)> <Delay = 1.76>
ST_1 : Operation 22 [1/1] (1.76ns)   --->   "br label %mergeST.i" [/home/paulrr2/Projects/ece527/babelsoc/fpga-network-stack/hls/toe/tx_engine/../../axi_utils.hpp:485]   --->   Operation 22 'br' <Predicate = (!fsmState_load & tmp & tmp_143)> <Delay = 1.76>
ST_1 : Operation 23 [1/1] (1.76ns)   --->   "store i1 false, i1* @fsmState, align 1" [/home/paulrr2/Projects/ece527/babelsoc/fpga-network-stack/hls/toe/tx_engine/../../axi_utils.hpp:499]   --->   Operation 23 'store' <Predicate = (fsmState_load)> <Delay = 1.76>

State 2 <SV = 1> <Delay = 2.80>
ST_2 : Operation 24 [1/1] (0.00ns)   --->   "call void (...)* @_ssdm_op_SpecInterface(i73* @txEng_tcpPkgBuffer3_s_6, [8 x i8]* @ap_fifo_str, i32 0, i32 0, [1 x i8]* @p_str, i32 0, i32 0, [1 x i8]* @p_str, [1 x i8]* @p_str, [1 x i8]* @p_str, i32 2, i32 2, i32 16, i32 16, [1 x i8]* @p_str, [1 x i8]* @p_str)"   --->   Operation 24 'specinterface' <Predicate = true> <Delay = 0.00>
ST_2 : Operation 25 [1/1] (0.00ns)   --->   "call void (...)* @_ssdm_op_SpecInterface(i73* @txEng_tcpPkgBuffer4_s_5, [8 x i8]* @ap_fifo_str, i32 0, i32 0, [1 x i8]* @p_str, i32 0, i32 0, [1 x i8]* @p_str, [1 x i8]* @p_str, [1 x i8]* @p_str, i32 2, i32 2, i32 16, i32 16, [1 x i8]* @p_str, [1 x i8]* @p_str)"   --->   Operation 25 'specinterface' <Predicate = true> <Delay = 0.00>
ST_2 : Operation 26 [1/1] (0.00ns)   --->   "call void (...)* @_ssdm_op_SpecPipeline(i32 1, i32 1, i32 1, i32 0, [1 x i8]* @p_str214) nounwind" [/home/paulrr2/Projects/ece527/babelsoc/fpga-network-stack/hls/toe/tx_engine/../../axi_utils.hpp:436]   --->   Operation 26 'specpipeline' <Predicate = true> <Delay = 0.00>
ST_2 : Operation 27 [1/1] (0.00ns)   --->   "%p_Val2_s = load i64* @prevWord_data_V_8, align 8" [/home/paulrr2/Projects/ece527/babelsoc/fpga-network-stack/hls/toe/tx_engine/../../axi_utils.hpp:462]   --->   Operation 27 'load' 'p_Val2_s' <Predicate = true> <Delay = 0.00>
ST_2 : Operation 28 [1/1] (0.00ns)   --->   "%p_Val2_19 = load i8* @prevWord_keep_V_7, align 1" [/home/paulrr2/Projects/ece527/babelsoc/fpga-network-stack/hls/toe/tx_engine/../../axi_utils.hpp:465]   --->   Operation 28 'load' 'p_Val2_19' <Predicate = true> <Delay = 0.00>
ST_2 : Operation 29 [1/1] (0.00ns)   --->   "%p_Result_i = call i32 @_ssdm_op_PartSelect.i32.i64.i32.i32(i64 %p_Val2_s, i32 32, i32 63) nounwind" [/home/paulrr2/Projects/ece527/babelsoc/fpga-network-stack/hls/toe/tx_engine/../../axi_utils.hpp:462]   --->   Operation 29 'partselect' 'p_Result_i' <Predicate = (!fsmState_load & tmp & !rs_firstWord_load)> <Delay = 0.00>
ST_2 : Operation 30 [1/1] (0.00ns)   --->   "%p_Result_20_i = call i4 @_ssdm_op_PartSelect.i4.i8.i32.i32(i8 %p_Val2_19, i32 4, i32 7) nounwind" [/home/paulrr2/Projects/ece527/babelsoc/fpga-network-stack/hls/toe/tx_engine/../../axi_utils.hpp:465]   --->   Operation 30 'partselect' 'p_Result_20_i' <Predicate = (!fsmState_load & tmp & !rs_firstWord_load)> <Delay = 0.00>
ST_2 : Operation 31 [1/1] (0.00ns)   --->   "%tmp_1 = call i73 @_ssdm_op_BitConcatenate.i73.i1.i4.i4.i32.i32(i1 %tmp_last_V, i4 %p_Result_21_i, i4 %p_Result_20_i, i32 %trunc_ln647, i32 %p_Result_i) nounwind" [/home/paulrr2/Projects/ece527/babelsoc/fpga-network-stack/hls/toe/tx_engine/../../axi_utils.hpp:472]   --->   Operation 31 'bitconcatenate' 'tmp_1' <Predicate = (!fsmState_load & tmp & !rs_firstWord_load)> <Delay = 0.00>
ST_2 : Operation 32 [1/1] (2.80ns)   --->   "call void @_ssdm_op_Write.ap_fifo.volatile.i73P(i73* @txEng_tcpPkgBuffer4_s_5, i73 %tmp_1) nounwind" [/home/paulrr2/Projects/ece527/babelsoc/fpga-network-stack/hls/toe/tx_engine/../../axi_utils.hpp:472]   --->   Operation 32 'write' <Predicate = (!fsmState_load & tmp & !rs_firstWord_load)> <Delay = 2.80> <Core = "FIFO">   --->   Core 32 'FIFO' <Latency = 0> <II = 1> <Delay = 3.54> <Storage> <Opcode : 'read' 'write' 'nbread' 'nbwrite'> <Ports = 0> <Width = 16> <Depth = 8> <FIFO>
ST_2 : Operation 33 [1/1] (0.00ns)   --->   "store i64 %p_Val2_20, i64* @prevWord_data_V_8, align 8" [/home/paulrr2/Projects/ece527/babelsoc/fpga-network-stack/hls/toe/tx_engine/../../axi_utils.hpp:50->/home/paulrr2/Projects/ece527/babelsoc/fpga-network-stack/hls/toe/tx_engine/../../axi_utils.hpp:475]   --->   Operation 33 'store' <Predicate = (!fsmState_load & tmp)> <Delay = 0.00>
ST_2 : Operation 34 [1/1] (0.00ns)   --->   "store i8 %p_Val2_2, i8* @prevWord_keep_V_7, align 8" [/home/paulrr2/Projects/ece527/babelsoc/fpga-network-stack/hls/toe/tx_engine/../../axi_utils.hpp:50->/home/paulrr2/Projects/ece527/babelsoc/fpga-network-stack/hls/toe/tx_engine/../../axi_utils.hpp:475]   --->   Operation 34 'store' <Predicate = (!fsmState_load & tmp)> <Delay = 0.00>
ST_2 : Operation 35 [1/1] (0.00ns)   --->   "br label %._crit_edge67.i" [/home/paulrr2/Projects/ece527/babelsoc/fpga-network-stack/hls/toe/tx_engine/../../axi_utils.hpp:484]   --->   Operation 35 'br' <Predicate = (!fsmState_load & tmp & tmp_143 & !p_0256_2_0_i)> <Delay = 0.00>
ST_2 : Operation 36 [1/1] (0.00ns)   --->   "%rs_firstWord_new_0_i = phi i1 [ true, %._crit_edge67.i ], [ false, %._crit_edge65.i ]"   --->   Operation 36 'phi' 'rs_firstWord_new_0_i' <Predicate = (!fsmState_load & tmp)> <Delay = 0.00>
ST_2 : Operation 37 [1/1] (0.00ns)   --->   "store i1 %rs_firstWord_new_0_i, i1* @rs_firstWord, align 1" [/home/paulrr2/Projects/ece527/babelsoc/fpga-network-stack/hls/toe/tx_engine/../../axi_utils.hpp:476]   --->   Operation 37 'store' <Predicate = (!fsmState_load & tmp)> <Delay = 0.00>
ST_2 : Operation 38 [1/1] (0.00ns)   --->   "br label %._crit_edge64.i" [/home/paulrr2/Projects/ece527/babelsoc/fpga-network-stack/hls/toe/tx_engine/../../axi_utils.hpp:487]   --->   Operation 38 'br' <Predicate = (!fsmState_load & tmp)> <Delay = 0.00>
ST_2 : Operation 39 [1/1] (0.00ns)   --->   "br label %"rshiftWordByOctet<net_axis<64>, 64, 53>.exit"" [/home/paulrr2/Projects/ece527/babelsoc/fpga-network-stack/hls/toe/tx_engine/../../axi_utils.hpp:488]   --->   Operation 39 'br' <Predicate = (!fsmState_load)> <Delay = 0.00>
ST_2 : Operation 40 [1/1] (0.00ns)   --->   "%p_Result_i_385 = call i32 @_ssdm_op_PartSelect.i32.i64.i32.i32(i64 %p_Val2_s, i32 32, i32 63) nounwind" [/home/paulrr2/Projects/ece527/babelsoc/fpga-network-stack/hls/toe/tx_engine/../../axi_utils.hpp:490]   --->   Operation 40 'partselect' 'p_Result_i_385' <Predicate = (fsmState_load)> <Delay = 0.00>
ST_2 : Operation 41 [1/1] (0.00ns)   --->   "%p_Result_18_i = call i4 @_ssdm_op_PartSelect.i4.i8.i32.i32(i8 %p_Val2_19, i32 4, i32 7) nounwind" [/home/paulrr2/Projects/ece527/babelsoc/fpga-network-stack/hls/toe/tx_engine/../../axi_utils.hpp:492]   --->   Operation 41 'partselect' 'p_Result_18_i' <Predicate = (fsmState_load)> <Delay = 0.00>
ST_2 : Operation 42 [1/1] (0.00ns)   --->   "%tmp_2 = call i73 @_ssdm_op_BitConcatenate.i73.i5.i4.i32.i32(i5 -16, i4 %p_Result_18_i, i32 0, i32 %p_Result_i_385) nounwind" [/home/paulrr2/Projects/ece527/babelsoc/fpga-network-stack/hls/toe/tx_engine/../../axi_utils.hpp:498]   --->   Operation 42 'bitconcatenate' 'tmp_2' <Predicate = (fsmState_load)> <Delay = 0.00>
ST_2 : Operation 43 [1/1] (2.80ns)   --->   "call void @_ssdm_op_Write.ap_fifo.volatile.i73P(i73* @txEng_tcpPkgBuffer4_s_5, i73 %tmp_2) nounwind" [/home/paulrr2/Projects/ece527/babelsoc/fpga-network-stack/hls/toe/tx_engine/../../axi_utils.hpp:498]   --->   Operation 43 'write' <Predicate = (fsmState_load)> <Delay = 2.80> <Core = "FIFO">   --->   Core 32 'FIFO' <Latency = 0> <II = 1> <Delay = 3.54> <Storage> <Opcode : 'read' 'write' 'nbread' 'nbwrite'> <Ports = 0> <Width = 16> <Depth = 8> <FIFO>
ST_2 : Operation 44 [1/1] (0.00ns)   --->   "br label %"rshiftWordByOctet<net_axis<64>, 64, 53>.exit"" [/home/paulrr2/Projects/ece527/babelsoc/fpga-network-stack/hls/toe/tx_engine/../../axi_utils.hpp:500]   --->   Operation 44 'br' <Predicate = (fsmState_load)> <Delay = 0.00>
ST_2 : Operation 45 [1/1] (0.00ns)   --->   "ret void"   --->   Operation 45 'ret' <Predicate = true> <Delay = 0.00>


============================================================
+ Verbose Summary: Binding
============================================================
STG Binding: 
---------------- STG Properties BEGIN ----------------
- Is combinational: 0
- Is one-state seq: 0
- Is datapath-only: 0
- Is pipelined: 1
- Is top level: 0
Port [ Return ] is wired: 1; IO mode=ap_ctrl_hs:ce=0
Port [ fsmState]:  wired=0; compound=0; hidden=1; nouse=0; global=1; static=1; extern=0; dir=2; type=0; pingpong=0; private_global=1; linkage=7; visibility=0; IO mode=ap_ovld:ce=0
Port [ prevWord_data_V_8]:  wired=0; compound=0; hidden=1; nouse=0; global=1; static=1; extern=0; dir=2; type=0; pingpong=0; private_global=1; linkage=7; visibility=0; IO mode=ap_ovld:ce=0
Port [ prevWord_keep_V_7]:  wired=0; compound=0; hidden=1; nouse=0; global=1; static=1; extern=0; dir=2; type=0; pingpong=0; private_global=1; linkage=7; visibility=0; IO mode=ap_ovld:ce=0
Port [ txEng_tcpPkgBuffer3_s_6]:  wired=1; compound=1; hidden=0; nouse=0; global=1; static=1; extern=0; dir=0; type=3; pingpong=0; private_global=0; linkage=7; visibility=0; IO mode=ap_fifo:ce=0
Port [ rs_firstWord]:  wired=0; compound=0; hidden=1; nouse=0; global=1; static=1; extern=0; dir=2; type=0; pingpong=0; private_global=1; linkage=7; visibility=0; IO mode=ap_ovld:ce=0
Port [ txEng_tcpPkgBuffer4_s_5]:  wired=1; compound=1; hidden=0; nouse=0; global=1; static=1; extern=0; dir=1; type=3; pingpong=0; private_global=0; linkage=7; visibility=0; IO mode=ap_fifo:ce=0
---------------- STG Properties END ------------------

---------------- Datapath Model BEGIN ----------------

<LifeTime>
<method=bitvector/>
fsmState_load        (load          ) [ 011]
br_ln447             (br            ) [ 000]
tmp                  (nbreadreq     ) [ 011]
br_ln450             (br            ) [ 000]
tmp45                (read          ) [ 000]
p_Val2_20            (trunc         ) [ 011]
p_Val2_2             (partselect    ) [ 011]
tmp_143              (bitselect     ) [ 011]
rs_firstWord_load    (load          ) [ 011]
br_ln454             (br            ) [ 000]
trunc_ln647          (trunc         ) [ 011]
p_Result_21_i        (partselect    ) [ 011]
p_Result_22_i        (partselect    ) [ 000]
tmp_last_V           (icmp          ) [ 011]
br_ln473             (br            ) [ 000]
p_0256_2_0_i         (phi           ) [ 011]
br_ln477             (br            ) [ 011]
br_ln481             (br            ) [ 000]
store_ln483          (store         ) [ 000]
br_ln485             (br            ) [ 011]
store_ln499          (store         ) [ 000]
specinterface_ln0    (specinterface ) [ 000]
specinterface_ln0    (specinterface ) [ 000]
specpipeline_ln436   (specpipeline  ) [ 000]
p_Val2_s             (load          ) [ 000]
p_Val2_19            (load          ) [ 000]
p_Result_i           (partselect    ) [ 000]
p_Result_20_i        (partselect    ) [ 000]
tmp_1                (bitconcatenate) [ 000]
write_ln472          (write         ) [ 000]
store_ln50           (store         ) [ 000]
store_ln50           (store         ) [ 000]
br_ln484             (br            ) [ 000]
rs_firstWord_new_0_i (phi           ) [ 011]
store_ln476          (store         ) [ 000]
br_ln487             (br            ) [ 000]
br_ln488             (br            ) [ 000]
p_Result_i_385       (partselect    ) [ 000]
p_Result_18_i        (partselect    ) [ 000]
tmp_2                (bitconcatenate) [ 000]
write_ln498          (write         ) [ 000]
br_ln500             (br            ) [ 000]
ret_ln0              (ret           ) [ 000]
</LifeTime>

<model>

<comp_list>
<comp id="0" class="1000" name="fsmState">
<pin_list>
<pin id="1" dir="1" index="0" bw="1" slack="0"/>
</pin_list>
<bind>
<StgValue><ssdm name="fsmState"/></StgValue>
</bind>
</comp>

<comp id="2" class="1000" name="prevWord_data_V_8">
<pin_list>
<pin id="3" dir="1" index="0" bw="1" slack="0"/>
</pin_list>
<bind>
<StgValue><ssdm name="prevWord_data_V_8"/></StgValue>
</bind>
</comp>

<comp id="4" class="1000" name="prevWord_keep_V_7">
<pin_list>
<pin id="5" dir="1" index="0" bw="1" slack="0"/>
</pin_list>
<bind>
<StgValue><ssdm name="prevWord_keep_V_7"/></StgValue>
</bind>
</comp>

<comp id="6" class="1000" name="txEng_tcpPkgBuffer3_s_6">
<pin_list>
<pin id="7" dir="1" index="0" bw="1" slack="0"/>
</pin_list>
<bind>
<StgValue><ssdm name="txEng_tcpPkgBuffer3_s_6"/></StgValue>
</bind>
</comp>

<comp id="8" class="1000" name="rs_firstWord">
<pin_list>
<pin id="9" dir="1" index="0" bw="1" slack="0"/>
</pin_list>
<bind>
<StgValue><ssdm name="rs_firstWord"/></StgValue>
</bind>
</comp>

<comp id="10" class="1000" name="txEng_tcpPkgBuffer4_s_5">
<pin_list>
<pin id="11" dir="1" index="0" bw="1" slack="0"/>
</pin_list>
<bind>
<StgValue><ssdm name="txEng_tcpPkgBuffer4_s_5"/></StgValue>
</bind>
</comp>

<comp id="12" class="1001" name="const_12">
<pin_list>
<pin id="13" dir="1" index="0" bw="1" slack="0"/>
</pin_list>
<bind>
<StgValue><ssdm name="_ssdm_op_NbReadReq.ap_fifo.i73P"/></StgValue>
</bind>
</comp>

<comp id="14" class="1001" name="const_14">
<pin_list>
<pin id="15" dir="1" index="0" bw="1" slack="0"/>
</pin_list>
<bind>
<StgValue><ssdm name=""/></StgValue>
</bind>
</comp>

<comp id="16" class="1001" name="const_16">
<pin_list>
<pin id="17" dir="1" index="0" bw="1" slack="0"/>
</pin_list>
<bind>
<StgValue><ssdm name="_ssdm_op_Read.ap_fifo.volatile.i73P"/></StgValue>
</bind>
</comp>

<comp id="18" class="1001" name="const_18">
<pin_list>
<pin id="19" dir="1" index="0" bw="1" slack="0"/>
</pin_list>
<bind>
<StgValue><ssdm name="_ssdm_op_PartSelect.i8.i73.i32.i32"/></StgValue>
</bind>
</comp>

<comp id="20" class="1001" name="const_20">
<pin_list>
<pin id="21" dir="1" index="0" bw="1" slack="0"/>
</pin_list>
<bind>
<StgValue><ssdm name=""/></StgValue>
</bind>
</comp>

<comp id="22" class="1001" name="const_22">
<pin_list>
<pin id="23" dir="1" index="0" bw="1" slack="0"/>
</pin_list>
<bind>
<StgValue><ssdm name=""/></StgValue>
</bind>
</comp>

<comp id="24" class="1001" name="const_24">
<pin_list>
<pin id="25" dir="1" index="0" bw="1" slack="0"/>
</pin_list>
<bind>
<StgValue><ssdm name="_ssdm_op_BitSelect.i1.i73.i32"/></StgValue>
</bind>
</comp>

<comp id="26" class="1001" name="const_26">
<pin_list>
<pin id="27" dir="1" index="0" bw="1" slack="0"/>
</pin_list>
<bind>
<StgValue><ssdm name=""/></StgValue>
</bind>
</comp>

<comp id="28" class="1001" name="const_28">
<pin_list>
<pin id="29" dir="1" index="0" bw="1" slack="0"/>
</pin_list>
<bind>
<StgValue><ssdm name="_ssdm_op_PartSelect.i4.i73.i32.i32"/></StgValue>
</bind>
</comp>

<comp id="30" class="1001" name="const_30">
<pin_list>
<pin id="31" dir="1" index="0" bw="1" slack="0"/>
</pin_list>
<bind>
<StgValue><ssdm name=""/></StgValue>
</bind>
</comp>

<comp id="32" class="1001" name="const_32">
<pin_list>
<pin id="33" dir="1" index="0" bw="1" slack="0"/>
</pin_list>
<bind>
<StgValue><ssdm name=""/></StgValue>
</bind>
</comp>

<comp id="34" class="1001" name="const_34">
<pin_list>
<pin id="35" dir="1" index="0" bw="1" slack="0"/>
</pin_list>
<bind>
<StgValue><ssdm name=""/></StgValue>
</bind>
</comp>

<comp id="36" class="1001" name="const_36">
<pin_list>
<pin id="37" dir="1" index="0" bw="1" slack="0"/>
</pin_list>
<bind>
<StgValue><ssdm name=""/></StgValue>
</bind>
</comp>

<comp id="38" class="1001" name="const_38">
<pin_list>
<pin id="39" dir="1" index="0" bw="1" slack="0"/>
</pin_list>
<bind>
<StgValue><ssdm name=""/></StgValue>
</bind>
</comp>

<comp id="40" class="1001" name="const_40">
<pin_list>
<pin id="41" dir="1" index="0" bw="1" slack="2147483647"/>
</pin_list>
<bind>
<StgValue><ssdm name="_ssdm_op_SpecInterface"/></StgValue>
</bind>
</comp>

<comp id="42" class="1001" name="const_42">
<pin_list>
<pin id="43" dir="1" index="0" bw="1" slack="2147483647"/>
</pin_list>
<bind>
<StgValue><ssdm name="ap_fifo_str"/></StgValue>
</bind>
</comp>

<comp id="44" class="1001" name="const_44">
<pin_list>
<pin id="45" dir="1" index="0" bw="1" slack="0"/>
</pin_list>
<bind>
<StgValue><ssdm name=""/></StgValue>
</bind>
</comp>

<comp id="46" class="1001" name="const_46">
<pin_list>
<pin id="47" dir="1" index="0" bw="1" slack="2147483647"/>
</pin_list>
<bind>
<StgValue><ssdm name="p_str"/></StgValue>
</bind>
</comp>

<comp id="48" class="1001" name="const_48">
<pin_list>
<pin id="49" dir="1" index="0" bw="1" slack="2147483647"/>
</pin_list>
<bind>
<StgValue><ssdm name=""/></StgValue>
</bind>
</comp>

<comp id="50" class="1001" name="const_50">
<pin_list>
<pin id="51" dir="1" index="0" bw="1" slack="2147483647"/>
</pin_list>
<bind>
<StgValue><ssdm name=""/></StgValue>
</bind>
</comp>

<comp id="52" class="1001" name="const_52">
<pin_list>
<pin id="53" dir="1" index="0" bw="1" slack="2147483647"/>
</pin_list>
<bind>
<StgValue><ssdm name="_ssdm_op_SpecPipeline"/></StgValue>
</bind>
</comp>

<comp id="54" class="1001" name="const_54">
<pin_list>
<pin id="55" dir="1" index="0" bw="1" slack="2147483647"/>
</pin_list>
<bind>
<StgValue><ssdm name="p_str214"/></StgValue>
</bind>
</comp>

<comp id="56" class="1001" name="const_56">
<pin_list>
<pin id="57" dir="1" index="0" bw="1" slack="0"/>
</pin_list>
<bind>
<StgValue><ssdm name="_ssdm_op_PartSelect.i32.i64.i32.i32"/></StgValue>
</bind>
</comp>

<comp id="58" class="1001" name="const_58">
<pin_list>
<pin id="59" dir="1" index="0" bw="1" slack="0"/>
</pin_list>
<bind>
<StgValue><ssdm name=""/></StgValue>
</bind>
</comp>

<comp id="60" class="1001" name="const_60">
<pin_list>
<pin id="61" dir="1" index="0" bw="1" slack="0"/>
</pin_list>
<bind>
<StgValue><ssdm name=""/></StgValue>
</bind>
</comp>

<comp id="62" class="1001" name="const_62">
<pin_list>
<pin id="63" dir="1" index="0" bw="1" slack="0"/>
</pin_list>
<bind>
<StgValue><ssdm name="_ssdm_op_PartSelect.i4.i8.i32.i32"/></StgValue>
</bind>
</comp>

<comp id="64" class="1001" name="const_64">
<pin_list>
<pin id="65" dir="1" index="0" bw="1" slack="0"/>
</pin_list>
<bind>
<StgValue><ssdm name=""/></StgValue>
</bind>
</comp>

<comp id="66" class="1001" name="const_66">
<pin_list>
<pin id="67" dir="1" index="0" bw="1" slack="0"/>
</pin_list>
<bind>
<StgValue><ssdm name=""/></StgValue>
</bind>
</comp>

<comp id="68" class="1001" name="const_68">
<pin_list>
<pin id="69" dir="1" index="0" bw="1" slack="0"/>
</pin_list>
<bind>
<StgValue><ssdm name="_ssdm_op_BitConcatenate.i73.i1.i4.i4.i32.i32"/></StgValue>
</bind>
</comp>

<comp id="70" class="1001" name="const_70">
<pin_list>
<pin id="71" dir="1" index="0" bw="1" slack="0"/>
</pin_list>
<bind>
<StgValue><ssdm name="_ssdm_op_Write.ap_fifo.volatile.i73P"/></StgValue>
</bind>
</comp>

<comp id="72" class="1001" name="const_72">
<pin_list>
<pin id="73" dir="1" index="0" bw="1" slack="0"/>
</pin_list>
<bind>
<StgValue><ssdm name="_ssdm_op_BitConcatenate.i73.i5.i4.i32.i32"/></StgValue>
</bind>
</comp>

<comp id="74" class="1001" name="const_74">
<pin_list>
<pin id="75" dir="1" index="0" bw="1" slack="0"/>
</pin_list>
<bind>
<StgValue><ssdm name=""/></StgValue>
</bind>
</comp>

<comp id="76" class="1004" name="tmp_nbreadreq_fu_76">
<pin_list>
<pin id="77" dir="0" index="0" bw="1" slack="0"/>
<pin id="78" dir="0" index="1" bw="73" slack="0"/>
<pin id="79" dir="0" index="2" bw="1" slack="0"/>
<pin id="80" dir="1" index="3" bw="1" slack="1"/>
</pin_list>
<bind>
<opcode="nbreadreq(1156) " fcode="nbreadreq"/>
<opset="tmp/1 "/>
</bind>
</comp>

<comp id="84" class="1004" name="tmp45_read_fu_84">
<pin_list>
<pin id="85" dir="0" index="0" bw="73" slack="0"/>
<pin id="86" dir="0" index="1" bw="73" slack="0"/>
<pin id="87" dir="1" index="2" bw="73" slack="0"/>
</pin_list>
<bind>
<opcode="read(1150) " fcode="read"/>
<opset="tmp45/1 "/>
</bind>
</comp>

<comp id="90" class="1004" name="grp_write_fu_90">
<pin_list>
<pin id="91" dir="0" index="0" bw="0" slack="0"/>
<pin id="92" dir="0" index="1" bw="73" slack="0"/>
<pin id="93" dir="0" index="2" bw="73" slack="0"/>
<pin id="94" dir="1" index="3" bw="0" slack="2147483647"/>
</pin_list>
<bind>
<opcode="write(1151) " fcode="write"/>
<opset="write_ln472/2 write_ln498/2 "/>
</bind>
</comp>

<comp id="97" class="1005" name="p_0256_2_0_i_reg_97">
<pin_list>
<pin id="98" dir="0" index="0" bw="1" slack="1"/>
<pin id="99" dir="1" index="1" bw="1" slack="2147483647"/>
</pin_list>
<bind>
<opset="p_0256_2_0_i (phireg) "/>
</bind>
</comp>

<comp id="100" class="1004" name="p_0256_2_0_i_phi_fu_100">
<pin_list>
<pin id="101" dir="0" index="0" bw="1" slack="0"/>
<pin id="102" dir="0" index="1" bw="0" slack="2147483647"/>
<pin id="103" dir="0" index="2" bw="1" slack="0"/>
<pin id="104" dir="0" index="3" bw="0" slack="2147483647"/>
<pin id="105" dir="1" index="4" bw="1" slack="1"/>
</pin_list>
<bind>
<opcode="phi(47) " fcode="phi"/>
<opset="p_0256_2_0_i/1 "/>
</bind>
</comp>

<comp id="108" class="1005" name="rs_firstWord_new_0_i_reg_108">
<pin_list>
<pin id="109" dir="0" index="0" bw="1" slack="1"/>
<pin id="110" dir="1" index="1" bw="1" slack="1"/>
</pin_list>
<bind>
<opset="rs_firstWord_new_0_i (phireg) "/>
</bind>
</comp>

<comp id="113" class="1004" name="rs_firstWord_new_0_i_phi_fu_113">
<pin_list>
<pin id="114" dir="0" index="0" bw="1" slack="1"/>
<pin id="115" dir="0" index="1" bw="0" slack="2147483647"/>
<pin id="116" dir="0" index="2" bw="1" slack="1"/>
<pin id="117" dir="0" index="3" bw="0" slack="2147483647"/>
<pin id="118" dir="1" index="4" bw="1" slack="0"/>
</pin_list>
<bind>
<opcode="phi(47) " fcode="phi"/>
<opset="rs_firstWord_new_0_i/2 "/>
</bind>
</comp>

<comp id="121" class="1004" name="grp_fu_121">
<pin_list>
<pin id="122" dir="0" index="0" bw="32" slack="0"/>
<pin id="123" dir="0" index="1" bw="64" slack="0"/>
<pin id="124" dir="0" index="2" bw="7" slack="0"/>
<pin id="125" dir="0" index="3" bw="7" slack="0"/>
<pin id="126" dir="1" index="4" bw="32" slack="0"/>
</pin_list>
<bind>
<opcode="partselect(1002) " fcode="partselect"/>
<opset="p_Result_i/2 p_Result_i_385/2 "/>
</bind>
</comp>

<comp id="130" class="1004" name="grp_fu_130">
<pin_list>
<pin id="131" dir="0" index="0" bw="4" slack="0"/>
<pin id="132" dir="0" index="1" bw="8" slack="0"/>
<pin id="133" dir="0" index="2" bw="4" slack="0"/>
<pin id="134" dir="0" index="3" bw="4" slack="0"/>
<pin id="135" dir="1" index="4" bw="4" slack="0"/>
</pin_list>
<bind>
<opcode="partselect(1002) " fcode="partselect"/>
<opset="p_Result_20_i/2 p_Result_18_i/2 "/>
</bind>
</comp>

<comp id="139" class="1004" name="fsmState_load_load_fu_139">
<pin_list>
<pin id="140" dir="0" index="0" bw="1" slack="0"/>
<pin id="141" dir="1" index="1" bw="1" slack="1"/>
</pin_list>
<bind>
<opcode="load(27) " fcode="load"/>
<opset="fsmState_load/1 "/>
</bind>
</comp>

<comp id="143" class="1004" name="p_Val2_20_fu_143">
<pin_list>
<pin id="144" dir="0" index="0" bw="73" slack="0"/>
<pin id="145" dir="1" index="1" bw="64" slack="1"/>
</pin_list>
<bind>
<opcode="trunc(33) " fcode="trunc"/>
<opset="p_Val2_20/1 "/>
</bind>
</comp>

<comp id="147" class="1004" name="p_Val2_2_fu_147">
<pin_list>
<pin id="148" dir="0" index="0" bw="8" slack="0"/>
<pin id="149" dir="0" index="1" bw="73" slack="0"/>
<pin id="150" dir="0" index="2" bw="8" slack="0"/>
<pin id="151" dir="0" index="3" bw="8" slack="0"/>
<pin id="152" dir="1" index="4" bw="8" slack="1"/>
</pin_list>
<bind>
<opcode="partselect(1002) " fcode="partselect"/>
<opset="p_Val2_2/1 "/>
</bind>
</comp>

<comp id="157" class="1004" name="tmp_143_fu_157">
<pin_list>
<pin id="158" dir="0" index="0" bw="1" slack="0"/>
<pin id="159" dir="0" index="1" bw="73" slack="0"/>
<pin id="160" dir="0" index="2" bw="8" slack="0"/>
<pin id="161" dir="1" index="3" bw="1" slack="1"/>
</pin_list>
<bind>
<opcode="bitselect(1000) " fcode="bitselect"/>
<opset="tmp_143/1 "/>
</bind>
</comp>

<comp id="165" class="1004" name="rs_firstWord_load_load_fu_165">
<pin_list>
<pin id="166" dir="0" index="0" bw="1" slack="0"/>
<pin id="167" dir="1" index="1" bw="1" slack="1"/>
</pin_list>
<bind>
<opcode="load(27) " fcode="load"/>
<opset="rs_firstWord_load/1 "/>
</bind>
</comp>

<comp id="169" class="1004" name="trunc_ln647_fu_169">
<pin_list>
<pin id="170" dir="0" index="0" bw="73" slack="0"/>
<pin id="171" dir="1" index="1" bw="32" slack="1"/>
</pin_list>
<bind>
<opcode="trunc(33) " fcode="trunc"/>
<opset="trunc_ln647/1 "/>
</bind>
</comp>

<comp id="173" class="1004" name="p_Result_21_i_fu_173">
<pin_list>
<pin id="174" dir="0" index="0" bw="4" slack="0"/>
<pin id="175" dir="0" index="1" bw="73" slack="0"/>
<pin id="176" dir="0" index="2" bw="8" slack="0"/>
<pin id="177" dir="0" index="3" bw="8" slack="0"/>
<pin id="178" dir="1" index="4" bw="4" slack="1"/>
</pin_list>
<bind>
<opcode="partselect(1002) " fcode="partselect"/>
<opset="p_Result_21_i/1 "/>
</bind>
</comp>

<comp id="183" class="1004" name="p_Result_22_i_fu_183">
<pin_list>
<pin id="184" dir="0" index="0" bw="4" slack="0"/>
<pin id="185" dir="0" index="1" bw="73" slack="0"/>
<pin id="186" dir="0" index="2" bw="8" slack="0"/>
<pin id="187" dir="0" index="3" bw="8" slack="0"/>
<pin id="188" dir="1" index="4" bw="4" slack="0"/>
</pin_list>
<bind>
<opcode="partselect(1002) " fcode="partselect"/>
<opset="p_Result_22_i/1 "/>
</bind>
</comp>

<comp id="193" class="1004" name="tmp_last_V_fu_193">
<pin_list>
<pin id="194" dir="0" index="0" bw="4" slack="0"/>
<pin id="195" dir="0" index="1" bw="4" slack="0"/>
<pin id="196" dir="1" index="2" bw="1" slack="0"/>
</pin_list>
<bind>
<opcode="icmp(45) " fcode="icmp"/>
<opset="tmp_last_V/1 "/>
</bind>
</comp>

<comp id="200" class="1004" name="store_ln483_store_fu_200">
<pin_list>
<pin id="201" dir="0" index="0" bw="1" slack="0"/>
<pin id="202" dir="0" index="1" bw="1" slack="0"/>
<pin id="203" dir="1" index="2" bw="0" slack="2147483647"/>
</pin_list>
<bind>
<opcode="store(28) " fcode="store"/>
<opset="store_ln483/1 "/>
</bind>
</comp>

<comp id="206" class="1004" name="store_ln499_store_fu_206">
<pin_list>
<pin id="207" dir="0" index="0" bw="1" slack="0"/>
<pin id="208" dir="0" index="1" bw="1" slack="0"/>
<pin id="209" dir="1" index="2" bw="0" slack="2147483647"/>
</pin_list>
<bind>
<opcode="store(28) " fcode="store"/>
<opset="store_ln499/1 "/>
</bind>
</comp>

<comp id="212" class="1004" name="p_Val2_s_load_fu_212">
<pin_list>
<pin id="213" dir="0" index="0" bw="64" slack="0"/>
<pin id="214" dir="1" index="1" bw="64" slack="0"/>
</pin_list>
<bind>
<opcode="load(27) " fcode="load"/>
<opset="p_Val2_s/2 "/>
</bind>
</comp>

<comp id="217" class="1004" name="p_Val2_19_load_fu_217">
<pin_list>
<pin id="218" dir="0" index="0" bw="8" slack="0"/>
<pin id="219" dir="1" index="1" bw="8" slack="0"/>
</pin_list>
<bind>
<opcode="load(27) " fcode="load"/>
<opset="p_Val2_19/2 "/>
</bind>
</comp>

<comp id="222" class="1004" name="tmp_1_fu_222">
<pin_list>
<pin id="223" dir="0" index="0" bw="73" slack="0"/>
<pin id="224" dir="0" index="1" bw="1" slack="1"/>
<pin id="225" dir="0" index="2" bw="4" slack="1"/>
<pin id="226" dir="0" index="3" bw="4" slack="0"/>
<pin id="227" dir="0" index="4" bw="32" slack="1"/>
<pin id="228" dir="0" index="5" bw="32" slack="0"/>
<pin id="229" dir="1" index="6" bw="73" slack="0"/>
</pin_list>
<bind>
<opcode="bitconcatenate(1004) " fcode="bitconcatenate"/>
<opset="tmp_1/2 "/>
</bind>
</comp>

<comp id="234" class="1004" name="store_ln50_store_fu_234">
<pin_list>
<pin id="235" dir="0" index="0" bw="64" slack="1"/>
<pin id="236" dir="0" index="1" bw="64" slack="0"/>
<pin id="237" dir="1" index="2" bw="0" slack="2147483647"/>
</pin_list>
<bind>
<opcode="store(28) " fcode="store"/>
<opset="store_ln50/2 "/>
</bind>
</comp>

<comp id="239" class="1004" name="store_ln50_store_fu_239">
<pin_list>
<pin id="240" dir="0" index="0" bw="8" slack="1"/>
<pin id="241" dir="0" index="1" bw="8" slack="0"/>
<pin id="242" dir="1" index="2" bw="0" slack="2147483647"/>
</pin_list>
<bind>
<opcode="store(28) " fcode="store"/>
<opset="store_ln50/2 "/>
</bind>
</comp>

<comp id="244" class="1004" name="store_ln476_store_fu_244">
<pin_list>
<pin id="245" dir="0" index="0" bw="1" slack="0"/>
<pin id="246" dir="0" index="1" bw="1" slack="0"/>
<pin id="247" dir="1" index="2" bw="0" slack="2147483647"/>
</pin_list>
<bind>
<opcode="store(28) " fcode="store"/>
<opset="store_ln476/2 "/>
</bind>
</comp>

<comp id="250" class="1004" name="tmp_2_fu_250">
<pin_list>
<pin id="251" dir="0" index="0" bw="73" slack="0"/>
<pin id="252" dir="0" index="1" bw="5" slack="0"/>
<pin id="253" dir="0" index="2" bw="4" slack="0"/>
<pin id="254" dir="0" index="3" bw="1" slack="0"/>
<pin id="255" dir="0" index="4" bw="32" slack="0"/>
<pin id="256" dir="1" index="5" bw="73" slack="0"/>
</pin_list>
<bind>
<opcode="bitconcatenate(1004) " fcode="bitconcatenate"/>
<opset="tmp_2/2 "/>
</bind>
</comp>

<comp id="263" class="1005" name="fsmState_load_reg_263">
<pin_list>
<pin id="264" dir="0" index="0" bw="1" slack="1"/>
<pin id="265" dir="1" index="1" bw="1" slack="2147483647"/>
</pin_list>
<bind>
<opset="fsmState_load "/>
</bind>
</comp>

<comp id="267" class="1005" name="tmp_reg_267">
<pin_list>
<pin id="268" dir="0" index="0" bw="1" slack="1"/>
<pin id="269" dir="1" index="1" bw="1" slack="2147483647"/>
</pin_list>
<bind>
<opset="tmp "/>
</bind>
</comp>

<comp id="271" class="1005" name="p_Val2_20_reg_271">
<pin_list>
<pin id="272" dir="0" index="0" bw="64" slack="1"/>
<pin id="273" dir="1" index="1" bw="64" slack="1"/>
</pin_list>
<bind>
<opset="p_Val2_20 "/>
</bind>
</comp>

<comp id="276" class="1005" name="p_Val2_2_reg_276">
<pin_list>
<pin id="277" dir="0" index="0" bw="8" slack="1"/>
<pin id="278" dir="1" index="1" bw="8" slack="1"/>
</pin_list>
<bind>
<opset="p_Val2_2 "/>
</bind>
</comp>

<comp id="281" class="1005" name="tmp_143_reg_281">
<pin_list>
<pin id="282" dir="0" index="0" bw="1" slack="1"/>
<pin id="283" dir="1" index="1" bw="1" slack="2147483647"/>
</pin_list>
<bind>
<opset="tmp_143 "/>
</bind>
</comp>

<comp id="285" class="1005" name="rs_firstWord_load_reg_285">
<pin_list>
<pin id="286" dir="0" index="0" bw="1" slack="1"/>
<pin id="287" dir="1" index="1" bw="1" slack="2147483647"/>
</pin_list>
<bind>
<opset="rs_firstWord_load "/>
</bind>
</comp>

<comp id="289" class="1005" name="trunc_ln647_reg_289">
<pin_list>
<pin id="290" dir="0" index="0" bw="32" slack="1"/>
<pin id="291" dir="1" index="1" bw="32" slack="1"/>
</pin_list>
<bind>
<opset="trunc_ln647 "/>
</bind>
</comp>

<comp id="294" class="1005" name="p_Result_21_i_reg_294">
<pin_list>
<pin id="295" dir="0" index="0" bw="4" slack="1"/>
<pin id="296" dir="1" index="1" bw="4" slack="1"/>
</pin_list>
<bind>
<opset="p_Result_21_i "/>
</bind>
</comp>

<comp id="299" class="1005" name="tmp_last_V_reg_299">
<pin_list>
<pin id="300" dir="0" index="0" bw="1" slack="1"/>
<pin id="301" dir="1" index="1" bw="1" slack="1"/>
</pin_list>
<bind>
<opset="tmp_last_V "/>
</bind>
</comp>

</comp_list>

<net_list>
<net id="81"><net_src comp="12" pin="0"/><net_sink comp="76" pin=0"/></net>

<net id="82"><net_src comp="6" pin="0"/><net_sink comp="76" pin=1"/></net>

<net id="83"><net_src comp="14" pin="0"/><net_sink comp="76" pin=2"/></net>

<net id="88"><net_src comp="16" pin="0"/><net_sink comp="84" pin=0"/></net>

<net id="89"><net_src comp="6" pin="0"/><net_sink comp="84" pin=1"/></net>

<net id="95"><net_src comp="70" pin="0"/><net_sink comp="90" pin=0"/></net>

<net id="96"><net_src comp="10" pin="0"/><net_sink comp="90" pin=1"/></net>

<net id="106"><net_src comp="36" pin="0"/><net_sink comp="100" pin=2"/></net>

<net id="107"><net_src comp="100" pin="4"/><net_sink comp="97" pin=0"/></net>

<net id="111"><net_src comp="38" pin="0"/><net_sink comp="108" pin=0"/></net>

<net id="112"><net_src comp="36" pin="0"/><net_sink comp="108" pin=0"/></net>

<net id="119"><net_src comp="108" pin="1"/><net_sink comp="113" pin=0"/></net>

<net id="120"><net_src comp="108" pin="1"/><net_sink comp="113" pin=2"/></net>

<net id="127"><net_src comp="56" pin="0"/><net_sink comp="121" pin=0"/></net>

<net id="128"><net_src comp="58" pin="0"/><net_sink comp="121" pin=2"/></net>

<net id="129"><net_src comp="60" pin="0"/><net_sink comp="121" pin=3"/></net>

<net id="136"><net_src comp="62" pin="0"/><net_sink comp="130" pin=0"/></net>

<net id="137"><net_src comp="64" pin="0"/><net_sink comp="130" pin=2"/></net>

<net id="138"><net_src comp="66" pin="0"/><net_sink comp="130" pin=3"/></net>

<net id="142"><net_src comp="0" pin="0"/><net_sink comp="139" pin=0"/></net>

<net id="146"><net_src comp="84" pin="2"/><net_sink comp="143" pin=0"/></net>

<net id="153"><net_src comp="18" pin="0"/><net_sink comp="147" pin=0"/></net>

<net id="154"><net_src comp="84" pin="2"/><net_sink comp="147" pin=1"/></net>

<net id="155"><net_src comp="20" pin="0"/><net_sink comp="147" pin=2"/></net>

<net id="156"><net_src comp="22" pin="0"/><net_sink comp="147" pin=3"/></net>

<net id="162"><net_src comp="24" pin="0"/><net_sink comp="157" pin=0"/></net>

<net id="163"><net_src comp="84" pin="2"/><net_sink comp="157" pin=1"/></net>

<net id="164"><net_src comp="26" pin="0"/><net_sink comp="157" pin=2"/></net>

<net id="168"><net_src comp="8" pin="0"/><net_sink comp="165" pin=0"/></net>

<net id="172"><net_src comp="84" pin="2"/><net_sink comp="169" pin=0"/></net>

<net id="179"><net_src comp="28" pin="0"/><net_sink comp="173" pin=0"/></net>

<net id="180"><net_src comp="84" pin="2"/><net_sink comp="173" pin=1"/></net>

<net id="181"><net_src comp="20" pin="0"/><net_sink comp="173" pin=2"/></net>

<net id="182"><net_src comp="30" pin="0"/><net_sink comp="173" pin=3"/></net>

<net id="189"><net_src comp="28" pin="0"/><net_sink comp="183" pin=0"/></net>

<net id="190"><net_src comp="84" pin="2"/><net_sink comp="183" pin=1"/></net>

<net id="191"><net_src comp="32" pin="0"/><net_sink comp="183" pin=2"/></net>

<net id="192"><net_src comp="22" pin="0"/><net_sink comp="183" pin=3"/></net>

<net id="197"><net_src comp="183" pin="4"/><net_sink comp="193" pin=0"/></net>

<net id="198"><net_src comp="34" pin="0"/><net_sink comp="193" pin=1"/></net>

<net id="199"><net_src comp="193" pin="2"/><net_sink comp="100" pin=0"/></net>

<net id="204"><net_src comp="38" pin="0"/><net_sink comp="200" pin=0"/></net>

<net id="205"><net_src comp="0" pin="0"/><net_sink comp="200" pin=1"/></net>

<net id="210"><net_src comp="36" pin="0"/><net_sink comp="206" pin=0"/></net>

<net id="211"><net_src comp="0" pin="0"/><net_sink comp="206" pin=1"/></net>

<net id="215"><net_src comp="2" pin="0"/><net_sink comp="212" pin=0"/></net>

<net id="216"><net_src comp="212" pin="1"/><net_sink comp="121" pin=1"/></net>

<net id="220"><net_src comp="4" pin="0"/><net_sink comp="217" pin=0"/></net>

<net id="221"><net_src comp="217" pin="1"/><net_sink comp="130" pin=1"/></net>

<net id="230"><net_src comp="68" pin="0"/><net_sink comp="222" pin=0"/></net>

<net id="231"><net_src comp="130" pin="4"/><net_sink comp="222" pin=3"/></net>

<net id="232"><net_src comp="121" pin="4"/><net_sink comp="222" pin=5"/></net>

<net id="233"><net_src comp="222" pin="6"/><net_sink comp="90" pin=2"/></net>

<net id="238"><net_src comp="2" pin="0"/><net_sink comp="234" pin=1"/></net>

<net id="243"><net_src comp="4" pin="0"/><net_sink comp="239" pin=1"/></net>

<net id="248"><net_src comp="113" pin="4"/><net_sink comp="244" pin=0"/></net>

<net id="249"><net_src comp="8" pin="0"/><net_sink comp="244" pin=1"/></net>

<net id="257"><net_src comp="72" pin="0"/><net_sink comp="250" pin=0"/></net>

<net id="258"><net_src comp="74" pin="0"/><net_sink comp="250" pin=1"/></net>

<net id="259"><net_src comp="130" pin="4"/><net_sink comp="250" pin=2"/></net>

<net id="260"><net_src comp="44" pin="0"/><net_sink comp="250" pin=3"/></net>

<net id="261"><net_src comp="121" pin="4"/><net_sink comp="250" pin=4"/></net>

<net id="262"><net_src comp="250" pin="5"/><net_sink comp="90" pin=2"/></net>

<net id="266"><net_src comp="139" pin="1"/><net_sink comp="263" pin=0"/></net>

<net id="270"><net_src comp="76" pin="3"/><net_sink comp="267" pin=0"/></net>

<net id="274"><net_src comp="143" pin="1"/><net_sink comp="271" pin=0"/></net>

<net id="275"><net_src comp="271" pin="1"/><net_sink comp="234" pin=0"/></net>

<net id="279"><net_src comp="147" pin="4"/><net_sink comp="276" pin=0"/></net>

<net id="280"><net_src comp="276" pin="1"/><net_sink comp="239" pin=0"/></net>

<net id="284"><net_src comp="157" pin="3"/><net_sink comp="281" pin=0"/></net>

<net id="288"><net_src comp="165" pin="1"/><net_sink comp="285" pin=0"/></net>

<net id="292"><net_src comp="169" pin="1"/><net_sink comp="289" pin=0"/></net>

<net id="293"><net_src comp="289" pin="1"/><net_sink comp="222" pin=4"/></net>

<net id="297"><net_src comp="173" pin="4"/><net_sink comp="294" pin=0"/></net>

<net id="298"><net_src comp="294" pin="1"/><net_sink comp="222" pin=2"/></net>

<net id="302"><net_src comp="193" pin="2"/><net_sink comp="299" pin=0"/></net>

<net id="303"><net_src comp="299" pin="1"/><net_sink comp="222" pin=1"/></net>

</net_list>

</model> 
---------------- Datapath Model END ------------------

* FSMD analyzer results:
  - Output states:
	Port: fsmState | {1 }
	Port: prevWord_data_V_8 | {2 }
	Port: prevWord_keep_V_7 | {2 }
	Port: txEng_tcpPkgBuffer3_s_6 | {}
	Port: rs_firstWord | {2 }
	Port: txEng_tcpPkgBuffer4_s_5 | {2 }
 - Input state : 
	Port: rshiftWordByOctet : fsmState | {1 }
	Port: rshiftWordByOctet : prevWord_data_V_8 | {2 }
	Port: rshiftWordByOctet : prevWord_keep_V_7 | {2 }
	Port: rshiftWordByOctet : txEng_tcpPkgBuffer3_s_6 | {1 }
	Port: rshiftWordByOctet : rs_firstWord | {1 }
	Port: rshiftWordByOctet : txEng_tcpPkgBuffer4_s_5 | {}
  - Chain level:
	State 1
		br_ln447 : 1
		br_ln454 : 1
		tmp_last_V : 1
		p_0256_2_0_i : 2
		br_ln477 : 1
		br_ln481 : 3
	State 2
		p_Result_i : 1
		p_Result_20_i : 1
		tmp_1 : 2
		write_ln472 : 3
		store_ln476 : 1
		p_Result_i_385 : 1
		p_Result_18_i : 1
		tmp_2 : 2
		write_ln498 : 3


============================================================
+ Verbose Summary: Datapath Resource usage 
============================================================

* Functional unit list:
|----------|----------------------|---------|---------|
| Operation|    Functional Unit   |    FF   |   LUT   |
|----------|----------------------|---------|---------|
|   icmp   |   tmp_last_V_fu_193  |    0    |    9    |
|----------|----------------------|---------|---------|
| nbreadreq|  tmp_nbreadreq_fu_76 |    0    |    0    |
|----------|----------------------|---------|---------|
|   read   |   tmp45_read_fu_84   |    0    |    0    |
|----------|----------------------|---------|---------|
|   write  |    grp_write_fu_90   |    0    |    0    |
|----------|----------------------|---------|---------|
|          |      grp_fu_121      |    0    |    0    |
|          |      grp_fu_130      |    0    |    0    |
|partselect|    p_Val2_2_fu_147   |    0    |    0    |
|          | p_Result_21_i_fu_173 |    0    |    0    |
|          | p_Result_22_i_fu_183 |    0    |    0    |
|----------|----------------------|---------|---------|
|   trunc  |   p_Val2_20_fu_143   |    0    |    0    |
|          |  trunc_ln647_fu_169  |    0    |    0    |
|----------|----------------------|---------|---------|
| bitselect|    tmp_143_fu_157    |    0    |    0    |
|----------|----------------------|---------|---------|
|bitconcatenate|     tmp_1_fu_222     |    0    |    0    |
|          |     tmp_2_fu_250     |    0    |    0    |
|----------|----------------------|---------|---------|
|   Total  |                      |    0    |    9    |
|----------|----------------------|---------|---------|

Memories:
N/A

* Register list:
+----------------------------+--------+
|                            |   FF   |
+----------------------------+--------+
|    fsmState_load_reg_263   |    1   |
|     p_0256_2_0_i_reg_97    |    1   |
|    p_Result_21_i_reg_294   |    4   |
|      p_Val2_20_reg_271     |   64   |
|      p_Val2_2_reg_276      |    8   |
|  rs_firstWord_load_reg_285 |    1   |
|rs_firstWord_new_0_i_reg_108|    1   |
|       tmp_143_reg_281      |    1   |
|     tmp_last_V_reg_299     |    1   |
|         tmp_reg_267        |    1   |
|     trunc_ln647_reg_289    |   32   |
+----------------------------+--------+
|            Total           |   115  |
+----------------------------+--------+

* Multiplexer (MUX) list: 
|------------------------------|------|------|------|--------||---------||---------|
|             Comp             |  Pin | Size |  BW  | S x BW ||  Delay  ||   LUT   |
|------------------------------|------|------|------|--------||---------||---------|
|        grp_write_fu_90       |  p2  |   2  |  73  |   146  ||    9    |
| rs_firstWord_new_0_i_reg_108 |  p0  |   2  |   1  |    2   |
|------------------------------|------|------|------|--------||---------||---------|
|             Total            |      |      |      |   148  ||  3.538  ||    9    |
|------------------------------|------|------|------|--------||---------||---------|



* Summary:
+-----------+--------+--------+--------+
|           |  Delay |   FF   |   LUT  |
+-----------+--------+--------+--------+
|  Function |    -   |    0   |    9   |
|   Memory  |    -   |    -   |    -   |
|Multiplexer|    3   |    -   |    9   |
|  Register |    -   |   115  |    -   |
+-----------+--------+--------+--------+
|   Total   |    3   |   115  |   18   |
+-----------+--------+--------+--------+
