

================================================================
== Vivado HLS Report for 'rshiftWordByOctet'
================================================================
* Date:           Sat Dec 12 19:34:34 2020

* Version:        2019.2.1 (Build 2724168 on Thu Dec 05 05:19:09 MST 2019)
* Project:        toe_prj
* Solution:       solution1
* Product family: zynq
* Target device:  xc7z020-clg400-1


================================================================
== Performance Estimates
================================================================
+ Timing: 
    * Summary: 
    +--------+---------+----------+------------+
    |  Clock |  Target | Estimated| Uncertainty|
    +--------+---------+----------+------------+
    |ap_clk  | 6.40 ns | 5.871 ns |   0.80 ns  |
    +--------+---------+----------+------------+

+ Latency: 
    * Summary: 
    +---------+---------+----------+----------+-----+-----+----------+
    |  Latency (cycles) |  Latency (absolute) |  Interval | Pipeline |
    |   min   |   max   |    min   |    max   | min | max |   Type   |
    +---------+---------+----------+----------+-----+-----+----------+
    |        1|        1| 6.400 ns | 6.400 ns |    1|    1| function |
    +---------+---------+----------+----------+-----+-----+----------+

    + Detail: 
        * Instance: 
        N/A

        * Loop: 
        N/A

============================================================
+ Verbose Summary: Synthesis Manager
============================================================
InlineROM: 1
ExposeGlobal: 0
============================================================
+ Verbose Summary: CDFG Model
============================================================
IsTopModel: 0
ResetActiveHigh: 1
IsCombinational: 2
IsDatapathOnly: 0
HasWiredReturn: 1
HasMFsm: 2
HasVarLatency: 0
IsPipeline: 1
IsRtlPipelined: 1
IsInstanceOverlapped: 0
IsDontTouch: 0
HasImplIP: 0
IsGatedGlobalClock: 0

+ Individual pipeline summary: 
  * Pipeline-0: initiation interval (II) = 1, depth = 2


============================================================
+ Verbose Summary: Schedule
============================================================
* Number of FSM states : 2
* Pipeline : 1
  Pipeline-0 : II = 1, D = 2, States = { 1 2 }
* Dataflow Pipeline: 0

* FSM state transitions: 
1 --> 2 
2 --> 

* FSM state operations: 

State 1 <SV = 0> <Delay = 5.87>
ST_1 : Operation 3 [1/1] (0.00ns)   --->   "%fsmState_load = load i1* @fsmState, align 1" [/home/paulrr2/Projects/ece527/babelsoc/fpga-network-stack/hls/toe/tx_engine/../../axi_utils.hpp:447]   --->   Operation 3 'load' 'fsmState_load' <Predicate = true> <Delay = 0.00>
ST_1 : Operation 4 [1/1] (0.00ns)   --->   "br i1 %fsmState_load, label %5, label %0" [/home/paulrr2/Projects/ece527/babelsoc/fpga-network-stack/hls/toe/tx_engine/../../axi_utils.hpp:447]   --->   Operation 4 'br' <Predicate = true> <Delay = 0.00>
ST_1 : Operation 5 [1/1] (0.00ns)   --->   "%tmp = call i1 @_ssdm_op_NbReadReq.ap_fifo.i73P(i73* @txEng_tcpPkgBuffer3_s_6, i32 1) nounwind" [/home/paulrr2/Projects/ece527/babelsoc/fpga-network-stack/hls/toe/tx_engine/../../axi_utils.hpp:450]   --->   Operation 5 'nbreadreq' 'tmp' <Predicate = (!fsmState_load)> <Delay = 0.00> <Core = "FIFO">   --->   Core 32 'FIFO' <Latency = 0> <II = 1> <Delay = 3.63> <Storage> <Opcode : 'read' 'write' 'nbread' 'nbwrite'> <Ports = 0> <Width = 73> <Depth = 2> <FIFO>
ST_1 : Operation 6 [1/1] (0.00ns)   --->   "br i1 %tmp, label %1, label %._crit_edge64.i" [/home/paulrr2/Projects/ece527/babelsoc/fpga-network-stack/hls/toe/tx_engine/../../axi_utils.hpp:450]   --->   Operation 6 'br' <Predicate = (!fsmState_load)> <Delay = 0.00>
ST_1 : Operation 7 [1/1] (2.80ns)   --->   "%tmp45 = call i73 @_ssdm_op_Read.ap_fifo.volatile.i73P(i73* @txEng_tcpPkgBuffer3_s_6) nounwind" [/home/paulrr2/Projects/ece527/babelsoc/fpga-network-stack/hls/toe/tx_engine/../../axi_utils.hpp:452]   --->   Operation 7 'read' 'tmp45' <Predicate = (!fsmState_load & tmp)> <Delay = 2.80> <Core = "FIFO">   --->   Core 32 'FIFO' <Latency = 0> <II = 1> <Delay = 3.63> <Storage> <Opcode : 'read' 'write' 'nbread' 'nbwrite'> <Ports = 0> <Width = 73> <Depth = 2> <FIFO>
ST_1 : Operation 8 [1/1] (0.00ns)   --->   "%p_Val2_20 = trunc i73 %tmp45 to i64" [/home/paulrr2/Projects/ece527/babelsoc/fpga-network-stack/hls/toe/tx_engine/../../axi_utils.hpp:50->/home/paulrr2/Projects/ece527/babelsoc/fpga-network-stack/hls/toe/tx_engine/../../axi_utils.hpp:452]   --->   Operation 8 'trunc' 'p_Val2_20' <Predicate = (!fsmState_load & tmp)> <Delay = 0.00>
ST_1 : Operation 9 [1/1] (0.00ns)   --->   "%p_Val2_2 = call i8 @_ssdm_op_PartSelect.i8.i73.i32.i32(i73 %tmp45, i32 64, i32 71) nounwind" [/home/paulrr2/Projects/ece527/babelsoc/fpga-network-stack/hls/toe/tx_engine/../../axi_utils.hpp:50->/home/paulrr2/Projects/ece527/babelsoc/fpga-network-stack/hls/toe/tx_engine/../../axi_utils.hpp:452]   --->   Operation 9 'partselect' 'p_Val2_2' <Predicate = (!fsmState_load & tmp)> <Delay = 0.00>
ST_1 : Operation 10 [1/1] (0.00ns)   --->   "%tmp_143 = call i1 @_ssdm_op_BitSelect.i1.i73.i32(i73 %tmp45, i32 72)" [/home/paulrr2/Projects/ece527/babelsoc/fpga-network-stack/hls/toe/tx_engine/../../axi_utils.hpp:50->/home/paulrr2/Projects/ece527/babelsoc/fpga-network-stack/hls/toe/tx_engine/../../axi_utils.hpp:452]   --->   Operation 10 'bitselect' 'tmp_143' <Predicate = (!fsmState_load & tmp)> <Delay = 0.00>
ST_1 : Operation 11 [1/1] (0.00ns)   --->   "%rs_firstWord_load = load i1* @rs_firstWord, align 1" [/home/paulrr2/Projects/ece527/babelsoc/fpga-network-stack/hls/toe/tx_engine/../../axi_utils.hpp:454]   --->   Operation 11 'load' 'rs_firstWord_load' <Predicate = (!fsmState_load & tmp)> <Delay = 0.00>
ST_1 : Operation 12 [1/1] (1.76ns)   --->   "br i1 %rs_firstWord_load, label %._crit_edge65.i, label %2" [/home/paulrr2/Projects/ece527/babelsoc/fpga-network-stack/hls/toe/tx_engine/../../axi_utils.hpp:454]   --->   Operation 12 'br' <Predicate = (!fsmState_load & tmp)> <Delay = 1.76>
ST_1 : Operation 13 [1/1] (0.00ns)   --->   "%trunc_ln647 = trunc i73 %tmp45 to i32" [/home/paulrr2/Projects/ece527/babelsoc/fpga-network-stack/hls/toe/tx_engine/../../axi_utils.hpp:463]   --->   Operation 13 'trunc' 'trunc_ln647' <Predicate = (!fsmState_load & tmp & !rs_firstWord_load)> <Delay = 0.00>
ST_1 : Operation 14 [1/1] (0.00ns)   --->   "%p_Result_21_i = call i4 @_ssdm_op_PartSelect.i4.i73.i32.i32(i73 %tmp45, i32 64, i32 67) nounwind" [/home/paulrr2/Projects/ece527/babelsoc/fpga-network-stack/hls/toe/tx_engine/../../axi_utils.hpp:466]   --->   Operation 14 'partselect' 'p_Result_21_i' <Predicate = (!fsmState_load & tmp & !rs_firstWord_load)> <Delay = 0.00>
ST_1 : Operation 15 [1/1] (0.00ns)   --->   "%p_Result_22_i = call i4 @_ssdm_op_PartSelect.i4.i73.i32.i32(i73 %tmp45, i32 68, i32 71) nounwind" [/home/paulrr2/Projects/ece527/babelsoc/fpga-network-stack/hls/toe/tx_engine/../../axi_utils.hpp:468]   --->   Operation 15 'partselect' 'p_Result_22_i' <Predicate = (!fsmState_load & tmp & !rs_firstWord_load)> <Delay = 0.00>
ST_1 : Operation 16 [1/1] (1.30ns)   --->   "%tmp_last_V = icmp eq i4 %p_Result_22_i, 0" [/home/paulrr2/Projects/ece527/babelsoc/fpga-network-stack/hls/toe/tx_engine/../../axi_utils.hpp:468]   --->   Operation 16 'icmp' 'tmp_last_V' <Predicate = (!fsmState_load & tmp & !rs_firstWord_load)> <Delay = 1.30> <Core = "Cmp">   --->   Core 25 'Cmp' <Latency = 0> <II = 1> <Delay = 1.30> <FuncUnit> <Opcode : 'icmp'> <InPorts = 2> <OutPorts = 1>
ST_1 : Operation 17 [1/1] (1.76ns)   --->   "br label %._crit_edge65.i" [/home/paulrr2/Projects/ece527/babelsoc/fpga-network-stack/hls/toe/tx_engine/../../axi_utils.hpp:473]   --->   Operation 17 'br' <Predicate = (!fsmState_load & tmp & !rs_firstWord_load)> <Delay = 1.76>
ST_1 : Operation 18 [1/1] (0.00ns)   --->   "%p_0256_2_0_i = phi i1 [ %tmp_last_V, %2 ], [ false, %1 ]"   --->   Operation 18 'phi' 'p_0256_2_0_i' <Predicate = (!fsmState_load & tmp)> <Delay = 0.00>
ST_1 : Operation 19 [1/1] (1.76ns)   --->   "br i1 %tmp_143, label %3, label %mergeST.i" [/home/paulrr2/Projects/ece527/babelsoc/fpga-network-stack/hls/toe/tx_engine/../../axi_utils.hpp:477]   --->   Operation 19 'br' <Predicate = (!fsmState_load & tmp)> <Delay = 1.76>
ST_1 : Operation 20 [1/1] (0.00ns)   --->   "br i1 %p_0256_2_0_i, label %._crit_edge67.i, label %4" [/home/paulrr2/Projects/ece527/babelsoc/fpga-network-stack/hls/toe/tx_engine/../../axi_utils.hpp:481]   --->   Operation 20 'br' <Predicate = (!fsmState_load & tmp & tmp_143)> <Delay = 0.00>
ST_1 : Operation 21 [1/1] (1.76ns)   --->   "store i1 true, i1* @fsmState, align 1" [/home/paulrr2/Projects/ece527/babelsoc/fpga-network-stack/hls/toe/tx_engine/../../axi_utils.hpp:483]   --->   Operation 21 'store' <Predicate = (!fsmState_load & tmp & tmp_143 & !p_0256_2_0_i)> <Delay = 1.76>
ST_1 : Operation 22 [1/1] (1.76ns)   --->   "br label %mergeST.i" [/home/paulrr2/Projects/ece527/babelsoc/fpga-network-stack/hls/toe/tx_engine/../../axi_utils.hpp:485]   --->   Operation 22 'br' <Predicate = (!fsmState_load & tmp & tmp_143)> <Delay = 1.76>
ST_1 : Operation 23 [1/1] (1.76ns)   --->   "store i1 false, i1* @fsmState, align 1" [/home/paulrr2/Projects/ece527/babelsoc/fpga-network-stack/hls/toe/tx_engine/../../axi_utils.hpp:499]   --->   Operation 23 'store' <Predicate = (fsmState_load)> <Delay = 1.76>

State 2 <SV = 1> <Delay = 2.80>
ST_2 : Operation 24 [1/1] (0.00ns)   --->   "call void (...)* @_ssdm_op_SpecInterface(i73* @txEng_tcpPkgBuffer3_s_6, [8 x i8]* @ap_fifo_str, i32 0, i32 0, [1 x i8]* @p_str, i32 0, i32 0, [1 x i8]* @p_str, [1 x i8]* @p_str, [1 x i8]* @p_str, i32 2, i32 2, i32 16, i32 16, [1 x i8]* @p_str, [1 x i8]* @p_str)"   --->   Operation 24 'specinterface' <Predicate = true> <Delay = 0.00>
ST_2 : Operation 25 [1/1] (0.00ns)   --->   "call void (...)* @_ssdm_op_SpecInterface(i73* @txEng_tcpPkgBuffer4_s_5, [8 x i8]* @ap_fifo_str, i32 0, i32 0, [1 x i8]* @p_str, i32 0, i32 0, [1 x i8]* @p_str, [1 x i8]* @p_str, [1 x i8]* @p_str, i32 2, i32 2, i32 16, i32 16, [1 x i8]* @p_str, [1 x i8]* @p_str)"   --->   Operation 25 'specinterface' <Predicate = true> <Delay = 0.00>
ST_2 : Operation 26 [1/1] (0.00ns)   --->   "call void (...)* @_ssdm_op_SpecPipeline(i32 1, i32 1, i32 1, i32 0, [1 x i8]* @p_str214) nounwind" [/home/paulrr2/Projects/ece527/babelsoc/fpga-network-stack/hls/toe/tx_engine/../../axi_utils.hpp:436]   --->   Operation 26 'specpipeline' <Predicate = true> <Delay = 0.00>
ST_2 : Operation 27 [1/1] (0.00ns)   --->   "%p_Val2_s = load i64* @prevWord_data_V_8, align 8" [/home/paulrr2/Projects/ece527/babelsoc/fpga-network-stack/hls/toe/tx_engine/../../axi_utils.hpp:462]   --->   Operation 27 'load' 'p_Val2_s' <Predicate = true> <Delay = 0.00>
ST_2 : Operation 28 [1/1] (0.00ns)   --->   "%p_Val2_19 = load i8* @prevWord_keep_V_7, align 1" [/home/paulrr2/Projects/ece527/babelsoc/fpga-network-stack/hls/toe/tx_engine/../../axi_utils.hpp:465]   --->   Operation 28 'load' 'p_Val2_19' <Predicate = true> <Delay = 0.00>
ST_2 : Operation 29 [1/1] (0.00ns)   --->   "%p_Result_i = call i32 @_ssdm_op_PartSelect.i32.i64.i32.i32(i64 %p_Val2_s, i32 32, i32 63) nounwind" [/home/paulrr2/Projects/ece527/babelsoc/fpga-network-stack/hls/toe/tx_engine/../../axi_utils.hpp:462]   --->   Operation 29 'partselect' 'p_Result_i' <Predicate = (!fsmState_load & tmp & !rs_firstWord_load)> <Delay = 0.00>
ST_2 : Operation 30 [1/1] (0.00ns)   --->   "%p_Result_20_i = call i4 @_ssdm_op_PartSelect.i4.i8.i32.i32(i8 %p_Val2_19, i32 4, i32 7) nounwind" [/home/paulrr2/Projects/ece527/babelsoc/fpga-network-stack/hls/toe/tx_engine/../../axi_utils.hpp:465]   --->   Operation 30 'partselect' 'p_Result_20_i' <Predicate = (!fsmState_load & tmp & !rs_firstWord_load)> <Delay = 0.00>
ST_2 : Operation 31 [1/1] (0.00ns)   --->   "%tmp_1 = call i73 @_ssdm_op_BitConcatenate.i73.i1.i4.i4.i32.i32(i1 %tmp_last_V, i4 %p_Result_21_i, i4 %p_Result_20_i, i32 %trunc_ln647, i32 %p_Result_i) nounwind" [/home/paulrr2/Projects/ece527/babelsoc/fpga-network-stack/hls/toe/tx_engine/../../axi_utils.hpp:472]   --->   Operation 31 'bitconcatenate' 'tmp_1' <Predicate = (!fsmState_load & tmp & !rs_firstWord_load)> <Delay = 0.00>
ST_2 : Operation 32 [1/1] (2.80ns)   --->   "call void @_ssdm_op_Write.ap_fifo.volatile.i73P(i73* @txEng_tcpPkgBuffer4_s_5, i73 %tmp_1) nounwind" [/home/paulrr2/Projects/ece527/babelsoc/fpga-network-stack/hls/toe/tx_engine/../../axi_utils.hpp:472]   --->   Operation 32 'write' <Predicate = (!fsmState_load & tmp & !rs_firstWord_load)> <Delay = 2.80> <Core = "FIFO">   --->   Core 32 'FIFO' <Latency = 0> <II = 1> <Delay = 3.63> <Storage> <Opcode : 'read' 'write' 'nbread' 'nbwrite'> <Ports = 0> <Width = 73> <Depth = 2> <FIFO>
ST_2 : Operation 33 [1/1] (0.00ns)   --->   "store i64 %p_Val2_20, i64* @prevWord_data_V_8, align 8" [/home/paulrr2/Projects/ece527/babelsoc/fpga-network-stack/hls/toe/tx_engine/../../axi_utils.hpp:50->/home/paulrr2/Projects/ece527/babelsoc/fpga-network-stack/hls/toe/tx_engine/../../axi_utils.hpp:475]   --->   Operation 33 'store' <Predicate = (!fsmState_load & tmp)> <Delay = 0.00>
ST_2 : Operation 34 [1/1] (0.00ns)   --->   "store i8 %p_Val2_2, i8* @prevWord_keep_V_7, align 8" [/home/paulrr2/Projects/ece527/babelsoc/fpga-network-stack/hls/toe/tx_engine/../../axi_utils.hpp:50->/home/paulrr2/Projects/ece527/babelsoc/fpga-network-stack/hls/toe/tx_engine/../../axi_utils.hpp:475]   --->   Operation 34 'store' <Predicate = (!fsmState_load & tmp)> <Delay = 0.00>
ST_2 : Operation 35 [1/1] (0.00ns)   --->   "br label %._crit_edge67.i" [/home/paulrr2/Projects/ece527/babelsoc/fpga-network-stack/hls/toe/tx_engine/../../axi_utils.hpp:484]   --->   Operation 35 'br' <Predicate = (!fsmState_load & tmp & tmp_143 & !p_0256_2_0_i)> <Delay = 0.00>
ST_2 : Operation 36 [1/1] (0.00ns)   --->   "%rs_firstWord_new_0_i = phi i1 [ true, %._crit_edge67.i ], [ false, %._crit_edge65.i ]"   --->   Operation 36 'phi' 'rs_firstWord_new_0_i' <Predicate = (!fsmState_load & tmp)> <Delay = 0.00>
ST_2 : Operation 37 [1/1] (0.00ns)   --->   "store i1 %rs_firstWord_new_0_i, i1* @rs_firstWord, align 1" [/home/paulrr2/Projects/ece527/babelsoc/fpga-network-stack/hls/toe/tx_engine/../../axi_utils.hpp:476]   --->   Operation 37 'store' <Predicate = (!fsmState_load & tmp)> <Delay = 0.00>
ST_2 : Operation 38 [1/1] (0.00ns)   --->   "br label %._crit_edge64.i" [/home/paulrr2/Projects/ece527/babelsoc/fpga-network-stack/hls/toe/tx_engine/../../axi_utils.hpp:487]   --->   Operation 38 'br' <Predicate = (!fsmState_load & tmp)> <Delay = 0.00>
ST_2 : Operation 39 [1/1] (0.00ns)   --->   "br label %"rshiftWordByOctet<net_axis<64>, 64, 53>.exit"" [/home/paulrr2/Projects/ece527/babelsoc/fpga-network-stack/hls/toe/tx_engine/../../axi_utils.hpp:488]   --->   Operation 39 'br' <Predicate = (!fsmState_load)> <Delay = 0.00>
ST_2 : Operation 40 [1/1] (0.00ns)   --->   "%p_Result_i_385 = call i32 @_ssdm_op_PartSelect.i32.i64.i32.i32(i64 %p_Val2_s, i32 32, i32 63) nounwind" [/home/paulrr2/Projects/ece527/babelsoc/fpga-network-stack/hls/toe/tx_engine/../../axi_utils.hpp:490]   --->   Operation 40 'partselect' 'p_Result_i_385' <Predicate = (fsmState_load)> <Delay = 0.00>
ST_2 : Operation 41 [1/1] (0.00ns)   --->   "%p_Result_18_i = call i4 @_ssdm_op_PartSelect.i4.i8.i32.i32(i8 %p_Val2_19, i32 4, i32 7) nounwind" [/home/paulrr2/Projects/ece527/babelsoc/fpga-network-stack/hls/toe/tx_engine/../../axi_utils.hpp:492]   --->   Operation 41 'partselect' 'p_Result_18_i' <Predicate = (fsmState_load)> <Delay = 0.00>
ST_2 : Operation 42 [1/1] (0.00ns)   --->   "%tmp_2 = call i73 @_ssdm_op_BitConcatenate.i73.i5.i4.i32.i32(i5 -16, i4 %p_Result_18_i, i32 0, i32 %p_Result_i_385) nounwind" [/home/paulrr2/Projects/ece527/babelsoc/fpga-network-stack/hls/toe/tx_engine/../../axi_utils.hpp:498]   --->   Operation 42 'bitconcatenate' 'tmp_2' <Predicate = (fsmState_load)> <Delay = 0.00>
ST_2 : Operation 43 [1/1] (2.80ns)   --->   "call void @_ssdm_op_Write.ap_fifo.volatile.i73P(i73* @txEng_tcpPkgBuffer4_s_5, i73 %tmp_2) nounwind" [/home/paulrr2/Projects/ece527/babelsoc/fpga-network-stack/hls/toe/tx_engine/../../axi_utils.hpp:498]   --->   Operation 43 'write' <Predicate = (fsmState_load)> <Delay = 2.80> <Core = "FIFO">   --->   Core 32 'FIFO' <Latency = 0> <II = 1> <Delay = 3.63> <Storage> <Opcode : 'read' 'write' 'nbread' 'nbwrite'> <Ports = 0> <Width = 73> <Depth = 2> <FIFO>
ST_2 : Operation 44 [1/1] (0.00ns)   --->   "br label %"rshiftWordByOctet<net_axis<64>, 64, 53>.exit"" [/home/paulrr2/Projects/ece527/babelsoc/fpga-network-stack/hls/toe/tx_engine/../../axi_utils.hpp:500]   --->   Operation 44 'br' <Predicate = (fsmState_load)> <Delay = 0.00>
ST_2 : Operation 45 [1/1] (0.00ns)   --->   "ret void"   --->   Operation 45 'ret' <Predicate = true> <Delay = 0.00>


============================================================
+ Verbose Summary: Timing violations
============================================================
Target clock period: 6.4ns, clock uncertainty: 0.8ns.

 <State 1>: 5.87ns
The critical path consists of the following:
	fifo read on port 'txEng_tcpPkgBuffer3_s_6' (/home/paulrr2/Projects/ece527/babelsoc/fpga-network-stack/hls/toe/tx_engine/../../axi_utils.hpp:452) [23]  (2.8 ns)
	'icmp' operation ('val', /home/paulrr2/Projects/ece527/babelsoc/fpga-network-stack/hls/toe/tx_engine/../../axi_utils.hpp:468) [35]  (1.3 ns)
	multiplexor before 'phi' operation ('sendWord.last.V') with incoming values : ('val', /home/paulrr2/Projects/ece527/babelsoc/fpga-network-stack/hls/toe/tx_engine/../../axi_utils.hpp:468) [40]  (1.77 ns)
	'phi' operation ('sendWord.last.V') with incoming values : ('val', /home/paulrr2/Projects/ece527/babelsoc/fpga-network-stack/hls/toe/tx_engine/../../axi_utils.hpp:468) [40]  (0 ns)

 <State 2>: 2.8ns
The critical path consists of the following:
	'load' operation ('__Val2__', /home/paulrr2/Projects/ece527/babelsoc/fpga-network-stack/hls/toe/tx_engine/../../axi_utils.hpp:462) on static variable 'prevWord_data_V_8' [16]  (0 ns)
	fifo write on port 'txEng_tcpPkgBuffer4_s_5' (/home/paulrr2/Projects/ece527/babelsoc/fpga-network-stack/hls/toe/tx_engine/../../axi_utils.hpp:498) [61]  (2.8 ns)


============================================================
+ Verbose Summary: Binding
============================================================
N/A
* FSMD analyzer results:
  - Output states:
 - Input state : 
  - Chain level:
	State 1
	State 2


============================================================
+ Verbose Summary: Datapath Resource usage 
============================================================
N/A
