

================================================================
== Vivado HLS Report for 'rxAppMemDataRead_64_s'
================================================================
* Date:           Sat Dec 12 19:35:15 2020

* Version:        2019.2.1 (Build 2724168 on Thu Dec 05 05:19:09 MST 2019)
* Project:        toe_prj
* Solution:       solution1
* Product family: zynq
* Target device:  xc7z020-clg400-1


================================================================
== Performance Estimates
================================================================
+ Timing: 
    * Summary: 
    +--------+---------+----------+------------+
    |  Clock |  Target | Estimated| Uncertainty|
    +--------+---------+----------+------------+
    |ap_clk  | 6.40 ns | 2.800 ns |   0.80 ns  |
    +--------+---------+----------+------------+

+ Latency: 
    * Summary: 
    +---------+---------+-----------+-----------+-----+-----+----------+
    |  Latency (cycles) |   Latency (absolute)  |  Interval | Pipeline |
    |   min   |   max   |    min    |    max    | min | max |   Type   |
    +---------+---------+-----------+-----------+-----+-----+----------+
    |        2|        2| 12.800 ns | 12.800 ns |    1|    1| function |
    +---------+---------+-----------+-----------+-----+-----+----------+

    + Detail: 
        * Instance: 
        N/A

        * Loop: 
        N/A



================================================================
== Utilization Estimates
================================================================
* Summary: 
+-----------------+---------+-------+--------+-------+-----+
|       Name      | BRAM_18K| DSP48E|   FF   |  LUT  | URAM|
+-----------------+---------+-------+--------+-------+-----+
|DSP              |        -|      -|       -|      -|    -|
|Expression       |        -|      -|       0|     28|    -|
|FIFO             |        -|      -|       -|      -|    -|
|Instance         |        -|      -|       -|      -|    -|
|Memory           |        -|      -|       -|      -|    -|
|Multiplexer      |        -|      -|       -|     36|    -|
|Register         |        -|      -|      82|      -|    -|
+-----------------+---------+-------+--------+-------+-----+
|Total            |        0|      0|      82|     64|    0|
+-----------------+---------+-------+--------+-------+-----+
|Available        |      280|    220|  106400|  53200|    0|
+-----------------+---------+-------+--------+-------+-----+
|Utilization (%)  |        0|      0|   ~0   |   ~0  |    0|
+-----------------+---------+-------+--------+-------+-----+

+ Detail: 
    * Instance: 
    N/A

    * DSP48E: 
    N/A

    * Memory: 
    N/A

    * FIFO: 
    N/A

    * Expression: 
    +----------------------------------+----------+-------+---+----+------------+------------+
    |           Variable Name          | Operation| DSP48E| FF| LUT| Bitwidth P0| Bitwidth P1|
    +----------------------------------+----------+-------+---+----+------------+------------+
    |ap_block_state2_io                |    and   |      0|  0|   2|           1|           1|
    |ap_block_state3_io                |    and   |      0|  0|   2|           1|           1|
    |ap_condition_104                  |    and   |      0|  0|   2|           1|           1|
    |ap_condition_159                  |    and   |      0|  0|   2|           1|           1|
    |ap_predicate_op12_read_state1     |    and   |      0|  0|   2|           1|           1|
    |ap_predicate_op17_write_state2    |    and   |      0|  0|   2|           1|           1|
    |ap_predicate_op25_write_state3    |    and   |      0|  0|   2|           1|           1|
    |ap_predicate_op8_read_state1      |    and   |      0|  0|   2|           1|           1|
    |tmp_142_nbreadreq_fu_54_p3        |    and   |      0|  0|   2|           1|           0|
    |tmp_nbreadreq_fu_68_p5            |    and   |      0|  0|   2|           1|           0|
    |ap_block_pp0_stage0_01001         |    or    |      0|  0|   2|           1|           1|
    |ap_block_pp0_stage0_11001         |    or    |      0|  0|   2|           1|           1|
    |ap_block_state1_pp0_stage0_iter0  |    or    |      0|  0|   2|           1|           1|
    |ap_enable_pp0                     |    xor   |      0|  0|   2|           1|           2|
    +----------------------------------+----------+-------+---+----+------------+------------+
    |Total                             |          |      0|  0|  28|          14|          13|
    +----------------------------------+----------+-------+---+----+------------+------------+

    * Multiplexer: 
    +--------------------------------+----+-----------+-----+-----------+
    |              Name              | LUT| Input Size| Bits| Total Bits|
    +--------------------------------+----+-----------+-----+-----------+
    |ap_done                         |   9|          2|    1|          2|
    |m_axis_rx_data_rsp_TDATA_blk_n  |   9|          2|    1|          2|
    |rxBufferReadCmd_V_V_blk_n       |   9|          2|    1|          2|
    |s_axis_rxread_data_TDATA_blk_n  |   9|          2|    1|          2|
    +--------------------------------+----+-----------+-----+-----------+
    |Total                           |  36|          8|    4|          8|
    +--------------------------------+----+-----------+-----+-----------+

    * Register: 
    +--------------------------------------------+----+----+-----+-----------+
    |                    Name                    | FF | LUT| Bits| Const Bits|
    +--------------------------------------------+----+----+-----+-----------+
    |ap_CS_fsm                                   |   1|   0|    1|          0|
    |ap_done_reg                                 |   1|   0|    1|          0|
    |ap_enable_reg_pp0_iter1                     |   1|   0|    1|          0|
    |ap_enable_reg_pp0_iter2                     |   1|   0|    1|          0|
    |ramdr_fsmState_V                            |   1|   0|    1|          0|
    |ramdr_fsmState_V_loa_reg_131                |   1|   0|    1|          0|
    |ramdr_fsmState_V_loa_reg_131_pp0_iter1_reg  |   1|   0|    1|          0|
    |tmp_data_V_reg_143                          |  64|   0|   64|          0|
    |tmp_keep_V_reg_148                          |   8|   0|    8|          0|
    |tmp_last_V_reg_153                          |   1|   0|    1|          0|
    |tmp_reg_139                                 |   1|   0|    1|          0|
    |tmp_reg_139_pp0_iter1_reg                   |   1|   0|    1|          0|
    +--------------------------------------------+----+----+-----+-----------+
    |Total                                       |  82|   0|   82|          0|
    +--------------------------------------------+----+----+-----+-----------+



================================================================
== Interface
================================================================
* Summary: 
+-----------------------------+-----+-----+------------+---------------------------+--------------+
|          RTL Ports          | Dir | Bits|  Protocol  |       Source Object       |    C Type    |
+-----------------------------+-----+-----+------------+---------------------------+--------------+
|ap_clk                       |  in |    1| ap_ctrl_hs |    rxAppMemDataRead<64>   | return value |
|ap_rst                       |  in |    1| ap_ctrl_hs |    rxAppMemDataRead<64>   | return value |
|ap_start                     |  in |    1| ap_ctrl_hs |    rxAppMemDataRead<64>   | return value |
|ap_done                      | out |    1| ap_ctrl_hs |    rxAppMemDataRead<64>   | return value |
|ap_continue                  |  in |    1| ap_ctrl_hs |    rxAppMemDataRead<64>   | return value |
|ap_idle                      | out |    1| ap_ctrl_hs |    rxAppMemDataRead<64>   | return value |
|ap_ready                     | out |    1| ap_ctrl_hs |    rxAppMemDataRead<64>   | return value |
|rxBufferReadCmd_V_V_dout     |  in |    1|   ap_fifo  |    rxBufferReadCmd_V_V    |    pointer   |
|rxBufferReadCmd_V_V_empty_n  |  in |    1|   ap_fifo  |    rxBufferReadCmd_V_V    |    pointer   |
|rxBufferReadCmd_V_V_read     | out |    1|   ap_fifo  |    rxBufferReadCmd_V_V    |    pointer   |
|s_axis_rxread_data_TVALID    |  in |    1|    axis    | rxBufferReadData_V_data_V |    pointer   |
|s_axis_rxread_data_TDATA     |  in |   64|    axis    | rxBufferReadData_V_data_V |    pointer   |
|m_axis_rx_data_rsp_TREADY    |  in |    1|    axis    |     rxDataRsp_V_last_V    |    pointer   |
|m_axis_rx_data_rsp_TVALID    | out |    1|    axis    |     rxDataRsp_V_last_V    |    pointer   |
|m_axis_rx_data_rsp_TLAST     | out |    1|    axis    |     rxDataRsp_V_last_V    |    pointer   |
|s_axis_rxread_data_TREADY    | out |    1|    axis    | rxBufferReadData_V_last_V |    pointer   |
|s_axis_rxread_data_TLAST     |  in |    1|    axis    | rxBufferReadData_V_last_V |    pointer   |
|s_axis_rxread_data_TKEEP     |  in |    8|    axis    | rxBufferReadData_V_keep_V |    pointer   |
|m_axis_rx_data_rsp_TDATA     | out |   64|    axis    |     rxDataRsp_V_data_V    |    pointer   |
|m_axis_rx_data_rsp_TKEEP     | out |    8|    axis    |     rxDataRsp_V_keep_V    |    pointer   |
+-----------------------------+-----+-----+------------+---------------------------+--------------+

============================================================
+ Verbose Summary: Synthesis Manager
============================================================
InlineROM: 1
ExposeGlobal: 0
============================================================
+ Verbose Summary: CDFG Model
============================================================
IsTopModel: 0
ResetActiveHigh: 1
IsCombinational: 2
IsDatapathOnly: 0
HasWiredReturn: 1
HasMFsm: 2
HasVarLatency: 0
IsPipeline: 1
IsRtlPipelined: 1
IsInstanceOverlapped: 0
IsDontTouch: 0
HasImplIP: 0
IsGatedGlobalClock: 0

+ Individual pipeline summary: 
  * Pipeline-0: initiation interval (II) = 1, depth = 3


============================================================
+ Verbose Summary: Schedule
============================================================
* Number of FSM states : 3
* Pipeline : 1
  Pipeline-0 : II = 1, D = 3, States = { 1 2 3 }
* Dataflow Pipeline: 0

* FSM state transitions: 
1 --> 2 
2 --> 3 
3 --> 

* FSM state operations: 

State 1 <SV = 0> <Delay = 2.80>
ST_1 : Operation 4 [1/1] (0.00ns)   --->   "%ramdr_fsmState_V_loa = load i1* @ramdr_fsmState_V, align 1" [/home/paulrr2/Projects/ece527/babelsoc/fpga-network-stack/hls/toe/toe.cpp:327]   --->   Operation 4 'load' 'ramdr_fsmState_V_loa' <Predicate = true> <Delay = 0.00>
ST_1 : Operation 5 [1/1] (0.00ns)   --->   "br i1 %ramdr_fsmState_V_loa, label %2, label %0" [/home/paulrr2/Projects/ece527/babelsoc/fpga-network-stack/hls/toe/toe.cpp:327]   --->   Operation 5 'br' <Predicate = true> <Delay = 0.00>
ST_1 : Operation 6 [1/1] (0.00ns)   --->   "%tmp_142 = call i1 @_ssdm_op_NbReadReq.ap_fifo.i1P(i1* @rxBufferReadCmd_V_V, i32 1)" [/home/paulrr2/Projects/ece527/babelsoc/fpga-network-stack/hls/toe/toe.cpp:330]   --->   Operation 6 'nbreadreq' 'tmp_142' <Predicate = (!ramdr_fsmState_V_loa)> <Delay = 0.00> <Core = "FIFO">   --->   Core 32 'FIFO' <Latency = 0> <II = 1> <Delay = 3.54> <Storage> <Opcode : 'read' 'write' 'nbread' 'nbwrite'> <Ports = 0> <Width = 16> <Depth = 8> <FIFO>
ST_1 : Operation 7 [1/1] (0.00ns)   --->   "br i1 %tmp_142, label %1, label %._crit_edge2.i" [/home/paulrr2/Projects/ece527/babelsoc/fpga-network-stack/hls/toe/toe.cpp:330]   --->   Operation 7 'br' <Predicate = (!ramdr_fsmState_V_loa)> <Delay = 0.00>
ST_1 : Operation 8 [1/1] (2.80ns)   --->   "%tmp_V_0 = call i1 @_ssdm_op_Read.ap_fifo.volatile.i1P(i1* @rxBufferReadCmd_V_V)" [/home/paulrr2/Projects/ece527/babelsoc/fpga-network-stack/hls/toe/toe.cpp:332]   --->   Operation 8 'read' 'tmp_V_0' <Predicate = (!ramdr_fsmState_V_loa & tmp_142)> <Delay = 2.80> <Core = "FIFO">   --->   Core 32 'FIFO' <Latency = 0> <II = 1> <Delay = 3.54> <Storage> <Opcode : 'read' 'write' 'nbread' 'nbwrite'> <Ports = 0> <Width = 16> <Depth = 8> <FIFO>
ST_1 : Operation 9 [1/1] (1.76ns)   --->   "store i1 true, i1* @ramdr_fsmState_V, align 1" [/home/paulrr2/Projects/ece527/babelsoc/fpga-network-stack/hls/toe/toe.cpp:333]   --->   Operation 9 'store' <Predicate = (!ramdr_fsmState_V_loa & tmp_142)> <Delay = 1.76>
ST_1 : Operation 10 [1/1] (0.00ns)   --->   "%tmp = call i1 @_ssdm_op_NbReadReq.axis.i64P.i8P.i1P(i64* %rxBufferReadData_V_data_V, i8* %rxBufferReadData_V_keep_V, i1* %rxBufferReadData_V_last_V, i32 1)" [/home/paulrr2/Projects/ece527/babelsoc/fpga-network-stack/hls/toe/toe.cpp:337]   --->   Operation 10 'nbreadreq' 'tmp' <Predicate = (ramdr_fsmState_V_loa)> <Delay = 0.00> <Core = "AXI4Stream">   --->   Core 5 'AXI4Stream' <Latency = 0> <II = 1> <Delay = 1.00> <Adapter> <Opcode : >
ST_1 : Operation 11 [1/1] (0.00ns)   --->   "br i1 %tmp, label %3, label %._crit_edge3.i" [/home/paulrr2/Projects/ece527/babelsoc/fpga-network-stack/hls/toe/toe.cpp:337]   --->   Operation 11 'br' <Predicate = (ramdr_fsmState_V_loa)> <Delay = 0.00>
ST_1 : Operation 12 [1/1] (0.00ns)   --->   "%empty = call { i64, i8, i1 } @_ssdm_op_Read.axis.volatile.i64P.i8P.i1P(i64* %rxBufferReadData_V_data_V, i8* %rxBufferReadData_V_keep_V, i1* %rxBufferReadData_V_last_V)" [/home/paulrr2/Projects/ece527/babelsoc/fpga-network-stack/hls/toe/toe.cpp:339]   --->   Operation 12 'read' 'empty' <Predicate = (ramdr_fsmState_V_loa & tmp)> <Delay = 0.00> <Core = "AXI4Stream">   --->   Core 5 'AXI4Stream' <Latency = 0> <II = 1> <Delay = 1.00> <Adapter> <Opcode : >
ST_1 : Operation 13 [1/1] (0.00ns)   --->   "%tmp_data_V = extractvalue { i64, i8, i1 } %empty, 0" [/home/paulrr2/Projects/ece527/babelsoc/fpga-network-stack/hls/toe/toe.cpp:339]   --->   Operation 13 'extractvalue' 'tmp_data_V' <Predicate = (ramdr_fsmState_V_loa & tmp)> <Delay = 0.00>
ST_1 : Operation 14 [1/1] (0.00ns)   --->   "%tmp_keep_V = extractvalue { i64, i8, i1 } %empty, 1" [/home/paulrr2/Projects/ece527/babelsoc/fpga-network-stack/hls/toe/toe.cpp:339]   --->   Operation 14 'extractvalue' 'tmp_keep_V' <Predicate = (ramdr_fsmState_V_loa & tmp)> <Delay = 0.00>
ST_1 : Operation 15 [1/1] (0.00ns)   --->   "%tmp_last_V = extractvalue { i64, i8, i1 } %empty, 2" [/home/paulrr2/Projects/ece527/babelsoc/fpga-network-stack/hls/toe/toe.cpp:339]   --->   Operation 15 'extractvalue' 'tmp_last_V' <Predicate = (ramdr_fsmState_V_loa & tmp)> <Delay = 0.00>
ST_1 : Operation 16 [1/1] (1.76ns)   --->   "store i1 false, i1* @ramdr_fsmState_V, align 1" [/home/paulrr2/Projects/ece527/babelsoc/fpga-network-stack/hls/toe/toe.cpp:343]   --->   Operation 16 'store' <Predicate = (ramdr_fsmState_V_loa & tmp & tmp_last_V)> <Delay = 1.76>

State 2 <SV = 1> <Delay = 0.00>
ST_2 : Operation 17 [2/2] (0.00ns)   --->   "call void @_ssdm_op_Write.axis.volatile.i64P.i8P.i1P(i64* %rxDataRsp_V_data_V, i8* %rxDataRsp_V_keep_V, i1* %rxDataRsp_V_last_V, i64 %tmp_data_V, i8 %tmp_keep_V, i1 %tmp_last_V)" [/home/paulrr2/Projects/ece527/babelsoc/fpga-network-stack/hls/toe/toe.cpp:340]   --->   Operation 17 'write' <Predicate = (ramdr_fsmState_V_loa & tmp)> <Delay = 0.00> <Core = "AXI4Stream">   --->   Core 5 'AXI4Stream' <Latency = 0> <II = 1> <Delay = 1.00> <Adapter> <Opcode : >
ST_2 : Operation 18 [1/1] (0.00ns)   --->   "br i1 %tmp_last_V, label %4, label %._crit_edge4.i" [/home/paulrr2/Projects/ece527/babelsoc/fpga-network-stack/hls/toe/toe.cpp:341]   --->   Operation 18 'br' <Predicate = (ramdr_fsmState_V_loa & tmp)> <Delay = 0.00>

State 3 <SV = 2> <Delay = 0.00>
ST_3 : Operation 19 [1/1] (0.00ns)   --->   "call void (...)* @_ssdm_op_SpecInterface(i1* @rxBufferReadCmd_V_V, [8 x i8]* @ap_fifo_str, i32 0, i32 0, [1 x i8]* @p_str, i32 0, i32 0, [1 x i8]* @p_str, [1 x i8]* @p_str, [1 x i8]* @p_str, i32 2, i32 2, i32 16, i32 16, [1 x i8]* @p_str, [1 x i8]* @p_str)"   --->   Operation 19 'specinterface' <Predicate = true> <Delay = 0.00>
ST_3 : Operation 20 [1/1] (0.00ns)   --->   "call void (...)* @_ssdm_op_SpecInterface(i64* %rxDataRsp_V_data_V, i8* %rxDataRsp_V_keep_V, i1* %rxDataRsp_V_last_V, [5 x i8]* @p_str27, i32 1, i32 1, [5 x i8]* @p_str28, i32 0, i32 0, [1 x i8]* @p_str, [1 x i8]* @p_str, [1 x i8]* @p_str, i32 0, i32 0, i32 0, i32 0, [19 x i8]* @p_str47, [1 x i8]* @p_str) nounwind"   --->   Operation 20 'specinterface' <Predicate = true> <Delay = 0.00>
ST_3 : Operation 21 [1/1] (0.00ns)   --->   "call void (...)* @_ssdm_op_SpecInterface(i64* %rxBufferReadData_V_data_V, i8* %rxBufferReadData_V_keep_V, i1* %rxBufferReadData_V_last_V, [5 x i8]* @p_str27, i32 1, i32 1, [5 x i8]* @p_str28, i32 0, i32 0, [1 x i8]* @p_str, [1 x i8]* @p_str, [1 x i8]* @p_str, i32 0, i32 0, i32 0, i32 0, [19 x i8]* @p_str32, [1 x i8]* @p_str) nounwind"   --->   Operation 21 'specinterface' <Predicate = true> <Delay = 0.00>
ST_3 : Operation 22 [1/1] (0.00ns)   --->   "call void (...)* @_ssdm_op_SpecPipeline(i32 1, i32 1, i32 1, i32 0, [1 x i8]* @p_str) nounwind" [/home/paulrr2/Projects/ece527/babelsoc/fpga-network-stack/hls/toe/toe.cpp:322]   --->   Operation 22 'specpipeline' <Predicate = true> <Delay = 0.00>
ST_3 : Operation 23 [1/1] (0.00ns)   --->   "br label %._crit_edge2.i" [/home/paulrr2/Projects/ece527/babelsoc/fpga-network-stack/hls/toe/toe.cpp:334]   --->   Operation 23 'br' <Predicate = (!ramdr_fsmState_V_loa & tmp_142)> <Delay = 0.00>
ST_3 : Operation 24 [1/1] (0.00ns)   --->   "br label %"rxAppMemDataRead<64>.exit"" [/home/paulrr2/Projects/ece527/babelsoc/fpga-network-stack/hls/toe/toe.cpp:335]   --->   Operation 24 'br' <Predicate = (!ramdr_fsmState_V_loa)> <Delay = 0.00>
ST_3 : Operation 25 [1/2] (0.00ns)   --->   "call void @_ssdm_op_Write.axis.volatile.i64P.i8P.i1P(i64* %rxDataRsp_V_data_V, i8* %rxDataRsp_V_keep_V, i1* %rxDataRsp_V_last_V, i64 %tmp_data_V, i8 %tmp_keep_V, i1 %tmp_last_V)" [/home/paulrr2/Projects/ece527/babelsoc/fpga-network-stack/hls/toe/toe.cpp:340]   --->   Operation 25 'write' <Predicate = (ramdr_fsmState_V_loa & tmp)> <Delay = 0.00> <Core = "AXI4Stream">   --->   Core 5 'AXI4Stream' <Latency = 0> <II = 1> <Delay = 1.00> <Adapter> <Opcode : >
ST_3 : Operation 26 [1/1] (0.00ns)   --->   "br label %._crit_edge4.i" [/home/paulrr2/Projects/ece527/babelsoc/fpga-network-stack/hls/toe/toe.cpp:344]   --->   Operation 26 'br' <Predicate = (ramdr_fsmState_V_loa & tmp & tmp_last_V)> <Delay = 0.00>
ST_3 : Operation 27 [1/1] (0.00ns)   --->   "br label %._crit_edge3.i" [/home/paulrr2/Projects/ece527/babelsoc/fpga-network-stack/hls/toe/toe.cpp:345]   --->   Operation 27 'br' <Predicate = (ramdr_fsmState_V_loa & tmp)> <Delay = 0.00>
ST_3 : Operation 28 [1/1] (0.00ns)   --->   "br label %"rxAppMemDataRead<64>.exit"" [/home/paulrr2/Projects/ece527/babelsoc/fpga-network-stack/hls/toe/toe.cpp:346]   --->   Operation 28 'br' <Predicate = (ramdr_fsmState_V_loa)> <Delay = 0.00>
ST_3 : Operation 29 [1/1] (0.00ns)   --->   "ret void"   --->   Operation 29 'ret' <Predicate = true> <Delay = 0.00>


============================================================
+ Verbose Summary: Binding
============================================================
STG Binding: 
---------------- STG Properties BEGIN ----------------
- Is combinational: 0
- Is one-state seq: 0
- Is datapath-only: 0
- Is pipelined: 1
- Is top level: 0
Port [ Return ] is wired: 1; IO mode=ap_ctrl_hs:ce=0
Port [ rxBufferReadData_V_data_V]:  wired=1; compound=1; hidden=0; nouse=0; global=0; static=0; extern=0; dir=0; type=0; pingpong=0; private_global=0; IO mode=axis:ce=0
Port [ rxBufferReadData_V_keep_V]:  wired=1; compound=1; hidden=0; nouse=0; global=0; static=0; extern=0; dir=0; type=0; pingpong=0; private_global=0; IO mode=axis:ce=0
Port [ rxBufferReadData_V_last_V]:  wired=1; compound=1; hidden=0; nouse=0; global=0; static=0; extern=0; dir=0; type=0; pingpong=0; private_global=0; IO mode=axis:ce=0
Port [ rxDataRsp_V_data_V]:  wired=1; compound=1; hidden=0; nouse=0; global=0; static=0; extern=0; dir=1; type=0; pingpong=0; private_global=0; IO mode=axis:ce=0
Port [ rxDataRsp_V_keep_V]:  wired=1; compound=1; hidden=0; nouse=0; global=0; static=0; extern=0; dir=1; type=0; pingpong=0; private_global=0; IO mode=axis:ce=0
Port [ rxDataRsp_V_last_V]:  wired=1; compound=1; hidden=0; nouse=0; global=0; static=0; extern=0; dir=1; type=0; pingpong=0; private_global=0; IO mode=axis:ce=0
Port [ ramdr_fsmState_V]:  wired=0; compound=0; hidden=1; nouse=0; global=1; static=1; extern=0; dir=2; type=0; pingpong=0; private_global=1; linkage=7; visibility=0; IO mode=ap_ovld:ce=0
Port [ rxBufferReadCmd_V_V]:  wired=1; compound=1; hidden=0; nouse=0; global=1; static=1; extern=0; dir=0; type=3; pingpong=0; private_global=0; linkage=7; visibility=0; IO mode=ap_fifo:ce=0
---------------- STG Properties END ------------------

---------------- Datapath Model BEGIN ----------------

<LifeTime>
<method=bitvector/>
ramdr_fsmState_V_loa (load         ) [ 0111]
br_ln327             (br           ) [ 0000]
tmp_142              (nbreadreq    ) [ 0111]
br_ln330             (br           ) [ 0000]
tmp_V_0              (read         ) [ 0000]
store_ln333          (store        ) [ 0000]
tmp                  (nbreadreq    ) [ 0111]
br_ln337             (br           ) [ 0000]
empty                (read         ) [ 0000]
tmp_data_V           (extractvalue ) [ 0111]
tmp_keep_V           (extractvalue ) [ 0111]
tmp_last_V           (extractvalue ) [ 0111]
store_ln343          (store        ) [ 0000]
br_ln341             (br           ) [ 0000]
specinterface_ln0    (specinterface) [ 0000]
specinterface_ln0    (specinterface) [ 0000]
specinterface_ln0    (specinterface) [ 0000]
specpipeline_ln322   (specpipeline ) [ 0000]
br_ln334             (br           ) [ 0000]
br_ln335             (br           ) [ 0000]
write_ln340          (write        ) [ 0000]
br_ln344             (br           ) [ 0000]
br_ln345             (br           ) [ 0000]
br_ln346             (br           ) [ 0000]
ret_ln0              (ret          ) [ 0000]
</LifeTime>

<model>

<comp_list>
<comp id="0" class="1000" name="rxBufferReadData_V_data_V">
<pin_list>
<pin id="1" dir="1" index="0" bw="1" slack="0"/>
</pin_list>
<bind>
<StgValue><ssdm name="rxBufferReadData_V_data_V"/></StgValue>
</bind>
</comp>

<comp id="2" class="1000" name="rxBufferReadData_V_keep_V">
<pin_list>
<pin id="3" dir="1" index="0" bw="1" slack="0"/>
</pin_list>
<bind>
<StgValue><ssdm name="rxBufferReadData_V_keep_V"/></StgValue>
</bind>
</comp>

<comp id="4" class="1000" name="rxBufferReadData_V_last_V">
<pin_list>
<pin id="5" dir="1" index="0" bw="1" slack="0"/>
</pin_list>
<bind>
<StgValue><ssdm name="rxBufferReadData_V_last_V"/></StgValue>
</bind>
</comp>

<comp id="6" class="1000" name="rxDataRsp_V_data_V">
<pin_list>
<pin id="7" dir="1" index="0" bw="1" slack="0"/>
</pin_list>
<bind>
<StgValue><ssdm name="rxDataRsp_V_data_V"/></StgValue>
</bind>
</comp>

<comp id="8" class="1000" name="rxDataRsp_V_keep_V">
<pin_list>
<pin id="9" dir="1" index="0" bw="1" slack="0"/>
</pin_list>
<bind>
<StgValue><ssdm name="rxDataRsp_V_keep_V"/></StgValue>
</bind>
</comp>

<comp id="10" class="1000" name="rxDataRsp_V_last_V">
<pin_list>
<pin id="11" dir="1" index="0" bw="1" slack="0"/>
</pin_list>
<bind>
<StgValue><ssdm name="rxDataRsp_V_last_V"/></StgValue>
</bind>
</comp>

<comp id="12" class="1000" name="ramdr_fsmState_V">
<pin_list>
<pin id="13" dir="1" index="0" bw="1" slack="0"/>
</pin_list>
<bind>
<StgValue><ssdm name="ramdr_fsmState_V"/></StgValue>
</bind>
</comp>

<comp id="14" class="1000" name="rxBufferReadCmd_V_V">
<pin_list>
<pin id="15" dir="1" index="0" bw="1" slack="0"/>
</pin_list>
<bind>
<StgValue><ssdm name="rxBufferReadCmd_V_V"/></StgValue>
</bind>
</comp>

<comp id="16" class="1001" name="const_16">
<pin_list>
<pin id="17" dir="1" index="0" bw="1" slack="0"/>
</pin_list>
<bind>
<StgValue><ssdm name="_ssdm_op_NbReadReq.ap_fifo.i1P"/></StgValue>
</bind>
</comp>

<comp id="18" class="1001" name="const_18">
<pin_list>
<pin id="19" dir="1" index="0" bw="1" slack="0"/>
</pin_list>
<bind>
<StgValue><ssdm name=""/></StgValue>
</bind>
</comp>

<comp id="20" class="1001" name="const_20">
<pin_list>
<pin id="21" dir="1" index="0" bw="1" slack="0"/>
</pin_list>
<bind>
<StgValue><ssdm name="_ssdm_op_Read.ap_fifo.volatile.i1P"/></StgValue>
</bind>
</comp>

<comp id="22" class="1001" name="const_22">
<pin_list>
<pin id="23" dir="1" index="0" bw="1" slack="0"/>
</pin_list>
<bind>
<StgValue><ssdm name=""/></StgValue>
</bind>
</comp>

<comp id="24" class="1001" name="const_24">
<pin_list>
<pin id="25" dir="1" index="0" bw="1" slack="0"/>
</pin_list>
<bind>
<StgValue><ssdm name="_ssdm_op_NbReadReq.axis.i64P.i8P.i1P"/></StgValue>
</bind>
</comp>

<comp id="26" class="1001" name="const_26">
<pin_list>
<pin id="27" dir="1" index="0" bw="1" slack="0"/>
</pin_list>
<bind>
<StgValue><ssdm name="_ssdm_op_Read.axis.volatile.i64P.i8P.i1P"/></StgValue>
</bind>
</comp>

<comp id="28" class="1001" name="const_28">
<pin_list>
<pin id="29" dir="1" index="0" bw="1" slack="0"/>
</pin_list>
<bind>
<StgValue><ssdm name=""/></StgValue>
</bind>
</comp>

<comp id="30" class="1001" name="const_30">
<pin_list>
<pin id="31" dir="1" index="0" bw="1" slack="0"/>
</pin_list>
<bind>
<StgValue><ssdm name="_ssdm_op_Write.axis.volatile.i64P.i8P.i1P"/></StgValue>
</bind>
</comp>

<comp id="32" class="1001" name="const_32">
<pin_list>
<pin id="33" dir="1" index="0" bw="1" slack="2147483647"/>
</pin_list>
<bind>
<StgValue><ssdm name="_ssdm_op_SpecInterface"/></StgValue>
</bind>
</comp>

<comp id="34" class="1001" name="const_34">
<pin_list>
<pin id="35" dir="1" index="0" bw="1" slack="2147483647"/>
</pin_list>
<bind>
<StgValue><ssdm name="ap_fifo_str"/></StgValue>
</bind>
</comp>

<comp id="36" class="1001" name="const_36">
<pin_list>
<pin id="37" dir="1" index="0" bw="1" slack="2147483647"/>
</pin_list>
<bind>
<StgValue><ssdm name=""/></StgValue>
</bind>
</comp>

<comp id="38" class="1001" name="const_38">
<pin_list>
<pin id="39" dir="1" index="0" bw="1" slack="2147483647"/>
</pin_list>
<bind>
<StgValue><ssdm name="p_str"/></StgValue>
</bind>
</comp>

<comp id="40" class="1001" name="const_40">
<pin_list>
<pin id="41" dir="1" index="0" bw="1" slack="2147483647"/>
</pin_list>
<bind>
<StgValue><ssdm name=""/></StgValue>
</bind>
</comp>

<comp id="42" class="1001" name="const_42">
<pin_list>
<pin id="43" dir="1" index="0" bw="1" slack="2147483647"/>
</pin_list>
<bind>
<StgValue><ssdm name=""/></StgValue>
</bind>
</comp>

<comp id="44" class="1001" name="const_44">
<pin_list>
<pin id="45" dir="1" index="0" bw="1" slack="2147483647"/>
</pin_list>
<bind>
<StgValue><ssdm name="p_str27"/></StgValue>
</bind>
</comp>

<comp id="46" class="1001" name="const_46">
<pin_list>
<pin id="47" dir="1" index="0" bw="1" slack="2147483647"/>
</pin_list>
<bind>
<StgValue><ssdm name="p_str28"/></StgValue>
</bind>
</comp>

<comp id="48" class="1001" name="const_48">
<pin_list>
<pin id="49" dir="1" index="0" bw="1" slack="2147483647"/>
</pin_list>
<bind>
<StgValue><ssdm name="p_str47"/></StgValue>
</bind>
</comp>

<comp id="50" class="1001" name="const_50">
<pin_list>
<pin id="51" dir="1" index="0" bw="1" slack="2147483647"/>
</pin_list>
<bind>
<StgValue><ssdm name="p_str32"/></StgValue>
</bind>
</comp>

<comp id="52" class="1001" name="const_52">
<pin_list>
<pin id="53" dir="1" index="0" bw="1" slack="2147483647"/>
</pin_list>
<bind>
<StgValue><ssdm name="_ssdm_op_SpecPipeline"/></StgValue>
</bind>
</comp>

<comp id="54" class="1004" name="tmp_142_nbreadreq_fu_54">
<pin_list>
<pin id="55" dir="0" index="0" bw="1" slack="0"/>
<pin id="56" dir="0" index="1" bw="1" slack="0"/>
<pin id="57" dir="0" index="2" bw="1" slack="0"/>
<pin id="58" dir="1" index="3" bw="1" slack="2"/>
</pin_list>
<bind>
<opcode="nbreadreq(1156) " fcode="nbreadreq"/>
<opset="tmp_142/1 "/>
</bind>
</comp>

<comp id="62" class="1004" name="tmp_V_0_read_fu_62">
<pin_list>
<pin id="63" dir="0" index="0" bw="1" slack="0"/>
<pin id="64" dir="0" index="1" bw="1" slack="0"/>
<pin id="65" dir="1" index="2" bw="1" slack="2147483647"/>
</pin_list>
<bind>
<opcode="read(1150) " fcode="read"/>
<opset="tmp_V_0/1 "/>
</bind>
</comp>

<comp id="68" class="1004" name="tmp_nbreadreq_fu_68">
<pin_list>
<pin id="69" dir="0" index="0" bw="1" slack="0"/>
<pin id="70" dir="0" index="1" bw="64" slack="0"/>
<pin id="71" dir="0" index="2" bw="8" slack="0"/>
<pin id="72" dir="0" index="3" bw="1" slack="0"/>
<pin id="73" dir="0" index="4" bw="1" slack="0"/>
<pin id="74" dir="1" index="5" bw="1" slack="1"/>
</pin_list>
<bind>
<opcode="nbreadreq(1156) " fcode="nbreadreq"/>
<opset="tmp/1 "/>
</bind>
</comp>

<comp id="80" class="1004" name="empty_read_fu_80">
<pin_list>
<pin id="81" dir="0" index="0" bw="73" slack="0"/>
<pin id="82" dir="0" index="1" bw="64" slack="0"/>
<pin id="83" dir="0" index="2" bw="8" slack="0"/>
<pin id="84" dir="0" index="3" bw="1" slack="0"/>
<pin id="85" dir="1" index="4" bw="73" slack="0"/>
</pin_list>
<bind>
<opcode="read(1150) " fcode="read"/>
<opset="empty/1 "/>
</bind>
</comp>

<comp id="90" class="1004" name="grp_write_fu_90">
<pin_list>
<pin id="91" dir="0" index="0" bw="0" slack="0"/>
<pin id="92" dir="0" index="1" bw="64" slack="0"/>
<pin id="93" dir="0" index="2" bw="8" slack="0"/>
<pin id="94" dir="0" index="3" bw="1" slack="0"/>
<pin id="95" dir="0" index="4" bw="64" slack="1"/>
<pin id="96" dir="0" index="5" bw="8" slack="1"/>
<pin id="97" dir="0" index="6" bw="1" slack="1"/>
<pin id="98" dir="1" index="7" bw="0" slack="2147483647"/>
</pin_list>
<bind>
<opcode="write(1151) " fcode="write"/>
<opset="write_ln340/2 "/>
</bind>
</comp>

<comp id="103" class="1004" name="ramdr_fsmState_V_loa_load_fu_103">
<pin_list>
<pin id="104" dir="0" index="0" bw="1" slack="0"/>
<pin id="105" dir="1" index="1" bw="1" slack="1"/>
</pin_list>
<bind>
<opcode="load(27) " fcode="load"/>
<opset="ramdr_fsmState_V_loa/1 "/>
</bind>
</comp>

<comp id="107" class="1004" name="store_ln333_store_fu_107">
<pin_list>
<pin id="108" dir="0" index="0" bw="1" slack="0"/>
<pin id="109" dir="0" index="1" bw="1" slack="0"/>
<pin id="110" dir="1" index="2" bw="0" slack="2147483647"/>
</pin_list>
<bind>
<opcode="store(28) " fcode="store"/>
<opset="store_ln333/1 "/>
</bind>
</comp>

<comp id="113" class="1004" name="tmp_data_V_fu_113">
<pin_list>
<pin id="114" dir="0" index="0" bw="73" slack="0"/>
<pin id="115" dir="1" index="1" bw="64" slack="1"/>
</pin_list>
<bind>
<opcode="extractvalue(56) " fcode="extractvalue"/>
<opset="tmp_data_V/1 "/>
</bind>
</comp>

<comp id="117" class="1004" name="tmp_keep_V_fu_117">
<pin_list>
<pin id="118" dir="0" index="0" bw="73" slack="0"/>
<pin id="119" dir="1" index="1" bw="8" slack="1"/>
</pin_list>
<bind>
<opcode="extractvalue(56) " fcode="extractvalue"/>
<opset="tmp_keep_V/1 "/>
</bind>
</comp>

<comp id="121" class="1004" name="tmp_last_V_fu_121">
<pin_list>
<pin id="122" dir="0" index="0" bw="73" slack="0"/>
<pin id="123" dir="1" index="1" bw="1" slack="1"/>
</pin_list>
<bind>
<opcode="extractvalue(56) " fcode="extractvalue"/>
<opset="tmp_last_V/1 "/>
</bind>
</comp>

<comp id="125" class="1004" name="store_ln343_store_fu_125">
<pin_list>
<pin id="126" dir="0" index="0" bw="1" slack="0"/>
<pin id="127" dir="0" index="1" bw="1" slack="0"/>
<pin id="128" dir="1" index="2" bw="0" slack="2147483647"/>
</pin_list>
<bind>
<opcode="store(28) " fcode="store"/>
<opset="store_ln343/1 "/>
</bind>
</comp>

<comp id="131" class="1005" name="ramdr_fsmState_V_loa_reg_131">
<pin_list>
<pin id="132" dir="0" index="0" bw="1" slack="1"/>
<pin id="133" dir="1" index="1" bw="1" slack="2147483647"/>
</pin_list>
<bind>
<opset="ramdr_fsmState_V_loa "/>
</bind>
</comp>

<comp id="135" class="1005" name="tmp_142_reg_135">
<pin_list>
<pin id="136" dir="0" index="0" bw="1" slack="2"/>
<pin id="137" dir="1" index="1" bw="1" slack="2147483647"/>
</pin_list>
<bind>
<opset="tmp_142 "/>
</bind>
</comp>

<comp id="139" class="1005" name="tmp_reg_139">
<pin_list>
<pin id="140" dir="0" index="0" bw="1" slack="1"/>
<pin id="141" dir="1" index="1" bw="1" slack="2147483647"/>
</pin_list>
<bind>
<opset="tmp "/>
</bind>
</comp>

<comp id="143" class="1005" name="tmp_data_V_reg_143">
<pin_list>
<pin id="144" dir="0" index="0" bw="64" slack="1"/>
<pin id="145" dir="1" index="1" bw="64" slack="1"/>
</pin_list>
<bind>
<opset="tmp_data_V "/>
</bind>
</comp>

<comp id="148" class="1005" name="tmp_keep_V_reg_148">
<pin_list>
<pin id="149" dir="0" index="0" bw="8" slack="1"/>
<pin id="150" dir="1" index="1" bw="8" slack="1"/>
</pin_list>
<bind>
<opset="tmp_keep_V "/>
</bind>
</comp>

<comp id="153" class="1005" name="tmp_last_V_reg_153">
<pin_list>
<pin id="154" dir="0" index="0" bw="1" slack="1"/>
<pin id="155" dir="1" index="1" bw="1" slack="1"/>
</pin_list>
<bind>
<opset="tmp_last_V "/>
</bind>
</comp>

</comp_list>

<net_list>
<net id="59"><net_src comp="16" pin="0"/><net_sink comp="54" pin=0"/></net>

<net id="60"><net_src comp="14" pin="0"/><net_sink comp="54" pin=1"/></net>

<net id="61"><net_src comp="18" pin="0"/><net_sink comp="54" pin=2"/></net>

<net id="66"><net_src comp="20" pin="0"/><net_sink comp="62" pin=0"/></net>

<net id="67"><net_src comp="14" pin="0"/><net_sink comp="62" pin=1"/></net>

<net id="75"><net_src comp="24" pin="0"/><net_sink comp="68" pin=0"/></net>

<net id="76"><net_src comp="0" pin="0"/><net_sink comp="68" pin=1"/></net>

<net id="77"><net_src comp="2" pin="0"/><net_sink comp="68" pin=2"/></net>

<net id="78"><net_src comp="4" pin="0"/><net_sink comp="68" pin=3"/></net>

<net id="79"><net_src comp="18" pin="0"/><net_sink comp="68" pin=4"/></net>

<net id="86"><net_src comp="26" pin="0"/><net_sink comp="80" pin=0"/></net>

<net id="87"><net_src comp="0" pin="0"/><net_sink comp="80" pin=1"/></net>

<net id="88"><net_src comp="2" pin="0"/><net_sink comp="80" pin=2"/></net>

<net id="89"><net_src comp="4" pin="0"/><net_sink comp="80" pin=3"/></net>

<net id="99"><net_src comp="30" pin="0"/><net_sink comp="90" pin=0"/></net>

<net id="100"><net_src comp="6" pin="0"/><net_sink comp="90" pin=1"/></net>

<net id="101"><net_src comp="8" pin="0"/><net_sink comp="90" pin=2"/></net>

<net id="102"><net_src comp="10" pin="0"/><net_sink comp="90" pin=3"/></net>

<net id="106"><net_src comp="12" pin="0"/><net_sink comp="103" pin=0"/></net>

<net id="111"><net_src comp="22" pin="0"/><net_sink comp="107" pin=0"/></net>

<net id="112"><net_src comp="12" pin="0"/><net_sink comp="107" pin=1"/></net>

<net id="116"><net_src comp="80" pin="4"/><net_sink comp="113" pin=0"/></net>

<net id="120"><net_src comp="80" pin="4"/><net_sink comp="117" pin=0"/></net>

<net id="124"><net_src comp="80" pin="4"/><net_sink comp="121" pin=0"/></net>

<net id="129"><net_src comp="28" pin="0"/><net_sink comp="125" pin=0"/></net>

<net id="130"><net_src comp="12" pin="0"/><net_sink comp="125" pin=1"/></net>

<net id="134"><net_src comp="103" pin="1"/><net_sink comp="131" pin=0"/></net>

<net id="138"><net_src comp="54" pin="3"/><net_sink comp="135" pin=0"/></net>

<net id="142"><net_src comp="68" pin="5"/><net_sink comp="139" pin=0"/></net>

<net id="146"><net_src comp="113" pin="1"/><net_sink comp="143" pin=0"/></net>

<net id="147"><net_src comp="143" pin="1"/><net_sink comp="90" pin=4"/></net>

<net id="151"><net_src comp="117" pin="1"/><net_sink comp="148" pin=0"/></net>

<net id="152"><net_src comp="148" pin="1"/><net_sink comp="90" pin=5"/></net>

<net id="156"><net_src comp="121" pin="1"/><net_sink comp="153" pin=0"/></net>

<net id="157"><net_src comp="153" pin="1"/><net_sink comp="90" pin=6"/></net>

</net_list>

</model> 
---------------- Datapath Model END ------------------

* FSMD analyzer results:
  - Output states:
	Port: rxBufferReadData_V_data_V | {}
	Port: rxBufferReadData_V_keep_V | {}
	Port: rxBufferReadData_V_last_V | {}
	Port: rxDataRsp_V_data_V | {3 }
	Port: rxDataRsp_V_keep_V | {3 }
	Port: rxDataRsp_V_last_V | {3 }
	Port: ramdr_fsmState_V | {1 }
	Port: rxBufferReadCmd_V_V | {}
 - Input state : 
	Port: rxAppMemDataRead<64> : rxBufferReadData_V_data_V | {1 }
	Port: rxAppMemDataRead<64> : rxBufferReadData_V_keep_V | {1 }
	Port: rxAppMemDataRead<64> : rxBufferReadData_V_last_V | {1 }
	Port: rxAppMemDataRead<64> : rxDataRsp_V_data_V | {}
	Port: rxAppMemDataRead<64> : rxDataRsp_V_keep_V | {}
	Port: rxAppMemDataRead<64> : rxDataRsp_V_last_V | {}
	Port: rxAppMemDataRead<64> : ramdr_fsmState_V | {1 }
	Port: rxAppMemDataRead<64> : rxBufferReadCmd_V_V | {1 }
  - Chain level:
	State 1
		br_ln327 : 1
	State 2
	State 3


============================================================
+ Verbose Summary: Datapath Resource usage 
============================================================

* Functional unit list:
|----------|-------------------------|
| Operation|     Functional Unit     |
|----------|-------------------------|
| nbreadreq| tmp_142_nbreadreq_fu_54 |
|          |   tmp_nbreadreq_fu_68   |
|----------|-------------------------|
|   read   |    tmp_V_0_read_fu_62   |
|          |     empty_read_fu_80    |
|----------|-------------------------|
|   write  |     grp_write_fu_90     |
|----------|-------------------------|
|          |    tmp_data_V_fu_113    |
|extractvalue|    tmp_keep_V_fu_117    |
|          |    tmp_last_V_fu_121    |
|----------|-------------------------|
|   Total  |                         |
|----------|-------------------------|

Memories:
N/A

* Register list:
+----------------------------+--------+
|                            |   FF   |
+----------------------------+--------+
|ramdr_fsmState_V_loa_reg_131|    1   |
|       tmp_142_reg_135      |    1   |
|     tmp_data_V_reg_143     |   64   |
|     tmp_keep_V_reg_148     |    8   |
|     tmp_last_V_reg_153     |    1   |
|         tmp_reg_139        |    1   |
+----------------------------+--------+
|            Total           |   76   |
+----------------------------+--------+

* Multiplexer (MUX) list: 
|--------|------|------|------|--------|
|  Comp  |  Pin | Size |  BW  | S x BW |
|--------|------|------|------|--------|
|  Total |      |      |      |    0   |
|--------|------|------|------|--------|



* Summary:
+-----------+--------+
|           |   FF   |
+-----------+--------+
|  Function |    -   |
|   Memory  |    -   |
|Multiplexer|    -   |
|  Register |   76   |
+-----------+--------+
|   Total   |   76   |
+-----------+--------+
