

================================================================
== Vivado HLS Report for 'rxMetadataHandler'
================================================================
* Date:           Sat Dec 12 19:34:21 2020

* Version:        2019.2.1 (Build 2724168 on Thu Dec 05 05:19:09 MST 2019)
* Project:        toe_prj
* Solution:       solution1
* Product family: zynq
* Target device:  xc7z020-clg400-1


================================================================
== Performance Estimates
================================================================
+ Timing: 
    * Summary: 
    +--------+---------+----------+------------+
    |  Clock |  Target | Estimated| Uncertainty|
    +--------+---------+----------+------------+
    |ap_clk  | 6.40 ns | 5.734 ns |   0.80 ns  |
    +--------+---------+----------+------------+

+ Latency: 
    * Summary: 
    +---------+---------+----------+----------+-----+-----+----------+
    |  Latency (cycles) |  Latency (absolute) |  Interval | Pipeline |
    |   min   |   max   |    min   |    max   | min | max |   Type   |
    +---------+---------+----------+----------+-----+-----+----------+
    |        1|        1| 6.400 ns | 6.400 ns |    1|    1| function |
    +---------+---------+----------+----------+-----+-----+----------+

    + Detail: 
        * Instance: 
        N/A

        * Loop: 
        N/A

============================================================
+ Verbose Summary: Synthesis Manager
============================================================
InlineROM: 1
ExposeGlobal: 0
============================================================
+ Verbose Summary: CDFG Model
============================================================
IsTopModel: 0
ResetActiveHigh: 1
IsCombinational: 2
IsDatapathOnly: 0
HasWiredReturn: 1
HasMFsm: 2
HasVarLatency: 0
IsPipeline: 1
IsRtlPipelined: 1
IsInstanceOverlapped: 0
IsDontTouch: 0
HasImplIP: 0
IsGatedGlobalClock: 0

+ Individual pipeline summary: 
  * Pipeline-0: initiation interval (II) = 1, depth = 2


============================================================
+ Verbose Summary: Schedule
============================================================
* Number of FSM states : 2
* Pipeline : 1
  Pipeline-0 : II = 1, D = 2, States = { 1 2 }
* Dataflow Pipeline: 0

* FSM state transitions: 
1 --> 2 
2 --> 

* FSM state operations: 

State 1 <SV = 0> <Delay = 5.73>
ST_1 : Operation 3 [1/1] (0.00ns)   --->   "%mh_state_load = load i1* @mh_state, align 1" [/home/paulrr2/Projects/ece527/babelsoc/fpga-network-stack/hls/toe/rx_engine/rx_engine.cpp:860]   --->   Operation 3 'load' 'mh_state_load' <Predicate = true> <Delay = 0.00>
ST_1 : Operation 4 [1/1] (0.00ns)   --->   "%tmp_meta_length_V = load i16* @mh_meta_length_V, align 2" [/home/paulrr2/Projects/ece527/babelsoc/fpga-network-stack/hls/toe/rx_engine/rx_engine.cpp:916]   --->   Operation 4 'load' 'tmp_meta_length_V' <Predicate = true> <Delay = 0.00>
ST_1 : Operation 5 [1/1] (0.00ns)   --->   "br i1 %mh_state_load, label %10, label %0" [/home/paulrr2/Projects/ece527/babelsoc/fpga-network-stack/hls/toe/rx_engine/rx_engine.cpp:860]   --->   Operation 5 'br' <Predicate = true> <Delay = 0.00>
ST_1 : Operation 6 [1/1] (0.00ns)   --->   "%tmp_131 = call i1 @_ssdm_op_NbReadReq.ap_fifo.i108P(i108* @rxEng_metaDataFifo_V, i32 1) nounwind" [/home/paulrr2/Projects/ece527/babelsoc/fpga-network-stack/hls/toe/rx_engine/rx_engine.cpp:863]   --->   Operation 6 'nbreadreq' 'tmp_131' <Predicate = (!mh_state_load)> <Delay = 0.00> <Core = "FIFO">   --->   Core 32 'FIFO' <Latency = 0> <II = 1> <Delay = 3.63> <Storage> <Opcode : 'read' 'write' 'nbread' 'nbwrite'> <Ports = 0> <Width = 1> <Depth = 2> <FIFO>
ST_1 : Operation 7 [1/1] (0.00ns)   --->   "br i1 %tmp_131, label %1, label %._crit_edge39.i" [/home/paulrr2/Projects/ece527/babelsoc/fpga-network-stack/hls/toe/rx_engine/rx_engine.cpp:863]   --->   Operation 7 'br' <Predicate = (!mh_state_load)> <Delay = 0.00>
ST_1 : Operation 8 [1/1] (0.00ns)   --->   "%tmp_133 = call i1 @_ssdm_op_NbReadReq.ap_fifo.i1P(i1* @portTable2rxEng_chec_1, i32 1) nounwind" [/home/paulrr2/Projects/ece527/babelsoc/fpga-network-stack/hls/toe/rx_engine/rx_engine.cpp:863]   --->   Operation 8 'nbreadreq' 'tmp_133' <Predicate = (!mh_state_load & tmp_131)> <Delay = 0.00> <Core = "FIFO">   --->   Core 32 'FIFO' <Latency = 0> <II = 1> <Delay = 3.63> <Storage> <Opcode : 'read' 'write' 'nbread' 'nbwrite'> <Ports = 0> <Width = 1> <Depth = 2> <FIFO>
ST_1 : Operation 9 [1/1] (0.00ns)   --->   "br i1 %tmp_133, label %2, label %._crit_edge39.i" [/home/paulrr2/Projects/ece527/babelsoc/fpga-network-stack/hls/toe/rx_engine/rx_engine.cpp:863]   --->   Operation 9 'br' <Predicate = (!mh_state_load & tmp_131)> <Delay = 0.00>
ST_1 : Operation 10 [1/1] (0.00ns)   --->   "%tmp_134 = call i1 @_ssdm_op_NbReadReq.ap_fifo.i96P(i96* @rxEng_tupleBuffer_V, i32 1) nounwind" [/home/paulrr2/Projects/ece527/babelsoc/fpga-network-stack/hls/toe/rx_engine/rx_engine.cpp:863]   --->   Operation 10 'nbreadreq' 'tmp_134' <Predicate = (!mh_state_load & tmp_131 & tmp_133)> <Delay = 0.00> <Core = "FIFO">   --->   Core 32 'FIFO' <Latency = 0> <II = 1> <Delay = 3.63> <Storage> <Opcode : 'read' 'write' 'nbread' 'nbwrite'> <Ports = 0> <Width = 1> <Depth = 2> <FIFO>
ST_1 : Operation 11 [1/1] (0.00ns)   --->   "br i1 %tmp_134, label %3, label %._crit_edge39.i" [/home/paulrr2/Projects/ece527/babelsoc/fpga-network-stack/hls/toe/rx_engine/rx_engine.cpp:863]   --->   Operation 11 'br' <Predicate = (!mh_state_load & tmp_131 & tmp_133)> <Delay = 0.00>
ST_1 : Operation 12 [1/1] (2.80ns)   --->   "%tmp295 = call i108 @_ssdm_op_Read.ap_fifo.volatile.i108P(i108* @rxEng_metaDataFifo_V) nounwind" [/home/paulrr2/Projects/ece527/babelsoc/fpga-network-stack/hls/toe/rx_engine/rx_engine.cpp:865]   --->   Operation 12 'read' 'tmp295' <Predicate = (!mh_state_load & tmp_131 & tmp_133 & tmp_134)> <Delay = 2.80> <Core = "FIFO">   --->   Core 32 'FIFO' <Latency = 0> <II = 1> <Delay = 3.63> <Storage> <Opcode : 'read' 'write' 'nbread' 'nbwrite'> <Ports = 0> <Width = 1> <Depth = 2> <FIFO>
ST_1 : Operation 13 [1/1] (0.00ns)   --->   "%trunc_ln321 = trunc i108 %tmp295 to i32" [/home/paulrr2/Projects/ece527/babelsoc/fpga-network-stack/hls/toe/rx_engine/rx_engine.hpp:53->/home/paulrr2/Projects/ece527/babelsoc/fpga-network-stack/hls/toe/rx_engine/rx_engine.cpp:865]   --->   Operation 13 'trunc' 'trunc_ln321' <Predicate = (!mh_state_load & tmp_131 & tmp_133 & tmp_134)> <Delay = 0.00>
ST_1 : Operation 14 [1/1] (0.00ns)   --->   "store i32 %trunc_ln321, i32* @mh_meta_seqNumb_V, align 4" [/home/paulrr2/Projects/ece527/babelsoc/fpga-network-stack/hls/toe/rx_engine/rx_engine.hpp:53->/home/paulrr2/Projects/ece527/babelsoc/fpga-network-stack/hls/toe/rx_engine/rx_engine.cpp:865]   --->   Operation 14 'store' <Predicate = (!mh_state_load & tmp_131 & tmp_133 & tmp_134)> <Delay = 0.00>
ST_1 : Operation 15 [1/1] (0.00ns)   --->   "%tmp_ackNumb_V_load_n = call i32 @_ssdm_op_PartSelect.i32.i108.i32.i32(i108 %tmp295, i32 32, i32 63) nounwind" [/home/paulrr2/Projects/ece527/babelsoc/fpga-network-stack/hls/toe/rx_engine/rx_engine.hpp:53->/home/paulrr2/Projects/ece527/babelsoc/fpga-network-stack/hls/toe/rx_engine/rx_engine.cpp:865]   --->   Operation 15 'partselect' 'tmp_ackNumb_V_load_n' <Predicate = (!mh_state_load & tmp_131 & tmp_133 & tmp_134)> <Delay = 0.00>
ST_1 : Operation 16 [1/1] (0.00ns)   --->   "store i32 %tmp_ackNumb_V_load_n, i32* @mh_meta_ackNumb_V, align 4" [/home/paulrr2/Projects/ece527/babelsoc/fpga-network-stack/hls/toe/rx_engine/rx_engine.hpp:53->/home/paulrr2/Projects/ece527/babelsoc/fpga-network-stack/hls/toe/rx_engine/rx_engine.cpp:865]   --->   Operation 16 'store' <Predicate = (!mh_state_load & tmp_131 & tmp_133 & tmp_134)> <Delay = 0.00>
ST_1 : Operation 17 [1/1] (0.00ns)   --->   "%tmp_winSize_V_load_n = call i16 @_ssdm_op_PartSelect.i16.i108.i32.i32(i108 %tmp295, i32 64, i32 79) nounwind" [/home/paulrr2/Projects/ece527/babelsoc/fpga-network-stack/hls/toe/rx_engine/rx_engine.hpp:53->/home/paulrr2/Projects/ece527/babelsoc/fpga-network-stack/hls/toe/rx_engine/rx_engine.cpp:865]   --->   Operation 17 'partselect' 'tmp_winSize_V_load_n' <Predicate = (!mh_state_load & tmp_131 & tmp_133 & tmp_134)> <Delay = 0.00>
ST_1 : Operation 18 [1/1] (0.00ns)   --->   "store i16 %tmp_winSize_V_load_n, i16* @mh_meta_winSize_V, align 4" [/home/paulrr2/Projects/ece527/babelsoc/fpga-network-stack/hls/toe/rx_engine/rx_engine.hpp:53->/home/paulrr2/Projects/ece527/babelsoc/fpga-network-stack/hls/toe/rx_engine/rx_engine.cpp:865]   --->   Operation 18 'store' <Predicate = (!mh_state_load & tmp_131 & tmp_133 & tmp_134)> <Delay = 0.00>
ST_1 : Operation 19 [1/1] (0.00ns)   --->   "%tmp_winScale_V_load_s = call i4 @_ssdm_op_PartSelect.i4.i108.i32.i32(i108 %tmp295, i32 80, i32 83) nounwind" [/home/paulrr2/Projects/ece527/babelsoc/fpga-network-stack/hls/toe/rx_engine/rx_engine.hpp:53->/home/paulrr2/Projects/ece527/babelsoc/fpga-network-stack/hls/toe/rx_engine/rx_engine.cpp:865]   --->   Operation 19 'partselect' 'tmp_winScale_V_load_s' <Predicate = (!mh_state_load & tmp_131 & tmp_133 & tmp_134)> <Delay = 0.00>
ST_1 : Operation 20 [1/1] (0.00ns)   --->   "store i4 %tmp_winScale_V_load_s, i4* @mh_meta_winScale_V, align 2" [/home/paulrr2/Projects/ece527/babelsoc/fpga-network-stack/hls/toe/rx_engine/rx_engine.hpp:53->/home/paulrr2/Projects/ece527/babelsoc/fpga-network-stack/hls/toe/rx_engine/rx_engine.cpp:865]   --->   Operation 20 'store' <Predicate = (!mh_state_load & tmp_131 & tmp_133 & tmp_134)> <Delay = 0.00>
ST_1 : Operation 21 [1/1] (0.00ns)   --->   "%tmp_length_V_load_ne = call i16 @_ssdm_op_PartSelect.i16.i108.i32.i32(i108 %tmp295, i32 84, i32 99) nounwind" [/home/paulrr2/Projects/ece527/babelsoc/fpga-network-stack/hls/toe/rx_engine/rx_engine.hpp:53->/home/paulrr2/Projects/ece527/babelsoc/fpga-network-stack/hls/toe/rx_engine/rx_engine.cpp:865]   --->   Operation 21 'partselect' 'tmp_length_V_load_ne' <Predicate = (!mh_state_load & tmp_131 & tmp_133 & tmp_134)> <Delay = 0.00>
ST_1 : Operation 22 [1/1] (0.00ns)   --->   "store i16 %tmp_length_V_load_ne, i16* @mh_meta_length_V, align 4" [/home/paulrr2/Projects/ece527/babelsoc/fpga-network-stack/hls/toe/rx_engine/rx_engine.hpp:53->/home/paulrr2/Projects/ece527/babelsoc/fpga-network-stack/hls/toe/rx_engine/rx_engine.cpp:865]   --->   Operation 22 'store' <Predicate = (!mh_state_load & tmp_131 & tmp_133 & tmp_134)> <Delay = 0.00>
ST_1 : Operation 23 [1/1] (0.00ns)   --->   "%tmp_136 = call i1 @_ssdm_op_BitSelect.i1.i108.i32(i108 %tmp295, i32 100)" [/home/paulrr2/Projects/ece527/babelsoc/fpga-network-stack/hls/toe/rx_engine/rx_engine.hpp:53->/home/paulrr2/Projects/ece527/babelsoc/fpga-network-stack/hls/toe/rx_engine/rx_engine.cpp:865]   --->   Operation 23 'bitselect' 'tmp_136' <Predicate = (!mh_state_load & tmp_131 & tmp_133 & tmp_134)> <Delay = 0.00>
ST_1 : Operation 24 [1/1] (0.00ns)   --->   "store i1 %tmp_136, i1* @mh_meta_ack_V, align 2" [/home/paulrr2/Projects/ece527/babelsoc/fpga-network-stack/hls/toe/rx_engine/rx_engine.hpp:53->/home/paulrr2/Projects/ece527/babelsoc/fpga-network-stack/hls/toe/rx_engine/rx_engine.cpp:865]   --->   Operation 24 'store' <Predicate = (!mh_state_load & tmp_131 & tmp_133 & tmp_134)> <Delay = 0.00>
ST_1 : Operation 25 [1/1] (0.00ns)   --->   "%tmp_137 = call i1 @_ssdm_op_BitSelect.i1.i108.i32(i108 %tmp295, i32 101)" [/home/paulrr2/Projects/ece527/babelsoc/fpga-network-stack/hls/toe/rx_engine/rx_engine.hpp:53->/home/paulrr2/Projects/ece527/babelsoc/fpga-network-stack/hls/toe/rx_engine/rx_engine.cpp:865]   --->   Operation 25 'bitselect' 'tmp_137' <Predicate = (!mh_state_load & tmp_131 & tmp_133 & tmp_134)> <Delay = 0.00>
ST_1 : Operation 26 [1/1] (0.00ns)   --->   "store i1 %tmp_137, i1* @mh_meta_rst_V, align 1" [/home/paulrr2/Projects/ece527/babelsoc/fpga-network-stack/hls/toe/rx_engine/rx_engine.hpp:53->/home/paulrr2/Projects/ece527/babelsoc/fpga-network-stack/hls/toe/rx_engine/rx_engine.cpp:865]   --->   Operation 26 'store' <Predicate = (!mh_state_load & tmp_131 & tmp_133 & tmp_134)> <Delay = 0.00>
ST_1 : Operation 27 [1/1] (0.00ns)   --->   "%tmp_138 = call i1 @_ssdm_op_BitSelect.i1.i108.i32(i108 %tmp295, i32 102)" [/home/paulrr2/Projects/ece527/babelsoc/fpga-network-stack/hls/toe/rx_engine/rx_engine.hpp:53->/home/paulrr2/Projects/ece527/babelsoc/fpga-network-stack/hls/toe/rx_engine/rx_engine.cpp:865]   --->   Operation 27 'bitselect' 'tmp_138' <Predicate = (!mh_state_load & tmp_131 & tmp_133 & tmp_134)> <Delay = 0.00>
ST_1 : Operation 28 [1/1] (0.00ns)   --->   "store i1 %tmp_138, i1* @mh_meta_syn_V, align 4" [/home/paulrr2/Projects/ece527/babelsoc/fpga-network-stack/hls/toe/rx_engine/rx_engine.hpp:53->/home/paulrr2/Projects/ece527/babelsoc/fpga-network-stack/hls/toe/rx_engine/rx_engine.cpp:865]   --->   Operation 28 'store' <Predicate = (!mh_state_load & tmp_131 & tmp_133 & tmp_134)> <Delay = 0.00>
ST_1 : Operation 29 [1/1] (0.00ns)   --->   "%tmp_139 = call i1 @_ssdm_op_BitSelect.i1.i108.i32(i108 %tmp295, i32 103)" [/home/paulrr2/Projects/ece527/babelsoc/fpga-network-stack/hls/toe/rx_engine/rx_engine.hpp:53->/home/paulrr2/Projects/ece527/babelsoc/fpga-network-stack/hls/toe/rx_engine/rx_engine.cpp:865]   --->   Operation 29 'bitselect' 'tmp_139' <Predicate = (!mh_state_load & tmp_131 & tmp_133 & tmp_134)> <Delay = 0.00>
ST_1 : Operation 30 [1/1] (0.00ns)   --->   "store i1 %tmp_139, i1* @mh_meta_fin_V, align 1" [/home/paulrr2/Projects/ece527/babelsoc/fpga-network-stack/hls/toe/rx_engine/rx_engine.hpp:53->/home/paulrr2/Projects/ece527/babelsoc/fpga-network-stack/hls/toe/rx_engine/rx_engine.cpp:865]   --->   Operation 30 'store' <Predicate = (!mh_state_load & tmp_131 & tmp_133 & tmp_134)> <Delay = 0.00>
ST_1 : Operation 31 [1/1] (0.00ns)   --->   "%tmp_dataOffset_V_loa = call i4 @_ssdm_op_PartSelect.i4.i108.i32.i32(i108 %tmp295, i32 104, i32 107) nounwind" [/home/paulrr2/Projects/ece527/babelsoc/fpga-network-stack/hls/toe/rx_engine/rx_engine.hpp:53->/home/paulrr2/Projects/ece527/babelsoc/fpga-network-stack/hls/toe/rx_engine/rx_engine.cpp:865]   --->   Operation 31 'partselect' 'tmp_dataOffset_V_loa' <Predicate = (!mh_state_load & tmp_131 & tmp_133 & tmp_134)> <Delay = 0.00>
ST_1 : Operation 32 [1/1] (0.00ns)   --->   "store i4 %tmp_dataOffset_V_loa, i4* @mh_meta_dataOffset_V, align 2" [/home/paulrr2/Projects/ece527/babelsoc/fpga-network-stack/hls/toe/rx_engine/rx_engine.hpp:53->/home/paulrr2/Projects/ece527/babelsoc/fpga-network-stack/hls/toe/rx_engine/rx_engine.cpp:865]   --->   Operation 32 'store' <Predicate = (!mh_state_load & tmp_131 & tmp_133 & tmp_134)> <Delay = 0.00>
ST_1 : Operation 33 [1/1] (2.80ns)   --->   "%tmp_141 = call i1 @_ssdm_op_Read.ap_fifo.volatile.i1P(i1* @portTable2rxEng_chec_1) nounwind" [/home/paulrr2/Projects/ece527/babelsoc/fpga-network-stack/hls/toe/rx_engine/rx_engine.cpp:866]   --->   Operation 33 'read' 'tmp_141' <Predicate = (!mh_state_load & tmp_131 & tmp_133 & tmp_134)> <Delay = 2.80> <Core = "FIFO">   --->   Core 32 'FIFO' <Latency = 0> <II = 1> <Delay = 3.63> <Storage> <Opcode : 'read' 'write' 'nbread' 'nbwrite'> <Ports = 0> <Width = 1> <Depth = 2> <FIFO>
ST_1 : Operation 34 [1/1] (2.80ns)   --->   "%tmp_1 = call i96 @_ssdm_op_Read.ap_fifo.volatile.i96P(i96* @rxEng_tupleBuffer_V) nounwind" [/home/paulrr2/Projects/ece527/babelsoc/fpga-network-stack/hls/toe/rx_engine/rx_engine.cpp:867]   --->   Operation 34 'read' 'tmp_1' <Predicate = (!mh_state_load & tmp_131 & tmp_133 & tmp_134)> <Delay = 2.80> <Core = "FIFO">   --->   Core 32 'FIFO' <Latency = 0> <II = 1> <Delay = 3.63> <Storage> <Opcode : 'read' 'write' 'nbread' 'nbwrite'> <Ports = 0> <Width = 1> <Depth = 2> <FIFO>
ST_1 : Operation 35 [1/1] (0.00ns)   --->   "%p_Val2_17 = trunc i96 %tmp_1 to i32" [/home/paulrr2/Projects/ece527/babelsoc/fpga-network-stack/hls/toe/tx_engine/../toe_internals.hpp:58->/home/paulrr2/Projects/ece527/babelsoc/fpga-network-stack/hls/toe/rx_engine/rx_engine.cpp:867]   --->   Operation 35 'trunc' 'p_Val2_17' <Predicate = (!mh_state_load & tmp_131 & tmp_133 & tmp_134)> <Delay = 0.00>
ST_1 : Operation 36 [1/1] (0.00ns)   --->   "%switchedTuple_srcIp_s = call i32 @_ssdm_op_PartSelect.i32.i96.i32.i32(i96 %tmp_1, i32 32, i32 63) nounwind" [/home/paulrr2/Projects/ece527/babelsoc/fpga-network-stack/hls/toe/tx_engine/../toe_internals.hpp:58->/home/paulrr2/Projects/ece527/babelsoc/fpga-network-stack/hls/toe/rx_engine/rx_engine.cpp:867]   --->   Operation 36 'partselect' 'switchedTuple_srcIp_s' <Predicate = (!mh_state_load & tmp_131 & tmp_133 & tmp_134)> <Delay = 0.00>
ST_1 : Operation 37 [1/1] (0.00ns)   --->   "%switchedTuple_dstPor = call i16 @_ssdm_op_PartSelect.i16.i96.i32.i32(i96 %tmp_1, i32 64, i32 79) nounwind" [/home/paulrr2/Projects/ece527/babelsoc/fpga-network-stack/hls/toe/tx_engine/../toe_internals.hpp:58->/home/paulrr2/Projects/ece527/babelsoc/fpga-network-stack/hls/toe/rx_engine/rx_engine.cpp:867]   --->   Operation 37 'partselect' 'switchedTuple_dstPor' <Predicate = (!mh_state_load & tmp_131 & tmp_133 & tmp_134)> <Delay = 0.00>
ST_1 : Operation 38 [1/1] (0.00ns)   --->   "%p_Val2_18 = call i16 @_ssdm_op_PartSelect.i16.i96.i32.i32(i96 %tmp_1, i32 80, i32 95) nounwind" [/home/paulrr2/Projects/ece527/babelsoc/fpga-network-stack/hls/toe/tx_engine/../toe_internals.hpp:58->/home/paulrr2/Projects/ece527/babelsoc/fpga-network-stack/hls/toe/rx_engine/rx_engine.cpp:867]   --->   Operation 38 'partselect' 'p_Val2_18' <Predicate = (!mh_state_load & tmp_131 & tmp_133 & tmp_134)> <Delay = 0.00>
ST_1 : Operation 39 [1/1] (0.00ns)   --->   "%p_Result_i = call i8 @_ssdm_op_PartSelect.i8.i96.i32.i32(i96 %tmp_1, i32 24, i32 31) nounwind" [/home/paulrr2/Projects/ece527/babelsoc/fpga-network-stack/hls/toe/rx_engine/rx_engine.cpp:868]   --->   Operation 39 'partselect' 'p_Result_i' <Predicate = (!mh_state_load & tmp_131 & tmp_133 & tmp_134)> <Delay = 0.00>
ST_1 : Operation 40 [1/1] (0.00ns)   --->   "%p_Result_8_i = call i8 @_ssdm_op_PartSelect.i8.i96.i32.i32(i96 %tmp_1, i32 16, i32 23) nounwind" [/home/paulrr2/Projects/ece527/babelsoc/fpga-network-stack/hls/toe/rx_engine/rx_engine.cpp:869]   --->   Operation 40 'partselect' 'p_Result_8_i' <Predicate = (!mh_state_load & tmp_131 & tmp_133 & tmp_134)> <Delay = 0.00>
ST_1 : Operation 41 [1/1] (0.00ns)   --->   "%p_Result_9_i = call i8 @_ssdm_op_PartSelect.i8.i96.i32.i32(i96 %tmp_1, i32 8, i32 15) nounwind" [/home/paulrr2/Projects/ece527/babelsoc/fpga-network-stack/hls/toe/rx_engine/rx_engine.cpp:870]   --->   Operation 41 'partselect' 'p_Result_9_i' <Predicate = (!mh_state_load & tmp_131 & tmp_133 & tmp_134)> <Delay = 0.00>
ST_1 : Operation 42 [1/1] (0.00ns)   --->   "%trunc_ln647 = trunc i96 %tmp_1 to i8" [/home/paulrr2/Projects/ece527/babelsoc/fpga-network-stack/hls/toe/rx_engine/rx_engine.cpp:871]   --->   Operation 42 'trunc' 'trunc_ln647' <Predicate = (!mh_state_load & tmp_131 & tmp_133 & tmp_134)> <Delay = 0.00>
ST_1 : Operation 43 [1/1] (0.00ns)   --->   "%p_Result_s = call i32 @_ssdm_op_BitConcatenate.i32.i8.i8.i8.i8(i8 %trunc_ln647, i8 %p_Result_9_i, i8 %p_Result_8_i, i8 %p_Result_i) nounwind" [/home/paulrr2/Projects/ece527/babelsoc/fpga-network-stack/hls/toe/rx_engine/rx_engine.cpp:871]   --->   Operation 43 'bitconcatenate' 'p_Result_s' <Predicate = (!mh_state_load & tmp_131 & tmp_133 & tmp_134)> <Delay = 0.00>
ST_1 : Operation 44 [1/1] (0.00ns)   --->   "store i32 %p_Result_s, i32* @mh_srcIpAddress_V, align 4" [/home/paulrr2/Projects/ece527/babelsoc/fpga-network-stack/hls/toe/rx_engine/rx_engine.cpp:871]   --->   Operation 44 'store' <Predicate = (!mh_state_load & tmp_131 & tmp_133 & tmp_134)> <Delay = 0.00>
ST_1 : Operation 45 [1/1] (0.00ns)   --->   "%p_Result_11_i = call i8 @_ssdm_op_PartSelect.i8.i96.i32.i32(i96 %tmp_1, i32 88, i32 95) nounwind" [/home/paulrr2/Projects/ece527/babelsoc/fpga-network-stack/hls/toe/rx_engine/rx_engine.cpp:872]   --->   Operation 45 'partselect' 'p_Result_11_i' <Predicate = (!mh_state_load & tmp_131 & tmp_133 & tmp_134)> <Delay = 0.00>
ST_1 : Operation 46 [1/1] (0.00ns)   --->   "%p_Result_12_i = call i8 @_ssdm_op_PartSelect.i8.i96.i32.i32(i96 %tmp_1, i32 80, i32 87) nounwind" [/home/paulrr2/Projects/ece527/babelsoc/fpga-network-stack/hls/toe/rx_engine/rx_engine.cpp:873]   --->   Operation 46 'partselect' 'p_Result_12_i' <Predicate = (!mh_state_load & tmp_131 & tmp_133 & tmp_134)> <Delay = 0.00>
ST_1 : Operation 47 [1/1] (0.00ns)   --->   "%p_Result_27 = call i16 @_ssdm_op_BitConcatenate.i16.i8.i8(i8 %p_Result_12_i, i8 %p_Result_11_i) nounwind" [/home/paulrr2/Projects/ece527/babelsoc/fpga-network-stack/hls/toe/rx_engine/rx_engine.cpp:873]   --->   Operation 47 'bitconcatenate' 'p_Result_27' <Predicate = (!mh_state_load & tmp_131 & tmp_133 & tmp_134)> <Delay = 0.00>
ST_1 : Operation 48 [1/1] (0.00ns)   --->   "store i16 %p_Result_27, i16* @mh_dstIpPort_V, align 2" [/home/paulrr2/Projects/ece527/babelsoc/fpga-network-stack/hls/toe/rx_engine/rx_engine.cpp:873]   --->   Operation 48 'store' <Predicate = (!mh_state_load & tmp_131 & tmp_133 & tmp_134)> <Delay = 0.00>
ST_1 : Operation 49 [1/1] (0.00ns)   --->   "br i1 %tmp_141, label %_ifconv, label %4" [/home/paulrr2/Projects/ece527/babelsoc/fpga-network-stack/hls/toe/rx_engine/rx_engine.cpp:875]   --->   Operation 49 'br' <Predicate = (!mh_state_load & tmp_131 & tmp_133 & tmp_134)> <Delay = 0.00>
ST_1 : Operation 50 [1/1] (0.00ns)   --->   "br i1 %tmp_137, label %._crit_edge42.i, label %5" [/home/paulrr2/Projects/ece527/babelsoc/fpga-network-stack/hls/toe/rx_engine/rx_engine.cpp:878]   --->   Operation 50 'br' <Predicate = (!mh_state_load & tmp_131 & tmp_133 & tmp_134 & !tmp_141)> <Delay = 0.00>
ST_1 : Operation 51 [1/1] (0.97ns)   --->   "%or_ln886 = or i1 %tmp_138, %tmp_139" [/home/paulrr2/Projects/ece527/babelsoc/fpga-network-stack/hls/toe/rx_engine/rx_engine.cpp:886]   --->   Operation 51 'or' 'or_ln886' <Predicate = (!mh_state_load & tmp_131 & tmp_133 & tmp_134 & !tmp_141 & !tmp_137)> <Delay = 0.97> <Core = "LogicGate">   --->   Core 27 'LogicGate' <Latency = 0> <II = 1> <Delay = 0.97> <FuncUnit> <Opcode : 'and' 'or' 'xor'> <InPorts = 2> <OutPorts = 1>
ST_1 : Operation 52 [1/1] (0.00ns)   --->   "br i1 %or_ln886, label %._crit_edge43.i, label %6" [/home/paulrr2/Projects/ece527/babelsoc/fpga-network-stack/hls/toe/rx_engine/rx_engine.cpp:886]   --->   Operation 52 'br' <Predicate = (!mh_state_load & tmp_131 & tmp_133 & tmp_134 & !tmp_141 & !tmp_137)> <Delay = 0.00>
ST_1 : Operation 53 [1/1] (0.00ns)   --->   "%zext_ln214 = zext i16 %tmp_length_V_load_ne to i17" [/home/paulrr2/Projects/ece527/babelsoc/fpga-network-stack/hls/toe/rx_engine/rx_engine.cpp:888]   --->   Operation 53 'zext' 'zext_ln214' <Predicate = (!mh_state_load & tmp_131 & tmp_133 & tmp_134 & !tmp_141 & !tmp_137 & or_ln886)> <Delay = 0.00>
ST_1 : Operation 54 [1/1] (2.07ns)   --->   "%add_ln214 = add i17 1, %zext_ln214" [/home/paulrr2/Projects/ece527/babelsoc/fpga-network-stack/hls/toe/rx_engine/rx_engine.cpp:888]   --->   Operation 54 'add' 'add_ln214' <Predicate = (!mh_state_load & tmp_131 & tmp_133 & tmp_134 & !tmp_141 & !tmp_137 & or_ln886)> <Delay = 2.07> <Core = "AddSub">   --->   Core 14 'AddSub' <Latency = 0> <II = 1> <Delay = 2.55> <FuncUnit> <Opcode : 'add' 'sub'> <InPorts = 2> <OutPorts = 1>
ST_1 : Operation 55 [1/1] (2.42ns)   --->   "%icmp_ln883_1 = icmp eq i16 %tmp_length_V_load_ne, 0" [/home/paulrr2/Projects/ece527/babelsoc/fpga-network-stack/hls/toe/rx_engine/rx_engine.cpp:896]   --->   Operation 55 'icmp' 'icmp_ln883_1' <Predicate = (!mh_state_load & tmp_131 & tmp_133 & tmp_134 & !tmp_141)> <Delay = 2.42> <Core = "Cmp">   --->   Core 25 'Cmp' <Latency = 0> <II = 1> <Delay = 2.42> <FuncUnit> <Opcode : 'icmp'> <InPorts = 2> <OutPorts = 1>
ST_1 : Operation 56 [1/1] (0.00ns)   --->   "br i1 %icmp_ln883_1, label %._crit_edge45.i, label %8" [/home/paulrr2/Projects/ece527/babelsoc/fpga-network-stack/hls/toe/rx_engine/rx_engine.cpp:896]   --->   Operation 56 'br' <Predicate = (!mh_state_load & tmp_131 & tmp_133 & tmp_134 & !tmp_141)> <Delay = 0.00>
ST_1 : Operation 57 [1/1] (0.00ns) (grouped into LUT with out node tmp_allowCreation)   --->   "%or_ln904 = or i1 %tmp_137, %tmp_139" [/home/paulrr2/Projects/ece527/babelsoc/fpga-network-stack/hls/toe/rx_engine/rx_engine.cpp:904]   --->   Operation 57 'or' 'or_ln904' <Predicate = (!mh_state_load & tmp_131 & tmp_133 & tmp_134 & tmp_141)> <Delay = 0.00> <Core = "LogicGate">   --->   Core 27 'LogicGate' <Latency = 0> <II = 1> <Delay = 0.97> <FuncUnit> <Opcode : 'and' 'or' 'xor'> <InPorts = 2> <OutPorts = 1>
ST_1 : Operation 58 [1/1] (0.00ns) (grouped into LUT with out node tmp_allowCreation)   --->   "%xor_ln904 = xor i1 %or_ln904, true" [/home/paulrr2/Projects/ece527/babelsoc/fpga-network-stack/hls/toe/rx_engine/rx_engine.cpp:904]   --->   Operation 58 'xor' 'xor_ln904' <Predicate = (!mh_state_load & tmp_131 & tmp_133 & tmp_134 & tmp_141)> <Delay = 0.00> <Core = "LogicGate">   --->   Core 27 'LogicGate' <Latency = 0> <II = 1> <Delay = 0.97> <FuncUnit> <Opcode : 'and' 'or' 'xor'> <InPorts = 2> <OutPorts = 1>
ST_1 : Operation 59 [1/1] (0.97ns) (out node of the LUT)   --->   "%tmp_allowCreation = and i1 %tmp_138, %xor_ln904" [/home/paulrr2/Projects/ece527/babelsoc/fpga-network-stack/hls/toe/rx_engine/rx_engine.hpp:53->/home/paulrr2/Projects/ece527/babelsoc/fpga-network-stack/hls/toe/rx_engine/rx_engine.cpp:865]   --->   Operation 59 'and' 'tmp_allowCreation' <Predicate = (!mh_state_load & tmp_131 & tmp_133 & tmp_134 & tmp_141)> <Delay = 0.97> <Core = "LogicGate">   --->   Core 27 'LogicGate' <Latency = 0> <II = 1> <Delay = 0.97> <FuncUnit> <Opcode : 'and' 'or' 'xor'> <InPorts = 2> <OutPorts = 1>
ST_1 : Operation 60 [1/1] (1.76ns)   --->   "store i1 true, i1* @mh_state, align 1" [/home/paulrr2/Projects/ece527/babelsoc/fpga-network-stack/hls/toe/rx_engine/rx_engine.cpp:905]   --->   Operation 60 'store' <Predicate = (!mh_state_load & tmp_131 & tmp_133 & tmp_134 & tmp_141)> <Delay = 1.76>
ST_1 : Operation 61 [1/1] (0.00ns)   --->   "%tmp = call i1 @_ssdm_op_NbReadReq.ap_fifo.i17P(i17* @sLookup2rxEng_rsp_V, i32 1) nounwind" [/home/paulrr2/Projects/ece527/babelsoc/fpga-network-stack/hls/toe/rx_engine/rx_engine.cpp:910]   --->   Operation 61 'nbreadreq' 'tmp' <Predicate = (mh_state_load)> <Delay = 0.00> <Core = "FIFO">   --->   Core 32 'FIFO' <Latency = 0> <II = 1> <Delay = 3.63> <Storage> <Opcode : 'read' 'write' 'nbread' 'nbwrite'> <Ports = 0> <Width = 1> <Depth = 2> <FIFO>
ST_1 : Operation 62 [1/1] (0.00ns)   --->   "br i1 %tmp, label %11, label %._crit_edge48.i" [/home/paulrr2/Projects/ece527/babelsoc/fpga-network-stack/hls/toe/rx_engine/rx_engine.cpp:910]   --->   Operation 62 'br' <Predicate = (mh_state_load)> <Delay = 0.00>
ST_1 : Operation 63 [1/1] (2.80ns)   --->   "%tmp_5 = call i17 @_ssdm_op_Read.ap_fifo.volatile.i17P(i17* @sLookup2rxEng_rsp_V) nounwind" [/home/paulrr2/Projects/ece527/babelsoc/fpga-network-stack/hls/toe/rx_engine/rx_engine.cpp:912]   --->   Operation 63 'read' 'tmp_5' <Predicate = (mh_state_load & tmp)> <Delay = 2.80> <Core = "FIFO">   --->   Core 32 'FIFO' <Latency = 0> <II = 1> <Delay = 3.63> <Storage> <Opcode : 'read' 'write' 'nbread' 'nbwrite'> <Ports = 0> <Width = 1> <Depth = 2> <FIFO>
ST_1 : Operation 64 [1/1] (0.00ns)   --->   "%tmp_sessionID_V = trunc i17 %tmp_5 to i16" [/home/paulrr2/Projects/ece527/babelsoc/fpga-network-stack/hls/toe/tx_app_if/../toe_internals.hpp:82->/home/paulrr2/Projects/ece527/babelsoc/fpga-network-stack/hls/toe/rx_engine/rx_engine.cpp:912]   --->   Operation 64 'trunc' 'tmp_sessionID_V' <Predicate = (mh_state_load & tmp)> <Delay = 0.00>
ST_1 : Operation 65 [1/1] (0.00ns)   --->   "%tmp_132 = call i1 @_ssdm_op_BitSelect.i1.i17.i32(i17 %tmp_5, i32 16)" [/home/paulrr2/Projects/ece527/babelsoc/fpga-network-stack/hls/toe/tx_app_if/../toe_internals.hpp:82->/home/paulrr2/Projects/ece527/babelsoc/fpga-network-stack/hls/toe/rx_engine/rx_engine.cpp:912]   --->   Operation 65 'bitselect' 'tmp_132' <Predicate = (mh_state_load & tmp)> <Delay = 0.00>
ST_1 : Operation 66 [1/1] (2.42ns)   --->   "%icmp_ln883 = icmp eq i16 %tmp_meta_length_V, 0" [/home/paulrr2/Projects/ece527/babelsoc/fpga-network-stack/hls/toe/rx_engine/rx_engine.cpp:918]   --->   Operation 66 'icmp' 'icmp_ln883' <Predicate = (mh_state_load & tmp)> <Delay = 2.42> <Core = "Cmp">   --->   Core 25 'Cmp' <Latency = 0> <II = 1> <Delay = 2.42> <FuncUnit> <Opcode : 'icmp'> <InPorts = 2> <OutPorts = 1>
ST_1 : Operation 67 [1/1] (0.00ns)   --->   "br i1 %icmp_ln883, label %._crit_edge50.i, label %13" [/home/paulrr2/Projects/ece527/babelsoc/fpga-network-stack/hls/toe/rx_engine/rx_engine.cpp:918]   --->   Operation 67 'br' <Predicate = (mh_state_load & tmp)> <Delay = 0.00>
ST_1 : Operation 68 [1/1] (1.76ns)   --->   "store i1 false, i1* @mh_state, align 1" [/home/paulrr2/Projects/ece527/babelsoc/fpga-network-stack/hls/toe/rx_engine/rx_engine.cpp:950]   --->   Operation 68 'store' <Predicate = (mh_state_load & tmp)> <Delay = 1.76>

State 2 <SV = 1> <Delay = 5.35>
ST_2 : Operation 69 [1/1] (0.00ns)   --->   "call void (...)* @_ssdm_op_SpecInterface(i1* @portTable2rxEng_chec_1, [8 x i8]* @ap_fifo_str, i32 0, i32 0, [1 x i8]* @p_str, i32 0, i32 0, [1 x i8]* @p_str, [1 x i8]* @p_str, [1 x i8]* @p_str, i32 2, i32 2, i32 16, i32 16, [1 x i8]* @p_str, [1 x i8]* @p_str)"   --->   Operation 69 'specinterface' <Predicate = true> <Delay = 0.00>
ST_2 : Operation 70 [1/1] (0.00ns)   --->   "call void (...)* @_ssdm_op_SpecInterface(i97* @rxEng2sLookup_req_V, [8 x i8]* @ap_fifo_str, i32 0, i32 0, [1 x i8]* @p_str, i32 0, i32 0, [1 x i8]* @p_str, [1 x i8]* @p_str, [1 x i8]* @p_str, i32 2, i32 2, i32 16, i32 16, [1 x i8]* @p_str, [1 x i8]* @p_str)"   --->   Operation 70 'specinterface' <Predicate = true> <Delay = 0.00>
ST_2 : Operation 71 [1/1] (0.00ns)   --->   "call void (...)* @_ssdm_op_SpecInterface(i172* @rxEng_fsmMetaDataFif_1, [8 x i8]* @ap_fifo_str, i32 0, i32 0, [1 x i8]* @p_str, i32 0, i32 0, [1 x i8]* @p_str, [1 x i8]* @p_str, [1 x i8]* @p_str, i32 2, i32 2, i32 16, i32 16, [1 x i8]* @p_str, [1 x i8]* @p_str)"   --->   Operation 71 'specinterface' <Predicate = true> <Delay = 0.00>
ST_2 : Operation 72 [1/1] (0.00ns)   --->   "call void (...)* @_ssdm_op_SpecInterface(i108* @rxEng_metaDataFifo_V, [8 x i8]* @ap_fifo_str, i32 0, i32 0, [1 x i8]* @p_str, i32 0, i32 0, [1 x i8]* @p_str, [1 x i8]* @p_str, [1 x i8]* @p_str, i32 2, i32 2, i32 16, i32 16, [1 x i8]* @p_str, [1 x i8]* @p_str)"   --->   Operation 72 'specinterface' <Predicate = true> <Delay = 0.00>
ST_2 : Operation 73 [1/1] (0.00ns)   --->   "call void (...)* @_ssdm_op_SpecInterface(i1* @rxEng_metaHandlerDro_1, [8 x i8]* @ap_fifo_str, i32 0, i32 0, [1 x i8]* @p_str, i32 0, i32 0, [1 x i8]* @p_str, [1 x i8]* @p_str, [1 x i8]* @p_str, i32 2, i32 2, i32 16, i32 16, [1 x i8]* @p_str, [1 x i8]* @p_str)"   --->   Operation 73 'specinterface' <Predicate = true> <Delay = 0.00>
ST_2 : Operation 74 [1/1] (0.00ns)   --->   "call void (...)* @_ssdm_op_SpecInterface(i152* @rxEng_metaHandlerEve_1, [8 x i8]* @ap_fifo_str, i32 0, i32 0, [1 x i8]* @p_str, i32 0, i32 0, [1 x i8]* @p_str, [1 x i8]* @p_str, [1 x i8]* @p_str, i32 2, i32 2, i32 16, i32 16, [1 x i8]* @p_str, [1 x i8]* @p_str)"   --->   Operation 74 'specinterface' <Predicate = true> <Delay = 0.00>
ST_2 : Operation 75 [1/1] (0.00ns)   --->   "call void (...)* @_ssdm_op_SpecInterface(i96* @rxEng_tupleBuffer_V, [8 x i8]* @ap_fifo_str, i32 0, i32 0, [1 x i8]* @p_str, i32 0, i32 0, [1 x i8]* @p_str, [1 x i8]* @p_str, [1 x i8]* @p_str, i32 2, i32 2, i32 16, i32 16, [1 x i8]* @p_str, [1 x i8]* @p_str)"   --->   Operation 75 'specinterface' <Predicate = true> <Delay = 0.00>
ST_2 : Operation 76 [1/1] (0.00ns)   --->   "call void (...)* @_ssdm_op_SpecInterface(i17* @sLookup2rxEng_rsp_V, [8 x i8]* @ap_fifo_str, i32 0, i32 0, [1 x i8]* @p_str, i32 0, i32 0, [1 x i8]* @p_str, [1 x i8]* @p_str, [1 x i8]* @p_str, i32 2, i32 2, i32 16, i32 16, [1 x i8]* @p_str, [1 x i8]* @p_str)"   --->   Operation 76 'specinterface' <Predicate = true> <Delay = 0.00>
ST_2 : Operation 77 [1/1] (0.00ns)   --->   "call void (...)* @_ssdm_op_SpecPipeline(i32 1, i32 1, i32 1, i32 0, [1 x i8]* @p_str566) nounwind" [/home/paulrr2/Projects/ece527/babelsoc/fpga-network-stack/hls/toe/rx_engine/rx_engine.cpp:848]   --->   Operation 77 'specpipeline' <Predicate = true> <Delay = 0.00>
ST_2 : Operation 78 [1/1] (0.00ns)   --->   "%zext_ln209 = zext i16 %tmp_length_V_load_ne to i32" [/home/paulrr2/Projects/ece527/babelsoc/fpga-network-stack/hls/toe/rx_engine/rx_engine.cpp:892]   --->   Operation 78 'zext' 'zext_ln209' <Predicate = (!mh_state_load & tmp_131 & tmp_133 & tmp_134 & !tmp_141 & !tmp_137 & !or_ln886)> <Delay = 0.00>
ST_2 : Operation 79 [1/1] (2.55ns)   --->   "%p_Val2_16 = add i32 %zext_ln209, %trunc_ln321" [/home/paulrr2/Projects/ece527/babelsoc/fpga-network-stack/hls/toe/rx_engine/rx_engine.cpp:892]   --->   Operation 79 'add' 'p_Val2_16' <Predicate = (!mh_state_load & tmp_131 & tmp_133 & tmp_134 & !tmp_141 & !tmp_137 & !or_ln886)> <Delay = 2.55> <Core = "AddSub">   --->   Core 14 'AddSub' <Latency = 0> <II = 1> <Delay = 2.55> <FuncUnit> <Opcode : 'add' 'sub'> <InPorts = 2> <OutPorts = 1>
ST_2 : Operation 80 [1/1] (0.00ns)   --->   "%p_Result_16_i = call i16 @_ssdm_op_PartSelect.i16.i32.i32.i32(i32 %p_Val2_16, i32 16, i32 31) nounwind" [/home/paulrr2/Projects/ece527/babelsoc/fpga-network-stack/hls/toe/rx_engine/../toe_internals.hpp:404->/home/paulrr2/Projects/ece527/babelsoc/fpga-network-stack/hls/toe/rx_engine/../toe_internals.hpp:404->/home/paulrr2/Projects/ece527/babelsoc/fpga-network-stack/hls/toe/rx_engine/rx_engine.cpp:892]   --->   Operation 80 'partselect' 'p_Result_16_i' <Predicate = (!mh_state_load & tmp_131 & tmp_133 & tmp_134 & !tmp_141 & !tmp_137 & !or_ln886)> <Delay = 0.00>
ST_2 : Operation 81 [1/1] (0.00ns)   --->   "%tmp_address_V_3 = zext i16 %p_Result_16_i to i18" [/home/paulrr2/Projects/ece527/babelsoc/fpga-network-stack/hls/toe/rx_engine/../toe_internals.hpp:404->/home/paulrr2/Projects/ece527/babelsoc/fpga-network-stack/hls/toe/rx_engine/../toe_internals.hpp:404->/home/paulrr2/Projects/ece527/babelsoc/fpga-network-stack/hls/toe/rx_engine/rx_engine.cpp:892]   --->   Operation 81 'zext' 'tmp_address_V_3' <Predicate = (!mh_state_load & tmp_131 & tmp_133 & tmp_134 & !tmp_141 & !tmp_137 & !or_ln886)> <Delay = 0.00>
ST_2 : Operation 82 [1/1] (0.00ns)   --->   "%tmp_length_V_4 = trunc i32 %p_Val2_16 to i16" [/home/paulrr2/Projects/ece527/babelsoc/fpga-network-stack/hls/toe/rx_engine/../toe_internals.hpp:404->/home/paulrr2/Projects/ece527/babelsoc/fpga-network-stack/hls/toe/rx_engine/../toe_internals.hpp:404->/home/paulrr2/Projects/ece527/babelsoc/fpga-network-stack/hls/toe/rx_engine/rx_engine.cpp:892]   --->   Operation 82 'trunc' 'tmp_length_V_4' <Predicate = (!mh_state_load & tmp_131 & tmp_133 & tmp_134 & !tmp_141 & !tmp_137 & !or_ln886)> <Delay = 0.00>
ST_2 : Operation 83 [1/1] (0.00ns)   --->   "%tmp_3 = call i152 @_ssdm_op_BitConcatenate.i152.i16.i16.i32.i32.i3.i16.i18.i19(i16 %switchedTuple_dstPor, i16 %p_Val2_18, i32 %p_Val2_17, i32 %switchedTuple_srcIp_s, i3 0, i16 %tmp_length_V_4, i18 %tmp_address_V_3, i19 6) nounwind" [/home/paulrr2/Projects/ece527/babelsoc/fpga-network-stack/hls/toe/rx_engine/rx_engine.cpp:892]   --->   Operation 83 'bitconcatenate' 'tmp_3' <Predicate = (!mh_state_load & tmp_131 & tmp_133 & tmp_134 & !tmp_141 & !tmp_137 & !or_ln886)> <Delay = 0.00>
ST_2 : Operation 84 [1/1] (2.80ns)   --->   "call void @_ssdm_op_Write.ap_fifo.volatile.i152P(i152* @rxEng_metaHandlerEve_1, i152 %tmp_3) nounwind" [/home/paulrr2/Projects/ece527/babelsoc/fpga-network-stack/hls/toe/rx_engine/rx_engine.cpp:892]   --->   Operation 84 'write' <Predicate = (!mh_state_load & tmp_131 & tmp_133 & tmp_134 & !tmp_141 & !tmp_137 & !or_ln886)> <Delay = 2.80> <Core = "FIFO">   --->   Core 32 'FIFO' <Latency = 0> <II = 1> <Delay = 3.63> <Storage> <Opcode : 'read' 'write' 'nbread' 'nbwrite'> <Ports = 0> <Width = 1> <Depth = 2> <FIFO>
ST_2 : Operation 85 [1/1] (0.00ns)   --->   "br label %7"   --->   Operation 85 'br' <Predicate = (!mh_state_load & tmp_131 & tmp_133 & tmp_134 & !tmp_141 & !tmp_137 & !or_ln886)> <Delay = 0.00>
ST_2 : Operation 86 [1/1] (0.00ns)   --->   "%zext_ln214_6 = zext i17 %add_ln214 to i32" [/home/paulrr2/Projects/ece527/babelsoc/fpga-network-stack/hls/toe/rx_engine/rx_engine.cpp:888]   --->   Operation 86 'zext' 'zext_ln214_6' <Predicate = (!mh_state_load & tmp_131 & tmp_133 & tmp_134 & !tmp_141 & !tmp_137 & or_ln886)> <Delay = 0.00>
ST_2 : Operation 87 [1/1] (2.55ns)   --->   "%p_Val2_s = add i32 %trunc_ln321, %zext_ln214_6" [/home/paulrr2/Projects/ece527/babelsoc/fpga-network-stack/hls/toe/rx_engine/rx_engine.cpp:888]   --->   Operation 87 'add' 'p_Val2_s' <Predicate = (!mh_state_load & tmp_131 & tmp_133 & tmp_134 & !tmp_141 & !tmp_137 & or_ln886)> <Delay = 2.55> <Core = "AddSub">   --->   Core 14 'AddSub' <Latency = 0> <II = 1> <Delay = 2.55> <FuncUnit> <Opcode : 'add' 'sub'> <InPorts = 2> <OutPorts = 1>
ST_2 : Operation 88 [1/1] (0.00ns)   --->   "%p_Result_14_i = call i16 @_ssdm_op_PartSelect.i16.i32.i32.i32(i32 %p_Val2_s, i32 16, i32 31) nounwind" [/home/paulrr2/Projects/ece527/babelsoc/fpga-network-stack/hls/toe/rx_engine/../toe_internals.hpp:404->/home/paulrr2/Projects/ece527/babelsoc/fpga-network-stack/hls/toe/rx_engine/../toe_internals.hpp:404->/home/paulrr2/Projects/ece527/babelsoc/fpga-network-stack/hls/toe/rx_engine/rx_engine.cpp:888]   --->   Operation 88 'partselect' 'p_Result_14_i' <Predicate = (!mh_state_load & tmp_131 & tmp_133 & tmp_134 & !tmp_141 & !tmp_137 & or_ln886)> <Delay = 0.00>
ST_2 : Operation 89 [1/1] (0.00ns)   --->   "%tmp_address_V = zext i16 %p_Result_14_i to i18" [/home/paulrr2/Projects/ece527/babelsoc/fpga-network-stack/hls/toe/rx_engine/../toe_internals.hpp:404->/home/paulrr2/Projects/ece527/babelsoc/fpga-network-stack/hls/toe/rx_engine/../toe_internals.hpp:404->/home/paulrr2/Projects/ece527/babelsoc/fpga-network-stack/hls/toe/rx_engine/rx_engine.cpp:888]   --->   Operation 89 'zext' 'tmp_address_V' <Predicate = (!mh_state_load & tmp_131 & tmp_133 & tmp_134 & !tmp_141 & !tmp_137 & or_ln886)> <Delay = 0.00>
ST_2 : Operation 90 [1/1] (0.00ns)   --->   "%tmp_length_V = trunc i32 %p_Val2_s to i16" [/home/paulrr2/Projects/ece527/babelsoc/fpga-network-stack/hls/toe/rx_engine/../toe_internals.hpp:404->/home/paulrr2/Projects/ece527/babelsoc/fpga-network-stack/hls/toe/rx_engine/../toe_internals.hpp:404->/home/paulrr2/Projects/ece527/babelsoc/fpga-network-stack/hls/toe/rx_engine/rx_engine.cpp:888]   --->   Operation 90 'trunc' 'tmp_length_V' <Predicate = (!mh_state_load & tmp_131 & tmp_133 & tmp_134 & !tmp_141 & !tmp_137 & or_ln886)> <Delay = 0.00>
ST_2 : Operation 91 [1/1] (0.00ns)   --->   "%tmp_2 = call i152 @_ssdm_op_BitConcatenate.i152.i16.i16.i32.i32.i3.i16.i18.i19(i16 %switchedTuple_dstPor, i16 %p_Val2_18, i32 %p_Val2_17, i32 %switchedTuple_srcIp_s, i3 0, i16 %tmp_length_V, i18 %tmp_address_V, i19 6) nounwind" [/home/paulrr2/Projects/ece527/babelsoc/fpga-network-stack/hls/toe/rx_engine/rx_engine.cpp:888]   --->   Operation 91 'bitconcatenate' 'tmp_2' <Predicate = (!mh_state_load & tmp_131 & tmp_133 & tmp_134 & !tmp_141 & !tmp_137 & or_ln886)> <Delay = 0.00>
ST_2 : Operation 92 [1/1] (2.80ns)   --->   "call void @_ssdm_op_Write.ap_fifo.volatile.i152P(i152* @rxEng_metaHandlerEve_1, i152 %tmp_2) nounwind" [/home/paulrr2/Projects/ece527/babelsoc/fpga-network-stack/hls/toe/rx_engine/rx_engine.cpp:888]   --->   Operation 92 'write' <Predicate = (!mh_state_load & tmp_131 & tmp_133 & tmp_134 & !tmp_141 & !tmp_137 & or_ln886)> <Delay = 2.80> <Core = "FIFO">   --->   Core 32 'FIFO' <Latency = 0> <II = 1> <Delay = 3.63> <Storage> <Opcode : 'read' 'write' 'nbread' 'nbwrite'> <Ports = 0> <Width = 1> <Depth = 2> <FIFO>
ST_2 : Operation 93 [1/1] (0.00ns)   --->   "br label %7" [/home/paulrr2/Projects/ece527/babelsoc/fpga-network-stack/hls/toe/rx_engine/rx_engine.cpp:889]   --->   Operation 93 'br' <Predicate = (!mh_state_load & tmp_131 & tmp_133 & tmp_134 & !tmp_141 & !tmp_137 & or_ln886)> <Delay = 0.00>
ST_2 : Operation 94 [1/1] (0.00ns)   --->   "br label %._crit_edge42.i" [/home/paulrr2/Projects/ece527/babelsoc/fpga-network-stack/hls/toe/rx_engine/rx_engine.cpp:894]   --->   Operation 94 'br' <Predicate = (!mh_state_load & tmp_131 & tmp_133 & tmp_134 & !tmp_141 & !tmp_137)> <Delay = 0.00>
ST_2 : Operation 95 [1/1] (2.80ns)   --->   "call void @_ssdm_op_Write.ap_fifo.volatile.i1P(i1* @rxEng_metaHandlerDro_1, i1 true) nounwind" [/home/paulrr2/Projects/ece527/babelsoc/fpga-network-stack/hls/toe/rx_engine/rx_engine.cpp:898]   --->   Operation 95 'write' <Predicate = (!mh_state_load & tmp_131 & tmp_133 & tmp_134 & !tmp_141 & !icmp_ln883_1)> <Delay = 2.80> <Core = "FIFO">   --->   Core 32 'FIFO' <Latency = 0> <II = 1> <Delay = 3.63> <Storage> <Opcode : 'read' 'write' 'nbread' 'nbwrite'> <Ports = 0> <Width = 1> <Depth = 2> <FIFO>
ST_2 : Operation 96 [1/1] (0.00ns)   --->   "br label %._crit_edge45.i" [/home/paulrr2/Projects/ece527/babelsoc/fpga-network-stack/hls/toe/rx_engine/rx_engine.cpp:899]   --->   Operation 96 'br' <Predicate = (!mh_state_load & tmp_131 & tmp_133 & tmp_134 & !tmp_141 & !icmp_ln883_1)> <Delay = 0.00>
ST_2 : Operation 97 [1/1] (0.00ns)   --->   "br label %9" [/home/paulrr2/Projects/ece527/babelsoc/fpga-network-stack/hls/toe/rx_engine/rx_engine.cpp:900]   --->   Operation 97 'br' <Predicate = (!mh_state_load & tmp_131 & tmp_133 & tmp_134 & !tmp_141)> <Delay = 0.00>
ST_2 : Operation 98 [1/1] (0.00ns)   --->   "%tmp_4 = call i97 @_ssdm_op_BitConcatenate.i97.i1.i96(i1 %tmp_allowCreation, i96 %tmp_1) nounwind"   --->   Operation 98 'bitconcatenate' 'tmp_4' <Predicate = (!mh_state_load & tmp_131 & tmp_133 & tmp_134 & tmp_141)> <Delay = 0.00>
ST_2 : Operation 99 [1/1] (2.80ns)   --->   "call void @_ssdm_op_Write.ap_fifo.volatile.i97P(i97* @rxEng2sLookup_req_V, i97 %tmp_4) nounwind"   --->   Operation 99 'write' <Predicate = (!mh_state_load & tmp_131 & tmp_133 & tmp_134 & tmp_141)> <Delay = 2.80> <Core = "FIFO">   --->   Core 32 'FIFO' <Latency = 0> <II = 1> <Delay = 3.63> <Storage> <Opcode : 'read' 'write' 'nbread' 'nbwrite'> <Ports = 0> <Width = 1> <Depth = 2> <FIFO>
ST_2 : Operation 100 [1/1] (0.00ns)   --->   "br label %9"   --->   Operation 100 'br' <Predicate = (!mh_state_load & tmp_131 & tmp_133 & tmp_134 & tmp_141)> <Delay = 0.00>
ST_2 : Operation 101 [1/1] (0.00ns)   --->   "br label %._crit_edge39.i" [/home/paulrr2/Projects/ece527/babelsoc/fpga-network-stack/hls/toe/rx_engine/rx_engine.cpp:907]   --->   Operation 101 'br' <Predicate = (!mh_state_load & tmp_131 & tmp_133 & tmp_134)> <Delay = 0.00>
ST_2 : Operation 102 [1/1] (0.00ns)   --->   "br label %rxMetadataHandler.exit" [/home/paulrr2/Projects/ece527/babelsoc/fpga-network-stack/hls/toe/rx_engine/rx_engine.cpp:908]   --->   Operation 102 'br' <Predicate = (!mh_state_load)> <Delay = 0.00>
ST_2 : Operation 103 [1/1] (0.00ns)   --->   "br i1 %tmp_132, label %12, label %._crit_edge49.i" [/home/paulrr2/Projects/ece527/babelsoc/fpga-network-stack/hls/toe/rx_engine/rx_engine.cpp:913]   --->   Operation 103 'br' <Predicate = (mh_state_load & tmp)> <Delay = 0.00>
ST_2 : Operation 104 [1/1] (0.00ns)   --->   "%tmp_srcIpAddress_V = load i32* @mh_srcIpAddress_V, align 4" [/home/paulrr2/Projects/ece527/babelsoc/fpga-network-stack/hls/toe/rx_engine/rx_engine.cpp:916]   --->   Operation 104 'load' 'tmp_srcIpAddress_V' <Predicate = (mh_state_load & tmp & tmp_132)> <Delay = 0.00>
ST_2 : Operation 105 [1/1] (0.00ns)   --->   "%tmp_dstIpPort_V = load i16* @mh_dstIpPort_V, align 2" [/home/paulrr2/Projects/ece527/babelsoc/fpga-network-stack/hls/toe/rx_engine/rx_engine.cpp:916]   --->   Operation 105 'load' 'tmp_dstIpPort_V' <Predicate = (mh_state_load & tmp & tmp_132)> <Delay = 0.00>
ST_2 : Operation 106 [1/1] (0.00ns)   --->   "%tmp_meta_seqNumb_V = load i32* @mh_meta_seqNumb_V, align 4" [/home/paulrr2/Projects/ece527/babelsoc/fpga-network-stack/hls/toe/rx_engine/rx_engine.cpp:916]   --->   Operation 106 'load' 'tmp_meta_seqNumb_V' <Predicate = (mh_state_load & tmp & tmp_132)> <Delay = 0.00>
ST_2 : Operation 107 [1/1] (0.00ns)   --->   "%tmp_meta_ackNumb_V = load i32* @mh_meta_ackNumb_V, align 4" [/home/paulrr2/Projects/ece527/babelsoc/fpga-network-stack/hls/toe/rx_engine/rx_engine.cpp:916]   --->   Operation 107 'load' 'tmp_meta_ackNumb_V' <Predicate = (mh_state_load & tmp & tmp_132)> <Delay = 0.00>
ST_2 : Operation 108 [1/1] (0.00ns)   --->   "%tmp_meta_winSize_V = load i16* @mh_meta_winSize_V, align 4" [/home/paulrr2/Projects/ece527/babelsoc/fpga-network-stack/hls/toe/rx_engine/rx_engine.cpp:916]   --->   Operation 108 'load' 'tmp_meta_winSize_V' <Predicate = (mh_state_load & tmp & tmp_132)> <Delay = 0.00>
ST_2 : Operation 109 [1/1] (0.00ns)   --->   "%tmp_meta_winScale_V = load i4* @mh_meta_winScale_V, align 2" [/home/paulrr2/Projects/ece527/babelsoc/fpga-network-stack/hls/toe/rx_engine/rx_engine.cpp:916]   --->   Operation 109 'load' 'tmp_meta_winScale_V' <Predicate = (mh_state_load & tmp & tmp_132)> <Delay = 0.00>
ST_2 : Operation 110 [1/1] (0.00ns)   --->   "%tmp_meta_ack_V = load i1* @mh_meta_ack_V, align 2" [/home/paulrr2/Projects/ece527/babelsoc/fpga-network-stack/hls/toe/rx_engine/rx_engine.cpp:916]   --->   Operation 110 'load' 'tmp_meta_ack_V' <Predicate = (mh_state_load & tmp & tmp_132)> <Delay = 0.00>
ST_2 : Operation 111 [1/1] (0.00ns)   --->   "%tmp_meta_rst_V = load i1* @mh_meta_rst_V, align 1" [/home/paulrr2/Projects/ece527/babelsoc/fpga-network-stack/hls/toe/rx_engine/rx_engine.cpp:916]   --->   Operation 111 'load' 'tmp_meta_rst_V' <Predicate = (mh_state_load & tmp & tmp_132)> <Delay = 0.00>
ST_2 : Operation 112 [1/1] (0.00ns)   --->   "%tmp_meta_syn_V = load i1* @mh_meta_syn_V, align 4" [/home/paulrr2/Projects/ece527/babelsoc/fpga-network-stack/hls/toe/rx_engine/rx_engine.cpp:916]   --->   Operation 112 'load' 'tmp_meta_syn_V' <Predicate = (mh_state_load & tmp & tmp_132)> <Delay = 0.00>
ST_2 : Operation 113 [1/1] (0.00ns)   --->   "%tmp_meta_fin_V = load i1* @mh_meta_fin_V, align 1" [/home/paulrr2/Projects/ece527/babelsoc/fpga-network-stack/hls/toe/rx_engine/rx_engine.cpp:916]   --->   Operation 113 'load' 'tmp_meta_fin_V' <Predicate = (mh_state_load & tmp & tmp_132)> <Delay = 0.00>
ST_2 : Operation 114 [1/1] (0.00ns)   --->   "%tmp_meta_dataOffset_s = load i4* @mh_meta_dataOffset_V, align 2" [/home/paulrr2/Projects/ece527/babelsoc/fpga-network-stack/hls/toe/rx_engine/rx_engine.cpp:916]   --->   Operation 114 'load' 'tmp_meta_dataOffset_s' <Predicate = (mh_state_load & tmp & tmp_132)> <Delay = 0.00>
ST_2 : Operation 115 [1/1] (0.00ns)   --->   "%tmp_6 = call i172 @_ssdm_op_BitConcatenate.i172.i4.i1.i1.i1.i1.i16.i4.i16.i32.i32.i16.i32.i16(i4 %tmp_meta_dataOffset_s, i1 %tmp_meta_fin_V, i1 %tmp_meta_syn_V, i1 %tmp_meta_rst_V, i1 %tmp_meta_ack_V, i16 %tmp_meta_length_V, i4 %tmp_meta_winScale_V, i16 %tmp_meta_winSize_V, i32 %tmp_meta_ackNumb_V, i32 %tmp_meta_seqNumb_V, i16 %tmp_dstIpPort_V, i32 %tmp_srcIpAddress_V, i16 %tmp_sessionID_V) nounwind" [/home/paulrr2/Projects/ece527/babelsoc/fpga-network-stack/hls/toe/rx_engine/rx_engine.cpp:916]   --->   Operation 115 'bitconcatenate' 'tmp_6' <Predicate = (mh_state_load & tmp & tmp_132)> <Delay = 0.00>
ST_2 : Operation 116 [1/1] (2.80ns)   --->   "call void @_ssdm_op_Write.ap_fifo.volatile.i172P(i172* @rxEng_fsmMetaDataFif_1, i172 %tmp_6) nounwind" [/home/paulrr2/Projects/ece527/babelsoc/fpga-network-stack/hls/toe/rx_engine/rx_engine.cpp:916]   --->   Operation 116 'write' <Predicate = (mh_state_load & tmp & tmp_132)> <Delay = 2.80> <Core = "FIFO">   --->   Core 32 'FIFO' <Latency = 0> <II = 1> <Delay = 3.63> <Storage> <Opcode : 'read' 'write' 'nbread' 'nbwrite'> <Ports = 0> <Width = 1> <Depth = 2> <FIFO>
ST_2 : Operation 117 [1/1] (0.00ns)   --->   "br label %._crit_edge49.i" [/home/paulrr2/Projects/ece527/babelsoc/fpga-network-stack/hls/toe/rx_engine/rx_engine.cpp:917]   --->   Operation 117 'br' <Predicate = (mh_state_load & tmp & tmp_132)> <Delay = 0.00>
ST_2 : Operation 118 [1/1] (0.97ns)   --->   "%tmp_135 = xor i1 %tmp_132, true" [/home/paulrr2/Projects/ece527/babelsoc/fpga-network-stack/hls/toe/rx_engine/rx_engine.cpp:920]   --->   Operation 118 'xor' 'tmp_135' <Predicate = (mh_state_load & tmp & !icmp_ln883)> <Delay = 0.97> <Core = "LogicGate">   --->   Core 27 'LogicGate' <Latency = 0> <II = 1> <Delay = 0.97> <FuncUnit> <Opcode : 'and' 'or' 'xor'> <InPorts = 2> <OutPorts = 1>
ST_2 : Operation 119 [1/1] (2.80ns)   --->   "call void @_ssdm_op_Write.ap_fifo.volatile.i1P(i1* @rxEng_metaHandlerDro_1, i1 %tmp_135) nounwind" [/home/paulrr2/Projects/ece527/babelsoc/fpga-network-stack/hls/toe/rx_engine/rx_engine.cpp:920]   --->   Operation 119 'write' <Predicate = (mh_state_load & tmp & !icmp_ln883)> <Delay = 2.80> <Core = "FIFO">   --->   Core 32 'FIFO' <Latency = 0> <II = 1> <Delay = 3.63> <Storage> <Opcode : 'read' 'write' 'nbread' 'nbwrite'> <Ports = 0> <Width = 1> <Depth = 2> <FIFO>
ST_2 : Operation 120 [1/1] (0.00ns)   --->   "br label %._crit_edge50.i" [/home/paulrr2/Projects/ece527/babelsoc/fpga-network-stack/hls/toe/rx_engine/rx_engine.cpp:921]   --->   Operation 120 'br' <Predicate = (mh_state_load & tmp & !icmp_ln883)> <Delay = 0.00>
ST_2 : Operation 121 [1/1] (0.00ns)   --->   "br label %._crit_edge48.i" [/home/paulrr2/Projects/ece527/babelsoc/fpga-network-stack/hls/toe/rx_engine/rx_engine.cpp:951]   --->   Operation 121 'br' <Predicate = (mh_state_load & tmp)> <Delay = 0.00>
ST_2 : Operation 122 [1/1] (0.00ns)   --->   "br label %rxMetadataHandler.exit" [/home/paulrr2/Projects/ece527/babelsoc/fpga-network-stack/hls/toe/rx_engine/rx_engine.cpp:953]   --->   Operation 122 'br' <Predicate = (mh_state_load)> <Delay = 0.00>
ST_2 : Operation 123 [1/1] (0.00ns)   --->   "ret void"   --->   Operation 123 'ret' <Predicate = true> <Delay = 0.00>


============================================================
+ Verbose Summary: Timing violations
============================================================
Target clock period: 6.4ns, clock uncertainty: 0.8ns.

 <State 1>: 5.73ns
The critical path consists of the following:
	fifo read on port 'rxEng_metaDataFifo_V' (/home/paulrr2/Projects/ece527/babelsoc/fpga-network-stack/hls/toe/rx_engine/rx_engine.cpp:865) [54]  (2.8 ns)
	'icmp' operation ('icmp_ln883_1', /home/paulrr2/Projects/ece527/babelsoc/fpga-network-stack/hls/toe/rx_engine/rx_engine.cpp:896) [120]  (2.43 ns)
	blocking operation 0.505 ns on control path)

 <State 2>: 5.35ns
The critical path consists of the following:
	'add' operation ('__Val2__', /home/paulrr2/Projects/ece527/babelsoc/fpga-network-stack/hls/toe/rx_engine/rx_engine.cpp:892) [99]  (2.55 ns)
	fifo write on port 'rxEng_metaHandlerEve_1' (/home/paulrr2/Projects/ece527/babelsoc/fpga-network-stack/hls/toe/rx_engine/rx_engine.cpp:892) [104]  (2.8 ns)


============================================================
+ Verbose Summary: Binding
============================================================
N/A
* FSMD analyzer results:
  - Output states:
 - Input state : 
  - Chain level:
	State 1
	State 2


============================================================
+ Verbose Summary: Datapath Resource usage 
============================================================
N/A
