

================================================================
== Vivado HLS Report for 'stream_merger_1'
================================================================
* Date:           Sat Dec 12 19:34:13 2020

* Version:        2019.2.1 (Build 2724168 on Thu Dec 05 05:19:09 MST 2019)
* Project:        toe_prj
* Solution:       solution1
* Product family: zynq
* Target device:  xc7z020-clg400-1


================================================================
== Performance Estimates
================================================================
+ Timing: 
    * Summary: 
    +--------+---------+----------+------------+
    |  Clock |  Target | Estimated| Uncertainty|
    +--------+---------+----------+------------+
    |ap_clk  | 6.40 ns | 2.800 ns |   0.80 ns  |
    +--------+---------+----------+------------+

+ Latency: 
    * Summary: 
    +---------+---------+-----------+-----------+-----+-----+----------+
    |  Latency (cycles) |   Latency (absolute)  |  Interval | Pipeline |
    |   min   |   max   |    min    |    max    | min | max |   Type   |
    +---------+---------+-----------+-----------+-----+-----+----------+
    |        2|        2| 12.800 ns | 12.800 ns |    1|    1| function |
    +---------+---------+-----------+-----------+-----+-----+----------+

    + Detail: 
        * Instance: 
        N/A

        * Loop: 
        N/A

============================================================
+ Verbose Summary: Synthesis Manager
============================================================
InlineROM: 1
ExposeGlobal: 0
============================================================
+ Verbose Summary: CDFG Model
============================================================
IsTopModel: 0
ResetActiveHigh: 1
IsCombinational: 2
IsDatapathOnly: 0
HasWiredReturn: 1
HasMFsm: 2
HasVarLatency: 0
IsPipeline: 1
IsRtlPipelined: 1
IsInstanceOverlapped: 0
IsDontTouch: 0
HasImplIP: 0
IsGatedGlobalClock: 0

+ Individual pipeline summary: 
  * Pipeline-0: initiation interval (II) = 1, depth = 3


============================================================
+ Verbose Summary: Schedule
============================================================
* Number of FSM states : 3
* Pipeline : 1
  Pipeline-0 : II = 1, D = 3, States = { 1 2 3 }
* Dataflow Pipeline: 0

* FSM state transitions: 
1 --> 2 
2 --> 3 
3 --> 

* FSM state operations: 

State 1 <SV = 0> <Delay = 2.80>
ST_1 : Operation 4 [1/1] (0.00ns)   --->   "%tmp = call i1 @_ssdm_op_NbReadReq.ap_fifo.i16P(i16* @closeTimer2stateTabl_1, i32 1) nounwind" [/home/paulrr2/Projects/ece527/babelsoc/fpga-network-stack/hls/toe/../axi_utils.hpp:582]   --->   Operation 4 'nbreadreq' 'tmp' <Predicate = true> <Delay = 0.00> <Core = "FIFO">   --->   Core 32 'FIFO' <Latency = 0> <II = 1> <Delay = 3.63> <Storage> <Opcode : 'read' 'write' 'nbread' 'nbwrite'> <Ports = 0> <Width = 16> <Depth = 2> <FIFO>
ST_1 : Operation 5 [1/1] (0.00ns)   --->   "br i1 %tmp, label %0, label %1" [/home/paulrr2/Projects/ece527/babelsoc/fpga-network-stack/hls/toe/../axi_utils.hpp:582]   --->   Operation 5 'br' <Predicate = true> <Delay = 0.00>
ST_1 : Operation 6 [1/1] (2.80ns)   --->   "%tmp_V = call i16 @_ssdm_op_Read.ap_fifo.volatile.i16P(i16* @closeTimer2stateTabl_1) nounwind" [/home/paulrr2/Projects/ece527/babelsoc/fpga-network-stack/hls/toe/../axi_utils.hpp:584]   --->   Operation 6 'read' 'tmp_V' <Predicate = (tmp)> <Delay = 2.80> <Core = "FIFO">   --->   Core 32 'FIFO' <Latency = 0> <II = 1> <Delay = 3.63> <Storage> <Opcode : 'read' 'write' 'nbread' 'nbwrite'> <Ports = 0> <Width = 16> <Depth = 2> <FIFO>

State 2 <SV = 1> <Delay = 2.80>
ST_2 : Operation 7 [1/1] (0.00ns)   --->   "%tmp_74 = call i1 @_ssdm_op_NbReadReq.ap_fifo.i16P(i16* @rtTimer2stateTable_r_1, i32 1) nounwind" [/home/paulrr2/Projects/ece527/babelsoc/fpga-network-stack/hls/toe/../axi_utils.hpp:586]   --->   Operation 7 'nbreadreq' 'tmp_74' <Predicate = (!tmp)> <Delay = 0.00> <Core = "FIFO">   --->   Core 32 'FIFO' <Latency = 0> <II = 1> <Delay = 3.63> <Storage> <Opcode : 'read' 'write' 'nbread' 'nbwrite'> <Ports = 0> <Width = 16> <Depth = 2> <FIFO>
ST_2 : Operation 8 [1/1] (0.00ns)   --->   "br i1 %tmp_74, label %2, label %._crit_edge.i" [/home/paulrr2/Projects/ece527/babelsoc/fpga-network-stack/hls/toe/../axi_utils.hpp:586]   --->   Operation 8 'br' <Predicate = (!tmp)> <Delay = 0.00>
ST_2 : Operation 9 [1/1] (2.80ns)   --->   "%tmp_V_3 = call i16 @_ssdm_op_Read.ap_fifo.volatile.i16P(i16* @rtTimer2stateTable_r_1) nounwind" [/home/paulrr2/Projects/ece527/babelsoc/fpga-network-stack/hls/toe/../axi_utils.hpp:588]   --->   Operation 9 'read' 'tmp_V_3' <Predicate = (!tmp & tmp_74)> <Delay = 2.80> <Core = "FIFO">   --->   Core 32 'FIFO' <Latency = 0> <II = 1> <Delay = 3.63> <Storage> <Opcode : 'read' 'write' 'nbread' 'nbwrite'> <Ports = 0> <Width = 16> <Depth = 2> <FIFO>

State 3 <SV = 2> <Delay = 2.80>
ST_3 : Operation 10 [1/1] (0.00ns)   --->   "call void (...)* @_ssdm_op_SpecInterface(i16* @closeTimer2stateTabl_1, [8 x i8]* @ap_fifo_str, i32 0, i32 0, [1 x i8]* @p_str, i32 0, i32 0, [1 x i8]* @p_str, [1 x i8]* @p_str, [1 x i8]* @p_str, i32 2, i32 2, i32 16, i32 16, [1 x i8]* @p_str, [1 x i8]* @p_str)"   --->   Operation 10 'specinterface' <Predicate = true> <Delay = 0.00>
ST_3 : Operation 11 [1/1] (0.00ns)   --->   "call void (...)* @_ssdm_op_SpecInterface(i16* @rtTimer2stateTable_r_1, [8 x i8]* @ap_fifo_str, i32 0, i32 0, [1 x i8]* @p_str, i32 0, i32 0, [1 x i8]* @p_str, [1 x i8]* @p_str, [1 x i8]* @p_str, i32 2, i32 2, i32 16, i32 16, [1 x i8]* @p_str, [1 x i8]* @p_str)"   --->   Operation 11 'specinterface' <Predicate = true> <Delay = 0.00>
ST_3 : Operation 12 [1/1] (0.00ns)   --->   "call void (...)* @_ssdm_op_SpecInterface(i16* @timer2stateTable_rel_1, [8 x i8]* @ap_fifo_str, i32 0, i32 0, [1 x i8]* @p_str, i32 0, i32 0, [1 x i8]* @p_str, [1 x i8]* @p_str, [1 x i8]* @p_str, i32 2, i32 2, i32 16, i32 16, [1 x i8]* @p_str, [1 x i8]* @p_str)"   --->   Operation 12 'specinterface' <Predicate = true> <Delay = 0.00>
ST_3 : Operation 13 [1/1] (0.00ns)   --->   "call void (...)* @_ssdm_op_SpecPipeline(i32 1, i32 1, i32 1, i32 0, [1 x i8]* @p_str) nounwind" [/home/paulrr2/Projects/ece527/babelsoc/fpga-network-stack/hls/toe/../axi_utils.hpp:579]   --->   Operation 13 'specpipeline' <Predicate = true> <Delay = 0.00>
ST_3 : Operation 14 [1/1] (2.80ns)   --->   "call void @_ssdm_op_Write.ap_fifo.volatile.i16P(i16* @timer2stateTable_rel_1, i16 %tmp_V_3) nounwind" [/home/paulrr2/Projects/ece527/babelsoc/fpga-network-stack/hls/toe/../axi_utils.hpp:588]   --->   Operation 14 'write' <Predicate = (!tmp & tmp_74)> <Delay = 2.80> <Core = "FIFO">   --->   Core 32 'FIFO' <Latency = 0> <II = 1> <Delay = 3.63> <Storage> <Opcode : 'read' 'write' 'nbread' 'nbwrite'> <Ports = 0> <Width = 16> <Depth = 2> <FIFO>
ST_3 : Operation 15 [1/1] (0.00ns)   --->   "br label %._crit_edge.i" [/home/paulrr2/Projects/ece527/babelsoc/fpga-network-stack/hls/toe/../axi_utils.hpp:589]   --->   Operation 15 'br' <Predicate = (!tmp & tmp_74)> <Delay = 0.00>
ST_3 : Operation 16 [1/1] (0.00ns)   --->   "br label %"stream_merger<ap_uint<16> >.exit""   --->   Operation 16 'br' <Predicate = (!tmp)> <Delay = 0.00>
ST_3 : Operation 17 [1/1] (2.80ns)   --->   "call void @_ssdm_op_Write.ap_fifo.volatile.i16P(i16* @timer2stateTable_rel_1, i16 %tmp_V) nounwind" [/home/paulrr2/Projects/ece527/babelsoc/fpga-network-stack/hls/toe/../axi_utils.hpp:584]   --->   Operation 17 'write' <Predicate = (tmp)> <Delay = 2.80> <Core = "FIFO">   --->   Core 32 'FIFO' <Latency = 0> <II = 1> <Delay = 3.63> <Storage> <Opcode : 'read' 'write' 'nbread' 'nbwrite'> <Ports = 0> <Width = 16> <Depth = 2> <FIFO>
ST_3 : Operation 18 [1/1] (0.00ns)   --->   "br label %"stream_merger<ap_uint<16> >.exit"" [/home/paulrr2/Projects/ece527/babelsoc/fpga-network-stack/hls/toe/../axi_utils.hpp:585]   --->   Operation 18 'br' <Predicate = (tmp)> <Delay = 0.00>
ST_3 : Operation 19 [1/1] (0.00ns)   --->   "ret void"   --->   Operation 19 'ret' <Predicate = true> <Delay = 0.00>


============================================================
+ Verbose Summary: Timing violations
============================================================
Target clock period: 6.4ns, clock uncertainty: 0.8ns.

 <State 1>: 2.8ns
The critical path consists of the following:
	fifo read on port 'closeTimer2stateTabl_1' (/home/paulrr2/Projects/ece527/babelsoc/fpga-network-stack/hls/toe/../axi_utils.hpp:584) [21]  (2.8 ns)

 <State 2>: 2.8ns
The critical path consists of the following:
	fifo read on port 'rtTimer2stateTable_r_1' (/home/paulrr2/Projects/ece527/babelsoc/fpga-network-stack/hls/toe/../axi_utils.hpp:588) [15]  (2.8 ns)

 <State 3>: 2.8ns
The critical path consists of the following:
	fifo write on port 'timer2stateTable_rel_1' (/home/paulrr2/Projects/ece527/babelsoc/fpga-network-stack/hls/toe/../axi_utils.hpp:588) [16]  (2.8 ns)


============================================================
+ Verbose Summary: Binding
============================================================
N/A
* FSMD analyzer results:
  - Output states:
 - Input state : 
  - Chain level:
	State 1
	State 2
	State 3


============================================================
+ Verbose Summary: Datapath Resource usage 
============================================================
N/A
