

================================================================
== Vivado HLS Report for 'txAppStatusHandler'
================================================================
* Date:           Sat Dec 12 19:35:17 2020

* Version:        2019.2.1 (Build 2724168 on Thu Dec 05 05:19:09 MST 2019)
* Project:        toe_prj
* Solution:       solution1
* Product family: zynq
* Target device:  xc7z020-clg400-1


================================================================
== Performance Estimates
================================================================
+ Timing: 
    * Summary: 
    +--------+---------+----------+------------+
    |  Clock |  Target | Estimated| Uncertainty|
    +--------+---------+----------+------------+
    |ap_clk  | 6.40 ns | 5.720 ns |   0.80 ns  |
    +--------+---------+----------+------------+

+ Latency: 
    * Summary: 
    +---------+---------+----------+----------+-----+-----+----------+
    |  Latency (cycles) |  Latency (absolute) |  Interval | Pipeline |
    |   min   |   max   |    min   |    max   | min | max |   Type   |
    +---------+---------+----------+----------+-----+-----+----------+
    |        1|        1| 6.400 ns | 6.400 ns |    1|    1| function |
    +---------+---------+----------+----------+-----+-----+----------+

    + Detail: 
        * Instance: 
        N/A

        * Loop: 
        N/A



================================================================
== Utilization Estimates
================================================================
* Summary: 
+-----------------+---------+-------+--------+-------+-----+
|       Name      | BRAM_18K| DSP48E|   FF   |  LUT  | URAM|
+-----------------+---------+-------+--------+-------+-----+
|DSP              |        -|      -|       -|      -|    -|
|Expression       |        -|      -|       0|    117|    -|
|FIFO             |        -|      -|       -|      -|    -|
|Instance         |        -|      -|       -|      -|    -|
|Memory           |        -|      -|       -|      -|    -|
|Multiplexer      |        -|      -|       -|     81|    -|
|Register         |        -|      -|     113|      -|    -|
+-----------------+---------+-------+--------+-------+-----+
|Total            |        0|      0|     113|    198|    0|
+-----------------+---------+-------+--------+-------+-----+
|Available        |      280|    220|  106400|  53200|    0|
+-----------------+---------+-------+--------+-------+-----+
|Utilization (%)  |        0|      0|   ~0   |   ~0  |    0|
+-----------------+---------+-------+--------+-------+-----+

+ Detail: 
    * Instance: 
    N/A

    * DSP48E: 
    N/A

    * Memory: 
    N/A

    * FIFO: 
    N/A

    * Expression: 
    +----------------------------------+----------+-------+---+----+------------+------------+
    |           Variable Name          | Operation| DSP48E| FF| LUT| Bitwidth P0| Bitwidth P1|
    +----------------------------------+----------+-------+---+----+------------+------------+
    |ret_V_fu_160_p2                   |     +    |      0|  0|  26|          19|          19|
    |tmp_app_V_1_fu_262_p2             |     +    |      0|  0|  25|          18|          18|
    |tmp_app_V_fu_245_p2               |     +    |      0|  0|  25|          18|          18|
    |ap_condition_111                  |    and   |      0|  0|   2|           1|           1|
    |ap_condition_154                  |    and   |      0|  0|   2|           1|           1|
    |ap_condition_175                  |    and   |      0|  0|   2|           1|           1|
    |ap_condition_179                  |    and   |      0|  0|   2|           1|           1|
    |ap_condition_206                  |    and   |      0|  0|   2|           1|           1|
    |ap_predicate_op13_read_state1     |    and   |      0|  0|   2|           1|           1|
    |ap_predicate_op26_read_state1     |    and   |      0|  0|   2|           1|           1|
    |ap_predicate_op45_write_state2    |    and   |      0|  0|   2|           1|           1|
    |ap_predicate_op53_write_state2    |    and   |      0|  0|   2|           1|           1|
    |ap_predicate_op8_read_state1      |    and   |      0|  0|   2|           1|           1|
    |grp_nbreadreq_fu_80_p3            |    and   |      0|  0|   2|           1|           0|
    |tmp_nbreadreq_fu_94_p3            |    and   |      0|  0|   2|           1|           0|
    |icmp_ln80_fu_226_p2               |   icmp   |      0|  0|   9|           3|           1|
    |ap_block_pp0_stage0_01001         |    or    |      0|  0|   2|           1|           1|
    |ap_block_state1_pp0_stage0_iter0  |    or    |      0|  0|   2|           1|           1|
    |ap_block_state2_pp0_stage0_iter1  |    or    |      0|  0|   2|           1|           1|
    |ap_enable_pp0                     |    xor   |      0|  0|   2|           1|           2|
    +----------------------------------+----------+-------+---+----+------------+------------+
    |Total                             |          |      0|  0| 117|          74|          71|
    +----------------------------------+----------+-------+---+----+------------+------------+

    * Multiplexer: 
    +---------------------------------------+----+-----------+-----+-----------+
    |                  Name                 | LUT| Input Size| Bits| Total Bits|
    +---------------------------------------+----+-----------+-----+-----------+
    |ap_done                                |   9|          2|    1|          2|
    |ap_phi_mux_storemerge_i_phi_fu_118_p4  |  15|          3|    2|          6|
    |tash_state                             |  15|          3|    2|          6|
    |txApp2txSar_push_V_blk_n               |   9|          2|    1|          2|
    |txApp2txSar_push_V_din                 |  15|          3|   34|        102|
    |txApp_txEventCache_V_blk_n             |   9|          2|    1|          2|
    |txBufferWriteStatus_V_TDATA_blk_n      |   9|          2|    1|          2|
    +---------------------------------------+----+-----------+-----+-----------+
    |Total                                  |  81|         17|   42|        122|
    +---------------------------------------+----+-----------+-----+-----------+

    * Register: 
    +------------------------------+----+----+-----+-----------+
    |             Name             | FF | LUT| Bits| Const Bits|
    +------------------------------+----+----+-----+-----------+
    |ap_CS_fsm                     |   1|   0|    1|          0|
    |ap_done_reg                   |   1|   0|    1|          0|
    |ap_enable_reg_pp0_iter1       |   1|   0|    1|          0|
    |ev_address_V                  |  18|   0|   18|          0|
    |ev_length_V                   |  16|   0|   16|          0|
    |ev_length_V_load_reg_291      |  16|   0|   16|          0|
    |ev_load_reg_285               |  18|   0|   18|          0|
    |ev_sessionID_V                |  16|   0|   16|          0|
    |tash_state                    |   2|   0|    2|          0|
    |tash_state_load_reg_281       |   2|   0|    2|          0|
    |tmp_22_reg_305                |   1|   0|    1|          0|
    |tmp_23_reg_297                |   1|   0|    1|          0|
    |tmp_24_reg_309                |   1|   0|    1|          0|
    |tmp_25_reg_301                |   1|   0|    1|          0|
    |tmp_26_reg_313                |   1|   0|    1|          0|
    |tmp_reg_317                   |   1|   0|    1|          0|
    |tmp_sessionID_V_load_reg_321  |  16|   0|   16|          0|
    +------------------------------+----+----+-----+-----------+
    |Total                         | 113|   0|  113|          0|
    +------------------------------+----+----+-----+-----------+



================================================================
== Interface
================================================================
* Summary: 
+------------------------------+-----+-----+------------+-----------------------+--------------+
|           RTL Ports          | Dir | Bits|  Protocol  |     Source Object     |    C Type    |
+------------------------------+-----+-----+------------+-----------------------+--------------+
|ap_clk                        |  in |    1| ap_ctrl_hs |   txAppStatusHandler  | return value |
|ap_rst                        |  in |    1| ap_ctrl_hs |   txAppStatusHandler  | return value |
|ap_start                      |  in |    1| ap_ctrl_hs |   txAppStatusHandler  | return value |
|ap_done                       | out |    1| ap_ctrl_hs |   txAppStatusHandler  | return value |
|ap_continue                   |  in |    1| ap_ctrl_hs |   txAppStatusHandler  | return value |
|ap_idle                       | out |    1| ap_ctrl_hs |   txAppStatusHandler  | return value |
|ap_ready                      | out |    1| ap_ctrl_hs |   txAppStatusHandler  | return value |
|txBufferWriteStatus_V_TVALID  |  in |    1|    axis    | txBufferWriteStatus_V |    pointer   |
|txBufferWriteStatus_V_TDATA   |  in |    8|    axis    | txBufferWriteStatus_V |    pointer   |
|txBufferWriteStatus_V_TREADY  | out |    1|    axis    | txBufferWriteStatus_V |    pointer   |
|txApp_txEventCache_V_dout     |  in |   56|   ap_fifo  |  txApp_txEventCache_V |    pointer   |
|txApp_txEventCache_V_empty_n  |  in |    1|   ap_fifo  |  txApp_txEventCache_V |    pointer   |
|txApp_txEventCache_V_read     | out |    1|   ap_fifo  |  txApp_txEventCache_V |    pointer   |
|txApp2txSar_push_V_din        | out |   34|   ap_fifo  |   txApp2txSar_push_V  |    pointer   |
|txApp2txSar_push_V_full_n     |  in |    1|   ap_fifo  |   txApp2txSar_push_V  |    pointer   |
|txApp2txSar_push_V_write      | out |    1|   ap_fifo  |   txApp2txSar_push_V  |    pointer   |
+------------------------------+-----+-----+------------+-----------------------+--------------+

============================================================
+ Verbose Summary: Synthesis Manager
============================================================
InlineROM: 1
ExposeGlobal: 0
============================================================
+ Verbose Summary: CDFG Model
============================================================
IsTopModel: 0
ResetActiveHigh: 1
IsCombinational: 2
IsDatapathOnly: 0
HasWiredReturn: 1
HasMFsm: 2
HasVarLatency: 0
IsPipeline: 1
IsRtlPipelined: 1
IsInstanceOverlapped: 0
IsDontTouch: 0
HasImplIP: 0
IsGatedGlobalClock: 0

+ Individual pipeline summary: 
  * Pipeline-0: initiation interval (II) = 1, depth = 2


============================================================
+ Verbose Summary: Schedule
============================================================
* Number of FSM states : 2
* Pipeline : 1
  Pipeline-0 : II = 1, D = 2, States = { 1 2 }
* Dataflow Pipeline: 0

* FSM state transitions: 
1 --> 2 
2 --> 

* FSM state operations: 

State 1 <SV = 0> <Delay = 5.72>
ST_1 : Operation 3 [1/1] (0.00ns)   --->   "%tash_state_load = load i2* @tash_state, align 1" [/home/paulrr2/Projects/ece527/babelsoc/fpga-network-stack/hls/toe/tx_app_interface/tx_app_interface.cpp:76]   --->   Operation 3 'load' 'tash_state_load' <Predicate = true> <Delay = 0.00>
ST_1 : Operation 4 [1/1] (0.00ns)   --->   "%ev_load = load i18* @ev_address_V, align 4" [/home/paulrr2/Projects/ece527/babelsoc/fpga-network-stack/hls/toe/tx_app_interface/tx_app_interface.cpp:98]   --->   Operation 4 'load' 'ev_load' <Predicate = true> <Delay = 0.00>
ST_1 : Operation 5 [1/1] (0.00ns)   --->   "%ev_length_V_load = load i16* @ev_length_V, align 2" [/home/paulrr2/Projects/ece527/babelsoc/fpga-network-stack/hls/toe/tx_app_interface/tx_app_interface.cpp:98]   --->   Operation 5 'load' 'ev_length_V_load' <Predicate = true> <Delay = 0.00>
ST_1 : Operation 6 [1/1] (1.30ns)   --->   "switch i2 %tash_state_load, label %txAppStatusHandler.exit [
    i2 0, label %0
    i2 1, label %3
    i2 -2, label %7
  ]" [/home/paulrr2/Projects/ece527/babelsoc/fpga-network-stack/hls/toe/tx_app_interface/tx_app_interface.cpp:76]   --->   Operation 6 'switch' <Predicate = true> <Delay = 1.30>
ST_1 : Operation 7 [1/1] (0.00ns)   --->   "%tmp_23 = call i1 @_ssdm_op_NbReadReq.axis.i8P(i8* %txBufferWriteStatus_V, i32 1)" [/home/paulrr2/Projects/ece527/babelsoc/fpga-network-stack/hls/toe/tx_app_interface/tx_app_interface.cpp:116]   --->   Operation 7 'nbreadreq' 'tmp_23' <Predicate = (tash_state_load == 2)> <Delay = 0.00> <Core = "AXI4Stream">   --->   Core 5 'AXI4Stream' <Latency = 0> <II = 1> <Delay = 1.00> <Adapter> <Opcode : >
ST_1 : Operation 8 [1/1] (0.00ns)   --->   "%tmp_3 = call i8 @_ssdm_op_Read.axis.volatile.i8P(i8* %txBufferWriteStatus_V)" [/home/paulrr2/Projects/ece527/babelsoc/fpga-network-stack/hls/toe/tx_app_interface/tx_app_interface.cpp:117]   --->   Operation 8 'read' 'tmp_3' <Predicate = (tash_state_load == 2 & tmp_23)> <Delay = 0.00> <Core = "AXI4Stream">   --->   Core 5 'AXI4Stream' <Latency = 0> <II = 1> <Delay = 1.00> <Adapter> <Opcode : >
ST_1 : Operation 9 [1/1] (0.00ns)   --->   "%tmp_25 = call i1 @_ssdm_op_BitSelect.i1.i8.i32(i8 %tmp_3, i32 7)" [/home/paulrr2/Projects/ece527/babelsoc/fpga-network-stack/hls/toe/tx_app_interface/tx_app_interface.cpp:118]   --->   Operation 9 'bitselect' 'tmp_25' <Predicate = (tash_state_load == 2 & tmp_23)> <Delay = 0.00>
ST_1 : Operation 10 [1/1] (0.00ns)   --->   "br i1 %tmp_25, label %9, label %._crit_edge8.i" [/home/paulrr2/Projects/ece527/babelsoc/fpga-network-stack/hls/toe/tx_app_interface/tx_app_interface.cpp:118]   --->   Operation 10 'br' <Predicate = (tash_state_load == 2 & tmp_23)> <Delay = 0.00>
ST_1 : Operation 11 [1/1] (1.81ns)   --->   "store i2 0, i2* @tash_state, align 1" [/home/paulrr2/Projects/ece527/babelsoc/fpga-network-stack/hls/toe/tx_app_interface/tx_app_interface.cpp:124]   --->   Operation 11 'store' <Predicate = (tash_state_load == 2 & tmp_23 & tmp_25)> <Delay = 1.81>
ST_1 : Operation 12 [1/1] (0.00ns)   --->   "%tmp_22 = call i1 @_ssdm_op_NbReadReq.axis.i8P(i8* %txBufferWriteStatus_V, i32 1)" [/home/paulrr2/Projects/ece527/babelsoc/fpga-network-stack/hls/toe/tx_app_interface/tx_app_interface.cpp:93]   --->   Operation 12 'nbreadreq' 'tmp_22' <Predicate = (tash_state_load == 1)> <Delay = 0.00> <Core = "AXI4Stream">   --->   Core 5 'AXI4Stream' <Latency = 0> <II = 1> <Delay = 1.00> <Adapter> <Opcode : >
ST_1 : Operation 13 [1/1] (0.00ns)   --->   "%tmp_1 = call i8 @_ssdm_op_Read.axis.volatile.i8P(i8* %txBufferWriteStatus_V)" [/home/paulrr2/Projects/ece527/babelsoc/fpga-network-stack/hls/toe/tx_app_interface/tx_app_interface.cpp:95]   --->   Operation 13 'read' 'tmp_1' <Predicate = (tash_state_load == 1 & tmp_22)> <Delay = 0.00> <Core = "AXI4Stream">   --->   Core 5 'AXI4Stream' <Latency = 0> <II = 1> <Delay = 1.00> <Adapter> <Opcode : >
ST_1 : Operation 14 [1/1] (0.00ns)   --->   "%tmp_24 = call i1 @_ssdm_op_BitSelect.i1.i8.i32(i8 %tmp_1, i32 7)" [/home/paulrr2/Projects/ece527/babelsoc/fpga-network-stack/hls/toe/tx_app_interface/tx_app_interface.cpp:96]   --->   Operation 14 'bitselect' 'tmp_24' <Predicate = (tash_state_load == 1 & tmp_22)> <Delay = 0.00>
ST_1 : Operation 15 [1/1] (0.00ns)   --->   "br i1 %tmp_24, label %5, label %._crit_edge5.i" [/home/paulrr2/Projects/ece527/babelsoc/fpga-network-stack/hls/toe/tx_app_interface/tx_app_interface.cpp:96]   --->   Operation 15 'br' <Predicate = (tash_state_load == 1 & tmp_22)> <Delay = 0.00>
ST_1 : Operation 16 [1/1] (0.00ns)   --->   "%lhs_V = zext i18 %ev_load to i19" [/home/paulrr2/Projects/ece527/babelsoc/fpga-network-stack/hls/toe/tx_app_interface/tx_app_interface.cpp:98]   --->   Operation 16 'zext' 'lhs_V' <Predicate = (tash_state_load == 1 & tmp_22 & tmp_24)> <Delay = 0.00>
ST_1 : Operation 17 [1/1] (0.00ns)   --->   "%rhs_V = zext i16 %ev_length_V_load to i19" [/home/paulrr2/Projects/ece527/babelsoc/fpga-network-stack/hls/toe/tx_app_interface/tx_app_interface.cpp:98]   --->   Operation 17 'zext' 'rhs_V' <Predicate = (tash_state_load == 1 & tmp_22 & tmp_24)> <Delay = 0.00>
ST_1 : Operation 18 [1/1] (2.13ns)   --->   "%ret_V = add i19 %lhs_V, %rhs_V" [/home/paulrr2/Projects/ece527/babelsoc/fpga-network-stack/hls/toe/tx_app_interface/tx_app_interface.cpp:98]   --->   Operation 18 'add' 'ret_V' <Predicate = (tash_state_load == 1 & tmp_22 & tmp_24)> <Delay = 2.13> <Core = "AddSub">   --->   Core 14 'AddSub' <Latency = 0> <II = 1> <Delay = 2.13> <FuncUnit> <Opcode : 'add' 'sub'> <InPorts = 2> <OutPorts = 1>
ST_1 : Operation 19 [1/1] (0.00ns)   --->   "%tmp_26 = call i1 @_ssdm_op_BitSelect.i1.i19.i32(i19 %ret_V, i32 18)" [/home/paulrr2/Projects/ece527/babelsoc/fpga-network-stack/hls/toe/tx_app_interface/tx_app_interface.cpp:99]   --->   Operation 19 'bitselect' 'tmp_26' <Predicate = (tash_state_load == 1 & tmp_22 & tmp_24)> <Delay = 0.00>
ST_1 : Operation 20 [1/1] (1.76ns)   --->   "br i1 %tmp_26, label %._crit_edge6.i, label %6" [/home/paulrr2/Projects/ece527/babelsoc/fpga-network-stack/hls/toe/tx_app_interface/tx_app_interface.cpp:99]   --->   Operation 20 'br' <Predicate = (tash_state_load == 1 & tmp_22 & tmp_24)> <Delay = 1.76>
ST_1 : Operation 21 [1/1] (1.76ns)   --->   "br label %._crit_edge6.i"   --->   Operation 21 'br' <Predicate = (tash_state_load == 1 & tmp_22 & tmp_24 & !tmp_26)> <Delay = 1.76>
ST_1 : Operation 22 [1/1] (0.00ns)   --->   "%storemerge_i = phi i2 [ 0, %6 ], [ -2, %5 ]"   --->   Operation 22 'phi' 'storemerge_i' <Predicate = (tash_state_load == 1 & tmp_22 & tmp_24)> <Delay = 0.00>
ST_1 : Operation 23 [1/1] (1.81ns)   --->   "store i2 %storemerge_i, i2* @tash_state, align 1" [/home/paulrr2/Projects/ece527/babelsoc/fpga-network-stack/hls/toe/tx_app_interface/tx_app_interface.cpp:101]   --->   Operation 23 'store' <Predicate = (tash_state_load == 1 & tmp_22 & tmp_24)> <Delay = 1.81>
ST_1 : Operation 24 [1/1] (0.00ns)   --->   "%tmp = call i1 @_ssdm_op_NbReadReq.ap_fifo.i56P(i56* @txApp_txEventCache_V, i32 1)" [/home/paulrr2/Projects/ece527/babelsoc/fpga-network-stack/hls/toe/tx_app_interface/tx_app_interface.cpp:78]   --->   Operation 24 'nbreadreq' 'tmp' <Predicate = (tash_state_load == 0)> <Delay = 0.00> <Core = "FIFO">   --->   Core 32 'FIFO' <Latency = 0> <II = 1> <Delay = 3.54> <Storage> <Opcode : 'read' 'write' 'nbread' 'nbwrite'> <Ports = 0> <Width = 16> <Depth = 8> <FIFO>
ST_1 : Operation 25 [1/1] (0.00ns)   --->   "br i1 %tmp, label %1, label %._crit_edge2.i" [/home/paulrr2/Projects/ece527/babelsoc/fpga-network-stack/hls/toe/tx_app_interface/tx_app_interface.cpp:78]   --->   Operation 25 'br' <Predicate = (tash_state_load == 0)> <Delay = 0.00>
ST_1 : Operation 26 [1/1] (2.80ns)   --->   "%tmp8 = call i56 @_ssdm_op_Read.ap_fifo.volatile.i56P(i56* @txApp_txEventCache_V)" [/home/paulrr2/Projects/ece527/babelsoc/fpga-network-stack/hls/toe/tx_app_interface/tx_app_interface.cpp:79]   --->   Operation 26 'read' 'tmp8' <Predicate = (tash_state_load == 0 & tmp)> <Delay = 2.80> <Core = "FIFO">   --->   Core 32 'FIFO' <Latency = 0> <II = 1> <Delay = 3.54> <Storage> <Opcode : 'read' 'write' 'nbread' 'nbwrite'> <Ports = 0> <Width = 16> <Depth = 8> <FIFO>
ST_1 : Operation 27 [1/1] (0.00ns)   --->   "%trunc_ln368 = trunc i56 %tmp8 to i3" [/home/paulrr2/Projects/ece527/babelsoc/fpga-network-stack/hls/toe/tx_app_interface/../toe_internals.hpp:368->/home/paulrr2/Projects/ece527/babelsoc/fpga-network-stack/hls/toe/tx_app_interface/tx_app_interface.cpp:79]   --->   Operation 27 'trunc' 'trunc_ln368' <Predicate = (tash_state_load == 0 & tmp)> <Delay = 0.00>
ST_1 : Operation 28 [1/1] (0.00ns)   --->   "%tmp_sessionID_V_load = call i16 @_ssdm_op_PartSelect.i16.i56.i32.i32(i56 %tmp8, i32 3, i32 18)" [/home/paulrr2/Projects/ece527/babelsoc/fpga-network-stack/hls/toe/tx_app_interface/../toe_internals.hpp:368->/home/paulrr2/Projects/ece527/babelsoc/fpga-network-stack/hls/toe/tx_app_interface/tx_app_interface.cpp:79]   --->   Operation 28 'partselect' 'tmp_sessionID_V_load' <Predicate = (tash_state_load == 0 & tmp)> <Delay = 0.00>
ST_1 : Operation 29 [1/1] (0.00ns)   --->   "%tmp_64_load_2_new_i = call i18 @_ssdm_op_PartSelect.i18.i56.i32.i32(i56 %tmp8, i32 19, i32 36)" [/home/paulrr2/Projects/ece527/babelsoc/fpga-network-stack/hls/toe/tx_app_interface/../toe_internals.hpp:368->/home/paulrr2/Projects/ece527/babelsoc/fpga-network-stack/hls/toe/tx_app_interface/tx_app_interface.cpp:79]   --->   Operation 29 'partselect' 'tmp_64_load_2_new_i' <Predicate = (tash_state_load == 0 & tmp)> <Delay = 0.00>
ST_1 : Operation 30 [1/1] (0.00ns)   --->   "store i18 %tmp_64_load_2_new_i, i18* @ev_address_V, align 4" [/home/paulrr2/Projects/ece527/babelsoc/fpga-network-stack/hls/toe/tx_app_interface/../toe_internals.hpp:368->/home/paulrr2/Projects/ece527/babelsoc/fpga-network-stack/hls/toe/tx_app_interface/tx_app_interface.cpp:79]   --->   Operation 30 'store' <Predicate = (tash_state_load == 0 & tmp)> <Delay = 0.00>
ST_1 : Operation 31 [1/1] (0.00ns)   --->   "%tmp_length_V_load_ne = call i16 @_ssdm_op_PartSelect.i16.i56.i32.i32(i56 %tmp8, i32 37, i32 52)" [/home/paulrr2/Projects/ece527/babelsoc/fpga-network-stack/hls/toe/tx_app_interface/../toe_internals.hpp:368->/home/paulrr2/Projects/ece527/babelsoc/fpga-network-stack/hls/toe/tx_app_interface/tx_app_interface.cpp:79]   --->   Operation 31 'partselect' 'tmp_length_V_load_ne' <Predicate = (tash_state_load == 0 & tmp)> <Delay = 0.00>
ST_1 : Operation 32 [1/1] (0.00ns)   --->   "store i16 %tmp_length_V_load_ne, i16* @ev_length_V, align 4" [/home/paulrr2/Projects/ece527/babelsoc/fpga-network-stack/hls/toe/tx_app_interface/../toe_internals.hpp:368->/home/paulrr2/Projects/ece527/babelsoc/fpga-network-stack/hls/toe/tx_app_interface/tx_app_interface.cpp:79]   --->   Operation 32 'store' <Predicate = (tash_state_load == 0 & tmp)> <Delay = 0.00>
ST_1 : Operation 33 [1/1] (1.13ns)   --->   "%icmp_ln80 = icmp eq i3 %trunc_ln368, 0" [/home/paulrr2/Projects/ece527/babelsoc/fpga-network-stack/hls/toe/tx_app_interface/tx_app_interface.cpp:80]   --->   Operation 33 'icmp' 'icmp_ln80' <Predicate = (tash_state_load == 0 & tmp)> <Delay = 1.13> <Core = "Cmp">   --->   Core 25 'Cmp' <Latency = 0> <II = 1> <Delay = 1.13> <FuncUnit> <Opcode : 'icmp'> <InPorts = 2> <OutPorts = 1>
ST_1 : Operation 34 [1/1] (0.00ns)   --->   "br i1 %icmp_ln80, label %2, label %._crit_edge3.i" [/home/paulrr2/Projects/ece527/babelsoc/fpga-network-stack/hls/toe/tx_app_interface/tx_app_interface.cpp:80]   --->   Operation 34 'br' <Predicate = (tash_state_load == 0 & tmp)> <Delay = 0.00>
ST_1 : Operation 35 [1/1] (1.81ns)   --->   "store i2 1, i2* @tash_state, align 1" [/home/paulrr2/Projects/ece527/babelsoc/fpga-network-stack/hls/toe/tx_app_interface/tx_app_interface.cpp:82]   --->   Operation 35 'store' <Predicate = (tash_state_load == 0 & tmp & icmp_ln80)> <Delay = 1.81>

State 2 <SV = 1> <Delay = 4.93>
ST_2 : Operation 36 [1/1] (0.00ns)   --->   "call void (...)* @_ssdm_op_SpecInterface(i34* @txApp2txSar_push_V, [8 x i8]* @ap_fifo_str, i32 0, i32 0, [1 x i8]* @p_str, i32 0, i32 0, [1 x i8]* @p_str, [1 x i8]* @p_str, [1 x i8]* @p_str, i32 2, i32 2, i32 16, i32 16, [1 x i8]* @p_str, [1 x i8]* @p_str)"   --->   Operation 36 'specinterface' <Predicate = true> <Delay = 0.00>
ST_2 : Operation 37 [1/1] (0.00ns)   --->   "call void (...)* @_ssdm_op_SpecInterface(i56* @txApp_txEventCache_V, [8 x i8]* @ap_fifo_str, i32 0, i32 0, [1 x i8]* @p_str, i32 0, i32 0, [1 x i8]* @p_str, [1 x i8]* @p_str, [1 x i8]* @p_str, i32 2, i32 2, i32 16, i32 16, [1 x i8]* @p_str, [1 x i8]* @p_str)"   --->   Operation 37 'specinterface' <Predicate = true> <Delay = 0.00>
ST_2 : Operation 38 [1/1] (0.00ns)   --->   "call void (...)* @_ssdm_op_SpecInterface(i8* %txBufferWriteStatus_V, [5 x i8]* @p_str27, i32 1, i32 1, [5 x i8]* @p_str28, i32 0, i32 0, [1 x i8]* @p_str, [1 x i8]* @p_str, [1 x i8]* @p_str, i32 0, i32 0, i32 0, i32 0, [19 x i8]* @p_str37, [1 x i8]* @p_str) nounwind"   --->   Operation 38 'specinterface' <Predicate = true> <Delay = 0.00>
ST_2 : Operation 39 [1/1] (0.00ns)   --->   "call void (...)* @_ssdm_op_SpecPipeline(i32 1, i32 1, i32 1, i32 0, [1 x i8]* @p_str109) nounwind" [/home/paulrr2/Projects/ece527/babelsoc/fpga-network-stack/hls/toe/tx_app_interface/tx_app_interface.cpp:69]   --->   Operation 39 'specpipeline' <Predicate = true> <Delay = 0.00>
ST_2 : Operation 40 [1/1] (0.00ns)   --->   "%tmp_sessionID_V = load i16* @ev_sessionID_V, align 2" [/home/paulrr2/Projects/ece527/babelsoc/fpga-network-stack/hls/toe/tx_app_interface/tx_app_interface.cpp:105]   --->   Operation 40 'load' 'tmp_sessionID_V' <Predicate = true> <Delay = 0.00>
ST_2 : Operation 41 [1/1] (0.00ns)   --->   "br i1 %tmp_23, label %8, label %._crit_edge7.i" [/home/paulrr2/Projects/ece527/babelsoc/fpga-network-stack/hls/toe/tx_app_interface/tx_app_interface.cpp:116]   --->   Operation 41 'br' <Predicate = (tash_state_load == 2)> <Delay = 0.00>
ST_2 : Operation 42 [1/1] (0.00ns)   --->   "%zext_ln209 = zext i16 %ev_length_V_load to i18" [/home/paulrr2/Projects/ece527/babelsoc/fpga-network-stack/hls/toe/tx_app_interface/tx_app_interface.cpp:120]   --->   Operation 42 'zext' 'zext_ln209' <Predicate = (tash_state_load == 2 & tmp_23 & tmp_25)> <Delay = 0.00>
ST_2 : Operation 43 [1/1] (2.13ns)   --->   "%tmp_app_V = add i18 %ev_load, %zext_ln209" [/home/paulrr2/Projects/ece527/babelsoc/fpga-network-stack/hls/toe/tx_app_interface/tx_app_interface.cpp:120]   --->   Operation 43 'add' 'tmp_app_V' <Predicate = (tash_state_load == 2 & tmp_23 & tmp_25)> <Delay = 2.13> <Core = "AddSub">   --->   Core 14 'AddSub' <Latency = 0> <II = 1> <Delay = 2.13> <FuncUnit> <Opcode : 'add' 'sub'> <InPorts = 2> <OutPorts = 1>
ST_2 : Operation 44 [1/1] (0.00ns)   --->   "%tmp_4 = call i34 @_ssdm_op_BitConcatenate.i34.i18.i16(i18 %tmp_app_V, i16 %tmp_sessionID_V)" [/home/paulrr2/Projects/ece527/babelsoc/fpga-network-stack/hls/toe/tx_app_interface/tx_app_interface.cpp:120]   --->   Operation 44 'bitconcatenate' 'tmp_4' <Predicate = (tash_state_load == 2 & tmp_23 & tmp_25)> <Delay = 0.00>
ST_2 : Operation 45 [1/1] (2.80ns)   --->   "call void @_ssdm_op_Write.ap_fifo.volatile.i34P(i34* @txApp2txSar_push_V, i34 %tmp_4)" [/home/paulrr2/Projects/ece527/babelsoc/fpga-network-stack/hls/toe/tx_app_interface/tx_app_interface.cpp:120]   --->   Operation 45 'write' <Predicate = (tash_state_load == 2 & tmp_23 & tmp_25)> <Delay = 2.80> <Core = "FIFO">   --->   Core 32 'FIFO' <Latency = 0> <II = 1> <Delay = 3.54> <Storage> <Opcode : 'read' 'write' 'nbread' 'nbwrite'> <Ports = 0> <Width = 16> <Depth = 8> <FIFO>
ST_2 : Operation 46 [1/1] (0.00ns)   --->   "br label %._crit_edge8.i" [/home/paulrr2/Projects/ece527/babelsoc/fpga-network-stack/hls/toe/tx_app_interface/tx_app_interface.cpp:125]   --->   Operation 46 'br' <Predicate = (tash_state_load == 2 & tmp_23 & tmp_25)> <Delay = 0.00>
ST_2 : Operation 47 [1/1] (0.00ns)   --->   "br label %._crit_edge7.i" [/home/paulrr2/Projects/ece527/babelsoc/fpga-network-stack/hls/toe/tx_app_interface/tx_app_interface.cpp:126]   --->   Operation 47 'br' <Predicate = (tash_state_load == 2 & tmp_23)> <Delay = 0.00>
ST_2 : Operation 48 [1/1] (0.00ns)   --->   "br label %txAppStatusHandler.exit" [/home/paulrr2/Projects/ece527/babelsoc/fpga-network-stack/hls/toe/tx_app_interface/tx_app_interface.cpp:127]   --->   Operation 48 'br' <Predicate = (tash_state_load == 2)> <Delay = 0.00>
ST_2 : Operation 49 [1/1] (0.00ns)   --->   "br i1 %tmp_22, label %4, label %._crit_edge4.i" [/home/paulrr2/Projects/ece527/babelsoc/fpga-network-stack/hls/toe/tx_app_interface/tx_app_interface.cpp:93]   --->   Operation 49 'br' <Predicate = (tash_state_load == 1)> <Delay = 0.00>
ST_2 : Operation 50 [1/1] (0.00ns)   --->   "%zext_ln209_1 = zext i16 %ev_length_V_load to i18" [/home/paulrr2/Projects/ece527/babelsoc/fpga-network-stack/hls/toe/tx_app_interface/tx_app_interface.cpp:105]   --->   Operation 50 'zext' 'zext_ln209_1' <Predicate = (tash_state_load == 1 & tmp_22 & tmp_24 & !tmp_26)> <Delay = 0.00>
ST_2 : Operation 51 [1/1] (2.13ns)   --->   "%tmp_app_V_1 = add i18 %ev_load, %zext_ln209_1" [/home/paulrr2/Projects/ece527/babelsoc/fpga-network-stack/hls/toe/tx_app_interface/tx_app_interface.cpp:105]   --->   Operation 51 'add' 'tmp_app_V_1' <Predicate = (tash_state_load == 1 & tmp_22 & tmp_24 & !tmp_26)> <Delay = 2.13> <Core = "AddSub">   --->   Core 14 'AddSub' <Latency = 0> <II = 1> <Delay = 2.13> <FuncUnit> <Opcode : 'add' 'sub'> <InPorts = 2> <OutPorts = 1>
ST_2 : Operation 52 [1/1] (0.00ns)   --->   "%tmp_2 = call i34 @_ssdm_op_BitConcatenate.i34.i18.i16(i18 %tmp_app_V_1, i16 %tmp_sessionID_V)" [/home/paulrr2/Projects/ece527/babelsoc/fpga-network-stack/hls/toe/tx_app_interface/tx_app_interface.cpp:105]   --->   Operation 52 'bitconcatenate' 'tmp_2' <Predicate = (tash_state_load == 1 & tmp_22 & tmp_24 & !tmp_26)> <Delay = 0.00>
ST_2 : Operation 53 [1/1] (2.80ns)   --->   "call void @_ssdm_op_Write.ap_fifo.volatile.i34P(i34* @txApp2txSar_push_V, i34 %tmp_2)" [/home/paulrr2/Projects/ece527/babelsoc/fpga-network-stack/hls/toe/tx_app_interface/tx_app_interface.cpp:105]   --->   Operation 53 'write' <Predicate = (tash_state_load == 1 & tmp_22 & tmp_24 & !tmp_26)> <Delay = 2.80> <Core = "FIFO">   --->   Core 32 'FIFO' <Latency = 0> <II = 1> <Delay = 3.54> <Storage> <Opcode : 'read' 'write' 'nbread' 'nbwrite'> <Ports = 0> <Width = 16> <Depth = 8> <FIFO>
ST_2 : Operation 54 [1/1] (0.00ns)   --->   "br label %._crit_edge5.i" [/home/paulrr2/Projects/ece527/babelsoc/fpga-network-stack/hls/toe/tx_app_interface/tx_app_interface.cpp:111]   --->   Operation 54 'br' <Predicate = (tash_state_load == 1 & tmp_22 & tmp_24)> <Delay = 0.00>
ST_2 : Operation 55 [1/1] (0.00ns)   --->   "br label %._crit_edge4.i" [/home/paulrr2/Projects/ece527/babelsoc/fpga-network-stack/hls/toe/tx_app_interface/tx_app_interface.cpp:113]   --->   Operation 55 'br' <Predicate = (tash_state_load == 1 & tmp_22)> <Delay = 0.00>
ST_2 : Operation 56 [1/1] (0.00ns)   --->   "br label %txAppStatusHandler.exit" [/home/paulrr2/Projects/ece527/babelsoc/fpga-network-stack/hls/toe/tx_app_interface/tx_app_interface.cpp:114]   --->   Operation 56 'br' <Predicate = (tash_state_load == 1)> <Delay = 0.00>
ST_2 : Operation 57 [1/1] (0.00ns)   --->   "store i16 %tmp_sessionID_V_load, i16* @ev_sessionID_V, align 2" [/home/paulrr2/Projects/ece527/babelsoc/fpga-network-stack/hls/toe/tx_app_interface/../toe_internals.hpp:368->/home/paulrr2/Projects/ece527/babelsoc/fpga-network-stack/hls/toe/tx_app_interface/tx_app_interface.cpp:79]   --->   Operation 57 'store' <Predicate = (tash_state_load == 0 & tmp)> <Delay = 0.00>
ST_2 : Operation 58 [1/1] (0.00ns)   --->   "br label %._crit_edge3.i" [/home/paulrr2/Projects/ece527/babelsoc/fpga-network-stack/hls/toe/tx_app_interface/tx_app_interface.cpp:83]   --->   Operation 58 'br' <Predicate = (tash_state_load == 0 & tmp & icmp_ln80)> <Delay = 0.00>
ST_2 : Operation 59 [1/1] (0.00ns)   --->   "br label %._crit_edge2.i" [/home/paulrr2/Projects/ece527/babelsoc/fpga-network-stack/hls/toe/tx_app_interface/tx_app_interface.cpp:90]   --->   Operation 59 'br' <Predicate = (tash_state_load == 0 & tmp)> <Delay = 0.00>
ST_2 : Operation 60 [1/1] (0.00ns)   --->   "br label %txAppStatusHandler.exit" [/home/paulrr2/Projects/ece527/babelsoc/fpga-network-stack/hls/toe/tx_app_interface/tx_app_interface.cpp:91]   --->   Operation 60 'br' <Predicate = (tash_state_load == 0)> <Delay = 0.00>
ST_2 : Operation 61 [1/1] (0.00ns)   --->   "ret void"   --->   Operation 61 'ret' <Predicate = true> <Delay = 0.00>


============================================================
+ Verbose Summary: Binding
============================================================
STG Binding: 
---------------- STG Properties BEGIN ----------------
- Is combinational: 0
- Is one-state seq: 0
- Is datapath-only: 0
- Is pipelined: 1
- Is top level: 0
Port [ Return ] is wired: 1; IO mode=ap_ctrl_hs:ce=0
Port [ txBufferWriteStatus_V]:  wired=1; compound=1; hidden=0; nouse=0; global=0; static=0; extern=0; dir=0; type=0; pingpong=0; private_global=0; IO mode=axis:ce=0
Port [ tash_state]:  wired=0; compound=0; hidden=1; nouse=0; global=1; static=1; extern=0; dir=2; type=0; pingpong=0; private_global=1; linkage=7; visibility=0; IO mode=ap_ovld:ce=0
Port [ ev_sessionID_V]:  wired=0; compound=0; hidden=1; nouse=0; global=1; static=1; extern=0; dir=2; type=0; pingpong=0; private_global=1; linkage=7; visibility=0; IO mode=ap_ovld:ce=0
Port [ ev_address_V]:  wired=0; compound=0; hidden=1; nouse=0; global=1; static=1; extern=0; dir=2; type=0; pingpong=0; private_global=1; linkage=7; visibility=0; IO mode=ap_ovld:ce=0
Port [ ev_length_V]:  wired=0; compound=0; hidden=1; nouse=0; global=1; static=1; extern=0; dir=2; type=0; pingpong=0; private_global=1; linkage=7; visibility=0; IO mode=ap_ovld:ce=0
Port [ txApp_txEventCache_V]:  wired=1; compound=1; hidden=0; nouse=0; global=1; static=1; extern=0; dir=0; type=3; pingpong=0; private_global=0; linkage=7; visibility=0; IO mode=ap_fifo:ce=0
Port [ txApp2txSar_push_V]:  wired=1; compound=1; hidden=0; nouse=0; global=1; static=1; extern=0; dir=1; type=3; pingpong=0; private_global=0; linkage=7; visibility=0; IO mode=ap_fifo:ce=0
---------------- STG Properties END ------------------

---------------- Datapath Model BEGIN ----------------

<LifeTime>
<method=bitvector/>
tash_state_load      (load          ) [ 011]
ev_load              (load          ) [ 011]
ev_length_V_load     (load          ) [ 011]
switch_ln76          (switch        ) [ 000]
tmp_23               (nbreadreq     ) [ 011]
tmp_3                (read          ) [ 000]
tmp_25               (bitselect     ) [ 011]
br_ln118             (br            ) [ 000]
store_ln124          (store         ) [ 000]
tmp_22               (nbreadreq     ) [ 011]
tmp_1                (read          ) [ 000]
tmp_24               (bitselect     ) [ 011]
br_ln96              (br            ) [ 000]
lhs_V                (zext          ) [ 000]
rhs_V                (zext          ) [ 000]
ret_V                (add           ) [ 000]
tmp_26               (bitselect     ) [ 011]
br_ln99              (br            ) [ 000]
br_ln0               (br            ) [ 000]
storemerge_i         (phi           ) [ 000]
store_ln101          (store         ) [ 000]
tmp                  (nbreadreq     ) [ 011]
br_ln78              (br            ) [ 000]
tmp8                 (read          ) [ 000]
trunc_ln368          (trunc         ) [ 000]
tmp_sessionID_V_load (partselect    ) [ 011]
tmp_64_load_2_new_i  (partselect    ) [ 000]
store_ln368          (store         ) [ 000]
tmp_length_V_load_ne (partselect    ) [ 000]
store_ln368          (store         ) [ 000]
icmp_ln80            (icmp          ) [ 011]
br_ln80              (br            ) [ 000]
store_ln82           (store         ) [ 000]
specinterface_ln0    (specinterface ) [ 000]
specinterface_ln0    (specinterface ) [ 000]
specinterface_ln0    (specinterface ) [ 000]
specpipeline_ln69    (specpipeline  ) [ 000]
tmp_sessionID_V      (load          ) [ 000]
br_ln116             (br            ) [ 000]
zext_ln209           (zext          ) [ 000]
tmp_app_V            (add           ) [ 000]
tmp_4                (bitconcatenate) [ 000]
write_ln120          (write         ) [ 000]
br_ln125             (br            ) [ 000]
br_ln126             (br            ) [ 000]
br_ln127             (br            ) [ 000]
br_ln93              (br            ) [ 000]
zext_ln209_1         (zext          ) [ 000]
tmp_app_V_1          (add           ) [ 000]
tmp_2                (bitconcatenate) [ 000]
write_ln105          (write         ) [ 000]
br_ln111             (br            ) [ 000]
br_ln113             (br            ) [ 000]
br_ln114             (br            ) [ 000]
store_ln368          (store         ) [ 000]
br_ln83              (br            ) [ 000]
br_ln90              (br            ) [ 000]
br_ln91              (br            ) [ 000]
ret_ln0              (ret           ) [ 000]
</LifeTime>

<model>

<comp_list>
<comp id="0" class="1000" name="txBufferWriteStatus_V">
<pin_list>
<pin id="1" dir="1" index="0" bw="1" slack="0"/>
</pin_list>
<bind>
<StgValue><ssdm name="txBufferWriteStatus_V"/></StgValue>
</bind>
</comp>

<comp id="2" class="1000" name="tash_state">
<pin_list>
<pin id="3" dir="1" index="0" bw="1" slack="0"/>
</pin_list>
<bind>
<StgValue><ssdm name="tash_state"/></StgValue>
</bind>
</comp>

<comp id="4" class="1000" name="ev_sessionID_V">
<pin_list>
<pin id="5" dir="1" index="0" bw="1" slack="0"/>
</pin_list>
<bind>
<StgValue><ssdm name="ev_sessionID_V"/></StgValue>
</bind>
</comp>

<comp id="6" class="1000" name="ev_address_V">
<pin_list>
<pin id="7" dir="1" index="0" bw="1" slack="0"/>
</pin_list>
<bind>
<StgValue><ssdm name="ev_address_V"/></StgValue>
</bind>
</comp>

<comp id="8" class="1000" name="ev_length_V">
<pin_list>
<pin id="9" dir="1" index="0" bw="1" slack="0"/>
</pin_list>
<bind>
<StgValue><ssdm name="ev_length_V"/></StgValue>
</bind>
</comp>

<comp id="10" class="1000" name="txApp_txEventCache_V">
<pin_list>
<pin id="11" dir="1" index="0" bw="1" slack="0"/>
</pin_list>
<bind>
<StgValue><ssdm name="txApp_txEventCache_V"/></StgValue>
</bind>
</comp>

<comp id="12" class="1000" name="txApp2txSar_push_V">
<pin_list>
<pin id="13" dir="1" index="0" bw="1" slack="0"/>
</pin_list>
<bind>
<StgValue><ssdm name="txApp2txSar_push_V"/></StgValue>
</bind>
</comp>

<comp id="14" class="1001" name="const_14">
<pin_list>
<pin id="15" dir="1" index="0" bw="1" slack="0"/>
</pin_list>
<bind>
<StgValue><ssdm name=""/></StgValue>
</bind>
</comp>

<comp id="16" class="1001" name="const_16">
<pin_list>
<pin id="17" dir="1" index="0" bw="1" slack="0"/>
</pin_list>
<bind>
<StgValue><ssdm name=""/></StgValue>
</bind>
</comp>

<comp id="18" class="1001" name="const_18">
<pin_list>
<pin id="19" dir="1" index="0" bw="1" slack="0"/>
</pin_list>
<bind>
<StgValue><ssdm name=""/></StgValue>
</bind>
</comp>

<comp id="20" class="1001" name="const_20">
<pin_list>
<pin id="21" dir="1" index="0" bw="1" slack="0"/>
</pin_list>
<bind>
<StgValue><ssdm name="_ssdm_op_NbReadReq.axis.i8P"/></StgValue>
</bind>
</comp>

<comp id="22" class="1001" name="const_22">
<pin_list>
<pin id="23" dir="1" index="0" bw="1" slack="0"/>
</pin_list>
<bind>
<StgValue><ssdm name=""/></StgValue>
</bind>
</comp>

<comp id="24" class="1001" name="const_24">
<pin_list>
<pin id="25" dir="1" index="0" bw="1" slack="0"/>
</pin_list>
<bind>
<StgValue><ssdm name="_ssdm_op_Read.axis.volatile.i8P"/></StgValue>
</bind>
</comp>

<comp id="26" class="1001" name="const_26">
<pin_list>
<pin id="27" dir="1" index="0" bw="1" slack="0"/>
</pin_list>
<bind>
<StgValue><ssdm name="_ssdm_op_BitSelect.i1.i8.i32"/></StgValue>
</bind>
</comp>

<comp id="28" class="1001" name="const_28">
<pin_list>
<pin id="29" dir="1" index="0" bw="1" slack="0"/>
</pin_list>
<bind>
<StgValue><ssdm name=""/></StgValue>
</bind>
</comp>

<comp id="30" class="1001" name="const_30">
<pin_list>
<pin id="31" dir="1" index="0" bw="1" slack="0"/>
</pin_list>
<bind>
<StgValue><ssdm name="_ssdm_op_BitSelect.i1.i19.i32"/></StgValue>
</bind>
</comp>

<comp id="32" class="1001" name="const_32">
<pin_list>
<pin id="33" dir="1" index="0" bw="1" slack="0"/>
</pin_list>
<bind>
<StgValue><ssdm name=""/></StgValue>
</bind>
</comp>

<comp id="34" class="1001" name="const_34">
<pin_list>
<pin id="35" dir="1" index="0" bw="1" slack="0"/>
</pin_list>
<bind>
<StgValue><ssdm name="_ssdm_op_NbReadReq.ap_fifo.i56P"/></StgValue>
</bind>
</comp>

<comp id="36" class="1001" name="const_36">
<pin_list>
<pin id="37" dir="1" index="0" bw="1" slack="0"/>
</pin_list>
<bind>
<StgValue><ssdm name="_ssdm_op_Read.ap_fifo.volatile.i56P"/></StgValue>
</bind>
</comp>

<comp id="38" class="1001" name="const_38">
<pin_list>
<pin id="39" dir="1" index="0" bw="1" slack="0"/>
</pin_list>
<bind>
<StgValue><ssdm name="_ssdm_op_PartSelect.i16.i56.i32.i32"/></StgValue>
</bind>
</comp>

<comp id="40" class="1001" name="const_40">
<pin_list>
<pin id="41" dir="1" index="0" bw="1" slack="0"/>
</pin_list>
<bind>
<StgValue><ssdm name=""/></StgValue>
</bind>
</comp>

<comp id="42" class="1001" name="const_42">
<pin_list>
<pin id="43" dir="1" index="0" bw="1" slack="0"/>
</pin_list>
<bind>
<StgValue><ssdm name="_ssdm_op_PartSelect.i18.i56.i32.i32"/></StgValue>
</bind>
</comp>

<comp id="44" class="1001" name="const_44">
<pin_list>
<pin id="45" dir="1" index="0" bw="1" slack="0"/>
</pin_list>
<bind>
<StgValue><ssdm name=""/></StgValue>
</bind>
</comp>

<comp id="46" class="1001" name="const_46">
<pin_list>
<pin id="47" dir="1" index="0" bw="1" slack="0"/>
</pin_list>
<bind>
<StgValue><ssdm name=""/></StgValue>
</bind>
</comp>

<comp id="48" class="1001" name="const_48">
<pin_list>
<pin id="49" dir="1" index="0" bw="1" slack="0"/>
</pin_list>
<bind>
<StgValue><ssdm name=""/></StgValue>
</bind>
</comp>

<comp id="50" class="1001" name="const_50">
<pin_list>
<pin id="51" dir="1" index="0" bw="1" slack="0"/>
</pin_list>
<bind>
<StgValue><ssdm name=""/></StgValue>
</bind>
</comp>

<comp id="52" class="1001" name="const_52">
<pin_list>
<pin id="53" dir="1" index="0" bw="1" slack="0"/>
</pin_list>
<bind>
<StgValue><ssdm name=""/></StgValue>
</bind>
</comp>

<comp id="54" class="1001" name="const_54">
<pin_list>
<pin id="55" dir="1" index="0" bw="1" slack="2147483647"/>
</pin_list>
<bind>
<StgValue><ssdm name="_ssdm_op_SpecInterface"/></StgValue>
</bind>
</comp>

<comp id="56" class="1001" name="const_56">
<pin_list>
<pin id="57" dir="1" index="0" bw="1" slack="2147483647"/>
</pin_list>
<bind>
<StgValue><ssdm name="ap_fifo_str"/></StgValue>
</bind>
</comp>

<comp id="58" class="1001" name="const_58">
<pin_list>
<pin id="59" dir="1" index="0" bw="1" slack="2147483647"/>
</pin_list>
<bind>
<StgValue><ssdm name=""/></StgValue>
</bind>
</comp>

<comp id="60" class="1001" name="const_60">
<pin_list>
<pin id="61" dir="1" index="0" bw="1" slack="2147483647"/>
</pin_list>
<bind>
<StgValue><ssdm name="p_str"/></StgValue>
</bind>
</comp>

<comp id="62" class="1001" name="const_62">
<pin_list>
<pin id="63" dir="1" index="0" bw="1" slack="2147483647"/>
</pin_list>
<bind>
<StgValue><ssdm name=""/></StgValue>
</bind>
</comp>

<comp id="64" class="1001" name="const_64">
<pin_list>
<pin id="65" dir="1" index="0" bw="1" slack="2147483647"/>
</pin_list>
<bind>
<StgValue><ssdm name=""/></StgValue>
</bind>
</comp>

<comp id="66" class="1001" name="const_66">
<pin_list>
<pin id="67" dir="1" index="0" bw="1" slack="2147483647"/>
</pin_list>
<bind>
<StgValue><ssdm name="p_str27"/></StgValue>
</bind>
</comp>

<comp id="68" class="1001" name="const_68">
<pin_list>
<pin id="69" dir="1" index="0" bw="1" slack="2147483647"/>
</pin_list>
<bind>
<StgValue><ssdm name="p_str28"/></StgValue>
</bind>
</comp>

<comp id="70" class="1001" name="const_70">
<pin_list>
<pin id="71" dir="1" index="0" bw="1" slack="2147483647"/>
</pin_list>
<bind>
<StgValue><ssdm name="p_str37"/></StgValue>
</bind>
</comp>

<comp id="72" class="1001" name="const_72">
<pin_list>
<pin id="73" dir="1" index="0" bw="1" slack="2147483647"/>
</pin_list>
<bind>
<StgValue><ssdm name="_ssdm_op_SpecPipeline"/></StgValue>
</bind>
</comp>

<comp id="74" class="1001" name="const_74">
<pin_list>
<pin id="75" dir="1" index="0" bw="1" slack="2147483647"/>
</pin_list>
<bind>
<StgValue><ssdm name="p_str109"/></StgValue>
</bind>
</comp>

<comp id="76" class="1001" name="const_76">
<pin_list>
<pin id="77" dir="1" index="0" bw="1" slack="0"/>
</pin_list>
<bind>
<StgValue><ssdm name="_ssdm_op_BitConcatenate.i34.i18.i16"/></StgValue>
</bind>
</comp>

<comp id="78" class="1001" name="const_78">
<pin_list>
<pin id="79" dir="1" index="0" bw="1" slack="0"/>
</pin_list>
<bind>
<StgValue><ssdm name="_ssdm_op_Write.ap_fifo.volatile.i34P"/></StgValue>
</bind>
</comp>

<comp id="80" class="1004" name="grp_nbreadreq_fu_80">
<pin_list>
<pin id="81" dir="0" index="0" bw="1" slack="0"/>
<pin id="82" dir="0" index="1" bw="8" slack="0"/>
<pin id="83" dir="0" index="2" bw="1" slack="0"/>
<pin id="84" dir="1" index="3" bw="1" slack="1"/>
</pin_list>
<bind>
<opcode="nbreadreq(1156) " fcode="nbreadreq"/>
<opset="tmp_23/1 tmp_22/1 "/>
</bind>
</comp>

<comp id="88" class="1004" name="grp_read_fu_88">
<pin_list>
<pin id="89" dir="0" index="0" bw="8" slack="0"/>
<pin id="90" dir="0" index="1" bw="8" slack="0"/>
<pin id="91" dir="1" index="2" bw="8" slack="0"/>
</pin_list>
<bind>
<opcode="read(1150) " fcode="read"/>
<opset="tmp_3/1 tmp_1/1 "/>
</bind>
</comp>

<comp id="94" class="1004" name="tmp_nbreadreq_fu_94">
<pin_list>
<pin id="95" dir="0" index="0" bw="1" slack="0"/>
<pin id="96" dir="0" index="1" bw="56" slack="0"/>
<pin id="97" dir="0" index="2" bw="1" slack="0"/>
<pin id="98" dir="1" index="3" bw="1" slack="1"/>
</pin_list>
<bind>
<opcode="nbreadreq(1156) " fcode="nbreadreq"/>
<opset="tmp/1 "/>
</bind>
</comp>

<comp id="102" class="1004" name="tmp8_read_fu_102">
<pin_list>
<pin id="103" dir="0" index="0" bw="56" slack="0"/>
<pin id="104" dir="0" index="1" bw="56" slack="0"/>
<pin id="105" dir="1" index="2" bw="56" slack="0"/>
</pin_list>
<bind>
<opcode="read(1150) " fcode="read"/>
<opset="tmp8/1 "/>
</bind>
</comp>

<comp id="108" class="1004" name="grp_write_fu_108">
<pin_list>
<pin id="109" dir="0" index="0" bw="0" slack="0"/>
<pin id="110" dir="0" index="1" bw="34" slack="0"/>
<pin id="111" dir="0" index="2" bw="34" slack="0"/>
<pin id="112" dir="1" index="3" bw="0" slack="2147483647"/>
</pin_list>
<bind>
<opcode="write(1151) " fcode="write"/>
<opset="write_ln120/2 write_ln105/2 "/>
</bind>
</comp>

<comp id="115" class="1005" name="storemerge_i_reg_115">
<pin_list>
<pin id="116" dir="0" index="0" bw="2" slack="2147483647"/>
<pin id="117" dir="1" index="1" bw="2" slack="2147483647"/>
</pin_list>
<bind>
<opset="storemerge_i (phireg) "/>
</bind>
</comp>

<comp id="118" class="1004" name="storemerge_i_phi_fu_118">
<pin_list>
<pin id="119" dir="0" index="0" bw="1" slack="0"/>
<pin id="120" dir="0" index="1" bw="0" slack="2147483647"/>
<pin id="121" dir="0" index="2" bw="2" slack="0"/>
<pin id="122" dir="0" index="3" bw="0" slack="2147483647"/>
<pin id="123" dir="1" index="4" bw="2" slack="0"/>
</pin_list>
<bind>
<opcode="phi(47) " fcode="phi"/>
<opset="storemerge_i/1 "/>
</bind>
</comp>

<comp id="126" class="1004" name="grp_fu_126">
<pin_list>
<pin id="127" dir="0" index="0" bw="1" slack="0"/>
<pin id="128" dir="0" index="1" bw="8" slack="0"/>
<pin id="129" dir="0" index="2" bw="4" slack="0"/>
<pin id="130" dir="1" index="3" bw="1" slack="1"/>
</pin_list>
<bind>
<opcode="bitselect(1000) " fcode="bitselect"/>
<opset="tmp_25/1 tmp_24/1 "/>
</bind>
</comp>

<comp id="134" class="1004" name="tash_state_load_load_fu_134">
<pin_list>
<pin id="135" dir="0" index="0" bw="2" slack="0"/>
<pin id="136" dir="1" index="1" bw="2" slack="1"/>
</pin_list>
<bind>
<opcode="load(27) " fcode="load"/>
<opset="tash_state_load/1 "/>
</bind>
</comp>

<comp id="138" class="1004" name="ev_load_load_fu_138">
<pin_list>
<pin id="139" dir="0" index="0" bw="18" slack="0"/>
<pin id="140" dir="1" index="1" bw="18" slack="0"/>
</pin_list>
<bind>
<opcode="load(27) " fcode="load"/>
<opset="ev_load/1 "/>
</bind>
</comp>

<comp id="142" class="1004" name="ev_length_V_load_load_fu_142">
<pin_list>
<pin id="143" dir="0" index="0" bw="16" slack="0"/>
<pin id="144" dir="1" index="1" bw="16" slack="0"/>
</pin_list>
<bind>
<opcode="load(27) " fcode="load"/>
<opset="ev_length_V_load/1 "/>
</bind>
</comp>

<comp id="146" class="1004" name="store_ln124_store_fu_146">
<pin_list>
<pin id="147" dir="0" index="0" bw="1" slack="0"/>
<pin id="148" dir="0" index="1" bw="2" slack="0"/>
<pin id="149" dir="1" index="2" bw="0" slack="2147483647"/>
</pin_list>
<bind>
<opcode="store(28) " fcode="store"/>
<opset="store_ln124/1 "/>
</bind>
</comp>

<comp id="152" class="1004" name="lhs_V_fu_152">
<pin_list>
<pin id="153" dir="0" index="0" bw="18" slack="0"/>
<pin id="154" dir="1" index="1" bw="19" slack="0"/>
</pin_list>
<bind>
<opcode="zext(34) " fcode="zext"/>
<opset="lhs_V/1 "/>
</bind>
</comp>

<comp id="156" class="1004" name="rhs_V_fu_156">
<pin_list>
<pin id="157" dir="0" index="0" bw="16" slack="0"/>
<pin id="158" dir="1" index="1" bw="19" slack="0"/>
</pin_list>
<bind>
<opcode="zext(34) " fcode="zext"/>
<opset="rhs_V/1 "/>
</bind>
</comp>

<comp id="160" class="1004" name="ret_V_fu_160">
<pin_list>
<pin id="161" dir="0" index="0" bw="18" slack="0"/>
<pin id="162" dir="0" index="1" bw="16" slack="0"/>
<pin id="163" dir="1" index="2" bw="19" slack="0"/>
</pin_list>
<bind>
<opcode="add(8) " fcode="add"/>
<opset="ret_V/1 "/>
</bind>
</comp>

<comp id="166" class="1004" name="tmp_26_fu_166">
<pin_list>
<pin id="167" dir="0" index="0" bw="1" slack="0"/>
<pin id="168" dir="0" index="1" bw="19" slack="0"/>
<pin id="169" dir="0" index="2" bw="6" slack="0"/>
<pin id="170" dir="1" index="3" bw="1" slack="1"/>
</pin_list>
<bind>
<opcode="bitselect(1000) " fcode="bitselect"/>
<opset="tmp_26/1 "/>
</bind>
</comp>

<comp id="174" class="1004" name="store_ln101_store_fu_174">
<pin_list>
<pin id="175" dir="0" index="0" bw="2" slack="0"/>
<pin id="176" dir="0" index="1" bw="2" slack="0"/>
<pin id="177" dir="1" index="2" bw="0" slack="2147483647"/>
</pin_list>
<bind>
<opcode="store(28) " fcode="store"/>
<opset="store_ln101/1 "/>
</bind>
</comp>

<comp id="180" class="1004" name="trunc_ln368_fu_180">
<pin_list>
<pin id="181" dir="0" index="0" bw="56" slack="0"/>
<pin id="182" dir="1" index="1" bw="3" slack="0"/>
</pin_list>
<bind>
<opcode="trunc(33) " fcode="trunc"/>
<opset="trunc_ln368/1 "/>
</bind>
</comp>

<comp id="184" class="1004" name="tmp_sessionID_V_load_fu_184">
<pin_list>
<pin id="185" dir="0" index="0" bw="16" slack="0"/>
<pin id="186" dir="0" index="1" bw="56" slack="0"/>
<pin id="187" dir="0" index="2" bw="3" slack="0"/>
<pin id="188" dir="0" index="3" bw="6" slack="0"/>
<pin id="189" dir="1" index="4" bw="16" slack="1"/>
</pin_list>
<bind>
<opcode="partselect(1002) " fcode="partselect"/>
<opset="tmp_sessionID_V_load/1 "/>
</bind>
</comp>

<comp id="194" class="1004" name="tmp_64_load_2_new_i_fu_194">
<pin_list>
<pin id="195" dir="0" index="0" bw="18" slack="0"/>
<pin id="196" dir="0" index="1" bw="56" slack="0"/>
<pin id="197" dir="0" index="2" bw="6" slack="0"/>
<pin id="198" dir="0" index="3" bw="7" slack="0"/>
<pin id="199" dir="1" index="4" bw="18" slack="0"/>
</pin_list>
<bind>
<opcode="partselect(1002) " fcode="partselect"/>
<opset="tmp_64_load_2_new_i/1 "/>
</bind>
</comp>

<comp id="204" class="1004" name="store_ln368_store_fu_204">
<pin_list>
<pin id="205" dir="0" index="0" bw="18" slack="0"/>
<pin id="206" dir="0" index="1" bw="18" slack="0"/>
<pin id="207" dir="1" index="2" bw="0" slack="2147483647"/>
</pin_list>
<bind>
<opcode="store(28) " fcode="store"/>
<opset="store_ln368/1 "/>
</bind>
</comp>

<comp id="210" class="1004" name="tmp_length_V_load_ne_fu_210">
<pin_list>
<pin id="211" dir="0" index="0" bw="16" slack="0"/>
<pin id="212" dir="0" index="1" bw="56" slack="0"/>
<pin id="213" dir="0" index="2" bw="7" slack="0"/>
<pin id="214" dir="0" index="3" bw="7" slack="0"/>
<pin id="215" dir="1" index="4" bw="16" slack="0"/>
</pin_list>
<bind>
<opcode="partselect(1002) " fcode="partselect"/>
<opset="tmp_length_V_load_ne/1 "/>
</bind>
</comp>

<comp id="220" class="1004" name="store_ln368_store_fu_220">
<pin_list>
<pin id="221" dir="0" index="0" bw="16" slack="0"/>
<pin id="222" dir="0" index="1" bw="16" slack="0"/>
<pin id="223" dir="1" index="2" bw="0" slack="2147483647"/>
</pin_list>
<bind>
<opcode="store(28) " fcode="store"/>
<opset="store_ln368/1 "/>
</bind>
</comp>

<comp id="226" class="1004" name="icmp_ln80_fu_226">
<pin_list>
<pin id="227" dir="0" index="0" bw="3" slack="0"/>
<pin id="228" dir="0" index="1" bw="3" slack="0"/>
<pin id="229" dir="1" index="2" bw="1" slack="1"/>
</pin_list>
<bind>
<opcode="icmp(45) " fcode="icmp"/>
<opset="icmp_ln80/1 "/>
</bind>
</comp>

<comp id="232" class="1004" name="store_ln82_store_fu_232">
<pin_list>
<pin id="233" dir="0" index="0" bw="1" slack="0"/>
<pin id="234" dir="0" index="1" bw="2" slack="0"/>
<pin id="235" dir="1" index="2" bw="0" slack="2147483647"/>
</pin_list>
<bind>
<opcode="store(28) " fcode="store"/>
<opset="store_ln82/1 "/>
</bind>
</comp>

<comp id="238" class="1004" name="tmp_sessionID_V_load_fu_238">
<pin_list>
<pin id="239" dir="0" index="0" bw="16" slack="0"/>
<pin id="240" dir="1" index="1" bw="16" slack="0"/>
</pin_list>
<bind>
<opcode="load(27) " fcode="load"/>
<opset="tmp_sessionID_V/2 "/>
</bind>
</comp>

<comp id="242" class="1004" name="zext_ln209_fu_242">
<pin_list>
<pin id="243" dir="0" index="0" bw="16" slack="1"/>
<pin id="244" dir="1" index="1" bw="18" slack="0"/>
</pin_list>
<bind>
<opcode="zext(34) " fcode="zext"/>
<opset="zext_ln209/2 "/>
</bind>
</comp>

<comp id="245" class="1004" name="tmp_app_V_fu_245">
<pin_list>
<pin id="246" dir="0" index="0" bw="18" slack="1"/>
<pin id="247" dir="0" index="1" bw="16" slack="0"/>
<pin id="248" dir="1" index="2" bw="18" slack="0"/>
</pin_list>
<bind>
<opcode="add(8) " fcode="add"/>
<opset="tmp_app_V/2 "/>
</bind>
</comp>

<comp id="250" class="1004" name="tmp_4_fu_250">
<pin_list>
<pin id="251" dir="0" index="0" bw="34" slack="0"/>
<pin id="252" dir="0" index="1" bw="18" slack="0"/>
<pin id="253" dir="0" index="2" bw="16" slack="0"/>
<pin id="254" dir="1" index="3" bw="34" slack="0"/>
</pin_list>
<bind>
<opcode="bitconcatenate(1004) " fcode="bitconcatenate"/>
<opset="tmp_4/2 "/>
</bind>
</comp>

<comp id="259" class="1004" name="zext_ln209_1_fu_259">
<pin_list>
<pin id="260" dir="0" index="0" bw="16" slack="1"/>
<pin id="261" dir="1" index="1" bw="18" slack="0"/>
</pin_list>
<bind>
<opcode="zext(34) " fcode="zext"/>
<opset="zext_ln209_1/2 "/>
</bind>
</comp>

<comp id="262" class="1004" name="tmp_app_V_1_fu_262">
<pin_list>
<pin id="263" dir="0" index="0" bw="18" slack="1"/>
<pin id="264" dir="0" index="1" bw="16" slack="0"/>
<pin id="265" dir="1" index="2" bw="18" slack="0"/>
</pin_list>
<bind>
<opcode="add(8) " fcode="add"/>
<opset="tmp_app_V_1/2 "/>
</bind>
</comp>

<comp id="267" class="1004" name="tmp_2_fu_267">
<pin_list>
<pin id="268" dir="0" index="0" bw="34" slack="0"/>
<pin id="269" dir="0" index="1" bw="18" slack="0"/>
<pin id="270" dir="0" index="2" bw="16" slack="0"/>
<pin id="271" dir="1" index="3" bw="34" slack="0"/>
</pin_list>
<bind>
<opcode="bitconcatenate(1004) " fcode="bitconcatenate"/>
<opset="tmp_2/2 "/>
</bind>
</comp>

<comp id="276" class="1004" name="store_ln368_store_fu_276">
<pin_list>
<pin id="277" dir="0" index="0" bw="16" slack="1"/>
<pin id="278" dir="0" index="1" bw="16" slack="0"/>
<pin id="279" dir="1" index="2" bw="0" slack="2147483647"/>
</pin_list>
<bind>
<opcode="store(28) " fcode="store"/>
<opset="store_ln368/2 "/>
</bind>
</comp>

<comp id="281" class="1005" name="tash_state_load_reg_281">
<pin_list>
<pin id="282" dir="0" index="0" bw="2" slack="1"/>
<pin id="283" dir="1" index="1" bw="2" slack="2147483647"/>
</pin_list>
<bind>
<opset="tash_state_load "/>
</bind>
</comp>

<comp id="285" class="1005" name="ev_load_reg_285">
<pin_list>
<pin id="286" dir="0" index="0" bw="18" slack="1"/>
<pin id="287" dir="1" index="1" bw="18" slack="1"/>
</pin_list>
<bind>
<opset="ev_load "/>
</bind>
</comp>

<comp id="291" class="1005" name="ev_length_V_load_reg_291">
<pin_list>
<pin id="292" dir="0" index="0" bw="16" slack="1"/>
<pin id="293" dir="1" index="1" bw="16" slack="1"/>
</pin_list>
<bind>
<opset="ev_length_V_load "/>
</bind>
</comp>

<comp id="297" class="1005" name="tmp_23_reg_297">
<pin_list>
<pin id="298" dir="0" index="0" bw="1" slack="1"/>
<pin id="299" dir="1" index="1" bw="1" slack="2147483647"/>
</pin_list>
<bind>
<opset="tmp_23 "/>
</bind>
</comp>

<comp id="301" class="1005" name="tmp_25_reg_301">
<pin_list>
<pin id="302" dir="0" index="0" bw="1" slack="1"/>
<pin id="303" dir="1" index="1" bw="1" slack="2147483647"/>
</pin_list>
<bind>
<opset="tmp_25 "/>
</bind>
</comp>

<comp id="305" class="1005" name="tmp_22_reg_305">
<pin_list>
<pin id="306" dir="0" index="0" bw="1" slack="1"/>
<pin id="307" dir="1" index="1" bw="1" slack="2147483647"/>
</pin_list>
<bind>
<opset="tmp_22 "/>
</bind>
</comp>

<comp id="309" class="1005" name="tmp_24_reg_309">
<pin_list>
<pin id="310" dir="0" index="0" bw="1" slack="1"/>
<pin id="311" dir="1" index="1" bw="1" slack="2147483647"/>
</pin_list>
<bind>
<opset="tmp_24 "/>
</bind>
</comp>

<comp id="313" class="1005" name="tmp_26_reg_313">
<pin_list>
<pin id="314" dir="0" index="0" bw="1" slack="1"/>
<pin id="315" dir="1" index="1" bw="1" slack="2147483647"/>
</pin_list>
<bind>
<opset="tmp_26 "/>
</bind>
</comp>

<comp id="317" class="1005" name="tmp_reg_317">
<pin_list>
<pin id="318" dir="0" index="0" bw="1" slack="1"/>
<pin id="319" dir="1" index="1" bw="1" slack="2147483647"/>
</pin_list>
<bind>
<opset="tmp "/>
</bind>
</comp>

<comp id="321" class="1005" name="tmp_sessionID_V_load_reg_321">
<pin_list>
<pin id="322" dir="0" index="0" bw="16" slack="1"/>
<pin id="323" dir="1" index="1" bw="16" slack="1"/>
</pin_list>
<bind>
<opset="tmp_sessionID_V_load "/>
</bind>
</comp>

<comp id="326" class="1005" name="icmp_ln80_reg_326">
<pin_list>
<pin id="327" dir="0" index="0" bw="1" slack="1"/>
<pin id="328" dir="1" index="1" bw="1" slack="2147483647"/>
</pin_list>
<bind>
<opset="icmp_ln80 "/>
</bind>
</comp>

</comp_list>

<net_list>
<net id="85"><net_src comp="20" pin="0"/><net_sink comp="80" pin=0"/></net>

<net id="86"><net_src comp="0" pin="0"/><net_sink comp="80" pin=1"/></net>

<net id="87"><net_src comp="22" pin="0"/><net_sink comp="80" pin=2"/></net>

<net id="92"><net_src comp="24" pin="0"/><net_sink comp="88" pin=0"/></net>

<net id="93"><net_src comp="0" pin="0"/><net_sink comp="88" pin=1"/></net>

<net id="99"><net_src comp="34" pin="0"/><net_sink comp="94" pin=0"/></net>

<net id="100"><net_src comp="10" pin="0"/><net_sink comp="94" pin=1"/></net>

<net id="101"><net_src comp="22" pin="0"/><net_sink comp="94" pin=2"/></net>

<net id="106"><net_src comp="36" pin="0"/><net_sink comp="102" pin=0"/></net>

<net id="107"><net_src comp="10" pin="0"/><net_sink comp="102" pin=1"/></net>

<net id="113"><net_src comp="78" pin="0"/><net_sink comp="108" pin=0"/></net>

<net id="114"><net_src comp="12" pin="0"/><net_sink comp="108" pin=1"/></net>

<net id="124"><net_src comp="14" pin="0"/><net_sink comp="118" pin=0"/></net>

<net id="125"><net_src comp="18" pin="0"/><net_sink comp="118" pin=2"/></net>

<net id="131"><net_src comp="26" pin="0"/><net_sink comp="126" pin=0"/></net>

<net id="132"><net_src comp="88" pin="2"/><net_sink comp="126" pin=1"/></net>

<net id="133"><net_src comp="28" pin="0"/><net_sink comp="126" pin=2"/></net>

<net id="137"><net_src comp="2" pin="0"/><net_sink comp="134" pin=0"/></net>

<net id="141"><net_src comp="6" pin="0"/><net_sink comp="138" pin=0"/></net>

<net id="145"><net_src comp="8" pin="0"/><net_sink comp="142" pin=0"/></net>

<net id="150"><net_src comp="14" pin="0"/><net_sink comp="146" pin=0"/></net>

<net id="151"><net_src comp="2" pin="0"/><net_sink comp="146" pin=1"/></net>

<net id="155"><net_src comp="138" pin="1"/><net_sink comp="152" pin=0"/></net>

<net id="159"><net_src comp="142" pin="1"/><net_sink comp="156" pin=0"/></net>

<net id="164"><net_src comp="152" pin="1"/><net_sink comp="160" pin=0"/></net>

<net id="165"><net_src comp="156" pin="1"/><net_sink comp="160" pin=1"/></net>

<net id="171"><net_src comp="30" pin="0"/><net_sink comp="166" pin=0"/></net>

<net id="172"><net_src comp="160" pin="2"/><net_sink comp="166" pin=1"/></net>

<net id="173"><net_src comp="32" pin="0"/><net_sink comp="166" pin=2"/></net>

<net id="178"><net_src comp="118" pin="4"/><net_sink comp="174" pin=0"/></net>

<net id="179"><net_src comp="2" pin="0"/><net_sink comp="174" pin=1"/></net>

<net id="183"><net_src comp="102" pin="2"/><net_sink comp="180" pin=0"/></net>

<net id="190"><net_src comp="38" pin="0"/><net_sink comp="184" pin=0"/></net>

<net id="191"><net_src comp="102" pin="2"/><net_sink comp="184" pin=1"/></net>

<net id="192"><net_src comp="40" pin="0"/><net_sink comp="184" pin=2"/></net>

<net id="193"><net_src comp="32" pin="0"/><net_sink comp="184" pin=3"/></net>

<net id="200"><net_src comp="42" pin="0"/><net_sink comp="194" pin=0"/></net>

<net id="201"><net_src comp="102" pin="2"/><net_sink comp="194" pin=1"/></net>

<net id="202"><net_src comp="44" pin="0"/><net_sink comp="194" pin=2"/></net>

<net id="203"><net_src comp="46" pin="0"/><net_sink comp="194" pin=3"/></net>

<net id="208"><net_src comp="194" pin="4"/><net_sink comp="204" pin=0"/></net>

<net id="209"><net_src comp="6" pin="0"/><net_sink comp="204" pin=1"/></net>

<net id="216"><net_src comp="38" pin="0"/><net_sink comp="210" pin=0"/></net>

<net id="217"><net_src comp="102" pin="2"/><net_sink comp="210" pin=1"/></net>

<net id="218"><net_src comp="48" pin="0"/><net_sink comp="210" pin=2"/></net>

<net id="219"><net_src comp="50" pin="0"/><net_sink comp="210" pin=3"/></net>

<net id="224"><net_src comp="210" pin="4"/><net_sink comp="220" pin=0"/></net>

<net id="225"><net_src comp="8" pin="0"/><net_sink comp="220" pin=1"/></net>

<net id="230"><net_src comp="180" pin="1"/><net_sink comp="226" pin=0"/></net>

<net id="231"><net_src comp="52" pin="0"/><net_sink comp="226" pin=1"/></net>

<net id="236"><net_src comp="16" pin="0"/><net_sink comp="232" pin=0"/></net>

<net id="237"><net_src comp="2" pin="0"/><net_sink comp="232" pin=1"/></net>

<net id="241"><net_src comp="4" pin="0"/><net_sink comp="238" pin=0"/></net>

<net id="249"><net_src comp="242" pin="1"/><net_sink comp="245" pin=1"/></net>

<net id="255"><net_src comp="76" pin="0"/><net_sink comp="250" pin=0"/></net>

<net id="256"><net_src comp="245" pin="2"/><net_sink comp="250" pin=1"/></net>

<net id="257"><net_src comp="238" pin="1"/><net_sink comp="250" pin=2"/></net>

<net id="258"><net_src comp="250" pin="3"/><net_sink comp="108" pin=2"/></net>

<net id="266"><net_src comp="259" pin="1"/><net_sink comp="262" pin=1"/></net>

<net id="272"><net_src comp="76" pin="0"/><net_sink comp="267" pin=0"/></net>

<net id="273"><net_src comp="262" pin="2"/><net_sink comp="267" pin=1"/></net>

<net id="274"><net_src comp="238" pin="1"/><net_sink comp="267" pin=2"/></net>

<net id="275"><net_src comp="267" pin="3"/><net_sink comp="108" pin=2"/></net>

<net id="280"><net_src comp="4" pin="0"/><net_sink comp="276" pin=1"/></net>

<net id="284"><net_src comp="134" pin="1"/><net_sink comp="281" pin=0"/></net>

<net id="288"><net_src comp="138" pin="1"/><net_sink comp="285" pin=0"/></net>

<net id="289"><net_src comp="285" pin="1"/><net_sink comp="245" pin=0"/></net>

<net id="290"><net_src comp="285" pin="1"/><net_sink comp="262" pin=0"/></net>

<net id="294"><net_src comp="142" pin="1"/><net_sink comp="291" pin=0"/></net>

<net id="295"><net_src comp="291" pin="1"/><net_sink comp="242" pin=0"/></net>

<net id="296"><net_src comp="291" pin="1"/><net_sink comp="259" pin=0"/></net>

<net id="300"><net_src comp="80" pin="3"/><net_sink comp="297" pin=0"/></net>

<net id="304"><net_src comp="126" pin="3"/><net_sink comp="301" pin=0"/></net>

<net id="308"><net_src comp="80" pin="3"/><net_sink comp="305" pin=0"/></net>

<net id="312"><net_src comp="126" pin="3"/><net_sink comp="309" pin=0"/></net>

<net id="316"><net_src comp="166" pin="3"/><net_sink comp="313" pin=0"/></net>

<net id="320"><net_src comp="94" pin="3"/><net_sink comp="317" pin=0"/></net>

<net id="324"><net_src comp="184" pin="4"/><net_sink comp="321" pin=0"/></net>

<net id="325"><net_src comp="321" pin="1"/><net_sink comp="276" pin=0"/></net>

<net id="329"><net_src comp="226" pin="2"/><net_sink comp="326" pin=0"/></net>

</net_list>

</model> 
---------------- Datapath Model END ------------------

* FSMD analyzer results:
  - Output states:
	Port: txBufferWriteStatus_V | {}
	Port: tash_state | {1 }
	Port: ev_sessionID_V | {2 }
	Port: ev_address_V | {1 }
	Port: ev_length_V | {1 }
	Port: txApp_txEventCache_V | {}
	Port: txApp2txSar_push_V | {2 }
 - Input state : 
	Port: txAppStatusHandler : txBufferWriteStatus_V | {1 }
	Port: txAppStatusHandler : tash_state | {1 }
	Port: txAppStatusHandler : ev_sessionID_V | {2 }
	Port: txAppStatusHandler : ev_address_V | {1 }
	Port: txAppStatusHandler : ev_length_V | {1 }
	Port: txAppStatusHandler : txApp_txEventCache_V | {1 }
	Port: txAppStatusHandler : txApp2txSar_push_V | {}
  - Chain level:
	State 1
		switch_ln76 : 1
		br_ln118 : 1
		br_ln96 : 1
		lhs_V : 1
		rhs_V : 1
		ret_V : 2
		tmp_26 : 3
		br_ln99 : 4
		storemerge_i : 5
		store_ln101 : 6
		store_ln368 : 1
		store_ln368 : 1
		icmp_ln80 : 1
		br_ln80 : 2
	State 2
		tmp_app_V : 1
		tmp_4 : 2
		write_ln120 : 3
		tmp_app_V_1 : 1
		tmp_2 : 2
		write_ln105 : 3


============================================================
+ Verbose Summary: Datapath Resource usage 
============================================================

* Functional unit list:
|----------|-----------------------------|---------|---------|
| Operation|       Functional Unit       |    FF   |   LUT   |
|----------|-----------------------------|---------|---------|
|          |         ret_V_fu_160        |    0    |    25   |
|    add   |       tmp_app_V_fu_245      |    0    |    25   |
|          |      tmp_app_V_1_fu_262     |    0    |    25   |
|----------|-----------------------------|---------|---------|
|   icmp   |       icmp_ln80_fu_226      |    0    |    9    |
|----------|-----------------------------|---------|---------|
| nbreadreq|     grp_nbreadreq_fu_80     |    0    |    0    |
|          |     tmp_nbreadreq_fu_94     |    0    |    0    |
|----------|-----------------------------|---------|---------|
|   read   |        grp_read_fu_88       |    0    |    0    |
|          |       tmp8_read_fu_102      |    0    |    0    |
|----------|-----------------------------|---------|---------|
|   write  |       grp_write_fu_108      |    0    |    0    |
|----------|-----------------------------|---------|---------|
| bitselect|          grp_fu_126         |    0    |    0    |
|          |        tmp_26_fu_166        |    0    |    0    |
|----------|-----------------------------|---------|---------|
|          |         lhs_V_fu_152        |    0    |    0    |
|   zext   |         rhs_V_fu_156        |    0    |    0    |
|          |      zext_ln209_fu_242      |    0    |    0    |
|          |     zext_ln209_1_fu_259     |    0    |    0    |
|----------|-----------------------------|---------|---------|
|   trunc  |      trunc_ln368_fu_180     |    0    |    0    |
|----------|-----------------------------|---------|---------|
|          | tmp_sessionID_V_load_fu_184 |    0    |    0    |
|partselect|  tmp_64_load_2_new_i_fu_194 |    0    |    0    |
|          | tmp_length_V_load_ne_fu_210 |    0    |    0    |
|----------|-----------------------------|---------|---------|
|bitconcatenate|         tmp_4_fu_250        |    0    |    0    |
|          |         tmp_2_fu_267        |    0    |    0    |
|----------|-----------------------------|---------|---------|
|   Total  |                             |    0    |    84   |
|----------|-----------------------------|---------|---------|

Memories:
N/A

* Register list:
+----------------------------+--------+
|                            |   FF   |
+----------------------------+--------+
|  ev_length_V_load_reg_291  |   16   |
|       ev_load_reg_285      |   18   |
|      icmp_ln80_reg_326     |    1   |
|    storemerge_i_reg_115    |    2   |
|   tash_state_load_reg_281  |    2   |
|       tmp_22_reg_305       |    1   |
|       tmp_23_reg_297       |    1   |
|       tmp_24_reg_309       |    1   |
|       tmp_25_reg_301       |    1   |
|       tmp_26_reg_313       |    1   |
|         tmp_reg_317        |    1   |
|tmp_sessionID_V_load_reg_321|   16   |
+----------------------------+--------+
|            Total           |   61   |
+----------------------------+--------+

* Multiplexer (MUX) list: 
|------------------|------|------|------|--------||---------||---------|
|       Comp       |  Pin | Size |  BW  | S x BW ||  Delay  ||   LUT   |
|------------------|------|------|------|--------||---------||---------|
| grp_write_fu_108 |  p2  |   2  |  34  |   68   ||    9    |
|------------------|------|------|------|--------||---------||---------|
|       Total      |      |      |      |   68   ||  1.769  ||    9    |
|------------------|------|------|------|--------||---------||---------|



* Summary:
+-----------+--------+--------+--------+
|           |  Delay |   FF   |   LUT  |
+-----------+--------+--------+--------+
|  Function |    -   |    0   |   84   |
|   Memory  |    -   |    -   |    -   |
|Multiplexer|    1   |    -   |    9   |
|  Register |    -   |   61   |    -   |
+-----------+--------+--------+--------+
|   Total   |    1   |   61   |   93   |
+-----------+--------+--------+--------+
