

================================================================
== Vivado HLS Report for 'updateReplyHandler'
================================================================
* Date:           Sat Dec 12 19:34:06 2020

* Version:        2019.2.1 (Build 2724168 on Thu Dec 05 05:19:09 MST 2019)
* Project:        toe_prj
* Solution:       solution1
* Product family: zynq
* Target device:  xc7z020-clg400-1


================================================================
== Performance Estimates
================================================================
+ Timing: 
    * Summary: 
    +--------+---------+----------+------------+
    |  Clock |  Target | Estimated| Uncertainty|
    +--------+---------+----------+------------+
    |ap_clk  | 6.40 ns | 2.800 ns |   0.80 ns  |
    +--------+---------+----------+------------+

+ Latency: 
    * Summary: 
    +---------+---------+----------+----------+-----+-----+----------+
    |  Latency (cycles) |  Latency (absolute) |  Interval | Pipeline |
    |   min   |   max   |    min   |    max   | min | max |   Type   |
    +---------+---------+----------+----------+-----+-----+----------+
    |        1|        1| 6.400 ns | 6.400 ns |    1|    1| function |
    +---------+---------+----------+----------+-----+-----+----------+

    + Detail: 
        * Instance: 
        N/A

        * Loop: 
        N/A

============================================================
+ Verbose Summary: Synthesis Manager
============================================================
InlineROM: 1
ExposeGlobal: 0
============================================================
+ Verbose Summary: CDFG Model
============================================================
IsTopModel: 0
ResetActiveHigh: 1
IsCombinational: 2
IsDatapathOnly: 0
HasWiredReturn: 1
HasMFsm: 2
HasVarLatency: 0
IsPipeline: 1
IsRtlPipelined: 1
IsInstanceOverlapped: 0
IsDontTouch: 0
HasImplIP: 0
IsGatedGlobalClock: 0

+ Individual pipeline summary: 
  * Pipeline-0: initiation interval (II) = 1, depth = 2


============================================================
+ Verbose Summary: Schedule
============================================================
* Number of FSM states : 2
* Pipeline : 1
  Pipeline-0 : II = 1, D = 2, States = { 1 2 }
* Dataflow Pipeline: 0

* FSM state transitions: 
1 --> 2 
2 --> 

* FSM state operations: 

State 1 <SV = 0> <Delay = 0.97>
ST_1 : Operation 3 [1/1] (0.00ns)   --->   "%tmp = call i1 @_ssdm_op_NbReadReq.axis.i88P(i88* %sessionUpdate_rsp_V, i32 1)" [/home/paulrr2/Projects/ece527/babelsoc/fpga-network-stack/hls/toe/session_lookup_controller/session_lookup_controller.cpp:229]   --->   Operation 3 'nbreadreq' 'tmp' <Predicate = true> <Delay = 0.00> <Core = "AXI4Stream">   --->   Core 5 'AXI4Stream' <Latency = 0> <II = 1> <Delay = 1.00> <Adapter> <Opcode : >
ST_1 : Operation 4 [1/1] (0.00ns)   --->   "br i1 %tmp, label %0, label %updateReplyHandler.exit" [/home/paulrr2/Projects/ece527/babelsoc/fpga-network-stack/hls/toe/session_lookup_controller/session_lookup_controller.cpp:229]   --->   Operation 4 'br' <Predicate = true> <Delay = 0.00>
ST_1 : Operation 5 [1/1] (0.00ns)   --->   "%sessionUpdate_rsp_V_s = call i88 @_ssdm_op_Read.axis.volatile.i88P(i88* %sessionUpdate_rsp_V)" [/home/paulrr2/Projects/ece527/babelsoc/fpga-network-stack/hls/toe/session_lookup_controller/session_lookup_controller.cpp:231]   --->   Operation 5 'read' 'sessionUpdate_rsp_V_s' <Predicate = (tmp)> <Delay = 0.00> <Core = "AXI4Stream">   --->   Core 5 'AXI4Stream' <Latency = 0> <II = 1> <Delay = 1.00> <Adapter> <Opcode : >
ST_1 : Operation 6 [1/1] (0.00ns)   --->   "%trunc_ln148 = trunc i88 %sessionUpdate_rsp_V_s to i1" [/home/paulrr2/Projects/ece527/babelsoc/fpga-network-stack/hls/toe/session_lookup_controller/session_lookup_controller.hpp:148->/home/paulrr2/Projects/ece527/babelsoc/fpga-network-stack/hls/toe/session_lookup_controller/session_lookup_controller.cpp:231]   --->   Operation 6 'trunc' 'trunc_ln148' <Predicate = (tmp)> <Delay = 0.00>
ST_1 : Operation 7 [1/1] (0.00ns)   --->   "%tmp_key_theirIp_V = call i32 @_ssdm_op_PartSelect.i32.i88.i32.i32(i88 %sessionUpdate_rsp_V_s, i32 1, i32 32)" [/home/paulrr2/Projects/ece527/babelsoc/fpga-network-stack/hls/toe/session_lookup_controller/session_lookup_controller.hpp:57->/home/paulrr2/Projects/ece527/babelsoc/fpga-network-stack/hls/toe/session_lookup_controller/session_lookup_controller.hpp:148->/home/paulrr2/Projects/ece527/babelsoc/fpga-network-stack/hls/toe/session_lookup_controller/session_lookup_controller.cpp:231]   --->   Operation 7 'partselect' 'tmp_key_theirIp_V' <Predicate = (tmp)> <Delay = 0.00>
ST_1 : Operation 8 [1/1] (0.00ns)   --->   "%tmp_key_myPort_V = call i16 @_ssdm_op_PartSelect.i16.i88.i32.i32(i88 %sessionUpdate_rsp_V_s, i32 33, i32 48)" [/home/paulrr2/Projects/ece527/babelsoc/fpga-network-stack/hls/toe/session_lookup_controller/session_lookup_controller.hpp:57->/home/paulrr2/Projects/ece527/babelsoc/fpga-network-stack/hls/toe/session_lookup_controller/session_lookup_controller.hpp:148->/home/paulrr2/Projects/ece527/babelsoc/fpga-network-stack/hls/toe/session_lookup_controller/session_lookup_controller.cpp:231]   --->   Operation 8 'partselect' 'tmp_key_myPort_V' <Predicate = (tmp)> <Delay = 0.00>
ST_1 : Operation 9 [1/1] (0.00ns)   --->   "%tmp_key_theirPort_V = call i16 @_ssdm_op_PartSelect.i16.i88.i32.i32(i88 %sessionUpdate_rsp_V_s, i32 49, i32 64)" [/home/paulrr2/Projects/ece527/babelsoc/fpga-network-stack/hls/toe/session_lookup_controller/session_lookup_controller.hpp:57->/home/paulrr2/Projects/ece527/babelsoc/fpga-network-stack/hls/toe/session_lookup_controller/session_lookup_controller.hpp:148->/home/paulrr2/Projects/ece527/babelsoc/fpga-network-stack/hls/toe/session_lookup_controller/session_lookup_controller.cpp:231]   --->   Operation 9 'partselect' 'tmp_key_theirPort_V' <Predicate = (tmp)> <Delay = 0.00>
ST_1 : Operation 10 [1/1] (0.00ns)   --->   "%tmp_sessionID_V = call i16 @_ssdm_op_PartSelect.i16.i88.i32.i32(i88 %sessionUpdate_rsp_V_s, i32 65, i32 80)" [/home/paulrr2/Projects/ece527/babelsoc/fpga-network-stack/hls/toe/session_lookup_controller/session_lookup_controller.hpp:148->/home/paulrr2/Projects/ece527/babelsoc/fpga-network-stack/hls/toe/session_lookup_controller/session_lookup_controller.cpp:231]   --->   Operation 10 'partselect' 'tmp_sessionID_V' <Predicate = (tmp)> <Delay = 0.00>
ST_1 : Operation 11 [1/1] (0.00ns)   --->   "%tmp_success = call i1 @_ssdm_op_BitSelect.i1.i88.i32(i88 %sessionUpdate_rsp_V_s, i32 81)" [/home/paulrr2/Projects/ece527/babelsoc/fpga-network-stack/hls/toe/session_lookup_controller/session_lookup_controller.hpp:148->/home/paulrr2/Projects/ece527/babelsoc/fpga-network-stack/hls/toe/session_lookup_controller/session_lookup_controller.cpp:231]   --->   Operation 11 'bitselect' 'tmp_success' <Predicate = (tmp)> <Delay = 0.00>
ST_1 : Operation 12 [1/1] (0.00ns)   --->   "%tmp_source = call i1 @_ssdm_op_BitSelect.i1.i88.i32(i88 %sessionUpdate_rsp_V_s, i32 82)" [/home/paulrr2/Projects/ece527/babelsoc/fpga-network-stack/hls/toe/session_lookup_controller/session_lookup_controller.hpp:148->/home/paulrr2/Projects/ece527/babelsoc/fpga-network-stack/hls/toe/session_lookup_controller/session_lookup_controller.cpp:231]   --->   Operation 12 'bitselect' 'tmp_source' <Predicate = (tmp)> <Delay = 0.00>
ST_1 : Operation 13 [1/1] (0.00ns)   --->   "br i1 %trunc_ln148, label %._crit_edge1.i, label %1" [/home/paulrr2/Projects/ece527/babelsoc/fpga-network-stack/hls/toe/session_lookup_controller/session_lookup_controller.cpp:232]   --->   Operation 13 'br' <Predicate = (tmp)> <Delay = 0.00>

State 2 <SV = 1> <Delay = 2.80>
ST_2 : Operation 14 [1/1] (0.00ns)   --->   "call void (...)* @_ssdm_op_SpecInterface(i16* @slc_sessionInsert_rs_8, [8 x i8]* @ap_fifo_str, i32 0, i32 0, [1 x i8]* @p_str, i32 0, i32 0, [1 x i8]* @p_str, [1 x i8]* @p_str, [1 x i8]* @p_str, i32 2, i32 2, i32 16, i32 16, [1 x i8]* @p_str, [1 x i8]* @p_str)"   --->   Operation 14 'specinterface' <Predicate = true> <Delay = 0.00>
ST_2 : Operation 15 [1/1] (0.00ns)   --->   "call void (...)* @_ssdm_op_SpecInterface(i32* @slc_sessionInsert_rs_9, [8 x i8]* @ap_fifo_str, i32 0, i32 0, [1 x i8]* @p_str, i32 0, i32 0, [1 x i8]* @p_str, [1 x i8]* @p_str, [1 x i8]* @p_str, i32 2, i32 2, i32 16, i32 16, [1 x i8]* @p_str, [1 x i8]* @p_str)"   --->   Operation 15 'specinterface' <Predicate = true> <Delay = 0.00>
ST_2 : Operation 16 [1/1] (0.00ns)   --->   "call void (...)* @_ssdm_op_SpecInterface(i16* @slc_sessionInsert_rs_11, [8 x i8]* @ap_fifo_str, i32 0, i32 0, [1 x i8]* @p_str, i32 0, i32 0, [1 x i8]* @p_str, [1 x i8]* @p_str, [1 x i8]* @p_str, i32 2, i32 2, i32 16, i32 16, [1 x i8]* @p_str, [1 x i8]* @p_str)"   --->   Operation 16 'specinterface' <Predicate = true> <Delay = 0.00>
ST_2 : Operation 17 [1/1] (0.00ns)   --->   "call void (...)* @_ssdm_op_SpecInterface(i1* @slc_sessionInsert_rs_13, [8 x i8]* @ap_fifo_str, i32 0, i32 0, [1 x i8]* @p_str, i32 0, i32 0, [1 x i8]* @p_str, [1 x i8]* @p_str, [1 x i8]* @p_str, i32 2, i32 2, i32 16, i32 16, [1 x i8]* @p_str, [1 x i8]* @p_str)"   --->   Operation 17 'specinterface' <Predicate = true> <Delay = 0.00>
ST_2 : Operation 18 [1/1] (0.00ns)   --->   "call void (...)* @_ssdm_op_SpecInterface(i16* @slc_sessionInsert_rs_14, [8 x i8]* @ap_fifo_str, i32 0, i32 0, [1 x i8]* @p_str, i32 0, i32 0, [1 x i8]* @p_str, [1 x i8]* @p_str, [1 x i8]* @p_str, i32 2, i32 2, i32 16, i32 16, [1 x i8]* @p_str, [1 x i8]* @p_str)"   --->   Operation 18 'specinterface' <Predicate = true> <Delay = 0.00>
ST_2 : Operation 19 [1/1] (0.00ns)   --->   "call void (...)* @_ssdm_op_SpecInterface(i1* @slc_sessionInsert_rs_15, [8 x i8]* @ap_fifo_str, i32 0, i32 0, [1 x i8]* @p_str, i32 0, i32 0, [1 x i8]* @p_str, [1 x i8]* @p_str, [1 x i8]* @p_str, i32 2, i32 2, i32 16, i32 16, [1 x i8]* @p_str, [1 x i8]* @p_str)"   --->   Operation 19 'specinterface' <Predicate = true> <Delay = 0.00>
ST_2 : Operation 20 [1/1] (0.00ns)   --->   "call void (...)* @_ssdm_op_SpecInterface(i1* @slc_sessionInsert_rs_7, [8 x i8]* @ap_fifo_str, i32 0, i32 0, [1 x i8]* @p_str, i32 0, i32 0, [1 x i8]* @p_str, [1 x i8]* @p_str, [1 x i8]* @p_str, i32 2, i32 2, i32 16, i32 16, [1 x i8]* @p_str, [1 x i8]* @p_str)"   --->   Operation 20 'specinterface' <Predicate = true> <Delay = 0.00>
ST_2 : Operation 21 [1/1] (0.00ns)   --->   "call void (...)* @_ssdm_op_SpecInterface(i88* %sessionUpdate_rsp_V, [5 x i8]* @p_str27, i32 1, i32 1, [5 x i8]* @p_str28, i32 0, i32 0, [1 x i8]* @p_str, [1 x i8]* @p_str, [1 x i8]* @p_str, i32 0, i32 0, i32 0, i32 0, [23 x i8]* @p_str41, [1 x i8]* @p_str)"   --->   Operation 21 'specinterface' <Predicate = true> <Delay = 0.00>
ST_2 : Operation 22 [1/1] (0.00ns)   --->   "call void (...)* @_ssdm_op_SpecPipeline(i32 1, i32 1, i32 1, i32 0, [1 x i8]* @p_str459) nounwind" [/home/paulrr2/Projects/ece527/babelsoc/fpga-network-stack/hls/toe/session_lookup_controller/session_lookup_controller.cpp:223]   --->   Operation 22 'specpipeline' <Predicate = true> <Delay = 0.00>
ST_2 : Operation 23 [1/1] (2.80ns)   --->   "call void @_ssdm_op_Write.ap_fifo.volatile.i1P.i32P.i16P.i16P.i16P.i1P.i1P(i1* @slc_sessionInsert_rs_13, i32* @slc_sessionInsert_rs_9, i16* @slc_sessionInsert_rs_8, i16* @slc_sessionInsert_rs_11, i16* @slc_sessionInsert_rs_14, i1* @slc_sessionInsert_rs_7, i1* @slc_sessionInsert_rs_15, i1 false, i32 %tmp_key_theirIp_V, i16 %tmp_key_myPort_V, i16 %tmp_key_theirPort_V, i16 %tmp_sessionID_V, i1 %tmp_success, i1 %tmp_source)" [/home/paulrr2/Projects/ece527/babelsoc/fpga-network-stack/hls/toe/session_lookup_controller/session_lookup_controller.cpp:234]   --->   Operation 23 'write' <Predicate = (tmp & !trunc_ln148)> <Delay = 2.80> <Core = "FIFO">   --->   Core 32 'FIFO' <Latency = 0> <II = 1> <Delay = 3.63> <Storage> <Opcode : 'read' 'write' 'nbread' 'nbwrite'> <Ports = 0> <Width = 32> <Depth = 2> <FIFO>
ST_2 : Operation 24 [1/1] (0.00ns)   --->   "br label %._crit_edge1.i" [/home/paulrr2/Projects/ece527/babelsoc/fpga-network-stack/hls/toe/session_lookup_controller/session_lookup_controller.cpp:235]   --->   Operation 24 'br' <Predicate = (tmp & !trunc_ln148)> <Delay = 0.00>
ST_2 : Operation 25 [1/1] (0.00ns)   --->   "br label %updateReplyHandler.exit" [/home/paulrr2/Projects/ece527/babelsoc/fpga-network-stack/hls/toe/session_lookup_controller/session_lookup_controller.cpp:240]   --->   Operation 25 'br' <Predicate = (tmp)> <Delay = 0.00>
ST_2 : Operation 26 [1/1] (0.00ns)   --->   "ret void"   --->   Operation 26 'ret' <Predicate = true> <Delay = 0.00>


============================================================
+ Verbose Summary: Binding
============================================================
STG Binding: 
---------------- STG Properties BEGIN ----------------
- Is combinational: 0
- Is one-state seq: 0
- Is datapath-only: 0
- Is pipelined: 1
- Is top level: 0
Port [ Return ] is wired: 1; IO mode=ap_ctrl_hs:ce=0
Port [ sessionUpdate_rsp_V]:  wired=1; compound=1; hidden=0; nouse=0; global=0; static=0; extern=0; dir=0; type=0; pingpong=0; private_global=0; IO mode=axis:ce=0
Port [ slc_sessionInsert_rs_13]:  wired=1; compound=1; hidden=0; nouse=0; global=1; static=1; extern=0; dir=1; type=3; pingpong=0; private_global=0; linkage=7; visibility=0; IO mode=ap_fifo:ce=0
Port [ slc_sessionInsert_rs_9]:  wired=1; compound=1; hidden=0; nouse=0; global=1; static=1; extern=0; dir=1; type=3; pingpong=0; private_global=0; linkage=7; visibility=0; IO mode=ap_fifo:ce=0
Port [ slc_sessionInsert_rs_8]:  wired=1; compound=1; hidden=0; nouse=0; global=1; static=1; extern=0; dir=1; type=3; pingpong=0; private_global=0; linkage=7; visibility=0; IO mode=ap_fifo:ce=0
Port [ slc_sessionInsert_rs_11]:  wired=1; compound=1; hidden=0; nouse=0; global=1; static=1; extern=0; dir=1; type=3; pingpong=0; private_global=0; linkage=7; visibility=0; IO mode=ap_fifo:ce=0
Port [ slc_sessionInsert_rs_14]:  wired=1; compound=1; hidden=0; nouse=0; global=1; static=1; extern=0; dir=1; type=3; pingpong=0; private_global=0; linkage=7; visibility=0; IO mode=ap_fifo:ce=0
Port [ slc_sessionInsert_rs_7]:  wired=1; compound=1; hidden=0; nouse=0; global=1; static=1; extern=0; dir=1; type=3; pingpong=0; private_global=0; linkage=7; visibility=0; IO mode=ap_fifo:ce=0
Port [ slc_sessionInsert_rs_15]:  wired=1; compound=1; hidden=0; nouse=0; global=1; static=1; extern=0; dir=1; type=3; pingpong=0; private_global=0; linkage=7; visibility=0; IO mode=ap_fifo:ce=0
---------------- STG Properties END ------------------

---------------- Datapath Model BEGIN ----------------

<LifeTime>
<method=bitvector/>
tmp                   (nbreadreq    ) [ 011]
br_ln229              (br           ) [ 000]
sessionUpdate_rsp_V_s (read         ) [ 000]
trunc_ln148           (trunc        ) [ 011]
tmp_key_theirIp_V     (partselect   ) [ 011]
tmp_key_myPort_V      (partselect   ) [ 011]
tmp_key_theirPort_V   (partselect   ) [ 011]
tmp_sessionID_V       (partselect   ) [ 011]
tmp_success           (bitselect    ) [ 011]
tmp_source            (bitselect    ) [ 011]
br_ln232              (br           ) [ 000]
specinterface_ln0     (specinterface) [ 000]
specinterface_ln0     (specinterface) [ 000]
specinterface_ln0     (specinterface) [ 000]
specinterface_ln0     (specinterface) [ 000]
specinterface_ln0     (specinterface) [ 000]
specinterface_ln0     (specinterface) [ 000]
specinterface_ln0     (specinterface) [ 000]
specinterface_ln0     (specinterface) [ 000]
specpipeline_ln223    (specpipeline ) [ 000]
write_ln234           (write        ) [ 000]
br_ln235              (br           ) [ 000]
br_ln240              (br           ) [ 000]
ret_ln0               (ret          ) [ 000]
</LifeTime>

<model>

<comp_list>
<comp id="0" class="1000" name="sessionUpdate_rsp_V">
<pin_list>
<pin id="1" dir="1" index="0" bw="1" slack="0"/>
</pin_list>
<bind>
<StgValue><ssdm name="sessionUpdate_rsp_V"/></StgValue>
</bind>
</comp>

<comp id="2" class="1000" name="slc_sessionInsert_rs_13">
<pin_list>
<pin id="3" dir="1" index="0" bw="1" slack="0"/>
</pin_list>
<bind>
<StgValue><ssdm name="slc_sessionInsert_rs_13"/></StgValue>
</bind>
</comp>

<comp id="4" class="1000" name="slc_sessionInsert_rs_9">
<pin_list>
<pin id="5" dir="1" index="0" bw="1" slack="0"/>
</pin_list>
<bind>
<StgValue><ssdm name="slc_sessionInsert_rs_9"/></StgValue>
</bind>
</comp>

<comp id="6" class="1000" name="slc_sessionInsert_rs_8">
<pin_list>
<pin id="7" dir="1" index="0" bw="1" slack="0"/>
</pin_list>
<bind>
<StgValue><ssdm name="slc_sessionInsert_rs_8"/></StgValue>
</bind>
</comp>

<comp id="8" class="1000" name="slc_sessionInsert_rs_11">
<pin_list>
<pin id="9" dir="1" index="0" bw="1" slack="0"/>
</pin_list>
<bind>
<StgValue><ssdm name="slc_sessionInsert_rs_11"/></StgValue>
</bind>
</comp>

<comp id="10" class="1000" name="slc_sessionInsert_rs_14">
<pin_list>
<pin id="11" dir="1" index="0" bw="1" slack="0"/>
</pin_list>
<bind>
<StgValue><ssdm name="slc_sessionInsert_rs_14"/></StgValue>
</bind>
</comp>

<comp id="12" class="1000" name="slc_sessionInsert_rs_7">
<pin_list>
<pin id="13" dir="1" index="0" bw="1" slack="0"/>
</pin_list>
<bind>
<StgValue><ssdm name="slc_sessionInsert_rs_7"/></StgValue>
</bind>
</comp>

<comp id="14" class="1000" name="slc_sessionInsert_rs_15">
<pin_list>
<pin id="15" dir="1" index="0" bw="1" slack="0"/>
</pin_list>
<bind>
<StgValue><ssdm name="slc_sessionInsert_rs_15"/></StgValue>
</bind>
</comp>

<comp id="16" class="1001" name="const_16">
<pin_list>
<pin id="17" dir="1" index="0" bw="1" slack="0"/>
</pin_list>
<bind>
<StgValue><ssdm name="_ssdm_op_NbReadReq.axis.i88P"/></StgValue>
</bind>
</comp>

<comp id="18" class="1001" name="const_18">
<pin_list>
<pin id="19" dir="1" index="0" bw="1" slack="0"/>
</pin_list>
<bind>
<StgValue><ssdm name=""/></StgValue>
</bind>
</comp>

<comp id="20" class="1001" name="const_20">
<pin_list>
<pin id="21" dir="1" index="0" bw="1" slack="0"/>
</pin_list>
<bind>
<StgValue><ssdm name="_ssdm_op_Read.axis.volatile.i88P"/></StgValue>
</bind>
</comp>

<comp id="22" class="1001" name="const_22">
<pin_list>
<pin id="23" dir="1" index="0" bw="1" slack="0"/>
</pin_list>
<bind>
<StgValue><ssdm name="_ssdm_op_PartSelect.i32.i88.i32.i32"/></StgValue>
</bind>
</comp>

<comp id="24" class="1001" name="const_24">
<pin_list>
<pin id="25" dir="1" index="0" bw="1" slack="0"/>
</pin_list>
<bind>
<StgValue><ssdm name=""/></StgValue>
</bind>
</comp>

<comp id="26" class="1001" name="const_26">
<pin_list>
<pin id="27" dir="1" index="0" bw="1" slack="0"/>
</pin_list>
<bind>
<StgValue><ssdm name="_ssdm_op_PartSelect.i16.i88.i32.i32"/></StgValue>
</bind>
</comp>

<comp id="28" class="1001" name="const_28">
<pin_list>
<pin id="29" dir="1" index="0" bw="1" slack="0"/>
</pin_list>
<bind>
<StgValue><ssdm name=""/></StgValue>
</bind>
</comp>

<comp id="30" class="1001" name="const_30">
<pin_list>
<pin id="31" dir="1" index="0" bw="1" slack="0"/>
</pin_list>
<bind>
<StgValue><ssdm name=""/></StgValue>
</bind>
</comp>

<comp id="32" class="1001" name="const_32">
<pin_list>
<pin id="33" dir="1" index="0" bw="1" slack="0"/>
</pin_list>
<bind>
<StgValue><ssdm name=""/></StgValue>
</bind>
</comp>

<comp id="34" class="1001" name="const_34">
<pin_list>
<pin id="35" dir="1" index="0" bw="1" slack="0"/>
</pin_list>
<bind>
<StgValue><ssdm name=""/></StgValue>
</bind>
</comp>

<comp id="36" class="1001" name="const_36">
<pin_list>
<pin id="37" dir="1" index="0" bw="1" slack="0"/>
</pin_list>
<bind>
<StgValue><ssdm name=""/></StgValue>
</bind>
</comp>

<comp id="38" class="1001" name="const_38">
<pin_list>
<pin id="39" dir="1" index="0" bw="1" slack="0"/>
</pin_list>
<bind>
<StgValue><ssdm name=""/></StgValue>
</bind>
</comp>

<comp id="40" class="1001" name="const_40">
<pin_list>
<pin id="41" dir="1" index="0" bw="1" slack="0"/>
</pin_list>
<bind>
<StgValue><ssdm name="_ssdm_op_BitSelect.i1.i88.i32"/></StgValue>
</bind>
</comp>

<comp id="42" class="1001" name="const_42">
<pin_list>
<pin id="43" dir="1" index="0" bw="1" slack="0"/>
</pin_list>
<bind>
<StgValue><ssdm name=""/></StgValue>
</bind>
</comp>

<comp id="44" class="1001" name="const_44">
<pin_list>
<pin id="45" dir="1" index="0" bw="1" slack="0"/>
</pin_list>
<bind>
<StgValue><ssdm name=""/></StgValue>
</bind>
</comp>

<comp id="46" class="1001" name="const_46">
<pin_list>
<pin id="47" dir="1" index="0" bw="1" slack="2147483647"/>
</pin_list>
<bind>
<StgValue><ssdm name="_ssdm_op_SpecInterface"/></StgValue>
</bind>
</comp>

<comp id="48" class="1001" name="const_48">
<pin_list>
<pin id="49" dir="1" index="0" bw="1" slack="2147483647"/>
</pin_list>
<bind>
<StgValue><ssdm name="ap_fifo_str"/></StgValue>
</bind>
</comp>

<comp id="50" class="1001" name="const_50">
<pin_list>
<pin id="51" dir="1" index="0" bw="1" slack="2147483647"/>
</pin_list>
<bind>
<StgValue><ssdm name=""/></StgValue>
</bind>
</comp>

<comp id="52" class="1001" name="const_52">
<pin_list>
<pin id="53" dir="1" index="0" bw="1" slack="2147483647"/>
</pin_list>
<bind>
<StgValue><ssdm name="p_str"/></StgValue>
</bind>
</comp>

<comp id="54" class="1001" name="const_54">
<pin_list>
<pin id="55" dir="1" index="0" bw="1" slack="2147483647"/>
</pin_list>
<bind>
<StgValue><ssdm name=""/></StgValue>
</bind>
</comp>

<comp id="56" class="1001" name="const_56">
<pin_list>
<pin id="57" dir="1" index="0" bw="1" slack="2147483647"/>
</pin_list>
<bind>
<StgValue><ssdm name=""/></StgValue>
</bind>
</comp>

<comp id="58" class="1001" name="const_58">
<pin_list>
<pin id="59" dir="1" index="0" bw="1" slack="2147483647"/>
</pin_list>
<bind>
<StgValue><ssdm name="p_str27"/></StgValue>
</bind>
</comp>

<comp id="60" class="1001" name="const_60">
<pin_list>
<pin id="61" dir="1" index="0" bw="1" slack="2147483647"/>
</pin_list>
<bind>
<StgValue><ssdm name="p_str28"/></StgValue>
</bind>
</comp>

<comp id="62" class="1001" name="const_62">
<pin_list>
<pin id="63" dir="1" index="0" bw="1" slack="2147483647"/>
</pin_list>
<bind>
<StgValue><ssdm name="p_str41"/></StgValue>
</bind>
</comp>

<comp id="64" class="1001" name="const_64">
<pin_list>
<pin id="65" dir="1" index="0" bw="1" slack="2147483647"/>
</pin_list>
<bind>
<StgValue><ssdm name="_ssdm_op_SpecPipeline"/></StgValue>
</bind>
</comp>

<comp id="66" class="1001" name="const_66">
<pin_list>
<pin id="67" dir="1" index="0" bw="1" slack="2147483647"/>
</pin_list>
<bind>
<StgValue><ssdm name="p_str459"/></StgValue>
</bind>
</comp>

<comp id="68" class="1001" name="const_68">
<pin_list>
<pin id="69" dir="1" index="0" bw="1" slack="0"/>
</pin_list>
<bind>
<StgValue><ssdm name="_ssdm_op_Write.ap_fifo.volatile.i1P.i32P.i16P.i16P.i16P.i1P.i1P"/></StgValue>
</bind>
</comp>

<comp id="70" class="1001" name="const_70">
<pin_list>
<pin id="71" dir="1" index="0" bw="1" slack="0"/>
</pin_list>
<bind>
<StgValue><ssdm name=""/></StgValue>
</bind>
</comp>

<comp id="72" class="1004" name="tmp_nbreadreq_fu_72">
<pin_list>
<pin id="73" dir="0" index="0" bw="1" slack="0"/>
<pin id="74" dir="0" index="1" bw="88" slack="0"/>
<pin id="75" dir="0" index="2" bw="1" slack="0"/>
<pin id="76" dir="1" index="3" bw="1" slack="1"/>
</pin_list>
<bind>
<opcode="nbreadreq(1156) " fcode="nbreadreq"/>
<opset="tmp/1 "/>
</bind>
</comp>

<comp id="80" class="1004" name="sessionUpdate_rsp_V_s_read_fu_80">
<pin_list>
<pin id="81" dir="0" index="0" bw="88" slack="0"/>
<pin id="82" dir="0" index="1" bw="88" slack="0"/>
<pin id="83" dir="1" index="2" bw="88" slack="0"/>
</pin_list>
<bind>
<opcode="read(1150) " fcode="read"/>
<opset="sessionUpdate_rsp_V_s/1 "/>
</bind>
</comp>

<comp id="86" class="1004" name="write_ln234_write_fu_86">
<pin_list>
<pin id="87" dir="0" index="0" bw="0" slack="0"/>
<pin id="88" dir="0" index="1" bw="1" slack="0"/>
<pin id="89" dir="0" index="2" bw="32" slack="0"/>
<pin id="90" dir="0" index="3" bw="16" slack="0"/>
<pin id="91" dir="0" index="4" bw="16" slack="0"/>
<pin id="92" dir="0" index="5" bw="16" slack="0"/>
<pin id="93" dir="0" index="6" bw="1" slack="0"/>
<pin id="94" dir="0" index="7" bw="1" slack="0"/>
<pin id="95" dir="0" index="8" bw="1" slack="0"/>
<pin id="96" dir="0" index="9" bw="32" slack="1"/>
<pin id="97" dir="0" index="10" bw="16" slack="1"/>
<pin id="98" dir="0" index="11" bw="16" slack="1"/>
<pin id="99" dir="0" index="12" bw="16" slack="1"/>
<pin id="100" dir="0" index="13" bw="1" slack="1"/>
<pin id="101" dir="0" index="14" bw="1" slack="1"/>
<pin id="102" dir="1" index="15" bw="0" slack="2147483647"/>
</pin_list>
<bind>
<opcode="write(1151) " fcode="write"/>
<opset="write_ln234/2 "/>
</bind>
</comp>

<comp id="112" class="1004" name="trunc_ln148_fu_112">
<pin_list>
<pin id="113" dir="0" index="0" bw="88" slack="0"/>
<pin id="114" dir="1" index="1" bw="1" slack="1"/>
</pin_list>
<bind>
<opcode="trunc(33) " fcode="trunc"/>
<opset="trunc_ln148/1 "/>
</bind>
</comp>

<comp id="116" class="1004" name="tmp_key_theirIp_V_fu_116">
<pin_list>
<pin id="117" dir="0" index="0" bw="32" slack="0"/>
<pin id="118" dir="0" index="1" bw="88" slack="0"/>
<pin id="119" dir="0" index="2" bw="1" slack="0"/>
<pin id="120" dir="0" index="3" bw="7" slack="0"/>
<pin id="121" dir="1" index="4" bw="32" slack="1"/>
</pin_list>
<bind>
<opcode="partselect(1002) " fcode="partselect"/>
<opset="tmp_key_theirIp_V/1 "/>
</bind>
</comp>

<comp id="126" class="1004" name="tmp_key_myPort_V_fu_126">
<pin_list>
<pin id="127" dir="0" index="0" bw="16" slack="0"/>
<pin id="128" dir="0" index="1" bw="88" slack="0"/>
<pin id="129" dir="0" index="2" bw="7" slack="0"/>
<pin id="130" dir="0" index="3" bw="7" slack="0"/>
<pin id="131" dir="1" index="4" bw="16" slack="1"/>
</pin_list>
<bind>
<opcode="partselect(1002) " fcode="partselect"/>
<opset="tmp_key_myPort_V/1 "/>
</bind>
</comp>

<comp id="136" class="1004" name="tmp_key_theirPort_V_fu_136">
<pin_list>
<pin id="137" dir="0" index="0" bw="16" slack="0"/>
<pin id="138" dir="0" index="1" bw="88" slack="0"/>
<pin id="139" dir="0" index="2" bw="7" slack="0"/>
<pin id="140" dir="0" index="3" bw="8" slack="0"/>
<pin id="141" dir="1" index="4" bw="16" slack="1"/>
</pin_list>
<bind>
<opcode="partselect(1002) " fcode="partselect"/>
<opset="tmp_key_theirPort_V/1 "/>
</bind>
</comp>

<comp id="146" class="1004" name="tmp_sessionID_V_fu_146">
<pin_list>
<pin id="147" dir="0" index="0" bw="16" slack="0"/>
<pin id="148" dir="0" index="1" bw="88" slack="0"/>
<pin id="149" dir="0" index="2" bw="8" slack="0"/>
<pin id="150" dir="0" index="3" bw="8" slack="0"/>
<pin id="151" dir="1" index="4" bw="16" slack="1"/>
</pin_list>
<bind>
<opcode="partselect(1002) " fcode="partselect"/>
<opset="tmp_sessionID_V/1 "/>
</bind>
</comp>

<comp id="156" class="1004" name="tmp_success_fu_156">
<pin_list>
<pin id="157" dir="0" index="0" bw="1" slack="0"/>
<pin id="158" dir="0" index="1" bw="88" slack="0"/>
<pin id="159" dir="0" index="2" bw="8" slack="0"/>
<pin id="160" dir="1" index="3" bw="1" slack="1"/>
</pin_list>
<bind>
<opcode="bitselect(1000) " fcode="bitselect"/>
<opset="tmp_success/1 "/>
</bind>
</comp>

<comp id="164" class="1004" name="tmp_source_fu_164">
<pin_list>
<pin id="165" dir="0" index="0" bw="1" slack="0"/>
<pin id="166" dir="0" index="1" bw="88" slack="0"/>
<pin id="167" dir="0" index="2" bw="8" slack="0"/>
<pin id="168" dir="1" index="3" bw="1" slack="1"/>
</pin_list>
<bind>
<opcode="bitselect(1000) " fcode="bitselect"/>
<opset="tmp_source/1 "/>
</bind>
</comp>

<comp id="172" class="1005" name="tmp_reg_172">
<pin_list>
<pin id="173" dir="0" index="0" bw="1" slack="1"/>
<pin id="174" dir="1" index="1" bw="1" slack="2147483647"/>
</pin_list>
<bind>
<opset="tmp "/>
</bind>
</comp>

<comp id="176" class="1005" name="trunc_ln148_reg_176">
<pin_list>
<pin id="177" dir="0" index="0" bw="1" slack="1"/>
<pin id="178" dir="1" index="1" bw="1" slack="2147483647"/>
</pin_list>
<bind>
<opset="trunc_ln148 "/>
</bind>
</comp>

<comp id="180" class="1005" name="tmp_key_theirIp_V_reg_180">
<pin_list>
<pin id="181" dir="0" index="0" bw="32" slack="1"/>
<pin id="182" dir="1" index="1" bw="32" slack="1"/>
</pin_list>
<bind>
<opset="tmp_key_theirIp_V "/>
</bind>
</comp>

<comp id="185" class="1005" name="tmp_key_myPort_V_reg_185">
<pin_list>
<pin id="186" dir="0" index="0" bw="16" slack="1"/>
<pin id="187" dir="1" index="1" bw="16" slack="1"/>
</pin_list>
<bind>
<opset="tmp_key_myPort_V "/>
</bind>
</comp>

<comp id="190" class="1005" name="tmp_key_theirPort_V_reg_190">
<pin_list>
<pin id="191" dir="0" index="0" bw="16" slack="1"/>
<pin id="192" dir="1" index="1" bw="16" slack="1"/>
</pin_list>
<bind>
<opset="tmp_key_theirPort_V "/>
</bind>
</comp>

<comp id="195" class="1005" name="tmp_sessionID_V_reg_195">
<pin_list>
<pin id="196" dir="0" index="0" bw="16" slack="1"/>
<pin id="197" dir="1" index="1" bw="16" slack="1"/>
</pin_list>
<bind>
<opset="tmp_sessionID_V "/>
</bind>
</comp>

<comp id="200" class="1005" name="tmp_success_reg_200">
<pin_list>
<pin id="201" dir="0" index="0" bw="1" slack="1"/>
<pin id="202" dir="1" index="1" bw="1" slack="1"/>
</pin_list>
<bind>
<opset="tmp_success "/>
</bind>
</comp>

<comp id="205" class="1005" name="tmp_source_reg_205">
<pin_list>
<pin id="206" dir="0" index="0" bw="1" slack="1"/>
<pin id="207" dir="1" index="1" bw="1" slack="1"/>
</pin_list>
<bind>
<opset="tmp_source "/>
</bind>
</comp>

</comp_list>

<net_list>
<net id="77"><net_src comp="16" pin="0"/><net_sink comp="72" pin=0"/></net>

<net id="78"><net_src comp="0" pin="0"/><net_sink comp="72" pin=1"/></net>

<net id="79"><net_src comp="18" pin="0"/><net_sink comp="72" pin=2"/></net>

<net id="84"><net_src comp="20" pin="0"/><net_sink comp="80" pin=0"/></net>

<net id="85"><net_src comp="0" pin="0"/><net_sink comp="80" pin=1"/></net>

<net id="103"><net_src comp="68" pin="0"/><net_sink comp="86" pin=0"/></net>

<net id="104"><net_src comp="2" pin="0"/><net_sink comp="86" pin=1"/></net>

<net id="105"><net_src comp="4" pin="0"/><net_sink comp="86" pin=2"/></net>

<net id="106"><net_src comp="6" pin="0"/><net_sink comp="86" pin=3"/></net>

<net id="107"><net_src comp="8" pin="0"/><net_sink comp="86" pin=4"/></net>

<net id="108"><net_src comp="10" pin="0"/><net_sink comp="86" pin=5"/></net>

<net id="109"><net_src comp="12" pin="0"/><net_sink comp="86" pin=6"/></net>

<net id="110"><net_src comp="14" pin="0"/><net_sink comp="86" pin=7"/></net>

<net id="111"><net_src comp="70" pin="0"/><net_sink comp="86" pin=8"/></net>

<net id="115"><net_src comp="80" pin="2"/><net_sink comp="112" pin=0"/></net>

<net id="122"><net_src comp="22" pin="0"/><net_sink comp="116" pin=0"/></net>

<net id="123"><net_src comp="80" pin="2"/><net_sink comp="116" pin=1"/></net>

<net id="124"><net_src comp="18" pin="0"/><net_sink comp="116" pin=2"/></net>

<net id="125"><net_src comp="24" pin="0"/><net_sink comp="116" pin=3"/></net>

<net id="132"><net_src comp="26" pin="0"/><net_sink comp="126" pin=0"/></net>

<net id="133"><net_src comp="80" pin="2"/><net_sink comp="126" pin=1"/></net>

<net id="134"><net_src comp="28" pin="0"/><net_sink comp="126" pin=2"/></net>

<net id="135"><net_src comp="30" pin="0"/><net_sink comp="126" pin=3"/></net>

<net id="142"><net_src comp="26" pin="0"/><net_sink comp="136" pin=0"/></net>

<net id="143"><net_src comp="80" pin="2"/><net_sink comp="136" pin=1"/></net>

<net id="144"><net_src comp="32" pin="0"/><net_sink comp="136" pin=2"/></net>

<net id="145"><net_src comp="34" pin="0"/><net_sink comp="136" pin=3"/></net>

<net id="152"><net_src comp="26" pin="0"/><net_sink comp="146" pin=0"/></net>

<net id="153"><net_src comp="80" pin="2"/><net_sink comp="146" pin=1"/></net>

<net id="154"><net_src comp="36" pin="0"/><net_sink comp="146" pin=2"/></net>

<net id="155"><net_src comp="38" pin="0"/><net_sink comp="146" pin=3"/></net>

<net id="161"><net_src comp="40" pin="0"/><net_sink comp="156" pin=0"/></net>

<net id="162"><net_src comp="80" pin="2"/><net_sink comp="156" pin=1"/></net>

<net id="163"><net_src comp="42" pin="0"/><net_sink comp="156" pin=2"/></net>

<net id="169"><net_src comp="40" pin="0"/><net_sink comp="164" pin=0"/></net>

<net id="170"><net_src comp="80" pin="2"/><net_sink comp="164" pin=1"/></net>

<net id="171"><net_src comp="44" pin="0"/><net_sink comp="164" pin=2"/></net>

<net id="175"><net_src comp="72" pin="3"/><net_sink comp="172" pin=0"/></net>

<net id="179"><net_src comp="112" pin="1"/><net_sink comp="176" pin=0"/></net>

<net id="183"><net_src comp="116" pin="4"/><net_sink comp="180" pin=0"/></net>

<net id="184"><net_src comp="180" pin="1"/><net_sink comp="86" pin=9"/></net>

<net id="188"><net_src comp="126" pin="4"/><net_sink comp="185" pin=0"/></net>

<net id="189"><net_src comp="185" pin="1"/><net_sink comp="86" pin=10"/></net>

<net id="193"><net_src comp="136" pin="4"/><net_sink comp="190" pin=0"/></net>

<net id="194"><net_src comp="190" pin="1"/><net_sink comp="86" pin=11"/></net>

<net id="198"><net_src comp="146" pin="4"/><net_sink comp="195" pin=0"/></net>

<net id="199"><net_src comp="195" pin="1"/><net_sink comp="86" pin=12"/></net>

<net id="203"><net_src comp="156" pin="3"/><net_sink comp="200" pin=0"/></net>

<net id="204"><net_src comp="200" pin="1"/><net_sink comp="86" pin=13"/></net>

<net id="208"><net_src comp="164" pin="3"/><net_sink comp="205" pin=0"/></net>

<net id="209"><net_src comp="205" pin="1"/><net_sink comp="86" pin=14"/></net>

</net_list>

</model> 
---------------- Datapath Model END ------------------

* FSMD analyzer results:
  - Output states:
	Port: slc_sessionInsert_rs_13 | {2 }
	Port: slc_sessionInsert_rs_9 | {2 }
	Port: slc_sessionInsert_rs_8 | {2 }
	Port: slc_sessionInsert_rs_11 | {2 }
	Port: slc_sessionInsert_rs_14 | {2 }
	Port: slc_sessionInsert_rs_7 | {2 }
	Port: slc_sessionInsert_rs_15 | {2 }
 - Input state : 
	Port: updateReplyHandler : sessionUpdate_rsp_V | {1 }
  - Chain level:
	State 1
		br_ln232 : 1
	State 2


============================================================
+ Verbose Summary: Datapath Resource usage 
============================================================

* Functional unit list:
|----------|----------------------------------|
| Operation|          Functional Unit         |
|----------|----------------------------------|
| nbreadreq|        tmp_nbreadreq_fu_72       |
|----------|----------------------------------|
|   read   | sessionUpdate_rsp_V_s_read_fu_80 |
|----------|----------------------------------|
|   write  |      write_ln234_write_fu_86     |
|----------|----------------------------------|
|   trunc  |        trunc_ln148_fu_112        |
|----------|----------------------------------|
|          |     tmp_key_theirIp_V_fu_116     |
|partselect|      tmp_key_myPort_V_fu_126     |
|          |    tmp_key_theirPort_V_fu_136    |
|          |      tmp_sessionID_V_fu_146      |
|----------|----------------------------------|
| bitselect|        tmp_success_fu_156        |
|          |         tmp_source_fu_164        |
|----------|----------------------------------|
|   Total  |                                  |
|----------|----------------------------------|

Memories:
N/A

* Register list:
+---------------------------+--------+
|                           |   FF   |
+---------------------------+--------+
|  tmp_key_myPort_V_reg_185 |   16   |
| tmp_key_theirIp_V_reg_180 |   32   |
|tmp_key_theirPort_V_reg_190|   16   |
|        tmp_reg_172        |    1   |
|  tmp_sessionID_V_reg_195  |   16   |
|     tmp_source_reg_205    |    1   |
|    tmp_success_reg_200    |    1   |
|    trunc_ln148_reg_176    |    1   |
+---------------------------+--------+
|           Total           |   84   |
+---------------------------+--------+

* Multiplexer (MUX) list: 
|--------|------|------|------|--------|
|  Comp  |  Pin | Size |  BW  | S x BW |
|--------|------|------|------|--------|
|  Total |      |      |      |    0   |
|--------|------|------|------|--------|



* Summary:
+-----------+--------+
|           |   FF   |
+-----------+--------+
|  Function |    -   |
|   Memory  |    -   |
|Multiplexer|    -   |
|  Register |   84   |
+-----------+--------+
|   Total   |   84   |
+-----------+--------+
