

================================================================
== Vivado HLS Report for 'hash_table_top'
================================================================
* Date:           Sat Dec 12 19:43:08 2020

* Version:        2019.2.1 (Build 2724168 on Thu Dec 05 05:19:09 MST 2019)
* Project:        hash_table_prj
* Solution:       solution1
* Product family: zynq
* Target device:  xc7z020-clg400-1


================================================================
== Performance Estimates
================================================================
+ Timing: 
    * Summary: 
    +--------+---------+----------+------------+
    |  Clock |  Target | Estimated| Uncertainty|
    +--------+---------+----------+------------+
    |ap_clk  | 6.40 ns | 5.506 ns |   0.80 ns  |
    +--------+---------+----------+------------+

+ Latency: 
    * Summary: 
    +---------+---------+----------+----------+-----+-----+---------+
    |  Latency (cycles) |  Latency (absolute) |  Interval | Pipeline|
    |   min   |   max   |    min   |    max   | min | max |   Type  |
    +---------+---------+----------+----------+-----+-----+---------+
    |        1|      105| 6.400 ns | 0.672 us |    1|  105|   none  |
    +---------+---------+----------+----------+-----+-----+---------+

    + Detail: 
        * Instance: 
        +------------------------------+------------------+---------+---------+----------+----------+-----+-----+---------+
        |                              |                  |  Latency (cycles) |  Latency (absolute) |  Interval | Pipeline|
        |           Instance           |      Module      |   min   |   max   |    min   |    max   | min | max |   Type  |
        +------------------------------+------------------+---------+---------+----------+----------+-----+-----+---------+
        |grp_calculate_hashes_fu_1358  |calculate_hashes  |        1|        1| 6.400 ns | 6.400 ns |    1|    1|   none  |
        +------------------------------+------------------+---------+---------+----------+----------+-----+-----+---------+

        * Loop: 
        +--------------+---------+---------+----------+-----------+-----------+--------+----------+
        |              |  Latency (cycles) | Iteration|  Initiation Interval  |  Trip  |          |
        |   Loop Name  |   min   |   max   |  Latency |  achieved |   target  |  Count | Pipelined|
        +--------------+---------+---------+----------+-----------+-----------+--------+----------+
        |- insertLoop  |        8|      102|         8|          -|          -| 1 ~ 12 |    no    |
        +--------------+---------+---------+----------+-----------+-----------+--------+----------+



================================================================
== Utilization Estimates
================================================================
* Summary: 
+-----------------+---------+-------+--------+-------+-----+
|       Name      | BRAM_18K| DSP48E|   FF   |  LUT  | URAM|
+-----------------+---------+-------+--------+-------+-----+
|DSP              |        -|      -|       -|      -|    -|
|Expression       |        -|      -|       0|   4437|    -|
|FIFO             |        -|      -|       -|      -|    -|
|Instance         |        -|      -|      84|   6575|    -|
|Memory           |       36|      -|       0|      0|    0|
|Multiplexer      |        -|      -|       -|   1541|    -|
|Register         |        -|      -|    2973|      -|    -|
+-----------------+---------+-------+--------+-------+-----+
|Total            |       36|      0|    3057|  12553|    0|
+-----------------+---------+-------+--------+-------+-----+
|Available        |      280|    220|  106400|  53200|    0|
+-----------------+---------+-------+--------+-------+-----+
|Utilization (%)  |       12|      0|       2|     23|    0|
+-----------------+---------+-------+--------+-------+-----+

+ Detail: 
    * Instance: 
    +------------------------------+----------------------+---------+-------+----+------+-----+
    |           Instance           |        Module        | BRAM_18K| DSP48E| FF |  LUT | URAM|
    +------------------------------+----------------------+---------+-------+----+------+-----+
    |grp_calculate_hashes_fu_1358  |calculate_hashes      |        0|      0|  84|  6325|    0|
    |hash_table_top_muCeG_U2       |hash_table_top_muCeG  |        0|      0|   0|    50|    0|
    |hash_table_top_muDeQ_U3       |hash_table_top_muDeQ  |        0|      0|   0|    50|    0|
    |hash_table_top_muEe0_U4       |hash_table_top_muEe0  |        0|      0|   0|    50|    0|
    |hash_table_top_muEe0_U6       |hash_table_top_muEe0  |        0|      0|   0|    50|    0|
    |hash_table_top_muFfa_U5       |hash_table_top_muFfa  |        0|      0|   0|    50|    0|
    +------------------------------+----------------------+---------+-------+----+------+-----+
    |Total                         |                      |        0|      0|  84|  6575|    0|
    +------------------------------+----------------------+---------+-------+----+------+-----+

    * DSP48E: 
    N/A

    * Memory: 
    +--------------------------+----------------------+---------+---+----+-----+------+-----+------+-------------+
    |          Memory          |        Module        | BRAM_18K| FF| LUT| URAM| Words| Bits| Banks| W*Bits*Banks|
    +--------------------------+----------------------+---------+---+----+-----+------+-----+------+-------------+
    |cuckooTables_key_V_0_U    |hash_table_top_cubkb  |        2|  0|   0|    0|    64|   64|     1|         4096|
    |cuckooTables_key_V_1_U    |hash_table_top_cubkb  |        2|  0|   0|    0|    64|   64|     1|         4096|
    |cuckooTables_key_V_2_U    |hash_table_top_cubkb  |        2|  0|   0|    0|    64|   64|     1|         4096|
    |cuckooTables_key_V_3_U    |hash_table_top_cubkb  |        2|  0|   0|    0|    64|   64|     1|         4096|
    |cuckooTables_key_V_4_U    |hash_table_top_cubkb  |        2|  0|   0|    0|    64|   64|     1|         4096|
    |cuckooTables_key_V_5_U    |hash_table_top_cubkb  |        2|  0|   0|    0|    64|   64|     1|         4096|
    |cuckooTables_key_V_6_U    |hash_table_top_cubkb  |        2|  0|   0|    0|    64|   64|     1|         4096|
    |cuckooTables_key_V_7_U    |hash_table_top_cubkb  |        2|  0|   0|    0|    64|   64|     1|         4096|
    |cuckooTables_key_V_8_U    |hash_table_top_cubkb  |        2|  0|   0|    0|    64|   64|     1|         4096|
    |cuckooTables_value_V_U    |hash_table_top_cucud  |        1|  0|   0|    0|    64|   16|     1|         1024|
    |cuckooTables_value_V_1_U  |hash_table_top_cucud  |        1|  0|   0|    0|    64|   16|     1|         1024|
    |cuckooTables_value_V_2_U  |hash_table_top_cucud  |        1|  0|   0|    0|    64|   16|     1|         1024|
    |cuckooTables_value_V_3_U  |hash_table_top_cucud  |        1|  0|   0|    0|    64|   16|     1|         1024|
    |cuckooTables_value_V_4_U  |hash_table_top_cucud  |        1|  0|   0|    0|    64|   16|     1|         1024|
    |cuckooTables_value_V_5_U  |hash_table_top_cucud  |        1|  0|   0|    0|    64|   16|     1|         1024|
    |cuckooTables_value_V_6_U  |hash_table_top_cucud  |        1|  0|   0|    0|    64|   16|     1|         1024|
    |cuckooTables_value_V_7_U  |hash_table_top_cucud  |        1|  0|   0|    0|    64|   16|     1|         1024|
    |cuckooTables_value_V_8_U  |hash_table_top_cucud  |        1|  0|   0|    0|    64|   16|     1|         1024|
    |cuckooTables_valid_0_U    |hash_table_top_cudEe  |        1|  0|   0|    0|    64|    1|     1|           64|
    |cuckooTables_valid_1_U    |hash_table_top_cudEe  |        1|  0|   0|    0|    64|    1|     1|           64|
    |cuckooTables_valid_2_U    |hash_table_top_cudEe  |        1|  0|   0|    0|    64|    1|     1|           64|
    |cuckooTables_valid_3_U    |hash_table_top_cudEe  |        1|  0|   0|    0|    64|    1|     1|           64|
    |cuckooTables_valid_4_U    |hash_table_top_cudEe  |        1|  0|   0|    0|    64|    1|     1|           64|
    |cuckooTables_valid_5_U    |hash_table_top_cudEe  |        1|  0|   0|    0|    64|    1|     1|           64|
    |cuckooTables_valid_6_U    |hash_table_top_cudEe  |        1|  0|   0|    0|    64|    1|     1|           64|
    |cuckooTables_valid_7_U    |hash_table_top_cudEe  |        1|  0|   0|    0|    64|    1|     1|           64|
    |cuckooTables_valid_8_U    |hash_table_top_cudEe  |        1|  0|   0|    0|    64|    1|     1|           64|
    +--------------------------+----------------------+---------+---+----+-----+------+-----+------+-------------+
    |Total                     |                      |       36|  0|   0|    0|  1728|  729|    27|        46656|
    +--------------------------+----------------------+---------+---+----+-----+------+-----+------+-------------+

    * FIFO: 
    N/A

    * Expression: 
    +-----------------------------------+----------+-------+---+----+------------+------------+
    |           Variable Name           | Operation| DSP48E| FF| LUT| Bitwidth P0| Bitwidth P1|
    +-----------------------------------+----------+-------+---+----+------------+------------+
    |add_ln141_fu_1866_p2               |     +    |      0|  0|  13|           4|           4|
    |add_ln162_fu_2950_p2               |     +    |      0|  0|  23|          16|           1|
    |add_ln700_fu_1884_p2               |     +    |      0|  0|  15|           1|           8|
    |j_fu_1598_p2                       |     +    |      0|  0|  13|           4|           1|
    |and_ln98_10_fu_3252_p2             |    and   |      0|  0|   2|           1|           1|
    |and_ln98_11_fu_3258_p2             |    and   |      0|  0|   2|           1|           1|
    |and_ln98_12_fu_3144_p2             |    and   |      0|  0|   2|           1|           1|
    |and_ln98_13_fu_3150_p2             |    and   |      0|  0|   2|           1|           1|
    |and_ln98_14_fu_3167_p2             |    and   |      0|  0|   2|           1|           1|
    |and_ln98_15_fu_3173_p2             |    and   |      0|  0|   2|           1|           1|
    |and_ln98_16_fu_3190_p2             |    and   |      0|  0|   2|           1|           1|
    |and_ln98_17_fu_3196_p2             |    and   |      0|  0|   2|           1|           1|
    |and_ln98_1_fu_3048_p2              |    and   |      0|  0|   2|           1|           1|
    |and_ln98_2_fu_3065_p2              |    and   |      0|  0|   2|           1|           1|
    |and_ln98_3_fu_3071_p2              |    and   |      0|  0|   2|           1|           1|
    |and_ln98_4_fu_3088_p2              |    and   |      0|  0|   2|           1|           1|
    |and_ln98_5_fu_3094_p2              |    and   |      0|  0|   2|           1|           1|
    |and_ln98_6_fu_3111_p2              |    and   |      0|  0|   2|           1|           1|
    |and_ln98_7_fu_3117_p2              |    and   |      0|  0|   2|           1|           1|
    |and_ln98_8_fu_3237_p2              |    and   |      0|  0|   2|           1|           1|
    |and_ln98_9_fu_3243_p2              |    and   |      0|  0|   2|           1|           1|
    |and_ln98_fu_3042_p2                |    and   |      0|  0|   2|           1|           1|
    |ap_block_state10_io                |    and   |      0|  0|   2|           1|           1|
    |ap_block_state9_io                 |    and   |      0|  0|   2|           1|           1|
    |ap_predicate_op41_read_state1      |    and   |      0|  0|   2|           1|           1|
    |ap_predicate_op431_write_state10   |    and   |      0|  0|   2|           1|           1|
    |tmp_1_nbreadreq_fu_220_p3          |    and   |      0|  0|   2|           1|           0|
    |tmp_2_nbreadreq_fu_212_p3          |    and   |      0|  0|   2|           1|           0|
    |icmp_ln116_fu_1592_p2              |   icmp   |      0|  0|   9|           4|           4|
    |icmp_ln132_fu_1746_p2              |   icmp   |      0|  0|  11|           5|           2|
    |icmp_ln321_10_fu_1774_p2           |   icmp   |      0|  0|   9|           4|           3|
    |icmp_ln321_11_fu_1780_p2           |   icmp   |      0|  0|   9|           4|           3|
    |icmp_ln321_12_fu_1786_p2           |   icmp   |      0|  0|   9|           4|           2|
    |icmp_ln321_13_fu_1792_p2           |   icmp   |      0|  0|   9|           4|           2|
    |icmp_ln321_14_fu_1798_p2           |   icmp   |      0|  0|   9|           4|           1|
    |icmp_ln321_15_fu_1804_p2           |   icmp   |      0|  0|   9|           4|           1|
    |icmp_ln321_1_fu_2393_p2            |   icmp   |      0|  0|   9|           4|           3|
    |icmp_ln321_2_fu_2398_p2            |   icmp   |      0|  0|   9|           4|           3|
    |icmp_ln321_3_fu_2403_p2            |   icmp   |      0|  0|   9|           4|           3|
    |icmp_ln321_4_fu_2408_p2            |   icmp   |      0|  0|   9|           4|           2|
    |icmp_ln321_5_fu_2413_p2            |   icmp   |      0|  0|   9|           4|           2|
    |icmp_ln321_6_fu_1872_p2            |   icmp   |      0|  0|   9|           4|           1|
    |icmp_ln321_7_fu_1878_p2            |   icmp   |      0|  0|   9|           4|           1|
    |icmp_ln321_8_fu_1762_p2            |   icmp   |      0|  0|   9|           4|           3|
    |icmp_ln321_9_fu_1768_p2            |   icmp   |      0|  0|   9|           4|           3|
    |icmp_ln321_fu_2388_p2              |   icmp   |      0|  0|   9|           4|           3|
    |icmp_ln76_fu_3358_p2               |   icmp   |      0|  0|  29|          64|          64|
    |icmp_ln879_10_fu_3054_p2           |   icmp   |      0|  0|  29|          64|          64|
    |icmp_ln879_11_fu_3077_p2           |   icmp   |      0|  0|  29|          64|          64|
    |icmp_ln879_12_fu_3100_p2           |   icmp   |      0|  0|  29|          64|          64|
    |icmp_ln879_13_fu_3123_p2           |   icmp   |      0|  0|  29|          64|          64|
    |icmp_ln879_14_fu_3128_p2           |   icmp   |      0|  0|  29|          64|          64|
    |icmp_ln879_15_fu_3133_p2           |   icmp   |      0|  0|  29|          64|          64|
    |icmp_ln879_16_fu_3156_p2           |   icmp   |      0|  0|  29|          64|          64|
    |icmp_ln879_17_fu_3179_p2           |   icmp   |      0|  0|  29|          64|          64|
    |icmp_ln879_1_fu_3402_p2            |   icmp   |      0|  0|  29|          64|          64|
    |icmp_ln879_2_fu_2905_p2            |   icmp   |      0|  0|  11|           8|           4|
    |icmp_ln879_3_fu_3407_p2            |   icmp   |      0|  0|  29|          64|          64|
    |icmp_ln879_4_fu_3412_p2            |   icmp   |      0|  0|  29|          64|          64|
    |icmp_ln879_5_fu_3466_p2            |   icmp   |      0|  0|  29|          64|          64|
    |icmp_ln879_6_fu_3486_p2            |   icmp   |      0|  0|  29|          64|          64|
    |icmp_ln879_7_fu_3506_p2            |   icmp   |      0|  0|  29|          64|          64|
    |icmp_ln879_8_fu_3511_p2            |   icmp   |      0|  0|  29|          64|          64|
    |icmp_ln879_9_fu_3031_p2            |   icmp   |      0|  0|  29|          64|          64|
    |icmp_ln879_fu_3382_p2              |   icmp   |      0|  0|  29|          64|          64|
    |tmp_hit_fu_3574_p2                 |   icmp   |      0|  0|  11|           5|           2|
    |ap_block_state1                    |    or    |      0|  0|   2|           1|           1|
    |ap_block_state10                   |    or    |      0|  0|   2|           1|           1|
    |ap_predicate_op430_write_state9    |    or    |      0|  0|   2|           1|           1|
    |or_ln321_10_fu_1894_p2             |    or    |      0|  0|   2|           1|           1|
    |or_ln321_11_fu_1898_p2             |    or    |      0|  0|   2|           1|           1|
    |or_ln321_12_fu_1903_p2             |    or    |      0|  0|   2|           1|           1|
    |or_ln321_13_fu_1908_p2             |    or    |      0|  0|   2|           1|           1|
    |or_ln321_1_fu_2422_p2              |    or    |      0|  0|   2|           1|           1|
    |or_ln321_2_fu_2428_p2              |    or    |      0|  0|   2|           1|           1|
    |or_ln321_3_fu_2434_p2              |    or    |      0|  0|   2|           1|           1|
    |or_ln321_4_fu_2440_p2              |    or    |      0|  0|   2|           1|           1|
    |or_ln321_5_fu_2446_p2              |    or    |      0|  0|   2|           1|           1|
    |or_ln321_6_fu_2452_p2              |    or    |      0|  0|   2|           1|           1|
    |or_ln321_7_fu_1810_p2              |    or    |      0|  0|   2|           1|           1|
    |or_ln321_8_fu_1890_p2              |    or    |      0|  0|   2|           1|           1|
    |or_ln321_9_fu_1816_p2              |    or    |      0|  0|   2|           1|           1|
    |or_ln321_fu_2418_p2                |    or    |      0|  0|   2|           1|           1|
    |or_ln98_1_fu_3202_p2               |    or    |      0|  0|   2|           1|           1|
    |or_ln98_2_fu_3208_p2               |    or    |      0|  0|   2|           1|           1|
    |or_ln98_3_fu_3214_p2               |    or    |      0|  0|   2|           1|           1|
    |or_ln98_4_fu_3262_p2               |    or    |      0|  0|   2|           1|           1|
    |or_ln98_5_fu_3220_p2               |    or    |      0|  0|   2|           1|           1|
    |or_ln98_6_fu_3226_p2               |    or    |      0|  0|   2|           1|           1|
    |or_ln98_7_fu_3268_p2               |    or    |      0|  0|   2|           1|           1|
    |or_ln98_8_fu_3273_p2               |    or    |      0|  0|   2|           1|           1|
    |or_ln98_fu_3368_p2                 |    or    |      0|  0|   2|           1|           1|
    |currentEntries_0_ke_1_fu_2322_p3   |  select  |      0|  0|  64|           1|          64|
    |currentEntries_0_ke_2_fu_2899_p3   |  select  |      0|  0|  64|           1|          64|
    |currentEntries_0_va_3_fu_2033_p3   |  select  |      0|  0|   2|           1|           1|
    |currentEntries_0_va_4_fu_2177_p3   |  select  |      0|  0|  16|           1|          16|
    |currentEntries_0_va_5_fu_2588_p3   |  select  |      0|  0|   2|           1|           1|
    |currentEntries_0_va_6_fu_2743_p3   |  select  |      0|  0|  16|           1|          16|
    |currentEntries_1_ke_1_fu_2309_p3   |  select  |      0|  0|  64|           1|          64|
    |currentEntries_1_ke_2_fu_2315_p3   |  select  |      0|  0|  64|           1|          64|
    |currentEntries_1_ke_3_fu_2886_p3   |  select  |      0|  0|  64|           1|          64|
    |currentEntries_1_ke_4_fu_2892_p3   |  select  |      0|  0|  64|           1|          64|
    |currentEntries_1_va_10_fu_2736_p3  |  select  |      0|  0|  16|           1|          16|
    |currentEntries_1_va_3_fu_2022_p3   |  select  |      0|  0|   2|           1|           1|
    |currentEntries_1_va_4_fu_2027_p3   |  select  |      0|  0|   2|           1|           1|
    |currentEntries_1_va_5_fu_2164_p3   |  select  |      0|  0|  16|           1|          16|
    |currentEntries_1_va_6_fu_2170_p3   |  select  |      0|  0|  16|           1|          16|
    |currentEntries_1_va_7_fu_2577_p3   |  select  |      0|  0|   2|           1|           1|
    |currentEntries_1_va_8_fu_2582_p3   |  select  |      0|  0|   2|           1|           1|
    |currentEntries_1_va_9_fu_2730_p3   |  select  |      0|  0|  16|           1|          16|
    |currentEntries_2_ke_1_fu_2302_p3   |  select  |      0|  0|  64|           1|          64|
    |currentEntries_2_ke_2_fu_2878_p3   |  select  |      0|  0|  64|           1|          64|
    |currentEntries_2_va_3_fu_2016_p3   |  select  |      0|  0|   2|           1|           1|
    |currentEntries_2_va_4_fu_2157_p3   |  select  |      0|  0|  16|           1|          16|
    |currentEntries_2_va_5_fu_2570_p3   |  select  |      0|  0|   2|           1|           1|
    |currentEntries_2_va_6_fu_2722_p3   |  select  |      0|  0|  16|           1|          16|
    |currentEntries_3_ke_1_fu_2288_p3   |  select  |      0|  0|  64|           1|          64|
    |currentEntries_3_ke_2_fu_2863_p3   |  select  |      0|  0|  64|           1|          64|
    |currentEntries_3_va_3_fu_2004_p3   |  select  |      0|  0|   2|           1|           1|
    |currentEntries_3_va_4_fu_2143_p3   |  select  |      0|  0|  16|           1|          16|
    |currentEntries_3_va_5_fu_2557_p3   |  select  |      0|  0|   2|           1|           1|
    |currentEntries_3_va_6_fu_2707_p3   |  select  |      0|  0|  16|           1|          16|
    |currentEntries_4_ke_1_fu_2267_p3   |  select  |      0|  0|  64|           1|          64|
    |currentEntries_4_ke_2_fu_2840_p3   |  select  |      0|  0|  64|           1|          64|
    |currentEntries_4_va_3_fu_1986_p3   |  select  |      0|  0|   2|           1|           1|
    |currentEntries_4_va_4_fu_2122_p3   |  select  |      0|  0|  16|           1|          16|
    |currentEntries_4_va_5_fu_2537_p3   |  select  |      0|  0|   2|           1|           1|
    |currentEntries_4_va_6_fu_2684_p3   |  select  |      0|  0|  16|           1|          16|
    |currentEntries_5_ke_1_fu_2253_p3   |  select  |      0|  0|  64|           1|          64|
    |currentEntries_5_ke_2_fu_2825_p3   |  select  |      0|  0|  64|           1|          64|
    |currentEntries_5_va_3_fu_1974_p3   |  select  |      0|  0|   2|           1|           1|
    |currentEntries_5_va_4_fu_2108_p3   |  select  |      0|  0|  16|           1|          16|
    |currentEntries_5_va_5_fu_2524_p3   |  select  |      0|  0|   2|           1|           1|
    |currentEntries_5_va_6_fu_2669_p3   |  select  |      0|  0|  16|           1|          16|
    |currentEntries_6_ke_1_fu_2232_p3   |  select  |      0|  0|  64|           1|          64|
    |currentEntries_6_ke_2_fu_2802_p3   |  select  |      0|  0|  64|           1|          64|
    |currentEntries_6_va_3_fu_1956_p3   |  select  |      0|  0|   2|           1|           1|
    |currentEntries_6_va_4_fu_2087_p3   |  select  |      0|  0|  16|           1|          16|
    |currentEntries_6_va_5_fu_2504_p3   |  select  |      0|  0|   2|           1|           1|
    |currentEntries_6_va_6_fu_2646_p3   |  select  |      0|  0|  16|           1|          16|
    |currentEntries_7_ke_4_fu_2211_p3   |  select  |      0|  0|  64|           1|          64|
    |currentEntries_7_ke_5_fu_2779_p3   |  select  |      0|  0|  64|           1|          64|
    |currentEntries_7_va_10_fu_2066_p3  |  select  |      0|  0|  16|           1|          16|
    |currentEntries_7_va_11_fu_2484_p3  |  select  |      0|  0|   2|           1|           1|
    |currentEntries_7_va_12_fu_2623_p3  |  select  |      0|  0|  16|           1|          16|
    |currentEntries_7_va_9_fu_1938_p3   |  select  |      0|  0|   2|           1|           1|
    |currentEntries_8_ke_1_fu_2183_p3   |  select  |      0|  0|  64|           1|          64|
    |currentEntries_8_ke_2_fu_2749_p3   |  select  |      0|  0|  64|           1|          64|
    |currentEntries_8_va_3_fu_1914_p3   |  select  |      0|  0|   2|           1|           1|
    |currentEntries_8_va_4_fu_2038_p3   |  select  |      0|  0|  16|           1|          16|
    |currentEntries_8_va_5_fu_2458_p3   |  select  |      0|  0|   2|           1|           1|
    |currentEntries_8_va_6_fu_2593_p3   |  select  |      0|  0|  16|           1|          16|
    |select_ln125_1_fu_1689_p3          |  select  |      0|  0|   3|           1|           3|
    |select_ln125_2_fu_1696_p3          |  select  |      0|  0|   3|           1|           3|
    |select_ln125_3_fu_1707_p3          |  select  |      0|  0|   4|           1|           4|
    |select_ln125_4_fu_1714_p3          |  select  |      0|  0|   4|           1|           4|
    |select_ln125_5_fu_1721_p3          |  select  |      0|  0|   4|           1|           4|
    |select_ln125_6_fu_1728_p3          |  select  |      0|  0|   4|           1|           4|
    |select_ln125_7_fu_1739_p3          |  select  |      0|  0|   5|           1|           5|
    |select_ln125_fu_1678_p3            |  select  |      0|  0|   2|           1|           2|
    |select_ln145_fu_2910_p3            |  select  |      0|  0|   8|           1|           1|
    |select_ln321_105_fu_2190_p3        |  select  |      0|  0|  64|           1|          64|
    |select_ln321_106_fu_2196_p3        |  select  |      0|  0|  64|           1|          64|
    |select_ln321_107_fu_2203_p3        |  select  |      0|  0|  64|           1|          64|
    |select_ln321_109_fu_2219_p3        |  select  |      0|  0|  64|           1|          64|
    |select_ln321_10_fu_2531_p3         |  select  |      0|  0|   2|           1|           1|
    |select_ln321_110_fu_2225_p3        |  select  |      0|  0|  64|           1|          64|
    |select_ln321_112_fu_2240_p3        |  select  |      0|  0|  64|           1|          64|
    |select_ln321_113_fu_2246_p3        |  select  |      0|  0|  64|           1|          64|
    |select_ln321_115_fu_2261_p3        |  select  |      0|  0|  64|           1|          64|
    |select_ln321_117_fu_2275_p3        |  select  |      0|  0|  64|           1|          64|
    |select_ln321_118_fu_2281_p3        |  select  |      0|  0|  64|           1|          64|
    |select_ln321_120_fu_2296_p3        |  select  |      0|  0|  64|           1|          64|
    |select_ln321_12_fu_2544_p3         |  select  |      0|  0|   2|           1|           1|
    |select_ln321_13_fu_2550_p3         |  select  |      0|  0|   2|           1|           1|
    |select_ln321_15_fu_2564_p3         |  select  |      0|  0|   2|           1|           1|
    |select_ln321_1_fu_2470_p3          |  select  |      0|  0|   2|           1|           1|
    |select_ln321_21_fu_2600_p3         |  select  |      0|  0|  16|           1|          16|
    |select_ln321_22_fu_2607_p3         |  select  |      0|  0|  16|           1|          16|
    |select_ln321_23_fu_2615_p3         |  select  |      0|  0|  16|           1|          16|
    |select_ln321_25_fu_2631_p3         |  select  |      0|  0|  16|           1|          16|
    |select_ln321_26_fu_2638_p3         |  select  |      0|  0|  16|           1|          16|
    |select_ln321_28_fu_2654_p3         |  select  |      0|  0|  16|           1|          16|
    |select_ln321_29_fu_2661_p3         |  select  |      0|  0|  16|           1|          16|
    |select_ln321_2_fu_2477_p3          |  select  |      0|  0|   2|           1|           1|
    |select_ln321_31_fu_2677_p3         |  select  |      0|  0|  16|           1|          16|
    |select_ln321_33_fu_2692_p3         |  select  |      0|  0|  16|           1|          16|
    |select_ln321_34_fu_2699_p3         |  select  |      0|  0|  16|           1|          16|
    |select_ln321_36_fu_2715_p3         |  select  |      0|  0|  16|           1|          16|
    |select_ln321_42_fu_2756_p3         |  select  |      0|  0|  64|           1|          64|
    |select_ln321_43_fu_2763_p3         |  select  |      0|  0|  64|           1|          64|
    |select_ln321_44_fu_2771_p3         |  select  |      0|  0|  64|           1|          64|
    |select_ln321_46_fu_2787_p3         |  select  |      0|  0|  64|           1|          64|
    |select_ln321_47_fu_2794_p3         |  select  |      0|  0|  64|           1|          64|
    |select_ln321_49_fu_2810_p3         |  select  |      0|  0|  64|           1|          64|
    |select_ln321_4_fu_2491_p3          |  select  |      0|  0|   2|           1|           1|
    |select_ln321_50_fu_2817_p3         |  select  |      0|  0|  64|           1|          64|
    |select_ln321_52_fu_2833_p3         |  select  |      0|  0|  64|           1|          64|
    |select_ln321_54_fu_2848_p3         |  select  |      0|  0|  64|           1|          64|
    |select_ln321_55_fu_2855_p3         |  select  |      0|  0|  64|           1|          64|
    |select_ln321_57_fu_2871_p3         |  select  |      0|  0|  64|           1|          64|
    |select_ln321_5_fu_2497_p3          |  select  |      0|  0|   2|           1|           1|
    |select_ln321_63_fu_1920_p3         |  select  |      0|  0|   2|           1|           1|
    |select_ln321_64_fu_1925_p3         |  select  |      0|  0|   2|           1|           1|
    |select_ln321_65_fu_1931_p3         |  select  |      0|  0|   2|           1|           1|
    |select_ln321_67_fu_1945_p3         |  select  |      0|  0|   2|           1|           1|
    |select_ln321_68_fu_1950_p3         |  select  |      0|  0|   2|           1|           1|
    |select_ln321_70_fu_1963_p3         |  select  |      0|  0|   2|           1|           1|
    |select_ln321_71_fu_1968_p3         |  select  |      0|  0|   2|           1|           1|
    |select_ln321_73_fu_1981_p3         |  select  |      0|  0|   2|           1|           1|
    |select_ln321_75_fu_1993_p3         |  select  |      0|  0|   2|           1|           1|
    |select_ln321_76_fu_1998_p3         |  select  |      0|  0|   2|           1|           1|
    |select_ln321_78_fu_2011_p3         |  select  |      0|  0|   2|           1|           1|
    |select_ln321_7_fu_2511_p3          |  select  |      0|  0|   2|           1|           1|
    |select_ln321_84_fu_2045_p3         |  select  |      0|  0|  16|           1|          16|
    |select_ln321_85_fu_2051_p3         |  select  |      0|  0|  16|           1|          16|
    |select_ln321_86_fu_2058_p3         |  select  |      0|  0|  16|           1|          16|
    |select_ln321_88_fu_2074_p3         |  select  |      0|  0|  16|           1|          16|
    |select_ln321_89_fu_2080_p3         |  select  |      0|  0|  16|           1|          16|
    |select_ln321_8_fu_2517_p3          |  select  |      0|  0|   2|           1|           1|
    |select_ln321_91_fu_2095_p3         |  select  |      0|  0|  16|           1|          16|
    |select_ln321_92_fu_2101_p3         |  select  |      0|  0|  16|           1|          16|
    |select_ln321_94_fu_2116_p3         |  select  |      0|  0|  16|           1|          16|
    |select_ln321_96_fu_2130_p3         |  select  |      0|  0|  16|           1|          16|
    |select_ln321_97_fu_2136_p3         |  select  |      0|  0|  16|           1|          16|
    |select_ln321_99_fu_2151_p3         |  select  |      0|  0|  16|           1|          16|
    |select_ln321_fu_2464_p3            |  select  |      0|  0|   2|           1|           1|
    |select_ln544_fu_1671_p3            |  select  |      0|  0|   2|           1|           2|
    |select_ln76_1_fu_3420_p3           |  select  |      0|  0|   3|           1|           2|
    |select_ln76_2_fu_3434_p3           |  select  |      0|  0|   3|           1|           2|
    |select_ln76_3_fu_3452_p3           |  select  |      0|  0|   4|           1|           3|
    |select_ln76_4_fu_3471_p3           |  select  |      0|  0|   4|           1|           3|
    |select_ln76_5_fu_3491_p3           |  select  |      0|  0|   4|           1|           3|
    |select_ln76_6_fu_3516_p3           |  select  |      0|  0|   4|           1|           3|
    |select_ln76_7_fu_3532_p3           |  select  |      0|  0|   5|           1|           4|
    |select_ln76_fu_3387_p3             |  select  |      0|  0|   2|           1|           1|
    |select_ln98_1_fu_3427_p3           |  select  |      0|  0|   3|           1|           3|
    |select_ln98_2_fu_3441_p3           |  select  |      0|  0|   3|           1|           3|
    |select_ln98_3_fu_3459_p3           |  select  |      0|  0|   4|           1|           4|
    |select_ln98_4_fu_3479_p3           |  select  |      0|  0|   4|           1|           4|
    |select_ln98_5_fu_3499_p3           |  select  |      0|  0|   4|           1|           4|
    |select_ln98_6_fu_3522_p3           |  select  |      0|  0|   4|           1|           4|
    |select_ln98_7_fu_3539_p3           |  select  |      0|  0|   5|           1|           5|
    |select_ln98_8_fu_3374_p3           |  select  |      0|  0|   2|           1|           2|
    |select_ln98_fu_3395_p3             |  select  |      0|  0|   2|           1|           2|
    |xor_ln188_1_fu_3059_p2             |    xor   |      0|  0|   2|           1|           2|
    |xor_ln188_2_fu_3082_p2             |    xor   |      0|  0|   2|           1|           2|
    |xor_ln188_3_fu_3105_p2             |    xor   |      0|  0|   2|           1|           2|
    |xor_ln188_4_fu_3232_p2             |    xor   |      0|  0|   2|           1|           2|
    |xor_ln188_5_fu_3247_p2             |    xor   |      0|  0|   2|           1|           2|
    |xor_ln188_6_fu_3138_p2             |    xor   |      0|  0|   2|           1|           2|
    |xor_ln188_7_fu_3161_p2             |    xor   |      0|  0|   2|           1|           2|
    |xor_ln188_8_fu_3184_p2             |    xor   |      0|  0|   2|           1|           2|
    |xor_ln188_fu_3036_p2               |    xor   |      0|  0|   2|           1|           2|
    |xor_ln700_fu_2938_p2               |    xor   |      0|  0|   2|           1|           2|
    |xor_ln98_fu_3363_p2                |    xor   |      0|  0|   2|           1|           2|
    +-----------------------------------+----------+-------+---+----+------------+------------+
    |Total                              |          |      0|  0|4437|        1477|        4770|
    +-----------------------------------+----------+-------+---+----+------------+------------+

    * Multiplexer: 
    +--------------------------------------------------+-----+-----------+-----+-----------+
    |                       Name                       | LUT | Input Size| Bits| Total Bits|
    +--------------------------------------------------+-----+-----------+-----+-----------+
    |ap_NS_fsm                                         |  113|         24|    1|         24|
    |ap_phi_mux_currentEntries_0_ke_3_phi_fu_1327_p4   |    9|          2|   64|        128|
    |ap_phi_mux_currentEntries_0_va_7_phi_fu_1147_p4   |    9|          2|    1|          2|
    |ap_phi_mux_currentEntries_0_va_8_phi_fu_1237_p4   |    9|          2|   16|         32|
    |ap_phi_mux_currentEntries_1_ke_5_phi_fu_1317_p4   |    9|          2|   64|        128|
    |ap_phi_mux_currentEntries_1_va_11_phi_fu_1137_p4  |    9|          2|    1|          2|
    |ap_phi_mux_currentEntries_1_va_12_phi_fu_1227_p4  |    9|          2|   16|         32|
    |ap_phi_mux_currentEntries_2_ke_3_phi_fu_1307_p4   |    9|          2|   64|        128|
    |ap_phi_mux_currentEntries_2_va_7_phi_fu_1127_p4   |    9|          2|    1|          2|
    |ap_phi_mux_currentEntries_2_va_8_phi_fu_1217_p4   |    9|          2|   16|         32|
    |ap_phi_mux_currentEntries_3_ke_3_phi_fu_1297_p4   |    9|          2|   64|        128|
    |ap_phi_mux_currentEntries_3_va_7_phi_fu_1117_p4   |    9|          2|    1|          2|
    |ap_phi_mux_currentEntries_3_va_8_phi_fu_1207_p4   |    9|          2|   16|         32|
    |ap_phi_mux_currentEntries_4_ke_3_phi_fu_1287_p4   |    9|          2|   64|        128|
    |ap_phi_mux_currentEntries_4_va_7_phi_fu_1107_p4   |    9|          2|    1|          2|
    |ap_phi_mux_currentEntries_4_va_8_phi_fu_1197_p4   |    9|          2|   16|         32|
    |ap_phi_mux_currentEntries_5_ke_3_phi_fu_1277_p4   |    9|          2|   64|        128|
    |ap_phi_mux_currentEntries_5_va_7_phi_fu_1097_p4   |    9|          2|    1|          2|
    |ap_phi_mux_currentEntries_5_va_8_phi_fu_1187_p4   |    9|          2|   16|         32|
    |ap_phi_mux_currentEntries_6_ke_3_phi_fu_1267_p4   |    9|          2|   64|        128|
    |ap_phi_mux_currentEntries_6_va_7_phi_fu_1087_p4   |    9|          2|    1|          2|
    |ap_phi_mux_currentEntries_6_va_8_phi_fu_1177_p4   |    9|          2|   16|         32|
    |ap_phi_mux_currentEntries_7_ke_3_phi_fu_1257_p4   |    9|          2|   64|        128|
    |ap_phi_mux_currentEntries_7_va_7_phi_fu_1077_p4   |    9|          2|    1|          2|
    |ap_phi_mux_currentEntries_7_va_8_phi_fu_1167_p4   |    9|          2|   16|         32|
    |ap_phi_mux_currentEntries_8_ke_4_phi_fu_1247_p4   |    9|          2|   64|        128|
    |ap_phi_mux_currentEntries_8_va_10_phi_fu_1157_p4  |    9|          2|   16|         32|
    |ap_phi_mux_currentEntries_8_va_9_phi_fu_1067_p4   |    9|          2|    1|          2|
    |ap_phi_mux_response_3_1_phi_fu_1338_p4            |    9|          2|    1|          2|
    |ap_phi_mux_tmp_success_phi_fu_1350_p4             |    9|          2|    1|          2|
    |cuckooTables_key_V_0_address0                     |   21|          4|    6|         24|
    |cuckooTables_key_V_1_address0                     |   21|          4|    6|         24|
    |cuckooTables_key_V_2_address0                     |   21|          4|    6|         24|
    |cuckooTables_key_V_3_address0                     |   21|          4|    6|         24|
    |cuckooTables_key_V_4_address0                     |   21|          4|    6|         24|
    |cuckooTables_key_V_5_address0                     |   21|          4|    6|         24|
    |cuckooTables_key_V_6_address0                     |   21|          4|    6|         24|
    |cuckooTables_key_V_7_address0                     |   21|          4|    6|         24|
    |cuckooTables_key_V_8_address0                     |   21|          4|    6|         24|
    |cuckooTables_valid_0_address0                     |   21|          4|    6|         24|
    |cuckooTables_valid_0_address1                     |   15|          3|    6|         18|
    |cuckooTables_valid_0_d1                           |   15|          3|    1|          3|
    |cuckooTables_valid_1_address0                     |   21|          4|    6|         24|
    |cuckooTables_valid_1_address1                     |   15|          3|    6|         18|
    |cuckooTables_valid_1_d1                           |   15|          3|    1|          3|
    |cuckooTables_valid_2_address0                     |   21|          4|    6|         24|
    |cuckooTables_valid_2_address1                     |   15|          3|    6|         18|
    |cuckooTables_valid_2_d1                           |   15|          3|    1|          3|
    |cuckooTables_valid_3_address0                     |   21|          4|    6|         24|
    |cuckooTables_valid_3_address1                     |   15|          3|    6|         18|
    |cuckooTables_valid_3_d1                           |   15|          3|    1|          3|
    |cuckooTables_valid_4_address0                     |   21|          4|    6|         24|
    |cuckooTables_valid_4_address1                     |   15|          3|    6|         18|
    |cuckooTables_valid_4_d1                           |   15|          3|    1|          3|
    |cuckooTables_valid_5_address0                     |   21|          4|    6|         24|
    |cuckooTables_valid_5_address1                     |   15|          3|    6|         18|
    |cuckooTables_valid_5_d1                           |   15|          3|    1|          3|
    |cuckooTables_valid_6_address0                     |   21|          4|    6|         24|
    |cuckooTables_valid_6_address1                     |   15|          3|    6|         18|
    |cuckooTables_valid_6_d1                           |   15|          3|    1|          3|
    |cuckooTables_valid_7_address0                     |   21|          4|    6|         24|
    |cuckooTables_valid_7_address1                     |   15|          3|    6|         18|
    |cuckooTables_valid_7_d1                           |   15|          3|    1|          3|
    |cuckooTables_valid_8_address0                     |   21|          4|    6|         24|
    |cuckooTables_valid_8_address1                     |   15|          3|    6|         18|
    |cuckooTables_valid_8_d1                           |   15|          3|    1|          3|
    |cuckooTables_value_V_1_address0                   |   15|          3|    6|         18|
    |cuckooTables_value_V_2_address0                   |   15|          3|    6|         18|
    |cuckooTables_value_V_3_address0                   |   15|          3|    6|         18|
    |cuckooTables_value_V_4_address0                   |   15|          3|    6|         18|
    |cuckooTables_value_V_5_address0                   |   15|          3|    6|         18|
    |cuckooTables_value_V_6_address0                   |   15|          3|    6|         18|
    |cuckooTables_value_V_7_address0                   |   15|          3|    6|         18|
    |cuckooTables_value_V_8_address0                   |   15|          3|    6|         18|
    |cuckooTables_value_V_address0                     |   15|          3|    6|         18|
    |currentEntries_0_ke_3_reg_1324                    |    9|          2|   64|        128|
    |currentEntries_0_va_7_reg_1144                    |    9|          2|    1|          2|
    |currentEntries_0_va_8_reg_1234                    |    9|          2|   16|         32|
    |currentEntries_1_ke_5_reg_1314                    |    9|          2|   64|        128|
    |currentEntries_1_va_11_reg_1134                   |    9|          2|    1|          2|
    |currentEntries_1_va_12_reg_1224                   |    9|          2|   16|         32|
    |currentEntries_2_ke_3_reg_1304                    |    9|          2|   64|        128|
    |currentEntries_2_va_7_reg_1124                    |    9|          2|    1|          2|
    |currentEntries_2_va_8_reg_1214                    |    9|          2|   16|         32|
    |currentEntries_3_ke_3_reg_1294                    |    9|          2|   64|        128|
    |currentEntries_3_va_7_reg_1114                    |    9|          2|    1|          2|
    |currentEntries_3_va_8_reg_1204                    |    9|          2|   16|         32|
    |currentEntries_4_ke_3_reg_1284                    |    9|          2|   64|        128|
    |currentEntries_4_va_7_reg_1104                    |    9|          2|    1|          2|
    |currentEntries_4_va_8_reg_1194                    |    9|          2|   16|         32|
    |currentEntries_5_ke_3_reg_1274                    |    9|          2|   64|        128|
    |currentEntries_5_va_7_reg_1094                    |    9|          2|    1|          2|
    |currentEntries_5_va_8_reg_1184                    |    9|          2|   16|         32|
    |currentEntries_6_ke_3_reg_1264                    |    9|          2|   64|        128|
    |currentEntries_6_va_7_reg_1084                    |    9|          2|    1|          2|
    |currentEntries_6_va_8_reg_1174                    |    9|          2|   16|         32|
    |currentEntries_7_ke_3_reg_1254                    |    9|          2|   64|        128|
    |currentEntries_7_ke_fu_200                        |    9|          2|   64|        128|
    |currentEntries_7_va_1_fu_204                      |    9|          2|   16|         32|
    |currentEntries_7_va_2_fu_208                      |    9|          2|    1|          2|
    |currentEntries_7_va_7_reg_1074                    |    9|          2|    1|          2|
    |currentEntries_7_va_8_reg_1164                    |    9|          2|   16|         32|
    |currentEntries_8_ke_4_reg_1244                    |    9|          2|   64|        128|
    |currentEntries_8_va_10_reg_1154                   |    9|          2|   16|         32|
    |currentEntries_8_va_9_reg_1064                    |    9|          2|    1|          2|
    |grp_calculate_hashes_fu_1358_key_V                |   21|          4|   64|        256|
    |grp_fu_1363_p1                                    |   15|          3|   88|        264|
    |j_0_i_i_reg_1053                                  |    9|          2|    4|          8|
    |m_axis_lup_rsp_V_TDATA_blk_n                      |    9|          2|    1|          2|
    |m_axis_upd_rsp_V_TDATA_blk_n                      |    9|          2|    1|          2|
    |m_axis_upd_rsp_V_TDATA_int                        |   15|          3|   88|        264|
    |s_axis_lup_req_V_TDATA_blk_n                      |    9|          2|    1|          2|
    |s_axis_upd_req_V_TDATA_blk_n                      |    9|          2|    1|          2|
    |tmp_success_reg_1346                              |    9|          2|    1|          2|
    |victimIdx_V                                       |    9|          2|    8|         16|
    +--------------------------------------------------+-----+-----------+-----+-----------+
    |Total                                             | 1541|        319| 2024|       4707|
    +--------------------------------------------------+-----+-----------+-----+-----------+

    * Register: 
    +-------------------------------------------+----+----+-----+-----------+
    |                    Name                   | FF | LUT| Bits| Const Bits|
    +-------------------------------------------+----+----+-----+-----------+
    |add_ln141_reg_4100                         |   4|   0|    4|          0|
    |add_ln700_reg_4132                         |   8|   0|    8|          0|
    |and_ln98_12_reg_4556                       |   1|   0|    1|          0|
    |and_ln98_14_reg_4561                       |   1|   0|    1|          0|
    |and_ln98_16_reg_4566                       |   1|   0|    1|          0|
    |and_ln98_2_reg_4517                        |   1|   0|    1|          0|
    |and_ln98_4_reg_4522                        |   1|   0|    1|          0|
    |and_ln98_6_reg_4527                        |   1|   0|    1|          0|
    |and_ln98_reg_4512                          |   1|   0|    1|          0|
    |ap_CS_fsm                                  |  23|   0|   23|          0|
    |cuckooTables_key_V_0_3_reg_3710            |   6|   0|    6|          0|
    |cuckooTables_key_V_1_3_reg_3728            |   6|   0|    6|          0|
    |cuckooTables_key_V_2_3_reg_3746            |   6|   0|    6|          0|
    |cuckooTables_key_V_3_3_reg_3764            |   6|   0|    6|          0|
    |cuckooTables_key_V_4_3_reg_3782            |   6|   0|    6|          0|
    |cuckooTables_key_V_5_3_reg_3800            |   6|   0|    6|          0|
    |cuckooTables_key_V_6_3_reg_3818            |   6|   0|    6|          0|
    |cuckooTables_key_V_7_3_reg_3836            |   6|   0|    6|          0|
    |cuckooTables_key_V_8_3_reg_3854            |   6|   0|    6|          0|
    |cuckooTables_valid_0_2_reg_4661            |   1|   0|    1|          0|
    |cuckooTables_valid_0_3_reg_3722            |   6|   0|    6|          0|
    |cuckooTables_valid_0_4_reg_4418            |   6|   0|    6|          0|
    |cuckooTables_valid_1_2_reg_4666            |   1|   0|    1|          0|
    |cuckooTables_valid_1_3_reg_3740            |   6|   0|    6|          0|
    |cuckooTables_valid_1_4_reg_4429            |   6|   0|    6|          0|
    |cuckooTables_valid_2_2_reg_4671            |   1|   0|    1|          0|
    |cuckooTables_valid_2_3_reg_3758            |   6|   0|    6|          0|
    |cuckooTables_valid_2_4_reg_4440            |   6|   0|    6|          0|
    |cuckooTables_valid_3_2_reg_4676            |   1|   0|    1|          0|
    |cuckooTables_valid_3_3_reg_3776            |   6|   0|    6|          0|
    |cuckooTables_valid_3_4_reg_4451            |   6|   0|    6|          0|
    |cuckooTables_valid_4_2_reg_4681            |   1|   0|    1|          0|
    |cuckooTables_valid_4_3_reg_3794            |   6|   0|    6|          0|
    |cuckooTables_valid_4_4_reg_4462            |   6|   0|    6|          0|
    |cuckooTables_valid_4_5_reg_4532            |   1|   0|    1|          0|
    |cuckooTables_valid_5_2_reg_4766            |   1|   0|    1|          0|
    |cuckooTables_valid_5_3_reg_3812            |   6|   0|    6|          0|
    |cuckooTables_valid_5_4_reg_4473            |   6|   0|    6|          0|
    |cuckooTables_valid_5_5_reg_4544            |   1|   0|    1|          0|
    |cuckooTables_valid_6_2_reg_4771            |   1|   0|    1|          0|
    |cuckooTables_valid_6_3_reg_3830            |   6|   0|    6|          0|
    |cuckooTables_valid_6_4_reg_4484            |   6|   0|    6|          0|
    |cuckooTables_valid_7_2_reg_4776            |   1|   0|    1|          0|
    |cuckooTables_valid_7_3_reg_3848            |   6|   0|    6|          0|
    |cuckooTables_valid_7_4_reg_4495            |   6|   0|    6|          0|
    |cuckooTables_valid_8_2_reg_4781            |   1|   0|    1|          0|
    |cuckooTables_valid_8_3_reg_3866            |   6|   0|    6|          0|
    |cuckooTables_valid_8_4_reg_4506            |   6|   0|    6|          0|
    |cuckooTables_value_V_18_reg_3716           |   6|   0|    6|          0|
    |cuckooTables_value_V_19_reg_3734           |   6|   0|    6|          0|
    |cuckooTables_value_V_20_reg_3752           |   6|   0|    6|          0|
    |cuckooTables_value_V_21_reg_3770           |   6|   0|    6|          0|
    |cuckooTables_value_V_22_reg_3788           |   6|   0|    6|          0|
    |cuckooTables_value_V_23_reg_3806           |   6|   0|    6|          0|
    |cuckooTables_value_V_24_reg_3824           |   6|   0|    6|          0|
    |cuckooTables_value_V_25_reg_3842           |   6|   0|    6|          0|
    |cuckooTables_value_V_26_reg_3860           |   6|   0|    6|          0|
    |currentEntries_0_ke_2_reg_4403             |  64|   0|   64|          0|
    |currentEntries_0_ke_3_reg_1324             |  64|   0|   64|          0|
    |currentEntries_0_va_2_reg_3872             |   1|   0|    1|          0|
    |currentEntries_0_va_5_reg_4313             |   1|   0|    1|          0|
    |currentEntries_0_va_6_reg_4358             |  16|   0|   16|          0|
    |currentEntries_0_va_7_reg_1144             |   1|   0|    1|          0|
    |currentEntries_0_va_8_reg_1234             |  16|   0|   16|          0|
    |currentEntries_1_ke_4_reg_4398             |  64|   0|   64|          0|
    |currentEntries_1_ke_5_reg_1314             |  64|   0|   64|          0|
    |currentEntries_1_va_10_reg_4353            |  16|   0|   16|          0|
    |currentEntries_1_va_11_reg_1134            |   1|   0|    1|          0|
    |currentEntries_1_va_12_reg_1224            |  16|   0|   16|          0|
    |currentEntries_1_va_2_reg_3880             |   1|   0|    1|          0|
    |currentEntries_1_va_8_reg_4308             |   1|   0|    1|          0|
    |currentEntries_2_ke_2_reg_4393             |  64|   0|   64|          0|
    |currentEntries_2_ke_3_reg_1304             |  64|   0|   64|          0|
    |currentEntries_2_va_2_reg_3890             |   1|   0|    1|          0|
    |currentEntries_2_va_5_reg_4303             |   1|   0|    1|          0|
    |currentEntries_2_va_6_reg_4348             |  16|   0|   16|          0|
    |currentEntries_2_va_7_reg_1124             |   1|   0|    1|          0|
    |currentEntries_2_va_8_reg_1214             |  16|   0|   16|          0|
    |currentEntries_3_ke_2_reg_4388             |  64|   0|   64|          0|
    |currentEntries_3_ke_3_reg_1294             |  64|   0|   64|          0|
    |currentEntries_3_va_2_reg_3900             |   1|   0|    1|          0|
    |currentEntries_3_va_5_reg_4298             |   1|   0|    1|          0|
    |currentEntries_3_va_6_reg_4343             |  16|   0|   16|          0|
    |currentEntries_3_va_7_reg_1114             |   1|   0|    1|          0|
    |currentEntries_3_va_8_reg_1204             |  16|   0|   16|          0|
    |currentEntries_4_ke_2_reg_4383             |  64|   0|   64|          0|
    |currentEntries_4_ke_3_reg_1284             |  64|   0|   64|          0|
    |currentEntries_4_va_2_reg_3912             |   1|   0|    1|          0|
    |currentEntries_4_va_5_reg_4293             |   1|   0|    1|          0|
    |currentEntries_4_va_6_reg_4338             |  16|   0|   16|          0|
    |currentEntries_4_va_7_reg_1104             |   1|   0|    1|          0|
    |currentEntries_4_va_8_reg_1194             |  16|   0|   16|          0|
    |currentEntries_5_ke_2_reg_4378             |  64|   0|   64|          0|
    |currentEntries_5_ke_3_reg_1274             |  64|   0|   64|          0|
    |currentEntries_5_va_2_reg_3922             |   1|   0|    1|          0|
    |currentEntries_5_va_5_reg_4288             |   1|   0|    1|          0|
    |currentEntries_5_va_6_reg_4333             |  16|   0|   16|          0|
    |currentEntries_5_va_7_reg_1094             |   1|   0|    1|          0|
    |currentEntries_5_va_8_reg_1184             |  16|   0|   16|          0|
    |currentEntries_6_ke_2_reg_4373             |  64|   0|   64|          0|
    |currentEntries_6_ke_3_reg_1264             |  64|   0|   64|          0|
    |currentEntries_6_va_2_reg_3934             |   1|   0|    1|          0|
    |currentEntries_6_va_5_reg_4283             |   1|   0|    1|          0|
    |currentEntries_6_va_6_reg_4328             |  16|   0|   16|          0|
    |currentEntries_6_va_7_reg_1084             |   1|   0|    1|          0|
    |currentEntries_6_va_8_reg_1174             |  16|   0|   16|          0|
    |currentEntries_7_ke_1_reg_3687             |  64|   0|   64|          0|
    |currentEntries_7_ke_3_reg_1254             |  64|   0|   64|          0|
    |currentEntries_7_ke_5_reg_4368             |  64|   0|   64|          0|
    |currentEntries_7_ke_fu_200                 |  64|   0|   64|          0|
    |currentEntries_7_va_11_reg_4278            |   1|   0|    1|          0|
    |currentEntries_7_va_12_reg_4323            |  16|   0|   16|          0|
    |currentEntries_7_va_1_fu_204               |  16|   0|   16|          0|
    |currentEntries_7_va_2_fu_208               |   1|   0|    1|          0|
    |currentEntries_7_va_4_reg_3946             |   1|   0|    1|          0|
    |currentEntries_7_va_5_reg_3972             |  16|   0|   16|          0|
    |currentEntries_7_va_6_reg_3994             |   1|   0|    1|          0|
    |currentEntries_7_va_7_reg_1074             |   1|   0|    1|          0|
    |currentEntries_7_va_8_reg_1164             |  16|   0|   16|          0|
    |currentEntries_8_ke_2_reg_4363             |  64|   0|   64|          0|
    |currentEntries_8_ke_4_reg_1244             |  64|   0|   64|          0|
    |currentEntries_8_va_10_reg_1154            |  16|   0|   16|          0|
    |currentEntries_8_va_2_reg_3960             |   1|   0|    1|          0|
    |currentEntries_8_va_5_reg_4273             |   1|   0|    1|          0|
    |currentEntries_8_va_6_reg_4318             |  16|   0|   16|          0|
    |currentEntries_8_va_9_reg_1064             |   1|   0|    1|          0|
    |grp_calculate_hashes_fu_1358_ap_start_reg  |   1|   0|    1|          0|
    |icmp_ln116_reg_3678                        |   1|   0|    1|          0|
    |icmp_ln132_reg_3968                        |   1|   0|    1|          0|
    |icmp_ln321_11_reg_4032                     |   1|   0|    1|          0|
    |icmp_ln321_12_reg_4042                     |   1|   0|    1|          0|
    |icmp_ln321_13_reg_4047                     |   1|   0|    1|          0|
    |icmp_ln321_14_reg_4058                     |   1|   0|    1|          0|
    |icmp_ln321_15_reg_4065                     |   1|   0|    1|          0|
    |icmp_ln321_6_reg_4113                      |   1|   0|    1|          0|
    |icmp_ln321_7_reg_4121                      |   1|   0|    1|          0|
    |icmp_ln321_8_reg_4016                      |   1|   0|    1|          0|
    |icmp_ln321_9_reg_4021                      |   1|   0|    1|          0|
    |icmp_ln879_13_reg_4538                     |   1|   0|    1|          0|
    |icmp_ln879_14_reg_4550                     |   1|   0|    1|          0|
    |icmp_ln879_1_reg_4751                      |   1|   0|    1|          0|
    |icmp_ln879_3_reg_4756                      |   1|   0|    1|          0|
    |icmp_ln879_4_reg_4761                      |   1|   0|    1|          0|
    |icmp_ln879_7_reg_4792                      |   1|   0|    1|          0|
    |icmp_ln879_8_reg_4797                      |   1|   0|    1|          0|
    |insertFailureCounter                       |  16|   0|   16|          0|
    |insertFailureCounter_1_reg_3653            |  16|   0|   16|          0|
    |j_0_i_i_reg_1053                           |   4|   0|    4|          0|
    |j_reg_3682                                 |   4|   0|    4|          0|
    |or_ln321_7_reg_4075                        |   1|   0|    1|          0|
    |or_ln321_9_reg_4086                        |   1|   0|    1|          0|
    |or_ln98_3_reg_4571                         |   1|   0|    1|          0|
    |or_ln98_6_reg_4576                         |   1|   0|    1|          0|
    |reg_1420                                   |   6|   0|    6|          0|
    |reg_1424                                   |   6|   0|    6|          0|
    |reg_1428                                   |   6|   0|    6|          0|
    |reg_1432                                   |   6|   0|    6|          0|
    |reg_1436                                   |   6|   0|    6|          0|
    |reg_1440                                   |   6|   0|    6|          0|
    |reg_1444                                   |   6|   0|    6|          0|
    |reg_1448                                   |   6|   0|    6|          0|
    |reg_1452                                   |   6|   0|    6|          0|
    |reg_1456                                   |  64|   0|   64|          0|
    |reg_1460                                   |  16|   0|   16|          0|
    |reg_1464                                   |  64|   0|   64|          0|
    |reg_1468                                   |  16|   0|   16|          0|
    |reg_1472                                   |  64|   0|   64|          0|
    |reg_1476                                   |  16|   0|   16|          0|
    |reg_1480                                   |  64|   0|   64|          0|
    |reg_1484                                   |  16|   0|   16|          0|
    |reg_1488                                   |  64|   0|   64|          0|
    |reg_1492                                   |  16|   0|   16|          0|
    |reg_1496                                   |  64|   0|   64|          0|
    |reg_1500                                   |  16|   0|   16|          0|
    |reg_1504                                   |  64|   0|   64|          0|
    |reg_1508                                   |  16|   0|   16|          0|
    |reg_1512                                   |  64|   0|   64|          0|
    |reg_1516                                   |  16|   0|   16|          0|
    |reg_1520                                   |  64|   0|   64|          0|
    |reg_1524                                   |  16|   0|   16|          0|
    |response_3_1_reg_1334                      |   1|   0|    1|          0|
    |response_key_V_reg_3613                    |  64|   0|   64|          0|
    |response_source_V_reg_3648                 |   1|   0|    1|          0|
    |s_axis_upd_req_V_rea_reg_3603              |  88|   0|   88|          0|
    |select_ln98_5_reg_4786                     |   4|   0|    4|          0|
    |select_ln98_reg_4746                       |   2|   0|    2|          0|
    |tmp_1_reg_3599                             |   1|   0|    1|          0|
    |tmp_2_reg_3595                             |   1|   0|    1|          0|
    |tmp_key_V_reg_3658                         |  64|   0|   64|          0|
    |tmp_source_V_reg_3673                      |   1|   0|    1|          0|
    |tmp_success_reg_1346                       |   1|   0|    1|          0|
    |trunc_ln223_reg_3609                       |   1|   0|    1|          0|
    |victimBit_V                                |   1|   0|    1|          0|
    |victimIdx_V                                |   8|   0|    8|          0|
    +-------------------------------------------+----+----+-----+-----------+
    |Total                                      |2973|   0| 2973|          0|
    +-------------------------------------------+----+----+-----+-----------+



================================================================
== Interface
================================================================
* Summary: 
+--------------------------------+-----+-----+--------------+-------------------------+--------------+
|            RTL Ports           | Dir | Bits|   Protocol   |      Source Object      |    C Type    |
+--------------------------------+-----+-----+--------------+-------------------------+--------------+
|ap_clk                          |  in |    1| ap_ctrl_none |      hash_table_top     | return value |
|ap_rst_n                        |  in |    1| ap_ctrl_none |      hash_table_top     | return value |
|s_axis_lup_req_V_TDATA          |  in |   72|     axis     |     s_axis_lup_req_V    |    pointer   |
|s_axis_lup_req_V_TVALID         |  in |    1|     axis     |     s_axis_lup_req_V    |    pointer   |
|s_axis_lup_req_V_TREADY         | out |    1|     axis     |     s_axis_lup_req_V    |    pointer   |
|s_axis_upd_req_V_TDATA          |  in |   88|     axis     |     s_axis_upd_req_V    |    pointer   |
|s_axis_upd_req_V_TVALID         |  in |    1|     axis     |     s_axis_upd_req_V    |    pointer   |
|s_axis_upd_req_V_TREADY         | out |    1|     axis     |     s_axis_upd_req_V    |    pointer   |
|m_axis_lup_rsp_V_TDATA          | out |   88|     axis     |     m_axis_lup_rsp_V    |    pointer   |
|m_axis_lup_rsp_V_TVALID         | out |    1|     axis     |     m_axis_lup_rsp_V    |    pointer   |
|m_axis_lup_rsp_V_TREADY         |  in |    1|     axis     |     m_axis_lup_rsp_V    |    pointer   |
|m_axis_upd_rsp_V_TDATA          | out |   88|     axis     |     m_axis_upd_rsp_V    |    pointer   |
|m_axis_upd_rsp_V_TVALID         | out |    1|     axis     |     m_axis_upd_rsp_V    |    pointer   |
|m_axis_upd_rsp_V_TREADY         |  in |    1|     axis     |     m_axis_upd_rsp_V    |    pointer   |
|regInsertFailureCount_V         | out |   16|    ap_vld    | regInsertFailureCount_V |    pointer   |
|regInsertFailureCount_V_ap_vld  | out |    1|    ap_vld    | regInsertFailureCount_V |    pointer   |
+--------------------------------+-----+-----+--------------+-------------------------+--------------+

