

================================================================
== Vivado HLS Report for 'detect_ipv6_protocol'
================================================================
* Date:           Fri Dec 18 10:37:48 2020

* Version:        2019.1 (Build 2552052 on Fri May 24 15:28:33 MDT 2019)
* Project:        ip_handler_prj
* Solution:       solution1
* Product family: zynq
* Target device:  xc7z020-clg400-1


================================================================
== Performance Estimates
================================================================
+ Timing (ns): 
    * Summary: 
    +--------+-------+----------+------------+
    |  Clock | Target| Estimated| Uncertainty|
    +--------+-------+----------+------------+
    |ap_clk  |   6.40|     4.351|        0.80|
    +--------+-------+----------+------------+

+ Latency (clock cycles): 
    * Summary: 
    +-----+-----+-----+-----+----------+
    |  Latency  |  Interval | Pipeline |
    | min | max | min | max |   Type   |
    +-----+-----+-----+-----+----------+
    |    2|    2|    1|    1| function |
    +-----+-----+-----+-----+----------+

    + Detail: 
        * Instance: 
        N/A

        * Loop: 
        N/A

============================================================
+ Verbose Summary: Synthesis Manager
============================================================
InlineROM: 1
ExposeGlobal: 0
============================================================
+ Verbose Summary: CDFG Model
============================================================
IsTopModel: 0
ResetActiveHigh: 1
IsCombinational: 2
IsDatapathOnly: 0
HasWiredReturn: 1
HasMFsm: 2
HasVarLatency: 0
IsPipeline: 1
IsRtlPipelined: 1
IsInstanceOverlapped: 0
IsDontTouch: 0
HasImplIP: 0
IsGatedGlobalClock: 0

+ Individual pipeline summary: 
  * Pipeline-0: initiation interval (II) = 1, depth = 3


============================================================
+ Verbose Summary: Schedule
============================================================
* Number of FSM states : 3
* Pipeline : 1
  Pipeline-0 : II = 1, D = 3, States = { 1 2 3 }
* Dataflow Pipeline: 0

* FSM state transitions: 
1 --> 2 
2 --> 3 
3 --> 

* FSM state operations: 

State 1 <SV = 0> <Delay = 4.35>
ST_1 : Operation 4 [1/1] (0.00ns)   --->   "%state_V_load = load i1* @state_V, align 1" [/home/paulrr2/Projects/ece527/babelsoc/fpga-network-stack/hls/ip_handler/ip_handler.cpp:408]   --->   Operation 4 'load' 'state_V_load' <Predicate = true> <Delay = 0.00>
ST_1 : Operation 5 [1/1] (0.00ns)   --->   "%tmp = call i1 @_ssdm_op_NbReadReq.ap_fifo.i64P.i8P.i1P(i64* @ipv6DataFifo_V_data_s, i8* @ipv6DataFifo_V_keep_s, i1* @ipv6DataFifo_V_last_s, i32 1)" [/home/paulrr2/Projects/ece527/babelsoc/fpga-network-stack/hls/ip_handler/ip_handler.cpp:437]   --->   Operation 5 'nbreadreq' 'tmp' <Predicate = true> <Delay = 0.00> <Core = "FIFO">   --->   Core 32 'FIFO' <Latency = 0> <II = 1> <Delay = 3.63> <Storage> <Opcode : 'read' 'write' 'nbread' 'nbwrite'> <Ports = 0> <Width = 64> <Depth = 2> <FIFO>
ST_1 : Operation 6 [1/1] (0.00ns)   --->   "%nextHeader_V_load = load i8* @nextHeader_V, align 1" [/home/paulrr2/Projects/ece527/babelsoc/fpga-network-stack/hls/ip_handler/ip_handler.cpp:440]   --->   Operation 6 'load' 'nextHeader_V_load' <Predicate = true> <Delay = 0.00>
ST_1 : Operation 7 [1/1] (0.00ns)   --->   "br i1 %state_V_load, label %7, label %0" [/home/paulrr2/Projects/ece527/babelsoc/fpga-network-stack/hls/ip_handler/ip_handler.cpp:408]   --->   Operation 7 'br' <Predicate = true> <Delay = 0.00>
ST_1 : Operation 8 [1/1] (0.00ns)   --->   "br i1 %tmp, label %1, label %._crit_edge3.i" [/home/paulrr2/Projects/ece527/babelsoc/fpga-network-stack/hls/ip_handler/ip_handler.cpp:411]   --->   Operation 8 'br' <Predicate = (!state_V_load)> <Delay = 0.00>
ST_1 : Operation 9 [1/1] (2.80ns)   --->   "%empty = call { i64, i8, i1 } @_ssdm_op_Read.ap_fifo.volatile.i64P.i8P.i1P(i64* @ipv6DataFifo_V_data_s, i8* @ipv6DataFifo_V_keep_s, i1* @ipv6DataFifo_V_last_s)" [/home/paulrr2/Projects/ece527/babelsoc/fpga-network-stack/hls/ip_handler/ip_handler.cpp:414]   --->   Operation 9 'read' 'empty' <Predicate = (!state_V_load & tmp)> <Delay = 2.80> <Core = "FIFO">   --->   Core 32 'FIFO' <Latency = 0> <II = 1> <Delay = 3.63> <Storage> <Opcode : 'read' 'write' 'nbread' 'nbwrite'> <Ports = 0> <Width = 64> <Depth = 2> <FIFO>
ST_1 : Operation 10 [1/1] (0.00ns)   --->   "%tmp_data_V_6 = extractvalue { i64, i8, i1 } %empty, 0" [/home/paulrr2/Projects/ece527/babelsoc/fpga-network-stack/hls/ip_handler/ip_handler.cpp:414]   --->   Operation 10 'extractvalue' 'tmp_data_V_6' <Predicate = (!state_V_load & tmp)> <Delay = 0.00>
ST_1 : Operation 11 [1/1] (0.00ns)   --->   "%tmp_keep_V_5 = extractvalue { i64, i8, i1 } %empty, 1" [/home/paulrr2/Projects/ece527/babelsoc/fpga-network-stack/hls/ip_handler/ip_handler.cpp:414]   --->   Operation 11 'extractvalue' 'tmp_keep_V_5' <Predicate = (!state_V_load & tmp)> <Delay = 0.00>
ST_1 : Operation 12 [1/1] (0.00ns)   --->   "%tmp_last_V_3 = extractvalue { i64, i8, i1 } %empty, 2" [/home/paulrr2/Projects/ece527/babelsoc/fpga-network-stack/hls/ip_handler/ip_handler.cpp:414]   --->   Operation 12 'extractvalue' 'tmp_last_V_3' <Predicate = (!state_V_load & tmp)> <Delay = 0.00>
ST_1 : Operation 13 [1/1] (0.00ns)   --->   "%p_Result_i = call i8 @_ssdm_op_PartSelect.i8.i64.i32.i32(i64 %tmp_data_V_6, i32 48, i32 55)" [/home/paulrr2/Projects/ece527/babelsoc/fpga-network-stack/hls/ip_handler/ip_handler.cpp:418]   --->   Operation 13 'partselect' 'p_Result_i' <Predicate = (!state_V_load & tmp)> <Delay = 0.00>
ST_1 : Operation 14 [1/1] (0.00ns)   --->   "store i8 %p_Result_i, i8* @nextHeader_V, align 1" [/home/paulrr2/Projects/ece527/babelsoc/fpga-network-stack/hls/ip_handler/ip_handler.cpp:418]   --->   Operation 14 'store' <Predicate = (!state_V_load & tmp)> <Delay = 0.00>
ST_1 : Operation 15 [1/1] (1.55ns)   --->   "%icmp_ln879_5 = icmp eq i8 %p_Result_i, 58" [/home/paulrr2/Projects/ece527/babelsoc/fpga-network-stack/hls/ip_handler/ip_handler.cpp:421]   --->   Operation 15 'icmp' 'icmp_ln879_5' <Predicate = (!state_V_load & tmp)> <Delay = 1.55> <Core = "Cmp">   --->   Core 25 'Cmp' <Latency = 0> <II = 1> <Delay = 1.55> <FuncUnit> <Opcode : 'icmp'> <InPorts = 2> <OutPorts = 1>
ST_1 : Operation 16 [1/1] (0.00ns)   --->   "br i1 %icmp_ln879_5, label %2, label %3" [/home/paulrr2/Projects/ece527/babelsoc/fpga-network-stack/hls/ip_handler/ip_handler.cpp:421]   --->   Operation 16 'br' <Predicate = (!state_V_load & tmp)> <Delay = 0.00>
ST_1 : Operation 17 [1/1] (1.55ns)   --->   "%icmp_ln879_7 = icmp eq i8 %p_Result_i, 17" [/home/paulrr2/Projects/ece527/babelsoc/fpga-network-stack/hls/ip_handler/ip_handler.cpp:425]   --->   Operation 17 'icmp' 'icmp_ln879_7' <Predicate = (!state_V_load & tmp & !icmp_ln879_5)> <Delay = 1.55> <Core = "Cmp">   --->   Core 25 'Cmp' <Latency = 0> <II = 1> <Delay = 1.55> <FuncUnit> <Opcode : 'icmp'> <InPorts = 2> <OutPorts = 1>
ST_1 : Operation 18 [1/1] (0.00ns)   --->   "br i1 %icmp_ln879_7, label %4, label %._crit_edge4.i" [/home/paulrr2/Projects/ece527/babelsoc/fpga-network-stack/hls/ip_handler/ip_handler.cpp:425]   --->   Operation 18 'br' <Predicate = (!state_V_load & tmp & !icmp_ln879_5)> <Delay = 0.00>
ST_1 : Operation 19 [1/1] (1.76ns)   --->   "store i1 true, i1* @state_V, align 1" [/home/paulrr2/Projects/ece527/babelsoc/fpga-network-stack/hls/ip_handler/ip_handler.cpp:432]   --->   Operation 19 'store' <Predicate = (!state_V_load & tmp & !tmp_last_V_3)> <Delay = 1.76>
ST_1 : Operation 20 [1/1] (0.00ns)   --->   "br i1 %tmp, label %8, label %._crit_edge6.i" [/home/paulrr2/Projects/ece527/babelsoc/fpga-network-stack/hls/ip_handler/ip_handler.cpp:437]   --->   Operation 20 'br' <Predicate = (state_V_load)> <Delay = 0.00>
ST_1 : Operation 21 [1/1] (2.80ns)   --->   "%empty_51 = call { i64, i8, i1 } @_ssdm_op_Read.ap_fifo.volatile.i64P.i8P.i1P(i64* @ipv6DataFifo_V_data_s, i8* @ipv6DataFifo_V_keep_s, i1* @ipv6DataFifo_V_last_s)" [/home/paulrr2/Projects/ece527/babelsoc/fpga-network-stack/hls/ip_handler/ip_handler.cpp:439]   --->   Operation 21 'read' 'empty_51' <Predicate = (state_V_load & tmp)> <Delay = 2.80> <Core = "FIFO">   --->   Core 32 'FIFO' <Latency = 0> <II = 1> <Delay = 3.63> <Storage> <Opcode : 'read' 'write' 'nbread' 'nbwrite'> <Ports = 0> <Width = 64> <Depth = 2> <FIFO>
ST_1 : Operation 22 [1/1] (0.00ns)   --->   "%tmp_data_V = extractvalue { i64, i8, i1 } %empty_51, 0" [/home/paulrr2/Projects/ece527/babelsoc/fpga-network-stack/hls/ip_handler/ip_handler.cpp:439]   --->   Operation 22 'extractvalue' 'tmp_data_V' <Predicate = (state_V_load & tmp)> <Delay = 0.00>
ST_1 : Operation 23 [1/1] (0.00ns)   --->   "%tmp_keep_V = extractvalue { i64, i8, i1 } %empty_51, 1" [/home/paulrr2/Projects/ece527/babelsoc/fpga-network-stack/hls/ip_handler/ip_handler.cpp:439]   --->   Operation 23 'extractvalue' 'tmp_keep_V' <Predicate = (state_V_load & tmp)> <Delay = 0.00>
ST_1 : Operation 24 [1/1] (0.00ns)   --->   "%tmp_last_V = extractvalue { i64, i8, i1 } %empty_51, 2" [/home/paulrr2/Projects/ece527/babelsoc/fpga-network-stack/hls/ip_handler/ip_handler.cpp:439]   --->   Operation 24 'extractvalue' 'tmp_last_V' <Predicate = (state_V_load & tmp)> <Delay = 0.00>
ST_1 : Operation 25 [1/1] (1.55ns)   --->   "%icmp_ln879 = icmp eq i8 %nextHeader_V_load, 58" [/home/paulrr2/Projects/ece527/babelsoc/fpga-network-stack/hls/ip_handler/ip_handler.cpp:440]   --->   Operation 25 'icmp' 'icmp_ln879' <Predicate = (state_V_load & tmp)> <Delay = 1.55> <Core = "Cmp">   --->   Core 25 'Cmp' <Latency = 0> <II = 1> <Delay = 1.55> <FuncUnit> <Opcode : 'icmp'> <InPorts = 2> <OutPorts = 1>
ST_1 : Operation 26 [1/1] (0.00ns)   --->   "br i1 %icmp_ln879, label %9, label %10" [/home/paulrr2/Projects/ece527/babelsoc/fpga-network-stack/hls/ip_handler/ip_handler.cpp:440]   --->   Operation 26 'br' <Predicate = (state_V_load & tmp)> <Delay = 0.00>
ST_1 : Operation 27 [1/1] (1.55ns)   --->   "%icmp_ln879_6 = icmp eq i8 %nextHeader_V_load, 17" [/home/paulrr2/Projects/ece527/babelsoc/fpga-network-stack/hls/ip_handler/ip_handler.cpp:444]   --->   Operation 27 'icmp' 'icmp_ln879_6' <Predicate = (state_V_load & tmp & !icmp_ln879)> <Delay = 1.55> <Core = "Cmp">   --->   Core 25 'Cmp' <Latency = 0> <II = 1> <Delay = 1.55> <FuncUnit> <Opcode : 'icmp'> <InPorts = 2> <OutPorts = 1>
ST_1 : Operation 28 [1/1] (0.00ns)   --->   "br i1 %icmp_ln879_6, label %11, label %._crit_edge7.i" [/home/paulrr2/Projects/ece527/babelsoc/fpga-network-stack/hls/ip_handler/ip_handler.cpp:444]   --->   Operation 28 'br' <Predicate = (state_V_load & tmp & !icmp_ln879)> <Delay = 0.00>
ST_1 : Operation 29 [1/1] (1.76ns)   --->   "store i1 false, i1* @state_V, align 1" [/home/paulrr2/Projects/ece527/babelsoc/fpga-network-stack/hls/ip_handler/ip_handler.cpp:451]   --->   Operation 29 'store' <Predicate = (state_V_load & tmp & tmp_last_V)> <Delay = 1.76>

State 2 <SV = 1> <Delay = 0.00>
ST_2 : Operation 30 [2/2] (0.00ns)   --->   "call void @_ssdm_op_Write.axis.volatile.i64P.i8P.i1P(i64* %ipv6UdpDataOut_V_data_V, i8* %ipv6UdpDataOut_V_keep_V, i1* %ipv6UdpDataOut_V_last_V, i64 %tmp_data_V_6, i8 %tmp_keep_V_5, i1 %tmp_last_V_3)" [/home/paulrr2/Projects/ece527/babelsoc/fpga-network-stack/hls/ip_handler/ip_handler.cpp:427]   --->   Operation 30 'write' <Predicate = (!state_V_load & tmp & !icmp_ln879_5 & icmp_ln879_7)> <Delay = 0.00> <Core = "AXI4Stream">   --->   Core 5 'AXI4Stream' <Latency = 0> <II = 1> <Delay = 1.00> <Adapter> <Opcode : >
ST_2 : Operation 31 [2/2] (0.00ns)   --->   "call void @_ssdm_op_Write.axis.volatile.i64P.i8P.i1P(i64* %icmpv6DataOut_V_data_V, i8* %icmpv6DataOut_V_keep_V, i1* %icmpv6DataOut_V_last_V, i64 %tmp_data_V_6, i8 %tmp_keep_V_5, i1 %tmp_last_V_3)" [/home/paulrr2/Projects/ece527/babelsoc/fpga-network-stack/hls/ip_handler/ip_handler.cpp:423]   --->   Operation 31 'write' <Predicate = (!state_V_load & tmp & icmp_ln879_5)> <Delay = 0.00> <Core = "AXI4Stream">   --->   Core 5 'AXI4Stream' <Latency = 0> <II = 1> <Delay = 1.00> <Adapter> <Opcode : >
ST_2 : Operation 32 [1/1] (0.00ns)   --->   "br i1 %tmp_last_V_3, label %._crit_edge5.i, label %6" [/home/paulrr2/Projects/ece527/babelsoc/fpga-network-stack/hls/ip_handler/ip_handler.cpp:430]   --->   Operation 32 'br' <Predicate = (!state_V_load & tmp)> <Delay = 0.00>
ST_2 : Operation 33 [2/2] (0.00ns)   --->   "call void @_ssdm_op_Write.axis.volatile.i64P.i8P.i1P(i64* %ipv6UdpDataOut_V_data_V, i8* %ipv6UdpDataOut_V_keep_V, i1* %ipv6UdpDataOut_V_last_V, i64 %tmp_data_V, i8 %tmp_keep_V, i1 %tmp_last_V)" [/home/paulrr2/Projects/ece527/babelsoc/fpga-network-stack/hls/ip_handler/ip_handler.cpp:446]   --->   Operation 33 'write' <Predicate = (state_V_load & tmp & !icmp_ln879 & icmp_ln879_6)> <Delay = 0.00> <Core = "AXI4Stream">   --->   Core 5 'AXI4Stream' <Latency = 0> <II = 1> <Delay = 1.00> <Adapter> <Opcode : >
ST_2 : Operation 34 [2/2] (0.00ns)   --->   "call void @_ssdm_op_Write.axis.volatile.i64P.i8P.i1P(i64* %icmpv6DataOut_V_data_V, i8* %icmpv6DataOut_V_keep_V, i1* %icmpv6DataOut_V_last_V, i64 %tmp_data_V, i8 %tmp_keep_V, i1 %tmp_last_V)" [/home/paulrr2/Projects/ece527/babelsoc/fpga-network-stack/hls/ip_handler/ip_handler.cpp:442]   --->   Operation 34 'write' <Predicate = (state_V_load & tmp & icmp_ln879)> <Delay = 0.00> <Core = "AXI4Stream">   --->   Core 5 'AXI4Stream' <Latency = 0> <II = 1> <Delay = 1.00> <Adapter> <Opcode : >
ST_2 : Operation 35 [1/1] (0.00ns)   --->   "br i1 %tmp_last_V, label %13, label %._crit_edge8.i" [/home/paulrr2/Projects/ece527/babelsoc/fpga-network-stack/hls/ip_handler/ip_handler.cpp:449]   --->   Operation 35 'br' <Predicate = (state_V_load & tmp)> <Delay = 0.00>

State 3 <SV = 2> <Delay = 0.00>
ST_3 : Operation 36 [1/1] (0.00ns)   --->   "call void (...)* @_ssdm_op_SpecInterface(i64* @ipv6DataFifo_V_data_s, [8 x i8]* @ap_fifo_str, i32 0, i32 0, [1 x i8]* @p_str, i32 0, i32 0, [1 x i8]* @p_str, [1 x i8]* @p_str, [1 x i8]* @p_str, i32 2, i32 2, i32 16, i32 16, [1 x i8]* @p_str, [1 x i8]* @p_str)"   --->   Operation 36 'specinterface' <Predicate = true> <Delay = 0.00>
ST_3 : Operation 37 [1/1] (0.00ns)   --->   "call void (...)* @_ssdm_op_SpecInterface(i8* @ipv6DataFifo_V_keep_s, [8 x i8]* @ap_fifo_str, i32 0, i32 0, [1 x i8]* @p_str, i32 0, i32 0, [1 x i8]* @p_str, [1 x i8]* @p_str, [1 x i8]* @p_str, i32 2, i32 2, i32 16, i32 16, [1 x i8]* @p_str, [1 x i8]* @p_str)"   --->   Operation 37 'specinterface' <Predicate = true> <Delay = 0.00>
ST_3 : Operation 38 [1/1] (0.00ns)   --->   "call void (...)* @_ssdm_op_SpecInterface(i1* @ipv6DataFifo_V_last_s, [8 x i8]* @ap_fifo_str, i32 0, i32 0, [1 x i8]* @p_str, i32 0, i32 0, [1 x i8]* @p_str, [1 x i8]* @p_str, [1 x i8]* @p_str, i32 2, i32 2, i32 16, i32 16, [1 x i8]* @p_str, [1 x i8]* @p_str)"   --->   Operation 38 'specinterface' <Predicate = true> <Delay = 0.00>
ST_3 : Operation 39 [1/1] (0.00ns)   --->   "call void (...)* @_ssdm_op_SpecInterface(i64* %ipv6UdpDataOut_V_data_V, i8* %ipv6UdpDataOut_V_keep_V, i1* %ipv6UdpDataOut_V_last_V, [5 x i8]* @p_str4, i32 1, i32 1, [5 x i8]* @p_str5, i32 0, i32 0, [1 x i8]* @p_str2, [1 x i8]* @p_str2, [1 x i8]* @p_str2, i32 0, i32 0, i32 0, i32 0, [1 x i8]* @p_str2, [1 x i8]* @p_str2) nounwind"   --->   Operation 39 'specinterface' <Predicate = true> <Delay = 0.00>
ST_3 : Operation 40 [1/1] (0.00ns)   --->   "call void (...)* @_ssdm_op_SpecInterface(i64* %icmpv6DataOut_V_data_V, i8* %icmpv6DataOut_V_keep_V, i1* %icmpv6DataOut_V_last_V, [5 x i8]* @p_str4, i32 1, i32 1, [5 x i8]* @p_str5, i32 0, i32 0, [1 x i8]* @p_str2, [1 x i8]* @p_str2, [1 x i8]* @p_str2, i32 0, i32 0, i32 0, i32 0, [1 x i8]* @p_str2, [1 x i8]* @p_str2) nounwind"   --->   Operation 40 'specinterface' <Predicate = true> <Delay = 0.00>
ST_3 : Operation 41 [1/1] (0.00ns)   --->   "call void (...)* @_ssdm_op_SpecPipeline(i32 1, i32 1, i32 1, i32 0, [1 x i8]* @p_str2) nounwind" [/home/paulrr2/Projects/ece527/babelsoc/fpga-network-stack/hls/ip_handler/ip_handler.cpp:402]   --->   Operation 41 'specpipeline' <Predicate = true> <Delay = 0.00>
ST_3 : Operation 42 [1/2] (0.00ns)   --->   "call void @_ssdm_op_Write.axis.volatile.i64P.i8P.i1P(i64* %ipv6UdpDataOut_V_data_V, i8* %ipv6UdpDataOut_V_keep_V, i1* %ipv6UdpDataOut_V_last_V, i64 %tmp_data_V_6, i8 %tmp_keep_V_5, i1 %tmp_last_V_3)" [/home/paulrr2/Projects/ece527/babelsoc/fpga-network-stack/hls/ip_handler/ip_handler.cpp:427]   --->   Operation 42 'write' <Predicate = (!state_V_load & tmp & !icmp_ln879_5 & icmp_ln879_7)> <Delay = 0.00> <Core = "AXI4Stream">   --->   Core 5 'AXI4Stream' <Latency = 0> <II = 1> <Delay = 1.00> <Adapter> <Opcode : >
ST_3 : Operation 43 [1/1] (0.00ns)   --->   "br label %._crit_edge4.i" [/home/paulrr2/Projects/ece527/babelsoc/fpga-network-stack/hls/ip_handler/ip_handler.cpp:428]   --->   Operation 43 'br' <Predicate = (!state_V_load & tmp & !icmp_ln879_5 & icmp_ln879_7)> <Delay = 0.00>
ST_3 : Operation 44 [1/1] (0.00ns)   --->   "br label %5"   --->   Operation 44 'br' <Predicate = (!state_V_load & tmp & !icmp_ln879_5)> <Delay = 0.00>
ST_3 : Operation 45 [1/2] (0.00ns)   --->   "call void @_ssdm_op_Write.axis.volatile.i64P.i8P.i1P(i64* %icmpv6DataOut_V_data_V, i8* %icmpv6DataOut_V_keep_V, i1* %icmpv6DataOut_V_last_V, i64 %tmp_data_V_6, i8 %tmp_keep_V_5, i1 %tmp_last_V_3)" [/home/paulrr2/Projects/ece527/babelsoc/fpga-network-stack/hls/ip_handler/ip_handler.cpp:423]   --->   Operation 45 'write' <Predicate = (!state_V_load & tmp & icmp_ln879_5)> <Delay = 0.00> <Core = "AXI4Stream">   --->   Core 5 'AXI4Stream' <Latency = 0> <II = 1> <Delay = 1.00> <Adapter> <Opcode : >
ST_3 : Operation 46 [1/1] (0.00ns)   --->   "br label %5" [/home/paulrr2/Projects/ece527/babelsoc/fpga-network-stack/hls/ip_handler/ip_handler.cpp:424]   --->   Operation 46 'br' <Predicate = (!state_V_load & tmp & icmp_ln879_5)> <Delay = 0.00>
ST_3 : Operation 47 [1/1] (0.00ns)   --->   "br label %._crit_edge5.i" [/home/paulrr2/Projects/ece527/babelsoc/fpga-network-stack/hls/ip_handler/ip_handler.cpp:433]   --->   Operation 47 'br' <Predicate = (!state_V_load & tmp & !tmp_last_V_3)> <Delay = 0.00>
ST_3 : Operation 48 [1/1] (0.00ns)   --->   "br label %._crit_edge3.i" [/home/paulrr2/Projects/ece527/babelsoc/fpga-network-stack/hls/ip_handler/ip_handler.cpp:434]   --->   Operation 48 'br' <Predicate = (!state_V_load & tmp)> <Delay = 0.00>
ST_3 : Operation 49 [1/1] (0.00ns)   --->   "br label %"detect_ipv6_protocol<64>.exit"" [/home/paulrr2/Projects/ece527/babelsoc/fpga-network-stack/hls/ip_handler/ip_handler.cpp:435]   --->   Operation 49 'br' <Predicate = (!state_V_load)> <Delay = 0.00>
ST_3 : Operation 50 [1/2] (0.00ns)   --->   "call void @_ssdm_op_Write.axis.volatile.i64P.i8P.i1P(i64* %ipv6UdpDataOut_V_data_V, i8* %ipv6UdpDataOut_V_keep_V, i1* %ipv6UdpDataOut_V_last_V, i64 %tmp_data_V, i8 %tmp_keep_V, i1 %tmp_last_V)" [/home/paulrr2/Projects/ece527/babelsoc/fpga-network-stack/hls/ip_handler/ip_handler.cpp:446]   --->   Operation 50 'write' <Predicate = (state_V_load & tmp & !icmp_ln879 & icmp_ln879_6)> <Delay = 0.00> <Core = "AXI4Stream">   --->   Core 5 'AXI4Stream' <Latency = 0> <II = 1> <Delay = 1.00> <Adapter> <Opcode : >
ST_3 : Operation 51 [1/1] (0.00ns)   --->   "br label %._crit_edge7.i" [/home/paulrr2/Projects/ece527/babelsoc/fpga-network-stack/hls/ip_handler/ip_handler.cpp:447]   --->   Operation 51 'br' <Predicate = (state_V_load & tmp & !icmp_ln879 & icmp_ln879_6)> <Delay = 0.00>
ST_3 : Operation 52 [1/1] (0.00ns)   --->   "br label %12"   --->   Operation 52 'br' <Predicate = (state_V_load & tmp & !icmp_ln879)> <Delay = 0.00>
ST_3 : Operation 53 [1/2] (0.00ns)   --->   "call void @_ssdm_op_Write.axis.volatile.i64P.i8P.i1P(i64* %icmpv6DataOut_V_data_V, i8* %icmpv6DataOut_V_keep_V, i1* %icmpv6DataOut_V_last_V, i64 %tmp_data_V, i8 %tmp_keep_V, i1 %tmp_last_V)" [/home/paulrr2/Projects/ece527/babelsoc/fpga-network-stack/hls/ip_handler/ip_handler.cpp:442]   --->   Operation 53 'write' <Predicate = (state_V_load & tmp & icmp_ln879)> <Delay = 0.00> <Core = "AXI4Stream">   --->   Core 5 'AXI4Stream' <Latency = 0> <II = 1> <Delay = 1.00> <Adapter> <Opcode : >
ST_3 : Operation 54 [1/1] (0.00ns)   --->   "br label %12" [/home/paulrr2/Projects/ece527/babelsoc/fpga-network-stack/hls/ip_handler/ip_handler.cpp:443]   --->   Operation 54 'br' <Predicate = (state_V_load & tmp & icmp_ln879)> <Delay = 0.00>
ST_3 : Operation 55 [1/1] (0.00ns)   --->   "br label %._crit_edge8.i" [/home/paulrr2/Projects/ece527/babelsoc/fpga-network-stack/hls/ip_handler/ip_handler.cpp:452]   --->   Operation 55 'br' <Predicate = (state_V_load & tmp & tmp_last_V)> <Delay = 0.00>
ST_3 : Operation 56 [1/1] (0.00ns)   --->   "br label %._crit_edge6.i" [/home/paulrr2/Projects/ece527/babelsoc/fpga-network-stack/hls/ip_handler/ip_handler.cpp:453]   --->   Operation 56 'br' <Predicate = (state_V_load & tmp)> <Delay = 0.00>
ST_3 : Operation 57 [1/1] (0.00ns)   --->   "br label %"detect_ipv6_protocol<64>.exit"" [/home/paulrr2/Projects/ece527/babelsoc/fpga-network-stack/hls/ip_handler/ip_handler.cpp:454]   --->   Operation 57 'br' <Predicate = (state_V_load)> <Delay = 0.00>
ST_3 : Operation 58 [1/1] (0.00ns)   --->   "ret void"   --->   Operation 58 'ret' <Predicate = true> <Delay = 0.00>


============================================================
+ Verbose Summary: Timing violations
============================================================
Target clock period: 6.4ns, clock uncertainty: 0.8ns.

 <State 1>: 4.35ns
The critical path consists of the following:
	fifo read on port 'ipv6DataFifo_V_data_s' (/home/paulrr2/Projects/ece527/babelsoc/fpga-network-stack/hls/ip_handler/ip_handler.cpp:414) [25]  (2.8 ns)
	'icmp' operation ('icmp_ln879_7', /home/paulrr2/Projects/ece527/babelsoc/fpga-network-stack/hls/ip_handler/ip_handler.cpp:425) [34]  (1.55 ns)

 <State 2>: 0ns
The critical path consists of the following:

 <State 3>: 0ns
The critical path consists of the following:


============================================================
+ Verbose Summary: Binding
============================================================
N/A
* FSMD analyzer results:
  - Output states:
 - Input state : 
  - Chain level:
	State 1
	State 2
	State 3


============================================================
+ Verbose Summary: Datapath Resource usage 
============================================================
N/A
