

================================================================
== Vivado HLS Report for 'duplicate_stream'
================================================================
* Date:           Fri Dec 18 10:37:57 2020

* Version:        2019.1 (Build 2552052 on Fri May 24 15:28:33 MDT 2019)
* Project:        ip_handler_prj
* Solution:       solution1
* Product family: zynq
* Target device:  xc7z020-clg400-1


================================================================
== Performance Estimates
================================================================
+ Timing (ns): 
    * Summary: 
    +--------+-------+----------+------------+
    |  Clock | Target| Estimated| Uncertainty|
    +--------+-------+----------+------------+
    |ap_clk  |   6.40|     2.800|        0.80|
    +--------+-------+----------+------------+

+ Latency (clock cycles): 
    * Summary: 
    +-----+-----+-----+-----+----------+
    |  Latency  |  Interval | Pipeline |
    | min | max | min | max |   Type   |
    +-----+-----+-----+-----+----------+
    |    2|    2|    1|    1| function |
    +-----+-----+-----+-----+----------+

    + Detail: 
        * Instance: 
        N/A

        * Loop: 
        N/A



================================================================
== Utilization Estimates
================================================================
* Summary: 
+-----------------+---------+-------+--------+-------+-----+
|       Name      | BRAM_18K| DSP48E|   FF   |  LUT  | URAM|
+-----------------+---------+-------+--------+-------+-----+
|DSP              |        -|      -|       -|      -|    -|
|Expression       |        -|      -|       0|     88|    -|
|FIFO             |        -|      -|       -|      -|    -|
|Instance         |        -|      -|       -|      -|    -|
|Memory           |        -|      -|       -|      -|    -|
|Multiplexer      |        -|      -|       -|    180|    -|
|Register         |        -|      -|     395|      -|    -|
+-----------------+---------+-------+--------+-------+-----+
|Total            |        0|      0|     395|    268|    0|
+-----------------+---------+-------+--------+-------+-----+
|Available        |      280|    220|  106400|  53200|    0|
+-----------------+---------+-------+--------+-------+-----+
|Utilization (%)  |        0|      0|   ~0   |   ~0  |    0|
+-----------------+---------+-------+--------+-------+-----+

+ Detail: 
    * Instance: 
    N/A

    * DSP48E: 
    N/A

    * Memory: 
    N/A

    * FIFO: 
    N/A

    * Expression: 
    +----------------------------------+----------+-------+---+----+------------+------------+
    |           Variable Name          | Operation| DSP48E| FF| LUT| Bitwidth P0| Bitwidth P1|
    +----------------------------------+----------+-------+---+----+------------+------------+
    |out0_V_data_V_1_load_A            |    and   |      0|  0|   2|           1|           1|
    |out0_V_data_V_1_load_B            |    and   |      0|  0|   2|           1|           1|
    |out0_V_keep_V_1_load_A            |    and   |      0|  0|   2|           1|           1|
    |out0_V_keep_V_1_load_B            |    and   |      0|  0|   2|           1|           1|
    |out0_V_last_V_1_load_A            |    and   |      0|  0|   2|           1|           1|
    |out0_V_last_V_1_load_B            |    and   |      0|  0|   2|           1|           1|
    |out1_V_data_V_1_load_A            |    and   |      0|  0|   2|           1|           1|
    |out1_V_data_V_1_load_B            |    and   |      0|  0|   2|           1|           1|
    |out1_V_keep_V_1_load_A            |    and   |      0|  0|   2|           1|           1|
    |out1_V_keep_V_1_load_B            |    and   |      0|  0|   2|           1|           1|
    |out1_V_last_V_1_load_A            |    and   |      0|  0|   2|           1|           1|
    |out1_V_last_V_1_load_B            |    and   |      0|  0|   2|           1|           1|
    |tmp_nbreadreq_fu_52_p3            |    and   |      0|  0|   2|           1|           0|
    |out0_V_data_V_1_state_cmp_full    |   icmp   |      0|  0|   8|           2|           1|
    |out0_V_keep_V_1_state_cmp_full    |   icmp   |      0|  0|   8|           2|           1|
    |out0_V_last_V_1_state_cmp_full    |   icmp   |      0|  0|   8|           2|           1|
    |out1_V_data_V_1_state_cmp_full    |   icmp   |      0|  0|   8|           2|           1|
    |out1_V_keep_V_1_state_cmp_full    |   icmp   |      0|  0|   8|           2|           1|
    |out1_V_last_V_1_state_cmp_full    |   icmp   |      0|  0|   8|           2|           1|
    |ap_block_pp0_stage0_01001         |    or    |      0|  0|   2|           1|           1|
    |ap_block_pp0_stage0_11001         |    or    |      0|  0|   2|           1|           1|
    |ap_block_state1_pp0_stage0_iter0  |    or    |      0|  0|   2|           1|           1|
    |ap_block_state2_io                |    or    |      0|  0|   2|           1|           1|
    |ap_block_state3_io                |    or    |      0|  0|   2|           1|           1|
    |ap_block_state3_pp0_stage0_iter2  |    or    |      0|  0|   2|           1|           1|
    |ap_enable_pp0                     |    xor   |      0|  0|   2|           1|           2|
    +----------------------------------+----------+-------+---+----+------------+------------+
    |Total                             |          |      0|  0|  88|          32|          26|
    +----------------------------------+----------+-------+---+----+------------+------------+

    * Multiplexer: 
    +--------------------------+----+-----------+-----+-----------+
    |           Name           | LUT| Input Size| Bits| Total Bits|
    +--------------------------+----+-----------+-----+-----------+
    |ap_done                   |   9|          2|    1|          2|
    |m_axis_roce_TDATA_blk_n   |   9|          2|    1|          2|
    |m_axis_udp_TDATA_blk_n    |   9|          2|    1|          2|
    |out0_V_data_V_1_data_out  |   9|          2|   64|        128|
    |out0_V_data_V_1_state     |  15|          3|    2|          6|
    |out0_V_keep_V_1_data_out  |   9|          2|    8|         16|
    |out0_V_keep_V_1_state     |  15|          3|    2|          6|
    |out0_V_last_V_1_data_out  |   9|          2|    1|          2|
    |out0_V_last_V_1_state     |  15|          3|    2|          6|
    |out1_V_data_V_1_data_out  |   9|          2|   64|        128|
    |out1_V_data_V_1_state     |  15|          3|    2|          6|
    |out1_V_keep_V_1_data_out  |   9|          2|    8|         16|
    |out1_V_keep_V_1_state     |  15|          3|    2|          6|
    |out1_V_last_V_1_data_out  |   9|          2|    1|          2|
    |out1_V_last_V_1_state     |  15|          3|    2|          6|
    |udpDataFifo_V_blk_n       |   9|          2|    1|          2|
    +--------------------------+----+-----------+-----+-----------+
    |Total                     | 180|         38|  162|        336|
    +--------------------------+----+-----------+-----+-----------+

    * Register: 
    +---------------------------+----+----+-----+-----------+
    |            Name           | FF | LUT| Bits| Const Bits|
    +---------------------------+----+----+-----+-----------+
    |ap_CS_fsm                  |   1|   0|    1|          0|
    |ap_done_reg                |   1|   0|    1|          0|
    |ap_enable_reg_pp0_iter1    |   1|   0|    1|          0|
    |ap_enable_reg_pp0_iter2    |   1|   0|    1|          0|
    |out0_V_data_V_1_payload_A  |  64|   0|   64|          0|
    |out0_V_data_V_1_payload_B  |  64|   0|   64|          0|
    |out0_V_data_V_1_sel_rd     |   1|   0|    1|          0|
    |out0_V_data_V_1_sel_wr     |   1|   0|    1|          0|
    |out0_V_data_V_1_state      |   2|   0|    2|          0|
    |out0_V_keep_V_1_payload_A  |   8|   0|    8|          0|
    |out0_V_keep_V_1_payload_B  |   8|   0|    8|          0|
    |out0_V_keep_V_1_sel_rd     |   1|   0|    1|          0|
    |out0_V_keep_V_1_sel_wr     |   1|   0|    1|          0|
    |out0_V_keep_V_1_state      |   2|   0|    2|          0|
    |out0_V_last_V_1_payload_A  |   1|   0|    1|          0|
    |out0_V_last_V_1_payload_B  |   1|   0|    1|          0|
    |out0_V_last_V_1_sel_rd     |   1|   0|    1|          0|
    |out0_V_last_V_1_sel_wr     |   1|   0|    1|          0|
    |out0_V_last_V_1_state      |   2|   0|    2|          0|
    |out1_V_data_V_1_payload_A  |  64|   0|   64|          0|
    |out1_V_data_V_1_payload_B  |  64|   0|   64|          0|
    |out1_V_data_V_1_sel_rd     |   1|   0|    1|          0|
    |out1_V_data_V_1_sel_wr     |   1|   0|    1|          0|
    |out1_V_data_V_1_state      |   2|   0|    2|          0|
    |out1_V_keep_V_1_payload_A  |   8|   0|    8|          0|
    |out1_V_keep_V_1_payload_B  |   8|   0|    8|          0|
    |out1_V_keep_V_1_sel_rd     |   1|   0|    1|          0|
    |out1_V_keep_V_1_sel_wr     |   1|   0|    1|          0|
    |out1_V_keep_V_1_state      |   2|   0|    2|          0|
    |out1_V_last_V_1_payload_A  |   1|   0|    1|          0|
    |out1_V_last_V_1_payload_B  |   1|   0|    1|          0|
    |out1_V_last_V_1_sel_rd     |   1|   0|    1|          0|
    |out1_V_last_V_1_sel_wr     |   1|   0|    1|          0|
    |out1_V_last_V_1_state      |   2|   0|    2|          0|
    |tmp_data_V_reg_118         |  64|   0|   64|          0|
    |tmp_keep_V_reg_124         |   8|   0|    8|          0|
    |tmp_last_V_reg_130         |   1|   0|    1|          0|
    |tmp_reg_114                |   1|   0|    1|          0|
    |tmp_reg_114_pp0_iter1_reg  |   1|   0|    1|          0|
    +---------------------------+----+----+-----+-----------+
    |Total                      | 395|   0|  395|          0|
    +---------------------------+----+----+-----+-----------+



================================================================
== Interface
================================================================
* Summary: 
+-----------------------+-----+-----+------------+------------------+--------------+
|       RTL Ports       | Dir | Bits|  Protocol  |   Source Object  |    C Type    |
+-----------------------+-----+-----+------------+------------------+--------------+
|ap_clk                 |  in |    1| ap_ctrl_hs | duplicate_stream | return value |
|ap_rst                 |  in |    1| ap_ctrl_hs | duplicate_stream | return value |
|ap_start               |  in |    1| ap_ctrl_hs | duplicate_stream | return value |
|ap_done                | out |    1| ap_ctrl_hs | duplicate_stream | return value |
|ap_continue            |  in |    1| ap_ctrl_hs | duplicate_stream | return value |
|ap_idle                | out |    1| ap_ctrl_hs | duplicate_stream | return value |
|ap_ready               | out |    1| ap_ctrl_hs | duplicate_stream | return value |
|udpDataFifo_V_dout     |  in |   73|   ap_fifo  |   udpDataFifo_V  |    pointer   |
|udpDataFifo_V_empty_n  |  in |    1|   ap_fifo  |   udpDataFifo_V  |    pointer   |
|udpDataFifo_V_read     | out |    1|   ap_fifo  |   udpDataFifo_V  |    pointer   |
|m_axis_udp_TREADY      |  in |    1|    axis    |   out0_V_last_V  |    pointer   |
|m_axis_udp_TVALID      | out |    1|    axis    |   out0_V_last_V  |    pointer   |
|m_axis_udp_TLAST       | out |    1|    axis    |   out0_V_last_V  |    pointer   |
|m_axis_roce_TREADY     |  in |    1|    axis    |   out1_V_last_V  |    pointer   |
|m_axis_roce_TVALID     | out |    1|    axis    |   out1_V_last_V  |    pointer   |
|m_axis_roce_TLAST      | out |    1|    axis    |   out1_V_last_V  |    pointer   |
|m_axis_udp_TDATA       | out |   64|    axis    |   out0_V_data_V  |    pointer   |
|m_axis_udp_TKEEP       | out |    8|    axis    |   out0_V_keep_V  |    pointer   |
|m_axis_roce_TDATA      | out |   64|    axis    |   out1_V_data_V  |    pointer   |
|m_axis_roce_TKEEP      | out |    8|    axis    |   out1_V_keep_V  |    pointer   |
+-----------------------+-----+-----+------------+------------------+--------------+

============================================================
+ Verbose Summary: Synthesis Manager
============================================================
InlineROM: 1
ExposeGlobal: 0
============================================================
+ Verbose Summary: CDFG Model
============================================================
IsTopModel: 0
ResetActiveHigh: 1
IsCombinational: 2
IsDatapathOnly: 0
HasWiredReturn: 1
HasMFsm: 2
HasVarLatency: 0
IsPipeline: 1
IsRtlPipelined: 1
IsInstanceOverlapped: 0
IsDontTouch: 0
HasImplIP: 0
IsGatedGlobalClock: 0

+ Individual pipeline summary: 
  * Pipeline-0: initiation interval (II) = 1, depth = 3


============================================================
+ Verbose Summary: Schedule
============================================================
* Number of FSM states : 3
* Pipeline : 1
  Pipeline-0 : II = 1, D = 3, States = { 1 2 3 }
* Dataflow Pipeline: 0

* FSM state transitions: 
1 --> 2 
2 --> 3 
3 --> 

* FSM state operations: 

State 1 <SV = 0> <Delay = 2.80>
ST_1 : Operation 4 [1/1] (0.00ns)   --->   "%tmp = call i1 @_ssdm_op_NbReadReq.ap_fifo.i73P(i73* @udpDataFifo_V, i32 1)" [/home/paulrr2/Projects/ece527/babelsoc/fpga-network-stack/hls/ip_handler/../axi_utils.hpp:985]   --->   Operation 4 'nbreadreq' 'tmp' <Predicate = true> <Delay = 0.00> <Core = "FIFO">   --->   Core 32 'FIFO' <Latency = 0> <II = 1> <Delay = 3.63> <Storage> <Opcode : 'read' 'write' 'nbread' 'nbwrite'> <Ports = 0> <Width = 73> <Depth = 2> <FIFO>
ST_1 : Operation 5 [1/1] (0.00ns)   --->   "br i1 %tmp, label %0, label %"duplicate_stream<net_axis<64> >.exit"" [/home/paulrr2/Projects/ece527/babelsoc/fpga-network-stack/hls/ip_handler/../axi_utils.hpp:985]   --->   Operation 5 'br' <Predicate = true> <Delay = 0.00>
ST_1 : Operation 6 [1/1] (2.80ns)   --->   "%tmp6 = call i73 @_ssdm_op_Read.ap_fifo.volatile.i73P(i73* @udpDataFifo_V)" [/home/paulrr2/Projects/ece527/babelsoc/fpga-network-stack/hls/ip_handler/../axi_utils.hpp:987]   --->   Operation 6 'read' 'tmp6' <Predicate = (tmp)> <Delay = 2.80> <Core = "FIFO">   --->   Core 32 'FIFO' <Latency = 0> <II = 1> <Delay = 3.63> <Storage> <Opcode : 'read' 'write' 'nbread' 'nbwrite'> <Ports = 0> <Width = 73> <Depth = 2> <FIFO>
ST_1 : Operation 7 [1/1] (0.00ns)   --->   "%tmp_data_V = trunc i73 %tmp6 to i64" [/home/paulrr2/Projects/ece527/babelsoc/fpga-network-stack/hls/ip_handler/../axi_utils.hpp:50->/home/paulrr2/Projects/ece527/babelsoc/fpga-network-stack/hls/ip_handler/../axi_utils.hpp:987]   --->   Operation 7 'trunc' 'tmp_data_V' <Predicate = (tmp)> <Delay = 0.00>
ST_1 : Operation 8 [1/1] (0.00ns)   --->   "%tmp_keep_V = call i8 @_ssdm_op_PartSelect.i8.i73.i32.i32(i73 %tmp6, i32 64, i32 71)" [/home/paulrr2/Projects/ece527/babelsoc/fpga-network-stack/hls/ip_handler/../axi_utils.hpp:50->/home/paulrr2/Projects/ece527/babelsoc/fpga-network-stack/hls/ip_handler/../axi_utils.hpp:987]   --->   Operation 8 'partselect' 'tmp_keep_V' <Predicate = (tmp)> <Delay = 0.00>
ST_1 : Operation 9 [1/1] (0.00ns)   --->   "%tmp_last_V = call i1 @_ssdm_op_BitSelect.i1.i73.i32(i73 %tmp6, i32 72)" [/home/paulrr2/Projects/ece527/babelsoc/fpga-network-stack/hls/ip_handler/../axi_utils.hpp:50->/home/paulrr2/Projects/ece527/babelsoc/fpga-network-stack/hls/ip_handler/../axi_utils.hpp:987]   --->   Operation 9 'bitselect' 'tmp_last_V' <Predicate = (tmp)> <Delay = 0.00>

State 2 <SV = 1> <Delay = 0.00>
ST_2 : Operation 10 [2/2] (0.00ns)   --->   "call void @_ssdm_op_Write.axis.volatile.i64P.i8P.i1P(i64* %out0_V_data_V, i8* %out0_V_keep_V, i1* %out0_V_last_V, i64 %tmp_data_V, i8 %tmp_keep_V, i1 %tmp_last_V)" [/home/paulrr2/Projects/ece527/babelsoc/fpga-network-stack/hls/ip_handler/../axi_utils.hpp:988]   --->   Operation 10 'write' <Predicate = (tmp)> <Delay = 0.00> <Core = "AXI4Stream">   --->   Core 5 'AXI4Stream' <Latency = 0> <II = 1> <Delay = 1.00> <Adapter> <Opcode : >
ST_2 : Operation 11 [2/2] (0.00ns)   --->   "call void @_ssdm_op_Write.axis.volatile.i64P.i8P.i1P(i64* %out1_V_data_V, i8* %out1_V_keep_V, i1* %out1_V_last_V, i64 %tmp_data_V, i8 %tmp_keep_V, i1 %tmp_last_V)" [/home/paulrr2/Projects/ece527/babelsoc/fpga-network-stack/hls/ip_handler/../axi_utils.hpp:989]   --->   Operation 11 'write' <Predicate = (tmp)> <Delay = 0.00> <Core = "AXI4Stream">   --->   Core 5 'AXI4Stream' <Latency = 0> <II = 1> <Delay = 1.00> <Adapter> <Opcode : >

State 3 <SV = 2> <Delay = 0.00>
ST_3 : Operation 12 [1/1] (0.00ns)   --->   "call void (...)* @_ssdm_op_SpecInterface(i73* @udpDataFifo_V, [8 x i8]* @ap_fifo_str, i32 0, i32 0, [1 x i8]* @p_str, i32 0, i32 0, [1 x i8]* @p_str, [1 x i8]* @p_str, [1 x i8]* @p_str, i32 2, i32 2, i32 16, i32 16, [1 x i8]* @p_str, [1 x i8]* @p_str)"   --->   Operation 12 'specinterface' <Predicate = true> <Delay = 0.00>
ST_3 : Operation 13 [1/1] (0.00ns)   --->   "call void (...)* @_ssdm_op_SpecInterface(i64* %out1_V_data_V, i8* %out1_V_keep_V, i1* %out1_V_last_V, [5 x i8]* @p_str4, i32 1, i32 1, [5 x i8]* @p_str5, i32 0, i32 0, [1 x i8]* @p_str2, [1 x i8]* @p_str2, [1 x i8]* @p_str2, i32 0, i32 0, i32 0, i32 0, [1 x i8]* @p_str2, [1 x i8]* @p_str2) nounwind"   --->   Operation 13 'specinterface' <Predicate = true> <Delay = 0.00>
ST_3 : Operation 14 [1/1] (0.00ns)   --->   "call void (...)* @_ssdm_op_SpecInterface(i64* %out0_V_data_V, i8* %out0_V_keep_V, i1* %out0_V_last_V, [5 x i8]* @p_str4, i32 1, i32 1, [5 x i8]* @p_str5, i32 0, i32 0, [1 x i8]* @p_str2, [1 x i8]* @p_str2, [1 x i8]* @p_str2, i32 0, i32 0, i32 0, i32 0, [1 x i8]* @p_str2, [1 x i8]* @p_str2) nounwind"   --->   Operation 14 'specinterface' <Predicate = true> <Delay = 0.00>
ST_3 : Operation 15 [1/1] (0.00ns)   --->   "call void (...)* @_ssdm_op_SpecPipeline(i32 1, i32 1, i32 1, i32 0, [1 x i8]* @p_str2) nounwind" [/home/paulrr2/Projects/ece527/babelsoc/fpga-network-stack/hls/ip_handler/../axi_utils.hpp:982]   --->   Operation 15 'specpipeline' <Predicate = true> <Delay = 0.00>
ST_3 : Operation 16 [1/2] (0.00ns)   --->   "call void @_ssdm_op_Write.axis.volatile.i64P.i8P.i1P(i64* %out0_V_data_V, i8* %out0_V_keep_V, i1* %out0_V_last_V, i64 %tmp_data_V, i8 %tmp_keep_V, i1 %tmp_last_V)" [/home/paulrr2/Projects/ece527/babelsoc/fpga-network-stack/hls/ip_handler/../axi_utils.hpp:988]   --->   Operation 16 'write' <Predicate = (tmp)> <Delay = 0.00> <Core = "AXI4Stream">   --->   Core 5 'AXI4Stream' <Latency = 0> <II = 1> <Delay = 1.00> <Adapter> <Opcode : >
ST_3 : Operation 17 [1/2] (0.00ns)   --->   "call void @_ssdm_op_Write.axis.volatile.i64P.i8P.i1P(i64* %out1_V_data_V, i8* %out1_V_keep_V, i1* %out1_V_last_V, i64 %tmp_data_V, i8 %tmp_keep_V, i1 %tmp_last_V)" [/home/paulrr2/Projects/ece527/babelsoc/fpga-network-stack/hls/ip_handler/../axi_utils.hpp:989]   --->   Operation 17 'write' <Predicate = (tmp)> <Delay = 0.00> <Core = "AXI4Stream">   --->   Core 5 'AXI4Stream' <Latency = 0> <II = 1> <Delay = 1.00> <Adapter> <Opcode : >
ST_3 : Operation 18 [1/1] (0.00ns)   --->   "br label %"duplicate_stream<net_axis<64> >.exit"" [/home/paulrr2/Projects/ece527/babelsoc/fpga-network-stack/hls/ip_handler/../axi_utils.hpp:990]   --->   Operation 18 'br' <Predicate = (tmp)> <Delay = 0.00>
ST_3 : Operation 19 [1/1] (0.00ns)   --->   "ret void"   --->   Operation 19 'ret' <Predicate = true> <Delay = 0.00>


============================================================
+ Verbose Summary: Binding
============================================================
STG Binding: 
---------------- STG Properties BEGIN ----------------
- Is combinational: 0
- Is one-state seq: 0
- Is datapath-only: 0
- Is pipelined: 1
- Is top level: 0
Port [ Return ] is wired: 1; IO mode=ap_ctrl_hs:ce=0
Port [ out0_V_data_V]:  wired=1; compound=1; hidden=0; nouse=0; global=0; static=0; extern=0; dir=1; type=0; pingpong=0; private_global=0; IO mode=axis:ce=0
Port [ out0_V_keep_V]:  wired=1; compound=1; hidden=0; nouse=0; global=0; static=0; extern=0; dir=1; type=0; pingpong=0; private_global=0; IO mode=axis:ce=0
Port [ out0_V_last_V]:  wired=1; compound=1; hidden=0; nouse=0; global=0; static=0; extern=0; dir=1; type=0; pingpong=0; private_global=0; IO mode=axis:ce=0
Port [ out1_V_data_V]:  wired=1; compound=1; hidden=0; nouse=0; global=0; static=0; extern=0; dir=1; type=0; pingpong=0; private_global=0; IO mode=axis:ce=0
Port [ out1_V_keep_V]:  wired=1; compound=1; hidden=0; nouse=0; global=0; static=0; extern=0; dir=1; type=0; pingpong=0; private_global=0; IO mode=axis:ce=0
Port [ out1_V_last_V]:  wired=1; compound=1; hidden=0; nouse=0; global=0; static=0; extern=0; dir=1; type=0; pingpong=0; private_global=0; IO mode=axis:ce=0
Port [ udpDataFifo_V]:  wired=1; compound=1; hidden=0; nouse=0; global=1; static=1; extern=0; dir=0; type=3; pingpong=0; private_global=0; linkage=7; visibility=0; IO mode=ap_fifo:ce=0
---------------- STG Properties END ------------------

---------------- Datapath Model BEGIN ----------------

<LifeTime>
<method=bitvector/>
tmp                (nbreadreq    ) [ 0111]
br_ln985           (br           ) [ 0000]
tmp6               (read         ) [ 0000]
tmp_data_V         (trunc        ) [ 0111]
tmp_keep_V         (partselect   ) [ 0111]
tmp_last_V         (bitselect    ) [ 0111]
specinterface_ln0  (specinterface) [ 0000]
specinterface_ln0  (specinterface) [ 0000]
specinterface_ln0  (specinterface) [ 0000]
specpipeline_ln982 (specpipeline ) [ 0000]
write_ln988        (write        ) [ 0000]
write_ln989        (write        ) [ 0000]
br_ln990           (br           ) [ 0000]
ret_ln0            (ret          ) [ 0000]
</LifeTime>

<model>

<comp_list>
<comp id="0" class="1000" name="out0_V_data_V">
<pin_list>
<pin id="1" dir="1" index="0" bw="1" slack="0"/>
</pin_list>
<bind>
<StgValue><ssdm name="out0_V_data_V"/></StgValue>
</bind>
</comp>

<comp id="2" class="1000" name="out0_V_keep_V">
<pin_list>
<pin id="3" dir="1" index="0" bw="1" slack="0"/>
</pin_list>
<bind>
<StgValue><ssdm name="out0_V_keep_V"/></StgValue>
</bind>
</comp>

<comp id="4" class="1000" name="out0_V_last_V">
<pin_list>
<pin id="5" dir="1" index="0" bw="1" slack="0"/>
</pin_list>
<bind>
<StgValue><ssdm name="out0_V_last_V"/></StgValue>
</bind>
</comp>

<comp id="6" class="1000" name="out1_V_data_V">
<pin_list>
<pin id="7" dir="1" index="0" bw="1" slack="0"/>
</pin_list>
<bind>
<StgValue><ssdm name="out1_V_data_V"/></StgValue>
</bind>
</comp>

<comp id="8" class="1000" name="out1_V_keep_V">
<pin_list>
<pin id="9" dir="1" index="0" bw="1" slack="0"/>
</pin_list>
<bind>
<StgValue><ssdm name="out1_V_keep_V"/></StgValue>
</bind>
</comp>

<comp id="10" class="1000" name="out1_V_last_V">
<pin_list>
<pin id="11" dir="1" index="0" bw="1" slack="0"/>
</pin_list>
<bind>
<StgValue><ssdm name="out1_V_last_V"/></StgValue>
</bind>
</comp>

<comp id="12" class="1000" name="udpDataFifo_V">
<pin_list>
<pin id="13" dir="1" index="0" bw="1" slack="0"/>
</pin_list>
<bind>
<StgValue><ssdm name="udpDataFifo_V"/></StgValue>
</bind>
</comp>

<comp id="14" class="1001" name="const_14">
<pin_list>
<pin id="15" dir="1" index="0" bw="1" slack="0"/>
</pin_list>
<bind>
<StgValue><ssdm name="_ssdm_op_NbReadReq.ap_fifo.i73P"/></StgValue>
</bind>
</comp>

<comp id="16" class="1001" name="const_16">
<pin_list>
<pin id="17" dir="1" index="0" bw="1" slack="0"/>
</pin_list>
<bind>
<StgValue><ssdm name=""/></StgValue>
</bind>
</comp>

<comp id="18" class="1001" name="const_18">
<pin_list>
<pin id="19" dir="1" index="0" bw="1" slack="0"/>
</pin_list>
<bind>
<StgValue><ssdm name="_ssdm_op_Read.ap_fifo.volatile.i73P"/></StgValue>
</bind>
</comp>

<comp id="20" class="1001" name="const_20">
<pin_list>
<pin id="21" dir="1" index="0" bw="1" slack="0"/>
</pin_list>
<bind>
<StgValue><ssdm name="_ssdm_op_PartSelect.i8.i73.i32.i32"/></StgValue>
</bind>
</comp>

<comp id="22" class="1001" name="const_22">
<pin_list>
<pin id="23" dir="1" index="0" bw="1" slack="0"/>
</pin_list>
<bind>
<StgValue><ssdm name=""/></StgValue>
</bind>
</comp>

<comp id="24" class="1001" name="const_24">
<pin_list>
<pin id="25" dir="1" index="0" bw="1" slack="0"/>
</pin_list>
<bind>
<StgValue><ssdm name=""/></StgValue>
</bind>
</comp>

<comp id="26" class="1001" name="const_26">
<pin_list>
<pin id="27" dir="1" index="0" bw="1" slack="0"/>
</pin_list>
<bind>
<StgValue><ssdm name="_ssdm_op_BitSelect.i1.i73.i32"/></StgValue>
</bind>
</comp>

<comp id="28" class="1001" name="const_28">
<pin_list>
<pin id="29" dir="1" index="0" bw="1" slack="0"/>
</pin_list>
<bind>
<StgValue><ssdm name=""/></StgValue>
</bind>
</comp>

<comp id="30" class="1001" name="const_30">
<pin_list>
<pin id="31" dir="1" index="0" bw="1" slack="0"/>
</pin_list>
<bind>
<StgValue><ssdm name="_ssdm_op_Write.axis.volatile.i64P.i8P.i1P"/></StgValue>
</bind>
</comp>

<comp id="32" class="1001" name="const_32">
<pin_list>
<pin id="33" dir="1" index="0" bw="1" slack="2147483647"/>
</pin_list>
<bind>
<StgValue><ssdm name="_ssdm_op_SpecInterface"/></StgValue>
</bind>
</comp>

<comp id="34" class="1001" name="const_34">
<pin_list>
<pin id="35" dir="1" index="0" bw="1" slack="2147483647"/>
</pin_list>
<bind>
<StgValue><ssdm name="ap_fifo_str"/></StgValue>
</bind>
</comp>

<comp id="36" class="1001" name="const_36">
<pin_list>
<pin id="37" dir="1" index="0" bw="1" slack="2147483647"/>
</pin_list>
<bind>
<StgValue><ssdm name=""/></StgValue>
</bind>
</comp>

<comp id="38" class="1001" name="const_38">
<pin_list>
<pin id="39" dir="1" index="0" bw="1" slack="2147483647"/>
</pin_list>
<bind>
<StgValue><ssdm name="p_str"/></StgValue>
</bind>
</comp>

<comp id="40" class="1001" name="const_40">
<pin_list>
<pin id="41" dir="1" index="0" bw="1" slack="2147483647"/>
</pin_list>
<bind>
<StgValue><ssdm name=""/></StgValue>
</bind>
</comp>

<comp id="42" class="1001" name="const_42">
<pin_list>
<pin id="43" dir="1" index="0" bw="1" slack="2147483647"/>
</pin_list>
<bind>
<StgValue><ssdm name=""/></StgValue>
</bind>
</comp>

<comp id="44" class="1001" name="const_44">
<pin_list>
<pin id="45" dir="1" index="0" bw="1" slack="2147483647"/>
</pin_list>
<bind>
<StgValue><ssdm name="p_str4"/></StgValue>
</bind>
</comp>

<comp id="46" class="1001" name="const_46">
<pin_list>
<pin id="47" dir="1" index="0" bw="1" slack="2147483647"/>
</pin_list>
<bind>
<StgValue><ssdm name="p_str5"/></StgValue>
</bind>
</comp>

<comp id="48" class="1001" name="const_48">
<pin_list>
<pin id="49" dir="1" index="0" bw="1" slack="2147483647"/>
</pin_list>
<bind>
<StgValue><ssdm name="p_str2"/></StgValue>
</bind>
</comp>

<comp id="50" class="1001" name="const_50">
<pin_list>
<pin id="51" dir="1" index="0" bw="1" slack="2147483647"/>
</pin_list>
<bind>
<StgValue><ssdm name="_ssdm_op_SpecPipeline"/></StgValue>
</bind>
</comp>

<comp id="52" class="1004" name="tmp_nbreadreq_fu_52">
<pin_list>
<pin id="53" dir="0" index="0" bw="1" slack="0"/>
<pin id="54" dir="0" index="1" bw="73" slack="0"/>
<pin id="55" dir="0" index="2" bw="1" slack="0"/>
<pin id="56" dir="1" index="3" bw="1" slack="1"/>
</pin_list>
<bind>
<opcode="nbreadreq(1156) " fcode="nbreadreq"/>
<opset="tmp/1 "/>
</bind>
</comp>

<comp id="60" class="1004" name="tmp6_read_fu_60">
<pin_list>
<pin id="61" dir="0" index="0" bw="73" slack="0"/>
<pin id="62" dir="0" index="1" bw="73" slack="0"/>
<pin id="63" dir="1" index="2" bw="73" slack="0"/>
</pin_list>
<bind>
<opcode="read(1150) " fcode="read"/>
<opset="tmp6/1 "/>
</bind>
</comp>

<comp id="66" class="1004" name="grp_write_fu_66">
<pin_list>
<pin id="67" dir="0" index="0" bw="0" slack="0"/>
<pin id="68" dir="0" index="1" bw="64" slack="0"/>
<pin id="69" dir="0" index="2" bw="8" slack="0"/>
<pin id="70" dir="0" index="3" bw="1" slack="0"/>
<pin id="71" dir="0" index="4" bw="64" slack="1"/>
<pin id="72" dir="0" index="5" bw="8" slack="1"/>
<pin id="73" dir="0" index="6" bw="1" slack="1"/>
<pin id="74" dir="1" index="7" bw="0" slack="2147483647"/>
</pin_list>
<bind>
<opcode="write(1151) " fcode="write"/>
<opset="write_ln988/2 "/>
</bind>
</comp>

<comp id="79" class="1004" name="grp_write_fu_79">
<pin_list>
<pin id="80" dir="0" index="0" bw="0" slack="0"/>
<pin id="81" dir="0" index="1" bw="64" slack="0"/>
<pin id="82" dir="0" index="2" bw="8" slack="0"/>
<pin id="83" dir="0" index="3" bw="1" slack="0"/>
<pin id="84" dir="0" index="4" bw="64" slack="1"/>
<pin id="85" dir="0" index="5" bw="8" slack="1"/>
<pin id="86" dir="0" index="6" bw="1" slack="1"/>
<pin id="87" dir="1" index="7" bw="0" slack="2147483647"/>
</pin_list>
<bind>
<opcode="write(1151) " fcode="write"/>
<opset="write_ln989/2 "/>
</bind>
</comp>

<comp id="92" class="1004" name="tmp_data_V_fu_92">
<pin_list>
<pin id="93" dir="0" index="0" bw="73" slack="0"/>
<pin id="94" dir="1" index="1" bw="64" slack="1"/>
</pin_list>
<bind>
<opcode="trunc(33) " fcode="trunc"/>
<opset="tmp_data_V/1 "/>
</bind>
</comp>

<comp id="96" class="1004" name="tmp_keep_V_fu_96">
<pin_list>
<pin id="97" dir="0" index="0" bw="8" slack="0"/>
<pin id="98" dir="0" index="1" bw="73" slack="0"/>
<pin id="99" dir="0" index="2" bw="8" slack="0"/>
<pin id="100" dir="0" index="3" bw="8" slack="0"/>
<pin id="101" dir="1" index="4" bw="8" slack="1"/>
</pin_list>
<bind>
<opcode="partselect(1002) " fcode="partselect"/>
<opset="tmp_keep_V/1 "/>
</bind>
</comp>

<comp id="106" class="1004" name="tmp_last_V_fu_106">
<pin_list>
<pin id="107" dir="0" index="0" bw="1" slack="0"/>
<pin id="108" dir="0" index="1" bw="73" slack="0"/>
<pin id="109" dir="0" index="2" bw="8" slack="0"/>
<pin id="110" dir="1" index="3" bw="1" slack="1"/>
</pin_list>
<bind>
<opcode="bitselect(1000) " fcode="bitselect"/>
<opset="tmp_last_V/1 "/>
</bind>
</comp>

<comp id="114" class="1005" name="tmp_reg_114">
<pin_list>
<pin id="115" dir="0" index="0" bw="1" slack="1"/>
<pin id="116" dir="1" index="1" bw="1" slack="2147483647"/>
</pin_list>
<bind>
<opset="tmp "/>
</bind>
</comp>

<comp id="118" class="1005" name="tmp_data_V_reg_118">
<pin_list>
<pin id="119" dir="0" index="0" bw="64" slack="1"/>
<pin id="120" dir="1" index="1" bw="64" slack="1"/>
</pin_list>
<bind>
<opset="tmp_data_V "/>
</bind>
</comp>

<comp id="124" class="1005" name="tmp_keep_V_reg_124">
<pin_list>
<pin id="125" dir="0" index="0" bw="8" slack="1"/>
<pin id="126" dir="1" index="1" bw="8" slack="1"/>
</pin_list>
<bind>
<opset="tmp_keep_V "/>
</bind>
</comp>

<comp id="130" class="1005" name="tmp_last_V_reg_130">
<pin_list>
<pin id="131" dir="0" index="0" bw="1" slack="1"/>
<pin id="132" dir="1" index="1" bw="1" slack="1"/>
</pin_list>
<bind>
<opset="tmp_last_V "/>
</bind>
</comp>

</comp_list>

<net_list>
<net id="57"><net_src comp="14" pin="0"/><net_sink comp="52" pin=0"/></net>

<net id="58"><net_src comp="12" pin="0"/><net_sink comp="52" pin=1"/></net>

<net id="59"><net_src comp="16" pin="0"/><net_sink comp="52" pin=2"/></net>

<net id="64"><net_src comp="18" pin="0"/><net_sink comp="60" pin=0"/></net>

<net id="65"><net_src comp="12" pin="0"/><net_sink comp="60" pin=1"/></net>

<net id="75"><net_src comp="30" pin="0"/><net_sink comp="66" pin=0"/></net>

<net id="76"><net_src comp="0" pin="0"/><net_sink comp="66" pin=1"/></net>

<net id="77"><net_src comp="2" pin="0"/><net_sink comp="66" pin=2"/></net>

<net id="78"><net_src comp="4" pin="0"/><net_sink comp="66" pin=3"/></net>

<net id="88"><net_src comp="30" pin="0"/><net_sink comp="79" pin=0"/></net>

<net id="89"><net_src comp="6" pin="0"/><net_sink comp="79" pin=1"/></net>

<net id="90"><net_src comp="8" pin="0"/><net_sink comp="79" pin=2"/></net>

<net id="91"><net_src comp="10" pin="0"/><net_sink comp="79" pin=3"/></net>

<net id="95"><net_src comp="60" pin="2"/><net_sink comp="92" pin=0"/></net>

<net id="102"><net_src comp="20" pin="0"/><net_sink comp="96" pin=0"/></net>

<net id="103"><net_src comp="60" pin="2"/><net_sink comp="96" pin=1"/></net>

<net id="104"><net_src comp="22" pin="0"/><net_sink comp="96" pin=2"/></net>

<net id="105"><net_src comp="24" pin="0"/><net_sink comp="96" pin=3"/></net>

<net id="111"><net_src comp="26" pin="0"/><net_sink comp="106" pin=0"/></net>

<net id="112"><net_src comp="60" pin="2"/><net_sink comp="106" pin=1"/></net>

<net id="113"><net_src comp="28" pin="0"/><net_sink comp="106" pin=2"/></net>

<net id="117"><net_src comp="52" pin="3"/><net_sink comp="114" pin=0"/></net>

<net id="121"><net_src comp="92" pin="1"/><net_sink comp="118" pin=0"/></net>

<net id="122"><net_src comp="118" pin="1"/><net_sink comp="66" pin=4"/></net>

<net id="123"><net_src comp="118" pin="1"/><net_sink comp="79" pin=4"/></net>

<net id="127"><net_src comp="96" pin="4"/><net_sink comp="124" pin=0"/></net>

<net id="128"><net_src comp="124" pin="1"/><net_sink comp="66" pin=5"/></net>

<net id="129"><net_src comp="124" pin="1"/><net_sink comp="79" pin=5"/></net>

<net id="133"><net_src comp="106" pin="3"/><net_sink comp="130" pin=0"/></net>

<net id="134"><net_src comp="130" pin="1"/><net_sink comp="66" pin=6"/></net>

<net id="135"><net_src comp="130" pin="1"/><net_sink comp="79" pin=6"/></net>

</net_list>

</model> 
---------------- Datapath Model END ------------------

* FSMD analyzer results:
  - Output states:
	Port: out0_V_data_V | {3 }
	Port: out0_V_keep_V | {3 }
	Port: out0_V_last_V | {3 }
	Port: out1_V_data_V | {3 }
	Port: out1_V_keep_V | {3 }
	Port: out1_V_last_V | {3 }
	Port: udpDataFifo_V | {}
 - Input state : 
	Port: duplicate_stream : out0_V_data_V | {}
	Port: duplicate_stream : out0_V_keep_V | {}
	Port: duplicate_stream : out0_V_last_V | {}
	Port: duplicate_stream : out1_V_data_V | {}
	Port: duplicate_stream : out1_V_keep_V | {}
	Port: duplicate_stream : out1_V_last_V | {}
	Port: duplicate_stream : udpDataFifo_V | {1 }
  - Chain level:
	State 1
	State 2
	State 3


============================================================
+ Verbose Summary: Datapath Resource usage 
============================================================

* Functional unit list:
|----------|---------------------|
| Operation|   Functional Unit   |
|----------|---------------------|
| nbreadreq| tmp_nbreadreq_fu_52 |
|----------|---------------------|
|   read   |   tmp6_read_fu_60   |
|----------|---------------------|
|   write  |   grp_write_fu_66   |
|          |   grp_write_fu_79   |
|----------|---------------------|
|   trunc  |   tmp_data_V_fu_92  |
|----------|---------------------|
|partselect|   tmp_keep_V_fu_96  |
|----------|---------------------|
| bitselect|  tmp_last_V_fu_106  |
|----------|---------------------|
|   Total  |                     |
|----------|---------------------|

Memories:
N/A

* Register list:
+------------------+--------+
|                  |   FF   |
+------------------+--------+
|tmp_data_V_reg_118|   64   |
|tmp_keep_V_reg_124|    8   |
|tmp_last_V_reg_130|    1   |
|    tmp_reg_114   |    1   |
+------------------+--------+
|       Total      |   74   |
+------------------+--------+

* Multiplexer (MUX) list: 
|--------|------|------|------|--------|
|  Comp  |  Pin | Size |  BW  | S x BW |
|--------|------|------|------|--------|
|  Total |      |      |      |    0   |
|--------|------|------|------|--------|



* Summary:
+-----------+--------+
|           |   FF   |
+-----------+--------+
|  Function |    -   |
|   Memory  |    -   |
|Multiplexer|    -   |
|  Register |   74   |
+-----------+--------+
|   Total   |   74   |
+-----------+--------+
