

================================================================
== Vivado HLS Report for 'ip_handler_top'
================================================================
* Date:           Fri Dec 18 10:37:49 2020

* Version:        2019.1 (Build 2552052 on Fri May 24 15:28:33 MDT 2019)
* Project:        ip_handler_prj
* Solution:       solution1
* Product family: zynq
* Target device:  xc7z020-clg400-1


================================================================
== Performance Estimates
================================================================
+ Timing (ns): 
    * Summary: 
    +--------+-------+----------+------------+
    |  Clock | Target| Estimated| Uncertainty|
    +--------+-------+----------+------------+
    |ap_clk  |   6.40|     9.406|        0.80|
    +--------+-------+----------+------------+

+ Latency (clock cycles): 
    * Summary: 
    +-----+-----+-----+-----+----------+
    |  Latency  |  Interval | Pipeline |
    | min | max | min | max |   Type   |
    +-----+-----+-----+-----+----------+
    |   26|   26|    1|    1| dataflow |
    +-----+-----+-----+-----+----------+

    + Detail: 
        * Instance: 
        N/A

        * Loop: 
        N/A

============================================================
+ Verbose Summary: Synthesis Manager
============================================================
InlineROM: 1
ExposeGlobal: 0
============================================================
+ Verbose Summary: CDFG Model
============================================================
IsTopModel: 1
ResetActiveHigh: 1
IsCombinational: 2
IsDatapathOnly: 0
HasWiredReturn: 1
HasMFsm: 0
HasVarLatency: 1
IsPipeline: 0
IsRtlPipelined: 0
IsInstanceOverlapped: 0
IsDontTouch: 0
HasImplIP: 0
IsGatedGlobalClock: 0


============================================================
+ Verbose Summary: Schedule
============================================================
* Number of FSM states : 35
* Pipeline : 0
* Dataflow Pipeline: 1
  DF-Pipeline-0: Size = 35, States = { 1 2 3 4 5 6 7 8 9 10 11 12 13 14 15 16 17 18 19 20 21 22 23 24 25 26 27 28 29 30 31 32 33 34 35 }

* FSM state transitions: 
1 --> 2 
2 --> 3 
3 --> 4 
4 --> 5 
5 --> 6 
6 --> 7 
7 --> 8 
8 --> 9 
9 --> 10 
10 --> 11 
11 --> 12 
12 --> 13 
13 --> 14 
14 --> 15 
15 --> 16 
16 --> 17 
17 --> 18 
18 --> 19 
19 --> 20 
20 --> 21 
21 --> 22 
22 --> 23 
23 --> 24 
24 --> 25 
25 --> 26 
26 --> 27 
27 --> 28 
28 --> 29 
29 --> 30 
30 --> 31 
31 --> 32 
32 --> 33 
33 --> 34 
34 --> 35 
35 --> 

* FSM state operations: 

State 1 <SV = 0> <Delay = 1.00>
ST_1 : Operation 36 [2/2] (1.00ns)   --->   "%myIpAddress_V_read = call i32 @_ssdm_op_Read.s_axilite.i32(i32 %myIpAddress_V)" [/home/paulrr2/Projects/ece527/babelsoc/fpga-network-stack/hls/ip_handler/ip_handler.cpp:523->/home/paulrr2/Projects/ece527/babelsoc/fpga-network-stack/hls/ip_handler/ip_handler.cpp:574]   --->   Operation 36 'read' 'myIpAddress_V_read' <Predicate = true> <Delay = 1.00> <Core = "s_axilite">   --->   Core 10 's_axilite' <Latency = 0> <II = 1> <Delay = 1.00> <Adapter> <Opcode : 'read' 'write'>
ST_1 : Operation 37 [1/1] (0.00ns)   --->   "%myIpAddress_V_c1 = alloca i32, align 4" [/home/paulrr2/Projects/ece527/babelsoc/fpga-network-stack/hls/ip_handler/ip_handler.cpp:523->/home/paulrr2/Projects/ece527/babelsoc/fpga-network-stack/hls/ip_handler/ip_handler.cpp:574]   --->   Operation 37 'alloca' 'myIpAddress_V_c1' <Predicate = true> <Delay = 0.00> <Core = "FIFO">   --->   Core 32 'FIFO' <Latency = 0> <II = 1> <Delay = 3.63> <Storage> <Opcode : 'read' 'write' 'nbread' 'nbwrite'> <Ports = 0> <Width = 73> <Depth = 2> <FIFO>
ST_1 : Operation 38 [1/1] (0.00ns)   --->   "%myIpAddress_V_c = alloca i32, align 4" [/home/paulrr2/Projects/ece527/babelsoc/fpga-network-stack/hls/ip_handler/ip_handler.cpp:523->/home/paulrr2/Projects/ece527/babelsoc/fpga-network-stack/hls/ip_handler/ip_handler.cpp:574]   --->   Operation 38 'alloca' 'myIpAddress_V_c' <Predicate = true> <Delay = 0.00> <Core = "FIFO">   --->   Core 32 'FIFO' <Latency = 0> <II = 1> <Delay = 3.63> <Storage> <Opcode : 'read' 'write' 'nbread' 'nbwrite'> <Ports = 0> <Width = 73> <Depth = 2> <FIFO>

State 2 <SV = 1> <Delay = 3.80>
ST_2 : Operation 39 [1/2] (1.00ns)   --->   "%myIpAddress_V_read = call i32 @_ssdm_op_Read.s_axilite.i32(i32 %myIpAddress_V)" [/home/paulrr2/Projects/ece527/babelsoc/fpga-network-stack/hls/ip_handler/ip_handler.cpp:523->/home/paulrr2/Projects/ece527/babelsoc/fpga-network-stack/hls/ip_handler/ip_handler.cpp:574]   --->   Operation 39 'read' 'myIpAddress_V_read' <Predicate = true> <Delay = 1.00> <Core = "s_axilite">   --->   Core 10 's_axilite' <Latency = 0> <II = 1> <Delay = 1.00> <Adapter> <Opcode : 'read' 'write'>
ST_2 : Operation 40 [1/1] (2.80ns)   --->   "call void @ip_handler_top.entry(i32 %myIpAddress_V_read, i32* %myIpAddress_V_c1)" [/home/paulrr2/Projects/ece527/babelsoc/fpga-network-stack/hls/ip_handler/ip_handler.cpp:523->/home/paulrr2/Projects/ece527/babelsoc/fpga-network-stack/hls/ip_handler/ip_handler.cpp:574]   --->   Operation 40 'call' <Predicate = true> <Delay = 2.80> <CoreType = "Generic">   --->   Core 0 '' <Latency = 0> <II = 1> <Delay = 1.00> <Generic> <Opcode : >

State 3 <SV = 2> <Delay = 1.95>
ST_3 : Operation 41 [4/4] (1.95ns)   --->   "call fastcc void @detect_eth_protocol3(i64* %s_axis_raw_V_data_V, i8* %s_axis_raw_V_keep_V, i1* %s_axis_raw_V_last_V, i32* nocapture %myIpAddress_V_c1, i32* %myIpAddress_V_c) noinline" [/home/paulrr2/Projects/ece527/babelsoc/fpga-network-stack/hls/ip_handler/ip_handler.cpp:523->/home/paulrr2/Projects/ece527/babelsoc/fpga-network-stack/hls/ip_handler/ip_handler.cpp:574]   --->   Operation 41 'call' <Predicate = true> <Delay = 1.95> <CoreType = "Generic">   --->   Core 0 '' <Latency = 0> <II = 1> <Delay = 1.00> <Generic> <Opcode : >

State 4 <SV = 3> <Delay = 0.00>
ST_4 : Operation 42 [3/4] (0.00ns)   --->   "call fastcc void @detect_eth_protocol3(i64* %s_axis_raw_V_data_V, i8* %s_axis_raw_V_keep_V, i1* %s_axis_raw_V_last_V, i32* nocapture %myIpAddress_V_c1, i32* %myIpAddress_V_c) noinline" [/home/paulrr2/Projects/ece527/babelsoc/fpga-network-stack/hls/ip_handler/ip_handler.cpp:523->/home/paulrr2/Projects/ece527/babelsoc/fpga-network-stack/hls/ip_handler/ip_handler.cpp:574]   --->   Operation 42 'call' <Predicate = true> <Delay = 0.00> <CoreType = "Generic">   --->   Core 0 '' <Latency = 0> <II = 1> <Delay = 1.00> <Generic> <Opcode : >

State 5 <SV = 4> <Delay = 0.00>
ST_5 : Operation 43 [2/4] (0.00ns)   --->   "call fastcc void @detect_eth_protocol3(i64* %s_axis_raw_V_data_V, i8* %s_axis_raw_V_keep_V, i1* %s_axis_raw_V_last_V, i32* nocapture %myIpAddress_V_c1, i32* %myIpAddress_V_c) noinline" [/home/paulrr2/Projects/ece527/babelsoc/fpga-network-stack/hls/ip_handler/ip_handler.cpp:523->/home/paulrr2/Projects/ece527/babelsoc/fpga-network-stack/hls/ip_handler/ip_handler.cpp:574]   --->   Operation 43 'call' <Predicate = true> <Delay = 0.00> <CoreType = "Generic">   --->   Core 0 '' <Latency = 0> <II = 1> <Delay = 1.00> <Generic> <Opcode : >

State 6 <SV = 5> <Delay = 0.00>
ST_6 : Operation 44 [1/4] (0.00ns)   --->   "call fastcc void @detect_eth_protocol3(i64* %s_axis_raw_V_data_V, i8* %s_axis_raw_V_keep_V, i1* %s_axis_raw_V_last_V, i32* nocapture %myIpAddress_V_c1, i32* %myIpAddress_V_c) noinline" [/home/paulrr2/Projects/ece527/babelsoc/fpga-network-stack/hls/ip_handler/ip_handler.cpp:523->/home/paulrr2/Projects/ece527/babelsoc/fpga-network-stack/hls/ip_handler/ip_handler.cpp:574]   --->   Operation 44 'call' <Predicate = true> <Delay = 0.00> <CoreType = "Generic">   --->   Core 0 '' <Latency = 0> <II = 1> <Delay = 1.00> <Generic> <Opcode : >

State 7 <SV = 6> <Delay = 0.00>
ST_7 : Operation 45 [3/3] (0.00ns)   --->   "call fastcc void @route_by_eth_protoco(i64* %m_axis_arp_V_data_V, i8* %m_axis_arp_V_keep_V, i1* %m_axis_arp_V_last_V) noinline" [/home/paulrr2/Projects/ece527/babelsoc/fpga-network-stack/hls/ip_handler/ip_handler.cpp:525->/home/paulrr2/Projects/ece527/babelsoc/fpga-network-stack/hls/ip_handler/ip_handler.cpp:574]   --->   Operation 45 'call' <Predicate = true> <Delay = 0.00> <CoreType = "Generic">   --->   Core 0 '' <Latency = 0> <II = 1> <Delay = 1.00> <Generic> <Opcode : >

State 8 <SV = 7> <Delay = 0.00>
ST_8 : Operation 46 [2/3] (0.00ns)   --->   "call fastcc void @route_by_eth_protoco(i64* %m_axis_arp_V_data_V, i8* %m_axis_arp_V_keep_V, i1* %m_axis_arp_V_last_V) noinline" [/home/paulrr2/Projects/ece527/babelsoc/fpga-network-stack/hls/ip_handler/ip_handler.cpp:525->/home/paulrr2/Projects/ece527/babelsoc/fpga-network-stack/hls/ip_handler/ip_handler.cpp:574]   --->   Operation 46 'call' <Predicate = true> <Delay = 0.00> <CoreType = "Generic">   --->   Core 0 '' <Latency = 0> <II = 1> <Delay = 1.00> <Generic> <Opcode : >

State 9 <SV = 8> <Delay = 0.00>
ST_9 : Operation 47 [1/3] (0.00ns)   --->   "call fastcc void @route_by_eth_protoco(i64* %m_axis_arp_V_data_V, i8* %m_axis_arp_V_keep_V, i1* %m_axis_arp_V_last_V) noinline" [/home/paulrr2/Projects/ece527/babelsoc/fpga-network-stack/hls/ip_handler/ip_handler.cpp:525->/home/paulrr2/Projects/ece527/babelsoc/fpga-network-stack/hls/ip_handler/ip_handler.cpp:574]   --->   Operation 47 'call' <Predicate = true> <Delay = 0.00> <CoreType = "Generic">   --->   Core 0 '' <Latency = 0> <II = 1> <Delay = 1.00> <Generic> <Opcode : >

State 10 <SV = 9> <Delay = 0.00>
ST_10 : Operation 48 [2/2] (0.00ns)   --->   "call fastcc void @rshiftWordByOctet.1() nounwind uwtable noinline" [/home/paulrr2/Projects/ece527/babelsoc/fpga-network-stack/hls/ip_handler/ip_handler.cpp:527->/home/paulrr2/Projects/ece527/babelsoc/fpga-network-stack/hls/ip_handler/ip_handler.cpp:574]   --->   Operation 48 'call' <Predicate = true> <Delay = 0.00> <CoreType = "Generic">   --->   Core 0 '' <Latency = 0> <II = 1> <Delay = 1.00> <Generic> <Opcode : >

State 11 <SV = 10> <Delay = 0.00>
ST_11 : Operation 49 [1/2] (0.00ns)   --->   "call fastcc void @rshiftWordByOctet.1() nounwind uwtable noinline" [/home/paulrr2/Projects/ece527/babelsoc/fpga-network-stack/hls/ip_handler/ip_handler.cpp:527->/home/paulrr2/Projects/ece527/babelsoc/fpga-network-stack/hls/ip_handler/ip_handler.cpp:574]   --->   Operation 49 'call' <Predicate = true> <Delay = 0.00> <CoreType = "Generic">   --->   Core 0 '' <Latency = 0> <II = 1> <Delay = 1.00> <Generic> <Opcode : >

State 12 <SV = 11> <Delay = 0.00>
ST_12 : Operation 50 [5/5] (0.00ns)   --->   "call fastcc void @"extract_ip_meta<64>"(i32* nocapture %myIpAddress_V_c) noinline" [/home/paulrr2/Projects/ece527/babelsoc/fpga-network-stack/hls/ip_handler/ip_handler.cpp:530->/home/paulrr2/Projects/ece527/babelsoc/fpga-network-stack/hls/ip_handler/ip_handler.cpp:574]   --->   Operation 50 'call' <Predicate = true> <Delay = 0.00> <CoreType = "Generic">   --->   Core 0 '' <Latency = 0> <II = 1> <Delay = 1.00> <Generic> <Opcode : >

State 13 <SV = 12> <Delay = 0.00>
ST_13 : Operation 51 [4/5] (0.00ns)   --->   "call fastcc void @"extract_ip_meta<64>"(i32* nocapture %myIpAddress_V_c) noinline" [/home/paulrr2/Projects/ece527/babelsoc/fpga-network-stack/hls/ip_handler/ip_handler.cpp:530->/home/paulrr2/Projects/ece527/babelsoc/fpga-network-stack/hls/ip_handler/ip_handler.cpp:574]   --->   Operation 51 'call' <Predicate = true> <Delay = 0.00> <CoreType = "Generic">   --->   Core 0 '' <Latency = 0> <II = 1> <Delay = 1.00> <Generic> <Opcode : >

State 14 <SV = 13> <Delay = 0.00>
ST_14 : Operation 52 [3/5] (0.00ns)   --->   "call fastcc void @"extract_ip_meta<64>"(i32* nocapture %myIpAddress_V_c) noinline" [/home/paulrr2/Projects/ece527/babelsoc/fpga-network-stack/hls/ip_handler/ip_handler.cpp:530->/home/paulrr2/Projects/ece527/babelsoc/fpga-network-stack/hls/ip_handler/ip_handler.cpp:574]   --->   Operation 52 'call' <Predicate = true> <Delay = 0.00> <CoreType = "Generic">   --->   Core 0 '' <Latency = 0> <II = 1> <Delay = 1.00> <Generic> <Opcode : >

State 15 <SV = 14> <Delay = 0.00>
ST_15 : Operation 53 [2/5] (0.00ns)   --->   "call fastcc void @"extract_ip_meta<64>"(i32* nocapture %myIpAddress_V_c) noinline" [/home/paulrr2/Projects/ece527/babelsoc/fpga-network-stack/hls/ip_handler/ip_handler.cpp:530->/home/paulrr2/Projects/ece527/babelsoc/fpga-network-stack/hls/ip_handler/ip_handler.cpp:574]   --->   Operation 53 'call' <Predicate = true> <Delay = 0.00> <CoreType = "Generic">   --->   Core 0 '' <Latency = 0> <II = 1> <Delay = 1.00> <Generic> <Opcode : >

State 16 <SV = 15> <Delay = 0.00>
ST_16 : Operation 54 [1/5] (0.00ns)   --->   "call fastcc void @"extract_ip_meta<64>"(i32* nocapture %myIpAddress_V_c) noinline" [/home/paulrr2/Projects/ece527/babelsoc/fpga-network-stack/hls/ip_handler/ip_handler.cpp:530->/home/paulrr2/Projects/ece527/babelsoc/fpga-network-stack/hls/ip_handler/ip_handler.cpp:574]   --->   Operation 54 'call' <Predicate = true> <Delay = 0.00> <CoreType = "Generic">   --->   Core 0 '' <Latency = 0> <II = 1> <Delay = 1.00> <Generic> <Opcode : >

State 17 <SV = 16> <Delay = 0.00>
ST_17 : Operation 55 [3/3] (0.00ns)   --->   "call fastcc void @compute_ipv4_checksu() nounwind uwtable noinline" [/home/paulrr2/Projects/ece527/babelsoc/fpga-network-stack/hls/ip_handler/ip_handler.cpp:532->/home/paulrr2/Projects/ece527/babelsoc/fpga-network-stack/hls/ip_handler/ip_handler.cpp:574]   --->   Operation 55 'call' <Predicate = true> <Delay = 0.00> <CoreType = "Generic">   --->   Core 0 '' <Latency = 0> <II = 1> <Delay = 1.00> <Generic> <Opcode : >

State 18 <SV = 17> <Delay = 0.00>
ST_18 : Operation 56 [2/3] (0.00ns)   --->   "call fastcc void @compute_ipv4_checksu() nounwind uwtable noinline" [/home/paulrr2/Projects/ece527/babelsoc/fpga-network-stack/hls/ip_handler/ip_handler.cpp:532->/home/paulrr2/Projects/ece527/babelsoc/fpga-network-stack/hls/ip_handler/ip_handler.cpp:574]   --->   Operation 56 'call' <Predicate = true> <Delay = 0.00> <CoreType = "Generic">   --->   Core 0 '' <Latency = 0> <II = 1> <Delay = 1.00> <Generic> <Opcode : >

State 19 <SV = 18> <Delay = 0.00>
ST_19 : Operation 57 [1/3] (0.00ns)   --->   "call fastcc void @compute_ipv4_checksu() nounwind uwtable noinline" [/home/paulrr2/Projects/ece527/babelsoc/fpga-network-stack/hls/ip_handler/ip_handler.cpp:532->/home/paulrr2/Projects/ece527/babelsoc/fpga-network-stack/hls/ip_handler/ip_handler.cpp:574]   --->   Operation 57 'call' <Predicate = true> <Delay = 0.00> <CoreType = "Generic">   --->   Core 0 '' <Latency = 0> <II = 1> <Delay = 1.00> <Generic> <Opcode : >

State 20 <SV = 19> <Delay = 0.00>
ST_20 : Operation 58 [5/5] (0.00ns)   --->   "call fastcc void @check_ipv4_checksum() nounwind uwtable noinline" [/home/paulrr2/Projects/ece527/babelsoc/fpga-network-stack/hls/ip_handler/ip_handler.cpp:534->/home/paulrr2/Projects/ece527/babelsoc/fpga-network-stack/hls/ip_handler/ip_handler.cpp:574]   --->   Operation 58 'call' <Predicate = true> <Delay = 0.00> <CoreType = "Generic">   --->   Core 0 '' <Latency = 0> <II = 1> <Delay = 1.00> <Generic> <Opcode : >

State 21 <SV = 20> <Delay = 0.00>
ST_21 : Operation 59 [4/5] (0.00ns)   --->   "call fastcc void @check_ipv4_checksum() nounwind uwtable noinline" [/home/paulrr2/Projects/ece527/babelsoc/fpga-network-stack/hls/ip_handler/ip_handler.cpp:534->/home/paulrr2/Projects/ece527/babelsoc/fpga-network-stack/hls/ip_handler/ip_handler.cpp:574]   --->   Operation 59 'call' <Predicate = true> <Delay = 0.00> <CoreType = "Generic">   --->   Core 0 '' <Latency = 0> <II = 1> <Delay = 1.00> <Generic> <Opcode : >

State 22 <SV = 21> <Delay = 0.00>
ST_22 : Operation 60 [3/5] (0.00ns)   --->   "call fastcc void @check_ipv4_checksum() nounwind uwtable noinline" [/home/paulrr2/Projects/ece527/babelsoc/fpga-network-stack/hls/ip_handler/ip_handler.cpp:534->/home/paulrr2/Projects/ece527/babelsoc/fpga-network-stack/hls/ip_handler/ip_handler.cpp:574]   --->   Operation 60 'call' <Predicate = true> <Delay = 0.00> <CoreType = "Generic">   --->   Core 0 '' <Latency = 0> <II = 1> <Delay = 1.00> <Generic> <Opcode : >

State 23 <SV = 22> <Delay = 0.00>
ST_23 : Operation 61 [2/5] (0.00ns)   --->   "call fastcc void @check_ipv4_checksum() nounwind uwtable noinline" [/home/paulrr2/Projects/ece527/babelsoc/fpga-network-stack/hls/ip_handler/ip_handler.cpp:534->/home/paulrr2/Projects/ece527/babelsoc/fpga-network-stack/hls/ip_handler/ip_handler.cpp:574]   --->   Operation 61 'call' <Predicate = true> <Delay = 0.00> <CoreType = "Generic">   --->   Core 0 '' <Latency = 0> <II = 1> <Delay = 1.00> <Generic> <Opcode : >

State 24 <SV = 23> <Delay = 0.00>
ST_24 : Operation 62 [1/5] (0.00ns)   --->   "call fastcc void @check_ipv4_checksum() nounwind uwtable noinline" [/home/paulrr2/Projects/ece527/babelsoc/fpga-network-stack/hls/ip_handler/ip_handler.cpp:534->/home/paulrr2/Projects/ece527/babelsoc/fpga-network-stack/hls/ip_handler/ip_handler.cpp:574]   --->   Operation 62 'call' <Predicate = true> <Delay = 0.00> <CoreType = "Generic">   --->   Core 0 '' <Latency = 0> <II = 1> <Delay = 1.00> <Generic> <Opcode : >

State 25 <SV = 24> <Delay = 0.00>
ST_25 : Operation 63 [2/2] (0.00ns)   --->   "call fastcc void @ip_invalid_dropper() nounwind uwtable noinline" [/home/paulrr2/Projects/ece527/babelsoc/fpga-network-stack/hls/ip_handler/ip_handler.cpp:536->/home/paulrr2/Projects/ece527/babelsoc/fpga-network-stack/hls/ip_handler/ip_handler.cpp:574]   --->   Operation 63 'call' <Predicate = true> <Delay = 0.00> <CoreType = "Generic">   --->   Core 0 '' <Latency = 0> <II = 1> <Delay = 1.00> <Generic> <Opcode : >

State 26 <SV = 25> <Delay = 0.00>
ST_26 : Operation 64 [1/2] (0.00ns)   --->   "call fastcc void @ip_invalid_dropper() nounwind uwtable noinline" [/home/paulrr2/Projects/ece527/babelsoc/fpga-network-stack/hls/ip_handler/ip_handler.cpp:536->/home/paulrr2/Projects/ece527/babelsoc/fpga-network-stack/hls/ip_handler/ip_handler.cpp:574]   --->   Operation 64 'call' <Predicate = true> <Delay = 0.00> <CoreType = "Generic">   --->   Core 0 '' <Latency = 0> <II = 1> <Delay = 1.00> <Generic> <Opcode : >

State 27 <SV = 26> <Delay = 0.00>
ST_27 : Operation 65 [2/2] (0.00ns)   --->   "call fastcc void @"cut_length<64>"() nounwind uwtable noinline" [/home/paulrr2/Projects/ece527/babelsoc/fpga-network-stack/hls/ip_handler/ip_handler.cpp:538->/home/paulrr2/Projects/ece527/babelsoc/fpga-network-stack/hls/ip_handler/ip_handler.cpp:574]   --->   Operation 65 'call' <Predicate = true> <Delay = 0.00> <CoreType = "Generic">   --->   Core 0 '' <Latency = 0> <II = 1> <Delay = 1.00> <Generic> <Opcode : >

State 28 <SV = 27> <Delay = 0.00>
ST_28 : Operation 66 [1/2] (0.00ns)   --->   "call fastcc void @"cut_length<64>"() nounwind uwtable noinline" [/home/paulrr2/Projects/ece527/babelsoc/fpga-network-stack/hls/ip_handler/ip_handler.cpp:538->/home/paulrr2/Projects/ece527/babelsoc/fpga-network-stack/hls/ip_handler/ip_handler.cpp:574]   --->   Operation 66 'call' <Predicate = true> <Delay = 0.00> <CoreType = "Generic">   --->   Core 0 '' <Latency = 0> <II = 1> <Delay = 1.00> <Generic> <Opcode : >

State 29 <SV = 28> <Delay = 0.00>
ST_29 : Operation 67 [3/3] (0.00ns)   --->   "call fastcc void @detect_ipv4_protocol(i64* %m_axis_icmp_V_data_V, i8* %m_axis_icmp_V_keep_V, i1* %m_axis_icmp_V_last_V, i64* %m_axis_tcp_V_data_V, i8* %m_axis_tcp_V_keep_V, i1* %m_axis_tcp_V_last_V) noinline" [/home/paulrr2/Projects/ece527/babelsoc/fpga-network-stack/hls/ip_handler/ip_handler.cpp:540->/home/paulrr2/Projects/ece527/babelsoc/fpga-network-stack/hls/ip_handler/ip_handler.cpp:574]   --->   Operation 67 'call' <Predicate = true> <Delay = 0.00> <CoreType = "Generic">   --->   Core 0 '' <Latency = 0> <II = 1> <Delay = 1.00> <Generic> <Opcode : >

State 30 <SV = 29> <Delay = 0.00>
ST_30 : Operation 68 [2/2] (0.00ns)   --->   "call fastcc void @rshiftWordByOctet() nounwind uwtable noinline" [/home/paulrr2/Projects/ece527/babelsoc/fpga-network-stack/hls/ip_handler/ip_handler.cpp:528->/home/paulrr2/Projects/ece527/babelsoc/fpga-network-stack/hls/ip_handler/ip_handler.cpp:574]   --->   Operation 68 'call' <Predicate = true> <Delay = 0.00> <CoreType = "Generic">   --->   Core 0 '' <Latency = 0> <II = 1> <Delay = 1.00> <Generic> <Opcode : >
ST_30 : Operation 69 [2/3] (0.00ns)   --->   "call fastcc void @detect_ipv4_protocol(i64* %m_axis_icmp_V_data_V, i8* %m_axis_icmp_V_keep_V, i1* %m_axis_icmp_V_last_V, i64* %m_axis_tcp_V_data_V, i8* %m_axis_tcp_V_keep_V, i1* %m_axis_tcp_V_last_V) noinline" [/home/paulrr2/Projects/ece527/babelsoc/fpga-network-stack/hls/ip_handler/ip_handler.cpp:540->/home/paulrr2/Projects/ece527/babelsoc/fpga-network-stack/hls/ip_handler/ip_handler.cpp:574]   --->   Operation 69 'call' <Predicate = true> <Delay = 0.00> <CoreType = "Generic">   --->   Core 0 '' <Latency = 0> <II = 1> <Delay = 1.00> <Generic> <Opcode : >

State 31 <SV = 30> <Delay = 0.00>
ST_31 : Operation 70 [1/2] (0.00ns)   --->   "call fastcc void @rshiftWordByOctet() nounwind uwtable noinline" [/home/paulrr2/Projects/ece527/babelsoc/fpga-network-stack/hls/ip_handler/ip_handler.cpp:528->/home/paulrr2/Projects/ece527/babelsoc/fpga-network-stack/hls/ip_handler/ip_handler.cpp:574]   --->   Operation 70 'call' <Predicate = true> <Delay = 0.00> <CoreType = "Generic">   --->   Core 0 '' <Latency = 0> <II = 1> <Delay = 1.00> <Generic> <Opcode : >
ST_31 : Operation 71 [1/3] (0.00ns)   --->   "call fastcc void @detect_ipv4_protocol(i64* %m_axis_icmp_V_data_V, i8* %m_axis_icmp_V_keep_V, i1* %m_axis_icmp_V_last_V, i64* %m_axis_tcp_V_data_V, i8* %m_axis_tcp_V_keep_V, i1* %m_axis_tcp_V_last_V) noinline" [/home/paulrr2/Projects/ece527/babelsoc/fpga-network-stack/hls/ip_handler/ip_handler.cpp:540->/home/paulrr2/Projects/ece527/babelsoc/fpga-network-stack/hls/ip_handler/ip_handler.cpp:574]   --->   Operation 71 'call' <Predicate = true> <Delay = 0.00> <CoreType = "Generic">   --->   Core 0 '' <Latency = 0> <II = 1> <Delay = 1.00> <Generic> <Opcode : >

State 32 <SV = 31> <Delay = 0.00>
ST_32 : Operation 72 [3/3] (0.00ns)   --->   "call fastcc void @detect_ipv6_protocol(i64* %m_axis_icmpv6_V_data_V, i8* %m_axis_icmpv6_V_keep_V, i1* %m_axis_icmpv6_V_last_V, i64* %m_axis_ipv6udp_V_data_V, i8* %m_axis_ipv6udp_V_keep_V, i1* %m_axis_ipv6udp_V_last_V) noinline" [/home/paulrr2/Projects/ece527/babelsoc/fpga-network-stack/hls/ip_handler/ip_handler.cpp:542->/home/paulrr2/Projects/ece527/babelsoc/fpga-network-stack/hls/ip_handler/ip_handler.cpp:574]   --->   Operation 72 'call' <Predicate = true> <Delay = 0.00> <CoreType = "Generic">   --->   Core 0 '' <Latency = 0> <II = 1> <Delay = 1.00> <Generic> <Opcode : >
ST_32 : Operation 73 [3/3] (0.00ns)   --->   "call fastcc void @duplicate_stream(i64* %m_axis_udp_V_data_V, i8* %m_axis_udp_V_keep_V, i1* %m_axis_udp_V_last_V, i64* %m_axis_roce_V_data_V, i8* %m_axis_roce_V_keep_V, i1* %m_axis_roce_V_last_V) noinline" [/home/paulrr2/Projects/ece527/babelsoc/fpga-network-stack/hls/ip_handler/ip_handler.cpp:546->/home/paulrr2/Projects/ece527/babelsoc/fpga-network-stack/hls/ip_handler/ip_handler.cpp:574]   --->   Operation 73 'call' <Predicate = true> <Delay = 0.00> <CoreType = "Generic">   --->   Core 0 '' <Latency = 0> <II = 1> <Delay = 1.00> <Generic> <Opcode : >

State 33 <SV = 32> <Delay = 4.35>
ST_33 : Operation 74 [2/3] (4.35ns)   --->   "call fastcc void @detect_ipv6_protocol(i64* %m_axis_icmpv6_V_data_V, i8* %m_axis_icmpv6_V_keep_V, i1* %m_axis_icmpv6_V_last_V, i64* %m_axis_ipv6udp_V_data_V, i8* %m_axis_ipv6udp_V_keep_V, i1* %m_axis_ipv6udp_V_last_V) noinline" [/home/paulrr2/Projects/ece527/babelsoc/fpga-network-stack/hls/ip_handler/ip_handler.cpp:542->/home/paulrr2/Projects/ece527/babelsoc/fpga-network-stack/hls/ip_handler/ip_handler.cpp:574]   --->   Operation 74 'call' <Predicate = true> <Delay = 4.35> <CoreType = "Generic">   --->   Core 0 '' <Latency = 0> <II = 1> <Delay = 1.00> <Generic> <Opcode : >
ST_33 : Operation 75 [2/3] (2.80ns)   --->   "call fastcc void @duplicate_stream(i64* %m_axis_udp_V_data_V, i8* %m_axis_udp_V_keep_V, i1* %m_axis_udp_V_last_V, i64* %m_axis_roce_V_data_V, i8* %m_axis_roce_V_keep_V, i1* %m_axis_roce_V_last_V) noinline" [/home/paulrr2/Projects/ece527/babelsoc/fpga-network-stack/hls/ip_handler/ip_handler.cpp:546->/home/paulrr2/Projects/ece527/babelsoc/fpga-network-stack/hls/ip_handler/ip_handler.cpp:574]   --->   Operation 75 'call' <Predicate = true> <Delay = 2.80> <CoreType = "Generic">   --->   Core 0 '' <Latency = 0> <II = 1> <Delay = 1.00> <Generic> <Opcode : >

State 34 <SV = 33> <Delay = 0.00>
ST_34 : Operation 76 [1/3] (0.00ns)   --->   "call fastcc void @detect_ipv6_protocol(i64* %m_axis_icmpv6_V_data_V, i8* %m_axis_icmpv6_V_keep_V, i1* %m_axis_icmpv6_V_last_V, i64* %m_axis_ipv6udp_V_data_V, i8* %m_axis_ipv6udp_V_keep_V, i1* %m_axis_ipv6udp_V_last_V) noinline" [/home/paulrr2/Projects/ece527/babelsoc/fpga-network-stack/hls/ip_handler/ip_handler.cpp:542->/home/paulrr2/Projects/ece527/babelsoc/fpga-network-stack/hls/ip_handler/ip_handler.cpp:574]   --->   Operation 76 'call' <Predicate = true> <Delay = 0.00> <CoreType = "Generic">   --->   Core 0 '' <Latency = 0> <II = 1> <Delay = 1.00> <Generic> <Opcode : >
ST_34 : Operation 77 [1/3] (0.00ns)   --->   "call fastcc void @duplicate_stream(i64* %m_axis_udp_V_data_V, i8* %m_axis_udp_V_keep_V, i1* %m_axis_udp_V_last_V, i64* %m_axis_roce_V_data_V, i8* %m_axis_roce_V_keep_V, i1* %m_axis_roce_V_last_V) noinline" [/home/paulrr2/Projects/ece527/babelsoc/fpga-network-stack/hls/ip_handler/ip_handler.cpp:546->/home/paulrr2/Projects/ece527/babelsoc/fpga-network-stack/hls/ip_handler/ip_handler.cpp:574]   --->   Operation 77 'call' <Predicate = true> <Delay = 0.00> <CoreType = "Generic">   --->   Core 0 '' <Latency = 0> <II = 1> <Delay = 1.00> <Generic> <Opcode : >

State 35 <SV = 34> <Delay = 0.00>
ST_35 : Operation 78 [1/1] (0.00ns)   --->   "call void (...)* @_ssdm_op_SpecDataflowPipeline(i32 -1, i32 1, [1 x i8]* @p_str2) nounwind" [/home/paulrr2/Projects/ece527/babelsoc/fpga-network-stack/hls/ip_handler/ip_handler.cpp:560]   --->   Operation 78 'specdataflowpipeline' <Predicate = true> <Delay = 0.00>
ST_35 : Operation 79 [1/1] (0.00ns)   --->   "%empty = call i32 (...)* @_ssdm_op_SpecChannel([21 x i8]* @ethDataFifo_OC_V_OC_2, i32 1, [1 x i8]* @p_str, [1 x i8]* @p_str, i32 4, i32 4, i64* @ethDataFifo_V_data_V, i64* @ethDataFifo_V_data_V)"   --->   Operation 79 'specchannel' 'empty' <Predicate = true> <Delay = 0.00>
ST_35 : Operation 80 [1/1] (0.00ns)   --->   "call void (...)* @_ssdm_op_SpecInterface(i64* @ethDataFifo_V_data_V, [8 x i8]* @ap_fifo_str, i32 0, i32 0, [1 x i8]* @p_str, i32 0, i32 0, [1 x i8]* @p_str, [1 x i8]* @p_str, [1 x i8]* @p_str, i32 2, i32 2, i32 16, i32 16, [1 x i8]* @p_str, [1 x i8]* @p_str)"   --->   Operation 80 'specinterface' <Predicate = true> <Delay = 0.00>
ST_35 : Operation 81 [1/1] (0.00ns)   --->   "%empty_24 = call i32 (...)* @_ssdm_op_SpecChannel([21 x i8]* @ethDataFifo_OC_V_OC_1, i32 1, [1 x i8]* @p_str, [1 x i8]* @p_str, i32 4, i32 4, i8* @ethDataFifo_V_keep_V, i8* @ethDataFifo_V_keep_V)"   --->   Operation 81 'specchannel' 'empty_24' <Predicate = true> <Delay = 0.00>
ST_35 : Operation 82 [1/1] (0.00ns)   --->   "call void (...)* @_ssdm_op_SpecInterface(i8* @ethDataFifo_V_keep_V, [8 x i8]* @ap_fifo_str, i32 0, i32 0, [1 x i8]* @p_str, i32 0, i32 0, [1 x i8]* @p_str, [1 x i8]* @p_str, [1 x i8]* @p_str, i32 2, i32 2, i32 16, i32 16, [1 x i8]* @p_str, [1 x i8]* @p_str)"   --->   Operation 82 'specinterface' <Predicate = true> <Delay = 0.00>
ST_35 : Operation 83 [1/1] (0.00ns)   --->   "%empty_25 = call i32 (...)* @_ssdm_op_SpecChannel([21 x i8]* @ethDataFifo_OC_V_OC_s, i32 1, [1 x i8]* @p_str, [1 x i8]* @p_str, i32 4, i32 4, i1* @ethDataFifo_V_last_V, i1* @ethDataFifo_V_last_V)"   --->   Operation 83 'specchannel' 'empty_25' <Predicate = true> <Delay = 0.00>
ST_35 : Operation 84 [1/1] (0.00ns)   --->   "call void (...)* @_ssdm_op_SpecInterface(i1* @ethDataFifo_V_last_V, [8 x i8]* @ap_fifo_str, i32 0, i32 0, [1 x i8]* @p_str, i32 0, i32 0, [1 x i8]* @p_str, [1 x i8]* @p_str, [1 x i8]* @p_str, i32 2, i32 2, i32 16, i32 16, [1 x i8]* @p_str, [1 x i8]* @p_str)"   --->   Operation 84 'specinterface' <Predicate = true> <Delay = 0.00>
ST_35 : Operation 85 [1/1] (0.00ns)   --->   "%empty_26 = call i32 (...)* @_ssdm_op_SpecChannel([18 x i8]* @etherTypeFifo_OC_V_O, i32 1, [1 x i8]* @p_str, [1 x i8]* @p_str, i32 2, i32 2, i16* @etherTypeFifo_V_V, i16* @etherTypeFifo_V_V)"   --->   Operation 85 'specchannel' 'empty_26' <Predicate = true> <Delay = 0.00>
ST_35 : Operation 86 [1/1] (0.00ns)   --->   "call void (...)* @_ssdm_op_SpecInterface(i16* @etherTypeFifo_V_V, [8 x i8]* @ap_fifo_str, i32 0, i32 0, [1 x i8]* @p_str, i32 0, i32 0, [1 x i8]* @p_str, [1 x i8]* @p_str, [1 x i8]* @p_str, i32 2, i32 2, i32 16, i32 16, [1 x i8]* @p_str, [1 x i8]* @p_str)"   --->   Operation 86 'specinterface' <Predicate = true> <Delay = 0.00>
ST_35 : Operation 87 [1/1] (0.00ns)   --->   "%empty_27 = call i32 (...)* @_ssdm_op_SpecChannel([18 x i8]* @ipDataCheckFifo_OC_V, i32 1, [1 x i8]* @p_str, [1 x i8]* @p_str, i32 64, i32 64, i73* @ipDataCheckFifo_V, i73* @ipDataCheckFifo_V)"   --->   Operation 87 'specchannel' 'empty_27' <Predicate = true> <Delay = 0.00>
ST_35 : Operation 88 [1/1] (0.00ns)   --->   "call void (...)* @_ssdm_op_SpecInterface(i73* @ipDataCheckFifo_V, [8 x i8]* @ap_fifo_str, i32 0, i32 0, [1 x i8]* @p_str, i32 0, i32 0, [1 x i8]* @p_str, [1 x i8]* @p_str, [1 x i8]* @p_str, i32 2, i32 2, i32 16, i32 16, [1 x i8]* @p_str, [1 x i8]* @p_str)"   --->   Operation 88 'specinterface' <Predicate = true> <Delay = 0.00>
ST_35 : Operation 89 [1/1] (0.00ns)   --->   "%empty_28 = call i32 (...)* @_ssdm_op_SpecChannel([16 x i8]* @ipDataCutFifo_OC_V_s, i32 1, [1 x i8]* @p_str, [1 x i8]* @p_str, i32 2, i32 2, i73* @ipDataCutFifo_V, i73* @ipDataCutFifo_V)"   --->   Operation 89 'specchannel' 'empty_28' <Predicate = true> <Delay = 0.00>
ST_35 : Operation 90 [1/1] (0.00ns)   --->   "call void (...)* @_ssdm_op_SpecInterface(i73* @ipDataCutFifo_V, [8 x i8]* @ap_fifo_str, i32 0, i32 0, [1 x i8]* @p_str, i32 0, i32 0, [1 x i8]* @p_str, [1 x i8]* @p_str, [1 x i8]* @p_str, i32 2, i32 2, i32 16, i32 16, [1 x i8]* @p_str, [1 x i8]* @p_str)"   --->   Operation 90 'specinterface' <Predicate = true> <Delay = 0.00>
ST_35 : Operation 91 [1/1] (0.00ns)   --->   "%empty_29 = call i32 (...)* @_ssdm_op_SpecChannel([17 x i8]* @ipDataDropFifo_OC_V_s, i32 1, [1 x i8]* @p_str, [1 x i8]* @p_str, i32 2, i32 2, i73* @ipDataDropFifo_V, i73* @ipDataDropFifo_V)"   --->   Operation 91 'specchannel' 'empty_29' <Predicate = true> <Delay = 0.00>
ST_35 : Operation 92 [1/1] (0.00ns)   --->   "call void (...)* @_ssdm_op_SpecInterface(i73* @ipDataDropFifo_V, [8 x i8]* @ap_fifo_str, i32 0, i32 0, [1 x i8]* @p_str, i32 0, i32 0, [1 x i8]* @p_str, [1 x i8]* @p_str, [1 x i8]* @p_str, i32 2, i32 2, i32 16, i32 16, [1 x i8]* @p_str, [1 x i8]* @p_str)"   --->   Operation 92 'specinterface' <Predicate = true> <Delay = 0.00>
ST_35 : Operation 93 [1/1] (0.00ns)   --->   "%empty_30 = call i32 (...)* @_ssdm_op_SpecChannel([13 x i8]* @ipDataFifo_OC_V_str, i32 1, [1 x i8]* @p_str, [1 x i8]* @p_str, i32 2, i32 2, i73* @ipDataFifo_V, i73* @ipDataFifo_V)"   --->   Operation 93 'specchannel' 'empty_30' <Predicate = true> <Delay = 0.00>
ST_35 : Operation 94 [1/1] (0.00ns)   --->   "call void (...)* @_ssdm_op_SpecInterface(i73* @ipDataFifo_V, [8 x i8]* @ap_fifo_str, i32 0, i32 0, [1 x i8]* @p_str, i32 0, i32 0, [1 x i8]* @p_str, [1 x i8]* @p_str, [1 x i8]* @p_str, i32 2, i32 2, i32 16, i32 16, [1 x i8]* @p_str, [1 x i8]* @p_str)"   --->   Operation 94 'specinterface' <Predicate = true> <Delay = 0.00>
ST_35 : Operation 95 [1/1] (0.00ns)   --->   "%empty_31 = call i32 (...)* @_ssdm_op_SpecChannel([24 x i8]* @ipDataMetaFifo_OC_V_2, i32 1, [1 x i8]* @p_str, [1 x i8]* @p_str, i32 2, i32 2, i64* @ipDataMetaFifo_V_dat, i64* @ipDataMetaFifo_V_dat)"   --->   Operation 95 'specchannel' 'empty_31' <Predicate = true> <Delay = 0.00>
ST_35 : Operation 96 [1/1] (0.00ns)   --->   "call void (...)* @_ssdm_op_SpecInterface(i64* @ipDataMetaFifo_V_dat, [8 x i8]* @ap_fifo_str, i32 0, i32 0, [1 x i8]* @p_str, i32 0, i32 0, [1 x i8]* @p_str, [1 x i8]* @p_str, [1 x i8]* @p_str, i32 2, i32 2, i32 16, i32 16, [1 x i8]* @p_str, [1 x i8]* @p_str)"   --->   Operation 96 'specinterface' <Predicate = true> <Delay = 0.00>
ST_35 : Operation 97 [1/1] (0.00ns)   --->   "%empty_32 = call i32 (...)* @_ssdm_op_SpecChannel([24 x i8]* @ipDataMetaFifo_OC_V_1, i32 1, [1 x i8]* @p_str, [1 x i8]* @p_str, i32 2, i32 2, i8* @ipDataMetaFifo_V_kee, i8* @ipDataMetaFifo_V_kee)"   --->   Operation 97 'specchannel' 'empty_32' <Predicate = true> <Delay = 0.00>
ST_35 : Operation 98 [1/1] (0.00ns)   --->   "call void (...)* @_ssdm_op_SpecInterface(i8* @ipDataMetaFifo_V_kee, [8 x i8]* @ap_fifo_str, i32 0, i32 0, [1 x i8]* @p_str, i32 0, i32 0, [1 x i8]* @p_str, [1 x i8]* @p_str, [1 x i8]* @p_str, i32 2, i32 2, i32 16, i32 16, [1 x i8]* @p_str, [1 x i8]* @p_str)"   --->   Operation 98 'specinterface' <Predicate = true> <Delay = 0.00>
ST_35 : Operation 99 [1/1] (0.00ns)   --->   "%empty_33 = call i32 (...)* @_ssdm_op_SpecChannel([24 x i8]* @ipDataMetaFifo_OC_V_s, i32 1, [1 x i8]* @p_str, [1 x i8]* @p_str, i32 2, i32 2, i1* @ipDataMetaFifo_V_las, i1* @ipDataMetaFifo_V_las)"   --->   Operation 99 'specchannel' 'empty_33' <Predicate = true> <Delay = 0.00>
ST_35 : Operation 100 [1/1] (0.00ns)   --->   "call void (...)* @_ssdm_op_SpecInterface(i1* @ipDataMetaFifo_V_las, [8 x i8]* @ap_fifo_str, i32 0, i32 0, [1 x i8]* @p_str, i32 0, i32 0, [1 x i8]* @p_str, [1 x i8]* @p_str, [1 x i8]* @p_str, i32 2, i32 2, i32 16, i32 16, [1 x i8]* @p_str, [1 x i8]* @p_str)"   --->   Operation 100 'specinterface' <Predicate = true> <Delay = 0.00>
ST_35 : Operation 101 [1/1] (0.00ns)   --->   "%empty_34 = call i32 (...)* @_ssdm_op_SpecChannel([27 x i8]* @iph_subSumsFifoOut_O, i32 1, [1 x i8]* @p_str, [1 x i8]* @p_str, i32 2, i32 2, i68* @iph_subSumsFifoOut_V, i68* @iph_subSumsFifoOut_V)"   --->   Operation 101 'specchannel' 'empty_34' <Predicate = true> <Delay = 0.00>
ST_35 : Operation 102 [1/1] (0.00ns)   --->   "call void (...)* @_ssdm_op_SpecInterface(i68* @iph_subSumsFifoOut_V, [8 x i8]* @ap_fifo_str, i32 0, i32 0, [1 x i8]* @p_str, i32 0, i32 0, [1 x i8]* @p_str, [1 x i8]* @p_str, [1 x i8]* @p_str, i32 2, i32 2, i32 16, i32 16, [1 x i8]* @p_str, [1 x i8]* @p_str)"   --->   Operation 102 'specinterface' <Predicate = true> <Delay = 0.00>
ST_35 : Operation 103 [1/1] (0.00ns)   --->   "%empty_35 = call i32 (...)* @_ssdm_op_SpecChannel([21 x i8]* @ipv4ProtocolFifo_OC_s, i32 1, [1 x i8]* @p_str, [1 x i8]* @p_str, i32 32, i32 32, i8* @ipv4ProtocolFifo_V_V, i8* @ipv4ProtocolFifo_V_V)"   --->   Operation 103 'specchannel' 'empty_35' <Predicate = true> <Delay = 0.00>
ST_35 : Operation 104 [1/1] (0.00ns)   --->   "call void (...)* @_ssdm_op_SpecInterface(i8* @ipv4ProtocolFifo_V_V, [8 x i8]* @ap_fifo_str, i32 0, i32 0, [1 x i8]* @p_str, i32 0, i32 0, [1 x i8]* @p_str, [1 x i8]* @p_str, [1 x i8]* @p_str, i32 2, i32 2, i32 16, i32 16, [1 x i8]* @p_str, [1 x i8]* @p_str)"   --->   Operation 104 'specinterface' <Predicate = true> <Delay = 0.00>
ST_35 : Operation 105 [1/1] (0.00ns)   --->   "%empty_36 = call i32 (...)* @_ssdm_op_SpecChannel([23 x i8]* @ipv4ShiftFifo_OC_V_O_2, i32 1, [1 x i8]* @p_str, [1 x i8]* @p_str, i32 2, i32 2, i64* @ipv4ShiftFifo_V_data, i64* @ipv4ShiftFifo_V_data)"   --->   Operation 105 'specchannel' 'empty_36' <Predicate = true> <Delay = 0.00>
ST_35 : Operation 106 [1/1] (0.00ns)   --->   "call void (...)* @_ssdm_op_SpecInterface(i64* @ipv4ShiftFifo_V_data, [8 x i8]* @ap_fifo_str, i32 0, i32 0, [1 x i8]* @p_str, i32 0, i32 0, [1 x i8]* @p_str, [1 x i8]* @p_str, [1 x i8]* @p_str, i32 2, i32 2, i32 16, i32 16, [1 x i8]* @p_str, [1 x i8]* @p_str)"   --->   Operation 106 'specinterface' <Predicate = true> <Delay = 0.00>
ST_35 : Operation 107 [1/1] (0.00ns)   --->   "%empty_37 = call i32 (...)* @_ssdm_op_SpecChannel([23 x i8]* @ipv4ShiftFifo_OC_V_O_1, i32 1, [1 x i8]* @p_str, [1 x i8]* @p_str, i32 2, i32 2, i8* @ipv4ShiftFifo_V_keep, i8* @ipv4ShiftFifo_V_keep)"   --->   Operation 107 'specchannel' 'empty_37' <Predicate = true> <Delay = 0.00>
ST_35 : Operation 108 [1/1] (0.00ns)   --->   "call void (...)* @_ssdm_op_SpecInterface(i8* @ipv4ShiftFifo_V_keep, [8 x i8]* @ap_fifo_str, i32 0, i32 0, [1 x i8]* @p_str, i32 0, i32 0, [1 x i8]* @p_str, [1 x i8]* @p_str, [1 x i8]* @p_str, i32 2, i32 2, i32 16, i32 16, [1 x i8]* @p_str, [1 x i8]* @p_str)"   --->   Operation 108 'specinterface' <Predicate = true> <Delay = 0.00>
ST_35 : Operation 109 [1/1] (0.00ns)   --->   "%empty_38 = call i32 (...)* @_ssdm_op_SpecChannel([23 x i8]* @ipv4ShiftFifo_OC_V_O, i32 1, [1 x i8]* @p_str, [1 x i8]* @p_str, i32 2, i32 2, i1* @ipv4ShiftFifo_V_last, i1* @ipv4ShiftFifo_V_last)"   --->   Operation 109 'specchannel' 'empty_38' <Predicate = true> <Delay = 0.00>
ST_35 : Operation 110 [1/1] (0.00ns)   --->   "call void (...)* @_ssdm_op_SpecInterface(i1* @ipv4ShiftFifo_V_last, [8 x i8]* @ap_fifo_str, i32 0, i32 0, [1 x i8]* @p_str, i32 0, i32 0, [1 x i8]* @p_str, [1 x i8]* @p_str, [1 x i8]* @p_str, i32 2, i32 2, i32 16, i32 16, [1 x i8]* @p_str, [1 x i8]* @p_str)"   --->   Operation 110 'specinterface' <Predicate = true> <Delay = 0.00>
ST_35 : Operation 111 [1/1] (0.00ns)   --->   "%empty_39 = call i32 (...)* @_ssdm_op_SpecChannel([16 x i8]* @ipv4ValidFifo_OC_V_s, i32 1, [1 x i8]* @p_str, [1 x i8]* @p_str, i32 8, i32 8, i1* @ipv4ValidFifo_V, i1* @ipv4ValidFifo_V)"   --->   Operation 111 'specchannel' 'empty_39' <Predicate = true> <Delay = 0.00>
ST_35 : Operation 112 [1/1] (0.00ns)   --->   "call void (...)* @_ssdm_op_SpecInterface(i1* @ipv4ValidFifo_V, [8 x i8]* @ap_fifo_str, i32 0, i32 0, [1 x i8]* @p_str, i32 0, i32 0, [1 x i8]* @p_str, [1 x i8]* @p_str, [1 x i8]* @p_str, i32 2, i32 2, i32 16, i32 16, [1 x i8]* @p_str, [1 x i8]* @p_str)"   --->   Operation 112 'specinterface' <Predicate = true> <Delay = 0.00>
ST_35 : Operation 113 [1/1] (0.00ns)   --->   "%empty_40 = call i32 (...)* @_ssdm_op_SpecChannel([22 x i8]* @ipv6DataFifo_OC_V_OC_2, i32 1, [1 x i8]* @p_str, [1 x i8]* @p_str, i32 2, i32 2, i64* @ipv6DataFifo_V_data_s, i64* @ipv6DataFifo_V_data_s)"   --->   Operation 113 'specchannel' 'empty_40' <Predicate = true> <Delay = 0.00>
ST_35 : Operation 114 [1/1] (0.00ns)   --->   "call void (...)* @_ssdm_op_SpecInterface(i64* @ipv6DataFifo_V_data_s, [8 x i8]* @ap_fifo_str, i32 0, i32 0, [1 x i8]* @p_str, i32 0, i32 0, [1 x i8]* @p_str, [1 x i8]* @p_str, [1 x i8]* @p_str, i32 2, i32 2, i32 16, i32 16, [1 x i8]* @p_str, [1 x i8]* @p_str)"   --->   Operation 114 'specinterface' <Predicate = true> <Delay = 0.00>
ST_35 : Operation 115 [1/1] (0.00ns)   --->   "%empty_41 = call i32 (...)* @_ssdm_op_SpecChannel([22 x i8]* @ipv6DataFifo_OC_V_OC_1, i32 1, [1 x i8]* @p_str, [1 x i8]* @p_str, i32 2, i32 2, i8* @ipv6DataFifo_V_keep_s, i8* @ipv6DataFifo_V_keep_s)"   --->   Operation 115 'specchannel' 'empty_41' <Predicate = true> <Delay = 0.00>
ST_35 : Operation 116 [1/1] (0.00ns)   --->   "call void (...)* @_ssdm_op_SpecInterface(i8* @ipv6DataFifo_V_keep_s, [8 x i8]* @ap_fifo_str, i32 0, i32 0, [1 x i8]* @p_str, i32 0, i32 0, [1 x i8]* @p_str, [1 x i8]* @p_str, [1 x i8]* @p_str, i32 2, i32 2, i32 16, i32 16, [1 x i8]* @p_str, [1 x i8]* @p_str)"   --->   Operation 116 'specinterface' <Predicate = true> <Delay = 0.00>
ST_35 : Operation 117 [1/1] (0.00ns)   --->   "%empty_42 = call i32 (...)* @_ssdm_op_SpecChannel([22 x i8]* @ipv6DataFifo_OC_V_OC, i32 1, [1 x i8]* @p_str, [1 x i8]* @p_str, i32 2, i32 2, i1* @ipv6DataFifo_V_last_s, i1* @ipv6DataFifo_V_last_s)"   --->   Operation 117 'specchannel' 'empty_42' <Predicate = true> <Delay = 0.00>
ST_35 : Operation 118 [1/1] (0.00ns)   --->   "call void (...)* @_ssdm_op_SpecInterface(i1* @ipv6DataFifo_V_last_s, [8 x i8]* @ap_fifo_str, i32 0, i32 0, [1 x i8]* @p_str, i32 0, i32 0, [1 x i8]* @p_str, [1 x i8]* @p_str, [1 x i8]* @p_str, i32 2, i32 2, i32 16, i32 16, [1 x i8]* @p_str, [1 x i8]* @p_str)"   --->   Operation 118 'specinterface' <Predicate = true> <Delay = 0.00>
ST_35 : Operation 119 [1/1] (0.00ns)   --->   "%empty_43 = call i32 (...)* @_ssdm_op_SpecChannel([23 x i8]* @ipv6ShiftFifo_OC_V_O_2, i32 1, [1 x i8]* @p_str, [1 x i8]* @p_str, i32 2, i32 2, i64* @ipv6ShiftFifo_V_data, i64* @ipv6ShiftFifo_V_data)"   --->   Operation 119 'specchannel' 'empty_43' <Predicate = true> <Delay = 0.00>
ST_35 : Operation 120 [1/1] (0.00ns)   --->   "call void (...)* @_ssdm_op_SpecInterface(i64* @ipv6ShiftFifo_V_data, [8 x i8]* @ap_fifo_str, i32 0, i32 0, [1 x i8]* @p_str, i32 0, i32 0, [1 x i8]* @p_str, [1 x i8]* @p_str, [1 x i8]* @p_str, i32 2, i32 2, i32 16, i32 16, [1 x i8]* @p_str, [1 x i8]* @p_str)"   --->   Operation 120 'specinterface' <Predicate = true> <Delay = 0.00>
ST_35 : Operation 121 [1/1] (0.00ns)   --->   "%empty_44 = call i32 (...)* @_ssdm_op_SpecChannel([23 x i8]* @ipv6ShiftFifo_OC_V_O_1, i32 1, [1 x i8]* @p_str, [1 x i8]* @p_str, i32 2, i32 2, i8* @ipv6ShiftFifo_V_keep, i8* @ipv6ShiftFifo_V_keep)"   --->   Operation 121 'specchannel' 'empty_44' <Predicate = true> <Delay = 0.00>
ST_35 : Operation 122 [1/1] (0.00ns)   --->   "call void (...)* @_ssdm_op_SpecInterface(i8* @ipv6ShiftFifo_V_keep, [8 x i8]* @ap_fifo_str, i32 0, i32 0, [1 x i8]* @p_str, i32 0, i32 0, [1 x i8]* @p_str, [1 x i8]* @p_str, [1 x i8]* @p_str, i32 2, i32 2, i32 16, i32 16, [1 x i8]* @p_str, [1 x i8]* @p_str)"   --->   Operation 122 'specinterface' <Predicate = true> <Delay = 0.00>
ST_35 : Operation 123 [1/1] (0.00ns)   --->   "%empty_45 = call i32 (...)* @_ssdm_op_SpecChannel([23 x i8]* @ipv6ShiftFifo_OC_V_O, i32 1, [1 x i8]* @p_str, [1 x i8]* @p_str, i32 2, i32 2, i1* @ipv6ShiftFifo_V_last, i1* @ipv6ShiftFifo_V_last)"   --->   Operation 123 'specchannel' 'empty_45' <Predicate = true> <Delay = 0.00>
ST_35 : Operation 124 [1/1] (0.00ns)   --->   "call void (...)* @_ssdm_op_SpecInterface(i1* @ipv6ShiftFifo_V_last, [8 x i8]* @ap_fifo_str, i32 0, i32 0, [1 x i8]* @p_str, i32 0, i32 0, [1 x i8]* @p_str, [1 x i8]* @p_str, [1 x i8]* @p_str, i32 2, i32 2, i32 16, i32 16, [1 x i8]* @p_str, [1 x i8]* @p_str)"   --->   Operation 124 'specinterface' <Predicate = true> <Delay = 0.00>
ST_35 : Operation 125 [1/1] (0.00ns)   --->   "%empty_46 = call i32 (...)* @_ssdm_op_SpecChannel([14 x i8]* @udpDataFifo_OC_V_str, i32 1, [1 x i8]* @p_str, [1 x i8]* @p_str, i32 2, i32 2, i73* @udpDataFifo_V, i73* @udpDataFifo_V)"   --->   Operation 125 'specchannel' 'empty_46' <Predicate = true> <Delay = 0.00>
ST_35 : Operation 126 [1/1] (0.00ns)   --->   "call void (...)* @_ssdm_op_SpecInterface(i73* @udpDataFifo_V, [8 x i8]* @ap_fifo_str, i32 0, i32 0, [1 x i8]* @p_str, i32 0, i32 0, [1 x i8]* @p_str, [1 x i8]* @p_str, [1 x i8]* @p_str, i32 2, i32 2, i32 16, i32 16, [1 x i8]* @p_str, [1 x i8]* @p_str)"   --->   Operation 126 'specinterface' <Predicate = true> <Delay = 0.00>
ST_35 : Operation 127 [1/1] (0.00ns)   --->   "%empty_47 = call i32 (...)* @_ssdm_op_SpecChannel([20 x i8]* @validChecksumFifo_OC, i32 1, [1 x i8]* @p_str, [1 x i8]* @p_str, i32 4, i32 4, i1* @validChecksumFifo_V, i1* @validChecksumFifo_V)"   --->   Operation 127 'specchannel' 'empty_47' <Predicate = true> <Delay = 0.00>
ST_35 : Operation 128 [1/1] (0.00ns)   --->   "call void (...)* @_ssdm_op_SpecInterface(i1* @validChecksumFifo_V, [8 x i8]* @ap_fifo_str, i32 0, i32 0, [1 x i8]* @p_str, i32 0, i32 0, [1 x i8]* @p_str, [1 x i8]* @p_str, [1 x i8]* @p_str, i32 2, i32 2, i32 16, i32 16, [1 x i8]* @p_str, [1 x i8]* @p_str)"   --->   Operation 128 'specinterface' <Predicate = true> <Delay = 0.00>
ST_35 : Operation 129 [1/1] (0.00ns)   --->   "%empty_48 = call i32 (...)* @_ssdm_op_SpecChannel([21 x i8]* @validIpAddressFifo_O, i32 1, [1 x i8]* @p_str, [1 x i8]* @p_str, i32 32, i32 32, i1* @validIpAddressFifo_V, i1* @validIpAddressFifo_V)"   --->   Operation 129 'specchannel' 'empty_48' <Predicate = true> <Delay = 0.00>
ST_35 : Operation 130 [1/1] (0.00ns)   --->   "call void (...)* @_ssdm_op_SpecInterface(i1* @validIpAddressFifo_V, [8 x i8]* @ap_fifo_str, i32 0, i32 0, [1 x i8]* @p_str, i32 0, i32 0, [1 x i8]* @p_str, [1 x i8]* @p_str, [1 x i8]* @p_str, i32 2, i32 2, i32 16, i32 16, [1 x i8]* @p_str, [1 x i8]* @p_str)"   --->   Operation 130 'specinterface' <Predicate = true> <Delay = 0.00>
ST_35 : Operation 131 [1/1] (0.00ns)   --->   "call void (...)* @_ssdm_op_SpecBitsMap(i64* %s_axis_raw_V_data_V), !map !337"   --->   Operation 131 'specbitsmap' <Predicate = true> <Delay = 0.00>
ST_35 : Operation 132 [1/1] (0.00ns)   --->   "call void (...)* @_ssdm_op_SpecBitsMap(i8* %s_axis_raw_V_keep_V), !map !341"   --->   Operation 132 'specbitsmap' <Predicate = true> <Delay = 0.00>
ST_35 : Operation 133 [1/1] (0.00ns)   --->   "call void (...)* @_ssdm_op_SpecBitsMap(i1* %s_axis_raw_V_last_V), !map !345"   --->   Operation 133 'specbitsmap' <Predicate = true> <Delay = 0.00>
ST_35 : Operation 134 [1/1] (0.00ns)   --->   "call void (...)* @_ssdm_op_SpecBitsMap(i64* %m_axis_arp_V_data_V), !map !349"   --->   Operation 134 'specbitsmap' <Predicate = true> <Delay = 0.00>
ST_35 : Operation 135 [1/1] (0.00ns)   --->   "call void (...)* @_ssdm_op_SpecBitsMap(i8* %m_axis_arp_V_keep_V), !map !353"   --->   Operation 135 'specbitsmap' <Predicate = true> <Delay = 0.00>
ST_35 : Operation 136 [1/1] (0.00ns)   --->   "call void (...)* @_ssdm_op_SpecBitsMap(i1* %m_axis_arp_V_last_V), !map !357"   --->   Operation 136 'specbitsmap' <Predicate = true> <Delay = 0.00>
ST_35 : Operation 137 [1/1] (0.00ns)   --->   "call void (...)* @_ssdm_op_SpecBitsMap(i64* %m_axis_icmpv6_V_data_V), !map !361"   --->   Operation 137 'specbitsmap' <Predicate = true> <Delay = 0.00>
ST_35 : Operation 138 [1/1] (0.00ns)   --->   "call void (...)* @_ssdm_op_SpecBitsMap(i8* %m_axis_icmpv6_V_keep_V), !map !365"   --->   Operation 138 'specbitsmap' <Predicate = true> <Delay = 0.00>
ST_35 : Operation 139 [1/1] (0.00ns)   --->   "call void (...)* @_ssdm_op_SpecBitsMap(i1* %m_axis_icmpv6_V_last_V), !map !369"   --->   Operation 139 'specbitsmap' <Predicate = true> <Delay = 0.00>
ST_35 : Operation 140 [1/1] (0.00ns)   --->   "call void (...)* @_ssdm_op_SpecBitsMap(i64* %m_axis_ipv6udp_V_data_V), !map !373"   --->   Operation 140 'specbitsmap' <Predicate = true> <Delay = 0.00>
ST_35 : Operation 141 [1/1] (0.00ns)   --->   "call void (...)* @_ssdm_op_SpecBitsMap(i8* %m_axis_ipv6udp_V_keep_V), !map !377"   --->   Operation 141 'specbitsmap' <Predicate = true> <Delay = 0.00>
ST_35 : Operation 142 [1/1] (0.00ns)   --->   "call void (...)* @_ssdm_op_SpecBitsMap(i1* %m_axis_ipv6udp_V_last_V), !map !381"   --->   Operation 142 'specbitsmap' <Predicate = true> <Delay = 0.00>
ST_35 : Operation 143 [1/1] (0.00ns)   --->   "call void (...)* @_ssdm_op_SpecBitsMap(i64* %m_axis_icmp_V_data_V), !map !385"   --->   Operation 143 'specbitsmap' <Predicate = true> <Delay = 0.00>
ST_35 : Operation 144 [1/1] (0.00ns)   --->   "call void (...)* @_ssdm_op_SpecBitsMap(i8* %m_axis_icmp_V_keep_V), !map !389"   --->   Operation 144 'specbitsmap' <Predicate = true> <Delay = 0.00>
ST_35 : Operation 145 [1/1] (0.00ns)   --->   "call void (...)* @_ssdm_op_SpecBitsMap(i1* %m_axis_icmp_V_last_V), !map !393"   --->   Operation 145 'specbitsmap' <Predicate = true> <Delay = 0.00>
ST_35 : Operation 146 [1/1] (0.00ns)   --->   "call void (...)* @_ssdm_op_SpecBitsMap(i64* %m_axis_udp_V_data_V), !map !397"   --->   Operation 146 'specbitsmap' <Predicate = true> <Delay = 0.00>
ST_35 : Operation 147 [1/1] (0.00ns)   --->   "call void (...)* @_ssdm_op_SpecBitsMap(i8* %m_axis_udp_V_keep_V), !map !401"   --->   Operation 147 'specbitsmap' <Predicate = true> <Delay = 0.00>
ST_35 : Operation 148 [1/1] (0.00ns)   --->   "call void (...)* @_ssdm_op_SpecBitsMap(i1* %m_axis_udp_V_last_V), !map !405"   --->   Operation 148 'specbitsmap' <Predicate = true> <Delay = 0.00>
ST_35 : Operation 149 [1/1] (0.00ns)   --->   "call void (...)* @_ssdm_op_SpecBitsMap(i64* %m_axis_tcp_V_data_V), !map !409"   --->   Operation 149 'specbitsmap' <Predicate = true> <Delay = 0.00>
ST_35 : Operation 150 [1/1] (0.00ns)   --->   "call void (...)* @_ssdm_op_SpecBitsMap(i8* %m_axis_tcp_V_keep_V), !map !413"   --->   Operation 150 'specbitsmap' <Predicate = true> <Delay = 0.00>
ST_35 : Operation 151 [1/1] (0.00ns)   --->   "call void (...)* @_ssdm_op_SpecBitsMap(i1* %m_axis_tcp_V_last_V), !map !417"   --->   Operation 151 'specbitsmap' <Predicate = true> <Delay = 0.00>
ST_35 : Operation 152 [1/1] (0.00ns)   --->   "call void (...)* @_ssdm_op_SpecBitsMap(i64* %m_axis_roce_V_data_V), !map !421"   --->   Operation 152 'specbitsmap' <Predicate = true> <Delay = 0.00>
ST_35 : Operation 153 [1/1] (0.00ns)   --->   "call void (...)* @_ssdm_op_SpecBitsMap(i8* %m_axis_roce_V_keep_V), !map !425"   --->   Operation 153 'specbitsmap' <Predicate = true> <Delay = 0.00>
ST_35 : Operation 154 [1/1] (0.00ns)   --->   "call void (...)* @_ssdm_op_SpecBitsMap(i1* %m_axis_roce_V_last_V), !map !429"   --->   Operation 154 'specbitsmap' <Predicate = true> <Delay = 0.00>
ST_35 : Operation 155 [1/1] (0.00ns)   --->   "call void (...)* @_ssdm_op_SpecBitsMap(i32 %myIpAddress_V), !map !433"   --->   Operation 155 'specbitsmap' <Predicate = true> <Delay = 0.00>
ST_35 : Operation 156 [1/1] (0.00ns)   --->   "call void (...)* @_ssdm_op_SpecTopModule([15 x i8]* @ip_handler_top_str) nounwind"   --->   Operation 156 'spectopmodule' <Predicate = true> <Delay = 0.00>
ST_35 : Operation 157 [1/1] (0.00ns)   --->   "call void (...)* @_ssdm_op_SpecInterface(i32 0, [13 x i8]* @p_str3, i32 0, i32 0, [1 x i8]* @p_str2, i32 0, i32 0, [1 x i8]* @p_str2, [1 x i8]* @p_str2, [1 x i8]* @p_str2, i32 0, i32 0, i32 0, i32 0, [1 x i8]* @p_str2, [1 x i8]* @p_str2) nounwind" [/home/paulrr2/Projects/ece527/babelsoc/fpga-network-stack/hls/ip_handler/ip_handler.cpp:561]   --->   Operation 157 'specinterface' <Predicate = true> <Delay = 0.00>
ST_35 : Operation 158 [1/1] (0.00ns)   --->   "call void (...)* @_ssdm_op_SpecInterface(i64* %s_axis_raw_V_data_V, i8* %s_axis_raw_V_keep_V, i1* %s_axis_raw_V_last_V, [5 x i8]* @p_str4, i32 1, i32 1, [5 x i8]* @p_str5, i32 0, i32 0, [1 x i8]* @p_str2, [1 x i8]* @p_str2, [1 x i8]* @p_str2, i32 0, i32 0, i32 0, i32 0, [1 x i8]* @p_str2, [1 x i8]* @p_str2) nounwind" [/home/paulrr2/Projects/ece527/babelsoc/fpga-network-stack/hls/ip_handler/ip_handler.cpp:563]   --->   Operation 158 'specinterface' <Predicate = true> <Delay = 0.00>
ST_35 : Operation 159 [1/1] (0.00ns)   --->   "call void (...)* @_ssdm_op_SpecInterface(i64* %m_axis_arp_V_data_V, i8* %m_axis_arp_V_keep_V, i1* %m_axis_arp_V_last_V, [5 x i8]* @p_str4, i32 1, i32 1, [5 x i8]* @p_str5, i32 0, i32 0, [1 x i8]* @p_str2, [1 x i8]* @p_str2, [1 x i8]* @p_str2, i32 0, i32 0, i32 0, i32 0, [1 x i8]* @p_str2, [1 x i8]* @p_str2) nounwind" [/home/paulrr2/Projects/ece527/babelsoc/fpga-network-stack/hls/ip_handler/ip_handler.cpp:564]   --->   Operation 159 'specinterface' <Predicate = true> <Delay = 0.00>
ST_35 : Operation 160 [1/1] (0.00ns)   --->   "call void (...)* @_ssdm_op_SpecInterface(i64* %m_axis_icmpv6_V_data_V, i8* %m_axis_icmpv6_V_keep_V, i1* %m_axis_icmpv6_V_last_V, [5 x i8]* @p_str4, i32 1, i32 1, [5 x i8]* @p_str5, i32 0, i32 0, [1 x i8]* @p_str2, [1 x i8]* @p_str2, [1 x i8]* @p_str2, i32 0, i32 0, i32 0, i32 0, [1 x i8]* @p_str2, [1 x i8]* @p_str2) nounwind" [/home/paulrr2/Projects/ece527/babelsoc/fpga-network-stack/hls/ip_handler/ip_handler.cpp:565]   --->   Operation 160 'specinterface' <Predicate = true> <Delay = 0.00>
ST_35 : Operation 161 [1/1] (0.00ns)   --->   "call void (...)* @_ssdm_op_SpecInterface(i64* %m_axis_ipv6udp_V_data_V, i8* %m_axis_ipv6udp_V_keep_V, i1* %m_axis_ipv6udp_V_last_V, [5 x i8]* @p_str4, i32 1, i32 1, [5 x i8]* @p_str5, i32 0, i32 0, [1 x i8]* @p_str2, [1 x i8]* @p_str2, [1 x i8]* @p_str2, i32 0, i32 0, i32 0, i32 0, [1 x i8]* @p_str2, [1 x i8]* @p_str2) nounwind" [/home/paulrr2/Projects/ece527/babelsoc/fpga-network-stack/hls/ip_handler/ip_handler.cpp:566]   --->   Operation 161 'specinterface' <Predicate = true> <Delay = 0.00>
ST_35 : Operation 162 [1/1] (0.00ns)   --->   "call void (...)* @_ssdm_op_SpecInterface(i64* %m_axis_icmp_V_data_V, i8* %m_axis_icmp_V_keep_V, i1* %m_axis_icmp_V_last_V, [5 x i8]* @p_str4, i32 1, i32 1, [5 x i8]* @p_str5, i32 0, i32 0, [1 x i8]* @p_str2, [1 x i8]* @p_str2, [1 x i8]* @p_str2, i32 0, i32 0, i32 0, i32 0, [1 x i8]* @p_str2, [1 x i8]* @p_str2) nounwind" [/home/paulrr2/Projects/ece527/babelsoc/fpga-network-stack/hls/ip_handler/ip_handler.cpp:567]   --->   Operation 162 'specinterface' <Predicate = true> <Delay = 0.00>
ST_35 : Operation 163 [1/1] (0.00ns)   --->   "call void (...)* @_ssdm_op_SpecInterface(i64* %m_axis_udp_V_data_V, i8* %m_axis_udp_V_keep_V, i1* %m_axis_udp_V_last_V, [5 x i8]* @p_str4, i32 1, i32 1, [5 x i8]* @p_str5, i32 0, i32 0, [1 x i8]* @p_str2, [1 x i8]* @p_str2, [1 x i8]* @p_str2, i32 0, i32 0, i32 0, i32 0, [1 x i8]* @p_str2, [1 x i8]* @p_str2) nounwind" [/home/paulrr2/Projects/ece527/babelsoc/fpga-network-stack/hls/ip_handler/ip_handler.cpp:568]   --->   Operation 163 'specinterface' <Predicate = true> <Delay = 0.00>
ST_35 : Operation 164 [1/1] (0.00ns)   --->   "call void (...)* @_ssdm_op_SpecInterface(i64* %m_axis_tcp_V_data_V, i8* %m_axis_tcp_V_keep_V, i1* %m_axis_tcp_V_last_V, [5 x i8]* @p_str4, i32 1, i32 1, [5 x i8]* @p_str5, i32 0, i32 0, [1 x i8]* @p_str2, [1 x i8]* @p_str2, [1 x i8]* @p_str2, i32 0, i32 0, i32 0, i32 0, [1 x i8]* @p_str2, [1 x i8]* @p_str2) nounwind" [/home/paulrr2/Projects/ece527/babelsoc/fpga-network-stack/hls/ip_handler/ip_handler.cpp:569]   --->   Operation 164 'specinterface' <Predicate = true> <Delay = 0.00>
ST_35 : Operation 165 [1/1] (0.00ns)   --->   "call void (...)* @_ssdm_op_SpecInterface(i64* %m_axis_roce_V_data_V, i8* %m_axis_roce_V_keep_V, i1* %m_axis_roce_V_last_V, [5 x i8]* @p_str4, i32 1, i32 1, [5 x i8]* @p_str5, i32 0, i32 0, [1 x i8]* @p_str2, [1 x i8]* @p_str2, [1 x i8]* @p_str2, i32 0, i32 0, i32 0, i32 0, [1 x i8]* @p_str2, [1 x i8]* @p_str2) nounwind" [/home/paulrr2/Projects/ece527/babelsoc/fpga-network-stack/hls/ip_handler/ip_handler.cpp:570]   --->   Operation 165 'specinterface' <Predicate = true> <Delay = 0.00>
ST_35 : Operation 166 [1/1] (0.00ns)   --->   "call void (...)* @_ssdm_op_SpecInterface(i32 %myIpAddress_V, [10 x i8]* @p_str6, i32 1, i32 1, [1 x i8]* @p_str2, i32 0, i32 0, [1 x i8]* @p_str2, [1 x i8]* @p_str2, [1 x i8]* @p_str2, i32 0, i32 0, i32 0, i32 0, [1 x i8]* @p_str2, [1 x i8]* @p_str2) nounwind" [/home/paulrr2/Projects/ece527/babelsoc/fpga-network-stack/hls/ip_handler/ip_handler.cpp:572]   --->   Operation 166 'specinterface' <Predicate = true> <Delay = 0.00>
ST_35 : Operation 167 [1/1] (0.00ns)   --->   "%empty_49 = call i32 (...)* @_ssdm_op_SpecChannel([16 x i8]* @myIpAddress_OC_V_c_s, i32 1, [1 x i8]* @p_str, [1 x i8]* @p_str, i32 4, i32 0, i32* %myIpAddress_V_c, i32* %myIpAddress_V_c)" [/home/paulrr2/Projects/ece527/babelsoc/fpga-network-stack/hls/ip_handler/ip_handler.cpp:523->/home/paulrr2/Projects/ece527/babelsoc/fpga-network-stack/hls/ip_handler/ip_handler.cpp:574]   --->   Operation 167 'specchannel' 'empty_49' <Predicate = true> <Delay = 0.00>
ST_35 : Operation 168 [1/1] (0.00ns)   --->   "call void (...)* @_ssdm_op_SpecInterface(i32* %myIpAddress_V_c, [8 x i8]* @ap_fifo_str, i32 0, i32 0, [1 x i8]* @p_str, i32 0, i32 0, [1 x i8]* @p_str, [1 x i8]* @p_str, [1 x i8]* @p_str, i32 2, i32 2, i32 16, i32 16, [1 x i8]* @p_str, [1 x i8]* @p_str)" [/home/paulrr2/Projects/ece527/babelsoc/fpga-network-stack/hls/ip_handler/ip_handler.cpp:523->/home/paulrr2/Projects/ece527/babelsoc/fpga-network-stack/hls/ip_handler/ip_handler.cpp:574]   --->   Operation 168 'specinterface' <Predicate = true> <Delay = 0.00>
ST_35 : Operation 169 [1/1] (0.00ns)   --->   "%empty_50 = call i32 (...)* @_ssdm_op_SpecChannel([17 x i8]* @myIpAddress_OC_V_c1_s, i32 1, [1 x i8]* @p_str, [1 x i8]* @p_str, i32 2, i32 0, i32* %myIpAddress_V_c1, i32* %myIpAddress_V_c1)" [/home/paulrr2/Projects/ece527/babelsoc/fpga-network-stack/hls/ip_handler/ip_handler.cpp:523->/home/paulrr2/Projects/ece527/babelsoc/fpga-network-stack/hls/ip_handler/ip_handler.cpp:574]   --->   Operation 169 'specchannel' 'empty_50' <Predicate = true> <Delay = 0.00>
ST_35 : Operation 170 [1/1] (0.00ns)   --->   "call void (...)* @_ssdm_op_SpecInterface(i32* %myIpAddress_V_c1, [8 x i8]* @ap_fifo_str, i32 0, i32 0, [1 x i8]* @p_str, i32 0, i32 0, [1 x i8]* @p_str, [1 x i8]* @p_str, [1 x i8]* @p_str, i32 2, i32 2, i32 16, i32 16, [1 x i8]* @p_str, [1 x i8]* @p_str)" [/home/paulrr2/Projects/ece527/babelsoc/fpga-network-stack/hls/ip_handler/ip_handler.cpp:523->/home/paulrr2/Projects/ece527/babelsoc/fpga-network-stack/hls/ip_handler/ip_handler.cpp:574]   --->   Operation 170 'specinterface' <Predicate = true> <Delay = 0.00>
ST_35 : Operation 171 [1/1] (0.00ns)   --->   "ret void" [/home/paulrr2/Projects/ece527/babelsoc/fpga-network-stack/hls/ip_handler/ip_handler.cpp:583]   --->   Operation 171 'ret' <Predicate = true> <Delay = 0.00>


============================================================
+ Verbose Summary: Timing violations
============================================================
Target clock period: 6.4ns, clock uncertainty: 0.8ns.

 <State 1>: 1ns
The critical path consists of the following:
	s_axi read on port 'myIpAddress_V' (/home/paulrr2/Projects/ece527/babelsoc/fpga-network-stack/hls/ip_handler/ip_handler.cpp:523->/home/paulrr2/Projects/ece527/babelsoc/fpga-network-stack/hls/ip_handler/ip_handler.cpp:574) [84]  (1 ns)

 <State 2>: 3.8ns
The critical path consists of the following:
	s_axi read on port 'myIpAddress_V' (/home/paulrr2/Projects/ece527/babelsoc/fpga-network-stack/hls/ip_handler/ip_handler.cpp:523->/home/paulrr2/Projects/ece527/babelsoc/fpga-network-stack/hls/ip_handler/ip_handler.cpp:574) [84]  (1 ns)
	'call' operation ('call_ln523', /home/paulrr2/Projects/ece527/babelsoc/fpga-network-stack/hls/ip_handler/ip_handler.cpp:523->/home/paulrr2/Projects/ece527/babelsoc/fpga-network-stack/hls/ip_handler/ip_handler.cpp:574) to 'ip_handler_top.entry' [180]  (2.8 ns)

 <State 3>: 1.96ns
The critical path consists of the following:
	'call' operation ('call_ln523', /home/paulrr2/Projects/ece527/babelsoc/fpga-network-stack/hls/ip_handler/ip_handler.cpp:523->/home/paulrr2/Projects/ece527/babelsoc/fpga-network-stack/hls/ip_handler/ip_handler.cpp:574) to 'detect_eth_protocol3' [181]  (1.96 ns)

 <State 4>: 0ns
The critical path consists of the following:

 <State 5>: 0ns
The critical path consists of the following:

 <State 6>: 0ns
The critical path consists of the following:

 <State 7>: 0ns
The critical path consists of the following:

 <State 8>: 0ns
The critical path consists of the following:

 <State 9>: 0ns
The critical path consists of the following:

 <State 10>: 0ns
The critical path consists of the following:

 <State 11>: 0ns
The critical path consists of the following:

 <State 12>: 0ns
The critical path consists of the following:

 <State 13>: 0ns
The critical path consists of the following:

 <State 14>: 0ns
The critical path consists of the following:

 <State 15>: 0ns
The critical path consists of the following:

 <State 16>: 0ns
The critical path consists of the following:

 <State 17>: 0ns
The critical path consists of the following:

 <State 18>: 0ns
The critical path consists of the following:

 <State 19>: 0ns
The critical path consists of the following:

 <State 20>: 0ns
The critical path consists of the following:

 <State 21>: 0ns
The critical path consists of the following:

 <State 22>: 0ns
The critical path consists of the following:

 <State 23>: 0ns
The critical path consists of the following:

 <State 24>: 0ns
The critical path consists of the following:

 <State 25>: 0ns
The critical path consists of the following:

 <State 26>: 0ns
The critical path consists of the following:

 <State 27>: 0ns
The critical path consists of the following:

 <State 28>: 0ns
The critical path consists of the following:

 <State 29>: 0ns
The critical path consists of the following:

 <State 30>: 0ns
The critical path consists of the following:

 <State 31>: 0ns
The critical path consists of the following:

 <State 32>: 0ns
The critical path consists of the following:

 <State 33>: 4.35ns
The critical path consists of the following:
	'call' operation ('call_ln542', /home/paulrr2/Projects/ece527/babelsoc/fpga-network-stack/hls/ip_handler/ip_handler.cpp:542->/home/paulrr2/Projects/ece527/babelsoc/fpga-network-stack/hls/ip_handler/ip_handler.cpp:574) to 'detect_ipv6_protocol' [191]  (4.35 ns)

 <State 34>: 0ns
The critical path consists of the following:

 <State 35>: 0ns
The critical path consists of the following:


============================================================
+ Verbose Summary: Binding
============================================================
N/A
* FSMD analyzer results:
  - Output states:
 - Input state : 
  - Chain level:
	State 1
	State 2
	State 3
	State 4
	State 5
	State 6
	State 7
	State 8
	State 9
	State 10
	State 11
	State 12
	State 13
	State 14
	State 15
	State 16
	State 17
	State 18
	State 19
	State 20
	State 21
	State 22
	State 23
	State 24
	State 25
	State 26
	State 27
	State 28
	State 29
	State 30
	State 31
	State 32
	State 33
	State 34
	State 35


============================================================
+ Verbose Summary: Datapath Resource usage 
============================================================
N/A
