

================================================================
== Vivado HLS Report for 'ip_invalid_dropper'
================================================================
* Date:           Fri Dec 18 10:37:46 2020

* Version:        2019.1 (Build 2552052 on Fri May 24 15:28:33 MDT 2019)
* Project:        ip_handler_prj
* Solution:       solution1
* Product family: zynq
* Target device:  xc7z020-clg400-1


================================================================
== Performance Estimates
================================================================
+ Timing (ns): 
    * Summary: 
    +--------+-------+----------+------------+
    |  Clock | Target| Estimated| Uncertainty|
    +--------+-------+----------+------------+
    |ap_clk  |   6.40|     3.778|        0.80|
    +--------+-------+----------+------------+

+ Latency (clock cycles): 
    * Summary: 
    +-----+-----+-----+-----+----------+
    |  Latency  |  Interval | Pipeline |
    | min | max | min | max |   Type   |
    +-----+-----+-----+-----+----------+
    |    1|    1|    1|    1| function |
    +-----+-----+-----+-----+----------+

    + Detail: 
        * Instance: 
        N/A

        * Loop: 
        N/A

============================================================
+ Verbose Summary: Synthesis Manager
============================================================
InlineROM: 1
ExposeGlobal: 0
============================================================
+ Verbose Summary: CDFG Model
============================================================
IsTopModel: 0
ResetActiveHigh: 1
IsCombinational: 2
IsDatapathOnly: 0
HasWiredReturn: 1
HasMFsm: 2
HasVarLatency: 0
IsPipeline: 1
IsRtlPipelined: 1
IsInstanceOverlapped: 0
IsDontTouch: 0
HasImplIP: 0
IsGatedGlobalClock: 0

+ Individual pipeline summary: 
  * Pipeline-0: initiation interval (II) = 1, depth = 2


============================================================
+ Verbose Summary: Schedule
============================================================
* Number of FSM states : 2
* Pipeline : 1
  Pipeline-0 : II = 1, D = 2, States = { 1 2 }
* Dataflow Pipeline: 0

* FSM state transitions: 
1 --> 2 
2 --> 

* FSM state operations: 

State 1 <SV = 0> <Delay = 3.77>
ST_1 : Operation 3 [1/1] (0.00ns)   --->   "%iid_state_load = load i2* @iid_state, align 1" [/home/paulrr2/Projects/ece527/babelsoc/fpga-network-stack/hls/ip_handler/ip_handler.cpp:188]   --->   Operation 3 'load' 'iid_state_load' <Predicate = true> <Delay = 0.00>
ST_1 : Operation 4 [1/1] (1.30ns)   --->   "switch i2 %iid_state_load, label %"ip_invalid_dropper<64>.exit" [
    i2 0, label %0
    i2 1, label %6
    i2 -2, label %9
  ]" [/home/paulrr2/Projects/ece527/babelsoc/fpga-network-stack/hls/ip_handler/ip_handler.cpp:188]   --->   Operation 4 'switch' <Predicate = true> <Delay = 1.30>
ST_1 : Operation 5 [1/1] (0.00ns)   --->   "%tmp_4 = call i1 @_ssdm_op_NbReadReq.ap_fifo.i73P(i73* @ipDataCheckFifo_V, i32 1) nounwind" [/home/paulrr2/Projects/ece527/babelsoc/fpga-network-stack/hls/ip_handler/ip_handler.cpp:221]   --->   Operation 5 'nbreadreq' 'tmp_4' <Predicate = (iid_state_load == 2)> <Delay = 0.00> <Core = "FIFO">   --->   Core 32 'FIFO' <Latency = 0> <II = 1> <Delay = 3.63> <Storage> <Opcode : 'read' 'write' 'nbread' 'nbwrite'> <Ports = 0> <Width = 1> <Depth = 2> <FIFO>
ST_1 : Operation 6 [1/1] (2.80ns)   --->   "%tmp_2 = call i73 @_ssdm_op_Read.ap_fifo.volatile.i73P(i73* @ipDataCheckFifo_V) nounwind" [/home/paulrr2/Projects/ece527/babelsoc/fpga-network-stack/hls/ip_handler/ip_handler.cpp:223]   --->   Operation 6 'read' 'tmp_2' <Predicate = (iid_state_load == 2 & tmp_4)> <Delay = 2.80> <Core = "FIFO">   --->   Core 32 'FIFO' <Latency = 0> <II = 1> <Delay = 3.63> <Storage> <Opcode : 'read' 'write' 'nbread' 'nbwrite'> <Ports = 0> <Width = 1> <Depth = 2> <FIFO>
ST_1 : Operation 7 [1/1] (0.00ns)   --->   "%tmp_7 = call i1 @_ssdm_op_BitSelect.i1.i73.i32(i73 %tmp_2, i32 72)" [/home/paulrr2/Projects/ece527/babelsoc/fpga-network-stack/hls/ip_handler/../axi_utils.hpp:50->/home/paulrr2/Projects/ece527/babelsoc/fpga-network-stack/hls/ip_handler/ip_handler.cpp:223]   --->   Operation 7 'bitselect' 'tmp_7' <Predicate = (iid_state_load == 2 & tmp_4)> <Delay = 0.00>
ST_1 : Operation 8 [1/1] (0.00ns)   --->   "br i1 %tmp_7, label %11, label %._crit_edge6.i" [/home/paulrr2/Projects/ece527/babelsoc/fpga-network-stack/hls/ip_handler/ip_handler.cpp:224]   --->   Operation 8 'br' <Predicate = (iid_state_load == 2 & tmp_4)> <Delay = 0.00>
ST_1 : Operation 9 [1/1] (1.76ns)   --->   "store i2 0, i2* @iid_state, align 1" [/home/paulrr2/Projects/ece527/babelsoc/fpga-network-stack/hls/ip_handler/ip_handler.cpp:226]   --->   Operation 9 'store' <Predicate = (iid_state_load == 2 & tmp_4 & tmp_7)> <Delay = 1.76>
ST_1 : Operation 10 [1/1] (0.00ns)   --->   "%tmp_3 = call i1 @_ssdm_op_NbReadReq.ap_fifo.i73P(i73* @ipDataCheckFifo_V, i32 1) nounwind" [/home/paulrr2/Projects/ece527/babelsoc/fpga-network-stack/hls/ip_handler/ip_handler.cpp:210]   --->   Operation 10 'nbreadreq' 'tmp_3' <Predicate = (iid_state_load == 1)> <Delay = 0.00> <Core = "FIFO">   --->   Core 32 'FIFO' <Latency = 0> <II = 1> <Delay = 3.63> <Storage> <Opcode : 'read' 'write' 'nbread' 'nbwrite'> <Ports = 0> <Width = 1> <Depth = 2> <FIFO>
ST_1 : Operation 11 [1/1] (2.80ns)   --->   "%tmp39 = call i73 @_ssdm_op_Read.ap_fifo.volatile.i73P(i73* @ipDataCheckFifo_V) nounwind" [/home/paulrr2/Projects/ece527/babelsoc/fpga-network-stack/hls/ip_handler/ip_handler.cpp:212]   --->   Operation 11 'read' 'tmp39' <Predicate = (iid_state_load == 1 & tmp_3)> <Delay = 2.80> <Core = "FIFO">   --->   Core 32 'FIFO' <Latency = 0> <II = 1> <Delay = 3.63> <Storage> <Opcode : 'read' 'write' 'nbread' 'nbwrite'> <Ports = 0> <Width = 1> <Depth = 2> <FIFO>
ST_1 : Operation 12 [1/1] (0.00ns)   --->   "%tmp_last_V = call i1 @_ssdm_op_BitSelect.i1.i73.i32(i73 %tmp39, i32 72)" [/home/paulrr2/Projects/ece527/babelsoc/fpga-network-stack/hls/ip_handler/../axi_utils.hpp:50->/home/paulrr2/Projects/ece527/babelsoc/fpga-network-stack/hls/ip_handler/ip_handler.cpp:212]   --->   Operation 12 'bitselect' 'tmp_last_V' <Predicate = (iid_state_load == 1 & tmp_3)> <Delay = 0.00>
ST_1 : Operation 13 [1/1] (0.00ns)   --->   "br i1 %tmp_last_V, label %8, label %._crit_edge4.i" [/home/paulrr2/Projects/ece527/babelsoc/fpga-network-stack/hls/ip_handler/ip_handler.cpp:214]   --->   Operation 13 'br' <Predicate = (iid_state_load == 1 & tmp_3)> <Delay = 0.00>
ST_1 : Operation 14 [1/1] (1.76ns)   --->   "store i2 0, i2* @iid_state, align 1" [/home/paulrr2/Projects/ece527/babelsoc/fpga-network-stack/hls/ip_handler/ip_handler.cpp:216]   --->   Operation 14 'store' <Predicate = (iid_state_load == 1 & tmp_3 & tmp_last_V)> <Delay = 1.76>
ST_1 : Operation 15 [1/1] (0.00ns)   --->   "%tmp = call i1 @_ssdm_op_NbReadReq.ap_fifo.i1P(i1* @validChecksumFifo_V, i32 1) nounwind" [/home/paulrr2/Projects/ece527/babelsoc/fpga-network-stack/hls/ip_handler/ip_handler.cpp:191]   --->   Operation 15 'nbreadreq' 'tmp' <Predicate = (iid_state_load == 0)> <Delay = 0.00> <Core = "FIFO">   --->   Core 32 'FIFO' <Latency = 0> <II = 1> <Delay = 3.63> <Storage> <Opcode : 'read' 'write' 'nbread' 'nbwrite'> <Ports = 0> <Width = 1> <Depth = 2> <FIFO>
ST_1 : Operation 16 [1/1] (0.00ns)   --->   "br i1 %tmp, label %1, label %._crit_edge1.i" [/home/paulrr2/Projects/ece527/babelsoc/fpga-network-stack/hls/ip_handler/ip_handler.cpp:191]   --->   Operation 16 'br' <Predicate = (iid_state_load == 0)> <Delay = 0.00>
ST_1 : Operation 17 [1/1] (0.00ns)   --->   "%tmp_5 = call i1 @_ssdm_op_NbReadReq.ap_fifo.i1P(i1* @validIpAddressFifo_V, i32 1) nounwind" [/home/paulrr2/Projects/ece527/babelsoc/fpga-network-stack/hls/ip_handler/ip_handler.cpp:191]   --->   Operation 17 'nbreadreq' 'tmp_5' <Predicate = (iid_state_load == 0 & tmp)> <Delay = 0.00> <Core = "FIFO">   --->   Core 32 'FIFO' <Latency = 0> <II = 1> <Delay = 3.63> <Storage> <Opcode : 'read' 'write' 'nbread' 'nbwrite'> <Ports = 0> <Width = 1> <Depth = 2> <FIFO>
ST_1 : Operation 18 [1/1] (0.00ns)   --->   "br i1 %tmp_5, label %2, label %._crit_edge1.i" [/home/paulrr2/Projects/ece527/babelsoc/fpga-network-stack/hls/ip_handler/ip_handler.cpp:191]   --->   Operation 18 'br' <Predicate = (iid_state_load == 0 & tmp)> <Delay = 0.00>
ST_1 : Operation 19 [1/1] (2.80ns)   --->   "%tmp_10 = call i1 @_ssdm_op_Read.ap_fifo.volatile.i1P(i1* @validChecksumFifo_V) nounwind" [/home/paulrr2/Projects/ece527/babelsoc/fpga-network-stack/hls/ip_handler/ip_handler.cpp:193]   --->   Operation 19 'read' 'tmp_10' <Predicate = (iid_state_load == 0 & tmp & tmp_5)> <Delay = 2.80> <Core = "FIFO">   --->   Core 32 'FIFO' <Latency = 0> <II = 1> <Delay = 3.63> <Storage> <Opcode : 'read' 'write' 'nbread' 'nbwrite'> <Ports = 0> <Width = 1> <Depth = 2> <FIFO>
ST_1 : Operation 20 [1/1] (2.80ns)   --->   "%tmp_11 = call i1 @_ssdm_op_Read.ap_fifo.volatile.i1P(i1* @validIpAddressFifo_V) nounwind" [/home/paulrr2/Projects/ece527/babelsoc/fpga-network-stack/hls/ip_handler/ip_handler.cpp:194]   --->   Operation 20 'read' 'tmp_11' <Predicate = (iid_state_load == 0 & tmp & tmp_5)> <Delay = 2.80> <Core = "FIFO">   --->   Core 32 'FIFO' <Latency = 0> <II = 1> <Delay = 3.63> <Storage> <Opcode : 'read' 'write' 'nbread' 'nbwrite'> <Ports = 0> <Width = 1> <Depth = 2> <FIFO>
ST_1 : Operation 21 [1/1] (0.97ns)   --->   "%and_ln195 = and i1 %tmp_10, %tmp_11" [/home/paulrr2/Projects/ece527/babelsoc/fpga-network-stack/hls/ip_handler/ip_handler.cpp:195]   --->   Operation 21 'and' 'and_ln195' <Predicate = (iid_state_load == 0 & tmp & tmp_5)> <Delay = 0.97> <Core = "LogicGate">   --->   Core 27 'LogicGate' <Latency = 0> <II = 1> <Delay = 0.97> <FuncUnit> <Opcode : 'and' 'or' 'xor'> <InPorts = 2> <OutPorts = 1>
ST_1 : Operation 22 [1/1] (0.00ns)   --->   "br i1 %and_ln195, label %3, label %4" [/home/paulrr2/Projects/ece527/babelsoc/fpga-network-stack/hls/ip_handler/ip_handler.cpp:195]   --->   Operation 22 'br' <Predicate = (iid_state_load == 0 & tmp & tmp_5)> <Delay = 0.00>
ST_1 : Operation 23 [1/1] (1.76ns)   --->   "br label %5"   --->   Operation 23 'br' <Predicate = (iid_state_load == 0 & tmp & tmp_5 & !and_ln195)> <Delay = 1.76>
ST_1 : Operation 24 [1/1] (1.76ns)   --->   "br label %5" [/home/paulrr2/Projects/ece527/babelsoc/fpga-network-stack/hls/ip_handler/ip_handler.cpp:200]   --->   Operation 24 'br' <Predicate = (iid_state_load == 0 & tmp & tmp_5 & and_ln195)> <Delay = 1.76>
ST_1 : Operation 25 [1/1] (0.00ns)   --->   "%storemerge_i = phi i2 [ -2, %4 ], [ 1, %3 ]"   --->   Operation 25 'phi' 'storemerge_i' <Predicate = (iid_state_load == 0 & tmp & tmp_5)> <Delay = 0.00>
ST_1 : Operation 26 [1/1] (1.76ns)   --->   "store i2 %storemerge_i, i2* @iid_state, align 1" [/home/paulrr2/Projects/ece527/babelsoc/fpga-network-stack/hls/ip_handler/ip_handler.cpp:199]   --->   Operation 26 'store' <Predicate = (iid_state_load == 0 & tmp & tmp_5)> <Delay = 1.76>

State 2 <SV = 1> <Delay = 2.80>
ST_2 : Operation 27 [1/1] (0.00ns)   --->   "call void (...)* @_ssdm_op_SpecInterface(i73* @ipDataCheckFifo_V, [8 x i8]* @ap_fifo_str, i32 0, i32 0, [1 x i8]* @p_str, i32 0, i32 0, [1 x i8]* @p_str, [1 x i8]* @p_str, [1 x i8]* @p_str, i32 2, i32 2, i32 16, i32 16, [1 x i8]* @p_str, [1 x i8]* @p_str)"   --->   Operation 27 'specinterface' <Predicate = true> <Delay = 0.00>
ST_2 : Operation 28 [1/1] (0.00ns)   --->   "call void (...)* @_ssdm_op_SpecInterface(i73* @ipDataDropFifo_V, [8 x i8]* @ap_fifo_str, i32 0, i32 0, [1 x i8]* @p_str, i32 0, i32 0, [1 x i8]* @p_str, [1 x i8]* @p_str, [1 x i8]* @p_str, i32 2, i32 2, i32 16, i32 16, [1 x i8]* @p_str, [1 x i8]* @p_str)"   --->   Operation 28 'specinterface' <Predicate = true> <Delay = 0.00>
ST_2 : Operation 29 [1/1] (0.00ns)   --->   "call void (...)* @_ssdm_op_SpecInterface(i1* @ipv4ValidFifo_V, [8 x i8]* @ap_fifo_str, i32 0, i32 0, [1 x i8]* @p_str, i32 0, i32 0, [1 x i8]* @p_str, [1 x i8]* @p_str, [1 x i8]* @p_str, i32 2, i32 2, i32 16, i32 16, [1 x i8]* @p_str, [1 x i8]* @p_str)"   --->   Operation 29 'specinterface' <Predicate = true> <Delay = 0.00>
ST_2 : Operation 30 [1/1] (0.00ns)   --->   "call void (...)* @_ssdm_op_SpecInterface(i1* @validChecksumFifo_V, [8 x i8]* @ap_fifo_str, i32 0, i32 0, [1 x i8]* @p_str, i32 0, i32 0, [1 x i8]* @p_str, [1 x i8]* @p_str, [1 x i8]* @p_str, i32 2, i32 2, i32 16, i32 16, [1 x i8]* @p_str, [1 x i8]* @p_str)"   --->   Operation 30 'specinterface' <Predicate = true> <Delay = 0.00>
ST_2 : Operation 31 [1/1] (0.00ns)   --->   "call void (...)* @_ssdm_op_SpecInterface(i1* @validIpAddressFifo_V, [8 x i8]* @ap_fifo_str, i32 0, i32 0, [1 x i8]* @p_str, i32 0, i32 0, [1 x i8]* @p_str, [1 x i8]* @p_str, [1 x i8]* @p_str, i32 2, i32 2, i32 16, i32 16, [1 x i8]* @p_str, [1 x i8]* @p_str)"   --->   Operation 31 'specinterface' <Predicate = true> <Delay = 0.00>
ST_2 : Operation 32 [1/1] (0.00ns)   --->   "call void (...)* @_ssdm_op_SpecPipeline(i32 1, i32 1, i32 1, i32 0, [1 x i8]* @p_str2) nounwind" [/home/paulrr2/Projects/ece527/babelsoc/fpga-network-stack/hls/ip_handler/ip_handler.cpp:182]   --->   Operation 32 'specpipeline' <Predicate = true> <Delay = 0.00>
ST_2 : Operation 33 [1/1] (0.00ns)   --->   "br i1 %tmp_4, label %10, label %._crit_edge5.i" [/home/paulrr2/Projects/ece527/babelsoc/fpga-network-stack/hls/ip_handler/ip_handler.cpp:221]   --->   Operation 33 'br' <Predicate = (iid_state_load == 2)> <Delay = 0.00>
ST_2 : Operation 34 [1/1] (0.00ns)   --->   "br label %._crit_edge6.i" [/home/paulrr2/Projects/ece527/babelsoc/fpga-network-stack/hls/ip_handler/ip_handler.cpp:227]   --->   Operation 34 'br' <Predicate = (iid_state_load == 2 & tmp_4 & tmp_7)> <Delay = 0.00>
ST_2 : Operation 35 [1/1] (0.00ns)   --->   "br label %._crit_edge5.i" [/home/paulrr2/Projects/ece527/babelsoc/fpga-network-stack/hls/ip_handler/ip_handler.cpp:228]   --->   Operation 35 'br' <Predicate = (iid_state_load == 2 & tmp_4)> <Delay = 0.00>
ST_2 : Operation 36 [1/1] (0.00ns)   --->   "br label %"ip_invalid_dropper<64>.exit"" [/home/paulrr2/Projects/ece527/babelsoc/fpga-network-stack/hls/ip_handler/ip_handler.cpp:229]   --->   Operation 36 'br' <Predicate = (iid_state_load == 2)> <Delay = 0.00>
ST_2 : Operation 37 [1/1] (0.00ns)   --->   "br i1 %tmp_3, label %7, label %._crit_edge3.i" [/home/paulrr2/Projects/ece527/babelsoc/fpga-network-stack/hls/ip_handler/ip_handler.cpp:210]   --->   Operation 37 'br' <Predicate = (iid_state_load == 1)> <Delay = 0.00>
ST_2 : Operation 38 [1/1] (2.80ns)   --->   "call void @_ssdm_op_Write.ap_fifo.volatile.i73P(i73* @ipDataDropFifo_V, i73 %tmp39) nounwind" [/home/paulrr2/Projects/ece527/babelsoc/fpga-network-stack/hls/ip_handler/ip_handler.cpp:213]   --->   Operation 38 'write' <Predicate = (iid_state_load == 1 & tmp_3)> <Delay = 2.80> <Core = "FIFO">   --->   Core 32 'FIFO' <Latency = 0> <II = 1> <Delay = 3.63> <Storage> <Opcode : 'read' 'write' 'nbread' 'nbwrite'> <Ports = 0> <Width = 1> <Depth = 2> <FIFO>
ST_2 : Operation 39 [1/1] (0.00ns)   --->   "br label %._crit_edge4.i" [/home/paulrr2/Projects/ece527/babelsoc/fpga-network-stack/hls/ip_handler/ip_handler.cpp:217]   --->   Operation 39 'br' <Predicate = (iid_state_load == 1 & tmp_3 & tmp_last_V)> <Delay = 0.00>
ST_2 : Operation 40 [1/1] (0.00ns)   --->   "br label %._crit_edge3.i" [/home/paulrr2/Projects/ece527/babelsoc/fpga-network-stack/hls/ip_handler/ip_handler.cpp:218]   --->   Operation 40 'br' <Predicate = (iid_state_load == 1 & tmp_3)> <Delay = 0.00>
ST_2 : Operation 41 [1/1] (0.00ns)   --->   "br label %"ip_invalid_dropper<64>.exit"" [/home/paulrr2/Projects/ece527/babelsoc/fpga-network-stack/hls/ip_handler/ip_handler.cpp:219]   --->   Operation 41 'br' <Predicate = (iid_state_load == 1)> <Delay = 0.00>
ST_2 : Operation 42 [1/1] (2.80ns)   --->   "call void @_ssdm_op_Write.ap_fifo.volatile.i1P(i1* @ipv4ValidFifo_V, i1 false) nounwind" [/home/paulrr2/Projects/ece527/babelsoc/fpga-network-stack/hls/ip_handler/ip_handler.cpp:204]   --->   Operation 42 'write' <Predicate = (iid_state_load == 0 & tmp & tmp_5 & !and_ln195)> <Delay = 2.80> <Core = "FIFO">   --->   Core 32 'FIFO' <Latency = 0> <II = 1> <Delay = 3.63> <Storage> <Opcode : 'read' 'write' 'nbread' 'nbwrite'> <Ports = 0> <Width = 1> <Depth = 2> <FIFO>
ST_2 : Operation 43 [1/1] (2.80ns)   --->   "call void @_ssdm_op_Write.ap_fifo.volatile.i1P(i1* @ipv4ValidFifo_V, i1 true) nounwind" [/home/paulrr2/Projects/ece527/babelsoc/fpga-network-stack/hls/ip_handler/ip_handler.cpp:198]   --->   Operation 43 'write' <Predicate = (iid_state_load == 0 & tmp & tmp_5 & and_ln195)> <Delay = 2.80> <Core = "FIFO">   --->   Core 32 'FIFO' <Latency = 0> <II = 1> <Delay = 3.63> <Storage> <Opcode : 'read' 'write' 'nbread' 'nbwrite'> <Ports = 0> <Width = 1> <Depth = 2> <FIFO>
ST_2 : Operation 44 [1/1] (0.00ns)   --->   "br label %._crit_edge1.i" [/home/paulrr2/Projects/ece527/babelsoc/fpga-network-stack/hls/ip_handler/ip_handler.cpp:207]   --->   Operation 44 'br' <Predicate = (iid_state_load == 0 & tmp & tmp_5)> <Delay = 0.00>
ST_2 : Operation 45 [1/1] (0.00ns)   --->   "br label %"ip_invalid_dropper<64>.exit"" [/home/paulrr2/Projects/ece527/babelsoc/fpga-network-stack/hls/ip_handler/ip_handler.cpp:208]   --->   Operation 45 'br' <Predicate = (iid_state_load == 0)> <Delay = 0.00>
ST_2 : Operation 46 [1/1] (0.00ns)   --->   "ret void"   --->   Operation 46 'ret' <Predicate = true> <Delay = 0.00>


============================================================
+ Verbose Summary: Binding
============================================================
STG Binding: 
---------------- STG Properties BEGIN ----------------
- Is combinational: 0
- Is one-state seq: 0
- Is datapath-only: 0
- Is pipelined: 1
- Is top level: 0
Port [ Return ] is wired: 1; IO mode=ap_ctrl_hs:ce=0
Port [ iid_state]:  wired=0; compound=0; hidden=1; nouse=0; global=1; static=1; extern=0; dir=2; type=0; pingpong=0; private_global=1; linkage=7; visibility=0; IO mode=ap_ovld:ce=0
Port [ validChecksumFifo_V]:  wired=1; compound=1; hidden=0; nouse=0; global=1; static=1; extern=0; dir=0; type=3; pingpong=0; private_global=0; linkage=7; visibility=0; IO mode=ap_fifo:ce=0
Port [ validIpAddressFifo_V]:  wired=1; compound=1; hidden=0; nouse=0; global=1; static=1; extern=0; dir=0; type=3; pingpong=0; private_global=0; linkage=7; visibility=0; IO mode=ap_fifo:ce=0
Port [ ipv4ValidFifo_V]:  wired=1; compound=1; hidden=0; nouse=0; global=1; static=1; extern=0; dir=1; type=3; pingpong=0; private_global=0; linkage=7; visibility=0; IO mode=ap_fifo:ce=0
Port [ ipDataCheckFifo_V]:  wired=1; compound=1; hidden=0; nouse=0; global=1; static=1; extern=0; dir=0; type=3; pingpong=0; private_global=0; linkage=7; visibility=0; IO mode=ap_fifo:ce=0
Port [ ipDataDropFifo_V]:  wired=1; compound=1; hidden=0; nouse=0; global=1; static=1; extern=0; dir=1; type=3; pingpong=0; private_global=0; linkage=7; visibility=0; IO mode=ap_fifo:ce=0
---------------- STG Properties END ------------------

---------------- Datapath Model BEGIN ----------------

<LifeTime>
<method=bitvector/>
iid_state_load     (load         ) [ 011]
switch_ln188       (switch       ) [ 000]
tmp_4              (nbreadreq    ) [ 011]
tmp_2              (read         ) [ 000]
tmp_7              (bitselect    ) [ 011]
br_ln224           (br           ) [ 000]
store_ln226        (store        ) [ 000]
tmp_3              (nbreadreq    ) [ 011]
tmp39              (read         ) [ 011]
tmp_last_V         (bitselect    ) [ 011]
br_ln214           (br           ) [ 000]
store_ln216        (store        ) [ 000]
tmp                (nbreadreq    ) [ 011]
br_ln191           (br           ) [ 000]
tmp_5              (nbreadreq    ) [ 011]
br_ln191           (br           ) [ 000]
tmp_10             (read         ) [ 000]
tmp_11             (read         ) [ 000]
and_ln195          (and          ) [ 011]
br_ln195           (br           ) [ 000]
br_ln0             (br           ) [ 000]
br_ln200           (br           ) [ 000]
storemerge_i       (phi          ) [ 000]
store_ln199        (store        ) [ 000]
specinterface_ln0  (specinterface) [ 000]
specinterface_ln0  (specinterface) [ 000]
specinterface_ln0  (specinterface) [ 000]
specinterface_ln0  (specinterface) [ 000]
specinterface_ln0  (specinterface) [ 000]
specpipeline_ln182 (specpipeline ) [ 000]
br_ln221           (br           ) [ 000]
br_ln227           (br           ) [ 000]
br_ln228           (br           ) [ 000]
br_ln229           (br           ) [ 000]
br_ln210           (br           ) [ 000]
write_ln213        (write        ) [ 000]
br_ln217           (br           ) [ 000]
br_ln218           (br           ) [ 000]
br_ln219           (br           ) [ 000]
write_ln204        (write        ) [ 000]
write_ln198        (write        ) [ 000]
br_ln207           (br           ) [ 000]
br_ln208           (br           ) [ 000]
ret_ln0            (ret          ) [ 000]
</LifeTime>

<model>

<comp_list>
<comp id="0" class="1000" name="iid_state">
<pin_list>
<pin id="1" dir="1" index="0" bw="1" slack="0"/>
</pin_list>
<bind>
<StgValue><ssdm name="iid_state"/></StgValue>
</bind>
</comp>

<comp id="2" class="1000" name="validChecksumFifo_V">
<pin_list>
<pin id="3" dir="1" index="0" bw="1" slack="0"/>
</pin_list>
<bind>
<StgValue><ssdm name="validChecksumFifo_V"/></StgValue>
</bind>
</comp>

<comp id="4" class="1000" name="validIpAddressFifo_V">
<pin_list>
<pin id="5" dir="1" index="0" bw="1" slack="0"/>
</pin_list>
<bind>
<StgValue><ssdm name="validIpAddressFifo_V"/></StgValue>
</bind>
</comp>

<comp id="6" class="1000" name="ipv4ValidFifo_V">
<pin_list>
<pin id="7" dir="1" index="0" bw="1" slack="0"/>
</pin_list>
<bind>
<StgValue><ssdm name="ipv4ValidFifo_V"/></StgValue>
</bind>
</comp>

<comp id="8" class="1000" name="ipDataCheckFifo_V">
<pin_list>
<pin id="9" dir="1" index="0" bw="1" slack="0"/>
</pin_list>
<bind>
<StgValue><ssdm name="ipDataCheckFifo_V"/></StgValue>
</bind>
</comp>

<comp id="10" class="1000" name="ipDataDropFifo_V">
<pin_list>
<pin id="11" dir="1" index="0" bw="1" slack="0"/>
</pin_list>
<bind>
<StgValue><ssdm name="ipDataDropFifo_V"/></StgValue>
</bind>
</comp>

<comp id="12" class="1001" name="const_12">
<pin_list>
<pin id="13" dir="1" index="0" bw="1" slack="0"/>
</pin_list>
<bind>
<StgValue><ssdm name=""/></StgValue>
</bind>
</comp>

<comp id="14" class="1001" name="const_14">
<pin_list>
<pin id="15" dir="1" index="0" bw="1" slack="0"/>
</pin_list>
<bind>
<StgValue><ssdm name=""/></StgValue>
</bind>
</comp>

<comp id="16" class="1001" name="const_16">
<pin_list>
<pin id="17" dir="1" index="0" bw="1" slack="0"/>
</pin_list>
<bind>
<StgValue><ssdm name=""/></StgValue>
</bind>
</comp>

<comp id="18" class="1001" name="const_18">
<pin_list>
<pin id="19" dir="1" index="0" bw="1" slack="0"/>
</pin_list>
<bind>
<StgValue><ssdm name="_ssdm_op_NbReadReq.ap_fifo.i73P"/></StgValue>
</bind>
</comp>

<comp id="20" class="1001" name="const_20">
<pin_list>
<pin id="21" dir="1" index="0" bw="1" slack="0"/>
</pin_list>
<bind>
<StgValue><ssdm name=""/></StgValue>
</bind>
</comp>

<comp id="22" class="1001" name="const_22">
<pin_list>
<pin id="23" dir="1" index="0" bw="1" slack="0"/>
</pin_list>
<bind>
<StgValue><ssdm name="_ssdm_op_Read.ap_fifo.volatile.i73P"/></StgValue>
</bind>
</comp>

<comp id="24" class="1001" name="const_24">
<pin_list>
<pin id="25" dir="1" index="0" bw="1" slack="0"/>
</pin_list>
<bind>
<StgValue><ssdm name="_ssdm_op_BitSelect.i1.i73.i32"/></StgValue>
</bind>
</comp>

<comp id="26" class="1001" name="const_26">
<pin_list>
<pin id="27" dir="1" index="0" bw="1" slack="0"/>
</pin_list>
<bind>
<StgValue><ssdm name=""/></StgValue>
</bind>
</comp>

<comp id="28" class="1001" name="const_28">
<pin_list>
<pin id="29" dir="1" index="0" bw="1" slack="0"/>
</pin_list>
<bind>
<StgValue><ssdm name="_ssdm_op_NbReadReq.ap_fifo.i1P"/></StgValue>
</bind>
</comp>

<comp id="30" class="1001" name="const_30">
<pin_list>
<pin id="31" dir="1" index="0" bw="1" slack="0"/>
</pin_list>
<bind>
<StgValue><ssdm name="_ssdm_op_Read.ap_fifo.volatile.i1P"/></StgValue>
</bind>
</comp>

<comp id="32" class="1001" name="const_32">
<pin_list>
<pin id="33" dir="1" index="0" bw="1" slack="2147483647"/>
</pin_list>
<bind>
<StgValue><ssdm name="_ssdm_op_SpecInterface"/></StgValue>
</bind>
</comp>

<comp id="34" class="1001" name="const_34">
<pin_list>
<pin id="35" dir="1" index="0" bw="1" slack="2147483647"/>
</pin_list>
<bind>
<StgValue><ssdm name="ap_fifo_str"/></StgValue>
</bind>
</comp>

<comp id="36" class="1001" name="const_36">
<pin_list>
<pin id="37" dir="1" index="0" bw="1" slack="2147483647"/>
</pin_list>
<bind>
<StgValue><ssdm name=""/></StgValue>
</bind>
</comp>

<comp id="38" class="1001" name="const_38">
<pin_list>
<pin id="39" dir="1" index="0" bw="1" slack="2147483647"/>
</pin_list>
<bind>
<StgValue><ssdm name="p_str"/></StgValue>
</bind>
</comp>

<comp id="40" class="1001" name="const_40">
<pin_list>
<pin id="41" dir="1" index="0" bw="1" slack="2147483647"/>
</pin_list>
<bind>
<StgValue><ssdm name=""/></StgValue>
</bind>
</comp>

<comp id="42" class="1001" name="const_42">
<pin_list>
<pin id="43" dir="1" index="0" bw="1" slack="2147483647"/>
</pin_list>
<bind>
<StgValue><ssdm name=""/></StgValue>
</bind>
</comp>

<comp id="44" class="1001" name="const_44">
<pin_list>
<pin id="45" dir="1" index="0" bw="1" slack="2147483647"/>
</pin_list>
<bind>
<StgValue><ssdm name="_ssdm_op_SpecPipeline"/></StgValue>
</bind>
</comp>

<comp id="46" class="1001" name="const_46">
<pin_list>
<pin id="47" dir="1" index="0" bw="1" slack="2147483647"/>
</pin_list>
<bind>
<StgValue><ssdm name="p_str2"/></StgValue>
</bind>
</comp>

<comp id="48" class="1001" name="const_48">
<pin_list>
<pin id="49" dir="1" index="0" bw="1" slack="0"/>
</pin_list>
<bind>
<StgValue><ssdm name="_ssdm_op_Write.ap_fifo.volatile.i73P"/></StgValue>
</bind>
</comp>

<comp id="50" class="1001" name="const_50">
<pin_list>
<pin id="51" dir="1" index="0" bw="1" slack="0"/>
</pin_list>
<bind>
<StgValue><ssdm name="_ssdm_op_Write.ap_fifo.volatile.i1P"/></StgValue>
</bind>
</comp>

<comp id="52" class="1001" name="const_52">
<pin_list>
<pin id="53" dir="1" index="0" bw="1" slack="0"/>
</pin_list>
<bind>
<StgValue><ssdm name=""/></StgValue>
</bind>
</comp>

<comp id="54" class="1001" name="const_54">
<pin_list>
<pin id="55" dir="1" index="0" bw="1" slack="0"/>
</pin_list>
<bind>
<StgValue><ssdm name=""/></StgValue>
</bind>
</comp>

<comp id="56" class="1004" name="grp_nbreadreq_fu_56">
<pin_list>
<pin id="57" dir="0" index="0" bw="1" slack="0"/>
<pin id="58" dir="0" index="1" bw="73" slack="0"/>
<pin id="59" dir="0" index="2" bw="1" slack="0"/>
<pin id="60" dir="1" index="3" bw="1" slack="1"/>
</pin_list>
<bind>
<opcode="nbreadreq(1156) " fcode="nbreadreq"/>
<opset="tmp_4/1 tmp_3/1 "/>
</bind>
</comp>

<comp id="64" class="1004" name="grp_read_fu_64">
<pin_list>
<pin id="65" dir="0" index="0" bw="73" slack="0"/>
<pin id="66" dir="0" index="1" bw="73" slack="0"/>
<pin id="67" dir="1" index="2" bw="73" slack="0"/>
</pin_list>
<bind>
<opcode="read(1150) " fcode="read"/>
<opset="tmp_2/1 tmp39/1 "/>
</bind>
</comp>

<comp id="70" class="1004" name="tmp_nbreadreq_fu_70">
<pin_list>
<pin id="71" dir="0" index="0" bw="1" slack="0"/>
<pin id="72" dir="0" index="1" bw="1" slack="0"/>
<pin id="73" dir="0" index="2" bw="1" slack="0"/>
<pin id="74" dir="1" index="3" bw="1" slack="1"/>
</pin_list>
<bind>
<opcode="nbreadreq(1156) " fcode="nbreadreq"/>
<opset="tmp/1 "/>
</bind>
</comp>

<comp id="78" class="1004" name="tmp_5_nbreadreq_fu_78">
<pin_list>
<pin id="79" dir="0" index="0" bw="1" slack="0"/>
<pin id="80" dir="0" index="1" bw="1" slack="0"/>
<pin id="81" dir="0" index="2" bw="1" slack="0"/>
<pin id="82" dir="1" index="3" bw="1" slack="1"/>
</pin_list>
<bind>
<opcode="nbreadreq(1156) " fcode="nbreadreq"/>
<opset="tmp_5/1 "/>
</bind>
</comp>

<comp id="86" class="1004" name="tmp_10_read_fu_86">
<pin_list>
<pin id="87" dir="0" index="0" bw="1" slack="0"/>
<pin id="88" dir="0" index="1" bw="1" slack="0"/>
<pin id="89" dir="1" index="2" bw="1" slack="0"/>
</pin_list>
<bind>
<opcode="read(1150) " fcode="read"/>
<opset="tmp_10/1 "/>
</bind>
</comp>

<comp id="92" class="1004" name="tmp_11_read_fu_92">
<pin_list>
<pin id="93" dir="0" index="0" bw="1" slack="0"/>
<pin id="94" dir="0" index="1" bw="1" slack="0"/>
<pin id="95" dir="1" index="2" bw="1" slack="0"/>
</pin_list>
<bind>
<opcode="read(1150) " fcode="read"/>
<opset="tmp_11/1 "/>
</bind>
</comp>

<comp id="98" class="1004" name="write_ln213_write_fu_98">
<pin_list>
<pin id="99" dir="0" index="0" bw="0" slack="0"/>
<pin id="100" dir="0" index="1" bw="73" slack="0"/>
<pin id="101" dir="0" index="2" bw="73" slack="1"/>
<pin id="102" dir="1" index="3" bw="0" slack="2147483647"/>
</pin_list>
<bind>
<opcode="write(1151) " fcode="write"/>
<opset="write_ln213/2 "/>
</bind>
</comp>

<comp id="105" class="1004" name="grp_write_fu_105">
<pin_list>
<pin id="106" dir="0" index="0" bw="0" slack="0"/>
<pin id="107" dir="0" index="1" bw="1" slack="0"/>
<pin id="108" dir="0" index="2" bw="1" slack="0"/>
<pin id="109" dir="1" index="3" bw="0" slack="2147483647"/>
</pin_list>
<bind>
<opcode="write(1151) " fcode="write"/>
<opset="write_ln204/2 write_ln198/2 "/>
</bind>
</comp>

<comp id="114" class="1005" name="storemerge_i_reg_114">
<pin_list>
<pin id="115" dir="0" index="0" bw="2" slack="2147483647"/>
<pin id="116" dir="1" index="1" bw="2" slack="2147483647"/>
</pin_list>
<bind>
<opset="storemerge_i (phireg) "/>
</bind>
</comp>

<comp id="117" class="1004" name="storemerge_i_phi_fu_117">
<pin_list>
<pin id="118" dir="0" index="0" bw="2" slack="0"/>
<pin id="119" dir="0" index="1" bw="0" slack="2147483647"/>
<pin id="120" dir="0" index="2" bw="1" slack="0"/>
<pin id="121" dir="0" index="3" bw="0" slack="2147483647"/>
<pin id="122" dir="1" index="4" bw="2" slack="0"/>
</pin_list>
<bind>
<opcode="phi(47) " fcode="phi"/>
<opset="storemerge_i/1 "/>
</bind>
</comp>

<comp id="125" class="1004" name="grp_fu_125">
<pin_list>
<pin id="126" dir="0" index="0" bw="1" slack="0"/>
<pin id="127" dir="0" index="1" bw="73" slack="0"/>
<pin id="128" dir="0" index="2" bw="8" slack="0"/>
<pin id="129" dir="1" index="3" bw="1" slack="1"/>
</pin_list>
<bind>
<opcode="bitselect(1000) " fcode="bitselect"/>
<opset="tmp_7/1 tmp_last_V/1 "/>
</bind>
</comp>

<comp id="133" class="1004" name="grp_store_fu_133">
<pin_list>
<pin id="134" dir="0" index="0" bw="1" slack="0"/>
<pin id="135" dir="0" index="1" bw="2" slack="0"/>
<pin id="136" dir="1" index="2" bw="0" slack="2147483647"/>
</pin_list>
<bind>
<opcode="store(28) " fcode="store"/>
<opset="store_ln226/1 store_ln216/1 "/>
</bind>
</comp>

<comp id="139" class="1004" name="iid_state_load_load_fu_139">
<pin_list>
<pin id="140" dir="0" index="0" bw="2" slack="0"/>
<pin id="141" dir="1" index="1" bw="2" slack="1"/>
</pin_list>
<bind>
<opcode="load(27) " fcode="load"/>
<opset="iid_state_load/1 "/>
</bind>
</comp>

<comp id="143" class="1004" name="and_ln195_fu_143">
<pin_list>
<pin id="144" dir="0" index="0" bw="1" slack="0"/>
<pin id="145" dir="0" index="1" bw="1" slack="0"/>
<pin id="146" dir="1" index="2" bw="1" slack="1"/>
</pin_list>
<bind>
<opcode="and(23) " fcode="and"/>
<opset="and_ln195/1 "/>
</bind>
</comp>

<comp id="149" class="1004" name="store_ln199_store_fu_149">
<pin_list>
<pin id="150" dir="0" index="0" bw="2" slack="0"/>
<pin id="151" dir="0" index="1" bw="2" slack="0"/>
<pin id="152" dir="1" index="2" bw="0" slack="2147483647"/>
</pin_list>
<bind>
<opcode="store(28) " fcode="store"/>
<opset="store_ln199/1 "/>
</bind>
</comp>

<comp id="155" class="1005" name="iid_state_load_reg_155">
<pin_list>
<pin id="156" dir="0" index="0" bw="2" slack="1"/>
<pin id="157" dir="1" index="1" bw="2" slack="2147483647"/>
</pin_list>
<bind>
<opset="iid_state_load "/>
</bind>
</comp>

<comp id="159" class="1005" name="tmp_4_reg_159">
<pin_list>
<pin id="160" dir="0" index="0" bw="1" slack="1"/>
<pin id="161" dir="1" index="1" bw="1" slack="2147483647"/>
</pin_list>
<bind>
<opset="tmp_4 "/>
</bind>
</comp>

<comp id="163" class="1005" name="tmp_7_reg_163">
<pin_list>
<pin id="164" dir="0" index="0" bw="1" slack="1"/>
<pin id="165" dir="1" index="1" bw="1" slack="2147483647"/>
</pin_list>
<bind>
<opset="tmp_7 "/>
</bind>
</comp>

<comp id="167" class="1005" name="tmp_3_reg_167">
<pin_list>
<pin id="168" dir="0" index="0" bw="1" slack="1"/>
<pin id="169" dir="1" index="1" bw="1" slack="2147483647"/>
</pin_list>
<bind>
<opset="tmp_3 "/>
</bind>
</comp>

<comp id="171" class="1005" name="tmp39_reg_171">
<pin_list>
<pin id="172" dir="0" index="0" bw="73" slack="1"/>
<pin id="173" dir="1" index="1" bw="73" slack="1"/>
</pin_list>
<bind>
<opset="tmp39 "/>
</bind>
</comp>

<comp id="176" class="1005" name="tmp_last_V_reg_176">
<pin_list>
<pin id="177" dir="0" index="0" bw="1" slack="1"/>
<pin id="178" dir="1" index="1" bw="1" slack="2147483647"/>
</pin_list>
<bind>
<opset="tmp_last_V "/>
</bind>
</comp>

<comp id="180" class="1005" name="tmp_reg_180">
<pin_list>
<pin id="181" dir="0" index="0" bw="1" slack="1"/>
<pin id="182" dir="1" index="1" bw="1" slack="2147483647"/>
</pin_list>
<bind>
<opset="tmp "/>
</bind>
</comp>

<comp id="184" class="1005" name="tmp_5_reg_184">
<pin_list>
<pin id="185" dir="0" index="0" bw="1" slack="1"/>
<pin id="186" dir="1" index="1" bw="1" slack="2147483647"/>
</pin_list>
<bind>
<opset="tmp_5 "/>
</bind>
</comp>

<comp id="188" class="1005" name="and_ln195_reg_188">
<pin_list>
<pin id="189" dir="0" index="0" bw="1" slack="1"/>
<pin id="190" dir="1" index="1" bw="1" slack="2147483647"/>
</pin_list>
<bind>
<opset="and_ln195 "/>
</bind>
</comp>

</comp_list>

<net_list>
<net id="61"><net_src comp="18" pin="0"/><net_sink comp="56" pin=0"/></net>

<net id="62"><net_src comp="8" pin="0"/><net_sink comp="56" pin=1"/></net>

<net id="63"><net_src comp="20" pin="0"/><net_sink comp="56" pin=2"/></net>

<net id="68"><net_src comp="22" pin="0"/><net_sink comp="64" pin=0"/></net>

<net id="69"><net_src comp="8" pin="0"/><net_sink comp="64" pin=1"/></net>

<net id="75"><net_src comp="28" pin="0"/><net_sink comp="70" pin=0"/></net>

<net id="76"><net_src comp="2" pin="0"/><net_sink comp="70" pin=1"/></net>

<net id="77"><net_src comp="20" pin="0"/><net_sink comp="70" pin=2"/></net>

<net id="83"><net_src comp="28" pin="0"/><net_sink comp="78" pin=0"/></net>

<net id="84"><net_src comp="4" pin="0"/><net_sink comp="78" pin=1"/></net>

<net id="85"><net_src comp="20" pin="0"/><net_sink comp="78" pin=2"/></net>

<net id="90"><net_src comp="30" pin="0"/><net_sink comp="86" pin=0"/></net>

<net id="91"><net_src comp="2" pin="0"/><net_sink comp="86" pin=1"/></net>

<net id="96"><net_src comp="30" pin="0"/><net_sink comp="92" pin=0"/></net>

<net id="97"><net_src comp="4" pin="0"/><net_sink comp="92" pin=1"/></net>

<net id="103"><net_src comp="48" pin="0"/><net_sink comp="98" pin=0"/></net>

<net id="104"><net_src comp="10" pin="0"/><net_sink comp="98" pin=1"/></net>

<net id="110"><net_src comp="50" pin="0"/><net_sink comp="105" pin=0"/></net>

<net id="111"><net_src comp="6" pin="0"/><net_sink comp="105" pin=1"/></net>

<net id="112"><net_src comp="52" pin="0"/><net_sink comp="105" pin=2"/></net>

<net id="113"><net_src comp="54" pin="0"/><net_sink comp="105" pin=2"/></net>

<net id="123"><net_src comp="16" pin="0"/><net_sink comp="117" pin=0"/></net>

<net id="124"><net_src comp="14" pin="0"/><net_sink comp="117" pin=2"/></net>

<net id="130"><net_src comp="24" pin="0"/><net_sink comp="125" pin=0"/></net>

<net id="131"><net_src comp="64" pin="2"/><net_sink comp="125" pin=1"/></net>

<net id="132"><net_src comp="26" pin="0"/><net_sink comp="125" pin=2"/></net>

<net id="137"><net_src comp="12" pin="0"/><net_sink comp="133" pin=0"/></net>

<net id="138"><net_src comp="0" pin="0"/><net_sink comp="133" pin=1"/></net>

<net id="142"><net_src comp="0" pin="0"/><net_sink comp="139" pin=0"/></net>

<net id="147"><net_src comp="86" pin="2"/><net_sink comp="143" pin=0"/></net>

<net id="148"><net_src comp="92" pin="2"/><net_sink comp="143" pin=1"/></net>

<net id="153"><net_src comp="117" pin="4"/><net_sink comp="149" pin=0"/></net>

<net id="154"><net_src comp="0" pin="0"/><net_sink comp="149" pin=1"/></net>

<net id="158"><net_src comp="139" pin="1"/><net_sink comp="155" pin=0"/></net>

<net id="162"><net_src comp="56" pin="3"/><net_sink comp="159" pin=0"/></net>

<net id="166"><net_src comp="125" pin="3"/><net_sink comp="163" pin=0"/></net>

<net id="170"><net_src comp="56" pin="3"/><net_sink comp="167" pin=0"/></net>

<net id="174"><net_src comp="64" pin="2"/><net_sink comp="171" pin=0"/></net>

<net id="175"><net_src comp="171" pin="1"/><net_sink comp="98" pin=2"/></net>

<net id="179"><net_src comp="125" pin="3"/><net_sink comp="176" pin=0"/></net>

<net id="183"><net_src comp="70" pin="3"/><net_sink comp="180" pin=0"/></net>

<net id="187"><net_src comp="78" pin="3"/><net_sink comp="184" pin=0"/></net>

<net id="191"><net_src comp="143" pin="2"/><net_sink comp="188" pin=0"/></net>

</net_list>

</model> 
---------------- Datapath Model END ------------------

* FSMD analyzer results:
  - Output states:
	Port: iid_state | {1 }
	Port: ipv4ValidFifo_V | {2 }
	Port: ipDataDropFifo_V | {2 }
 - Input state : 
	Port: ip_invalid_dropper : iid_state | {1 }
	Port: ip_invalid_dropper : validChecksumFifo_V | {1 }
	Port: ip_invalid_dropper : validIpAddressFifo_V | {1 }
	Port: ip_invalid_dropper : ipDataCheckFifo_V | {1 }
  - Chain level:
	State 1
		switch_ln188 : 1
		br_ln224 : 1
		br_ln214 : 1
		storemerge_i : 1
		store_ln199 : 2
	State 2


============================================================
+ Verbose Summary: Datapath Resource usage 
============================================================

* Functional unit list:
|----------|-------------------------|---------|---------|
| Operation|     Functional Unit     |    FF   |   LUT   |
|----------|-------------------------|---------|---------|
|    and   |     and_ln195_fu_143    |    0    |    2    |
|----------|-------------------------|---------|---------|
|          |   grp_nbreadreq_fu_56   |    0    |    0    |
| nbreadreq|   tmp_nbreadreq_fu_70   |    0    |    0    |
|          |  tmp_5_nbreadreq_fu_78  |    0    |    0    |
|----------|-------------------------|---------|---------|
|          |      grp_read_fu_64     |    0    |    0    |
|   read   |    tmp_10_read_fu_86    |    0    |    0    |
|          |    tmp_11_read_fu_92    |    0    |    0    |
|----------|-------------------------|---------|---------|
|   write  | write_ln213_write_fu_98 |    0    |    0    |
|          |     grp_write_fu_105    |    0    |    0    |
|----------|-------------------------|---------|---------|
| bitselect|        grp_fu_125       |    0    |    0    |
|----------|-------------------------|---------|---------|
|   Total  |                         |    0    |    2    |
|----------|-------------------------|---------|---------|

Memories:
N/A

* Register list:
+----------------------+--------+
|                      |   FF   |
+----------------------+--------+
|   and_ln195_reg_188  |    1   |
|iid_state_load_reg_155|    2   |
| storemerge_i_reg_114 |    2   |
|     tmp39_reg_171    |   73   |
|     tmp_3_reg_167    |    1   |
|     tmp_4_reg_159    |    1   |
|     tmp_5_reg_184    |    1   |
|     tmp_7_reg_163    |    1   |
|  tmp_last_V_reg_176  |    1   |
|      tmp_reg_180     |    1   |
+----------------------+--------+
|         Total        |   84   |
+----------------------+--------+

* Multiplexer (MUX) list: 
|------------------|------|------|------|--------||---------|
|       Comp       |  Pin | Size |  BW  | S x BW ||  Delay  |
|------------------|------|------|------|--------||---------|
| grp_write_fu_105 |  p2  |   2  |   1  |    2   |
|------------------|------|------|------|--------||---------|
|       Total      |      |      |      |    2   ||  1.769  |
|------------------|------|------|------|--------||---------|



* Summary:
+-----------+--------+--------+--------+
|           |  Delay |   FF   |   LUT  |
+-----------+--------+--------+--------+
|  Function |    -   |    0   |    2   |
|   Memory  |    -   |    -   |    -   |
|Multiplexer|    1   |    -   |    -   |
|  Register |    -   |   84   |    -   |
+-----------+--------+--------+--------+
|   Total   |    1   |   84   |    2   |
+-----------+--------+--------+--------+
