

================================================================
== Vivado HLS Report for 'route_by_eth_protoco'
================================================================
* Date:           Fri Dec 18 10:37:41 2020

* Version:        2019.1 (Build 2552052 on Fri May 24 15:28:33 MDT 2019)
* Project:        ip_handler_prj
* Solution:       solution1
* Product family: zynq
* Target device:  xc7z020-clg400-1


================================================================
== Performance Estimates
================================================================
+ Timing (ns): 
    * Summary: 
    +--------+-------+----------+------------+
    |  Clock | Target| Estimated| Uncertainty|
    +--------+-------+----------+------------+
    |ap_clk  |   6.40|     5.229|        0.80|
    +--------+-------+----------+------------+

+ Latency (clock cycles): 
    * Summary: 
    +-----+-----+-----+-----+----------+
    |  Latency  |  Interval | Pipeline |
    | min | max | min | max |   Type   |
    +-----+-----+-----+-----+----------+
    |    2|    2|    1|    1| function |
    +-----+-----+-----+-----+----------+

    + Detail: 
        * Instance: 
        N/A

        * Loop: 
        N/A

============================================================
+ Verbose Summary: Synthesis Manager
============================================================
InlineROM: 1
ExposeGlobal: 0
============================================================
+ Verbose Summary: CDFG Model
============================================================
IsTopModel: 0
ResetActiveHigh: 1
IsCombinational: 2
IsDatapathOnly: 0
HasWiredReturn: 1
HasMFsm: 2
HasVarLatency: 0
IsPipeline: 1
IsRtlPipelined: 1
IsInstanceOverlapped: 0
IsDontTouch: 0
HasImplIP: 0
IsGatedGlobalClock: 0

+ Individual pipeline summary: 
  * Pipeline-0: initiation interval (II) = 1, depth = 3


============================================================
+ Verbose Summary: Schedule
============================================================
* Number of FSM states : 3
* Pipeline : 1
  Pipeline-0 : II = 1, D = 3, States = { 1 2 3 }
* Dataflow Pipeline: 0

* FSM state transitions: 
1 --> 2 
2 --> 3 
3 --> 

* FSM state operations: 

State 1 <SV = 0> <Delay = 5.22>
ST_1 : Operation 4 [1/1] (0.00ns)   --->   "%rep_fsmState_V_load = load i1* @rep_fsmState_V, align 1" [/home/paulrr2/Projects/ece527/babelsoc/fpga-network-stack/hls/ip_handler/ip_handler.cpp:83]   --->   Operation 4 'load' 'rep_fsmState_V_load' <Predicate = true> <Delay = 0.00>
ST_1 : Operation 5 [1/1] (0.00ns)   --->   "%rep_etherType_V_load = load i16* @rep_etherType_V, align 2" [/home/paulrr2/Projects/ece527/babelsoc/fpga-network-stack/hls/ip_handler/ip_handler.cpp:112]   --->   Operation 5 'load' 'rep_etherType_V_load' <Predicate = true> <Delay = 0.00>
ST_1 : Operation 6 [1/1] (0.00ns)   --->   "br i1 %rep_fsmState_V_load, label %6, label %0" [/home/paulrr2/Projects/ece527/babelsoc/fpga-network-stack/hls/ip_handler/ip_handler.cpp:83]   --->   Operation 6 'br' <Predicate = true> <Delay = 0.00>
ST_1 : Operation 7 [1/1] (0.00ns)   --->   "%tmp_1 = call i1 @_ssdm_op_NbReadReq.ap_fifo.i16P(i16* @etherTypeFifo_V_V, i32 1)" [/home/paulrr2/Projects/ece527/babelsoc/fpga-network-stack/hls/ip_handler/ip_handler.cpp:86]   --->   Operation 7 'nbreadreq' 'tmp_1' <Predicate = (!rep_fsmState_V_load)> <Delay = 0.00> <Core = "FIFO">   --->   Core 32 'FIFO' <Latency = 0> <II = 1> <Delay = 3.63> <Storage> <Opcode : 'read' 'write' 'nbread' 'nbwrite'> <Ports = 0> <Width = 64> <Depth = 2> <FIFO>
ST_1 : Operation 8 [1/1] (0.00ns)   --->   "br i1 %tmp_1, label %1, label %._crit_edge3.i" [/home/paulrr2/Projects/ece527/babelsoc/fpga-network-stack/hls/ip_handler/ip_handler.cpp:86]   --->   Operation 8 'br' <Predicate = (!rep_fsmState_V_load)> <Delay = 0.00>
ST_1 : Operation 9 [1/1] (0.00ns)   --->   "%tmp_2 = call i1 @_ssdm_op_NbReadReq.ap_fifo.i64P.i8P.i1P(i64* @ethDataFifo_V_data_V, i8* @ethDataFifo_V_keep_V, i1* @ethDataFifo_V_last_V, i32 1)" [/home/paulrr2/Projects/ece527/babelsoc/fpga-network-stack/hls/ip_handler/ip_handler.cpp:86]   --->   Operation 9 'nbreadreq' 'tmp_2' <Predicate = (!rep_fsmState_V_load & tmp_1)> <Delay = 0.00> <Core = "FIFO">   --->   Core 32 'FIFO' <Latency = 0> <II = 1> <Delay = 3.63> <Storage> <Opcode : 'read' 'write' 'nbread' 'nbwrite'> <Ports = 0> <Width = 64> <Depth = 2> <FIFO>
ST_1 : Operation 10 [1/1] (2.80ns)   --->   "%tmp_V = call i16 @_ssdm_op_Read.ap_fifo.volatile.i16P(i16* @etherTypeFifo_V_V)" [/home/paulrr2/Projects/ece527/babelsoc/fpga-network-stack/hls/ip_handler/ip_handler.cpp:88]   --->   Operation 10 'read' 'tmp_V' <Predicate = (!rep_fsmState_V_load & tmp_1 & tmp_2)> <Delay = 2.80> <Core = "FIFO">   --->   Core 32 'FIFO' <Latency = 0> <II = 1> <Delay = 3.63> <Storage> <Opcode : 'read' 'write' 'nbread' 'nbwrite'> <Ports = 0> <Width = 64> <Depth = 2> <FIFO>
ST_1 : Operation 11 [1/1] (0.00ns)   --->   "store i16 %tmp_V, i16* @rep_etherType_V, align 2" [/home/paulrr2/Projects/ece527/babelsoc/fpga-network-stack/hls/ip_handler/ip_handler.cpp:88]   --->   Operation 11 'store' <Predicate = (!rep_fsmState_V_load & tmp_1 & tmp_2)> <Delay = 0.00>
ST_1 : Operation 12 [1/1] (2.80ns)   --->   "%empty = call { i64, i8, i1 } @_ssdm_op_Read.ap_fifo.volatile.i64P.i8P.i1P(i64* @ethDataFifo_V_data_V, i8* @ethDataFifo_V_keep_V, i1* @ethDataFifo_V_last_V)" [/home/paulrr2/Projects/ece527/babelsoc/fpga-network-stack/hls/ip_handler/ip_handler.cpp:89]   --->   Operation 12 'read' 'empty' <Predicate = (!rep_fsmState_V_load & tmp_1 & tmp_2)> <Delay = 2.80> <Core = "FIFO">   --->   Core 32 'FIFO' <Latency = 0> <II = 1> <Delay = 3.63> <Storage> <Opcode : 'read' 'write' 'nbread' 'nbwrite'> <Ports = 0> <Width = 64> <Depth = 2> <FIFO>
ST_1 : Operation 13 [1/1] (0.00ns)   --->   "%tmp_data_V_4 = extractvalue { i64, i8, i1 } %empty, 0" [/home/paulrr2/Projects/ece527/babelsoc/fpga-network-stack/hls/ip_handler/ip_handler.cpp:89]   --->   Operation 13 'extractvalue' 'tmp_data_V_4' <Predicate = (!rep_fsmState_V_load & tmp_1 & tmp_2)> <Delay = 0.00>
ST_1 : Operation 14 [1/1] (0.00ns)   --->   "%tmp_keep_V_4 = extractvalue { i64, i8, i1 } %empty, 1" [/home/paulrr2/Projects/ece527/babelsoc/fpga-network-stack/hls/ip_handler/ip_handler.cpp:89]   --->   Operation 14 'extractvalue' 'tmp_keep_V_4' <Predicate = (!rep_fsmState_V_load & tmp_1 & tmp_2)> <Delay = 0.00>
ST_1 : Operation 15 [1/1] (0.00ns)   --->   "%tmp_last_V_2 = extractvalue { i64, i8, i1 } %empty, 2" [/home/paulrr2/Projects/ece527/babelsoc/fpga-network-stack/hls/ip_handler/ip_handler.cpp:89]   --->   Operation 15 'extractvalue' 'tmp_last_V_2' <Predicate = (!rep_fsmState_V_load & tmp_1 & tmp_2)> <Delay = 0.00>
ST_1 : Operation 16 [1/1] (2.42ns)   --->   "%icmp_ln879_2 = icmp eq i16 %tmp_V, 2054" [/home/paulrr2/Projects/ece527/babelsoc/fpga-network-stack/hls/ip_handler/ip_handler.cpp:90]   --->   Operation 16 'icmp' 'icmp_ln879_2' <Predicate = (!rep_fsmState_V_load & tmp_1 & tmp_2)> <Delay = 2.42> <Core = "Cmp">   --->   Core 25 'Cmp' <Latency = 0> <II = 1> <Delay = 2.42> <FuncUnit> <Opcode : 'icmp'> <InPorts = 2> <OutPorts = 1>
ST_1 : Operation 17 [1/1] (0.00ns)   --->   "br i1 %icmp_ln879_2, label %3, label %4" [/home/paulrr2/Projects/ece527/babelsoc/fpga-network-stack/hls/ip_handler/ip_handler.cpp:90]   --->   Operation 17 'br' <Predicate = (!rep_fsmState_V_load & tmp_1 & tmp_2)> <Delay = 0.00>
ST_1 : Operation 18 [1/1] (1.76ns)   --->   "store i1 true, i1* @rep_fsmState_V, align 1" [/home/paulrr2/Projects/ece527/babelsoc/fpga-network-stack/hls/ip_handler/ip_handler.cpp:104]   --->   Operation 18 'store' <Predicate = (!rep_fsmState_V_load & tmp_1 & tmp_2 & !tmp_last_V_2)> <Delay = 1.76>
ST_1 : Operation 19 [1/1] (0.00ns)   --->   "%tmp = call i1 @_ssdm_op_NbReadReq.ap_fifo.i64P.i8P.i1P(i64* @ethDataFifo_V_data_V, i8* @ethDataFifo_V_keep_V, i1* @ethDataFifo_V_last_V, i32 1)" [/home/paulrr2/Projects/ece527/babelsoc/fpga-network-stack/hls/ip_handler/ip_handler.cpp:109]   --->   Operation 19 'nbreadreq' 'tmp' <Predicate = (rep_fsmState_V_load)> <Delay = 0.00> <Core = "FIFO">   --->   Core 32 'FIFO' <Latency = 0> <II = 1> <Delay = 3.63> <Storage> <Opcode : 'read' 'write' 'nbread' 'nbwrite'> <Ports = 0> <Width = 64> <Depth = 2> <FIFO>
ST_1 : Operation 20 [1/1] (2.80ns)   --->   "%empty_23 = call { i64, i8, i1 } @_ssdm_op_Read.ap_fifo.volatile.i64P.i8P.i1P(i64* @ethDataFifo_V_data_V, i8* @ethDataFifo_V_keep_V, i1* @ethDataFifo_V_last_V)" [/home/paulrr2/Projects/ece527/babelsoc/fpga-network-stack/hls/ip_handler/ip_handler.cpp:111]   --->   Operation 20 'read' 'empty_23' <Predicate = (rep_fsmState_V_load & tmp)> <Delay = 2.80> <Core = "FIFO">   --->   Core 32 'FIFO' <Latency = 0> <II = 1> <Delay = 3.63> <Storage> <Opcode : 'read' 'write' 'nbread' 'nbwrite'> <Ports = 0> <Width = 64> <Depth = 2> <FIFO>
ST_1 : Operation 21 [1/1] (0.00ns)   --->   "%tmp_data_V = extractvalue { i64, i8, i1 } %empty_23, 0" [/home/paulrr2/Projects/ece527/babelsoc/fpga-network-stack/hls/ip_handler/ip_handler.cpp:111]   --->   Operation 21 'extractvalue' 'tmp_data_V' <Predicate = (rep_fsmState_V_load & tmp)> <Delay = 0.00>
ST_1 : Operation 22 [1/1] (0.00ns)   --->   "%tmp_keep_V = extractvalue { i64, i8, i1 } %empty_23, 1" [/home/paulrr2/Projects/ece527/babelsoc/fpga-network-stack/hls/ip_handler/ip_handler.cpp:111]   --->   Operation 22 'extractvalue' 'tmp_keep_V' <Predicate = (rep_fsmState_V_load & tmp)> <Delay = 0.00>
ST_1 : Operation 23 [1/1] (0.00ns)   --->   "%tmp_last_V = extractvalue { i64, i8, i1 } %empty_23, 2" [/home/paulrr2/Projects/ece527/babelsoc/fpga-network-stack/hls/ip_handler/ip_handler.cpp:111]   --->   Operation 23 'extractvalue' 'tmp_last_V' <Predicate = (rep_fsmState_V_load & tmp)> <Delay = 0.00>
ST_1 : Operation 24 [1/1] (2.42ns)   --->   "%icmp_ln879 = icmp eq i16 %rep_etherType_V_load, 2054" [/home/paulrr2/Projects/ece527/babelsoc/fpga-network-stack/hls/ip_handler/ip_handler.cpp:112]   --->   Operation 24 'icmp' 'icmp_ln879' <Predicate = (rep_fsmState_V_load & tmp)> <Delay = 2.42> <Core = "Cmp">   --->   Core 25 'Cmp' <Latency = 0> <II = 1> <Delay = 2.42> <FuncUnit> <Opcode : 'icmp'> <InPorts = 2> <OutPorts = 1>
ST_1 : Operation 25 [1/1] (0.00ns)   --->   "br i1 %icmp_ln879, label %8, label %9" [/home/paulrr2/Projects/ece527/babelsoc/fpga-network-stack/hls/ip_handler/ip_handler.cpp:112]   --->   Operation 25 'br' <Predicate = (rep_fsmState_V_load & tmp)> <Delay = 0.00>
ST_1 : Operation 26 [1/1] (2.42ns)   --->   "%icmp_ln879_1 = icmp eq i16 %rep_etherType_V_load, 2048" [/home/paulrr2/Projects/ece527/babelsoc/fpga-network-stack/hls/ip_handler/ip_handler.cpp:116]   --->   Operation 26 'icmp' 'icmp_ln879_1' <Predicate = (rep_fsmState_V_load & tmp & !icmp_ln879)> <Delay = 2.42> <Core = "Cmp">   --->   Core 25 'Cmp' <Latency = 0> <II = 1> <Delay = 2.42> <FuncUnit> <Opcode : 'icmp'> <InPorts = 2> <OutPorts = 1>
ST_1 : Operation 27 [1/1] (0.00ns)   --->   "br i1 %icmp_ln879_1, label %10, label %11" [/home/paulrr2/Projects/ece527/babelsoc/fpga-network-stack/hls/ip_handler/ip_handler.cpp:116]   --->   Operation 27 'br' <Predicate = (rep_fsmState_V_load & tmp & !icmp_ln879)> <Delay = 0.00>
ST_1 : Operation 28 [1/1] (2.42ns)   --->   "%icmp_ln879_3 = icmp eq i16 %rep_etherType_V_load, -31011" [/home/paulrr2/Projects/ece527/babelsoc/fpga-network-stack/hls/ip_handler/ip_handler.cpp:120]   --->   Operation 28 'icmp' 'icmp_ln879_3' <Predicate = (rep_fsmState_V_load & tmp & !icmp_ln879 & !icmp_ln879_1)> <Delay = 2.42> <Core = "Cmp">   --->   Core 25 'Cmp' <Latency = 0> <II = 1> <Delay = 2.42> <FuncUnit> <Opcode : 'icmp'> <InPorts = 2> <OutPorts = 1>
ST_1 : Operation 29 [1/1] (0.00ns)   --->   "br i1 %icmp_ln879_3, label %12, label %._crit_edge7.i" [/home/paulrr2/Projects/ece527/babelsoc/fpga-network-stack/hls/ip_handler/ip_handler.cpp:120]   --->   Operation 29 'br' <Predicate = (rep_fsmState_V_load & tmp & !icmp_ln879 & !icmp_ln879_1)> <Delay = 0.00>
ST_1 : Operation 30 [1/1] (1.76ns)   --->   "store i1 false, i1* @rep_fsmState_V, align 1" [/home/paulrr2/Projects/ece527/babelsoc/fpga-network-stack/hls/ip_handler/ip_handler.cpp:127]   --->   Operation 30 'store' <Predicate = (rep_fsmState_V_load & tmp & tmp_last_V)> <Delay = 1.76>

State 2 <SV = 1> <Delay = 2.80>
ST_2 : Operation 31 [1/1] (0.00ns)   --->   "br i1 %tmp_2, label %2, label %._crit_edge3.i" [/home/paulrr2/Projects/ece527/babelsoc/fpga-network-stack/hls/ip_handler/ip_handler.cpp:86]   --->   Operation 31 'br' <Predicate = (!rep_fsmState_V_load & tmp_1)> <Delay = 0.00>
ST_2 : Operation 32 [2/2] (0.00ns)   --->   "call void @_ssdm_op_Write.axis.volatile.i64P.i8P.i1P(i64* %ARPdataOut_V_data_V, i8* %ARPdataOut_V_keep_V, i1* %ARPdataOut_V_last_V, i64 %tmp_data_V_4, i8 %tmp_keep_V_4, i1 %tmp_last_V_2)" [/home/paulrr2/Projects/ece527/babelsoc/fpga-network-stack/hls/ip_handler/ip_handler.cpp:92]   --->   Operation 32 'write' <Predicate = (!rep_fsmState_V_load & tmp_1 & tmp_2 & icmp_ln879_2)> <Delay = 0.00> <Core = "AXI4Stream">   --->   Core 5 'AXI4Stream' <Latency = 0> <II = 1> <Delay = 1.00> <Adapter> <Opcode : >
ST_2 : Operation 33 [1/1] (0.00ns)   --->   "br i1 %tmp_last_V_2, label %._crit_edge5.i, label %5" [/home/paulrr2/Projects/ece527/babelsoc/fpga-network-stack/hls/ip_handler/ip_handler.cpp:102]   --->   Operation 33 'br' <Predicate = (!rep_fsmState_V_load & tmp_1 & tmp_2)> <Delay = 0.00>
ST_2 : Operation 34 [1/1] (0.00ns)   --->   "br i1 %tmp, label %7, label %._crit_edge6.i" [/home/paulrr2/Projects/ece527/babelsoc/fpga-network-stack/hls/ip_handler/ip_handler.cpp:109]   --->   Operation 34 'br' <Predicate = (rep_fsmState_V_load)> <Delay = 0.00>
ST_2 : Operation 35 [1/1] (2.80ns)   --->   "call void @_ssdm_op_Write.ap_fifo.volatile.i64P.i8P.i1P(i64* @ipv6ShiftFifo_V_data, i8* @ipv6ShiftFifo_V_keep, i1* @ipv6ShiftFifo_V_last, i64 %tmp_data_V, i8 %tmp_keep_V, i1 %tmp_last_V)" [/home/paulrr2/Projects/ece527/babelsoc/fpga-network-stack/hls/ip_handler/ip_handler.cpp:122]   --->   Operation 35 'write' <Predicate = (rep_fsmState_V_load & tmp & !icmp_ln879 & !icmp_ln879_1 & icmp_ln879_3)> <Delay = 2.80> <Core = "FIFO">   --->   Core 32 'FIFO' <Latency = 0> <II = 1> <Delay = 3.63> <Storage> <Opcode : 'read' 'write' 'nbread' 'nbwrite'> <Ports = 0> <Width = 64> <Depth = 2> <FIFO>
ST_2 : Operation 36 [1/1] (2.80ns)   --->   "call void @_ssdm_op_Write.ap_fifo.volatile.i64P.i8P.i1P(i64* @ipv4ShiftFifo_V_data, i8* @ipv4ShiftFifo_V_keep, i1* @ipv4ShiftFifo_V_last, i64 %tmp_data_V, i8 %tmp_keep_V, i1 %tmp_last_V)" [/home/paulrr2/Projects/ece527/babelsoc/fpga-network-stack/hls/ip_handler/ip_handler.cpp:118]   --->   Operation 36 'write' <Predicate = (rep_fsmState_V_load & tmp & !icmp_ln879 & icmp_ln879_1)> <Delay = 2.80> <Core = "FIFO">   --->   Core 32 'FIFO' <Latency = 0> <II = 1> <Delay = 3.63> <Storage> <Opcode : 'read' 'write' 'nbread' 'nbwrite'> <Ports = 0> <Width = 64> <Depth = 2> <FIFO>
ST_2 : Operation 37 [2/2] (0.00ns)   --->   "call void @_ssdm_op_Write.axis.volatile.i64P.i8P.i1P(i64* %ARPdataOut_V_data_V, i8* %ARPdataOut_V_keep_V, i1* %ARPdataOut_V_last_V, i64 %tmp_data_V, i8 %tmp_keep_V, i1 %tmp_last_V)" [/home/paulrr2/Projects/ece527/babelsoc/fpga-network-stack/hls/ip_handler/ip_handler.cpp:114]   --->   Operation 37 'write' <Predicate = (rep_fsmState_V_load & tmp & icmp_ln879)> <Delay = 0.00> <Core = "AXI4Stream">   --->   Core 5 'AXI4Stream' <Latency = 0> <II = 1> <Delay = 1.00> <Adapter> <Opcode : >
ST_2 : Operation 38 [1/1] (0.00ns)   --->   "br i1 %tmp_last_V, label %15, label %._crit_edge8.i" [/home/paulrr2/Projects/ece527/babelsoc/fpga-network-stack/hls/ip_handler/ip_handler.cpp:125]   --->   Operation 38 'br' <Predicate = (rep_fsmState_V_load & tmp)> <Delay = 0.00>

State 3 <SV = 2> <Delay = 0.00>
ST_3 : Operation 39 [1/1] (0.00ns)   --->   "call void (...)* @_ssdm_op_SpecInterface(i64* @ethDataFifo_V_data_V, [8 x i8]* @ap_fifo_str, i32 0, i32 0, [1 x i8]* @p_str, i32 0, i32 0, [1 x i8]* @p_str, [1 x i8]* @p_str, [1 x i8]* @p_str, i32 2, i32 2, i32 16, i32 16, [1 x i8]* @p_str, [1 x i8]* @p_str)"   --->   Operation 39 'specinterface' <Predicate = true> <Delay = 0.00>
ST_3 : Operation 40 [1/1] (0.00ns)   --->   "call void (...)* @_ssdm_op_SpecInterface(i8* @ethDataFifo_V_keep_V, [8 x i8]* @ap_fifo_str, i32 0, i32 0, [1 x i8]* @p_str, i32 0, i32 0, [1 x i8]* @p_str, [1 x i8]* @p_str, [1 x i8]* @p_str, i32 2, i32 2, i32 16, i32 16, [1 x i8]* @p_str, [1 x i8]* @p_str)"   --->   Operation 40 'specinterface' <Predicate = true> <Delay = 0.00>
ST_3 : Operation 41 [1/1] (0.00ns)   --->   "call void (...)* @_ssdm_op_SpecInterface(i1* @ethDataFifo_V_last_V, [8 x i8]* @ap_fifo_str, i32 0, i32 0, [1 x i8]* @p_str, i32 0, i32 0, [1 x i8]* @p_str, [1 x i8]* @p_str, [1 x i8]* @p_str, i32 2, i32 2, i32 16, i32 16, [1 x i8]* @p_str, [1 x i8]* @p_str)"   --->   Operation 41 'specinterface' <Predicate = true> <Delay = 0.00>
ST_3 : Operation 42 [1/1] (0.00ns)   --->   "call void (...)* @_ssdm_op_SpecInterface(i16* @etherTypeFifo_V_V, [8 x i8]* @ap_fifo_str, i32 0, i32 0, [1 x i8]* @p_str, i32 0, i32 0, [1 x i8]* @p_str, [1 x i8]* @p_str, [1 x i8]* @p_str, i32 2, i32 2, i32 16, i32 16, [1 x i8]* @p_str, [1 x i8]* @p_str)"   --->   Operation 42 'specinterface' <Predicate = true> <Delay = 0.00>
ST_3 : Operation 43 [1/1] (0.00ns)   --->   "call void (...)* @_ssdm_op_SpecInterface(i64* @ipv4ShiftFifo_V_data, [8 x i8]* @ap_fifo_str, i32 0, i32 0, [1 x i8]* @p_str, i32 0, i32 0, [1 x i8]* @p_str, [1 x i8]* @p_str, [1 x i8]* @p_str, i32 2, i32 2, i32 16, i32 16, [1 x i8]* @p_str, [1 x i8]* @p_str)"   --->   Operation 43 'specinterface' <Predicate = true> <Delay = 0.00>
ST_3 : Operation 44 [1/1] (0.00ns)   --->   "call void (...)* @_ssdm_op_SpecInterface(i8* @ipv4ShiftFifo_V_keep, [8 x i8]* @ap_fifo_str, i32 0, i32 0, [1 x i8]* @p_str, i32 0, i32 0, [1 x i8]* @p_str, [1 x i8]* @p_str, [1 x i8]* @p_str, i32 2, i32 2, i32 16, i32 16, [1 x i8]* @p_str, [1 x i8]* @p_str)"   --->   Operation 44 'specinterface' <Predicate = true> <Delay = 0.00>
ST_3 : Operation 45 [1/1] (0.00ns)   --->   "call void (...)* @_ssdm_op_SpecInterface(i1* @ipv4ShiftFifo_V_last, [8 x i8]* @ap_fifo_str, i32 0, i32 0, [1 x i8]* @p_str, i32 0, i32 0, [1 x i8]* @p_str, [1 x i8]* @p_str, [1 x i8]* @p_str, i32 2, i32 2, i32 16, i32 16, [1 x i8]* @p_str, [1 x i8]* @p_str)"   --->   Operation 45 'specinterface' <Predicate = true> <Delay = 0.00>
ST_3 : Operation 46 [1/1] (0.00ns)   --->   "call void (...)* @_ssdm_op_SpecInterface(i64* @ipv6ShiftFifo_V_data, [8 x i8]* @ap_fifo_str, i32 0, i32 0, [1 x i8]* @p_str, i32 0, i32 0, [1 x i8]* @p_str, [1 x i8]* @p_str, [1 x i8]* @p_str, i32 2, i32 2, i32 16, i32 16, [1 x i8]* @p_str, [1 x i8]* @p_str)"   --->   Operation 46 'specinterface' <Predicate = true> <Delay = 0.00>
ST_3 : Operation 47 [1/1] (0.00ns)   --->   "call void (...)* @_ssdm_op_SpecInterface(i8* @ipv6ShiftFifo_V_keep, [8 x i8]* @ap_fifo_str, i32 0, i32 0, [1 x i8]* @p_str, i32 0, i32 0, [1 x i8]* @p_str, [1 x i8]* @p_str, [1 x i8]* @p_str, i32 2, i32 2, i32 16, i32 16, [1 x i8]* @p_str, [1 x i8]* @p_str)"   --->   Operation 47 'specinterface' <Predicate = true> <Delay = 0.00>
ST_3 : Operation 48 [1/1] (0.00ns)   --->   "call void (...)* @_ssdm_op_SpecInterface(i1* @ipv6ShiftFifo_V_last, [8 x i8]* @ap_fifo_str, i32 0, i32 0, [1 x i8]* @p_str, i32 0, i32 0, [1 x i8]* @p_str, [1 x i8]* @p_str, [1 x i8]* @p_str, i32 2, i32 2, i32 16, i32 16, [1 x i8]* @p_str, [1 x i8]* @p_str)"   --->   Operation 48 'specinterface' <Predicate = true> <Delay = 0.00>
ST_3 : Operation 49 [1/1] (0.00ns)   --->   "call void (...)* @_ssdm_op_SpecInterface(i64* %ARPdataOut_V_data_V, i8* %ARPdataOut_V_keep_V, i1* %ARPdataOut_V_last_V, [5 x i8]* @p_str4, i32 1, i32 1, [5 x i8]* @p_str5, i32 0, i32 0, [1 x i8]* @p_str2, [1 x i8]* @p_str2, [1 x i8]* @p_str2, i32 0, i32 0, i32 0, i32 0, [1 x i8]* @p_str2, [1 x i8]* @p_str2) nounwind"   --->   Operation 49 'specinterface' <Predicate = true> <Delay = 0.00>
ST_3 : Operation 50 [1/1] (0.00ns)   --->   "call void (...)* @_ssdm_op_SpecPipeline(i32 1, i32 1, i32 1, i32 0, [1 x i8]* @p_str2) nounwind" [/home/paulrr2/Projects/ece527/babelsoc/fpga-network-stack/hls/ip_handler/ip_handler.cpp:77]   --->   Operation 50 'specpipeline' <Predicate = true> <Delay = 0.00>
ST_3 : Operation 51 [1/2] (0.00ns)   --->   "call void @_ssdm_op_Write.axis.volatile.i64P.i8P.i1P(i64* %ARPdataOut_V_data_V, i8* %ARPdataOut_V_keep_V, i1* %ARPdataOut_V_last_V, i64 %tmp_data_V_4, i8 %tmp_keep_V_4, i1 %tmp_last_V_2)" [/home/paulrr2/Projects/ece527/babelsoc/fpga-network-stack/hls/ip_handler/ip_handler.cpp:92]   --->   Operation 51 'write' <Predicate = (!rep_fsmState_V_load & tmp_1 & tmp_2 & icmp_ln879_2)> <Delay = 0.00> <Core = "AXI4Stream">   --->   Core 5 'AXI4Stream' <Latency = 0> <II = 1> <Delay = 1.00> <Adapter> <Opcode : >
ST_3 : Operation 52 [1/1] (0.00ns)   --->   "br label %4" [/home/paulrr2/Projects/ece527/babelsoc/fpga-network-stack/hls/ip_handler/ip_handler.cpp:93]   --->   Operation 52 'br' <Predicate = (!rep_fsmState_V_load & tmp_1 & tmp_2 & icmp_ln879_2)> <Delay = 0.00>
ST_3 : Operation 53 [1/1] (0.00ns)   --->   "br label %._crit_edge5.i" [/home/paulrr2/Projects/ece527/babelsoc/fpga-network-stack/hls/ip_handler/ip_handler.cpp:105]   --->   Operation 53 'br' <Predicate = (!rep_fsmState_V_load & tmp_1 & tmp_2 & !tmp_last_V_2)> <Delay = 0.00>
ST_3 : Operation 54 [1/1] (0.00ns)   --->   "br label %._crit_edge3.i" [/home/paulrr2/Projects/ece527/babelsoc/fpga-network-stack/hls/ip_handler/ip_handler.cpp:106]   --->   Operation 54 'br' <Predicate = (!rep_fsmState_V_load & tmp_1 & tmp_2)> <Delay = 0.00>
ST_3 : Operation 55 [1/1] (0.00ns)   --->   "br label %"route_by_eth_protocol<64>.exit"" [/home/paulrr2/Projects/ece527/babelsoc/fpga-network-stack/hls/ip_handler/ip_handler.cpp:107]   --->   Operation 55 'br' <Predicate = (!rep_fsmState_V_load)> <Delay = 0.00>
ST_3 : Operation 56 [1/1] (0.00ns)   --->   "br label %._crit_edge7.i" [/home/paulrr2/Projects/ece527/babelsoc/fpga-network-stack/hls/ip_handler/ip_handler.cpp:123]   --->   Operation 56 'br' <Predicate = (rep_fsmState_V_load & tmp & !icmp_ln879 & !icmp_ln879_1 & icmp_ln879_3)> <Delay = 0.00>
ST_3 : Operation 57 [1/1] (0.00ns)   --->   "br label %13"   --->   Operation 57 'br' <Predicate = (rep_fsmState_V_load & tmp & !icmp_ln879 & !icmp_ln879_1)> <Delay = 0.00>
ST_3 : Operation 58 [1/1] (0.00ns)   --->   "br label %13" [/home/paulrr2/Projects/ece527/babelsoc/fpga-network-stack/hls/ip_handler/ip_handler.cpp:119]   --->   Operation 58 'br' <Predicate = (rep_fsmState_V_load & tmp & !icmp_ln879 & icmp_ln879_1)> <Delay = 0.00>
ST_3 : Operation 59 [1/1] (0.00ns)   --->   "br label %14"   --->   Operation 59 'br' <Predicate = (rep_fsmState_V_load & tmp & !icmp_ln879)> <Delay = 0.00>
ST_3 : Operation 60 [1/2] (0.00ns)   --->   "call void @_ssdm_op_Write.axis.volatile.i64P.i8P.i1P(i64* %ARPdataOut_V_data_V, i8* %ARPdataOut_V_keep_V, i1* %ARPdataOut_V_last_V, i64 %tmp_data_V, i8 %tmp_keep_V, i1 %tmp_last_V)" [/home/paulrr2/Projects/ece527/babelsoc/fpga-network-stack/hls/ip_handler/ip_handler.cpp:114]   --->   Operation 60 'write' <Predicate = (rep_fsmState_V_load & tmp & icmp_ln879)> <Delay = 0.00> <Core = "AXI4Stream">   --->   Core 5 'AXI4Stream' <Latency = 0> <II = 1> <Delay = 1.00> <Adapter> <Opcode : >
ST_3 : Operation 61 [1/1] (0.00ns)   --->   "br label %14" [/home/paulrr2/Projects/ece527/babelsoc/fpga-network-stack/hls/ip_handler/ip_handler.cpp:115]   --->   Operation 61 'br' <Predicate = (rep_fsmState_V_load & tmp & icmp_ln879)> <Delay = 0.00>
ST_3 : Operation 62 [1/1] (0.00ns)   --->   "br label %._crit_edge8.i" [/home/paulrr2/Projects/ece527/babelsoc/fpga-network-stack/hls/ip_handler/ip_handler.cpp:128]   --->   Operation 62 'br' <Predicate = (rep_fsmState_V_load & tmp & tmp_last_V)> <Delay = 0.00>
ST_3 : Operation 63 [1/1] (0.00ns)   --->   "br label %._crit_edge6.i" [/home/paulrr2/Projects/ece527/babelsoc/fpga-network-stack/hls/ip_handler/ip_handler.cpp:129]   --->   Operation 63 'br' <Predicate = (rep_fsmState_V_load & tmp)> <Delay = 0.00>
ST_3 : Operation 64 [1/1] (0.00ns)   --->   "br label %"route_by_eth_protocol<64>.exit"" [/home/paulrr2/Projects/ece527/babelsoc/fpga-network-stack/hls/ip_handler/ip_handler.cpp:130]   --->   Operation 64 'br' <Predicate = (rep_fsmState_V_load)> <Delay = 0.00>
ST_3 : Operation 65 [1/1] (0.00ns)   --->   "ret void"   --->   Operation 65 'ret' <Predicate = true> <Delay = 0.00>


============================================================
+ Verbose Summary: Timing violations
============================================================
Target clock period: 6.4ns, clock uncertainty: 0.8ns.

 <State 1>: 5.23ns
The critical path consists of the following:
	fifo read on port 'etherTypeFifo_V_V' (/home/paulrr2/Projects/ece527/babelsoc/fpga-network-stack/hls/ip_handler/ip_handler.cpp:88) [38]  (2.8 ns)
	'icmp' operation ('icmp_ln879_2', /home/paulrr2/Projects/ece527/babelsoc/fpga-network-stack/hls/ip_handler/ip_handler.cpp:90) [44]  (2.43 ns)

 <State 2>: 2.8ns
The critical path consists of the following:
	fifo write on port 'ipv6ShiftFifo_V_data' (/home/paulrr2/Projects/ece527/babelsoc/fpga-network-stack/hls/ip_handler/ip_handler.cpp:122) [75]  (2.8 ns)

 <State 3>: 0ns
The critical path consists of the following:


============================================================
+ Verbose Summary: Binding
============================================================
N/A
* FSMD analyzer results:
  - Output states:
 - Input state : 
  - Chain level:
	State 1
	State 2
	State 3


============================================================
+ Verbose Summary: Datapath Resource usage 
============================================================
N/A
