

================================================================
== Vivado HLS Report for 'route_by_eth_protoco'
================================================================
* Date:           Fri Dec 18 10:37:41 2020

* Version:        2019.1 (Build 2552052 on Fri May 24 15:28:33 MDT 2019)
* Project:        ip_handler_prj
* Solution:       solution1
* Product family: zynq
* Target device:  xc7z020-clg400-1


================================================================
== Performance Estimates
================================================================
+ Timing (ns): 
    * Summary: 
    +--------+-------+----------+------------+
    |  Clock | Target| Estimated| Uncertainty|
    +--------+-------+----------+------------+
    |ap_clk  |   6.40|     5.229|        0.80|
    +--------+-------+----------+------------+

+ Latency (clock cycles): 
    * Summary: 
    +-----+-----+-----+-----+----------+
    |  Latency  |  Interval | Pipeline |
    | min | max | min | max |   Type   |
    +-----+-----+-----+-----+----------+
    |    2|    2|    1|    1| function |
    +-----+-----+-----+-----+----------+

    + Detail: 
        * Instance: 
        N/A

        * Loop: 
        N/A

============================================================
+ Verbose Summary: Synthesis Manager
============================================================
InlineROM: 1
ExposeGlobal: 0
============================================================
+ Verbose Summary: CDFG Model
============================================================
IsTopModel: 0
ResetActiveHigh: 1
IsCombinational: 2
IsDatapathOnly: 0
HasWiredReturn: 1
HasMFsm: 2
HasVarLatency: 0
IsPipeline: 1
IsRtlPipelined: 1
IsInstanceOverlapped: 0
IsDontTouch: 0
HasImplIP: 0
IsGatedGlobalClock: 0

+ Individual pipeline summary: 
  * Pipeline-0: initiation interval (II) = 1, depth = 3


============================================================
+ Verbose Summary: Schedule
============================================================
* Number of FSM states : 3
* Pipeline : 1
  Pipeline-0 : II = 1, D = 3, States = { 1 2 3 }
* Dataflow Pipeline: 0

* FSM state transitions: 
1 --> 2 
2 --> 3 
3 --> 

* FSM state operations: 

State 1 <SV = 0> <Delay = 5.22>
ST_1 : Operation 4 [1/1] (0.00ns)   --->   "%rep_fsmState_V_load = load i1* @rep_fsmState_V, align 1" [/home/paulrr2/Projects/ece527/babelsoc/fpga-network-stack/hls/ip_handler/ip_handler.cpp:83]   --->   Operation 4 'load' 'rep_fsmState_V_load' <Predicate = true> <Delay = 0.00>
ST_1 : Operation 5 [1/1] (0.00ns)   --->   "%rep_etherType_V_load = load i16* @rep_etherType_V, align 2" [/home/paulrr2/Projects/ece527/babelsoc/fpga-network-stack/hls/ip_handler/ip_handler.cpp:112]   --->   Operation 5 'load' 'rep_etherType_V_load' <Predicate = true> <Delay = 0.00>
ST_1 : Operation 6 [1/1] (0.00ns)   --->   "br i1 %rep_fsmState_V_load, label %6, label %0" [/home/paulrr2/Projects/ece527/babelsoc/fpga-network-stack/hls/ip_handler/ip_handler.cpp:83]   --->   Operation 6 'br' <Predicate = true> <Delay = 0.00>
ST_1 : Operation 7 [1/1] (0.00ns)   --->   "%tmp_1 = call i1 @_ssdm_op_NbReadReq.ap_fifo.i16P(i16* @etherTypeFifo_V_V, i32 1)" [/home/paulrr2/Projects/ece527/babelsoc/fpga-network-stack/hls/ip_handler/ip_handler.cpp:86]   --->   Operation 7 'nbreadreq' 'tmp_1' <Predicate = (!rep_fsmState_V_load)> <Delay = 0.00> <Core = "FIFO">   --->   Core 32 'FIFO' <Latency = 0> <II = 1> <Delay = 3.63> <Storage> <Opcode : 'read' 'write' 'nbread' 'nbwrite'> <Ports = 0> <Width = 64> <Depth = 2> <FIFO>
ST_1 : Operation 8 [1/1] (0.00ns)   --->   "br i1 %tmp_1, label %1, label %._crit_edge3.i" [/home/paulrr2/Projects/ece527/babelsoc/fpga-network-stack/hls/ip_handler/ip_handler.cpp:86]   --->   Operation 8 'br' <Predicate = (!rep_fsmState_V_load)> <Delay = 0.00>
ST_1 : Operation 9 [1/1] (0.00ns)   --->   "%tmp_2 = call i1 @_ssdm_op_NbReadReq.ap_fifo.i64P.i8P.i1P(i64* @ethDataFifo_V_data_V, i8* @ethDataFifo_V_keep_V, i1* @ethDataFifo_V_last_V, i32 1)" [/home/paulrr2/Projects/ece527/babelsoc/fpga-network-stack/hls/ip_handler/ip_handler.cpp:86]   --->   Operation 9 'nbreadreq' 'tmp_2' <Predicate = (!rep_fsmState_V_load & tmp_1)> <Delay = 0.00> <Core = "FIFO">   --->   Core 32 'FIFO' <Latency = 0> <II = 1> <Delay = 3.63> <Storage> <Opcode : 'read' 'write' 'nbread' 'nbwrite'> <Ports = 0> <Width = 64> <Depth = 2> <FIFO>
ST_1 : Operation 10 [1/1] (2.80ns)   --->   "%tmp_V = call i16 @_ssdm_op_Read.ap_fifo.volatile.i16P(i16* @etherTypeFifo_V_V)" [/home/paulrr2/Projects/ece527/babelsoc/fpga-network-stack/hls/ip_handler/ip_handler.cpp:88]   --->   Operation 10 'read' 'tmp_V' <Predicate = (!rep_fsmState_V_load & tmp_1 & tmp_2)> <Delay = 2.80> <Core = "FIFO">   --->   Core 32 'FIFO' <Latency = 0> <II = 1> <Delay = 3.63> <Storage> <Opcode : 'read' 'write' 'nbread' 'nbwrite'> <Ports = 0> <Width = 64> <Depth = 2> <FIFO>
ST_1 : Operation 11 [1/1] (0.00ns)   --->   "store i16 %tmp_V, i16* @rep_etherType_V, align 2" [/home/paulrr2/Projects/ece527/babelsoc/fpga-network-stack/hls/ip_handler/ip_handler.cpp:88]   --->   Operation 11 'store' <Predicate = (!rep_fsmState_V_load & tmp_1 & tmp_2)> <Delay = 0.00>
ST_1 : Operation 12 [1/1] (2.80ns)   --->   "%empty = call { i64, i8, i1 } @_ssdm_op_Read.ap_fifo.volatile.i64P.i8P.i1P(i64* @ethDataFifo_V_data_V, i8* @ethDataFifo_V_keep_V, i1* @ethDataFifo_V_last_V)" [/home/paulrr2/Projects/ece527/babelsoc/fpga-network-stack/hls/ip_handler/ip_handler.cpp:89]   --->   Operation 12 'read' 'empty' <Predicate = (!rep_fsmState_V_load & tmp_1 & tmp_2)> <Delay = 2.80> <Core = "FIFO">   --->   Core 32 'FIFO' <Latency = 0> <II = 1> <Delay = 3.63> <Storage> <Opcode : 'read' 'write' 'nbread' 'nbwrite'> <Ports = 0> <Width = 64> <Depth = 2> <FIFO>
ST_1 : Operation 13 [1/1] (0.00ns)   --->   "%tmp_data_V_4 = extractvalue { i64, i8, i1 } %empty, 0" [/home/paulrr2/Projects/ece527/babelsoc/fpga-network-stack/hls/ip_handler/ip_handler.cpp:89]   --->   Operation 13 'extractvalue' 'tmp_data_V_4' <Predicate = (!rep_fsmState_V_load & tmp_1 & tmp_2)> <Delay = 0.00>
ST_1 : Operation 14 [1/1] (0.00ns)   --->   "%tmp_keep_V_4 = extractvalue { i64, i8, i1 } %empty, 1" [/home/paulrr2/Projects/ece527/babelsoc/fpga-network-stack/hls/ip_handler/ip_handler.cpp:89]   --->   Operation 14 'extractvalue' 'tmp_keep_V_4' <Predicate = (!rep_fsmState_V_load & tmp_1 & tmp_2)> <Delay = 0.00>
ST_1 : Operation 15 [1/1] (0.00ns)   --->   "%tmp_last_V_2 = extractvalue { i64, i8, i1 } %empty, 2" [/home/paulrr2/Projects/ece527/babelsoc/fpga-network-stack/hls/ip_handler/ip_handler.cpp:89]   --->   Operation 15 'extractvalue' 'tmp_last_V_2' <Predicate = (!rep_fsmState_V_load & tmp_1 & tmp_2)> <Delay = 0.00>
ST_1 : Operation 16 [1/1] (2.42ns)   --->   "%icmp_ln879_2 = icmp eq i16 %tmp_V, 2054" [/home/paulrr2/Projects/ece527/babelsoc/fpga-network-stack/hls/ip_handler/ip_handler.cpp:90]   --->   Operation 16 'icmp' 'icmp_ln879_2' <Predicate = (!rep_fsmState_V_load & tmp_1 & tmp_2)> <Delay = 2.42> <Core = "Cmp">   --->   Core 25 'Cmp' <Latency = 0> <II = 1> <Delay = 2.42> <FuncUnit> <Opcode : 'icmp'> <InPorts = 2> <OutPorts = 1>
ST_1 : Operation 17 [1/1] (0.00ns)   --->   "br i1 %icmp_ln879_2, label %3, label %4" [/home/paulrr2/Projects/ece527/babelsoc/fpga-network-stack/hls/ip_handler/ip_handler.cpp:90]   --->   Operation 17 'br' <Predicate = (!rep_fsmState_V_load & tmp_1 & tmp_2)> <Delay = 0.00>
ST_1 : Operation 18 [1/1] (1.76ns)   --->   "store i1 true, i1* @rep_fsmState_V, align 1" [/home/paulrr2/Projects/ece527/babelsoc/fpga-network-stack/hls/ip_handler/ip_handler.cpp:104]   --->   Operation 18 'store' <Predicate = (!rep_fsmState_V_load & tmp_1 & tmp_2 & !tmp_last_V_2)> <Delay = 1.76>
ST_1 : Operation 19 [1/1] (0.00ns)   --->   "%tmp = call i1 @_ssdm_op_NbReadReq.ap_fifo.i64P.i8P.i1P(i64* @ethDataFifo_V_data_V, i8* @ethDataFifo_V_keep_V, i1* @ethDataFifo_V_last_V, i32 1)" [/home/paulrr2/Projects/ece527/babelsoc/fpga-network-stack/hls/ip_handler/ip_handler.cpp:109]   --->   Operation 19 'nbreadreq' 'tmp' <Predicate = (rep_fsmState_V_load)> <Delay = 0.00> <Core = "FIFO">   --->   Core 32 'FIFO' <Latency = 0> <II = 1> <Delay = 3.63> <Storage> <Opcode : 'read' 'write' 'nbread' 'nbwrite'> <Ports = 0> <Width = 64> <Depth = 2> <FIFO>
ST_1 : Operation 20 [1/1] (2.80ns)   --->   "%empty_23 = call { i64, i8, i1 } @_ssdm_op_Read.ap_fifo.volatile.i64P.i8P.i1P(i64* @ethDataFifo_V_data_V, i8* @ethDataFifo_V_keep_V, i1* @ethDataFifo_V_last_V)" [/home/paulrr2/Projects/ece527/babelsoc/fpga-network-stack/hls/ip_handler/ip_handler.cpp:111]   --->   Operation 20 'read' 'empty_23' <Predicate = (rep_fsmState_V_load & tmp)> <Delay = 2.80> <Core = "FIFO">   --->   Core 32 'FIFO' <Latency = 0> <II = 1> <Delay = 3.63> <Storage> <Opcode : 'read' 'write' 'nbread' 'nbwrite'> <Ports = 0> <Width = 64> <Depth = 2> <FIFO>
ST_1 : Operation 21 [1/1] (0.00ns)   --->   "%tmp_data_V = extractvalue { i64, i8, i1 } %empty_23, 0" [/home/paulrr2/Projects/ece527/babelsoc/fpga-network-stack/hls/ip_handler/ip_handler.cpp:111]   --->   Operation 21 'extractvalue' 'tmp_data_V' <Predicate = (rep_fsmState_V_load & tmp)> <Delay = 0.00>
ST_1 : Operation 22 [1/1] (0.00ns)   --->   "%tmp_keep_V = extractvalue { i64, i8, i1 } %empty_23, 1" [/home/paulrr2/Projects/ece527/babelsoc/fpga-network-stack/hls/ip_handler/ip_handler.cpp:111]   --->   Operation 22 'extractvalue' 'tmp_keep_V' <Predicate = (rep_fsmState_V_load & tmp)> <Delay = 0.00>
ST_1 : Operation 23 [1/1] (0.00ns)   --->   "%tmp_last_V = extractvalue { i64, i8, i1 } %empty_23, 2" [/home/paulrr2/Projects/ece527/babelsoc/fpga-network-stack/hls/ip_handler/ip_handler.cpp:111]   --->   Operation 23 'extractvalue' 'tmp_last_V' <Predicate = (rep_fsmState_V_load & tmp)> <Delay = 0.00>
ST_1 : Operation 24 [1/1] (2.42ns)   --->   "%icmp_ln879 = icmp eq i16 %rep_etherType_V_load, 2054" [/home/paulrr2/Projects/ece527/babelsoc/fpga-network-stack/hls/ip_handler/ip_handler.cpp:112]   --->   Operation 24 'icmp' 'icmp_ln879' <Predicate = (rep_fsmState_V_load & tmp)> <Delay = 2.42> <Core = "Cmp">   --->   Core 25 'Cmp' <Latency = 0> <II = 1> <Delay = 2.42> <FuncUnit> <Opcode : 'icmp'> <InPorts = 2> <OutPorts = 1>
ST_1 : Operation 25 [1/1] (0.00ns)   --->   "br i1 %icmp_ln879, label %8, label %9" [/home/paulrr2/Projects/ece527/babelsoc/fpga-network-stack/hls/ip_handler/ip_handler.cpp:112]   --->   Operation 25 'br' <Predicate = (rep_fsmState_V_load & tmp)> <Delay = 0.00>
ST_1 : Operation 26 [1/1] (2.42ns)   --->   "%icmp_ln879_1 = icmp eq i16 %rep_etherType_V_load, 2048" [/home/paulrr2/Projects/ece527/babelsoc/fpga-network-stack/hls/ip_handler/ip_handler.cpp:116]   --->   Operation 26 'icmp' 'icmp_ln879_1' <Predicate = (rep_fsmState_V_load & tmp & !icmp_ln879)> <Delay = 2.42> <Core = "Cmp">   --->   Core 25 'Cmp' <Latency = 0> <II = 1> <Delay = 2.42> <FuncUnit> <Opcode : 'icmp'> <InPorts = 2> <OutPorts = 1>
ST_1 : Operation 27 [1/1] (0.00ns)   --->   "br i1 %icmp_ln879_1, label %10, label %11" [/home/paulrr2/Projects/ece527/babelsoc/fpga-network-stack/hls/ip_handler/ip_handler.cpp:116]   --->   Operation 27 'br' <Predicate = (rep_fsmState_V_load & tmp & !icmp_ln879)> <Delay = 0.00>
ST_1 : Operation 28 [1/1] (2.42ns)   --->   "%icmp_ln879_3 = icmp eq i16 %rep_etherType_V_load, -31011" [/home/paulrr2/Projects/ece527/babelsoc/fpga-network-stack/hls/ip_handler/ip_handler.cpp:120]   --->   Operation 28 'icmp' 'icmp_ln879_3' <Predicate = (rep_fsmState_V_load & tmp & !icmp_ln879 & !icmp_ln879_1)> <Delay = 2.42> <Core = "Cmp">   --->   Core 25 'Cmp' <Latency = 0> <II = 1> <Delay = 2.42> <FuncUnit> <Opcode : 'icmp'> <InPorts = 2> <OutPorts = 1>
ST_1 : Operation 29 [1/1] (0.00ns)   --->   "br i1 %icmp_ln879_3, label %12, label %._crit_edge7.i" [/home/paulrr2/Projects/ece527/babelsoc/fpga-network-stack/hls/ip_handler/ip_handler.cpp:120]   --->   Operation 29 'br' <Predicate = (rep_fsmState_V_load & tmp & !icmp_ln879 & !icmp_ln879_1)> <Delay = 0.00>
ST_1 : Operation 30 [1/1] (1.76ns)   --->   "store i1 false, i1* @rep_fsmState_V, align 1" [/home/paulrr2/Projects/ece527/babelsoc/fpga-network-stack/hls/ip_handler/ip_handler.cpp:127]   --->   Operation 30 'store' <Predicate = (rep_fsmState_V_load & tmp & tmp_last_V)> <Delay = 1.76>

State 2 <SV = 1> <Delay = 2.80>
ST_2 : Operation 31 [1/1] (0.00ns)   --->   "br i1 %tmp_2, label %2, label %._crit_edge3.i" [/home/paulrr2/Projects/ece527/babelsoc/fpga-network-stack/hls/ip_handler/ip_handler.cpp:86]   --->   Operation 31 'br' <Predicate = (!rep_fsmState_V_load & tmp_1)> <Delay = 0.00>
ST_2 : Operation 32 [2/2] (0.00ns)   --->   "call void @_ssdm_op_Write.axis.volatile.i64P.i8P.i1P(i64* %ARPdataOut_V_data_V, i8* %ARPdataOut_V_keep_V, i1* %ARPdataOut_V_last_V, i64 %tmp_data_V_4, i8 %tmp_keep_V_4, i1 %tmp_last_V_2)" [/home/paulrr2/Projects/ece527/babelsoc/fpga-network-stack/hls/ip_handler/ip_handler.cpp:92]   --->   Operation 32 'write' <Predicate = (!rep_fsmState_V_load & tmp_1 & tmp_2 & icmp_ln879_2)> <Delay = 0.00> <Core = "AXI4Stream">   --->   Core 5 'AXI4Stream' <Latency = 0> <II = 1> <Delay = 1.00> <Adapter> <Opcode : >
ST_2 : Operation 33 [1/1] (0.00ns)   --->   "br i1 %tmp_last_V_2, label %._crit_edge5.i, label %5" [/home/paulrr2/Projects/ece527/babelsoc/fpga-network-stack/hls/ip_handler/ip_handler.cpp:102]   --->   Operation 33 'br' <Predicate = (!rep_fsmState_V_load & tmp_1 & tmp_2)> <Delay = 0.00>
ST_2 : Operation 34 [1/1] (0.00ns)   --->   "br i1 %tmp, label %7, label %._crit_edge6.i" [/home/paulrr2/Projects/ece527/babelsoc/fpga-network-stack/hls/ip_handler/ip_handler.cpp:109]   --->   Operation 34 'br' <Predicate = (rep_fsmState_V_load)> <Delay = 0.00>
ST_2 : Operation 35 [1/1] (2.80ns)   --->   "call void @_ssdm_op_Write.ap_fifo.volatile.i64P.i8P.i1P(i64* @ipv6ShiftFifo_V_data, i8* @ipv6ShiftFifo_V_keep, i1* @ipv6ShiftFifo_V_last, i64 %tmp_data_V, i8 %tmp_keep_V, i1 %tmp_last_V)" [/home/paulrr2/Projects/ece527/babelsoc/fpga-network-stack/hls/ip_handler/ip_handler.cpp:122]   --->   Operation 35 'write' <Predicate = (rep_fsmState_V_load & tmp & !icmp_ln879 & !icmp_ln879_1 & icmp_ln879_3)> <Delay = 2.80> <Core = "FIFO">   --->   Core 32 'FIFO' <Latency = 0> <II = 1> <Delay = 3.63> <Storage> <Opcode : 'read' 'write' 'nbread' 'nbwrite'> <Ports = 0> <Width = 64> <Depth = 2> <FIFO>
ST_2 : Operation 36 [1/1] (2.80ns)   --->   "call void @_ssdm_op_Write.ap_fifo.volatile.i64P.i8P.i1P(i64* @ipv4ShiftFifo_V_data, i8* @ipv4ShiftFifo_V_keep, i1* @ipv4ShiftFifo_V_last, i64 %tmp_data_V, i8 %tmp_keep_V, i1 %tmp_last_V)" [/home/paulrr2/Projects/ece527/babelsoc/fpga-network-stack/hls/ip_handler/ip_handler.cpp:118]   --->   Operation 36 'write' <Predicate = (rep_fsmState_V_load & tmp & !icmp_ln879 & icmp_ln879_1)> <Delay = 2.80> <Core = "FIFO">   --->   Core 32 'FIFO' <Latency = 0> <II = 1> <Delay = 3.63> <Storage> <Opcode : 'read' 'write' 'nbread' 'nbwrite'> <Ports = 0> <Width = 64> <Depth = 2> <FIFO>
ST_2 : Operation 37 [2/2] (0.00ns)   --->   "call void @_ssdm_op_Write.axis.volatile.i64P.i8P.i1P(i64* %ARPdataOut_V_data_V, i8* %ARPdataOut_V_keep_V, i1* %ARPdataOut_V_last_V, i64 %tmp_data_V, i8 %tmp_keep_V, i1 %tmp_last_V)" [/home/paulrr2/Projects/ece527/babelsoc/fpga-network-stack/hls/ip_handler/ip_handler.cpp:114]   --->   Operation 37 'write' <Predicate = (rep_fsmState_V_load & tmp & icmp_ln879)> <Delay = 0.00> <Core = "AXI4Stream">   --->   Core 5 'AXI4Stream' <Latency = 0> <II = 1> <Delay = 1.00> <Adapter> <Opcode : >
ST_2 : Operation 38 [1/1] (0.00ns)   --->   "br i1 %tmp_last_V, label %15, label %._crit_edge8.i" [/home/paulrr2/Projects/ece527/babelsoc/fpga-network-stack/hls/ip_handler/ip_handler.cpp:125]   --->   Operation 38 'br' <Predicate = (rep_fsmState_V_load & tmp)> <Delay = 0.00>

State 3 <SV = 2> <Delay = 0.00>
ST_3 : Operation 39 [1/1] (0.00ns)   --->   "call void (...)* @_ssdm_op_SpecInterface(i64* @ethDataFifo_V_data_V, [8 x i8]* @ap_fifo_str, i32 0, i32 0, [1 x i8]* @p_str, i32 0, i32 0, [1 x i8]* @p_str, [1 x i8]* @p_str, [1 x i8]* @p_str, i32 2, i32 2, i32 16, i32 16, [1 x i8]* @p_str, [1 x i8]* @p_str)"   --->   Operation 39 'specinterface' <Predicate = true> <Delay = 0.00>
ST_3 : Operation 40 [1/1] (0.00ns)   --->   "call void (...)* @_ssdm_op_SpecInterface(i8* @ethDataFifo_V_keep_V, [8 x i8]* @ap_fifo_str, i32 0, i32 0, [1 x i8]* @p_str, i32 0, i32 0, [1 x i8]* @p_str, [1 x i8]* @p_str, [1 x i8]* @p_str, i32 2, i32 2, i32 16, i32 16, [1 x i8]* @p_str, [1 x i8]* @p_str)"   --->   Operation 40 'specinterface' <Predicate = true> <Delay = 0.00>
ST_3 : Operation 41 [1/1] (0.00ns)   --->   "call void (...)* @_ssdm_op_SpecInterface(i1* @ethDataFifo_V_last_V, [8 x i8]* @ap_fifo_str, i32 0, i32 0, [1 x i8]* @p_str, i32 0, i32 0, [1 x i8]* @p_str, [1 x i8]* @p_str, [1 x i8]* @p_str, i32 2, i32 2, i32 16, i32 16, [1 x i8]* @p_str, [1 x i8]* @p_str)"   --->   Operation 41 'specinterface' <Predicate = true> <Delay = 0.00>
ST_3 : Operation 42 [1/1] (0.00ns)   --->   "call void (...)* @_ssdm_op_SpecInterface(i16* @etherTypeFifo_V_V, [8 x i8]* @ap_fifo_str, i32 0, i32 0, [1 x i8]* @p_str, i32 0, i32 0, [1 x i8]* @p_str, [1 x i8]* @p_str, [1 x i8]* @p_str, i32 2, i32 2, i32 16, i32 16, [1 x i8]* @p_str, [1 x i8]* @p_str)"   --->   Operation 42 'specinterface' <Predicate = true> <Delay = 0.00>
ST_3 : Operation 43 [1/1] (0.00ns)   --->   "call void (...)* @_ssdm_op_SpecInterface(i64* @ipv4ShiftFifo_V_data, [8 x i8]* @ap_fifo_str, i32 0, i32 0, [1 x i8]* @p_str, i32 0, i32 0, [1 x i8]* @p_str, [1 x i8]* @p_str, [1 x i8]* @p_str, i32 2, i32 2, i32 16, i32 16, [1 x i8]* @p_str, [1 x i8]* @p_str)"   --->   Operation 43 'specinterface' <Predicate = true> <Delay = 0.00>
ST_3 : Operation 44 [1/1] (0.00ns)   --->   "call void (...)* @_ssdm_op_SpecInterface(i8* @ipv4ShiftFifo_V_keep, [8 x i8]* @ap_fifo_str, i32 0, i32 0, [1 x i8]* @p_str, i32 0, i32 0, [1 x i8]* @p_str, [1 x i8]* @p_str, [1 x i8]* @p_str, i32 2, i32 2, i32 16, i32 16, [1 x i8]* @p_str, [1 x i8]* @p_str)"   --->   Operation 44 'specinterface' <Predicate = true> <Delay = 0.00>
ST_3 : Operation 45 [1/1] (0.00ns)   --->   "call void (...)* @_ssdm_op_SpecInterface(i1* @ipv4ShiftFifo_V_last, [8 x i8]* @ap_fifo_str, i32 0, i32 0, [1 x i8]* @p_str, i32 0, i32 0, [1 x i8]* @p_str, [1 x i8]* @p_str, [1 x i8]* @p_str, i32 2, i32 2, i32 16, i32 16, [1 x i8]* @p_str, [1 x i8]* @p_str)"   --->   Operation 45 'specinterface' <Predicate = true> <Delay = 0.00>
ST_3 : Operation 46 [1/1] (0.00ns)   --->   "call void (...)* @_ssdm_op_SpecInterface(i64* @ipv6ShiftFifo_V_data, [8 x i8]* @ap_fifo_str, i32 0, i32 0, [1 x i8]* @p_str, i32 0, i32 0, [1 x i8]* @p_str, [1 x i8]* @p_str, [1 x i8]* @p_str, i32 2, i32 2, i32 16, i32 16, [1 x i8]* @p_str, [1 x i8]* @p_str)"   --->   Operation 46 'specinterface' <Predicate = true> <Delay = 0.00>
ST_3 : Operation 47 [1/1] (0.00ns)   --->   "call void (...)* @_ssdm_op_SpecInterface(i8* @ipv6ShiftFifo_V_keep, [8 x i8]* @ap_fifo_str, i32 0, i32 0, [1 x i8]* @p_str, i32 0, i32 0, [1 x i8]* @p_str, [1 x i8]* @p_str, [1 x i8]* @p_str, i32 2, i32 2, i32 16, i32 16, [1 x i8]* @p_str, [1 x i8]* @p_str)"   --->   Operation 47 'specinterface' <Predicate = true> <Delay = 0.00>
ST_3 : Operation 48 [1/1] (0.00ns)   --->   "call void (...)* @_ssdm_op_SpecInterface(i1* @ipv6ShiftFifo_V_last, [8 x i8]* @ap_fifo_str, i32 0, i32 0, [1 x i8]* @p_str, i32 0, i32 0, [1 x i8]* @p_str, [1 x i8]* @p_str, [1 x i8]* @p_str, i32 2, i32 2, i32 16, i32 16, [1 x i8]* @p_str, [1 x i8]* @p_str)"   --->   Operation 48 'specinterface' <Predicate = true> <Delay = 0.00>
ST_3 : Operation 49 [1/1] (0.00ns)   --->   "call void (...)* @_ssdm_op_SpecInterface(i64* %ARPdataOut_V_data_V, i8* %ARPdataOut_V_keep_V, i1* %ARPdataOut_V_last_V, [5 x i8]* @p_str4, i32 1, i32 1, [5 x i8]* @p_str5, i32 0, i32 0, [1 x i8]* @p_str2, [1 x i8]* @p_str2, [1 x i8]* @p_str2, i32 0, i32 0, i32 0, i32 0, [1 x i8]* @p_str2, [1 x i8]* @p_str2) nounwind"   --->   Operation 49 'specinterface' <Predicate = true> <Delay = 0.00>
ST_3 : Operation 50 [1/1] (0.00ns)   --->   "call void (...)* @_ssdm_op_SpecPipeline(i32 1, i32 1, i32 1, i32 0, [1 x i8]* @p_str2) nounwind" [/home/paulrr2/Projects/ece527/babelsoc/fpga-network-stack/hls/ip_handler/ip_handler.cpp:77]   --->   Operation 50 'specpipeline' <Predicate = true> <Delay = 0.00>
ST_3 : Operation 51 [1/2] (0.00ns)   --->   "call void @_ssdm_op_Write.axis.volatile.i64P.i8P.i1P(i64* %ARPdataOut_V_data_V, i8* %ARPdataOut_V_keep_V, i1* %ARPdataOut_V_last_V, i64 %tmp_data_V_4, i8 %tmp_keep_V_4, i1 %tmp_last_V_2)" [/home/paulrr2/Projects/ece527/babelsoc/fpga-network-stack/hls/ip_handler/ip_handler.cpp:92]   --->   Operation 51 'write' <Predicate = (!rep_fsmState_V_load & tmp_1 & tmp_2 & icmp_ln879_2)> <Delay = 0.00> <Core = "AXI4Stream">   --->   Core 5 'AXI4Stream' <Latency = 0> <II = 1> <Delay = 1.00> <Adapter> <Opcode : >
ST_3 : Operation 52 [1/1] (0.00ns)   --->   "br label %4" [/home/paulrr2/Projects/ece527/babelsoc/fpga-network-stack/hls/ip_handler/ip_handler.cpp:93]   --->   Operation 52 'br' <Predicate = (!rep_fsmState_V_load & tmp_1 & tmp_2 & icmp_ln879_2)> <Delay = 0.00>
ST_3 : Operation 53 [1/1] (0.00ns)   --->   "br label %._crit_edge5.i" [/home/paulrr2/Projects/ece527/babelsoc/fpga-network-stack/hls/ip_handler/ip_handler.cpp:105]   --->   Operation 53 'br' <Predicate = (!rep_fsmState_V_load & tmp_1 & tmp_2 & !tmp_last_V_2)> <Delay = 0.00>
ST_3 : Operation 54 [1/1] (0.00ns)   --->   "br label %._crit_edge3.i" [/home/paulrr2/Projects/ece527/babelsoc/fpga-network-stack/hls/ip_handler/ip_handler.cpp:106]   --->   Operation 54 'br' <Predicate = (!rep_fsmState_V_load & tmp_1 & tmp_2)> <Delay = 0.00>
ST_3 : Operation 55 [1/1] (0.00ns)   --->   "br label %"route_by_eth_protocol<64>.exit"" [/home/paulrr2/Projects/ece527/babelsoc/fpga-network-stack/hls/ip_handler/ip_handler.cpp:107]   --->   Operation 55 'br' <Predicate = (!rep_fsmState_V_load)> <Delay = 0.00>
ST_3 : Operation 56 [1/1] (0.00ns)   --->   "br label %._crit_edge7.i" [/home/paulrr2/Projects/ece527/babelsoc/fpga-network-stack/hls/ip_handler/ip_handler.cpp:123]   --->   Operation 56 'br' <Predicate = (rep_fsmState_V_load & tmp & !icmp_ln879 & !icmp_ln879_1 & icmp_ln879_3)> <Delay = 0.00>
ST_3 : Operation 57 [1/1] (0.00ns)   --->   "br label %13"   --->   Operation 57 'br' <Predicate = (rep_fsmState_V_load & tmp & !icmp_ln879 & !icmp_ln879_1)> <Delay = 0.00>
ST_3 : Operation 58 [1/1] (0.00ns)   --->   "br label %13" [/home/paulrr2/Projects/ece527/babelsoc/fpga-network-stack/hls/ip_handler/ip_handler.cpp:119]   --->   Operation 58 'br' <Predicate = (rep_fsmState_V_load & tmp & !icmp_ln879 & icmp_ln879_1)> <Delay = 0.00>
ST_3 : Operation 59 [1/1] (0.00ns)   --->   "br label %14"   --->   Operation 59 'br' <Predicate = (rep_fsmState_V_load & tmp & !icmp_ln879)> <Delay = 0.00>
ST_3 : Operation 60 [1/2] (0.00ns)   --->   "call void @_ssdm_op_Write.axis.volatile.i64P.i8P.i1P(i64* %ARPdataOut_V_data_V, i8* %ARPdataOut_V_keep_V, i1* %ARPdataOut_V_last_V, i64 %tmp_data_V, i8 %tmp_keep_V, i1 %tmp_last_V)" [/home/paulrr2/Projects/ece527/babelsoc/fpga-network-stack/hls/ip_handler/ip_handler.cpp:114]   --->   Operation 60 'write' <Predicate = (rep_fsmState_V_load & tmp & icmp_ln879)> <Delay = 0.00> <Core = "AXI4Stream">   --->   Core 5 'AXI4Stream' <Latency = 0> <II = 1> <Delay = 1.00> <Adapter> <Opcode : >
ST_3 : Operation 61 [1/1] (0.00ns)   --->   "br label %14" [/home/paulrr2/Projects/ece527/babelsoc/fpga-network-stack/hls/ip_handler/ip_handler.cpp:115]   --->   Operation 61 'br' <Predicate = (rep_fsmState_V_load & tmp & icmp_ln879)> <Delay = 0.00>
ST_3 : Operation 62 [1/1] (0.00ns)   --->   "br label %._crit_edge8.i" [/home/paulrr2/Projects/ece527/babelsoc/fpga-network-stack/hls/ip_handler/ip_handler.cpp:128]   --->   Operation 62 'br' <Predicate = (rep_fsmState_V_load & tmp & tmp_last_V)> <Delay = 0.00>
ST_3 : Operation 63 [1/1] (0.00ns)   --->   "br label %._crit_edge6.i" [/home/paulrr2/Projects/ece527/babelsoc/fpga-network-stack/hls/ip_handler/ip_handler.cpp:129]   --->   Operation 63 'br' <Predicate = (rep_fsmState_V_load & tmp)> <Delay = 0.00>
ST_3 : Operation 64 [1/1] (0.00ns)   --->   "br label %"route_by_eth_protocol<64>.exit"" [/home/paulrr2/Projects/ece527/babelsoc/fpga-network-stack/hls/ip_handler/ip_handler.cpp:130]   --->   Operation 64 'br' <Predicate = (rep_fsmState_V_load)> <Delay = 0.00>
ST_3 : Operation 65 [1/1] (0.00ns)   --->   "ret void"   --->   Operation 65 'ret' <Predicate = true> <Delay = 0.00>


============================================================
+ Verbose Summary: Binding
============================================================
STG Binding: 
---------------- STG Properties BEGIN ----------------
- Is combinational: 0
- Is one-state seq: 0
- Is datapath-only: 0
- Is pipelined: 1
- Is top level: 0
Port [ Return ] is wired: 1; IO mode=ap_ctrl_hs:ce=0
Port [ ARPdataOut_V_data_V]:  wired=1; compound=1; hidden=0; nouse=0; global=0; static=0; extern=0; dir=1; type=0; pingpong=0; private_global=0; IO mode=axis:ce=0
Port [ ARPdataOut_V_keep_V]:  wired=1; compound=1; hidden=0; nouse=0; global=0; static=0; extern=0; dir=1; type=0; pingpong=0; private_global=0; IO mode=axis:ce=0
Port [ ARPdataOut_V_last_V]:  wired=1; compound=1; hidden=0; nouse=0; global=0; static=0; extern=0; dir=1; type=0; pingpong=0; private_global=0; IO mode=axis:ce=0
Port [ rep_fsmState_V]:  wired=0; compound=0; hidden=1; nouse=0; global=1; static=1; extern=0; dir=2; type=0; pingpong=0; private_global=1; linkage=7; visibility=0; IO mode=ap_ovld:ce=0
Port [ rep_etherType_V]:  wired=0; compound=0; hidden=1; nouse=0; global=1; static=1; extern=0; dir=2; type=0; pingpong=0; private_global=1; linkage=7; visibility=0; IO mode=ap_ovld:ce=0
Port [ etherTypeFifo_V_V]:  wired=1; compound=1; hidden=0; nouse=0; global=1; static=1; extern=0; dir=0; type=3; pingpong=0; private_global=0; linkage=7; visibility=0; IO mode=ap_fifo:ce=0
Port [ ethDataFifo_V_data_V]:  wired=1; compound=1; hidden=0; nouse=0; global=1; static=1; extern=0; dir=0; type=3; pingpong=0; private_global=0; linkage=7; visibility=0; IO mode=ap_fifo:ce=0
Port [ ethDataFifo_V_keep_V]:  wired=1; compound=1; hidden=0; nouse=0; global=1; static=1; extern=0; dir=0; type=3; pingpong=0; private_global=0; linkage=7; visibility=0; IO mode=ap_fifo:ce=0
Port [ ethDataFifo_V_last_V]:  wired=1; compound=1; hidden=0; nouse=0; global=1; static=1; extern=0; dir=0; type=3; pingpong=0; private_global=0; linkage=7; visibility=0; IO mode=ap_fifo:ce=0
Port [ ipv4ShiftFifo_V_data]:  wired=1; compound=1; hidden=0; nouse=0; global=1; static=1; extern=0; dir=1; type=3; pingpong=0; private_global=0; linkage=7; visibility=0; IO mode=ap_fifo:ce=0
Port [ ipv4ShiftFifo_V_keep]:  wired=1; compound=1; hidden=0; nouse=0; global=1; static=1; extern=0; dir=1; type=3; pingpong=0; private_global=0; linkage=7; visibility=0; IO mode=ap_fifo:ce=0
Port [ ipv4ShiftFifo_V_last]:  wired=1; compound=1; hidden=0; nouse=0; global=1; static=1; extern=0; dir=1; type=3; pingpong=0; private_global=0; linkage=7; visibility=0; IO mode=ap_fifo:ce=0
Port [ ipv6ShiftFifo_V_data]:  wired=1; compound=1; hidden=0; nouse=0; global=1; static=1; extern=0; dir=1; type=3; pingpong=0; private_global=0; linkage=7; visibility=0; IO mode=ap_fifo:ce=0
Port [ ipv6ShiftFifo_V_keep]:  wired=1; compound=1; hidden=0; nouse=0; global=1; static=1; extern=0; dir=1; type=3; pingpong=0; private_global=0; linkage=7; visibility=0; IO mode=ap_fifo:ce=0
Port [ ipv6ShiftFifo_V_last]:  wired=1; compound=1; hidden=0; nouse=0; global=1; static=1; extern=0; dir=1; type=3; pingpong=0; private_global=0; linkage=7; visibility=0; IO mode=ap_fifo:ce=0
---------------- STG Properties END ------------------

---------------- Datapath Model BEGIN ----------------

<LifeTime>
<method=bitvector/>
rep_fsmState_V_load  (load         ) [ 0111]
rep_etherType_V_load (load         ) [ 0000]
br_ln83              (br           ) [ 0000]
tmp_1                (nbreadreq    ) [ 0111]
br_ln86              (br           ) [ 0000]
tmp_2                (nbreadreq    ) [ 0111]
tmp_V                (read         ) [ 0000]
store_ln88           (store        ) [ 0000]
empty                (read         ) [ 0000]
tmp_data_V_4         (extractvalue ) [ 0111]
tmp_keep_V_4         (extractvalue ) [ 0111]
tmp_last_V_2         (extractvalue ) [ 0111]
icmp_ln879_2         (icmp         ) [ 0111]
br_ln90              (br           ) [ 0000]
store_ln104          (store        ) [ 0000]
tmp                  (nbreadreq    ) [ 0111]
empty_23             (read         ) [ 0000]
tmp_data_V           (extractvalue ) [ 0111]
tmp_keep_V           (extractvalue ) [ 0111]
tmp_last_V           (extractvalue ) [ 0111]
icmp_ln879           (icmp         ) [ 0111]
br_ln112             (br           ) [ 0000]
icmp_ln879_1         (icmp         ) [ 0111]
br_ln116             (br           ) [ 0000]
icmp_ln879_3         (icmp         ) [ 0111]
br_ln120             (br           ) [ 0000]
store_ln127          (store        ) [ 0000]
br_ln86              (br           ) [ 0000]
br_ln102             (br           ) [ 0000]
br_ln109             (br           ) [ 0000]
write_ln122          (write        ) [ 0000]
write_ln118          (write        ) [ 0000]
br_ln125             (br           ) [ 0000]
specinterface_ln0    (specinterface) [ 0000]
specinterface_ln0    (specinterface) [ 0000]
specinterface_ln0    (specinterface) [ 0000]
specinterface_ln0    (specinterface) [ 0000]
specinterface_ln0    (specinterface) [ 0000]
specinterface_ln0    (specinterface) [ 0000]
specinterface_ln0    (specinterface) [ 0000]
specinterface_ln0    (specinterface) [ 0000]
specinterface_ln0    (specinterface) [ 0000]
specinterface_ln0    (specinterface) [ 0000]
specinterface_ln0    (specinterface) [ 0000]
specpipeline_ln77    (specpipeline ) [ 0000]
write_ln92           (write        ) [ 0000]
br_ln93              (br           ) [ 0000]
br_ln105             (br           ) [ 0000]
br_ln106             (br           ) [ 0000]
br_ln107             (br           ) [ 0000]
br_ln123             (br           ) [ 0000]
br_ln0               (br           ) [ 0000]
br_ln119             (br           ) [ 0000]
br_ln0               (br           ) [ 0000]
write_ln114          (write        ) [ 0000]
br_ln115             (br           ) [ 0000]
br_ln128             (br           ) [ 0000]
br_ln129             (br           ) [ 0000]
br_ln130             (br           ) [ 0000]
ret_ln0              (ret          ) [ 0000]
</LifeTime>

<model>

<comp_list>
<comp id="0" class="1000" name="ARPdataOut_V_data_V">
<pin_list>
<pin id="1" dir="1" index="0" bw="1" slack="0"/>
</pin_list>
<bind>
<StgValue><ssdm name="ARPdataOut_V_data_V"/></StgValue>
</bind>
</comp>

<comp id="2" class="1000" name="ARPdataOut_V_keep_V">
<pin_list>
<pin id="3" dir="1" index="0" bw="1" slack="0"/>
</pin_list>
<bind>
<StgValue><ssdm name="ARPdataOut_V_keep_V"/></StgValue>
</bind>
</comp>

<comp id="4" class="1000" name="ARPdataOut_V_last_V">
<pin_list>
<pin id="5" dir="1" index="0" bw="1" slack="0"/>
</pin_list>
<bind>
<StgValue><ssdm name="ARPdataOut_V_last_V"/></StgValue>
</bind>
</comp>

<comp id="6" class="1000" name="rep_fsmState_V">
<pin_list>
<pin id="7" dir="1" index="0" bw="1" slack="0"/>
</pin_list>
<bind>
<StgValue><ssdm name="rep_fsmState_V"/></StgValue>
</bind>
</comp>

<comp id="8" class="1000" name="rep_etherType_V">
<pin_list>
<pin id="9" dir="1" index="0" bw="1" slack="0"/>
</pin_list>
<bind>
<StgValue><ssdm name="rep_etherType_V"/></StgValue>
</bind>
</comp>

<comp id="10" class="1000" name="etherTypeFifo_V_V">
<pin_list>
<pin id="11" dir="1" index="0" bw="1" slack="0"/>
</pin_list>
<bind>
<StgValue><ssdm name="etherTypeFifo_V_V"/></StgValue>
</bind>
</comp>

<comp id="12" class="1000" name="ethDataFifo_V_data_V">
<pin_list>
<pin id="13" dir="1" index="0" bw="1" slack="0"/>
</pin_list>
<bind>
<StgValue><ssdm name="ethDataFifo_V_data_V"/></StgValue>
</bind>
</comp>

<comp id="14" class="1000" name="ethDataFifo_V_keep_V">
<pin_list>
<pin id="15" dir="1" index="0" bw="1" slack="0"/>
</pin_list>
<bind>
<StgValue><ssdm name="ethDataFifo_V_keep_V"/></StgValue>
</bind>
</comp>

<comp id="16" class="1000" name="ethDataFifo_V_last_V">
<pin_list>
<pin id="17" dir="1" index="0" bw="1" slack="0"/>
</pin_list>
<bind>
<StgValue><ssdm name="ethDataFifo_V_last_V"/></StgValue>
</bind>
</comp>

<comp id="18" class="1000" name="ipv4ShiftFifo_V_data">
<pin_list>
<pin id="19" dir="1" index="0" bw="1" slack="0"/>
</pin_list>
<bind>
<StgValue><ssdm name="ipv4ShiftFifo_V_data"/></StgValue>
</bind>
</comp>

<comp id="20" class="1000" name="ipv4ShiftFifo_V_keep">
<pin_list>
<pin id="21" dir="1" index="0" bw="1" slack="0"/>
</pin_list>
<bind>
<StgValue><ssdm name="ipv4ShiftFifo_V_keep"/></StgValue>
</bind>
</comp>

<comp id="22" class="1000" name="ipv4ShiftFifo_V_last">
<pin_list>
<pin id="23" dir="1" index="0" bw="1" slack="0"/>
</pin_list>
<bind>
<StgValue><ssdm name="ipv4ShiftFifo_V_last"/></StgValue>
</bind>
</comp>

<comp id="24" class="1000" name="ipv6ShiftFifo_V_data">
<pin_list>
<pin id="25" dir="1" index="0" bw="1" slack="0"/>
</pin_list>
<bind>
<StgValue><ssdm name="ipv6ShiftFifo_V_data"/></StgValue>
</bind>
</comp>

<comp id="26" class="1000" name="ipv6ShiftFifo_V_keep">
<pin_list>
<pin id="27" dir="1" index="0" bw="1" slack="0"/>
</pin_list>
<bind>
<StgValue><ssdm name="ipv6ShiftFifo_V_keep"/></StgValue>
</bind>
</comp>

<comp id="28" class="1000" name="ipv6ShiftFifo_V_last">
<pin_list>
<pin id="29" dir="1" index="0" bw="1" slack="0"/>
</pin_list>
<bind>
<StgValue><ssdm name="ipv6ShiftFifo_V_last"/></StgValue>
</bind>
</comp>

<comp id="30" class="1001" name="const_30">
<pin_list>
<pin id="31" dir="1" index="0" bw="1" slack="0"/>
</pin_list>
<bind>
<StgValue><ssdm name="_ssdm_op_NbReadReq.ap_fifo.i16P"/></StgValue>
</bind>
</comp>

<comp id="32" class="1001" name="const_32">
<pin_list>
<pin id="33" dir="1" index="0" bw="1" slack="0"/>
</pin_list>
<bind>
<StgValue><ssdm name=""/></StgValue>
</bind>
</comp>

<comp id="34" class="1001" name="const_34">
<pin_list>
<pin id="35" dir="1" index="0" bw="1" slack="0"/>
</pin_list>
<bind>
<StgValue><ssdm name="_ssdm_op_NbReadReq.ap_fifo.i64P.i8P.i1P"/></StgValue>
</bind>
</comp>

<comp id="36" class="1001" name="const_36">
<pin_list>
<pin id="37" dir="1" index="0" bw="1" slack="0"/>
</pin_list>
<bind>
<StgValue><ssdm name="_ssdm_op_Read.ap_fifo.volatile.i16P"/></StgValue>
</bind>
</comp>

<comp id="38" class="1001" name="const_38">
<pin_list>
<pin id="39" dir="1" index="0" bw="1" slack="0"/>
</pin_list>
<bind>
<StgValue><ssdm name="_ssdm_op_Read.ap_fifo.volatile.i64P.i8P.i1P"/></StgValue>
</bind>
</comp>

<comp id="40" class="1001" name="const_40">
<pin_list>
<pin id="41" dir="1" index="0" bw="1" slack="0"/>
</pin_list>
<bind>
<StgValue><ssdm name=""/></StgValue>
</bind>
</comp>

<comp id="42" class="1001" name="const_42">
<pin_list>
<pin id="43" dir="1" index="0" bw="1" slack="0"/>
</pin_list>
<bind>
<StgValue><ssdm name=""/></StgValue>
</bind>
</comp>

<comp id="44" class="1001" name="const_44">
<pin_list>
<pin id="45" dir="1" index="0" bw="1" slack="0"/>
</pin_list>
<bind>
<StgValue><ssdm name=""/></StgValue>
</bind>
</comp>

<comp id="46" class="1001" name="const_46">
<pin_list>
<pin id="47" dir="1" index="0" bw="1" slack="0"/>
</pin_list>
<bind>
<StgValue><ssdm name=""/></StgValue>
</bind>
</comp>

<comp id="48" class="1001" name="const_48">
<pin_list>
<pin id="49" dir="1" index="0" bw="1" slack="0"/>
</pin_list>
<bind>
<StgValue><ssdm name=""/></StgValue>
</bind>
</comp>

<comp id="50" class="1001" name="const_50">
<pin_list>
<pin id="51" dir="1" index="0" bw="1" slack="0"/>
</pin_list>
<bind>
<StgValue><ssdm name="_ssdm_op_Write.axis.volatile.i64P.i8P.i1P"/></StgValue>
</bind>
</comp>

<comp id="52" class="1001" name="const_52">
<pin_list>
<pin id="53" dir="1" index="0" bw="1" slack="0"/>
</pin_list>
<bind>
<StgValue><ssdm name="_ssdm_op_Write.ap_fifo.volatile.i64P.i8P.i1P"/></StgValue>
</bind>
</comp>

<comp id="54" class="1001" name="const_54">
<pin_list>
<pin id="55" dir="1" index="0" bw="1" slack="2147483647"/>
</pin_list>
<bind>
<StgValue><ssdm name="_ssdm_op_SpecInterface"/></StgValue>
</bind>
</comp>

<comp id="56" class="1001" name="const_56">
<pin_list>
<pin id="57" dir="1" index="0" bw="1" slack="2147483647"/>
</pin_list>
<bind>
<StgValue><ssdm name="ap_fifo_str"/></StgValue>
</bind>
</comp>

<comp id="58" class="1001" name="const_58">
<pin_list>
<pin id="59" dir="1" index="0" bw="1" slack="2147483647"/>
</pin_list>
<bind>
<StgValue><ssdm name=""/></StgValue>
</bind>
</comp>

<comp id="60" class="1001" name="const_60">
<pin_list>
<pin id="61" dir="1" index="0" bw="1" slack="2147483647"/>
</pin_list>
<bind>
<StgValue><ssdm name="p_str"/></StgValue>
</bind>
</comp>

<comp id="62" class="1001" name="const_62">
<pin_list>
<pin id="63" dir="1" index="0" bw="1" slack="2147483647"/>
</pin_list>
<bind>
<StgValue><ssdm name=""/></StgValue>
</bind>
</comp>

<comp id="64" class="1001" name="const_64">
<pin_list>
<pin id="65" dir="1" index="0" bw="1" slack="2147483647"/>
</pin_list>
<bind>
<StgValue><ssdm name=""/></StgValue>
</bind>
</comp>

<comp id="66" class="1001" name="const_66">
<pin_list>
<pin id="67" dir="1" index="0" bw="1" slack="2147483647"/>
</pin_list>
<bind>
<StgValue><ssdm name="p_str4"/></StgValue>
</bind>
</comp>

<comp id="68" class="1001" name="const_68">
<pin_list>
<pin id="69" dir="1" index="0" bw="1" slack="2147483647"/>
</pin_list>
<bind>
<StgValue><ssdm name="p_str5"/></StgValue>
</bind>
</comp>

<comp id="70" class="1001" name="const_70">
<pin_list>
<pin id="71" dir="1" index="0" bw="1" slack="2147483647"/>
</pin_list>
<bind>
<StgValue><ssdm name="p_str2"/></StgValue>
</bind>
</comp>

<comp id="72" class="1001" name="const_72">
<pin_list>
<pin id="73" dir="1" index="0" bw="1" slack="2147483647"/>
</pin_list>
<bind>
<StgValue><ssdm name="_ssdm_op_SpecPipeline"/></StgValue>
</bind>
</comp>

<comp id="74" class="1004" name="tmp_1_nbreadreq_fu_74">
<pin_list>
<pin id="75" dir="0" index="0" bw="1" slack="0"/>
<pin id="76" dir="0" index="1" bw="16" slack="0"/>
<pin id="77" dir="0" index="2" bw="1" slack="0"/>
<pin id="78" dir="1" index="3" bw="1" slack="1"/>
</pin_list>
<bind>
<opcode="nbreadreq(1156) " fcode="nbreadreq"/>
<opset="tmp_1/1 "/>
</bind>
</comp>

<comp id="82" class="1004" name="grp_nbreadreq_fu_82">
<pin_list>
<pin id="83" dir="0" index="0" bw="1" slack="0"/>
<pin id="84" dir="0" index="1" bw="64" slack="0"/>
<pin id="85" dir="0" index="2" bw="8" slack="0"/>
<pin id="86" dir="0" index="3" bw="1" slack="0"/>
<pin id="87" dir="0" index="4" bw="1" slack="0"/>
<pin id="88" dir="1" index="5" bw="1" slack="1"/>
</pin_list>
<bind>
<opcode="nbreadreq(1156) " fcode="nbreadreq"/>
<opset="tmp_2/1 tmp/1 "/>
</bind>
</comp>

<comp id="94" class="1004" name="tmp_V_read_fu_94">
<pin_list>
<pin id="95" dir="0" index="0" bw="16" slack="0"/>
<pin id="96" dir="0" index="1" bw="16" slack="0"/>
<pin id="97" dir="1" index="2" bw="16" slack="0"/>
</pin_list>
<bind>
<opcode="read(1150) " fcode="read"/>
<opset="tmp_V/1 "/>
</bind>
</comp>

<comp id="100" class="1004" name="grp_read_fu_100">
<pin_list>
<pin id="101" dir="0" index="0" bw="73" slack="0"/>
<pin id="102" dir="0" index="1" bw="64" slack="0"/>
<pin id="103" dir="0" index="2" bw="8" slack="0"/>
<pin id="104" dir="0" index="3" bw="1" slack="0"/>
<pin id="105" dir="1" index="4" bw="73" slack="0"/>
</pin_list>
<bind>
<opcode="read(1150) " fcode="read"/>
<opset="empty/1 empty_23/1 "/>
</bind>
</comp>

<comp id="110" class="1004" name="grp_write_fu_110">
<pin_list>
<pin id="111" dir="0" index="0" bw="0" slack="0"/>
<pin id="112" dir="0" index="1" bw="64" slack="0"/>
<pin id="113" dir="0" index="2" bw="8" slack="0"/>
<pin id="114" dir="0" index="3" bw="1" slack="0"/>
<pin id="115" dir="0" index="4" bw="64" slack="1"/>
<pin id="116" dir="0" index="5" bw="8" slack="1"/>
<pin id="117" dir="0" index="6" bw="1" slack="1"/>
<pin id="118" dir="1" index="7" bw="0" slack="2147483647"/>
</pin_list>
<bind>
<opcode="write(1151) " fcode="write"/>
<opset="write_ln92/2 write_ln114/2 "/>
</bind>
</comp>

<comp id="123" class="1004" name="write_ln122_write_fu_123">
<pin_list>
<pin id="124" dir="0" index="0" bw="0" slack="0"/>
<pin id="125" dir="0" index="1" bw="64" slack="0"/>
<pin id="126" dir="0" index="2" bw="8" slack="0"/>
<pin id="127" dir="0" index="3" bw="1" slack="0"/>
<pin id="128" dir="0" index="4" bw="64" slack="1"/>
<pin id="129" dir="0" index="5" bw="8" slack="1"/>
<pin id="130" dir="0" index="6" bw="1" slack="1"/>
<pin id="131" dir="1" index="7" bw="0" slack="2147483647"/>
</pin_list>
<bind>
<opcode="write(1151) " fcode="write"/>
<opset="write_ln122/2 "/>
</bind>
</comp>

<comp id="136" class="1004" name="write_ln118_write_fu_136">
<pin_list>
<pin id="137" dir="0" index="0" bw="0" slack="0"/>
<pin id="138" dir="0" index="1" bw="64" slack="0"/>
<pin id="139" dir="0" index="2" bw="8" slack="0"/>
<pin id="140" dir="0" index="3" bw="1" slack="0"/>
<pin id="141" dir="0" index="4" bw="64" slack="1"/>
<pin id="142" dir="0" index="5" bw="8" slack="1"/>
<pin id="143" dir="0" index="6" bw="1" slack="1"/>
<pin id="144" dir="1" index="7" bw="0" slack="2147483647"/>
</pin_list>
<bind>
<opcode="write(1151) " fcode="write"/>
<opset="write_ln118/2 "/>
</bind>
</comp>

<comp id="149" class="1004" name="grp_fu_149">
<pin_list>
<pin id="150" dir="0" index="0" bw="73" slack="0"/>
<pin id="151" dir="1" index="1" bw="64" slack="1"/>
</pin_list>
<bind>
<opcode="extractvalue(56) " fcode="extractvalue"/>
<opset="tmp_data_V_4/1 tmp_data_V/1 "/>
</bind>
</comp>

<comp id="153" class="1004" name="grp_fu_153">
<pin_list>
<pin id="154" dir="0" index="0" bw="73" slack="0"/>
<pin id="155" dir="1" index="1" bw="8" slack="1"/>
</pin_list>
<bind>
<opcode="extractvalue(56) " fcode="extractvalue"/>
<opset="tmp_keep_V_4/1 tmp_keep_V/1 "/>
</bind>
</comp>

<comp id="157" class="1004" name="grp_fu_157">
<pin_list>
<pin id="158" dir="0" index="0" bw="73" slack="0"/>
<pin id="159" dir="1" index="1" bw="1" slack="1"/>
</pin_list>
<bind>
<opcode="extractvalue(56) " fcode="extractvalue"/>
<opset="tmp_last_V_2/1 tmp_last_V/1 "/>
</bind>
</comp>

<comp id="161" class="1005" name="reg_161">
<pin_list>
<pin id="162" dir="0" index="0" bw="64" slack="1"/>
<pin id="163" dir="1" index="1" bw="64" slack="1"/>
</pin_list>
<bind>
<opset="tmp_data_V_4 tmp_data_V "/>
</bind>
</comp>

<comp id="168" class="1005" name="reg_168">
<pin_list>
<pin id="169" dir="0" index="0" bw="8" slack="1"/>
<pin id="170" dir="1" index="1" bw="8" slack="1"/>
</pin_list>
<bind>
<opset="tmp_keep_V_4 tmp_keep_V "/>
</bind>
</comp>

<comp id="175" class="1004" name="rep_fsmState_V_load_load_fu_175">
<pin_list>
<pin id="176" dir="0" index="0" bw="1" slack="0"/>
<pin id="177" dir="1" index="1" bw="1" slack="1"/>
</pin_list>
<bind>
<opcode="load(27) " fcode="load"/>
<opset="rep_fsmState_V_load/1 "/>
</bind>
</comp>

<comp id="179" class="1004" name="rep_etherType_V_load_load_fu_179">
<pin_list>
<pin id="180" dir="0" index="0" bw="16" slack="0"/>
<pin id="181" dir="1" index="1" bw="16" slack="0"/>
</pin_list>
<bind>
<opcode="load(27) " fcode="load"/>
<opset="rep_etherType_V_load/1 "/>
</bind>
</comp>

<comp id="183" class="1004" name="store_ln88_store_fu_183">
<pin_list>
<pin id="184" dir="0" index="0" bw="16" slack="0"/>
<pin id="185" dir="0" index="1" bw="16" slack="0"/>
<pin id="186" dir="1" index="2" bw="0" slack="2147483647"/>
</pin_list>
<bind>
<opcode="store(28) " fcode="store"/>
<opset="store_ln88/1 "/>
</bind>
</comp>

<comp id="189" class="1004" name="icmp_ln879_2_fu_189">
<pin_list>
<pin id="190" dir="0" index="0" bw="16" slack="0"/>
<pin id="191" dir="0" index="1" bw="13" slack="0"/>
<pin id="192" dir="1" index="2" bw="1" slack="1"/>
</pin_list>
<bind>
<opcode="icmp(45) " fcode="icmp"/>
<opset="icmp_ln879_2/1 "/>
</bind>
</comp>

<comp id="195" class="1004" name="store_ln104_store_fu_195">
<pin_list>
<pin id="196" dir="0" index="0" bw="1" slack="0"/>
<pin id="197" dir="0" index="1" bw="1" slack="0"/>
<pin id="198" dir="1" index="2" bw="0" slack="2147483647"/>
</pin_list>
<bind>
<opcode="store(28) " fcode="store"/>
<opset="store_ln104/1 "/>
</bind>
</comp>

<comp id="201" class="1004" name="icmp_ln879_fu_201">
<pin_list>
<pin id="202" dir="0" index="0" bw="16" slack="0"/>
<pin id="203" dir="0" index="1" bw="13" slack="0"/>
<pin id="204" dir="1" index="2" bw="1" slack="1"/>
</pin_list>
<bind>
<opcode="icmp(45) " fcode="icmp"/>
<opset="icmp_ln879/1 "/>
</bind>
</comp>

<comp id="207" class="1004" name="icmp_ln879_1_fu_207">
<pin_list>
<pin id="208" dir="0" index="0" bw="16" slack="0"/>
<pin id="209" dir="0" index="1" bw="13" slack="0"/>
<pin id="210" dir="1" index="2" bw="1" slack="1"/>
</pin_list>
<bind>
<opcode="icmp(45) " fcode="icmp"/>
<opset="icmp_ln879_1/1 "/>
</bind>
</comp>

<comp id="213" class="1004" name="icmp_ln879_3_fu_213">
<pin_list>
<pin id="214" dir="0" index="0" bw="16" slack="0"/>
<pin id="215" dir="0" index="1" bw="16" slack="0"/>
<pin id="216" dir="1" index="2" bw="1" slack="1"/>
</pin_list>
<bind>
<opcode="icmp(45) " fcode="icmp"/>
<opset="icmp_ln879_3/1 "/>
</bind>
</comp>

<comp id="219" class="1004" name="store_ln127_store_fu_219">
<pin_list>
<pin id="220" dir="0" index="0" bw="1" slack="0"/>
<pin id="221" dir="0" index="1" bw="1" slack="0"/>
<pin id="222" dir="1" index="2" bw="0" slack="2147483647"/>
</pin_list>
<bind>
<opcode="store(28) " fcode="store"/>
<opset="store_ln127/1 "/>
</bind>
</comp>

<comp id="225" class="1005" name="rep_fsmState_V_load_reg_225">
<pin_list>
<pin id="226" dir="0" index="0" bw="1" slack="1"/>
<pin id="227" dir="1" index="1" bw="1" slack="2147483647"/>
</pin_list>
<bind>
<opset="rep_fsmState_V_load "/>
</bind>
</comp>

<comp id="229" class="1005" name="tmp_1_reg_229">
<pin_list>
<pin id="230" dir="0" index="0" bw="1" slack="1"/>
<pin id="231" dir="1" index="1" bw="1" slack="2147483647"/>
</pin_list>
<bind>
<opset="tmp_1 "/>
</bind>
</comp>

<comp id="233" class="1005" name="tmp_2_reg_233">
<pin_list>
<pin id="234" dir="0" index="0" bw="1" slack="1"/>
<pin id="235" dir="1" index="1" bw="1" slack="2147483647"/>
</pin_list>
<bind>
<opset="tmp_2 "/>
</bind>
</comp>

<comp id="237" class="1005" name="tmp_last_V_2_reg_237">
<pin_list>
<pin id="238" dir="0" index="0" bw="1" slack="1"/>
<pin id="239" dir="1" index="1" bw="1" slack="1"/>
</pin_list>
<bind>
<opset="tmp_last_V_2 "/>
</bind>
</comp>

<comp id="242" class="1005" name="icmp_ln879_2_reg_242">
<pin_list>
<pin id="243" dir="0" index="0" bw="1" slack="1"/>
<pin id="244" dir="1" index="1" bw="1" slack="2147483647"/>
</pin_list>
<bind>
<opset="icmp_ln879_2 "/>
</bind>
</comp>

<comp id="246" class="1005" name="tmp_reg_246">
<pin_list>
<pin id="247" dir="0" index="0" bw="1" slack="1"/>
<pin id="248" dir="1" index="1" bw="1" slack="2147483647"/>
</pin_list>
<bind>
<opset="tmp "/>
</bind>
</comp>

<comp id="250" class="1005" name="tmp_last_V_reg_250">
<pin_list>
<pin id="251" dir="0" index="0" bw="1" slack="1"/>
<pin id="252" dir="1" index="1" bw="1" slack="1"/>
</pin_list>
<bind>
<opset="tmp_last_V "/>
</bind>
</comp>

<comp id="257" class="1005" name="icmp_ln879_reg_257">
<pin_list>
<pin id="258" dir="0" index="0" bw="1" slack="1"/>
<pin id="259" dir="1" index="1" bw="1" slack="2147483647"/>
</pin_list>
<bind>
<opset="icmp_ln879 "/>
</bind>
</comp>

<comp id="261" class="1005" name="icmp_ln879_1_reg_261">
<pin_list>
<pin id="262" dir="0" index="0" bw="1" slack="1"/>
<pin id="263" dir="1" index="1" bw="1" slack="2147483647"/>
</pin_list>
<bind>
<opset="icmp_ln879_1 "/>
</bind>
</comp>

<comp id="265" class="1005" name="icmp_ln879_3_reg_265">
<pin_list>
<pin id="266" dir="0" index="0" bw="1" slack="1"/>
<pin id="267" dir="1" index="1" bw="1" slack="2147483647"/>
</pin_list>
<bind>
<opset="icmp_ln879_3 "/>
</bind>
</comp>

</comp_list>

<net_list>
<net id="79"><net_src comp="30" pin="0"/><net_sink comp="74" pin=0"/></net>

<net id="80"><net_src comp="10" pin="0"/><net_sink comp="74" pin=1"/></net>

<net id="81"><net_src comp="32" pin="0"/><net_sink comp="74" pin=2"/></net>

<net id="89"><net_src comp="34" pin="0"/><net_sink comp="82" pin=0"/></net>

<net id="90"><net_src comp="12" pin="0"/><net_sink comp="82" pin=1"/></net>

<net id="91"><net_src comp="14" pin="0"/><net_sink comp="82" pin=2"/></net>

<net id="92"><net_src comp="16" pin="0"/><net_sink comp="82" pin=3"/></net>

<net id="93"><net_src comp="32" pin="0"/><net_sink comp="82" pin=4"/></net>

<net id="98"><net_src comp="36" pin="0"/><net_sink comp="94" pin=0"/></net>

<net id="99"><net_src comp="10" pin="0"/><net_sink comp="94" pin=1"/></net>

<net id="106"><net_src comp="38" pin="0"/><net_sink comp="100" pin=0"/></net>

<net id="107"><net_src comp="12" pin="0"/><net_sink comp="100" pin=1"/></net>

<net id="108"><net_src comp="14" pin="0"/><net_sink comp="100" pin=2"/></net>

<net id="109"><net_src comp="16" pin="0"/><net_sink comp="100" pin=3"/></net>

<net id="119"><net_src comp="50" pin="0"/><net_sink comp="110" pin=0"/></net>

<net id="120"><net_src comp="0" pin="0"/><net_sink comp="110" pin=1"/></net>

<net id="121"><net_src comp="2" pin="0"/><net_sink comp="110" pin=2"/></net>

<net id="122"><net_src comp="4" pin="0"/><net_sink comp="110" pin=3"/></net>

<net id="132"><net_src comp="52" pin="0"/><net_sink comp="123" pin=0"/></net>

<net id="133"><net_src comp="24" pin="0"/><net_sink comp="123" pin=1"/></net>

<net id="134"><net_src comp="26" pin="0"/><net_sink comp="123" pin=2"/></net>

<net id="135"><net_src comp="28" pin="0"/><net_sink comp="123" pin=3"/></net>

<net id="145"><net_src comp="52" pin="0"/><net_sink comp="136" pin=0"/></net>

<net id="146"><net_src comp="18" pin="0"/><net_sink comp="136" pin=1"/></net>

<net id="147"><net_src comp="20" pin="0"/><net_sink comp="136" pin=2"/></net>

<net id="148"><net_src comp="22" pin="0"/><net_sink comp="136" pin=3"/></net>

<net id="152"><net_src comp="100" pin="4"/><net_sink comp="149" pin=0"/></net>

<net id="156"><net_src comp="100" pin="4"/><net_sink comp="153" pin=0"/></net>

<net id="160"><net_src comp="100" pin="4"/><net_sink comp="157" pin=0"/></net>

<net id="164"><net_src comp="149" pin="1"/><net_sink comp="161" pin=0"/></net>

<net id="165"><net_src comp="161" pin="1"/><net_sink comp="110" pin=4"/></net>

<net id="166"><net_src comp="161" pin="1"/><net_sink comp="123" pin=4"/></net>

<net id="167"><net_src comp="161" pin="1"/><net_sink comp="136" pin=4"/></net>

<net id="171"><net_src comp="153" pin="1"/><net_sink comp="168" pin=0"/></net>

<net id="172"><net_src comp="168" pin="1"/><net_sink comp="110" pin=5"/></net>

<net id="173"><net_src comp="168" pin="1"/><net_sink comp="123" pin=5"/></net>

<net id="174"><net_src comp="168" pin="1"/><net_sink comp="136" pin=5"/></net>

<net id="178"><net_src comp="6" pin="0"/><net_sink comp="175" pin=0"/></net>

<net id="182"><net_src comp="8" pin="0"/><net_sink comp="179" pin=0"/></net>

<net id="187"><net_src comp="94" pin="2"/><net_sink comp="183" pin=0"/></net>

<net id="188"><net_src comp="8" pin="0"/><net_sink comp="183" pin=1"/></net>

<net id="193"><net_src comp="94" pin="2"/><net_sink comp="189" pin=0"/></net>

<net id="194"><net_src comp="40" pin="0"/><net_sink comp="189" pin=1"/></net>

<net id="199"><net_src comp="42" pin="0"/><net_sink comp="195" pin=0"/></net>

<net id="200"><net_src comp="6" pin="0"/><net_sink comp="195" pin=1"/></net>

<net id="205"><net_src comp="179" pin="1"/><net_sink comp="201" pin=0"/></net>

<net id="206"><net_src comp="40" pin="0"/><net_sink comp="201" pin=1"/></net>

<net id="211"><net_src comp="179" pin="1"/><net_sink comp="207" pin=0"/></net>

<net id="212"><net_src comp="44" pin="0"/><net_sink comp="207" pin=1"/></net>

<net id="217"><net_src comp="179" pin="1"/><net_sink comp="213" pin=0"/></net>

<net id="218"><net_src comp="46" pin="0"/><net_sink comp="213" pin=1"/></net>

<net id="223"><net_src comp="48" pin="0"/><net_sink comp="219" pin=0"/></net>

<net id="224"><net_src comp="6" pin="0"/><net_sink comp="219" pin=1"/></net>

<net id="228"><net_src comp="175" pin="1"/><net_sink comp="225" pin=0"/></net>

<net id="232"><net_src comp="74" pin="3"/><net_sink comp="229" pin=0"/></net>

<net id="236"><net_src comp="82" pin="5"/><net_sink comp="233" pin=0"/></net>

<net id="240"><net_src comp="157" pin="1"/><net_sink comp="237" pin=0"/></net>

<net id="241"><net_src comp="237" pin="1"/><net_sink comp="110" pin=6"/></net>

<net id="245"><net_src comp="189" pin="2"/><net_sink comp="242" pin=0"/></net>

<net id="249"><net_src comp="82" pin="5"/><net_sink comp="246" pin=0"/></net>

<net id="253"><net_src comp="157" pin="1"/><net_sink comp="250" pin=0"/></net>

<net id="254"><net_src comp="250" pin="1"/><net_sink comp="123" pin=6"/></net>

<net id="255"><net_src comp="250" pin="1"/><net_sink comp="136" pin=6"/></net>

<net id="256"><net_src comp="250" pin="1"/><net_sink comp="110" pin=6"/></net>

<net id="260"><net_src comp="201" pin="2"/><net_sink comp="257" pin=0"/></net>

<net id="264"><net_src comp="207" pin="2"/><net_sink comp="261" pin=0"/></net>

<net id="268"><net_src comp="213" pin="2"/><net_sink comp="265" pin=0"/></net>

</net_list>

</model> 
---------------- Datapath Model END ------------------

* FSMD analyzer results:
  - Output states:
	Port: ARPdataOut_V_data_V | {3 }
	Port: ARPdataOut_V_keep_V | {3 }
	Port: ARPdataOut_V_last_V | {3 }
	Port: rep_fsmState_V | {1 }
	Port: rep_etherType_V | {1 }
	Port: ipv4ShiftFifo_V_data | {2 }
	Port: ipv4ShiftFifo_V_keep | {2 }
	Port: ipv4ShiftFifo_V_last | {2 }
	Port: ipv6ShiftFifo_V_data | {2 }
	Port: ipv6ShiftFifo_V_keep | {2 }
	Port: ipv6ShiftFifo_V_last | {2 }
 - Input state : 
	Port: route_by_eth_protoco : rep_fsmState_V | {1 }
	Port: route_by_eth_protoco : rep_etherType_V | {1 }
	Port: route_by_eth_protoco : etherTypeFifo_V_V | {1 }
	Port: route_by_eth_protoco : ethDataFifo_V_data_V | {1 }
	Port: route_by_eth_protoco : ethDataFifo_V_keep_V | {1 }
	Port: route_by_eth_protoco : ethDataFifo_V_last_V | {1 }
  - Chain level:
	State 1
		br_ln83 : 1
		br_ln90 : 1
		icmp_ln879 : 1
		br_ln112 : 2
		icmp_ln879_1 : 1
		br_ln116 : 2
		icmp_ln879_3 : 1
		br_ln120 : 2
	State 2
	State 3


============================================================
+ Verbose Summary: Datapath Resource usage 
============================================================

* Functional unit list:
|----------|--------------------------|---------|---------|
| Operation|      Functional Unit     |    FF   |   LUT   |
|----------|--------------------------|---------|---------|
|          |    icmp_ln879_2_fu_189   |    0    |    13   |
|   icmp   |     icmp_ln879_fu_201    |    0    |    13   |
|          |    icmp_ln879_1_fu_207   |    0    |    13   |
|          |    icmp_ln879_3_fu_213   |    0    |    13   |
|----------|--------------------------|---------|---------|
| nbreadreq|   tmp_1_nbreadreq_fu_74  |    0    |    0    |
|          |    grp_nbreadreq_fu_82   |    0    |    0    |
|----------|--------------------------|---------|---------|
|   read   |     tmp_V_read_fu_94     |    0    |    0    |
|          |      grp_read_fu_100     |    0    |    0    |
|----------|--------------------------|---------|---------|
|          |     grp_write_fu_110     |    0    |    0    |
|   write  | write_ln122_write_fu_123 |    0    |    0    |
|          | write_ln118_write_fu_136 |    0    |    0    |
|----------|--------------------------|---------|---------|
|          |        grp_fu_149        |    0    |    0    |
|extractvalue|        grp_fu_153        |    0    |    0    |
|          |        grp_fu_157        |    0    |    0    |
|----------|--------------------------|---------|---------|
|   Total  |                          |    0    |    52   |
|----------|--------------------------|---------|---------|

Memories:
N/A

* Register list:
+---------------------------+--------+
|                           |   FF   |
+---------------------------+--------+
|    icmp_ln879_1_reg_261   |    1   |
|    icmp_ln879_2_reg_242   |    1   |
|    icmp_ln879_3_reg_265   |    1   |
|     icmp_ln879_reg_257    |    1   |
|          reg_161          |   64   |
|          reg_168          |    8   |
|rep_fsmState_V_load_reg_225|    1   |
|       tmp_1_reg_229       |    1   |
|       tmp_2_reg_233       |    1   |
|    tmp_last_V_2_reg_237   |    1   |
|     tmp_last_V_reg_250    |    1   |
|        tmp_reg_246        |    1   |
+---------------------------+--------+
|           Total           |   82   |
+---------------------------+--------+

* Multiplexer (MUX) list: 
|------------------|------|------|------|--------||---------||---------|
|       Comp       |  Pin | Size |  BW  | S x BW ||  Delay  ||   LUT   |
|------------------|------|------|------|--------||---------||---------|
| grp_write_fu_110 |  p6  |   2  |   1  |    2   ||    9    |
|------------------|------|------|------|--------||---------||---------|
|       Total      |      |      |      |    2   ||  1.769  ||    9    |
|------------------|------|------|------|--------||---------||---------|



* Summary:
+-----------+--------+--------+--------+
|           |  Delay |   FF   |   LUT  |
+-----------+--------+--------+--------+
|  Function |    -   |    0   |   52   |
|   Memory  |    -   |    -   |    -   |
|Multiplexer|    1   |    -   |    9   |
|  Register |    -   |   82   |    -   |
+-----------+--------+--------+--------+
|   Total   |    1   |   82   |   61   |
+-----------+--------+--------+--------+
