

================================================================
== Vivado HLS Report for 'rshiftWordByOctet_1'
================================================================
* Date:           Fri Dec 18 10:37:52 2020

* Version:        2019.1 (Build 2552052 on Fri May 24 15:28:33 MDT 2019)
* Project:        ip_handler_prj
* Solution:       solution1
* Product family: zynq
* Target device:  xc7z020-clg400-1


================================================================
== Performance Estimates
================================================================
+ Timing (ns): 
    * Summary: 
    +--------+-------+----------+------------+
    |  Clock | Target| Estimated| Uncertainty|
    +--------+-------+----------+------------+
    |ap_clk  |   6.40|     5.528|        0.80|
    +--------+-------+----------+------------+

+ Latency (clock cycles): 
    * Summary: 
    +-----+-----+-----+-----+----------+
    |  Latency  |  Interval | Pipeline |
    | min | max | min | max |   Type   |
    +-----+-----+-----+-----+----------+
    |    1|    1|    1|    1| function |
    +-----+-----+-----+-----+----------+

    + Detail: 
        * Instance: 
        N/A

        * Loop: 
        N/A



================================================================
== Utilization Estimates
================================================================
* Summary: 
+-----------------+---------+-------+--------+-------+-----+
|       Name      | BRAM_18K| DSP48E|   FF   |  LUT  | URAM|
+-----------------+---------+-------+--------+-------+-----+
|DSP              |        -|      -|       -|      -|    -|
|Expression       |        -|      -|       0|     30|    -|
|FIFO             |        -|      -|       -|      -|    -|
|Instance         |        -|      -|       -|      -|    -|
|Memory           |        -|      -|       -|      -|    -|
|Multiplexer      |        -|      -|       -|     90|    -|
|Register         |        -|      -|     153|      -|    -|
+-----------------+---------+-------+--------+-------+-----+
|Total            |        0|      0|     153|    120|    0|
+-----------------+---------+-------+--------+-------+-----+
|Available        |      280|    220|  106400|  53200|    0|
+-----------------+---------+-------+--------+-------+-----+
|Utilization (%)  |        0|      0|   ~0   |   ~0  |    0|
+-----------------+---------+-------+--------+-------+-----+

+ Detail: 
    * Instance: 
    N/A

    * DSP48E: 
    N/A

    * Memory: 
    N/A

    * FIFO: 
    N/A

    * Expression: 
    +----------------------------------+----------+-------+---+----+------------+------------+
    |           Variable Name          | Operation| DSP48E| FF| LUT| Bitwidth P0| Bitwidth P1|
    +----------------------------------+----------+-------+---+----+------------+------------+
    |ap_condition_156                  |    and   |      0|  0|   2|           1|           1|
    |ap_condition_169                  |    and   |      0|  0|   2|           1|           1|
    |ap_condition_179                  |    and   |      0|  0|   2|           1|           1|
    |ap_condition_91                   |    and   |      0|  0|   2|           1|           1|
    |ap_predicate_op36_write_state2    |    and   |      0|  0|   2|           1|           1|
    |ap_predicate_op7_read_state1      |    and   |      0|  0|   2|           1|           1|
    |io_acc_block_signal_op7           |    and   |      0|  0|   2|           1|           1|
    |tmp_last_V_1_fu_165_p2            |   icmp   |      0|  0|   8|           2|           1|
    |ap_block_pp0_stage0_01001         |    or    |      0|  0|   2|           1|           1|
    |ap_block_state1_pp0_stage0_iter0  |    or    |      0|  0|   2|           1|           1|
    |ap_block_state2_pp0_stage0_iter1  |    or    |      0|  0|   2|           1|           1|
    |ap_enable_pp0                     |    xor   |      0|  0|   2|           1|           2|
    +----------------------------------+----------+-------+---+----+------------+------------+
    |Total                             |          |      0|  0|  30|          13|          13|
    +----------------------------------+----------+-------+---+----+------------+------------+

    * Multiplexer: 
    +-----------------------------------------------+----+-----------+-----+-----------+
    |                      Name                     | LUT| Input Size| Bits| Total Bits|
    +-----------------------------------------------+----+-----------+-----+-----------+
    |ap_done                                        |   9|          2|    1|          2|
    |ap_phi_mux_p_0256_2_0_i_phi_fu_98_p4           |  15|          3|    1|          3|
    |ap_phi_mux_rs_firstWord_1_new_0_phi_fu_109_p4  |  15|          3|    1|          3|
    |ipDataFifo_V_blk_n                             |   9|          2|    1|          2|
    |ipDataFifo_V_din                               |  15|          3|   73|        219|
    |ipv4ShiftFifo_V_data_blk_n                     |   9|          2|    1|          2|
    |ipv4ShiftFifo_V_keep_blk_n                     |   9|          2|    1|          2|
    |ipv4ShiftFifo_V_last_blk_n                     |   9|          2|    1|          2|
    +-----------------------------------------------+----+-----------+-----+-----------+
    |Total                                          |  90|         19|   80|        235|
    +-----------------------------------------------+----+-----------+-----+-----------+

    * Register: 
    +-----------------------------+----+----+-----+-----------+
    |             Name            | FF | LUT| Bits| Const Bits|
    +-----------------------------+----+----+-----+-----------+
    |ap_CS_fsm                    |   1|   0|    1|          0|
    |ap_done_reg                  |   1|   0|    1|          0|
    |ap_enable_reg_pp0_iter1      |   1|   0|    1|          0|
    |fsmState_1                   |   1|   0|    1|          0|
    |fsmState_1_load_reg_243      |   1|   0|    1|          0|
    |prevWord_data_V              |  64|   0|   64|          0|
    |prevWord_keep_V_1            |   8|   0|    8|          0|
    |rs_firstWord_1               |   1|   0|    1|          0|
    |rs_firstWord_1_load_reg_267  |   1|   0|    1|          0|
    |tmp_data_V_reg_251           |  64|   0|   64|          0|
    |tmp_keep_V_reg_257           |   8|   0|    8|          0|
    |tmp_last_V_1_reg_271         |   1|   0|    1|          0|
    |tmp_reg_247                  |   1|   0|    1|          0|
    +-----------------------------+----+----+-----+-----------+
    |Total                        | 153|   0|  153|          0|
    +-----------------------------+----+----+-----+-----------+



================================================================
== Interface
================================================================
* Summary: 
+------------------------------+-----+-----+------------+----------------------+--------------+
|           RTL Ports          | Dir | Bits|  Protocol  |     Source Object    |    C Type    |
+------------------------------+-----+-----+------------+----------------------+--------------+
|ap_clk                        |  in |    1| ap_ctrl_hs |  rshiftWordByOctet.1 | return value |
|ap_rst                        |  in |    1| ap_ctrl_hs |  rshiftWordByOctet.1 | return value |
|ap_start                      |  in |    1| ap_ctrl_hs |  rshiftWordByOctet.1 | return value |
|ap_done                       | out |    1| ap_ctrl_hs |  rshiftWordByOctet.1 | return value |
|ap_continue                   |  in |    1| ap_ctrl_hs |  rshiftWordByOctet.1 | return value |
|ap_idle                       | out |    1| ap_ctrl_hs |  rshiftWordByOctet.1 | return value |
|ap_ready                      | out |    1| ap_ctrl_hs |  rshiftWordByOctet.1 | return value |
|ipv4ShiftFifo_V_data_dout     |  in |   64|   ap_fifo  | ipv4ShiftFifo_V_data |    pointer   |
|ipv4ShiftFifo_V_data_empty_n  |  in |    1|   ap_fifo  | ipv4ShiftFifo_V_data |    pointer   |
|ipv4ShiftFifo_V_data_read     | out |    1|   ap_fifo  | ipv4ShiftFifo_V_data |    pointer   |
|ipv4ShiftFifo_V_keep_dout     |  in |    8|   ap_fifo  | ipv4ShiftFifo_V_keep |    pointer   |
|ipv4ShiftFifo_V_keep_empty_n  |  in |    1|   ap_fifo  | ipv4ShiftFifo_V_keep |    pointer   |
|ipv4ShiftFifo_V_keep_read     | out |    1|   ap_fifo  | ipv4ShiftFifo_V_keep |    pointer   |
|ipv4ShiftFifo_V_last_dout     |  in |    1|   ap_fifo  | ipv4ShiftFifo_V_last |    pointer   |
|ipv4ShiftFifo_V_last_empty_n  |  in |    1|   ap_fifo  | ipv4ShiftFifo_V_last |    pointer   |
|ipv4ShiftFifo_V_last_read     | out |    1|   ap_fifo  | ipv4ShiftFifo_V_last |    pointer   |
|ipDataFifo_V_din              | out |   73|   ap_fifo  |     ipDataFifo_V     |    pointer   |
|ipDataFifo_V_full_n           |  in |    1|   ap_fifo  |     ipDataFifo_V     |    pointer   |
|ipDataFifo_V_write            | out |    1|   ap_fifo  |     ipDataFifo_V     |    pointer   |
+------------------------------+-----+-----+------------+----------------------+--------------+

============================================================
+ Verbose Summary: Synthesis Manager
============================================================
InlineROM: 1
ExposeGlobal: 0
============================================================
+ Verbose Summary: CDFG Model
============================================================
IsTopModel: 0
ResetActiveHigh: 1
IsCombinational: 2
IsDatapathOnly: 0
HasWiredReturn: 1
HasMFsm: 2
HasVarLatency: 0
IsPipeline: 1
IsRtlPipelined: 1
IsInstanceOverlapped: 0
IsDontTouch: 0
HasImplIP: 0
IsGatedGlobalClock: 0

+ Individual pipeline summary: 
  * Pipeline-0: initiation interval (II) = 1, depth = 2


============================================================
+ Verbose Summary: Schedule
============================================================
* Number of FSM states : 2
* Pipeline : 1
  Pipeline-0 : II = 1, D = 2, States = { 1 2 }
* Dataflow Pipeline: 0

* FSM state transitions: 
1 --> 2 
2 --> 

* FSM state operations: 

State 1 <SV = 0> <Delay = 5.52>
ST_1 : Operation 3 [1/1] (0.00ns)   --->   "%fsmState_1_load = load i1* @fsmState_1, align 1" [/home/paulrr2/Projects/ece527/babelsoc/fpga-network-stack/hls/ip_handler/../axi_utils.hpp:447]   --->   Operation 3 'load' 'fsmState_1_load' <Predicate = true> <Delay = 0.00>
ST_1 : Operation 4 [1/1] (0.00ns)   --->   "br i1 %fsmState_1_load, label %5, label %0" [/home/paulrr2/Projects/ece527/babelsoc/fpga-network-stack/hls/ip_handler/../axi_utils.hpp:447]   --->   Operation 4 'br' <Predicate = true> <Delay = 0.00>
ST_1 : Operation 5 [1/1] (0.00ns)   --->   "%tmp = call i1 @_ssdm_op_NbReadReq.ap_fifo.i64P.i8P.i1P(i64* @ipv4ShiftFifo_V_data, i8* @ipv4ShiftFifo_V_keep, i1* @ipv4ShiftFifo_V_last, i32 1) nounwind" [/home/paulrr2/Projects/ece527/babelsoc/fpga-network-stack/hls/ip_handler/../axi_utils.hpp:450]   --->   Operation 5 'nbreadreq' 'tmp' <Predicate = (!fsmState_1_load)> <Delay = 0.00> <Core = "FIFO">   --->   Core 32 'FIFO' <Latency = 0> <II = 1> <Delay = 3.63> <Storage> <Opcode : 'read' 'write' 'nbread' 'nbwrite'> <Ports = 0> <Width = 73> <Depth = 2> <FIFO>
ST_1 : Operation 6 [1/1] (0.00ns)   --->   "br i1 %tmp, label %1, label %._crit_edge64.i" [/home/paulrr2/Projects/ece527/babelsoc/fpga-network-stack/hls/ip_handler/../axi_utils.hpp:450]   --->   Operation 6 'br' <Predicate = (!fsmState_1_load)> <Delay = 0.00>
ST_1 : Operation 7 [1/1] (2.80ns)   --->   "%empty = call { i64, i8, i1 } @_ssdm_op_Read.ap_fifo.volatile.i64P.i8P.i1P(i64* @ipv4ShiftFifo_V_data, i8* @ipv4ShiftFifo_V_keep, i1* @ipv4ShiftFifo_V_last) nounwind" [/home/paulrr2/Projects/ece527/babelsoc/fpga-network-stack/hls/ip_handler/../axi_utils.hpp:452]   --->   Operation 7 'read' 'empty' <Predicate = (!fsmState_1_load & tmp)> <Delay = 2.80> <Core = "FIFO">   --->   Core 32 'FIFO' <Latency = 0> <II = 1> <Delay = 3.63> <Storage> <Opcode : 'read' 'write' 'nbread' 'nbwrite'> <Ports = 0> <Width = 73> <Depth = 2> <FIFO>
ST_1 : Operation 8 [1/1] (0.00ns)   --->   "%tmp_data_V = extractvalue { i64, i8, i1 } %empty, 0" [/home/paulrr2/Projects/ece527/babelsoc/fpga-network-stack/hls/ip_handler/../axi_utils.hpp:452]   --->   Operation 8 'extractvalue' 'tmp_data_V' <Predicate = (!fsmState_1_load & tmp)> <Delay = 0.00>
ST_1 : Operation 9 [1/1] (0.00ns)   --->   "%tmp_keep_V = extractvalue { i64, i8, i1 } %empty, 1" [/home/paulrr2/Projects/ece527/babelsoc/fpga-network-stack/hls/ip_handler/../axi_utils.hpp:452]   --->   Operation 9 'extractvalue' 'tmp_keep_V' <Predicate = (!fsmState_1_load & tmp)> <Delay = 0.00>
ST_1 : Operation 10 [1/1] (0.00ns)   --->   "%tmp_last_V = extractvalue { i64, i8, i1 } %empty, 2" [/home/paulrr2/Projects/ece527/babelsoc/fpga-network-stack/hls/ip_handler/../axi_utils.hpp:452]   --->   Operation 10 'extractvalue' 'tmp_last_V' <Predicate = (!fsmState_1_load & tmp)> <Delay = 0.00>
ST_1 : Operation 11 [1/1] (0.00ns)   --->   "%rs_firstWord_1_load = load i1* @rs_firstWord_1, align 1" [/home/paulrr2/Projects/ece527/babelsoc/fpga-network-stack/hls/ip_handler/../axi_utils.hpp:454]   --->   Operation 11 'load' 'rs_firstWord_1_load' <Predicate = (!fsmState_1_load & tmp)> <Delay = 0.00>
ST_1 : Operation 12 [1/1] (1.76ns)   --->   "br i1 %rs_firstWord_1_load, label %._crit_edge65.i, label %2" [/home/paulrr2/Projects/ece527/babelsoc/fpga-network-stack/hls/ip_handler/../axi_utils.hpp:454]   --->   Operation 12 'br' <Predicate = (!fsmState_1_load & tmp)> <Delay = 1.76>
ST_1 : Operation 13 [1/1] (0.00ns)   --->   "%p_Result_14_i = call i2 @_ssdm_op_PartSelect.i2.i8.i32.i32(i8 %tmp_keep_V, i32 6, i32 7) nounwind" [/home/paulrr2/Projects/ece527/babelsoc/fpga-network-stack/hls/ip_handler/../axi_utils.hpp:468]   --->   Operation 13 'partselect' 'p_Result_14_i' <Predicate = (!fsmState_1_load & tmp & !rs_firstWord_1_load)> <Delay = 0.00>
ST_1 : Operation 14 [1/1] (0.95ns)   --->   "%tmp_last_V_1 = icmp eq i2 %p_Result_14_i, 0" [/home/paulrr2/Projects/ece527/babelsoc/fpga-network-stack/hls/ip_handler/../axi_utils.hpp:468]   --->   Operation 14 'icmp' 'tmp_last_V_1' <Predicate = (!fsmState_1_load & tmp & !rs_firstWord_1_load)> <Delay = 0.95> <Core = "Cmp">   --->   Core 25 'Cmp' <Latency = 0> <II = 1> <Delay = 0.95> <FuncUnit> <Opcode : 'icmp'> <InPorts = 2> <OutPorts = 1>
ST_1 : Operation 15 [1/1] (1.76ns)   --->   "br label %._crit_edge65.i" [/home/paulrr2/Projects/ece527/babelsoc/fpga-network-stack/hls/ip_handler/../axi_utils.hpp:473]   --->   Operation 15 'br' <Predicate = (!fsmState_1_load & tmp & !rs_firstWord_1_load)> <Delay = 1.76>
ST_1 : Operation 16 [1/1] (0.00ns)   --->   "%p_0256_2_0_i = phi i1 [ %tmp_last_V_1, %2 ], [ false, %1 ]"   --->   Operation 16 'phi' 'p_0256_2_0_i' <Predicate = (!fsmState_1_load & tmp)> <Delay = 0.00>
ST_1 : Operation 17 [1/1] (1.76ns)   --->   "br i1 %tmp_last_V, label %3, label %mergeST.i" [/home/paulrr2/Projects/ece527/babelsoc/fpga-network-stack/hls/ip_handler/../axi_utils.hpp:477]   --->   Operation 17 'br' <Predicate = (!fsmState_1_load & tmp)> <Delay = 1.76>
ST_1 : Operation 18 [1/1] (0.00ns)   --->   "br i1 %p_0256_2_0_i, label %._crit_edge67.i, label %4" [/home/paulrr2/Projects/ece527/babelsoc/fpga-network-stack/hls/ip_handler/../axi_utils.hpp:481]   --->   Operation 18 'br' <Predicate = (!fsmState_1_load & tmp & tmp_last_V)> <Delay = 0.00>
ST_1 : Operation 19 [1/1] (1.76ns)   --->   "store i1 true, i1* @fsmState_1, align 1" [/home/paulrr2/Projects/ece527/babelsoc/fpga-network-stack/hls/ip_handler/../axi_utils.hpp:483]   --->   Operation 19 'store' <Predicate = (!fsmState_1_load & tmp & tmp_last_V & !p_0256_2_0_i)> <Delay = 1.76>
ST_1 : Operation 20 [1/1] (1.76ns)   --->   "br label %mergeST.i" [/home/paulrr2/Projects/ece527/babelsoc/fpga-network-stack/hls/ip_handler/../axi_utils.hpp:485]   --->   Operation 20 'br' <Predicate = (!fsmState_1_load & tmp & tmp_last_V)> <Delay = 1.76>
ST_1 : Operation 21 [1/1] (0.00ns)   --->   "%rs_firstWord_1_new_0 = phi i1 [ true, %._crit_edge67.i ], [ false, %._crit_edge65.i ]"   --->   Operation 21 'phi' 'rs_firstWord_1_new_0' <Predicate = (!fsmState_1_load & tmp)> <Delay = 0.00>
ST_1 : Operation 22 [1/1] (0.00ns)   --->   "store i1 %rs_firstWord_1_new_0, i1* @rs_firstWord_1, align 1" [/home/paulrr2/Projects/ece527/babelsoc/fpga-network-stack/hls/ip_handler/../axi_utils.hpp:476]   --->   Operation 22 'store' <Predicate = (!fsmState_1_load & tmp)> <Delay = 0.00>
ST_1 : Operation 23 [1/1] (1.76ns)   --->   "store i1 false, i1* @fsmState_1, align 1" [/home/paulrr2/Projects/ece527/babelsoc/fpga-network-stack/hls/ip_handler/../axi_utils.hpp:499]   --->   Operation 23 'store' <Predicate = (fsmState_1_load)> <Delay = 1.76>

State 2 <SV = 1> <Delay = 2.80>
ST_2 : Operation 24 [1/1] (0.00ns)   --->   "call void (...)* @_ssdm_op_SpecInterface(i73* @ipDataFifo_V, [8 x i8]* @ap_fifo_str, i32 0, i32 0, [1 x i8]* @p_str, i32 0, i32 0, [1 x i8]* @p_str, [1 x i8]* @p_str, [1 x i8]* @p_str, i32 2, i32 2, i32 16, i32 16, [1 x i8]* @p_str, [1 x i8]* @p_str)"   --->   Operation 24 'specinterface' <Predicate = true> <Delay = 0.00>
ST_2 : Operation 25 [1/1] (0.00ns)   --->   "call void (...)* @_ssdm_op_SpecInterface(i64* @ipv4ShiftFifo_V_data, [8 x i8]* @ap_fifo_str, i32 0, i32 0, [1 x i8]* @p_str, i32 0, i32 0, [1 x i8]* @p_str, [1 x i8]* @p_str, [1 x i8]* @p_str, i32 2, i32 2, i32 16, i32 16, [1 x i8]* @p_str, [1 x i8]* @p_str)"   --->   Operation 25 'specinterface' <Predicate = true> <Delay = 0.00>
ST_2 : Operation 26 [1/1] (0.00ns)   --->   "call void (...)* @_ssdm_op_SpecInterface(i8* @ipv4ShiftFifo_V_keep, [8 x i8]* @ap_fifo_str, i32 0, i32 0, [1 x i8]* @p_str, i32 0, i32 0, [1 x i8]* @p_str, [1 x i8]* @p_str, [1 x i8]* @p_str, i32 2, i32 2, i32 16, i32 16, [1 x i8]* @p_str, [1 x i8]* @p_str)"   --->   Operation 26 'specinterface' <Predicate = true> <Delay = 0.00>
ST_2 : Operation 27 [1/1] (0.00ns)   --->   "call void (...)* @_ssdm_op_SpecInterface(i1* @ipv4ShiftFifo_V_last, [8 x i8]* @ap_fifo_str, i32 0, i32 0, [1 x i8]* @p_str, i32 0, i32 0, [1 x i8]* @p_str, [1 x i8]* @p_str, [1 x i8]* @p_str, i32 2, i32 2, i32 16, i32 16, [1 x i8]* @p_str, [1 x i8]* @p_str)"   --->   Operation 27 'specinterface' <Predicate = true> <Delay = 0.00>
ST_2 : Operation 28 [1/1] (0.00ns)   --->   "call void (...)* @_ssdm_op_SpecPipeline(i32 1, i32 1, i32 1, i32 0, [1 x i8]* @p_str2) nounwind" [/home/paulrr2/Projects/ece527/babelsoc/fpga-network-stack/hls/ip_handler/../axi_utils.hpp:436]   --->   Operation 28 'specpipeline' <Predicate = true> <Delay = 0.00>
ST_2 : Operation 29 [1/1] (0.00ns)   --->   "%p_Val2_s = load i64* @prevWord_data_V, align 8" [/home/paulrr2/Projects/ece527/babelsoc/fpga-network-stack/hls/ip_handler/../axi_utils.hpp:462]   --->   Operation 29 'load' 'p_Val2_s' <Predicate = true> <Delay = 0.00>
ST_2 : Operation 30 [1/1] (0.00ns)   --->   "%p_Val2_1 = load i8* @prevWord_keep_V_1, align 1" [/home/paulrr2/Projects/ece527/babelsoc/fpga-network-stack/hls/ip_handler/../axi_utils.hpp:465]   --->   Operation 30 'load' 'p_Val2_1' <Predicate = true> <Delay = 0.00>
ST_2 : Operation 31 [1/1] (0.00ns)   --->   "%p_Result_i = call i16 @_ssdm_op_PartSelect.i16.i64.i32.i32(i64 %p_Val2_s, i32 48, i32 63) nounwind" [/home/paulrr2/Projects/ece527/babelsoc/fpga-network-stack/hls/ip_handler/../axi_utils.hpp:462]   --->   Operation 31 'partselect' 'p_Result_i' <Predicate = (!fsmState_1_load & tmp & !rs_firstWord_1_load)> <Delay = 0.00>
ST_2 : Operation 32 [1/1] (0.00ns)   --->   "%trunc_ln647 = trunc i64 %tmp_data_V to i48" [/home/paulrr2/Projects/ece527/babelsoc/fpga-network-stack/hls/ip_handler/../axi_utils.hpp:463]   --->   Operation 32 'trunc' 'trunc_ln647' <Predicate = (!fsmState_1_load & tmp & !rs_firstWord_1_load)> <Delay = 0.00>
ST_2 : Operation 33 [1/1] (0.00ns)   --->   "%p_Result_12_i = call i2 @_ssdm_op_PartSelect.i2.i8.i32.i32(i8 %p_Val2_1, i32 6, i32 7) nounwind" [/home/paulrr2/Projects/ece527/babelsoc/fpga-network-stack/hls/ip_handler/../axi_utils.hpp:465]   --->   Operation 33 'partselect' 'p_Result_12_i' <Predicate = (!fsmState_1_load & tmp & !rs_firstWord_1_load)> <Delay = 0.00>
ST_2 : Operation 34 [1/1] (0.00ns)   --->   "%trunc_ln647_1 = trunc i8 %tmp_keep_V to i6" [/home/paulrr2/Projects/ece527/babelsoc/fpga-network-stack/hls/ip_handler/../axi_utils.hpp:466]   --->   Operation 34 'trunc' 'trunc_ln647_1' <Predicate = (!fsmState_1_load & tmp & !rs_firstWord_1_load)> <Delay = 0.00>
ST_2 : Operation 35 [1/1] (0.00ns)   --->   "%tmp28 = call i73 @_ssdm_op_BitConcatenate.i73.i1.i6.i2.i48.i16(i1 %tmp_last_V_1, i6 %trunc_ln647_1, i2 %p_Result_12_i, i48 %trunc_ln647, i16 %p_Result_i) nounwind" [/home/paulrr2/Projects/ece527/babelsoc/fpga-network-stack/hls/ip_handler/../axi_utils.hpp:472]   --->   Operation 35 'bitconcatenate' 'tmp28' <Predicate = (!fsmState_1_load & tmp & !rs_firstWord_1_load)> <Delay = 0.00>
ST_2 : Operation 36 [1/1] (2.80ns)   --->   "call void @_ssdm_op_Write.ap_fifo.volatile.i73P(i73* @ipDataFifo_V, i73 %tmp28) nounwind" [/home/paulrr2/Projects/ece527/babelsoc/fpga-network-stack/hls/ip_handler/../axi_utils.hpp:472]   --->   Operation 36 'write' <Predicate = (!fsmState_1_load & tmp & !rs_firstWord_1_load)> <Delay = 2.80> <Core = "FIFO">   --->   Core 32 'FIFO' <Latency = 0> <II = 1> <Delay = 3.63> <Storage> <Opcode : 'read' 'write' 'nbread' 'nbwrite'> <Ports = 0> <Width = 73> <Depth = 2> <FIFO>
ST_2 : Operation 37 [1/1] (0.00ns)   --->   "store i64 %tmp_data_V, i64* @prevWord_data_V, align 8" [/home/paulrr2/Projects/ece527/babelsoc/fpga-network-stack/hls/ip_handler/../axi_utils.hpp:50->/home/paulrr2/Projects/ece527/babelsoc/fpga-network-stack/hls/ip_handler/../axi_utils.hpp:475]   --->   Operation 37 'store' <Predicate = (!fsmState_1_load & tmp)> <Delay = 0.00>
ST_2 : Operation 38 [1/1] (0.00ns)   --->   "store i8 %tmp_keep_V, i8* @prevWord_keep_V_1, align 8" [/home/paulrr2/Projects/ece527/babelsoc/fpga-network-stack/hls/ip_handler/../axi_utils.hpp:50->/home/paulrr2/Projects/ece527/babelsoc/fpga-network-stack/hls/ip_handler/../axi_utils.hpp:475]   --->   Operation 38 'store' <Predicate = (!fsmState_1_load & tmp)> <Delay = 0.00>
ST_2 : Operation 39 [1/1] (0.00ns)   --->   "br label %._crit_edge67.i" [/home/paulrr2/Projects/ece527/babelsoc/fpga-network-stack/hls/ip_handler/../axi_utils.hpp:484]   --->   Operation 39 'br' <Predicate = (!fsmState_1_load & tmp & tmp_last_V & !p_0256_2_0_i)> <Delay = 0.00>
ST_2 : Operation 40 [1/1] (0.00ns)   --->   "br label %._crit_edge64.i" [/home/paulrr2/Projects/ece527/babelsoc/fpga-network-stack/hls/ip_handler/../axi_utils.hpp:487]   --->   Operation 40 'br' <Predicate = (!fsmState_1_load & tmp)> <Delay = 0.00>
ST_2 : Operation 41 [1/1] (0.00ns)   --->   "br label %"rshiftWordByOctet<net_axis<64>, 64, 1>.exit"" [/home/paulrr2/Projects/ece527/babelsoc/fpga-network-stack/hls/ip_handler/../axi_utils.hpp:488]   --->   Operation 41 'br' <Predicate = (!fsmState_1_load)> <Delay = 0.00>
ST_2 : Operation 42 [1/1] (0.00ns)   --->   "%p_Result_i_21 = call i16 @_ssdm_op_PartSelect.i16.i64.i32.i32(i64 %p_Val2_s, i32 48, i32 63) nounwind" [/home/paulrr2/Projects/ece527/babelsoc/fpga-network-stack/hls/ip_handler/../axi_utils.hpp:490]   --->   Operation 42 'partselect' 'p_Result_i_21' <Predicate = (fsmState_1_load)> <Delay = 0.00>
ST_2 : Operation 43 [1/1] (0.00ns)   --->   "%p_Result_10_i = call i2 @_ssdm_op_PartSelect.i2.i8.i32.i32(i8 %p_Val2_1, i32 6, i32 7) nounwind" [/home/paulrr2/Projects/ece527/babelsoc/fpga-network-stack/hls/ip_handler/../axi_utils.hpp:492]   --->   Operation 43 'partselect' 'p_Result_10_i' <Predicate = (fsmState_1_load)> <Delay = 0.00>
ST_2 : Operation 44 [1/1] (0.00ns)   --->   "%tmp_1 = call i73 @_ssdm_op_BitConcatenate.i73.i7.i2.i48.i16(i7 -64, i2 %p_Result_10_i, i48 0, i16 %p_Result_i_21) nounwind" [/home/paulrr2/Projects/ece527/babelsoc/fpga-network-stack/hls/ip_handler/../axi_utils.hpp:498]   --->   Operation 44 'bitconcatenate' 'tmp_1' <Predicate = (fsmState_1_load)> <Delay = 0.00>
ST_2 : Operation 45 [1/1] (2.80ns)   --->   "call void @_ssdm_op_Write.ap_fifo.volatile.i73P(i73* @ipDataFifo_V, i73 %tmp_1) nounwind" [/home/paulrr2/Projects/ece527/babelsoc/fpga-network-stack/hls/ip_handler/../axi_utils.hpp:498]   --->   Operation 45 'write' <Predicate = (fsmState_1_load)> <Delay = 2.80> <Core = "FIFO">   --->   Core 32 'FIFO' <Latency = 0> <II = 1> <Delay = 3.63> <Storage> <Opcode : 'read' 'write' 'nbread' 'nbwrite'> <Ports = 0> <Width = 73> <Depth = 2> <FIFO>
ST_2 : Operation 46 [1/1] (0.00ns)   --->   "br label %"rshiftWordByOctet<net_axis<64>, 64, 1>.exit"" [/home/paulrr2/Projects/ece527/babelsoc/fpga-network-stack/hls/ip_handler/../axi_utils.hpp:500]   --->   Operation 46 'br' <Predicate = (fsmState_1_load)> <Delay = 0.00>
ST_2 : Operation 47 [1/1] (0.00ns)   --->   "ret void"   --->   Operation 47 'ret' <Predicate = true> <Delay = 0.00>


============================================================
+ Verbose Summary: Binding
============================================================
STG Binding: 
---------------- STG Properties BEGIN ----------------
- Is combinational: 0
- Is one-state seq: 0
- Is datapath-only: 0
- Is pipelined: 1
- Is top level: 0
Port [ Return ] is wired: 1; IO mode=ap_ctrl_hs:ce=0
Port [ fsmState_1]:  wired=0; compound=0; hidden=1; nouse=0; global=1; static=1; extern=0; dir=2; type=0; pingpong=0; private_global=1; linkage=7; visibility=0; IO mode=ap_ovld:ce=0
Port [ prevWord_data_V]:  wired=0; compound=0; hidden=1; nouse=0; global=1; static=1; extern=0; dir=2; type=0; pingpong=0; private_global=1; linkage=7; visibility=0; IO mode=ap_ovld:ce=0
Port [ prevWord_keep_V_1]:  wired=0; compound=0; hidden=1; nouse=0; global=1; static=1; extern=0; dir=2; type=0; pingpong=0; private_global=1; linkage=7; visibility=0; IO mode=ap_ovld:ce=0
Port [ ipv4ShiftFifo_V_data]:  wired=1; compound=1; hidden=0; nouse=0; global=1; static=1; extern=0; dir=0; type=3; pingpong=0; private_global=0; linkage=7; visibility=0; IO mode=ap_fifo:ce=0
Port [ ipv4ShiftFifo_V_keep]:  wired=1; compound=1; hidden=0; nouse=0; global=1; static=1; extern=0; dir=0; type=3; pingpong=0; private_global=0; linkage=7; visibility=0; IO mode=ap_fifo:ce=0
Port [ ipv4ShiftFifo_V_last]:  wired=1; compound=1; hidden=0; nouse=0; global=1; static=1; extern=0; dir=0; type=3; pingpong=0; private_global=0; linkage=7; visibility=0; IO mode=ap_fifo:ce=0
Port [ rs_firstWord_1]:  wired=0; compound=0; hidden=1; nouse=0; global=1; static=1; extern=0; dir=2; type=0; pingpong=0; private_global=1; linkage=7; visibility=0; IO mode=ap_ovld:ce=0
Port [ ipDataFifo_V]:  wired=1; compound=1; hidden=0; nouse=0; global=1; static=1; extern=0; dir=1; type=3; pingpong=0; private_global=0; linkage=7; visibility=0; IO mode=ap_fifo:ce=0
---------------- STG Properties END ------------------

---------------- Datapath Model BEGIN ----------------

<LifeTime>
<method=bitvector/>
fsmState_1_load      (load          ) [ 011]
br_ln447             (br            ) [ 000]
tmp                  (nbreadreq     ) [ 011]
br_ln450             (br            ) [ 000]
empty                (read          ) [ 000]
tmp_data_V           (extractvalue  ) [ 011]
tmp_keep_V           (extractvalue  ) [ 011]
tmp_last_V           (extractvalue  ) [ 011]
rs_firstWord_1_load  (load          ) [ 011]
br_ln454             (br            ) [ 000]
p_Result_14_i        (partselect    ) [ 000]
tmp_last_V_1         (icmp          ) [ 011]
br_ln473             (br            ) [ 000]
p_0256_2_0_i         (phi           ) [ 011]
br_ln477             (br            ) [ 000]
br_ln481             (br            ) [ 000]
store_ln483          (store         ) [ 000]
br_ln485             (br            ) [ 000]
rs_firstWord_1_new_0 (phi           ) [ 000]
store_ln476          (store         ) [ 000]
store_ln499          (store         ) [ 000]
specinterface_ln0    (specinterface ) [ 000]
specinterface_ln0    (specinterface ) [ 000]
specinterface_ln0    (specinterface ) [ 000]
specinterface_ln0    (specinterface ) [ 000]
specpipeline_ln436   (specpipeline  ) [ 000]
p_Val2_s             (load          ) [ 000]
p_Val2_1             (load          ) [ 000]
p_Result_i           (partselect    ) [ 000]
trunc_ln647          (trunc         ) [ 000]
p_Result_12_i        (partselect    ) [ 000]
trunc_ln647_1        (trunc         ) [ 000]
tmp28                (bitconcatenate) [ 000]
write_ln472          (write         ) [ 000]
store_ln50           (store         ) [ 000]
store_ln50           (store         ) [ 000]
br_ln484             (br            ) [ 000]
br_ln487             (br            ) [ 000]
br_ln488             (br            ) [ 000]
p_Result_i_21        (partselect    ) [ 000]
p_Result_10_i        (partselect    ) [ 000]
tmp_1                (bitconcatenate) [ 000]
write_ln498          (write         ) [ 000]
br_ln500             (br            ) [ 000]
ret_ln0              (ret           ) [ 000]
</LifeTime>

<model>

<comp_list>
<comp id="0" class="1000" name="fsmState_1">
<pin_list>
<pin id="1" dir="1" index="0" bw="1" slack="0"/>
</pin_list>
<bind>
<StgValue><ssdm name="fsmState_1"/></StgValue>
</bind>
</comp>

<comp id="2" class="1000" name="prevWord_data_V">
<pin_list>
<pin id="3" dir="1" index="0" bw="1" slack="0"/>
</pin_list>
<bind>
<StgValue><ssdm name="prevWord_data_V"/></StgValue>
</bind>
</comp>

<comp id="4" class="1000" name="prevWord_keep_V_1">
<pin_list>
<pin id="5" dir="1" index="0" bw="1" slack="0"/>
</pin_list>
<bind>
<StgValue><ssdm name="prevWord_keep_V_1"/></StgValue>
</bind>
</comp>

<comp id="6" class="1000" name="ipv4ShiftFifo_V_data">
<pin_list>
<pin id="7" dir="1" index="0" bw="1" slack="0"/>
</pin_list>
<bind>
<StgValue><ssdm name="ipv4ShiftFifo_V_data"/></StgValue>
</bind>
</comp>

<comp id="8" class="1000" name="ipv4ShiftFifo_V_keep">
<pin_list>
<pin id="9" dir="1" index="0" bw="1" slack="0"/>
</pin_list>
<bind>
<StgValue><ssdm name="ipv4ShiftFifo_V_keep"/></StgValue>
</bind>
</comp>

<comp id="10" class="1000" name="ipv4ShiftFifo_V_last">
<pin_list>
<pin id="11" dir="1" index="0" bw="1" slack="0"/>
</pin_list>
<bind>
<StgValue><ssdm name="ipv4ShiftFifo_V_last"/></StgValue>
</bind>
</comp>

<comp id="12" class="1000" name="rs_firstWord_1">
<pin_list>
<pin id="13" dir="1" index="0" bw="1" slack="0"/>
</pin_list>
<bind>
<StgValue><ssdm name="rs_firstWord_1"/></StgValue>
</bind>
</comp>

<comp id="14" class="1000" name="ipDataFifo_V">
<pin_list>
<pin id="15" dir="1" index="0" bw="1" slack="0"/>
</pin_list>
<bind>
<StgValue><ssdm name="ipDataFifo_V"/></StgValue>
</bind>
</comp>

<comp id="16" class="1001" name="const_16">
<pin_list>
<pin id="17" dir="1" index="0" bw="1" slack="0"/>
</pin_list>
<bind>
<StgValue><ssdm name="_ssdm_op_NbReadReq.ap_fifo.i64P.i8P.i1P"/></StgValue>
</bind>
</comp>

<comp id="18" class="1001" name="const_18">
<pin_list>
<pin id="19" dir="1" index="0" bw="1" slack="0"/>
</pin_list>
<bind>
<StgValue><ssdm name=""/></StgValue>
</bind>
</comp>

<comp id="20" class="1001" name="const_20">
<pin_list>
<pin id="21" dir="1" index="0" bw="1" slack="0"/>
</pin_list>
<bind>
<StgValue><ssdm name="_ssdm_op_Read.ap_fifo.volatile.i64P.i8P.i1P"/></StgValue>
</bind>
</comp>

<comp id="22" class="1001" name="const_22">
<pin_list>
<pin id="23" dir="1" index="0" bw="1" slack="0"/>
</pin_list>
<bind>
<StgValue><ssdm name="_ssdm_op_PartSelect.i2.i8.i32.i32"/></StgValue>
</bind>
</comp>

<comp id="24" class="1001" name="const_24">
<pin_list>
<pin id="25" dir="1" index="0" bw="1" slack="0"/>
</pin_list>
<bind>
<StgValue><ssdm name=""/></StgValue>
</bind>
</comp>

<comp id="26" class="1001" name="const_26">
<pin_list>
<pin id="27" dir="1" index="0" bw="1" slack="0"/>
</pin_list>
<bind>
<StgValue><ssdm name=""/></StgValue>
</bind>
</comp>

<comp id="28" class="1001" name="const_28">
<pin_list>
<pin id="29" dir="1" index="0" bw="1" slack="0"/>
</pin_list>
<bind>
<StgValue><ssdm name=""/></StgValue>
</bind>
</comp>

<comp id="30" class="1001" name="const_30">
<pin_list>
<pin id="31" dir="1" index="0" bw="1" slack="0"/>
</pin_list>
<bind>
<StgValue><ssdm name=""/></StgValue>
</bind>
</comp>

<comp id="32" class="1001" name="const_32">
<pin_list>
<pin id="33" dir="1" index="0" bw="1" slack="0"/>
</pin_list>
<bind>
<StgValue><ssdm name=""/></StgValue>
</bind>
</comp>

<comp id="34" class="1001" name="const_34">
<pin_list>
<pin id="35" dir="1" index="0" bw="1" slack="2147483647"/>
</pin_list>
<bind>
<StgValue><ssdm name="_ssdm_op_SpecInterface"/></StgValue>
</bind>
</comp>

<comp id="36" class="1001" name="const_36">
<pin_list>
<pin id="37" dir="1" index="0" bw="1" slack="2147483647"/>
</pin_list>
<bind>
<StgValue><ssdm name="ap_fifo_str"/></StgValue>
</bind>
</comp>

<comp id="38" class="1001" name="const_38">
<pin_list>
<pin id="39" dir="1" index="0" bw="1" slack="2147483647"/>
</pin_list>
<bind>
<StgValue><ssdm name=""/></StgValue>
</bind>
</comp>

<comp id="40" class="1001" name="const_40">
<pin_list>
<pin id="41" dir="1" index="0" bw="1" slack="2147483647"/>
</pin_list>
<bind>
<StgValue><ssdm name="p_str"/></StgValue>
</bind>
</comp>

<comp id="42" class="1001" name="const_42">
<pin_list>
<pin id="43" dir="1" index="0" bw="1" slack="2147483647"/>
</pin_list>
<bind>
<StgValue><ssdm name=""/></StgValue>
</bind>
</comp>

<comp id="44" class="1001" name="const_44">
<pin_list>
<pin id="45" dir="1" index="0" bw="1" slack="2147483647"/>
</pin_list>
<bind>
<StgValue><ssdm name=""/></StgValue>
</bind>
</comp>

<comp id="46" class="1001" name="const_46">
<pin_list>
<pin id="47" dir="1" index="0" bw="1" slack="2147483647"/>
</pin_list>
<bind>
<StgValue><ssdm name="_ssdm_op_SpecPipeline"/></StgValue>
</bind>
</comp>

<comp id="48" class="1001" name="const_48">
<pin_list>
<pin id="49" dir="1" index="0" bw="1" slack="2147483647"/>
</pin_list>
<bind>
<StgValue><ssdm name="p_str2"/></StgValue>
</bind>
</comp>

<comp id="50" class="1001" name="const_50">
<pin_list>
<pin id="51" dir="1" index="0" bw="1" slack="0"/>
</pin_list>
<bind>
<StgValue><ssdm name="_ssdm_op_PartSelect.i16.i64.i32.i32"/></StgValue>
</bind>
</comp>

<comp id="52" class="1001" name="const_52">
<pin_list>
<pin id="53" dir="1" index="0" bw="1" slack="0"/>
</pin_list>
<bind>
<StgValue><ssdm name=""/></StgValue>
</bind>
</comp>

<comp id="54" class="1001" name="const_54">
<pin_list>
<pin id="55" dir="1" index="0" bw="1" slack="0"/>
</pin_list>
<bind>
<StgValue><ssdm name=""/></StgValue>
</bind>
</comp>

<comp id="56" class="1001" name="const_56">
<pin_list>
<pin id="57" dir="1" index="0" bw="1" slack="0"/>
</pin_list>
<bind>
<StgValue><ssdm name="_ssdm_op_BitConcatenate.i73.i1.i6.i2.i48.i16"/></StgValue>
</bind>
</comp>

<comp id="58" class="1001" name="const_58">
<pin_list>
<pin id="59" dir="1" index="0" bw="1" slack="0"/>
</pin_list>
<bind>
<StgValue><ssdm name="_ssdm_op_Write.ap_fifo.volatile.i73P"/></StgValue>
</bind>
</comp>

<comp id="60" class="1001" name="const_60">
<pin_list>
<pin id="61" dir="1" index="0" bw="1" slack="0"/>
</pin_list>
<bind>
<StgValue><ssdm name="_ssdm_op_BitConcatenate.i73.i7.i2.i48.i16"/></StgValue>
</bind>
</comp>

<comp id="62" class="1001" name="const_62">
<pin_list>
<pin id="63" dir="1" index="0" bw="1" slack="0"/>
</pin_list>
<bind>
<StgValue><ssdm name=""/></StgValue>
</bind>
</comp>

<comp id="64" class="1001" name="const_64">
<pin_list>
<pin id="65" dir="1" index="0" bw="1" slack="0"/>
</pin_list>
<bind>
<StgValue><ssdm name=""/></StgValue>
</bind>
</comp>

<comp id="66" class="1004" name="tmp_nbreadreq_fu_66">
<pin_list>
<pin id="67" dir="0" index="0" bw="1" slack="0"/>
<pin id="68" dir="0" index="1" bw="64" slack="0"/>
<pin id="69" dir="0" index="2" bw="8" slack="0"/>
<pin id="70" dir="0" index="3" bw="1" slack="0"/>
<pin id="71" dir="0" index="4" bw="1" slack="0"/>
<pin id="72" dir="1" index="5" bw="1" slack="1"/>
</pin_list>
<bind>
<opcode="nbreadreq(1156) " fcode="nbreadreq"/>
<opset="tmp/1 "/>
</bind>
</comp>

<comp id="78" class="1004" name="empty_read_fu_78">
<pin_list>
<pin id="79" dir="0" index="0" bw="73" slack="0"/>
<pin id="80" dir="0" index="1" bw="64" slack="0"/>
<pin id="81" dir="0" index="2" bw="8" slack="0"/>
<pin id="82" dir="0" index="3" bw="1" slack="0"/>
<pin id="83" dir="1" index="4" bw="73" slack="0"/>
</pin_list>
<bind>
<opcode="read(1150) " fcode="read"/>
<opset="empty/1 "/>
</bind>
</comp>

<comp id="88" class="1004" name="grp_write_fu_88">
<pin_list>
<pin id="89" dir="0" index="0" bw="0" slack="0"/>
<pin id="90" dir="0" index="1" bw="73" slack="0"/>
<pin id="91" dir="0" index="2" bw="73" slack="0"/>
<pin id="92" dir="1" index="3" bw="0" slack="2147483647"/>
</pin_list>
<bind>
<opcode="write(1151) " fcode="write"/>
<opset="write_ln472/2 write_ln498/2 "/>
</bind>
</comp>

<comp id="95" class="1005" name="p_0256_2_0_i_reg_95">
<pin_list>
<pin id="96" dir="0" index="0" bw="1" slack="1"/>
<pin id="97" dir="1" index="1" bw="1" slack="2147483647"/>
</pin_list>
<bind>
<opset="p_0256_2_0_i (phireg) "/>
</bind>
</comp>

<comp id="98" class="1004" name="p_0256_2_0_i_phi_fu_98">
<pin_list>
<pin id="99" dir="0" index="0" bw="1" slack="0"/>
<pin id="100" dir="0" index="1" bw="0" slack="2147483647"/>
<pin id="101" dir="0" index="2" bw="1" slack="0"/>
<pin id="102" dir="0" index="3" bw="0" slack="2147483647"/>
<pin id="103" dir="1" index="4" bw="1" slack="1"/>
</pin_list>
<bind>
<opcode="phi(47) " fcode="phi"/>
<opset="p_0256_2_0_i/1 "/>
</bind>
</comp>

<comp id="106" class="1005" name="rs_firstWord_1_new_0_reg_106">
<pin_list>
<pin id="107" dir="0" index="0" bw="1" slack="2147483647"/>
<pin id="108" dir="1" index="1" bw="1" slack="2147483647"/>
</pin_list>
<bind>
<opset="rs_firstWord_1_new_0 (phireg) "/>
</bind>
</comp>

<comp id="109" class="1004" name="rs_firstWord_1_new_0_phi_fu_109">
<pin_list>
<pin id="110" dir="0" index="0" bw="1" slack="0"/>
<pin id="111" dir="0" index="1" bw="0" slack="2147483647"/>
<pin id="112" dir="0" index="2" bw="1" slack="0"/>
<pin id="113" dir="0" index="3" bw="0" slack="2147483647"/>
<pin id="114" dir="1" index="4" bw="1" slack="0"/>
</pin_list>
<bind>
<opcode="phi(47) " fcode="phi"/>
<opset="rs_firstWord_1_new_0/1 "/>
</bind>
</comp>

<comp id="117" class="1004" name="grp_fu_117">
<pin_list>
<pin id="118" dir="0" index="0" bw="16" slack="0"/>
<pin id="119" dir="0" index="1" bw="64" slack="0"/>
<pin id="120" dir="0" index="2" bw="7" slack="0"/>
<pin id="121" dir="0" index="3" bw="7" slack="0"/>
<pin id="122" dir="1" index="4" bw="16" slack="0"/>
</pin_list>
<bind>
<opcode="partselect(1002) " fcode="partselect"/>
<opset="p_Result_i/2 p_Result_i_21/2 "/>
</bind>
</comp>

<comp id="126" class="1004" name="grp_fu_126">
<pin_list>
<pin id="127" dir="0" index="0" bw="2" slack="0"/>
<pin id="128" dir="0" index="1" bw="8" slack="0"/>
<pin id="129" dir="0" index="2" bw="4" slack="0"/>
<pin id="130" dir="0" index="3" bw="4" slack="0"/>
<pin id="131" dir="1" index="4" bw="2" slack="0"/>
</pin_list>
<bind>
<opcode="partselect(1002) " fcode="partselect"/>
<opset="p_Result_12_i/2 p_Result_10_i/2 "/>
</bind>
</comp>

<comp id="135" class="1004" name="fsmState_1_load_load_fu_135">
<pin_list>
<pin id="136" dir="0" index="0" bw="1" slack="0"/>
<pin id="137" dir="1" index="1" bw="1" slack="1"/>
</pin_list>
<bind>
<opcode="load(27) " fcode="load"/>
<opset="fsmState_1_load/1 "/>
</bind>
</comp>

<comp id="139" class="1004" name="tmp_data_V_fu_139">
<pin_list>
<pin id="140" dir="0" index="0" bw="73" slack="0"/>
<pin id="141" dir="1" index="1" bw="64" slack="1"/>
</pin_list>
<bind>
<opcode="extractvalue(56) " fcode="extractvalue"/>
<opset="tmp_data_V/1 "/>
</bind>
</comp>

<comp id="143" class="1004" name="tmp_keep_V_fu_143">
<pin_list>
<pin id="144" dir="0" index="0" bw="73" slack="0"/>
<pin id="145" dir="1" index="1" bw="8" slack="0"/>
</pin_list>
<bind>
<opcode="extractvalue(56) " fcode="extractvalue"/>
<opset="tmp_keep_V/1 "/>
</bind>
</comp>

<comp id="147" class="1004" name="tmp_last_V_fu_147">
<pin_list>
<pin id="148" dir="0" index="0" bw="73" slack="0"/>
<pin id="149" dir="1" index="1" bw="1" slack="1"/>
</pin_list>
<bind>
<opcode="extractvalue(56) " fcode="extractvalue"/>
<opset="tmp_last_V/1 "/>
</bind>
</comp>

<comp id="151" class="1004" name="rs_firstWord_1_load_load_fu_151">
<pin_list>
<pin id="152" dir="0" index="0" bw="1" slack="0"/>
<pin id="153" dir="1" index="1" bw="1" slack="1"/>
</pin_list>
<bind>
<opcode="load(27) " fcode="load"/>
<opset="rs_firstWord_1_load/1 "/>
</bind>
</comp>

<comp id="155" class="1004" name="p_Result_14_i_fu_155">
<pin_list>
<pin id="156" dir="0" index="0" bw="2" slack="0"/>
<pin id="157" dir="0" index="1" bw="8" slack="0"/>
<pin id="158" dir="0" index="2" bw="4" slack="0"/>
<pin id="159" dir="0" index="3" bw="4" slack="0"/>
<pin id="160" dir="1" index="4" bw="2" slack="0"/>
</pin_list>
<bind>
<opcode="partselect(1002) " fcode="partselect"/>
<opset="p_Result_14_i/1 "/>
</bind>
</comp>

<comp id="165" class="1004" name="tmp_last_V_1_fu_165">
<pin_list>
<pin id="166" dir="0" index="0" bw="2" slack="0"/>
<pin id="167" dir="0" index="1" bw="2" slack="0"/>
<pin id="168" dir="1" index="2" bw="1" slack="0"/>
</pin_list>
<bind>
<opcode="icmp(45) " fcode="icmp"/>
<opset="tmp_last_V_1/1 "/>
</bind>
</comp>

<comp id="172" class="1004" name="store_ln483_store_fu_172">
<pin_list>
<pin id="173" dir="0" index="0" bw="1" slack="0"/>
<pin id="174" dir="0" index="1" bw="1" slack="0"/>
<pin id="175" dir="1" index="2" bw="0" slack="2147483647"/>
</pin_list>
<bind>
<opcode="store(28) " fcode="store"/>
<opset="store_ln483/1 "/>
</bind>
</comp>

<comp id="178" class="1004" name="store_ln476_store_fu_178">
<pin_list>
<pin id="179" dir="0" index="0" bw="1" slack="0"/>
<pin id="180" dir="0" index="1" bw="1" slack="0"/>
<pin id="181" dir="1" index="2" bw="0" slack="2147483647"/>
</pin_list>
<bind>
<opcode="store(28) " fcode="store"/>
<opset="store_ln476/1 "/>
</bind>
</comp>

<comp id="184" class="1004" name="store_ln499_store_fu_184">
<pin_list>
<pin id="185" dir="0" index="0" bw="1" slack="0"/>
<pin id="186" dir="0" index="1" bw="1" slack="0"/>
<pin id="187" dir="1" index="2" bw="0" slack="2147483647"/>
</pin_list>
<bind>
<opcode="store(28) " fcode="store"/>
<opset="store_ln499/1 "/>
</bind>
</comp>

<comp id="190" class="1004" name="p_Val2_s_load_fu_190">
<pin_list>
<pin id="191" dir="0" index="0" bw="64" slack="0"/>
<pin id="192" dir="1" index="1" bw="64" slack="0"/>
</pin_list>
<bind>
<opcode="load(27) " fcode="load"/>
<opset="p_Val2_s/2 "/>
</bind>
</comp>

<comp id="195" class="1004" name="p_Val2_1_load_fu_195">
<pin_list>
<pin id="196" dir="0" index="0" bw="8" slack="0"/>
<pin id="197" dir="1" index="1" bw="8" slack="0"/>
</pin_list>
<bind>
<opcode="load(27) " fcode="load"/>
<opset="p_Val2_1/2 "/>
</bind>
</comp>

<comp id="200" class="1004" name="trunc_ln647_fu_200">
<pin_list>
<pin id="201" dir="0" index="0" bw="64" slack="1"/>
<pin id="202" dir="1" index="1" bw="48" slack="0"/>
</pin_list>
<bind>
<opcode="trunc(33) " fcode="trunc"/>
<opset="trunc_ln647/2 "/>
</bind>
</comp>

<comp id="203" class="1004" name="trunc_ln647_1_fu_203">
<pin_list>
<pin id="204" dir="0" index="0" bw="8" slack="1"/>
<pin id="205" dir="1" index="1" bw="6" slack="0"/>
</pin_list>
<bind>
<opcode="trunc(33) " fcode="trunc"/>
<opset="trunc_ln647_1/2 "/>
</bind>
</comp>

<comp id="206" class="1004" name="tmp28_fu_206">
<pin_list>
<pin id="207" dir="0" index="0" bw="73" slack="0"/>
<pin id="208" dir="0" index="1" bw="1" slack="1"/>
<pin id="209" dir="0" index="2" bw="6" slack="0"/>
<pin id="210" dir="0" index="3" bw="2" slack="0"/>
<pin id="211" dir="0" index="4" bw="48" slack="0"/>
<pin id="212" dir="0" index="5" bw="16" slack="0"/>
<pin id="213" dir="1" index="6" bw="73" slack="0"/>
</pin_list>
<bind>
<opcode="bitconcatenate(1004) " fcode="bitconcatenate"/>
<opset="tmp28/2 "/>
</bind>
</comp>

<comp id="220" class="1004" name="store_ln50_store_fu_220">
<pin_list>
<pin id="221" dir="0" index="0" bw="64" slack="1"/>
<pin id="222" dir="0" index="1" bw="64" slack="0"/>
<pin id="223" dir="1" index="2" bw="0" slack="2147483647"/>
</pin_list>
<bind>
<opcode="store(28) " fcode="store"/>
<opset="store_ln50/2 "/>
</bind>
</comp>

<comp id="225" class="1004" name="store_ln50_store_fu_225">
<pin_list>
<pin id="226" dir="0" index="0" bw="8" slack="1"/>
<pin id="227" dir="0" index="1" bw="8" slack="0"/>
<pin id="228" dir="1" index="2" bw="0" slack="2147483647"/>
</pin_list>
<bind>
<opcode="store(28) " fcode="store"/>
<opset="store_ln50/2 "/>
</bind>
</comp>

<comp id="230" class="1004" name="tmp_1_fu_230">
<pin_list>
<pin id="231" dir="0" index="0" bw="73" slack="0"/>
<pin id="232" dir="0" index="1" bw="7" slack="0"/>
<pin id="233" dir="0" index="2" bw="2" slack="0"/>
<pin id="234" dir="0" index="3" bw="1" slack="0"/>
<pin id="235" dir="0" index="4" bw="16" slack="0"/>
<pin id="236" dir="1" index="5" bw="73" slack="0"/>
</pin_list>
<bind>
<opcode="bitconcatenate(1004) " fcode="bitconcatenate"/>
<opset="tmp_1/2 "/>
</bind>
</comp>

<comp id="243" class="1005" name="fsmState_1_load_reg_243">
<pin_list>
<pin id="244" dir="0" index="0" bw="1" slack="1"/>
<pin id="245" dir="1" index="1" bw="1" slack="2147483647"/>
</pin_list>
<bind>
<opset="fsmState_1_load "/>
</bind>
</comp>

<comp id="247" class="1005" name="tmp_reg_247">
<pin_list>
<pin id="248" dir="0" index="0" bw="1" slack="1"/>
<pin id="249" dir="1" index="1" bw="1" slack="2147483647"/>
</pin_list>
<bind>
<opset="tmp "/>
</bind>
</comp>

<comp id="251" class="1005" name="tmp_data_V_reg_251">
<pin_list>
<pin id="252" dir="0" index="0" bw="64" slack="1"/>
<pin id="253" dir="1" index="1" bw="64" slack="1"/>
</pin_list>
<bind>
<opset="tmp_data_V "/>
</bind>
</comp>

<comp id="257" class="1005" name="tmp_keep_V_reg_257">
<pin_list>
<pin id="258" dir="0" index="0" bw="8" slack="1"/>
<pin id="259" dir="1" index="1" bw="8" slack="1"/>
</pin_list>
<bind>
<opset="tmp_keep_V "/>
</bind>
</comp>

<comp id="263" class="1005" name="tmp_last_V_reg_263">
<pin_list>
<pin id="264" dir="0" index="0" bw="1" slack="1"/>
<pin id="265" dir="1" index="1" bw="1" slack="2147483647"/>
</pin_list>
<bind>
<opset="tmp_last_V "/>
</bind>
</comp>

<comp id="267" class="1005" name="rs_firstWord_1_load_reg_267">
<pin_list>
<pin id="268" dir="0" index="0" bw="1" slack="1"/>
<pin id="269" dir="1" index="1" bw="1" slack="2147483647"/>
</pin_list>
<bind>
<opset="rs_firstWord_1_load "/>
</bind>
</comp>

<comp id="271" class="1005" name="tmp_last_V_1_reg_271">
<pin_list>
<pin id="272" dir="0" index="0" bw="1" slack="1"/>
<pin id="273" dir="1" index="1" bw="1" slack="1"/>
</pin_list>
<bind>
<opset="tmp_last_V_1 "/>
</bind>
</comp>

</comp_list>

<net_list>
<net id="73"><net_src comp="16" pin="0"/><net_sink comp="66" pin=0"/></net>

<net id="74"><net_src comp="6" pin="0"/><net_sink comp="66" pin=1"/></net>

<net id="75"><net_src comp="8" pin="0"/><net_sink comp="66" pin=2"/></net>

<net id="76"><net_src comp="10" pin="0"/><net_sink comp="66" pin=3"/></net>

<net id="77"><net_src comp="18" pin="0"/><net_sink comp="66" pin=4"/></net>

<net id="84"><net_src comp="20" pin="0"/><net_sink comp="78" pin=0"/></net>

<net id="85"><net_src comp="6" pin="0"/><net_sink comp="78" pin=1"/></net>

<net id="86"><net_src comp="8" pin="0"/><net_sink comp="78" pin=2"/></net>

<net id="87"><net_src comp="10" pin="0"/><net_sink comp="78" pin=3"/></net>

<net id="93"><net_src comp="58" pin="0"/><net_sink comp="88" pin=0"/></net>

<net id="94"><net_src comp="14" pin="0"/><net_sink comp="88" pin=1"/></net>

<net id="104"><net_src comp="30" pin="0"/><net_sink comp="98" pin=2"/></net>

<net id="105"><net_src comp="98" pin="4"/><net_sink comp="95" pin=0"/></net>

<net id="115"><net_src comp="32" pin="0"/><net_sink comp="109" pin=0"/></net>

<net id="116"><net_src comp="30" pin="0"/><net_sink comp="109" pin=2"/></net>

<net id="123"><net_src comp="50" pin="0"/><net_sink comp="117" pin=0"/></net>

<net id="124"><net_src comp="52" pin="0"/><net_sink comp="117" pin=2"/></net>

<net id="125"><net_src comp="54" pin="0"/><net_sink comp="117" pin=3"/></net>

<net id="132"><net_src comp="22" pin="0"/><net_sink comp="126" pin=0"/></net>

<net id="133"><net_src comp="24" pin="0"/><net_sink comp="126" pin=2"/></net>

<net id="134"><net_src comp="26" pin="0"/><net_sink comp="126" pin=3"/></net>

<net id="138"><net_src comp="0" pin="0"/><net_sink comp="135" pin=0"/></net>

<net id="142"><net_src comp="78" pin="4"/><net_sink comp="139" pin=0"/></net>

<net id="146"><net_src comp="78" pin="4"/><net_sink comp="143" pin=0"/></net>

<net id="150"><net_src comp="78" pin="4"/><net_sink comp="147" pin=0"/></net>

<net id="154"><net_src comp="12" pin="0"/><net_sink comp="151" pin=0"/></net>

<net id="161"><net_src comp="22" pin="0"/><net_sink comp="155" pin=0"/></net>

<net id="162"><net_src comp="143" pin="1"/><net_sink comp="155" pin=1"/></net>

<net id="163"><net_src comp="24" pin="0"/><net_sink comp="155" pin=2"/></net>

<net id="164"><net_src comp="26" pin="0"/><net_sink comp="155" pin=3"/></net>

<net id="169"><net_src comp="155" pin="4"/><net_sink comp="165" pin=0"/></net>

<net id="170"><net_src comp="28" pin="0"/><net_sink comp="165" pin=1"/></net>

<net id="171"><net_src comp="165" pin="2"/><net_sink comp="98" pin=0"/></net>

<net id="176"><net_src comp="32" pin="0"/><net_sink comp="172" pin=0"/></net>

<net id="177"><net_src comp="0" pin="0"/><net_sink comp="172" pin=1"/></net>

<net id="182"><net_src comp="109" pin="4"/><net_sink comp="178" pin=0"/></net>

<net id="183"><net_src comp="12" pin="0"/><net_sink comp="178" pin=1"/></net>

<net id="188"><net_src comp="30" pin="0"/><net_sink comp="184" pin=0"/></net>

<net id="189"><net_src comp="0" pin="0"/><net_sink comp="184" pin=1"/></net>

<net id="193"><net_src comp="2" pin="0"/><net_sink comp="190" pin=0"/></net>

<net id="194"><net_src comp="190" pin="1"/><net_sink comp="117" pin=1"/></net>

<net id="198"><net_src comp="4" pin="0"/><net_sink comp="195" pin=0"/></net>

<net id="199"><net_src comp="195" pin="1"/><net_sink comp="126" pin=1"/></net>

<net id="214"><net_src comp="56" pin="0"/><net_sink comp="206" pin=0"/></net>

<net id="215"><net_src comp="203" pin="1"/><net_sink comp="206" pin=2"/></net>

<net id="216"><net_src comp="126" pin="4"/><net_sink comp="206" pin=3"/></net>

<net id="217"><net_src comp="200" pin="1"/><net_sink comp="206" pin=4"/></net>

<net id="218"><net_src comp="117" pin="4"/><net_sink comp="206" pin=5"/></net>

<net id="219"><net_src comp="206" pin="6"/><net_sink comp="88" pin=2"/></net>

<net id="224"><net_src comp="2" pin="0"/><net_sink comp="220" pin=1"/></net>

<net id="229"><net_src comp="4" pin="0"/><net_sink comp="225" pin=1"/></net>

<net id="237"><net_src comp="60" pin="0"/><net_sink comp="230" pin=0"/></net>

<net id="238"><net_src comp="62" pin="0"/><net_sink comp="230" pin=1"/></net>

<net id="239"><net_src comp="126" pin="4"/><net_sink comp="230" pin=2"/></net>

<net id="240"><net_src comp="64" pin="0"/><net_sink comp="230" pin=3"/></net>

<net id="241"><net_src comp="117" pin="4"/><net_sink comp="230" pin=4"/></net>

<net id="242"><net_src comp="230" pin="5"/><net_sink comp="88" pin=2"/></net>

<net id="246"><net_src comp="135" pin="1"/><net_sink comp="243" pin=0"/></net>

<net id="250"><net_src comp="66" pin="5"/><net_sink comp="247" pin=0"/></net>

<net id="254"><net_src comp="139" pin="1"/><net_sink comp="251" pin=0"/></net>

<net id="255"><net_src comp="251" pin="1"/><net_sink comp="200" pin=0"/></net>

<net id="256"><net_src comp="251" pin="1"/><net_sink comp="220" pin=0"/></net>

<net id="260"><net_src comp="143" pin="1"/><net_sink comp="257" pin=0"/></net>

<net id="261"><net_src comp="257" pin="1"/><net_sink comp="203" pin=0"/></net>

<net id="262"><net_src comp="257" pin="1"/><net_sink comp="225" pin=0"/></net>

<net id="266"><net_src comp="147" pin="1"/><net_sink comp="263" pin=0"/></net>

<net id="270"><net_src comp="151" pin="1"/><net_sink comp="267" pin=0"/></net>

<net id="274"><net_src comp="165" pin="2"/><net_sink comp="271" pin=0"/></net>

<net id="275"><net_src comp="271" pin="1"/><net_sink comp="206" pin=1"/></net>

</net_list>

</model> 
---------------- Datapath Model END ------------------

* FSMD analyzer results:
  - Output states:
	Port: fsmState_1 | {1 }
	Port: prevWord_data_V | {2 }
	Port: prevWord_keep_V_1 | {2 }
	Port: ipv4ShiftFifo_V_data | {}
	Port: ipv4ShiftFifo_V_keep | {}
	Port: ipv4ShiftFifo_V_last | {}
	Port: rs_firstWord_1 | {1 }
	Port: ipDataFifo_V | {2 }
 - Input state : 
	Port: rshiftWordByOctet.1 : fsmState_1 | {1 }
	Port: rshiftWordByOctet.1 : prevWord_data_V | {2 }
	Port: rshiftWordByOctet.1 : prevWord_keep_V_1 | {2 }
	Port: rshiftWordByOctet.1 : ipv4ShiftFifo_V_data | {1 }
	Port: rshiftWordByOctet.1 : ipv4ShiftFifo_V_keep | {1 }
	Port: rshiftWordByOctet.1 : ipv4ShiftFifo_V_last | {1 }
	Port: rshiftWordByOctet.1 : rs_firstWord_1 | {1 }
	Port: rshiftWordByOctet.1 : ipDataFifo_V | {}
  - Chain level:
	State 1
		br_ln447 : 1
		br_ln454 : 1
		p_Result_14_i : 1
		tmp_last_V_1 : 2
		p_0256_2_0_i : 3
		br_ln477 : 1
		br_ln481 : 4
		rs_firstWord_1_new_0 : 2
		store_ln476 : 3
	State 2
		p_Result_i : 1
		p_Result_12_i : 1
		tmp28 : 2
		write_ln472 : 3
		p_Result_i_21 : 1
		p_Result_10_i : 1
		tmp_1 : 2
		write_ln498 : 3


============================================================
+ Verbose Summary: Datapath Resource usage 
============================================================

* Functional unit list:
|----------|----------------------|---------|---------|
| Operation|    Functional Unit   |    FF   |   LUT   |
|----------|----------------------|---------|---------|
|   icmp   |  tmp_last_V_1_fu_165 |    0    |    8    |
|----------|----------------------|---------|---------|
| nbreadreq|  tmp_nbreadreq_fu_66 |    0    |    0    |
|----------|----------------------|---------|---------|
|   read   |   empty_read_fu_78   |    0    |    0    |
|----------|----------------------|---------|---------|
|   write  |    grp_write_fu_88   |    0    |    0    |
|----------|----------------------|---------|---------|
|          |      grp_fu_117      |    0    |    0    |
|partselect|      grp_fu_126      |    0    |    0    |
|          | p_Result_14_i_fu_155 |    0    |    0    |
|----------|----------------------|---------|---------|
|          |   tmp_data_V_fu_139  |    0    |    0    |
|extractvalue|   tmp_keep_V_fu_143  |    0    |    0    |
|          |   tmp_last_V_fu_147  |    0    |    0    |
|----------|----------------------|---------|---------|
|   trunc  |  trunc_ln647_fu_200  |    0    |    0    |
|          | trunc_ln647_1_fu_203 |    0    |    0    |
|----------|----------------------|---------|---------|
|bitconcatenate|     tmp28_fu_206     |    0    |    0    |
|          |     tmp_1_fu_230     |    0    |    0    |
|----------|----------------------|---------|---------|
|   Total  |                      |    0    |    8    |
|----------|----------------------|---------|---------|

Memories:
N/A

* Register list:
+----------------------------+--------+
|                            |   FF   |
+----------------------------+--------+
|   fsmState_1_load_reg_243  |    1   |
|     p_0256_2_0_i_reg_95    |    1   |
| rs_firstWord_1_load_reg_267|    1   |
|rs_firstWord_1_new_0_reg_106|    1   |
|     tmp_data_V_reg_251     |   64   |
|     tmp_keep_V_reg_257     |    8   |
|    tmp_last_V_1_reg_271    |    1   |
|     tmp_last_V_reg_263     |    1   |
|         tmp_reg_247        |    1   |
+----------------------------+--------+
|            Total           |   79   |
+----------------------------+--------+

* Multiplexer (MUX) list: 
|-----------------|------|------|------|--------||---------||---------|
|       Comp      |  Pin | Size |  BW  | S x BW ||  Delay  ||   LUT   |
|-----------------|------|------|------|--------||---------||---------|
| grp_write_fu_88 |  p2  |   2  |  73  |   146  ||    9    |
|-----------------|------|------|------|--------||---------||---------|
|      Total      |      |      |      |   146  ||  1.769  ||    9    |
|-----------------|------|------|------|--------||---------||---------|



* Summary:
+-----------+--------+--------+--------+
|           |  Delay |   FF   |   LUT  |
+-----------+--------+--------+--------+
|  Function |    -   |    0   |    8   |
|   Memory  |    -   |    -   |    -   |
|Multiplexer|    1   |    -   |    9   |
|  Register |    -   |   79   |    -   |
+-----------+--------+--------+--------+
|   Total   |    1   |   79   |   17   |
+-----------+--------+--------+--------+
