

================================================================
== Vivado HLS Report for 'handle_arp_reply_64_s'
================================================================
* Date:           Fri Dec 18 10:41:39 2020

* Version:        2019.1 (Build 2552052 on Fri May 24 15:28:33 MDT 2019)
* Project:        mac_ip_encode_prj
* Solution:       solution1
* Product family: zynq
* Target device:  xc7z020-clg400-1


================================================================
== Performance Estimates
================================================================
+ Timing (ns): 
    * Summary: 
    +--------+-------+----------+------------+
    |  Clock | Target| Estimated| Uncertainty|
    +--------+-------+----------+------------+
    |ap_clk  |   6.40|     5.600|        0.80|
    +--------+-------+----------+------------+

+ Latency (clock cycles): 
    * Summary: 
    +-----+-----+-----+-----+----------+
    |  Latency  |  Interval | Pipeline |
    | min | max | min | max |   Type   |
    +-----+-----+-----+-----+----------+
    |    1|    1|    1|    1| function |
    +-----+-----+-----+-----+----------+

    + Detail: 
        * Instance: 
        N/A

        * Loop: 
        N/A

============================================================
+ Verbose Summary: Synthesis Manager
============================================================
InlineROM: 1
ExposeGlobal: 0
============================================================
+ Verbose Summary: CDFG Model
============================================================
IsTopModel: 0
ResetActiveHigh: 1
IsCombinational: 2
IsDatapathOnly: 0
HasWiredReturn: 1
HasMFsm: 2
HasVarLatency: 0
IsPipeline: 1
IsRtlPipelined: 1
IsInstanceOverlapped: 0
IsDontTouch: 0
HasImplIP: 0
IsGatedGlobalClock: 0

+ Individual pipeline summary: 
  * Pipeline-0: initiation interval (II) = 1, depth = 2


============================================================
+ Verbose Summary: Schedule
============================================================
* Number of FSM states : 2
* Pipeline : 1
  Pipeline-0 : II = 1, D = 2, States = { 1 2 }
* Dataflow Pipeline: 0

* FSM state transitions: 
1 --> 2 
2 --> 

* FSM state operations: 

State 1 <SV = 0> <Delay = 2.80>
ST_1 : Operation 3 [1/1] (0.00ns)   --->   "%har_state_load = load i2* @har_state, align 1" [/home/paulrr2/Projects/ece527/babelsoc/fpga-network-stack/hls/mac_ip_encode/mac_ip_encode.cpp:151->/home/paulrr2/Projects/ece527/babelsoc/fpga-network-stack/hls/mac_ip_encode/mac_ip_encode.cpp:404->/home/paulrr2/Projects/ece527/babelsoc/fpga-network-stack/hls/mac_ip_encode/mac_ip_encode.cpp:441]   --->   Operation 3 'load' 'har_state_load' <Predicate = true> <Delay = 0.00>
ST_1 : Operation 4 [1/1] (1.30ns)   --->   "switch i2 %har_state_load, label %.exit [
    i2 0, label %0
    i2 1, label %8
    i2 -2, label %11
  ]" [/home/paulrr2/Projects/ece527/babelsoc/fpga-network-stack/hls/mac_ip_encode/mac_ip_encode.cpp:151->/home/paulrr2/Projects/ece527/babelsoc/fpga-network-stack/hls/mac_ip_encode/mac_ip_encode.cpp:404->/home/paulrr2/Projects/ece527/babelsoc/fpga-network-stack/hls/mac_ip_encode/mac_ip_encode.cpp:441]   --->   Operation 4 'switch' <Predicate = true> <Delay = 1.30>
ST_1 : Operation 5 [1/1] (0.00ns)   --->   "%tmp_7 = call i1 @_ssdm_op_NbReadReq.ap_fifo.i73P(i73* @dataStreamBuffer2_V, i32 1)" [/home/paulrr2/Projects/ece527/babelsoc/fpga-network-stack/hls/mac_ip_encode/mac_ip_encode.cpp:198->/home/paulrr2/Projects/ece527/babelsoc/fpga-network-stack/hls/mac_ip_encode/mac_ip_encode.cpp:404->/home/paulrr2/Projects/ece527/babelsoc/fpga-network-stack/hls/mac_ip_encode/mac_ip_encode.cpp:441]   --->   Operation 5 'nbreadreq' 'tmp_7' <Predicate = (har_state_load == 2)> <Delay = 0.00> <Core = "FIFO">   --->   Core 32 'FIFO' <Latency = 0> <II = 1> <Delay = 3.63> <Storage> <Opcode : 'read' 'write' 'nbread' 'nbwrite'> <Ports = 0> <Width = 73> <Depth = 2> <FIFO>
ST_1 : Operation 6 [1/1] (2.80ns)   --->   "%tmp_639 = call i73 @_ssdm_op_Read.ap_fifo.volatile.i73P(i73* @dataStreamBuffer2_V)" [/home/paulrr2/Projects/ece527/babelsoc/fpga-network-stack/hls/mac_ip_encode/mac_ip_encode.cpp:200->/home/paulrr2/Projects/ece527/babelsoc/fpga-network-stack/hls/mac_ip_encode/mac_ip_encode.cpp:404->/home/paulrr2/Projects/ece527/babelsoc/fpga-network-stack/hls/mac_ip_encode/mac_ip_encode.cpp:441]   --->   Operation 6 'read' 'tmp_639' <Predicate = (har_state_load == 2 & tmp_7)> <Delay = 2.80> <Core = "FIFO">   --->   Core 32 'FIFO' <Latency = 0> <II = 1> <Delay = 3.63> <Storage> <Opcode : 'read' 'write' 'nbread' 'nbwrite'> <Ports = 0> <Width = 73> <Depth = 2> <FIFO>
ST_1 : Operation 7 [1/1] (0.00ns)   --->   "%tmp_21 = call i1 @_ssdm_op_BitSelect.i1.i73.i32(i73 %tmp_639, i32 72)" [/home/paulrr2/Projects/ece527/babelsoc/fpga-network-stack/hls/mac_ip_encode/../axi_utils.hpp:50->/home/paulrr2/Projects/ece527/babelsoc/fpga-network-stack/hls/mac_ip_encode/mac_ip_encode.cpp:200->/home/paulrr2/Projects/ece527/babelsoc/fpga-network-stack/hls/mac_ip_encode/mac_ip_encode.cpp:404->/home/paulrr2/Projects/ece527/babelsoc/fpga-network-stack/hls/mac_ip_encode/mac_ip_encode.cpp:441]   --->   Operation 7 'bitselect' 'tmp_21' <Predicate = (har_state_load == 2 & tmp_7)> <Delay = 0.00>
ST_1 : Operation 8 [1/1] (0.00ns)   --->   "br i1 %tmp_21, label %13, label %._crit_edge8.i.i" [/home/paulrr2/Projects/ece527/babelsoc/fpga-network-stack/hls/mac_ip_encode/mac_ip_encode.cpp:201->/home/paulrr2/Projects/ece527/babelsoc/fpga-network-stack/hls/mac_ip_encode/mac_ip_encode.cpp:404->/home/paulrr2/Projects/ece527/babelsoc/fpga-network-stack/hls/mac_ip_encode/mac_ip_encode.cpp:441]   --->   Operation 8 'br' <Predicate = (har_state_load == 2 & tmp_7)> <Delay = 0.00>
ST_1 : Operation 9 [1/1] (1.81ns)   --->   "store i2 0, i2* @har_state, align 1" [/home/paulrr2/Projects/ece527/babelsoc/fpga-network-stack/hls/mac_ip_encode/mac_ip_encode.cpp:203->/home/paulrr2/Projects/ece527/babelsoc/fpga-network-stack/hls/mac_ip_encode/mac_ip_encode.cpp:404->/home/paulrr2/Projects/ece527/babelsoc/fpga-network-stack/hls/mac_ip_encode/mac_ip_encode.cpp:441]   --->   Operation 9 'store' <Predicate = (har_state_load == 2 & tmp_7 & tmp_21)> <Delay = 1.81>
ST_1 : Operation 10 [1/1] (0.00ns)   --->   "%tmp_6 = call i1 @_ssdm_op_NbReadReq.ap_fifo.i73P(i73* @dataStreamBuffer2_V, i32 1)" [/home/paulrr2/Projects/ece527/babelsoc/fpga-network-stack/hls/mac_ip_encode/mac_ip_encode.cpp:187->/home/paulrr2/Projects/ece527/babelsoc/fpga-network-stack/hls/mac_ip_encode/mac_ip_encode.cpp:404->/home/paulrr2/Projects/ece527/babelsoc/fpga-network-stack/hls/mac_ip_encode/mac_ip_encode.cpp:441]   --->   Operation 10 'nbreadreq' 'tmp_6' <Predicate = (har_state_load == 1)> <Delay = 0.00> <Core = "FIFO">   --->   Core 32 'FIFO' <Latency = 0> <II = 1> <Delay = 3.63> <Storage> <Opcode : 'read' 'write' 'nbread' 'nbwrite'> <Ports = 0> <Width = 73> <Depth = 2> <FIFO>
ST_1 : Operation 11 [1/1] (2.80ns)   --->   "%tmp_4 = call i73 @_ssdm_op_Read.ap_fifo.volatile.i73P(i73* @dataStreamBuffer2_V)" [/home/paulrr2/Projects/ece527/babelsoc/fpga-network-stack/hls/mac_ip_encode/mac_ip_encode.cpp:189->/home/paulrr2/Projects/ece527/babelsoc/fpga-network-stack/hls/mac_ip_encode/mac_ip_encode.cpp:404->/home/paulrr2/Projects/ece527/babelsoc/fpga-network-stack/hls/mac_ip_encode/mac_ip_encode.cpp:441]   --->   Operation 11 'read' 'tmp_4' <Predicate = (har_state_load == 1 & tmp_6)> <Delay = 2.80> <Core = "FIFO">   --->   Core 32 'FIFO' <Latency = 0> <II = 1> <Delay = 3.63> <Storage> <Opcode : 'read' 'write' 'nbread' 'nbwrite'> <Ports = 0> <Width = 73> <Depth = 2> <FIFO>
ST_1 : Operation 12 [1/1] (0.00ns)   --->   "%tmp_last_V = call i1 @_ssdm_op_BitSelect.i1.i73.i32(i73 %tmp_4, i32 72)" [/home/paulrr2/Projects/ece527/babelsoc/fpga-network-stack/hls/mac_ip_encode/../axi_utils.hpp:50->/home/paulrr2/Projects/ece527/babelsoc/fpga-network-stack/hls/mac_ip_encode/mac_ip_encode.cpp:189->/home/paulrr2/Projects/ece527/babelsoc/fpga-network-stack/hls/mac_ip_encode/mac_ip_encode.cpp:404->/home/paulrr2/Projects/ece527/babelsoc/fpga-network-stack/hls/mac_ip_encode/mac_ip_encode.cpp:441]   --->   Operation 12 'bitselect' 'tmp_last_V' <Predicate = (har_state_load == 1 & tmp_6)> <Delay = 0.00>
ST_1 : Operation 13 [1/1] (0.00ns)   --->   "br i1 %tmp_last_V, label %10, label %._crit_edge6.i.i" [/home/paulrr2/Projects/ece527/babelsoc/fpga-network-stack/hls/mac_ip_encode/mac_ip_encode.cpp:191->/home/paulrr2/Projects/ece527/babelsoc/fpga-network-stack/hls/mac_ip_encode/mac_ip_encode.cpp:404->/home/paulrr2/Projects/ece527/babelsoc/fpga-network-stack/hls/mac_ip_encode/mac_ip_encode.cpp:441]   --->   Operation 13 'br' <Predicate = (har_state_load == 1 & tmp_6)> <Delay = 0.00>
ST_1 : Operation 14 [1/1] (1.81ns)   --->   "store i2 0, i2* @har_state, align 1" [/home/paulrr2/Projects/ece527/babelsoc/fpga-network-stack/hls/mac_ip_encode/mac_ip_encode.cpp:193->/home/paulrr2/Projects/ece527/babelsoc/fpga-network-stack/hls/mac_ip_encode/mac_ip_encode.cpp:404->/home/paulrr2/Projects/ece527/babelsoc/fpga-network-stack/hls/mac_ip_encode/mac_ip_encode.cpp:441]   --->   Operation 14 'store' <Predicate = (har_state_load == 1 & tmp_6 & tmp_last_V)> <Delay = 1.81>
ST_1 : Operation 15 [1/1] (0.00ns)   --->   "%tmp = call i1 @_ssdm_op_NbReadReq.axis.i56P(i56* %arpTableIn_V, i32 1)" [/home/paulrr2/Projects/ece527/babelsoc/fpga-network-stack/hls/mac_ip_encode/mac_ip_encode.cpp:154->/home/paulrr2/Projects/ece527/babelsoc/fpga-network-stack/hls/mac_ip_encode/mac_ip_encode.cpp:404->/home/paulrr2/Projects/ece527/babelsoc/fpga-network-stack/hls/mac_ip_encode/mac_ip_encode.cpp:441]   --->   Operation 15 'nbreadreq' 'tmp' <Predicate = (har_state_load == 0)> <Delay = 0.00> <Core = "AXI4Stream">   --->   Core 5 'AXI4Stream' <Latency = 0> <II = 1> <Delay = 1.00> <Adapter> <Opcode : >
ST_1 : Operation 16 [1/1] (0.00ns)   --->   "br i1 %tmp, label %1, label %._crit_edge1.i.i" [/home/paulrr2/Projects/ece527/babelsoc/fpga-network-stack/hls/mac_ip_encode/mac_ip_encode.cpp:154->/home/paulrr2/Projects/ece527/babelsoc/fpga-network-stack/hls/mac_ip_encode/mac_ip_encode.cpp:404->/home/paulrr2/Projects/ece527/babelsoc/fpga-network-stack/hls/mac_ip_encode/mac_ip_encode.cpp:441]   --->   Operation 16 'br' <Predicate = (har_state_load == 0)> <Delay = 0.00>
ST_1 : Operation 17 [1/1] (0.00ns)   --->   "%tmp_8 = call i1 @_ssdm_op_NbReadReq.ap_fifo.i73P(i73* @dataStreamBuffer2_V, i32 1)" [/home/paulrr2/Projects/ece527/babelsoc/fpga-network-stack/hls/mac_ip_encode/mac_ip_encode.cpp:154->/home/paulrr2/Projects/ece527/babelsoc/fpga-network-stack/hls/mac_ip_encode/mac_ip_encode.cpp:404->/home/paulrr2/Projects/ece527/babelsoc/fpga-network-stack/hls/mac_ip_encode/mac_ip_encode.cpp:441]   --->   Operation 17 'nbreadreq' 'tmp_8' <Predicate = (har_state_load == 0 & tmp)> <Delay = 0.00> <Core = "FIFO">   --->   Core 32 'FIFO' <Latency = 0> <II = 1> <Delay = 3.63> <Storage> <Opcode : 'read' 'write' 'nbread' 'nbwrite'> <Ports = 0> <Width = 73> <Depth = 2> <FIFO>
ST_1 : Operation 18 [1/1] (0.00ns)   --->   "%arpTableIn_V_read = call i56 @_ssdm_op_Read.axis.volatile.i56P(i56* %arpTableIn_V)" [/home/paulrr2/Projects/ece527/babelsoc/fpga-network-stack/hls/mac_ip_encode/mac_ip_encode.cpp:156->/home/paulrr2/Projects/ece527/babelsoc/fpga-network-stack/hls/mac_ip_encode/mac_ip_encode.cpp:404->/home/paulrr2/Projects/ece527/babelsoc/fpga-network-stack/hls/mac_ip_encode/mac_ip_encode.cpp:441]   --->   Operation 18 'read' 'arpTableIn_V_read' <Predicate = (har_state_load == 0 & tmp & tmp_8)> <Delay = 0.00> <Core = "AXI4Stream">   --->   Core 5 'AXI4Stream' <Latency = 0> <II = 1> <Delay = 1.00> <Adapter> <Opcode : >
ST_1 : Operation 19 [1/1] (0.00ns)   --->   "%trunc_ln321 = trunc i56 %arpTableIn_V_read to i48" [/home/paulrr2/Projects/ece527/babelsoc/fpga-network-stack/hls/mac_ip_encode/mac_ip_encode.hpp:31->/home/paulrr2/Projects/ece527/babelsoc/fpga-network-stack/hls/mac_ip_encode/mac_ip_encode.cpp:156->/home/paulrr2/Projects/ece527/babelsoc/fpga-network-stack/hls/mac_ip_encode/mac_ip_encode.cpp:404->/home/paulrr2/Projects/ece527/babelsoc/fpga-network-stack/hls/mac_ip_encode/mac_ip_encode.cpp:441]   --->   Operation 19 'trunc' 'trunc_ln321' <Predicate = (har_state_load == 0 & tmp & tmp_8)> <Delay = 0.00>
ST_1 : Operation 20 [1/1] (0.00ns)   --->   "%tmp_22 = call i1 @_ssdm_op_BitSelect.i1.i56.i32(i56 %arpTableIn_V_read, i32 48)" [/home/paulrr2/Projects/ece527/babelsoc/fpga-network-stack/hls/mac_ip_encode/mac_ip_encode.hpp:31->/home/paulrr2/Projects/ece527/babelsoc/fpga-network-stack/hls/mac_ip_encode/mac_ip_encode.cpp:156->/home/paulrr2/Projects/ece527/babelsoc/fpga-network-stack/hls/mac_ip_encode/mac_ip_encode.cpp:404->/home/paulrr2/Projects/ece527/babelsoc/fpga-network-stack/hls/mac_ip_encode/mac_ip_encode.cpp:441]   --->   Operation 20 'bitselect' 'tmp_22' <Predicate = (har_state_load == 0 & tmp & tmp_8)> <Delay = 0.00>
ST_1 : Operation 21 [1/1] (2.80ns)   --->   "%tmp_1 = call i73 @_ssdm_op_Read.ap_fifo.volatile.i73P(i73* @dataStreamBuffer2_V)" [/home/paulrr2/Projects/ece527/babelsoc/fpga-network-stack/hls/mac_ip_encode/mac_ip_encode.cpp:157->/home/paulrr2/Projects/ece527/babelsoc/fpga-network-stack/hls/mac_ip_encode/mac_ip_encode.cpp:404->/home/paulrr2/Projects/ece527/babelsoc/fpga-network-stack/hls/mac_ip_encode/mac_ip_encode.cpp:441]   --->   Operation 21 'read' 'tmp_1' <Predicate = (har_state_load == 0 & tmp & tmp_8)> <Delay = 2.80> <Core = "FIFO">   --->   Core 32 'FIFO' <Latency = 0> <II = 1> <Delay = 3.63> <Storage> <Opcode : 'read' 'write' 'nbread' 'nbwrite'> <Ports = 0> <Width = 73> <Depth = 2> <FIFO>
ST_1 : Operation 22 [1/1] (0.00ns)   --->   "%tmp_last_V_4 = call i1 @_ssdm_op_BitSelect.i1.i73.i32(i73 %tmp_1, i32 72)" [/home/paulrr2/Projects/ece527/babelsoc/fpga-network-stack/hls/mac_ip_encode/../axi_utils.hpp:50->/home/paulrr2/Projects/ece527/babelsoc/fpga-network-stack/hls/mac_ip_encode/mac_ip_encode.cpp:157->/home/paulrr2/Projects/ece527/babelsoc/fpga-network-stack/hls/mac_ip_encode/mac_ip_encode.cpp:404->/home/paulrr2/Projects/ece527/babelsoc/fpga-network-stack/hls/mac_ip_encode/mac_ip_encode.cpp:441]   --->   Operation 22 'bitselect' 'tmp_last_V_4' <Predicate = (har_state_load == 0 & tmp & tmp_8)> <Delay = 0.00>
ST_1 : Operation 23 [1/1] (0.00ns)   --->   "br i1 %tmp_22, label %3, label %5" [/home/paulrr2/Projects/ece527/babelsoc/fpga-network-stack/hls/mac_ip_encode/mac_ip_encode.cpp:159->/home/paulrr2/Projects/ece527/babelsoc/fpga-network-stack/hls/mac_ip_encode/mac_ip_encode.cpp:404->/home/paulrr2/Projects/ece527/babelsoc/fpga-network-stack/hls/mac_ip_encode/mac_ip_encode.cpp:441]   --->   Operation 23 'br' <Predicate = (har_state_load == 0 & tmp & tmp_8)> <Delay = 0.00>
ST_1 : Operation 24 [1/1] (0.00ns)   --->   "br i1 %tmp_last_V_4, label %._crit_edge4.i.i, label %6" [/home/paulrr2/Projects/ece527/babelsoc/fpga-network-stack/hls/mac_ip_encode/mac_ip_encode.cpp:178->/home/paulrr2/Projects/ece527/babelsoc/fpga-network-stack/hls/mac_ip_encode/mac_ip_encode.cpp:404->/home/paulrr2/Projects/ece527/babelsoc/fpga-network-stack/hls/mac_ip_encode/mac_ip_encode.cpp:441]   --->   Operation 24 'br' <Predicate = (har_state_load == 0 & tmp & tmp_8 & !tmp_22)> <Delay = 0.00>
ST_1 : Operation 25 [1/1] (1.81ns)   --->   "store i2 -2, i2* @har_state, align 1" [/home/paulrr2/Projects/ece527/babelsoc/fpga-network-stack/hls/mac_ip_encode/mac_ip_encode.cpp:180->/home/paulrr2/Projects/ece527/babelsoc/fpga-network-stack/hls/mac_ip_encode/mac_ip_encode.cpp:404->/home/paulrr2/Projects/ece527/babelsoc/fpga-network-stack/hls/mac_ip_encode/mac_ip_encode.cpp:441]   --->   Operation 25 'store' <Predicate = (har_state_load == 0 & tmp & tmp_8 & !tmp_22 & !tmp_last_V_4)> <Delay = 1.81>
ST_1 : Operation 26 [1/1] (0.00ns)   --->   "br i1 %tmp_last_V_4, label %._crit_edge3.i.i, label %4" [/home/paulrr2/Projects/ece527/babelsoc/fpga-network-stack/hls/mac_ip_encode/mac_ip_encode.cpp:171->/home/paulrr2/Projects/ece527/babelsoc/fpga-network-stack/hls/mac_ip_encode/mac_ip_encode.cpp:404->/home/paulrr2/Projects/ece527/babelsoc/fpga-network-stack/hls/mac_ip_encode/mac_ip_encode.cpp:441]   --->   Operation 26 'br' <Predicate = (har_state_load == 0 & tmp & tmp_8 & tmp_22)> <Delay = 0.00>
ST_1 : Operation 27 [1/1] (1.81ns)   --->   "store i2 1, i2* @har_state, align 1" [/home/paulrr2/Projects/ece527/babelsoc/fpga-network-stack/hls/mac_ip_encode/mac_ip_encode.cpp:173->/home/paulrr2/Projects/ece527/babelsoc/fpga-network-stack/hls/mac_ip_encode/mac_ip_encode.cpp:404->/home/paulrr2/Projects/ece527/babelsoc/fpga-network-stack/hls/mac_ip_encode/mac_ip_encode.cpp:441]   --->   Operation 27 'store' <Predicate = (har_state_load == 0 & tmp & tmp_8 & tmp_22 & !tmp_last_V_4)> <Delay = 1.81>

State 2 <SV = 1> <Delay = 5.60>
ST_2 : Operation 28 [1/1] (0.00ns)   --->   "call void (...)* @_ssdm_op_SpecInterface(i56* %arpTableIn_V, [5 x i8]* @p_str2, i32 1, i32 1, [5 x i8]* @p_str3, i32 0, i32 0, [1 x i8]* @p_str, [1 x i8]* @p_str, [1 x i8]* @p_str, i32 0, i32 0, i32 0, i32 0, [24 x i8]* @p_str6, [1 x i8]* @p_str)"   --->   Operation 28 'specinterface' <Predicate = true> <Delay = 0.00>
ST_2 : Operation 29 [1/1] (0.00ns)   --->   "call void (...)* @_ssdm_op_SpecInterface(i73* @dataStreamBuffer2_V, [8 x i8]* @ap_fifo_str, i32 0, i32 0, [1 x i8]* @p_str, i32 0, i32 0, [1 x i8]* @p_str, [1 x i8]* @p_str, [1 x i8]* @p_str, i32 2, i32 2, i32 16, i32 16, [1 x i8]* @p_str, [1 x i8]* @p_str)"   --->   Operation 29 'specinterface' <Predicate = true> <Delay = 0.00>
ST_2 : Operation 30 [1/1] (0.00ns)   --->   "call void (...)* @_ssdm_op_SpecInterface(i73* @dataStreamBuffer3_V, [8 x i8]* @ap_fifo_str, i32 0, i32 0, [1 x i8]* @p_str, i32 0, i32 0, [1 x i8]* @p_str, [1 x i8]* @p_str, [1 x i8]* @p_str, i32 2, i32 2, i32 16, i32 16, [1 x i8]* @p_str, [1 x i8]* @p_str)"   --->   Operation 30 'specinterface' <Predicate = true> <Delay = 0.00>
ST_2 : Operation 31 [1/1] (0.00ns)   --->   "call void (...)* @_ssdm_op_SpecInterface(i129* @headerFifo_V, [8 x i8]* @ap_fifo_str, i32 0, i32 0, [1 x i8]* @p_str, i32 0, i32 0, [1 x i8]* @p_str, [1 x i8]* @p_str, [1 x i8]* @p_str, i32 2, i32 2, i32 16, i32 16, [1 x i8]* @p_str, [1 x i8]* @p_str)"   --->   Operation 31 'specinterface' <Predicate = true> <Delay = 0.00>
ST_2 : Operation 32 [1/1] (0.00ns)   --->   "call void (...)* @_ssdm_op_SpecInterface(i48* %myMacAddress_V, [8 x i8]* @ap_fifo_str, i32 0, i32 0, [1 x i8]* @p_str, i32 0, i32 0, [1 x i8]* @p_str, [1 x i8]* @p_str, [1 x i8]* @p_str, i32 2, i32 2, i32 16, i32 16, [1 x i8]* @p_str, [11 x i8]* @ScalarProp_str)"   --->   Operation 32 'specinterface' <Predicate = true> <Delay = 0.00>
ST_2 : Operation 33 [1/1] (2.80ns)   --->   "%myMacAddress_V_read = call i48 @_ssdm_op_Read.ap_fifo.i48P(i48* %myMacAddress_V)" [/home/paulrr2/Projects/ece527/babelsoc/fpga-network-stack/hls/mac_ip_encode/mac_ip_encode.cpp:167]   --->   Operation 33 'read' 'myMacAddress_V_read' <Predicate = true> <Delay = 2.80> <Core = "FIFO">   --->   Core 32 'FIFO' <Latency = 0> <II = 1> <Delay = 3.63> <Storage> <Opcode : 'read' 'write' 'nbread' 'nbwrite'> <Ports = 0> <Width = 73> <Depth = 2> <FIFO>
ST_2 : Operation 34 [1/1] (0.00ns)   --->   "call void (...)* @_ssdm_op_SpecInterface(i73* @dataStreamBuffer2_V, [8 x i8]* @ap_fifo_str, i32 0, i32 0, [1 x i8]* @p_str, i32 0, i32 0, [1 x i8]* @p_str, [1 x i8]* @p_str, [1 x i8]* @p_str, i32 2, i32 2, i32 16, i32 16, [1 x i8]* @p_str, [1 x i8]* @p_str)"   --->   Operation 34 'specinterface' <Predicate = true> <Delay = 0.00>
ST_2 : Operation 35 [1/1] (0.00ns)   --->   "call void (...)* @_ssdm_op_SpecInterface(i73* @dataStreamBuffer3_V, [8 x i8]* @ap_fifo_str, i32 0, i32 0, [1 x i8]* @p_str, i32 0, i32 0, [1 x i8]* @p_str, [1 x i8]* @p_str, [1 x i8]* @p_str, i32 2, i32 2, i32 16, i32 16, [1 x i8]* @p_str, [1 x i8]* @p_str)"   --->   Operation 35 'specinterface' <Predicate = true> <Delay = 0.00>
ST_2 : Operation 36 [1/1] (0.00ns)   --->   "call void (...)* @_ssdm_op_SpecInterface(i129* @headerFifo_V, [8 x i8]* @ap_fifo_str, i32 0, i32 0, [1 x i8]* @p_str, i32 0, i32 0, [1 x i8]* @p_str, [1 x i8]* @p_str, [1 x i8]* @p_str, i32 2, i32 2, i32 16, i32 16, [1 x i8]* @p_str, [1 x i8]* @p_str)"   --->   Operation 36 'specinterface' <Predicate = true> <Delay = 0.00>
ST_2 : Operation 37 [1/1] (0.00ns)   --->   "call void (...)* @_ssdm_op_SpecInterface(i56* %arpTableIn_V, [5 x i8]* @p_str2, i32 1, i32 1, [5 x i8]* @p_str3, i32 0, i32 0, [1 x i8]* @p_str, [1 x i8]* @p_str, [1 x i8]* @p_str, i32 0, i32 0, i32 0, i32 0, [24 x i8]* @p_str6, [1 x i8]* @p_str)"   --->   Operation 37 'specinterface' <Predicate = true> <Delay = 0.00>
ST_2 : Operation 38 [1/1] (0.00ns)   --->   "call void (...)* @_ssdm_op_SpecPipeline(i32 1, i32 1, i32 1, i32 0, [1 x i8]* @p_str) nounwind" [/home/paulrr2/Projects/ece527/babelsoc/fpga-network-stack/hls/mac_ip_encode/mac_ip_encode.cpp:145->/home/paulrr2/Projects/ece527/babelsoc/fpga-network-stack/hls/mac_ip_encode/mac_ip_encode.cpp:404->/home/paulrr2/Projects/ece527/babelsoc/fpga-network-stack/hls/mac_ip_encode/mac_ip_encode.cpp:441]   --->   Operation 38 'specpipeline' <Predicate = true> <Delay = 0.00>
ST_2 : Operation 39 [1/1] (0.00ns)   --->   "br i1 %tmp_7, label %12, label %._crit_edge7.i.i" [/home/paulrr2/Projects/ece527/babelsoc/fpga-network-stack/hls/mac_ip_encode/mac_ip_encode.cpp:198->/home/paulrr2/Projects/ece527/babelsoc/fpga-network-stack/hls/mac_ip_encode/mac_ip_encode.cpp:404->/home/paulrr2/Projects/ece527/babelsoc/fpga-network-stack/hls/mac_ip_encode/mac_ip_encode.cpp:441]   --->   Operation 39 'br' <Predicate = (har_state_load == 2)> <Delay = 0.00>
ST_2 : Operation 40 [1/1] (0.00ns)   --->   "br label %._crit_edge8.i.i" [/home/paulrr2/Projects/ece527/babelsoc/fpga-network-stack/hls/mac_ip_encode/mac_ip_encode.cpp:204->/home/paulrr2/Projects/ece527/babelsoc/fpga-network-stack/hls/mac_ip_encode/mac_ip_encode.cpp:404->/home/paulrr2/Projects/ece527/babelsoc/fpga-network-stack/hls/mac_ip_encode/mac_ip_encode.cpp:441]   --->   Operation 40 'br' <Predicate = (har_state_load == 2 & tmp_7 & tmp_21)> <Delay = 0.00>
ST_2 : Operation 41 [1/1] (0.00ns)   --->   "br label %._crit_edge7.i.i" [/home/paulrr2/Projects/ece527/babelsoc/fpga-network-stack/hls/mac_ip_encode/mac_ip_encode.cpp:205->/home/paulrr2/Projects/ece527/babelsoc/fpga-network-stack/hls/mac_ip_encode/mac_ip_encode.cpp:404->/home/paulrr2/Projects/ece527/babelsoc/fpga-network-stack/hls/mac_ip_encode/mac_ip_encode.cpp:441]   --->   Operation 41 'br' <Predicate = (har_state_load == 2 & tmp_7)> <Delay = 0.00>
ST_2 : Operation 42 [1/1] (0.00ns)   --->   "br label %.exit" [/home/paulrr2/Projects/ece527/babelsoc/fpga-network-stack/hls/mac_ip_encode/mac_ip_encode.cpp:206->/home/paulrr2/Projects/ece527/babelsoc/fpga-network-stack/hls/mac_ip_encode/mac_ip_encode.cpp:404->/home/paulrr2/Projects/ece527/babelsoc/fpga-network-stack/hls/mac_ip_encode/mac_ip_encode.cpp:441]   --->   Operation 42 'br' <Predicate = (har_state_load == 2)> <Delay = 0.00>
ST_2 : Operation 43 [1/1] (0.00ns)   --->   "br i1 %tmp_6, label %9, label %._crit_edge5.i.i" [/home/paulrr2/Projects/ece527/babelsoc/fpga-network-stack/hls/mac_ip_encode/mac_ip_encode.cpp:187->/home/paulrr2/Projects/ece527/babelsoc/fpga-network-stack/hls/mac_ip_encode/mac_ip_encode.cpp:404->/home/paulrr2/Projects/ece527/babelsoc/fpga-network-stack/hls/mac_ip_encode/mac_ip_encode.cpp:441]   --->   Operation 43 'br' <Predicate = (har_state_load == 1)> <Delay = 0.00>
ST_2 : Operation 44 [1/1] (2.80ns)   --->   "call void @_ssdm_op_Write.ap_fifo.volatile.i73P(i73* @dataStreamBuffer3_V, i73 %tmp_4)" [/home/paulrr2/Projects/ece527/babelsoc/fpga-network-stack/hls/mac_ip_encode/mac_ip_encode.cpp:190->/home/paulrr2/Projects/ece527/babelsoc/fpga-network-stack/hls/mac_ip_encode/mac_ip_encode.cpp:404->/home/paulrr2/Projects/ece527/babelsoc/fpga-network-stack/hls/mac_ip_encode/mac_ip_encode.cpp:441]   --->   Operation 44 'write' <Predicate = (har_state_load == 1 & tmp_6)> <Delay = 2.80> <Core = "FIFO">   --->   Core 32 'FIFO' <Latency = 0> <II = 1> <Delay = 3.63> <Storage> <Opcode : 'read' 'write' 'nbread' 'nbwrite'> <Ports = 0> <Width = 73> <Depth = 2> <FIFO>
ST_2 : Operation 45 [1/1] (0.00ns)   --->   "br label %._crit_edge6.i.i" [/home/paulrr2/Projects/ece527/babelsoc/fpga-network-stack/hls/mac_ip_encode/mac_ip_encode.cpp:194->/home/paulrr2/Projects/ece527/babelsoc/fpga-network-stack/hls/mac_ip_encode/mac_ip_encode.cpp:404->/home/paulrr2/Projects/ece527/babelsoc/fpga-network-stack/hls/mac_ip_encode/mac_ip_encode.cpp:441]   --->   Operation 45 'br' <Predicate = (har_state_load == 1 & tmp_6 & tmp_last_V)> <Delay = 0.00>
ST_2 : Operation 46 [1/1] (0.00ns)   --->   "br label %._crit_edge5.i.i" [/home/paulrr2/Projects/ece527/babelsoc/fpga-network-stack/hls/mac_ip_encode/mac_ip_encode.cpp:195->/home/paulrr2/Projects/ece527/babelsoc/fpga-network-stack/hls/mac_ip_encode/mac_ip_encode.cpp:404->/home/paulrr2/Projects/ece527/babelsoc/fpga-network-stack/hls/mac_ip_encode/mac_ip_encode.cpp:441]   --->   Operation 46 'br' <Predicate = (har_state_load == 1 & tmp_6)> <Delay = 0.00>
ST_2 : Operation 47 [1/1] (0.00ns)   --->   "br label %.exit" [/home/paulrr2/Projects/ece527/babelsoc/fpga-network-stack/hls/mac_ip_encode/mac_ip_encode.cpp:196->/home/paulrr2/Projects/ece527/babelsoc/fpga-network-stack/hls/mac_ip_encode/mac_ip_encode.cpp:404->/home/paulrr2/Projects/ece527/babelsoc/fpga-network-stack/hls/mac_ip_encode/mac_ip_encode.cpp:441]   --->   Operation 47 'br' <Predicate = (har_state_load == 1)> <Delay = 0.00>
ST_2 : Operation 48 [1/1] (0.00ns)   --->   "br i1 %tmp_8, label %2, label %._crit_edge1.i.i" [/home/paulrr2/Projects/ece527/babelsoc/fpga-network-stack/hls/mac_ip_encode/mac_ip_encode.cpp:154->/home/paulrr2/Projects/ece527/babelsoc/fpga-network-stack/hls/mac_ip_encode/mac_ip_encode.cpp:404->/home/paulrr2/Projects/ece527/babelsoc/fpga-network-stack/hls/mac_ip_encode/mac_ip_encode.cpp:441]   --->   Operation 48 'br' <Predicate = (har_state_load == 0 & tmp)> <Delay = 0.00>
ST_2 : Operation 49 [1/1] (0.00ns)   --->   "br label %._crit_edge4.i.i" [/home/paulrr2/Projects/ece527/babelsoc/fpga-network-stack/hls/mac_ip_encode/mac_ip_encode.cpp:181->/home/paulrr2/Projects/ece527/babelsoc/fpga-network-stack/hls/mac_ip_encode/mac_ip_encode.cpp:404->/home/paulrr2/Projects/ece527/babelsoc/fpga-network-stack/hls/mac_ip_encode/mac_ip_encode.cpp:441]   --->   Operation 49 'br' <Predicate = (har_state_load == 0 & tmp & tmp_8 & !tmp_22 & !tmp_last_V_4)> <Delay = 0.00>
ST_2 : Operation 50 [1/1] (0.00ns)   --->   "br label %7"   --->   Operation 50 'br' <Predicate = (har_state_load == 0 & tmp & tmp_8 & !tmp_22)> <Delay = 0.00>
ST_2 : Operation 51 [1/1] (0.00ns)   --->   "%tmp_2 = call i129 @_ssdm_op_BitConcatenate.i129.i16.i48.i48.i17(i16 8, i48 %myMacAddress_V_read, i48 %trunc_ln321, i17 0)" [/home/paulrr2/Projects/ece527/babelsoc/fpga-network-stack/hls/mac_ip_encode/mac_ip_encode.cpp:167->/home/paulrr2/Projects/ece527/babelsoc/fpga-network-stack/hls/mac_ip_encode/mac_ip_encode.cpp:404->/home/paulrr2/Projects/ece527/babelsoc/fpga-network-stack/hls/mac_ip_encode/mac_ip_encode.cpp:441]   --->   Operation 51 'bitconcatenate' 'tmp_2' <Predicate = (har_state_load == 0 & tmp & tmp_8 & tmp_22)> <Delay = 0.00>
ST_2 : Operation 52 [1/1] (2.80ns)   --->   "call void @_ssdm_op_Write.ap_fifo.volatile.i129P(i129* @headerFifo_V, i129 %tmp_2)" [/home/paulrr2/Projects/ece527/babelsoc/fpga-network-stack/hls/mac_ip_encode/mac_ip_encode.cpp:167->/home/paulrr2/Projects/ece527/babelsoc/fpga-network-stack/hls/mac_ip_encode/mac_ip_encode.cpp:404->/home/paulrr2/Projects/ece527/babelsoc/fpga-network-stack/hls/mac_ip_encode/mac_ip_encode.cpp:441]   --->   Operation 52 'write' <Predicate = (har_state_load == 0 & tmp & tmp_8 & tmp_22)> <Delay = 2.80> <Core = "FIFO">   --->   Core 32 'FIFO' <Latency = 0> <II = 1> <Delay = 3.63> <Storage> <Opcode : 'read' 'write' 'nbread' 'nbwrite'> <Ports = 0> <Width = 73> <Depth = 2> <FIFO>
ST_2 : Operation 53 [1/1] (2.80ns)   --->   "call void @_ssdm_op_Write.ap_fifo.volatile.i73P(i73* @dataStreamBuffer3_V, i73 %tmp_1)" [/home/paulrr2/Projects/ece527/babelsoc/fpga-network-stack/hls/mac_ip_encode/mac_ip_encode.cpp:169->/home/paulrr2/Projects/ece527/babelsoc/fpga-network-stack/hls/mac_ip_encode/mac_ip_encode.cpp:404->/home/paulrr2/Projects/ece527/babelsoc/fpga-network-stack/hls/mac_ip_encode/mac_ip_encode.cpp:441]   --->   Operation 53 'write' <Predicate = (har_state_load == 0 & tmp & tmp_8 & tmp_22)> <Delay = 2.80> <Core = "FIFO">   --->   Core 32 'FIFO' <Latency = 0> <II = 1> <Delay = 3.63> <Storage> <Opcode : 'read' 'write' 'nbread' 'nbwrite'> <Ports = 0> <Width = 73> <Depth = 2> <FIFO>
ST_2 : Operation 54 [1/1] (0.00ns)   --->   "br label %._crit_edge3.i.i" [/home/paulrr2/Projects/ece527/babelsoc/fpga-network-stack/hls/mac_ip_encode/mac_ip_encode.cpp:174->/home/paulrr2/Projects/ece527/babelsoc/fpga-network-stack/hls/mac_ip_encode/mac_ip_encode.cpp:404->/home/paulrr2/Projects/ece527/babelsoc/fpga-network-stack/hls/mac_ip_encode/mac_ip_encode.cpp:441]   --->   Operation 54 'br' <Predicate = (har_state_load == 0 & tmp & tmp_8 & tmp_22 & !tmp_last_V_4)> <Delay = 0.00>
ST_2 : Operation 55 [1/1] (0.00ns)   --->   "br label %7" [/home/paulrr2/Projects/ece527/babelsoc/fpga-network-stack/hls/mac_ip_encode/mac_ip_encode.cpp:175->/home/paulrr2/Projects/ece527/babelsoc/fpga-network-stack/hls/mac_ip_encode/mac_ip_encode.cpp:404->/home/paulrr2/Projects/ece527/babelsoc/fpga-network-stack/hls/mac_ip_encode/mac_ip_encode.cpp:441]   --->   Operation 55 'br' <Predicate = (har_state_load == 0 & tmp & tmp_8 & tmp_22)> <Delay = 0.00>
ST_2 : Operation 56 [1/1] (0.00ns)   --->   "br label %._crit_edge1.i.i" [/home/paulrr2/Projects/ece527/babelsoc/fpga-network-stack/hls/mac_ip_encode/mac_ip_encode.cpp:184->/home/paulrr2/Projects/ece527/babelsoc/fpga-network-stack/hls/mac_ip_encode/mac_ip_encode.cpp:404->/home/paulrr2/Projects/ece527/babelsoc/fpga-network-stack/hls/mac_ip_encode/mac_ip_encode.cpp:441]   --->   Operation 56 'br' <Predicate = (har_state_load == 0 & tmp & tmp_8)> <Delay = 0.00>
ST_2 : Operation 57 [1/1] (0.00ns)   --->   "br label %.exit" [/home/paulrr2/Projects/ece527/babelsoc/fpga-network-stack/hls/mac_ip_encode/mac_ip_encode.cpp:185->/home/paulrr2/Projects/ece527/babelsoc/fpga-network-stack/hls/mac_ip_encode/mac_ip_encode.cpp:404->/home/paulrr2/Projects/ece527/babelsoc/fpga-network-stack/hls/mac_ip_encode/mac_ip_encode.cpp:441]   --->   Operation 57 'br' <Predicate = (har_state_load == 0)> <Delay = 0.00>
ST_2 : Operation 58 [1/1] (0.00ns)   --->   "ret void" [/home/paulrr2/Projects/ece527/babelsoc/fpga-network-stack/hls/mac_ip_encode/mac_ip_encode.cpp:404->/home/paulrr2/Projects/ece527/babelsoc/fpga-network-stack/hls/mac_ip_encode/mac_ip_encode.cpp:441]   --->   Operation 58 'ret' <Predicate = true> <Delay = 0.00>


============================================================
+ Verbose Summary: Timing violations
============================================================
Target clock period: 6.4ns, clock uncertainty: 0.8ns.

 <State 1>: 2.8ns
The critical path consists of the following:
	fifo read on port 'dataStreamBuffer2_V' (/home/paulrr2/Projects/ece527/babelsoc/fpga-network-stack/hls/mac_ip_encode/mac_ip_encode.cpp:200->/home/paulrr2/Projects/ece527/babelsoc/fpga-network-stack/hls/mac_ip_encode/mac_ip_encode.cpp:404->/home/paulrr2/Projects/ece527/babelsoc/fpga-network-stack/hls/mac_ip_encode/mac_ip_encode.cpp:441) [24]  (2.8 ns)

 <State 2>: 5.6ns
The critical path consists of the following:
	fifo read on port 'myMacAddress_V' (/home/paulrr2/Projects/ece527/babelsoc/fpga-network-stack/hls/mac_ip_encode/mac_ip_encode.cpp:167) [12]  (2.8 ns)
	fifo write on port 'headerFifo_V' (/home/paulrr2/Projects/ece527/babelsoc/fpga-network-stack/hls/mac_ip_encode/mac_ip_encode.cpp:167->/home/paulrr2/Projects/ece527/babelsoc/fpga-network-stack/hls/mac_ip_encode/mac_ip_encode.cpp:404->/home/paulrr2/Projects/ece527/babelsoc/fpga-network-stack/hls/mac_ip_encode/mac_ip_encode.cpp:441) [71]  (2.8 ns)


============================================================
+ Verbose Summary: Binding
============================================================
N/A
* FSMD analyzer results:
  - Output states:
 - Input state : 
  - Chain level:
	State 1
	State 2


============================================================
+ Verbose Summary: Datapath Resource usage 
============================================================
N/A
