

================================================================
== Vivado HLS Report for 'insert_ip_checksum'
================================================================
* Date:           Fri Dec 18 10:41:38 2020

* Version:        2019.1 (Build 2552052 on Fri May 24 15:28:33 MDT 2019)
* Project:        mac_ip_encode_prj
* Solution:       solution1
* Product family: zynq
* Target device:  xc7z020-clg400-1


================================================================
== Performance Estimates
================================================================
+ Timing (ns): 
    * Summary: 
    +--------+-------+----------+------------+
    |  Clock | Target| Estimated| Uncertainty|
    +--------+-------+----------+------------+
    |ap_clk  |   6.40|     5.608|        0.80|
    +--------+-------+----------+------------+

+ Latency (clock cycles): 
    * Summary: 
    +-----+-----+-----+-----+----------+
    |  Latency  |  Interval | Pipeline |
    | min | max | min | max |   Type   |
    +-----+-----+-----+-----+----------+
    |    1|    1|    1|    1| function |
    +-----+-----+-----+-----+----------+

    + Detail: 
        * Instance: 
        N/A

        * Loop: 
        N/A

============================================================
+ Verbose Summary: Synthesis Manager
============================================================
InlineROM: 1
ExposeGlobal: 0
============================================================
+ Verbose Summary: CDFG Model
============================================================
IsTopModel: 0
ResetActiveHigh: 1
IsCombinational: 2
IsDatapathOnly: 0
HasWiredReturn: 1
HasMFsm: 2
HasVarLatency: 0
IsPipeline: 1
IsRtlPipelined: 1
IsInstanceOverlapped: 0
IsDontTouch: 0
HasImplIP: 0
IsGatedGlobalClock: 0

+ Individual pipeline summary: 
  * Pipeline-0: initiation interval (II) = 1, depth = 2


============================================================
+ Verbose Summary: Schedule
============================================================
* Number of FSM states : 2
* Pipeline : 1
  Pipeline-0 : II = 1, D = 2, States = { 1 2 }
* Dataflow Pipeline: 0

* FSM state transitions: 
1 --> 2 
2 --> 

* FSM state operations: 

State 1 <SV = 0> <Delay = 5.60>
ST_1 : Operation 3 [1/1] (0.00ns)   --->   "%wordCount_V_load = load i2* @wordCount_V, align 1" [/home/paulrr2/Projects/ece527/babelsoc/fpga-network-stack/hls/mac_ip_encode/mac_ip_encode.cpp:86]   --->   Operation 3 'load' 'wordCount_V_load' <Predicate = true> <Delay = 0.00>
ST_1 : Operation 4 [1/1] (1.13ns)   --->   "switch i2 %wordCount_V_load, label %3 [
    i2 0, label %0
    i2 1, label %2
  ]" [/home/paulrr2/Projects/ece527/babelsoc/fpga-network-stack/hls/mac_ip_encode/mac_ip_encode.cpp:86]   --->   Operation 4 'switch' <Predicate = true> <Delay = 1.13>
ST_1 : Operation 5 [1/1] (0.00ns)   --->   "%tmp_2 = call i1 @_ssdm_op_NbReadReq.ap_fifo.i73P(i73* @dataStreamBuffer1_V, i32 1) nounwind" [/home/paulrr2/Projects/ece527/babelsoc/fpga-network-stack/hls/mac_ip_encode/mac_ip_encode.cpp:107]   --->   Operation 5 'nbreadreq' 'tmp_2' <Predicate = (wordCount_V_load == 1)> <Delay = 0.00> <Core = "FIFO">   --->   Core 32 'FIFO' <Latency = 0> <II = 1> <Delay = 3.63> <Storage> <Opcode : 'read' 'write' 'nbread' 'nbwrite'> <Ports = 0> <Width = 73> <Depth = 2> <FIFO>
ST_1 : Operation 6 [1/1] (2.80ns)   --->   "%tmp_292 = call i73 @_ssdm_op_Read.ap_fifo.volatile.i73P(i73* @dataStreamBuffer1_V) nounwind" [/home/paulrr2/Projects/ece527/babelsoc/fpga-network-stack/hls/mac_ip_encode/mac_ip_encode.cpp:109]   --->   Operation 6 'read' 'tmp_292' <Predicate = (wordCount_V_load == 1 & tmp_2)> <Delay = 2.80> <Core = "FIFO">   --->   Core 32 'FIFO' <Latency = 0> <II = 1> <Delay = 3.63> <Storage> <Opcode : 'read' 'write' 'nbread' 'nbwrite'> <Ports = 0> <Width = 73> <Depth = 2> <FIFO>
ST_1 : Operation 7 [1/1] (0.00ns)   --->   "%p_Val2_4 = trunc i73 %tmp_292 to i64" [/home/paulrr2/Projects/ece527/babelsoc/fpga-network-stack/hls/mac_ip_encode/../axi_utils.hpp:50->/home/paulrr2/Projects/ece527/babelsoc/fpga-network-stack/hls/mac_ip_encode/mac_ip_encode.cpp:109]   --->   Operation 7 'trunc' 'p_Val2_4' <Predicate = (wordCount_V_load == 1 & tmp_2)> <Delay = 0.00>
ST_1 : Operation 8 [1/1] (0.00ns)   --->   "%tmp_last_V_1 = call i1 @_ssdm_op_BitSelect.i1.i73.i32(i73 %tmp_292, i32 72)" [/home/paulrr2/Projects/ece527/babelsoc/fpga-network-stack/hls/mac_ip_encode/../axi_utils.hpp:50->/home/paulrr2/Projects/ece527/babelsoc/fpga-network-stack/hls/mac_ip_encode/mac_ip_encode.cpp:109]   --->   Operation 8 'bitselect' 'tmp_last_V_1' <Predicate = (wordCount_V_load == 1 & tmp_2)> <Delay = 0.00>
ST_1 : Operation 9 [1/1] (0.00ns)   --->   "%tmp_6_i = call i9 @_ssdm_op_PartSelect.i9.i73.i32.i32(i73 %tmp_292, i32 64, i32 72) nounwind" [/home/paulrr2/Projects/ece527/babelsoc/fpga-network-stack/hls/mac_ip_encode/mac_ip_encode.cpp:115]   --->   Operation 9 'partselect' 'tmp_6_i' <Predicate = (wordCount_V_load == 1 & tmp_2)> <Delay = 0.00>
ST_1 : Operation 10 [1/1] (0.99ns)   --->   "%select_ln117 = select i1 %tmp_last_V_1, i2 0, i2 -2" [/home/paulrr2/Projects/ece527/babelsoc/fpga-network-stack/hls/mac_ip_encode/mac_ip_encode.cpp:117]   --->   Operation 10 'select' 'select_ln117' <Predicate = (wordCount_V_load == 1 & tmp_2)> <Delay = 0.99> <Core = "Sel">   --->   Core 26 'Sel' <Latency = 0> <II = 1> <Delay = 0.99> <FuncUnit> <Opcode : 'select'> <InPorts = 3> <OutPorts = 1>
ST_1 : Operation 11 [1/1] (1.81ns)   --->   "store i2 %select_ln117, i2* @wordCount_V, align 1" [/home/paulrr2/Projects/ece527/babelsoc/fpga-network-stack/hls/mac_ip_encode/mac_ip_encode.cpp:116]   --->   Operation 11 'store' <Predicate = (wordCount_V_load == 1 & tmp_2)> <Delay = 1.81>
ST_1 : Operation 12 [1/1] (0.00ns)   --->   "%tmp_1 = call i1 @_ssdm_op_NbReadReq.ap_fifo.i73P(i73* @dataStreamBuffer1_V, i32 1) nounwind" [/home/paulrr2/Projects/ece527/babelsoc/fpga-network-stack/hls/mac_ip_encode/mac_ip_encode.cpp:89]   --->   Operation 12 'nbreadreq' 'tmp_1' <Predicate = (wordCount_V_load == 0)> <Delay = 0.00> <Core = "FIFO">   --->   Core 32 'FIFO' <Latency = 0> <II = 1> <Delay = 3.63> <Storage> <Opcode : 'read' 'write' 'nbread' 'nbwrite'> <Ports = 0> <Width = 73> <Depth = 2> <FIFO>
ST_1 : Operation 13 [1/1] (0.00ns)   --->   "%tmp_3 = call i1 @_ssdm_op_NbReadReq.ap_fifo.i16P(i16* @checksumFifo_V_V, i32 1) nounwind" [/home/paulrr2/Projects/ece527/babelsoc/fpga-network-stack/hls/mac_ip_encode/mac_ip_encode.cpp:89]   --->   Operation 13 'nbreadreq' 'tmp_3' <Predicate = (wordCount_V_load == 0 & tmp_1)> <Delay = 0.00> <Core = "FIFO">   --->   Core 32 'FIFO' <Latency = 0> <II = 1> <Delay = 3.63> <Storage> <Opcode : 'read' 'write' 'nbread' 'nbwrite'> <Ports = 0> <Width = 73> <Depth = 2> <FIFO>
ST_1 : Operation 14 [1/1] (0.00ns)   --->   "br i1 %tmp_3, label %._crit_edge4.i, label %._crit_edge2.i" [/home/paulrr2/Projects/ece527/babelsoc/fpga-network-stack/hls/mac_ip_encode/mac_ip_encode.cpp:89]   --->   Operation 14 'br' <Predicate = (wordCount_V_load == 0 & tmp_1)> <Delay = 0.00>
ST_1 : Operation 15 [1/1] (2.80ns)   --->   "%tmp112 = call i73 @_ssdm_op_Read.ap_fifo.volatile.i73P(i73* @dataStreamBuffer1_V) nounwind" [/home/paulrr2/Projects/ece527/babelsoc/fpga-network-stack/hls/mac_ip_encode/mac_ip_encode.cpp:91]   --->   Operation 15 'read' 'tmp112' <Predicate = (wordCount_V_load == 0 & tmp_1 & tmp_3)> <Delay = 2.80> <Core = "FIFO">   --->   Core 32 'FIFO' <Latency = 0> <II = 1> <Delay = 3.63> <Storage> <Opcode : 'read' 'write' 'nbread' 'nbwrite'> <Ports = 0> <Width = 73> <Depth = 2> <FIFO>
ST_1 : Operation 16 [1/1] (0.00ns)   --->   "%tmp_last_V_2 = call i1 @_ssdm_op_BitSelect.i1.i73.i32(i73 %tmp112, i32 72)" [/home/paulrr2/Projects/ece527/babelsoc/fpga-network-stack/hls/mac_ip_encode/../axi_utils.hpp:50->/home/paulrr2/Projects/ece527/babelsoc/fpga-network-stack/hls/mac_ip_encode/mac_ip_encode.cpp:91]   --->   Operation 16 'bitselect' 'tmp_last_V_2' <Predicate = (wordCount_V_load == 0 & tmp_1 & tmp_3)> <Delay = 0.00>
ST_1 : Operation 17 [1/1] (2.80ns)   --->   "%tmp_V = call i16 @_ssdm_op_Read.ap_fifo.volatile.i16P(i16* @checksumFifo_V_V) nounwind" [/home/paulrr2/Projects/ece527/babelsoc/fpga-network-stack/hls/mac_ip_encode/mac_ip_encode.cpp:92]   --->   Operation 17 'read' 'tmp_V' <Predicate = (wordCount_V_load == 0 & tmp_1 & tmp_3)> <Delay = 2.80> <Core = "FIFO">   --->   Core 32 'FIFO' <Latency = 0> <II = 1> <Delay = 3.63> <Storage> <Opcode : 'read' 'write' 'nbread' 'nbwrite'> <Ports = 0> <Width = 73> <Depth = 2> <FIFO>
ST_1 : Operation 18 [1/1] (0.00ns)   --->   "store i16 %tmp_V, i16* @checksum_V, align 2" [/home/paulrr2/Projects/ece527/babelsoc/fpga-network-stack/hls/mac_ip_encode/mac_ip_encode.cpp:92]   --->   Operation 18 'store' <Predicate = (wordCount_V_load == 0 & tmp_1 & tmp_3)> <Delay = 0.00>
ST_1 : Operation 19 [1/1] (0.97ns)   --->   "%xor_ln100 = xor i1 %tmp_last_V_2, true" [/home/paulrr2/Projects/ece527/babelsoc/fpga-network-stack/hls/mac_ip_encode/mac_ip_encode.cpp:100]   --->   Operation 19 'xor' 'xor_ln100' <Predicate = (wordCount_V_load == 0 & tmp_1 & tmp_3)> <Delay = 0.97> <Core = "LogicGate">   --->   Core 27 'LogicGate' <Latency = 0> <II = 1> <Delay = 0.97> <FuncUnit> <Opcode : 'and' 'or' 'xor'> <InPorts = 2> <OutPorts = 1>
ST_1 : Operation 20 [1/1] (0.00ns)   --->   "%zext_ln700 = zext i1 %xor_ln100 to i2" [/home/paulrr2/Projects/ece527/babelsoc/fpga-network-stack/hls/mac_ip_encode/mac_ip_encode.cpp:99]   --->   Operation 20 'zext' 'zext_ln700' <Predicate = (wordCount_V_load == 0 & tmp_1 & tmp_3)> <Delay = 0.00>
ST_1 : Operation 21 [1/1] (1.81ns)   --->   "store i2 %zext_ln700, i2* @wordCount_V, align 1" [/home/paulrr2/Projects/ece527/babelsoc/fpga-network-stack/hls/mac_ip_encode/mac_ip_encode.cpp:99]   --->   Operation 21 'store' <Predicate = (wordCount_V_load == 0 & tmp_1 & tmp_3)> <Delay = 1.81>
ST_1 : Operation 22 [1/1] (0.00ns)   --->   "%tmp = call i1 @_ssdm_op_NbReadReq.ap_fifo.i73P(i73* @dataStreamBuffer1_V, i32 1) nounwind" [/home/paulrr2/Projects/ece527/babelsoc/fpga-network-stack/hls/mac_ip_encode/mac_ip_encode.cpp:124]   --->   Operation 22 'nbreadreq' 'tmp' <Predicate = (wordCount_V_load != 0 & wordCount_V_load != 1)> <Delay = 0.00> <Core = "FIFO">   --->   Core 32 'FIFO' <Latency = 0> <II = 1> <Delay = 3.63> <Storage> <Opcode : 'read' 'write' 'nbread' 'nbwrite'> <Ports = 0> <Width = 73> <Depth = 2> <FIFO>
ST_1 : Operation 23 [1/1] (2.80ns)   --->   "%tmp_4 = call i73 @_ssdm_op_Read.ap_fifo.volatile.i73P(i73* @dataStreamBuffer1_V) nounwind" [/home/paulrr2/Projects/ece527/babelsoc/fpga-network-stack/hls/mac_ip_encode/mac_ip_encode.cpp:126]   --->   Operation 23 'read' 'tmp_4' <Predicate = (wordCount_V_load != 0 & wordCount_V_load != 1 & tmp)> <Delay = 2.80> <Core = "FIFO">   --->   Core 32 'FIFO' <Latency = 0> <II = 1> <Delay = 3.63> <Storage> <Opcode : 'read' 'write' 'nbread' 'nbwrite'> <Ports = 0> <Width = 73> <Depth = 2> <FIFO>
ST_1 : Operation 24 [1/1] (0.00ns)   --->   "%tmp_last_V = call i1 @_ssdm_op_BitSelect.i1.i73.i32(i73 %tmp_4, i32 72)" [/home/paulrr2/Projects/ece527/babelsoc/fpga-network-stack/hls/mac_ip_encode/../axi_utils.hpp:50->/home/paulrr2/Projects/ece527/babelsoc/fpga-network-stack/hls/mac_ip_encode/mac_ip_encode.cpp:126]   --->   Operation 24 'bitselect' 'tmp_last_V' <Predicate = (wordCount_V_load != 0 & wordCount_V_load != 1 & tmp)> <Delay = 0.00>
ST_1 : Operation 25 [1/1] (0.00ns)   --->   "br i1 %tmp_last_V, label %5, label %._crit_edge8.i" [/home/paulrr2/Projects/ece527/babelsoc/fpga-network-stack/hls/mac_ip_encode/mac_ip_encode.cpp:128]   --->   Operation 25 'br' <Predicate = (wordCount_V_load != 0 & wordCount_V_load != 1 & tmp)> <Delay = 0.00>
ST_1 : Operation 26 [1/1] (1.81ns)   --->   "store i2 0, i2* @wordCount_V, align 1" [/home/paulrr2/Projects/ece527/babelsoc/fpga-network-stack/hls/mac_ip_encode/mac_ip_encode.cpp:130]   --->   Operation 26 'store' <Predicate = (wordCount_V_load != 0 & wordCount_V_load != 1 & tmp & tmp_last_V)> <Delay = 1.81>

State 2 <SV = 1> <Delay = 2.80>
ST_2 : Operation 27 [1/1] (0.00ns)   --->   "call void (...)* @_ssdm_op_SpecInterface(i16* @checksumFifo_V_V, [8 x i8]* @ap_fifo_str, i32 0, i32 0, [1 x i8]* @p_str, i32 0, i32 0, [1 x i8]* @p_str, [1 x i8]* @p_str, [1 x i8]* @p_str, i32 2, i32 2, i32 16, i32 16, [1 x i8]* @p_str, [1 x i8]* @p_str)"   --->   Operation 27 'specinterface' <Predicate = true> <Delay = 0.00>
ST_2 : Operation 28 [1/1] (0.00ns)   --->   "call void (...)* @_ssdm_op_SpecInterface(i73* @dataStreamBuffer1_V, [8 x i8]* @ap_fifo_str, i32 0, i32 0, [1 x i8]* @p_str, i32 0, i32 0, [1 x i8]* @p_str, [1 x i8]* @p_str, [1 x i8]* @p_str, i32 2, i32 2, i32 16, i32 16, [1 x i8]* @p_str, [1 x i8]* @p_str)"   --->   Operation 28 'specinterface' <Predicate = true> <Delay = 0.00>
ST_2 : Operation 29 [1/1] (0.00ns)   --->   "call void (...)* @_ssdm_op_SpecInterface(i73* @dataStreamBuffer2_V, [8 x i8]* @ap_fifo_str, i32 0, i32 0, [1 x i8]* @p_str, i32 0, i32 0, [1 x i8]* @p_str, [1 x i8]* @p_str, [1 x i8]* @p_str, i32 2, i32 2, i32 16, i32 16, [1 x i8]* @p_str, [1 x i8]* @p_str)"   --->   Operation 29 'specinterface' <Predicate = true> <Delay = 0.00>
ST_2 : Operation 30 [1/1] (0.00ns)   --->   "call void (...)* @_ssdm_op_SpecPipeline(i32 1, i32 1, i32 1, i32 0, [1 x i8]* @p_str) nounwind" [/home/paulrr2/Projects/ece527/babelsoc/fpga-network-stack/hls/mac_ip_encode/mac_ip_encode.cpp:80]   --->   Operation 30 'specpipeline' <Predicate = true> <Delay = 0.00>
ST_2 : Operation 31 [1/1] (0.00ns)   --->   "br i1 %tmp_2, label %._crit_edge6.i, label %._crit_edge5.i" [/home/paulrr2/Projects/ece527/babelsoc/fpga-network-stack/hls/mac_ip_encode/mac_ip_encode.cpp:107]   --->   Operation 31 'br' <Predicate = (wordCount_V_load == 1)> <Delay = 0.00>
ST_2 : Operation 32 [1/1] (0.00ns)   --->   "%p_Val2_s = load i16* @checksum_V, align 2" [/home/paulrr2/Projects/ece527/babelsoc/fpga-network-stack/hls/mac_ip_encode/mac_ip_encode.cpp:112]   --->   Operation 32 'load' 'p_Val2_s' <Predicate = (wordCount_V_load == 1 & tmp_2)> <Delay = 0.00>
ST_2 : Operation 33 [1/1] (0.00ns)   --->   "%p_Result_2_i_i = call i8 @_ssdm_op_PartSelect.i8.i16.i32.i32(i16 %p_Val2_s, i32 8, i32 15) nounwind" [/home/paulrr2/Projects/ece527/babelsoc/fpga-network-stack/hls/mac_ip_encode/../axi_utils.hpp:79->/home/paulrr2/Projects/ece527/babelsoc/fpga-network-stack/hls/mac_ip_encode/mac_ip_encode.cpp:112]   --->   Operation 33 'partselect' 'p_Result_2_i_i' <Predicate = (wordCount_V_load == 1 & tmp_2)> <Delay = 0.00>
ST_2 : Operation 34 [1/1] (0.00ns)   --->   "%trunc_ln647 = trunc i16 %p_Val2_s to i8" [/home/paulrr2/Projects/ece527/babelsoc/fpga-network-stack/hls/mac_ip_encode/../axi_utils.hpp:79->/home/paulrr2/Projects/ece527/babelsoc/fpga-network-stack/hls/mac_ip_encode/mac_ip_encode.cpp:112]   --->   Operation 34 'trunc' 'trunc_ln647' <Predicate = (wordCount_V_load == 1 & tmp_2)> <Delay = 0.00>
ST_2 : Operation 35 [1/1] (0.00ns)   --->   "%agg_result_V_0_1_i_i = call i16 @_ssdm_op_BitConcatenate.i16.i8.i8(i8 %trunc_ln647, i8 %p_Result_2_i_i) nounwind" [/home/paulrr2/Projects/ece527/babelsoc/fpga-network-stack/hls/mac_ip_encode/../axi_utils.hpp:79->/home/paulrr2/Projects/ece527/babelsoc/fpga-network-stack/hls/mac_ip_encode/mac_ip_encode.cpp:112]   --->   Operation 35 'bitconcatenate' 'agg_result_V_0_1_i_i' <Predicate = (wordCount_V_load == 1 & tmp_2)> <Delay = 0.00>
ST_2 : Operation 36 [1/1] (0.00ns)   --->   "%p_Result_s = call i64 @llvm.part.set.i64.i16(i64 %p_Val2_4, i16 %agg_result_V_0_1_i_i, i32 16, i32 31) nounwind" [/home/paulrr2/Projects/ece527/babelsoc/fpga-network-stack/hls/mac_ip_encode/mac_ip_encode.cpp:112]   --->   Operation 36 'partset' 'p_Result_s' <Predicate = (wordCount_V_load == 1 & tmp_2)> <Delay = 0.00>
ST_2 : Operation 37 [1/1] (0.00ns)   --->   "%tmp_385 = call i73 @_ssdm_op_BitConcatenate.i73.i9.i64(i9 %tmp_6_i, i64 %p_Result_s) nounwind" [/home/paulrr2/Projects/ece527/babelsoc/fpga-network-stack/hls/mac_ip_encode/mac_ip_encode.cpp:115]   --->   Operation 37 'bitconcatenate' 'tmp_385' <Predicate = (wordCount_V_load == 1 & tmp_2)> <Delay = 0.00>
ST_2 : Operation 38 [1/1] (2.80ns)   --->   "call void @_ssdm_op_Write.ap_fifo.volatile.i73P(i73* @dataStreamBuffer2_V, i73 %tmp_385) nounwind" [/home/paulrr2/Projects/ece527/babelsoc/fpga-network-stack/hls/mac_ip_encode/mac_ip_encode.cpp:115]   --->   Operation 38 'write' <Predicate = (wordCount_V_load == 1 & tmp_2)> <Delay = 2.80> <Core = "FIFO">   --->   Core 32 'FIFO' <Latency = 0> <II = 1> <Delay = 3.63> <Storage> <Opcode : 'read' 'write' 'nbread' 'nbwrite'> <Ports = 0> <Width = 73> <Depth = 2> <FIFO>
ST_2 : Operation 39 [1/1] (0.00ns)   --->   "br label %._crit_edge5.i" [/home/paulrr2/Projects/ece527/babelsoc/fpga-network-stack/hls/mac_ip_encode/mac_ip_encode.cpp:121]   --->   Operation 39 'br' <Predicate = (wordCount_V_load == 1 & tmp_2)> <Delay = 0.00>
ST_2 : Operation 40 [1/1] (0.00ns)   --->   "br label %"insert_ip_checksum<64>.exit"" [/home/paulrr2/Projects/ece527/babelsoc/fpga-network-stack/hls/mac_ip_encode/mac_ip_encode.cpp:122]   --->   Operation 40 'br' <Predicate = (wordCount_V_load == 1)> <Delay = 0.00>
ST_2 : Operation 41 [1/1] (0.00ns)   --->   "br i1 %tmp_1, label %1, label %._crit_edge2.i" [/home/paulrr2/Projects/ece527/babelsoc/fpga-network-stack/hls/mac_ip_encode/mac_ip_encode.cpp:89]   --->   Operation 41 'br' <Predicate = (wordCount_V_load == 0)> <Delay = 0.00>
ST_2 : Operation 42 [1/1] (2.80ns)   --->   "call void @_ssdm_op_Write.ap_fifo.volatile.i73P(i73* @dataStreamBuffer2_V, i73 %tmp112) nounwind" [/home/paulrr2/Projects/ece527/babelsoc/fpga-network-stack/hls/mac_ip_encode/mac_ip_encode.cpp:98]   --->   Operation 42 'write' <Predicate = (wordCount_V_load == 0 & tmp_1 & tmp_3)> <Delay = 2.80> <Core = "FIFO">   --->   Core 32 'FIFO' <Latency = 0> <II = 1> <Delay = 3.63> <Storage> <Opcode : 'read' 'write' 'nbread' 'nbwrite'> <Ports = 0> <Width = 73> <Depth = 2> <FIFO>
ST_2 : Operation 43 [1/1] (0.00ns)   --->   "br label %._crit_edge2.i" [/home/paulrr2/Projects/ece527/babelsoc/fpga-network-stack/hls/mac_ip_encode/mac_ip_encode.cpp:104]   --->   Operation 43 'br' <Predicate = (wordCount_V_load == 0 & tmp_1 & tmp_3)> <Delay = 0.00>
ST_2 : Operation 44 [1/1] (0.00ns)   --->   "br label %"insert_ip_checksum<64>.exit"" [/home/paulrr2/Projects/ece527/babelsoc/fpga-network-stack/hls/mac_ip_encode/mac_ip_encode.cpp:105]   --->   Operation 44 'br' <Predicate = (wordCount_V_load == 0)> <Delay = 0.00>
ST_2 : Operation 45 [1/1] (0.00ns)   --->   "br i1 %tmp, label %4, label %._crit_edge7.i" [/home/paulrr2/Projects/ece527/babelsoc/fpga-network-stack/hls/mac_ip_encode/mac_ip_encode.cpp:124]   --->   Operation 45 'br' <Predicate = (wordCount_V_load != 0 & wordCount_V_load != 1)> <Delay = 0.00>
ST_2 : Operation 46 [1/1] (2.80ns)   --->   "call void @_ssdm_op_Write.ap_fifo.volatile.i73P(i73* @dataStreamBuffer2_V, i73 %tmp_4) nounwind" [/home/paulrr2/Projects/ece527/babelsoc/fpga-network-stack/hls/mac_ip_encode/mac_ip_encode.cpp:127]   --->   Operation 46 'write' <Predicate = (wordCount_V_load != 0 & wordCount_V_load != 1 & tmp)> <Delay = 2.80> <Core = "FIFO">   --->   Core 32 'FIFO' <Latency = 0> <II = 1> <Delay = 3.63> <Storage> <Opcode : 'read' 'write' 'nbread' 'nbwrite'> <Ports = 0> <Width = 73> <Depth = 2> <FIFO>
ST_2 : Operation 47 [1/1] (0.00ns)   --->   "br label %._crit_edge8.i" [/home/paulrr2/Projects/ece527/babelsoc/fpga-network-stack/hls/mac_ip_encode/mac_ip_encode.cpp:131]   --->   Operation 47 'br' <Predicate = (wordCount_V_load != 0 & wordCount_V_load != 1 & tmp & tmp_last_V)> <Delay = 0.00>
ST_2 : Operation 48 [1/1] (0.00ns)   --->   "br label %._crit_edge7.i" [/home/paulrr2/Projects/ece527/babelsoc/fpga-network-stack/hls/mac_ip_encode/mac_ip_encode.cpp:132]   --->   Operation 48 'br' <Predicate = (wordCount_V_load != 0 & wordCount_V_load != 1 & tmp)> <Delay = 0.00>
ST_2 : Operation 49 [1/1] (0.00ns)   --->   "br label %"insert_ip_checksum<64>.exit"" [/home/paulrr2/Projects/ece527/babelsoc/fpga-network-stack/hls/mac_ip_encode/mac_ip_encode.cpp:133]   --->   Operation 49 'br' <Predicate = (wordCount_V_load != 0 & wordCount_V_load != 1)> <Delay = 0.00>
ST_2 : Operation 50 [1/1] (0.00ns)   --->   "ret void"   --->   Operation 50 'ret' <Predicate = true> <Delay = 0.00>


============================================================
+ Verbose Summary: Timing violations
============================================================
Target clock period: 6.4ns, clock uncertainty: 0.8ns.

 <State 1>: 5.61ns
The critical path consists of the following:
	fifo read on port 'dataStreamBuffer1_V' (/home/paulrr2/Projects/ece527/babelsoc/fpga-network-stack/hls/mac_ip_encode/mac_ip_encode.cpp:109) [16]  (2.8 ns)
	'select' operation ('select_ln117', /home/paulrr2/Projects/ece527/babelsoc/fpga-network-stack/hls/mac_ip_encode/mac_ip_encode.cpp:117) [27]  (0.993 ns)
	'store' operation ('store_ln116', /home/paulrr2/Projects/ece527/babelsoc/fpga-network-stack/hls/mac_ip_encode/mac_ip_encode.cpp:116) of variable 'select_ln117', /home/paulrr2/Projects/ece527/babelsoc/fpga-network-stack/hls/mac_ip_encode/mac_ip_encode.cpp:117 on static variable 'wordCount_V' [28]  (1.81 ns)

 <State 2>: 2.8ns
The critical path consists of the following:
	'load' operation ('w.V', /home/paulrr2/Projects/ece527/babelsoc/fpga-network-stack/hls/mac_ip_encode/mac_ip_encode.cpp:112) on static variable 'checksum_V' [19]  (0 ns)
	fifo write on port 'dataStreamBuffer2_V' (/home/paulrr2/Projects/ece527/babelsoc/fpga-network-stack/hls/mac_ip_encode/mac_ip_encode.cpp:115) [26]  (2.8 ns)


============================================================
+ Verbose Summary: Binding
============================================================
N/A
* FSMD analyzer results:
  - Output states:
 - Input state : 
  - Chain level:
	State 1
	State 2


============================================================
+ Verbose Summary: Datapath Resource usage 
============================================================
N/A
