# ==============================================================
# Vivado(TM) HLS - High-Level Synthesis from C, C++ and SystemC v2019.1 (64-bit)
# Copyright 1986-2019 Xilinx, Inc. All Rights Reserved.
# ==============================================================

Family       : zynq
Device       : xc7z020
Package      : -clg400
Speed Grade  : -1
Clock Period : 6.400 ns
