

================================================================
== Vivado HLS Report for 'dropper'
================================================================
* Date:           Sat Dec 12 19:20:50 2020

* Version:        2019.2.1 (Build 2724168 on Thu Dec 05 05:19:09 MST 2019)
* Project:        icmp_server_prj
* Solution:       solution1
* Product family: zynq
* Target device:  xc7z020-clg400-1


================================================================
== Performance Estimates
================================================================
+ Timing: 
    * Summary: 
    +--------+---------+----------+------------+
    |  Clock |  Target | Estimated| Uncertainty|
    +--------+---------+----------+------------+
    |ap_clk  | 6.40 ns | 5.600 ns |   0.80 ns  |
    +--------+---------+----------+------------+

+ Latency: 
    * Summary: 
    +---------+---------+----------+----------+-----+-----+---------+
    |  Latency (cycles) |  Latency (absolute) |  Interval | Pipeline|
    |   min   |   max   |    min   |    max   | min | max |   Type  |
    +---------+---------+----------+----------+-----+-----+---------+
    |        0|        0|   0 ns   |   0 ns   |    0|    0|   none  |
    +---------+---------+----------+----------+-----+-----+---------+

    + Detail: 
        * Instance: 
        N/A

        * Loop: 
        N/A

============================================================
+ Verbose Summary: Synthesis Manager
============================================================
InlineROM: 1
ExposeGlobal: 0
============================================================
+ Verbose Summary: CDFG Model
============================================================
IsTopModel: 0
ResetActiveHigh: 1
IsCombinational: 2
IsDatapathOnly: 0
HasWiredReturn: 1
HasMFsm: 0
HasVarLatency: 0
IsPipeline: 0
IsRtlPipelined: 0
IsInstanceOverlapped: 0
IsDontTouch: 0
HasImplIP: 0
IsGatedGlobalClock: 0


============================================================
+ Verbose Summary: Schedule
============================================================
* Number of FSM states : 1
* Pipeline : 0
* Dataflow Pipeline: 0

* FSM state transitions: 
1 --> 

* FSM state operations: 

State 1 <SV = 0> <Delay = 5.60>
ST_1 : Operation 2 [1/1] (0.00ns)   --->   "call void (...)* @_ssdm_op_SpecInterface(i64* @dataStreams_V_data_V, [8 x i8]* @ap_fifo_str, i32 0, i32 0, [1 x i8]* @p_str, i32 0, i32 0, [1 x i8]* @p_str, [1 x i8]* @p_str, [1 x i8]* @p_str, i32 2, i32 2, i32 16, i32 16, [1 x i8]* @p_str, [1 x i8]* @p_str)"   --->   Operation 2 'specinterface' <Predicate = true> <Delay = 0.00>
ST_1 : Operation 3 [1/1] (0.00ns)   --->   "call void (...)* @_ssdm_op_SpecInterface(i8* @dataStreams_V_keep_V, [8 x i8]* @ap_fifo_str, i32 0, i32 0, [1 x i8]* @p_str, i32 0, i32 0, [1 x i8]* @p_str, [1 x i8]* @p_str, [1 x i8]* @p_str, i32 2, i32 2, i32 16, i32 16, [1 x i8]* @p_str, [1 x i8]* @p_str)"   --->   Operation 3 'specinterface' <Predicate = true> <Delay = 0.00>
ST_1 : Operation 4 [1/1] (0.00ns)   --->   "call void (...)* @_ssdm_op_SpecInterface(i1* @dataStreams_V_last_V, [8 x i8]* @ap_fifo_str, i32 0, i32 0, [1 x i8]* @p_str, i32 0, i32 0, [1 x i8]* @p_str, [1 x i8]* @p_str, [1 x i8]* @p_str, i32 2, i32 2, i32 16, i32 16, [1 x i8]* @p_str, [1 x i8]* @p_str)"   --->   Operation 4 'specinterface' <Predicate = true> <Delay = 0.00>
ST_1 : Operation 5 [1/1] (0.00ns)   --->   "call void (...)* @_ssdm_op_SpecInterface(i73* @packageBuffer1_V, [8 x i8]* @ap_fifo_str, i32 0, i32 0, [1 x i8]* @p_str, i32 0, i32 0, [1 x i8]* @p_str, [1 x i8]* @p_str, [1 x i8]* @p_str, i32 2, i32 2, i32 16, i32 16, [1 x i8]* @p_str, [1 x i8]* @p_str)"   --->   Operation 5 'specinterface' <Predicate = true> <Delay = 0.00>
ST_1 : Operation 6 [1/1] (0.00ns)   --->   "call void (...)* @_ssdm_op_SpecInterface(i1* @validFifo_V, [8 x i8]* @ap_fifo_str, i32 0, i32 0, [1 x i8]* @p_str, i32 0, i32 0, [1 x i8]* @p_str, [1 x i8]* @p_str, [1 x i8]* @p_str, i32 2, i32 2, i32 16, i32 16, [1 x i8]* @p_str, [1 x i8]* @p_str)"   --->   Operation 6 'specinterface' <Predicate = true> <Delay = 0.00>
ST_1 : Operation 7 [1/1] (0.00ns)   --->   "%tmp = call i1 @_ssdm_op_NbReadReq.ap_fifo.i73P(i73* @packageBuffer1_V, i32 1)" [/home/paulrr2/Projects/ece527/babelsoc/fpga-network-stack/hls/icmp_server/icmp_server.cpp:329]   --->   Operation 7 'nbreadreq' 'tmp' <Predicate = true> <Delay = 0.00> <Core = "FIFO_SRL">   --->   Core 36 'FIFO_SRL' <Latency = 0> <II = 1> <Delay = 3.63> <Storage> <Opcode : 'read' 'write' 'nbread' 'nbwrite'> <Ports = 0> <Width = 64> <Depth = 0> <FIFO>
ST_1 : Operation 8 [1/1] (0.00ns)   --->   "br i1 %tmp, label %0, label %dropper.exit" [/home/paulrr2/Projects/ece527/babelsoc/fpga-network-stack/hls/icmp_server/icmp_server.cpp:329]   --->   Operation 8 'br' <Predicate = true> <Delay = 0.00>
ST_1 : Operation 9 [1/1] (0.00ns)   --->   "%d_isFirstWord_load = load i1* @d_isFirstWord, align 1" [/home/paulrr2/Projects/ece527/babelsoc/fpga-network-stack/hls/icmp_server/icmp_server.cpp:330]   --->   Operation 9 'load' 'd_isFirstWord_load' <Predicate = (tmp)> <Delay = 0.00>
ST_1 : Operation 10 [1/1] (0.00ns)   --->   "%d_drop_load = load i1* @d_drop, align 1" [/home/paulrr2/Projects/ece527/babelsoc/fpga-network-stack/hls/icmp_server/icmp_server.cpp:341]   --->   Operation 10 'load' 'd_drop_load' <Predicate = (tmp)> <Delay = 0.00>
ST_1 : Operation 11 [1/1] (0.00ns)   --->   "br i1 %d_isFirstWord_load, label %1, label %4" [/home/paulrr2/Projects/ece527/babelsoc/fpga-network-stack/hls/icmp_server/icmp_server.cpp:330]   --->   Operation 11 'br' <Predicate = (tmp)> <Delay = 0.00>
ST_1 : Operation 12 [1/1] (2.80ns)   --->   "%tmp_1 = call i73 @_ssdm_op_Read.ap_fifo.volatile.i73P(i73* @packageBuffer1_V)" [/home/paulrr2/Projects/ece527/babelsoc/fpga-network-stack/hls/icmp_server/icmp_server.cpp:342]   --->   Operation 12 'read' 'tmp_1' <Predicate = (tmp & !d_isFirstWord_load)> <Delay = 2.80> <Core = "FIFO_SRL">   --->   Core 36 'FIFO_SRL' <Latency = 0> <II = 1> <Delay = 3.63> <Storage> <Opcode : 'read' 'write' 'nbread' 'nbwrite'> <Ports = 0> <Width = 64> <Depth = 0> <FIFO>
ST_1 : Operation 13 [1/1] (0.00ns)   --->   "br i1 %d_drop_load, label %5, label %6" [/home/paulrr2/Projects/ece527/babelsoc/fpga-network-stack/hls/icmp_server/icmp_server.cpp:341]   --->   Operation 13 'br' <Predicate = (tmp & !d_isFirstWord_load)> <Delay = 0.00>
ST_1 : Operation 14 [1/1] (0.00ns)   --->   "%tmp_data_V = trunc i73 %tmp_1 to i64" [/home/paulrr2/Projects/ece527/babelsoc/fpga-network-stack/hls/icmp_server/icmp_server.hpp:45->/home/paulrr2/Projects/ece527/babelsoc/fpga-network-stack/hls/icmp_server/icmp_server.cpp:344]   --->   Operation 14 'trunc' 'tmp_data_V' <Predicate = (tmp & !d_isFirstWord_load & !d_drop_load)> <Delay = 0.00>
ST_1 : Operation 15 [1/1] (0.00ns)   --->   "%tmp_keep_V = call i8 @_ssdm_op_PartSelect.i8.i73.i32.i32(i73 %tmp_1, i32 64, i32 71)" [/home/paulrr2/Projects/ece527/babelsoc/fpga-network-stack/hls/icmp_server/icmp_server.hpp:45->/home/paulrr2/Projects/ece527/babelsoc/fpga-network-stack/hls/icmp_server/icmp_server.cpp:344]   --->   Operation 15 'partselect' 'tmp_keep_V' <Predicate = (tmp & !d_isFirstWord_load & !d_drop_load)> <Delay = 0.00>
ST_1 : Operation 16 [1/1] (0.00ns)   --->   "%tmp_last_V = call i1 @_ssdm_op_BitSelect.i1.i73.i32(i73 %tmp_1, i32 72)" [/home/paulrr2/Projects/ece527/babelsoc/fpga-network-stack/hls/icmp_server/icmp_server.hpp:45->/home/paulrr2/Projects/ece527/babelsoc/fpga-network-stack/hls/icmp_server/icmp_server.cpp:344]   --->   Operation 16 'bitselect' 'tmp_last_V' <Predicate = (tmp & !d_isFirstWord_load & !d_drop_load)> <Delay = 0.00>
ST_1 : Operation 17 [1/1] (2.80ns)   --->   "call void @_ssdm_op_Write.ap_fifo.volatile.i64P.i8P.i1P(i64* @dataStreams_V_data_V, i8* @dataStreams_V_keep_V, i1* @dataStreams_V_last_V, i64 %tmp_data_V, i8 %tmp_keep_V, i1 %tmp_last_V)" [/home/paulrr2/Projects/ece527/babelsoc/fpga-network-stack/hls/icmp_server/icmp_server.cpp:345]   --->   Operation 17 'write' <Predicate = (tmp & !d_isFirstWord_load & !d_drop_load)> <Delay = 2.80> <Core = "FIFO_SRL">   --->   Core 36 'FIFO_SRL' <Latency = 0> <II = 1> <Delay = 3.63> <Storage> <Opcode : 'read' 'write' 'nbread' 'nbwrite'> <Ports = 0> <Width = 64> <Depth = 0> <FIFO>
ST_1 : Operation 18 [1/1] (1.81ns)   --->   "br label %._crit_edge1.i"   --->   Operation 18 'br' <Predicate = (tmp & !d_isFirstWord_load & !d_drop_load)> <Delay = 1.81>
ST_1 : Operation 19 [1/1] (0.00ns)   --->   "%tmp_21 = call i1 @_ssdm_op_BitSelect.i1.i73.i32(i73 %tmp_1, i32 72)" [/home/paulrr2/Projects/ece527/babelsoc/fpga-network-stack/hls/icmp_server/icmp_server.hpp:45->/home/paulrr2/Projects/ece527/babelsoc/fpga-network-stack/hls/icmp_server/icmp_server.cpp:342]   --->   Operation 19 'bitselect' 'tmp_21' <Predicate = (tmp & !d_isFirstWord_load & d_drop_load)> <Delay = 0.00>
ST_1 : Operation 20 [1/1] (1.81ns)   --->   "br label %._crit_edge1.i" [/home/paulrr2/Projects/ece527/babelsoc/fpga-network-stack/hls/icmp_server/icmp_server.cpp:342]   --->   Operation 20 'br' <Predicate = (tmp & !d_isFirstWord_load & d_drop_load)> <Delay = 1.81>
ST_1 : Operation 21 [1/1] (0.00ns)   --->   "%tmp_18 = call i1 @_ssdm_op_NbReadReq.ap_fifo.i1P(i1* @validFifo_V, i32 1)" [/home/paulrr2/Projects/ece527/babelsoc/fpga-network-stack/hls/icmp_server/icmp_server.cpp:331]   --->   Operation 21 'nbreadreq' 'tmp_18' <Predicate = (tmp & d_isFirstWord_load)> <Delay = 0.00> <Core = "FIFO_SRL">   --->   Core 36 'FIFO_SRL' <Latency = 0> <II = 1> <Delay = 3.63> <Storage> <Opcode : 'read' 'write' 'nbread' 'nbwrite'> <Ports = 0> <Width = 64> <Depth = 0> <FIFO>
ST_1 : Operation 22 [1/1] (1.81ns)   --->   "br i1 %tmp_18, label %2, label %._crit_edge1.i" [/home/paulrr2/Projects/ece527/babelsoc/fpga-network-stack/hls/icmp_server/icmp_server.cpp:331]   --->   Operation 22 'br' <Predicate = (tmp & d_isFirstWord_load)> <Delay = 1.81>
ST_1 : Operation 23 [1/1] (2.80ns)   --->   "%tmp32 = call i73 @_ssdm_op_Read.ap_fifo.volatile.i73P(i73* @packageBuffer1_V)" [/home/paulrr2/Projects/ece527/babelsoc/fpga-network-stack/hls/icmp_server/icmp_server.cpp:332]   --->   Operation 23 'read' 'tmp32' <Predicate = (tmp & d_isFirstWord_load & tmp_18)> <Delay = 2.80> <Core = "FIFO_SRL">   --->   Core 36 'FIFO_SRL' <Latency = 0> <II = 1> <Delay = 3.63> <Storage> <Opcode : 'read' 'write' 'nbread' 'nbwrite'> <Ports = 0> <Width = 64> <Depth = 0> <FIFO>
ST_1 : Operation 24 [1/1] (0.00ns)   --->   "%tmp_data_V_24 = trunc i73 %tmp32 to i64" [/home/paulrr2/Projects/ece527/babelsoc/fpga-network-stack/hls/icmp_server/icmp_server.hpp:45->/home/paulrr2/Projects/ece527/babelsoc/fpga-network-stack/hls/icmp_server/icmp_server.cpp:332]   --->   Operation 24 'trunc' 'tmp_data_V_24' <Predicate = (tmp & d_isFirstWord_load & tmp_18)> <Delay = 0.00>
ST_1 : Operation 25 [1/1] (0.00ns)   --->   "%tmp_keep_V_18 = call i8 @_ssdm_op_PartSelect.i8.i73.i32.i32(i73 %tmp32, i32 64, i32 71)" [/home/paulrr2/Projects/ece527/babelsoc/fpga-network-stack/hls/icmp_server/icmp_server.hpp:45->/home/paulrr2/Projects/ece527/babelsoc/fpga-network-stack/hls/icmp_server/icmp_server.cpp:332]   --->   Operation 25 'partselect' 'tmp_keep_V_18' <Predicate = (tmp & d_isFirstWord_load & tmp_18)> <Delay = 0.00>
ST_1 : Operation 26 [1/1] (0.00ns)   --->   "%tmp_last_V_15 = call i1 @_ssdm_op_BitSelect.i1.i73.i32(i73 %tmp32, i32 72)" [/home/paulrr2/Projects/ece527/babelsoc/fpga-network-stack/hls/icmp_server/icmp_server.hpp:45->/home/paulrr2/Projects/ece527/babelsoc/fpga-network-stack/hls/icmp_server/icmp_server.cpp:332]   --->   Operation 26 'bitselect' 'tmp_last_V_15' <Predicate = (tmp & d_isFirstWord_load & tmp_18)> <Delay = 0.00>
ST_1 : Operation 27 [1/1] (2.80ns)   --->   "%tmp_23 = call i1 @_ssdm_op_Read.ap_fifo.volatile.i1P(i1* @validFifo_V)" [/home/paulrr2/Projects/ece527/babelsoc/fpga-network-stack/hls/icmp_server/icmp_server.cpp:333]   --->   Operation 27 'read' 'tmp_23' <Predicate = (tmp & d_isFirstWord_load & tmp_18)> <Delay = 2.80> <Core = "FIFO_SRL">   --->   Core 36 'FIFO_SRL' <Latency = 0> <II = 1> <Delay = 3.63> <Storage> <Opcode : 'read' 'write' 'nbread' 'nbwrite'> <Ports = 0> <Width = 64> <Depth = 0> <FIFO>
ST_1 : Operation 28 [1/1] (1.81ns)   --->   "br i1 %tmp_23, label %3, label %._crit_edge1.i" [/home/paulrr2/Projects/ece527/babelsoc/fpga-network-stack/hls/icmp_server/icmp_server.cpp:334]   --->   Operation 28 'br' <Predicate = (tmp & d_isFirstWord_load & tmp_18)> <Delay = 1.81>
ST_1 : Operation 29 [1/1] (2.80ns)   --->   "call void @_ssdm_op_Write.ap_fifo.volatile.i64P.i8P.i1P(i64* @dataStreams_V_data_V, i8* @dataStreams_V_keep_V, i1* @dataStreams_V_last_V, i64 %tmp_data_V_24, i8 %tmp_keep_V_18, i1 %tmp_last_V_15)" [/home/paulrr2/Projects/ece527/babelsoc/fpga-network-stack/hls/icmp_server/icmp_server.cpp:335]   --->   Operation 29 'write' <Predicate = (tmp & d_isFirstWord_load & tmp_18 & tmp_23)> <Delay = 2.80> <Core = "FIFO_SRL">   --->   Core 36 'FIFO_SRL' <Latency = 0> <II = 1> <Delay = 3.63> <Storage> <Opcode : 'read' 'write' 'nbread' 'nbwrite'> <Ports = 0> <Width = 64> <Depth = 0> <FIFO>
ST_1 : Operation 30 [1/1] (1.81ns)   --->   "br label %._crit_edge1.i" [/home/paulrr2/Projects/ece527/babelsoc/fpga-network-stack/hls/icmp_server/icmp_server.cpp:335]   --->   Operation 30 'br' <Predicate = (tmp & d_isFirstWord_load & tmp_18 & tmp_23)> <Delay = 1.81>
ST_1 : Operation 31 [1/1] (0.00ns) (grouped into LUT with out node or_ln347)   --->   "%d_isFirstWord_flag_0 = phi i1 [ false, %1 ], [ false, %5 ], [ false, %6 ], [ true, %2 ], [ true, %3 ]"   --->   Operation 31 'phi' 'd_isFirstWord_flag_0' <Predicate = (tmp)> <Delay = 0.00>
ST_1 : Operation 32 [1/1] (0.00ns) (grouped into LUT with out node or_ln347_1)   --->   "%d_drop_flag_1_i = phi i1 [ false, %1 ], [ false, %5 ], [ false, %6 ], [ true, %2 ], [ false, %3 ]"   --->   Operation 32 'phi' 'd_drop_flag_1_i' <Predicate = (tmp)> <Delay = 0.00>
ST_1 : Operation 33 [1/1] (0.00ns)   --->   "%empty = phi i1 [ undef, %1 ], [ %tmp_21, %5 ], [ %tmp_last_V, %6 ], [ %tmp_last_V_15, %2 ], [ %tmp_last_V_15, %3 ]"   --->   Operation 33 'phi' 'empty' <Predicate = (tmp)> <Delay = 0.00>
ST_1 : Operation 34 [1/1] (0.97ns) (out node of the LUT)   --->   "%or_ln347 = or i1 %empty, %d_isFirstWord_flag_0" [/home/paulrr2/Projects/ece527/babelsoc/fpga-network-stack/hls/icmp_server/icmp_server.cpp:347]   --->   Operation 34 'or' 'or_ln347' <Predicate = (tmp)> <Delay = 0.97> <Core = "LogicGate">   --->   Core 27 'LogicGate' <Latency = 0> <II = 1> <Delay = 0.97> <FuncUnit> <Opcode : 'and' 'or' 'xor'> <InPorts = 2> <OutPorts = 1>
ST_1 : Operation 35 [1/1] (0.97ns) (out node of the LUT)   --->   "%or_ln347_1 = or i1 %empty, %d_drop_flag_1_i" [/home/paulrr2/Projects/ece527/babelsoc/fpga-network-stack/hls/icmp_server/icmp_server.cpp:347]   --->   Operation 35 'or' 'or_ln347_1' <Predicate = (tmp)> <Delay = 0.97> <Core = "LogicGate">   --->   Core 27 'LogicGate' <Latency = 0> <II = 1> <Delay = 0.97> <FuncUnit> <Opcode : 'and' 'or' 'xor'> <InPorts = 2> <OutPorts = 1>
ST_1 : Operation 36 [1/1] (0.97ns)   --->   "%xor_ln347 = xor i1 %empty, true" [/home/paulrr2/Projects/ece527/babelsoc/fpga-network-stack/hls/icmp_server/icmp_server.cpp:347]   --->   Operation 36 'xor' 'xor_ln347' <Predicate = (tmp)> <Delay = 0.97> <Core = "LogicGate">   --->   Core 27 'LogicGate' <Latency = 0> <II = 1> <Delay = 0.97> <FuncUnit> <Opcode : 'and' 'or' 'xor'> <InPorts = 2> <OutPorts = 1>
ST_1 : Operation 37 [1/1] (0.00ns)   --->   "br i1 %or_ln347_1, label %mergeST1.i, label %._crit_edge2.new2.i" [/home/paulrr2/Projects/ece527/babelsoc/fpga-network-stack/hls/icmp_server/icmp_server.cpp:347]   --->   Operation 37 'br' <Predicate = (tmp)> <Delay = 0.00>
ST_1 : Operation 38 [1/1] (0.00ns)   --->   "store i1 %xor_ln347, i1* @d_drop, align 1" [/home/paulrr2/Projects/ece527/babelsoc/fpga-network-stack/hls/icmp_server/icmp_server.cpp:337]   --->   Operation 38 'store' <Predicate = (tmp & or_ln347_1)> <Delay = 0.00>
ST_1 : Operation 39 [1/1] (0.00ns)   --->   "br label %._crit_edge2.new2.i"   --->   Operation 39 'br' <Predicate = (tmp & or_ln347_1)> <Delay = 0.00>
ST_1 : Operation 40 [1/1] (0.00ns)   --->   "br i1 %or_ln347, label %mergeST.i, label %._crit_edge2.new.i" [/home/paulrr2/Projects/ece527/babelsoc/fpga-network-stack/hls/icmp_server/icmp_server.cpp:347]   --->   Operation 40 'br' <Predicate = (tmp)> <Delay = 0.00>
ST_1 : Operation 41 [1/1] (0.00ns)   --->   "store i1 %empty, i1* @d_isFirstWord, align 1" [/home/paulrr2/Projects/ece527/babelsoc/fpga-network-stack/hls/icmp_server/icmp_server.cpp:338]   --->   Operation 41 'store' <Predicate = (tmp & or_ln347)> <Delay = 0.00>
ST_1 : Operation 42 [1/1] (0.00ns)   --->   "br label %._crit_edge2.new.i"   --->   Operation 42 'br' <Predicate = (tmp & or_ln347)> <Delay = 0.00>
ST_1 : Operation 43 [1/1] (0.00ns)   --->   "br label %dropper.exit" [/home/paulrr2/Projects/ece527/babelsoc/fpga-network-stack/hls/icmp_server/icmp_server.cpp:351]   --->   Operation 43 'br' <Predicate = (tmp)> <Delay = 0.00>
ST_1 : Operation 44 [1/1] (0.00ns)   --->   "ret void"   --->   Operation 44 'ret' <Predicate = true> <Delay = 0.00>


============================================================
+ Verbose Summary: Binding
============================================================
STG Binding: 
---------------- STG Properties BEGIN ----------------
- Is combinational: 0
- Is one-state seq: 1
- Is datapath-only: 0
- Is pipelined: 0
- Is top level: 0
Port [ Return ] is wired: 1; IO mode=ap_ctrl_hs:ce=0
Port [ packageBuffer1_V]:  wired=1; compound=1; hidden=0; nouse=0; global=1; static=1; extern=0; dir=0; type=3; pingpong=0; private_global=0; linkage=7; visibility=0; IO mode=ap_fifo:ce=0
Port [ d_isFirstWord]:  wired=0; compound=0; hidden=1; nouse=0; global=1; static=1; extern=0; dir=2; type=0; pingpong=0; private_global=1; linkage=7; visibility=0; IO mode=ap_ovld:ce=0
Port [ d_drop]:  wired=0; compound=0; hidden=1; nouse=0; global=1; static=1; extern=0; dir=2; type=0; pingpong=0; private_global=1; linkage=7; visibility=0; IO mode=ap_ovld:ce=0
Port [ validFifo_V]:  wired=1; compound=1; hidden=0; nouse=0; global=1; static=1; extern=0; dir=0; type=3; pingpong=0; private_global=0; linkage=7; visibility=0; IO mode=ap_fifo:ce=0
Port [ dataStreams_V_data_V]:  wired=1; compound=1; hidden=0; nouse=0; global=1; static=1; extern=0; dir=1; type=3; pingpong=0; private_global=0; linkage=7; visibility=0; IO mode=ap_fifo:ce=0
Port [ dataStreams_V_keep_V]:  wired=1; compound=1; hidden=0; nouse=0; global=1; static=1; extern=0; dir=1; type=3; pingpong=0; private_global=0; linkage=7; visibility=0; IO mode=ap_fifo:ce=0
Port [ dataStreams_V_last_V]:  wired=1; compound=1; hidden=0; nouse=0; global=1; static=1; extern=0; dir=1; type=3; pingpong=0; private_global=0; linkage=7; visibility=0; IO mode=ap_fifo:ce=0
---------------- STG Properties END ------------------

---------------- Datapath Model BEGIN ----------------

<LifeTime>
<method=bitvector/>
specinterface_ln0    (specinterface) [ 00]
specinterface_ln0    (specinterface) [ 00]
specinterface_ln0    (specinterface) [ 00]
specinterface_ln0    (specinterface) [ 00]
specinterface_ln0    (specinterface) [ 00]
tmp                  (nbreadreq    ) [ 01]
br_ln329             (br           ) [ 00]
d_isFirstWord_load   (load         ) [ 01]
d_drop_load          (load         ) [ 01]
br_ln330             (br           ) [ 00]
tmp_1                (read         ) [ 00]
br_ln341             (br           ) [ 00]
tmp_data_V           (trunc        ) [ 00]
tmp_keep_V           (partselect   ) [ 00]
tmp_last_V           (bitselect    ) [ 00]
write_ln345          (write        ) [ 00]
br_ln0               (br           ) [ 00]
tmp_21               (bitselect    ) [ 00]
br_ln342             (br           ) [ 00]
tmp_18               (nbreadreq    ) [ 01]
br_ln331             (br           ) [ 00]
tmp32                (read         ) [ 00]
tmp_data_V_24        (trunc        ) [ 00]
tmp_keep_V_18        (partselect   ) [ 00]
tmp_last_V_15        (bitselect    ) [ 00]
tmp_23               (read         ) [ 01]
br_ln334             (br           ) [ 00]
write_ln335          (write        ) [ 00]
br_ln335             (br           ) [ 00]
d_isFirstWord_flag_0 (phi          ) [ 00]
d_drop_flag_1_i      (phi          ) [ 00]
empty                (phi          ) [ 00]
or_ln347             (or           ) [ 01]
or_ln347_1           (or           ) [ 01]
xor_ln347            (xor          ) [ 00]
br_ln347             (br           ) [ 00]
store_ln337          (store        ) [ 00]
br_ln0               (br           ) [ 00]
br_ln347             (br           ) [ 00]
store_ln338          (store        ) [ 00]
br_ln0               (br           ) [ 00]
br_ln351             (br           ) [ 00]
ret_ln0              (ret          ) [ 00]
</LifeTime>

<model>

<comp_list>
<comp id="0" class="1000" name="packageBuffer1_V">
<pin_list>
<pin id="1" dir="1" index="0" bw="1" slack="0"/>
</pin_list>
<bind>
<StgValue><ssdm name="packageBuffer1_V"/></StgValue>
</bind>
</comp>

<comp id="2" class="1000" name="d_isFirstWord">
<pin_list>
<pin id="3" dir="1" index="0" bw="1" slack="0"/>
</pin_list>
<bind>
<StgValue><ssdm name="d_isFirstWord"/></StgValue>
</bind>
</comp>

<comp id="4" class="1000" name="d_drop">
<pin_list>
<pin id="5" dir="1" index="0" bw="1" slack="0"/>
</pin_list>
<bind>
<StgValue><ssdm name="d_drop"/></StgValue>
</bind>
</comp>

<comp id="6" class="1000" name="validFifo_V">
<pin_list>
<pin id="7" dir="1" index="0" bw="1" slack="0"/>
</pin_list>
<bind>
<StgValue><ssdm name="validFifo_V"/></StgValue>
</bind>
</comp>

<comp id="8" class="1000" name="dataStreams_V_data_V">
<pin_list>
<pin id="9" dir="1" index="0" bw="1" slack="0"/>
</pin_list>
<bind>
<StgValue><ssdm name="dataStreams_V_data_V"/></StgValue>
</bind>
</comp>

<comp id="10" class="1000" name="dataStreams_V_keep_V">
<pin_list>
<pin id="11" dir="1" index="0" bw="1" slack="0"/>
</pin_list>
<bind>
<StgValue><ssdm name="dataStreams_V_keep_V"/></StgValue>
</bind>
</comp>

<comp id="12" class="1000" name="dataStreams_V_last_V">
<pin_list>
<pin id="13" dir="1" index="0" bw="1" slack="0"/>
</pin_list>
<bind>
<StgValue><ssdm name="dataStreams_V_last_V"/></StgValue>
</bind>
</comp>

<comp id="14" class="1001" name="const_14">
<pin_list>
<pin id="15" dir="1" index="0" bw="1" slack="2147483647"/>
</pin_list>
<bind>
<StgValue><ssdm name="_ssdm_op_SpecInterface"/></StgValue>
</bind>
</comp>

<comp id="16" class="1001" name="const_16">
<pin_list>
<pin id="17" dir="1" index="0" bw="1" slack="2147483647"/>
</pin_list>
<bind>
<StgValue><ssdm name="ap_fifo_str"/></StgValue>
</bind>
</comp>

<comp id="18" class="1001" name="const_18">
<pin_list>
<pin id="19" dir="1" index="0" bw="1" slack="2147483647"/>
</pin_list>
<bind>
<StgValue><ssdm name=""/></StgValue>
</bind>
</comp>

<comp id="20" class="1001" name="const_20">
<pin_list>
<pin id="21" dir="1" index="0" bw="1" slack="2147483647"/>
</pin_list>
<bind>
<StgValue><ssdm name="p_str"/></StgValue>
</bind>
</comp>

<comp id="22" class="1001" name="const_22">
<pin_list>
<pin id="23" dir="1" index="0" bw="1" slack="2147483647"/>
</pin_list>
<bind>
<StgValue><ssdm name=""/></StgValue>
</bind>
</comp>

<comp id="24" class="1001" name="const_24">
<pin_list>
<pin id="25" dir="1" index="0" bw="1" slack="2147483647"/>
</pin_list>
<bind>
<StgValue><ssdm name=""/></StgValue>
</bind>
</comp>

<comp id="26" class="1001" name="const_26">
<pin_list>
<pin id="27" dir="1" index="0" bw="1" slack="0"/>
</pin_list>
<bind>
<StgValue><ssdm name="_ssdm_op_NbReadReq.ap_fifo.i73P"/></StgValue>
</bind>
</comp>

<comp id="28" class="1001" name="const_28">
<pin_list>
<pin id="29" dir="1" index="0" bw="1" slack="0"/>
</pin_list>
<bind>
<StgValue><ssdm name=""/></StgValue>
</bind>
</comp>

<comp id="30" class="1001" name="const_30">
<pin_list>
<pin id="31" dir="1" index="0" bw="1" slack="0"/>
</pin_list>
<bind>
<StgValue><ssdm name="_ssdm_op_Read.ap_fifo.volatile.i73P"/></StgValue>
</bind>
</comp>

<comp id="32" class="1001" name="const_32">
<pin_list>
<pin id="33" dir="1" index="0" bw="1" slack="0"/>
</pin_list>
<bind>
<StgValue><ssdm name="_ssdm_op_PartSelect.i8.i73.i32.i32"/></StgValue>
</bind>
</comp>

<comp id="34" class="1001" name="const_34">
<pin_list>
<pin id="35" dir="1" index="0" bw="1" slack="0"/>
</pin_list>
<bind>
<StgValue><ssdm name=""/></StgValue>
</bind>
</comp>

<comp id="36" class="1001" name="const_36">
<pin_list>
<pin id="37" dir="1" index="0" bw="1" slack="0"/>
</pin_list>
<bind>
<StgValue><ssdm name=""/></StgValue>
</bind>
</comp>

<comp id="38" class="1001" name="const_38">
<pin_list>
<pin id="39" dir="1" index="0" bw="1" slack="0"/>
</pin_list>
<bind>
<StgValue><ssdm name="_ssdm_op_BitSelect.i1.i73.i32"/></StgValue>
</bind>
</comp>

<comp id="40" class="1001" name="const_40">
<pin_list>
<pin id="41" dir="1" index="0" bw="1" slack="0"/>
</pin_list>
<bind>
<StgValue><ssdm name=""/></StgValue>
</bind>
</comp>

<comp id="42" class="1001" name="const_42">
<pin_list>
<pin id="43" dir="1" index="0" bw="1" slack="0"/>
</pin_list>
<bind>
<StgValue><ssdm name="_ssdm_op_Write.ap_fifo.volatile.i64P.i8P.i1P"/></StgValue>
</bind>
</comp>

<comp id="44" class="1001" name="const_44">
<pin_list>
<pin id="45" dir="1" index="0" bw="1" slack="0"/>
</pin_list>
<bind>
<StgValue><ssdm name="_ssdm_op_NbReadReq.ap_fifo.i1P"/></StgValue>
</bind>
</comp>

<comp id="46" class="1001" name="const_46">
<pin_list>
<pin id="47" dir="1" index="0" bw="1" slack="0"/>
</pin_list>
<bind>
<StgValue><ssdm name="_ssdm_op_Read.ap_fifo.volatile.i1P"/></StgValue>
</bind>
</comp>

<comp id="48" class="1001" name="const_48">
<pin_list>
<pin id="49" dir="1" index="0" bw="1" slack="0"/>
</pin_list>
<bind>
<StgValue><ssdm name=""/></StgValue>
</bind>
</comp>

<comp id="50" class="1001" name="const_50">
<pin_list>
<pin id="51" dir="1" index="0" bw="1" slack="0"/>
</pin_list>
<bind>
<StgValue><ssdm name=""/></StgValue>
</bind>
</comp>

<comp id="52" class="1001" name="const_52">
<pin_list>
<pin id="53" dir="1" index="0" bw="1" slack="0"/>
</pin_list>
<bind>
<StgValue><ssdm name=""/></StgValue>
</bind>
</comp>

<comp id="54" class="1004" name="tmp_nbreadreq_fu_54">
<pin_list>
<pin id="55" dir="0" index="0" bw="1" slack="0"/>
<pin id="56" dir="0" index="1" bw="73" slack="0"/>
<pin id="57" dir="0" index="2" bw="1" slack="0"/>
<pin id="58" dir="1" index="3" bw="1" slack="2147483647"/>
</pin_list>
<bind>
<opcode="nbreadreq(1156) " fcode="nbreadreq"/>
<opset="tmp/1 "/>
</bind>
</comp>

<comp id="62" class="1004" name="grp_read_fu_62">
<pin_list>
<pin id="63" dir="0" index="0" bw="73" slack="0"/>
<pin id="64" dir="0" index="1" bw="73" slack="0"/>
<pin id="65" dir="1" index="2" bw="73" slack="0"/>
</pin_list>
<bind>
<opcode="read(1150) " fcode="read"/>
<opset="tmp_1/1 tmp32/1 "/>
</bind>
</comp>

<comp id="68" class="1004" name="grp_write_fu_68">
<pin_list>
<pin id="69" dir="0" index="0" bw="0" slack="0"/>
<pin id="70" dir="0" index="1" bw="64" slack="0"/>
<pin id="71" dir="0" index="2" bw="8" slack="0"/>
<pin id="72" dir="0" index="3" bw="1" slack="0"/>
<pin id="73" dir="0" index="4" bw="64" slack="0"/>
<pin id="74" dir="0" index="5" bw="8" slack="0"/>
<pin id="75" dir="0" index="6" bw="1" slack="0"/>
<pin id="76" dir="1" index="7" bw="0" slack="2147483647"/>
</pin_list>
<bind>
<opcode="write(1151) " fcode="write"/>
<opset="write_ln345/1 write_ln335/1 "/>
</bind>
</comp>

<comp id="81" class="1004" name="tmp_18_nbreadreq_fu_81">
<pin_list>
<pin id="82" dir="0" index="0" bw="1" slack="0"/>
<pin id="83" dir="0" index="1" bw="1" slack="0"/>
<pin id="84" dir="0" index="2" bw="1" slack="0"/>
<pin id="85" dir="1" index="3" bw="1" slack="2147483647"/>
</pin_list>
<bind>
<opcode="nbreadreq(1156) " fcode="nbreadreq"/>
<opset="tmp_18/1 "/>
</bind>
</comp>

<comp id="89" class="1004" name="tmp_23_read_fu_89">
<pin_list>
<pin id="90" dir="0" index="0" bw="1" slack="0"/>
<pin id="91" dir="0" index="1" bw="1" slack="0"/>
<pin id="92" dir="1" index="2" bw="1" slack="2147483647"/>
</pin_list>
<bind>
<opcode="read(1150) " fcode="read"/>
<opset="tmp_23/1 "/>
</bind>
</comp>

<comp id="95" class="1005" name="d_isFirstWord_flag_0_reg_95">
<pin_list>
<pin id="96" dir="0" index="0" bw="1" slack="2147483647"/>
<pin id="97" dir="1" index="1" bw="1" slack="2147483647"/>
</pin_list>
<bind>
<opset="d_isFirstWord_flag_0 (phireg) "/>
</bind>
</comp>

<comp id="98" class="1004" name="d_isFirstWord_flag_0_phi_fu_98">
<pin_list>
<pin id="99" dir="0" index="0" bw="1" slack="0"/>
<pin id="100" dir="0" index="1" bw="0" slack="2147483647"/>
<pin id="101" dir="0" index="2" bw="1" slack="0"/>
<pin id="102" dir="0" index="3" bw="0" slack="2147483647"/>
<pin id="103" dir="0" index="4" bw="1" slack="0"/>
<pin id="104" dir="0" index="5" bw="0" slack="2147483647"/>
<pin id="105" dir="0" index="6" bw="1" slack="0"/>
<pin id="106" dir="0" index="7" bw="0" slack="2147483647"/>
<pin id="107" dir="0" index="8" bw="1" slack="0"/>
<pin id="108" dir="0" index="9" bw="0" slack="2147483647"/>
<pin id="109" dir="1" index="10" bw="1" slack="0"/>
</pin_list>
<bind>
<opcode="phi(47) " fcode="phi"/>
<opset="d_isFirstWord_flag_0/1 "/>
</bind>
</comp>

<comp id="115" class="1005" name="d_drop_flag_1_i_reg_115">
<pin_list>
<pin id="116" dir="0" index="0" bw="1" slack="2147483647"/>
<pin id="117" dir="1" index="1" bw="1" slack="2147483647"/>
</pin_list>
<bind>
<opset="d_drop_flag_1_i (phireg) "/>
</bind>
</comp>

<comp id="118" class="1004" name="d_drop_flag_1_i_phi_fu_118">
<pin_list>
<pin id="119" dir="0" index="0" bw="1" slack="0"/>
<pin id="120" dir="0" index="1" bw="0" slack="2147483647"/>
<pin id="121" dir="0" index="2" bw="1" slack="0"/>
<pin id="122" dir="0" index="3" bw="0" slack="2147483647"/>
<pin id="123" dir="0" index="4" bw="1" slack="0"/>
<pin id="124" dir="0" index="5" bw="0" slack="2147483647"/>
<pin id="125" dir="0" index="6" bw="1" slack="0"/>
<pin id="126" dir="0" index="7" bw="0" slack="2147483647"/>
<pin id="127" dir="0" index="8" bw="1" slack="0"/>
<pin id="128" dir="0" index="9" bw="0" slack="2147483647"/>
<pin id="129" dir="1" index="10" bw="1" slack="0"/>
</pin_list>
<bind>
<opcode="phi(47) " fcode="phi"/>
<opset="d_drop_flag_1_i/1 "/>
</bind>
</comp>

<comp id="135" class="1005" name="empty_reg_135">
<pin_list>
<pin id="136" dir="0" index="0" bw="1" slack="2147483647"/>
<pin id="137" dir="1" index="1" bw="1" slack="2147483647"/>
</pin_list>
<bind>
<opset="empty (phireg) "/>
</bind>
</comp>

<comp id="138" class="1004" name="empty_phi_fu_138">
<pin_list>
<pin id="139" dir="0" index="0" bw="1" slack="0"/>
<pin id="140" dir="0" index="1" bw="0" slack="2147483647"/>
<pin id="141" dir="0" index="2" bw="1" slack="0"/>
<pin id="142" dir="0" index="3" bw="0" slack="2147483647"/>
<pin id="143" dir="0" index="4" bw="1" slack="0"/>
<pin id="144" dir="0" index="5" bw="0" slack="2147483647"/>
<pin id="145" dir="0" index="6" bw="1" slack="0"/>
<pin id="146" dir="0" index="7" bw="0" slack="2147483647"/>
<pin id="147" dir="0" index="8" bw="1" slack="0"/>
<pin id="148" dir="0" index="9" bw="0" slack="2147483647"/>
<pin id="149" dir="1" index="10" bw="1" slack="0"/>
</pin_list>
<bind>
<opcode="phi(47) " fcode="phi"/>
<opset="empty/1 "/>
</bind>
</comp>

<comp id="151" class="1004" name="grp_fu_151">
<pin_list>
<pin id="152" dir="0" index="0" bw="8" slack="0"/>
<pin id="153" dir="0" index="1" bw="73" slack="0"/>
<pin id="154" dir="0" index="2" bw="8" slack="0"/>
<pin id="155" dir="0" index="3" bw="8" slack="0"/>
<pin id="156" dir="1" index="4" bw="8" slack="0"/>
</pin_list>
<bind>
<opcode="partselect(1002) " fcode="partselect"/>
<opset="tmp_keep_V/1 tmp_keep_V_18/1 "/>
</bind>
</comp>

<comp id="162" class="1004" name="grp_fu_162">
<pin_list>
<pin id="163" dir="0" index="0" bw="1" slack="0"/>
<pin id="164" dir="0" index="1" bw="73" slack="0"/>
<pin id="165" dir="0" index="2" bw="8" slack="0"/>
<pin id="166" dir="1" index="3" bw="1" slack="0"/>
</pin_list>
<bind>
<opcode="bitselect(1000) " fcode="bitselect"/>
<opset="tmp_last_V/1 tmp_21/1 tmp_last_V_15/1 "/>
</bind>
</comp>

<comp id="175" class="1004" name="d_isFirstWord_load_load_fu_175">
<pin_list>
<pin id="176" dir="0" index="0" bw="1" slack="0"/>
<pin id="177" dir="1" index="1" bw="1" slack="2147483647"/>
</pin_list>
<bind>
<opcode="load(27) " fcode="load"/>
<opset="d_isFirstWord_load/1 "/>
</bind>
</comp>

<comp id="179" class="1004" name="d_drop_load_load_fu_179">
<pin_list>
<pin id="180" dir="0" index="0" bw="1" slack="0"/>
<pin id="181" dir="1" index="1" bw="1" slack="2147483647"/>
</pin_list>
<bind>
<opcode="load(27) " fcode="load"/>
<opset="d_drop_load/1 "/>
</bind>
</comp>

<comp id="183" class="1004" name="tmp_data_V_fu_183">
<pin_list>
<pin id="184" dir="0" index="0" bw="73" slack="0"/>
<pin id="185" dir="1" index="1" bw="64" slack="0"/>
</pin_list>
<bind>
<opcode="trunc(33) " fcode="trunc"/>
<opset="tmp_data_V/1 "/>
</bind>
</comp>

<comp id="188" class="1004" name="tmp_data_V_24_fu_188">
<pin_list>
<pin id="189" dir="0" index="0" bw="73" slack="0"/>
<pin id="190" dir="1" index="1" bw="64" slack="0"/>
</pin_list>
<bind>
<opcode="trunc(33) " fcode="trunc"/>
<opset="tmp_data_V_24/1 "/>
</bind>
</comp>

<comp id="193" class="1004" name="or_ln347_fu_193">
<pin_list>
<pin id="194" dir="0" index="0" bw="1" slack="0"/>
<pin id="195" dir="0" index="1" bw="1" slack="0"/>
<pin id="196" dir="1" index="2" bw="1" slack="2147483647"/>
</pin_list>
<bind>
<opcode="or(24) " fcode="or"/>
<opset="or_ln347/1 "/>
</bind>
</comp>

<comp id="199" class="1004" name="or_ln347_1_fu_199">
<pin_list>
<pin id="200" dir="0" index="0" bw="1" slack="0"/>
<pin id="201" dir="0" index="1" bw="1" slack="0"/>
<pin id="202" dir="1" index="2" bw="1" slack="2147483647"/>
</pin_list>
<bind>
<opcode="or(24) " fcode="or"/>
<opset="or_ln347_1/1 "/>
</bind>
</comp>

<comp id="205" class="1004" name="xor_ln347_fu_205">
<pin_list>
<pin id="206" dir="0" index="0" bw="1" slack="0"/>
<pin id="207" dir="0" index="1" bw="1" slack="0"/>
<pin id="208" dir="1" index="2" bw="1" slack="0"/>
</pin_list>
<bind>
<opcode="xor(25) " fcode="xor"/>
<opset="xor_ln347/1 "/>
</bind>
</comp>

<comp id="211" class="1004" name="store_ln337_store_fu_211">
<pin_list>
<pin id="212" dir="0" index="0" bw="1" slack="0"/>
<pin id="213" dir="0" index="1" bw="1" slack="0"/>
<pin id="214" dir="1" index="2" bw="0" slack="2147483647"/>
</pin_list>
<bind>
<opcode="store(28) " fcode="store"/>
<opset="store_ln337/1 "/>
</bind>
</comp>

<comp id="217" class="1004" name="store_ln338_store_fu_217">
<pin_list>
<pin id="218" dir="0" index="0" bw="1" slack="0"/>
<pin id="219" dir="0" index="1" bw="1" slack="0"/>
<pin id="220" dir="1" index="2" bw="0" slack="2147483647"/>
</pin_list>
<bind>
<opcode="store(28) " fcode="store"/>
<opset="store_ln338/1 "/>
</bind>
</comp>

</comp_list>

<net_list>
<net id="59"><net_src comp="26" pin="0"/><net_sink comp="54" pin=0"/></net>

<net id="60"><net_src comp="0" pin="0"/><net_sink comp="54" pin=1"/></net>

<net id="61"><net_src comp="28" pin="0"/><net_sink comp="54" pin=2"/></net>

<net id="66"><net_src comp="30" pin="0"/><net_sink comp="62" pin=0"/></net>

<net id="67"><net_src comp="0" pin="0"/><net_sink comp="62" pin=1"/></net>

<net id="77"><net_src comp="42" pin="0"/><net_sink comp="68" pin=0"/></net>

<net id="78"><net_src comp="8" pin="0"/><net_sink comp="68" pin=1"/></net>

<net id="79"><net_src comp="10" pin="0"/><net_sink comp="68" pin=2"/></net>

<net id="80"><net_src comp="12" pin="0"/><net_sink comp="68" pin=3"/></net>

<net id="86"><net_src comp="44" pin="0"/><net_sink comp="81" pin=0"/></net>

<net id="87"><net_src comp="6" pin="0"/><net_sink comp="81" pin=1"/></net>

<net id="88"><net_src comp="28" pin="0"/><net_sink comp="81" pin=2"/></net>

<net id="93"><net_src comp="46" pin="0"/><net_sink comp="89" pin=0"/></net>

<net id="94"><net_src comp="6" pin="0"/><net_sink comp="89" pin=1"/></net>

<net id="110"><net_src comp="48" pin="0"/><net_sink comp="98" pin=0"/></net>

<net id="111"><net_src comp="48" pin="0"/><net_sink comp="98" pin=2"/></net>

<net id="112"><net_src comp="48" pin="0"/><net_sink comp="98" pin=4"/></net>

<net id="113"><net_src comp="50" pin="0"/><net_sink comp="98" pin=6"/></net>

<net id="114"><net_src comp="50" pin="0"/><net_sink comp="98" pin=8"/></net>

<net id="130"><net_src comp="48" pin="0"/><net_sink comp="118" pin=0"/></net>

<net id="131"><net_src comp="48" pin="0"/><net_sink comp="118" pin=2"/></net>

<net id="132"><net_src comp="48" pin="0"/><net_sink comp="118" pin=4"/></net>

<net id="133"><net_src comp="50" pin="0"/><net_sink comp="118" pin=6"/></net>

<net id="134"><net_src comp="48" pin="0"/><net_sink comp="118" pin=8"/></net>

<net id="150"><net_src comp="52" pin="0"/><net_sink comp="138" pin=0"/></net>

<net id="157"><net_src comp="32" pin="0"/><net_sink comp="151" pin=0"/></net>

<net id="158"><net_src comp="62" pin="2"/><net_sink comp="151" pin=1"/></net>

<net id="159"><net_src comp="34" pin="0"/><net_sink comp="151" pin=2"/></net>

<net id="160"><net_src comp="36" pin="0"/><net_sink comp="151" pin=3"/></net>

<net id="161"><net_src comp="151" pin="4"/><net_sink comp="68" pin=5"/></net>

<net id="167"><net_src comp="38" pin="0"/><net_sink comp="162" pin=0"/></net>

<net id="168"><net_src comp="62" pin="2"/><net_sink comp="162" pin=1"/></net>

<net id="169"><net_src comp="40" pin="0"/><net_sink comp="162" pin=2"/></net>

<net id="170"><net_src comp="162" pin="3"/><net_sink comp="68" pin=6"/></net>

<net id="171"><net_src comp="162" pin="3"/><net_sink comp="138" pin=4"/></net>

<net id="172"><net_src comp="162" pin="3"/><net_sink comp="138" pin=2"/></net>

<net id="173"><net_src comp="162" pin="3"/><net_sink comp="138" pin=6"/></net>

<net id="174"><net_src comp="162" pin="3"/><net_sink comp="138" pin=8"/></net>

<net id="178"><net_src comp="2" pin="0"/><net_sink comp="175" pin=0"/></net>

<net id="182"><net_src comp="4" pin="0"/><net_sink comp="179" pin=0"/></net>

<net id="186"><net_src comp="62" pin="2"/><net_sink comp="183" pin=0"/></net>

<net id="187"><net_src comp="183" pin="1"/><net_sink comp="68" pin=4"/></net>

<net id="191"><net_src comp="62" pin="2"/><net_sink comp="188" pin=0"/></net>

<net id="192"><net_src comp="188" pin="1"/><net_sink comp="68" pin=4"/></net>

<net id="197"><net_src comp="138" pin="10"/><net_sink comp="193" pin=0"/></net>

<net id="198"><net_src comp="98" pin="10"/><net_sink comp="193" pin=1"/></net>

<net id="203"><net_src comp="138" pin="10"/><net_sink comp="199" pin=0"/></net>

<net id="204"><net_src comp="118" pin="10"/><net_sink comp="199" pin=1"/></net>

<net id="209"><net_src comp="138" pin="10"/><net_sink comp="205" pin=0"/></net>

<net id="210"><net_src comp="50" pin="0"/><net_sink comp="205" pin=1"/></net>

<net id="215"><net_src comp="205" pin="2"/><net_sink comp="211" pin=0"/></net>

<net id="216"><net_src comp="4" pin="0"/><net_sink comp="211" pin=1"/></net>

<net id="221"><net_src comp="138" pin="10"/><net_sink comp="217" pin=0"/></net>

<net id="222"><net_src comp="2" pin="0"/><net_sink comp="217" pin=1"/></net>

</net_list>

</model> 
---------------- Datapath Model END ------------------

* FSMD analyzer results:
  - Output states:
	Port: d_isFirstWord | {1 }
	Port: d_drop | {1 }
	Port: dataStreams_V_data_V | {1 }
	Port: dataStreams_V_keep_V | {1 }
	Port: dataStreams_V_last_V | {1 }
 - Input state : 
	Port: dropper : packageBuffer1_V | {1 }
	Port: dropper : d_isFirstWord | {1 }
	Port: dropper : d_drop | {1 }
	Port: dropper : validFifo_V | {1 }
  - Chain level:
	State 1
		br_ln330 : 1
		br_ln341 : 1
		write_ln345 : 1
		write_ln335 : 1
		d_isFirstWord_flag_0 : 1
		d_drop_flag_1_i : 1
		empty : 1
		or_ln347 : 2
		or_ln347_1 : 2
		xor_ln347 : 2
		br_ln347 : 2
		store_ln337 : 2
		br_ln347 : 2
		store_ln338 : 2


============================================================
+ Verbose Summary: Datapath Resource usage 
============================================================

* Functional unit list:
|----------|------------------------|---------|---------|
| Operation|     Functional Unit    |    FF   |   LUT   |
|----------|------------------------|---------|---------|
|    or    |     or_ln347_fu_193    |    0    |    2    |
|          |    or_ln347_1_fu_199   |    0    |    2    |
|----------|------------------------|---------|---------|
|    xor   |    xor_ln347_fu_205    |    0    |    2    |
|----------|------------------------|---------|---------|
| nbreadreq|   tmp_nbreadreq_fu_54  |    0    |    0    |
|          | tmp_18_nbreadreq_fu_81 |    0    |    0    |
|----------|------------------------|---------|---------|
|   read   |     grp_read_fu_62     |    0    |    0    |
|          |    tmp_23_read_fu_89   |    0    |    0    |
|----------|------------------------|---------|---------|
|   write  |     grp_write_fu_68    |    0    |    0    |
|----------|------------------------|---------|---------|
|partselect|       grp_fu_151       |    0    |    0    |
|----------|------------------------|---------|---------|
| bitselect|       grp_fu_162       |    0    |    0    |
|----------|------------------------|---------|---------|
|   trunc  |    tmp_data_V_fu_183   |    0    |    0    |
|          |  tmp_data_V_24_fu_188  |    0    |    0    |
|----------|------------------------|---------|---------|
|   Total  |                        |    0    |    6    |
|----------|------------------------|---------|---------|

Memories:
N/A

* Register list:
+---------------------------+--------+
|                           |   FF   |
+---------------------------+--------+
|  d_drop_flag_1_i_reg_115  |    1   |
|d_isFirstWord_flag_0_reg_95|    1   |
|       empty_reg_135       |    1   |
+---------------------------+--------+
|           Total           |    3   |
+---------------------------+--------+

* Multiplexer (MUX) list: 
|-----------------|------|------|------|--------||---------||---------|
|       Comp      |  Pin | Size |  BW  | S x BW ||  Delay  ||   LUT   |
|-----------------|------|------|------|--------||---------||---------|
| grp_write_fu_68 |  p4  |   2  |  64  |   128  ||    9    |
|-----------------|------|------|------|--------||---------||---------|
|      Total      |      |      |      |   128  ||  1.769  ||    9    |
|-----------------|------|------|------|--------||---------||---------|



* Summary:
+-----------+--------+--------+--------+
|           |  Delay |   FF   |   LUT  |
+-----------+--------+--------+--------+
|  Function |    -   |    0   |    6   |
|   Memory  |    -   |    -   |    -   |
|Multiplexer|    1   |    -   |    9   |
|  Register |    -   |    3   |    -   |
+-----------+--------+--------+--------+
|   Total   |    1   |    3   |   15   |
+-----------+--------+--------+--------+
