

================================================================
== Vivado HLS Report for 'icmp_server'
================================================================
* Date:           Sat Dec 12 19:20:52 2020

* Version:        2019.2.1 (Build 2724168 on Thu Dec 05 05:19:09 MST 2019)
* Project:        icmp_server_prj
* Solution:       solution1
* Product family: zynq
* Target device:  xc7z020-clg400-1


================================================================
== Performance Estimates
================================================================
+ Timing: 
    * Summary: 
    +--------+---------+-----------+------------+
    |  Clock |  Target | Estimated | Uncertainty|
    +--------+---------+-----------+------------+
    |ap_clk  | 6.40 ns | 10.009 ns |   0.80 ns  |
    +--------+---------+-----------+------------+

+ Latency: 
    * Summary: 
    +---------+---------+-----------+-----------+-----+-----+----------+
    |  Latency (cycles) |   Latency (absolute)  |  Interval | Pipeline |
    |   min   |   max   |    min    |    max    | min | max |   Type   |
    +---------+---------+-----------+-----------+-----+-----+----------+
    |        5|        5| 50.045 ns | 50.045 ns |    1|    1| dataflow |
    +---------+---------+-----------+-----------+-----+-----+----------+

    + Detail: 
        * Instance: 
        +-------------------------+----------------------+---------+---------+-----------+-----------+-----+-----+----------+
        |                         |                      |  Latency (cycles) |   Latency (absolute)  |  Interval | Pipeline |
        |         Instance        |        Module        |   min   |   max   |    min    |    max    | min | max |   Type   |
        +-------------------------+----------------------+---------+---------+-----------+-----------+-----+-----+----------+
        |check_icmp_checksum_U0   |check_icmp_checksum   |        1|        1| 10.009 ns | 10.009 ns |    1|    1| function |
        |insertChecksum_U0        |insertChecksum        |        3|        3| 30.027 ns | 30.027 ns |    1|    1| function |
        |udpPortUnreachable18_U0  |udpPortUnreachable18  |        0|        0|    0 ns   |    0 ns   |    1|    1| function |
        |udpAddIpHeader186_U0     |udpAddIpHeader186     |        0|        0|    0 ns   |    0 ns   |    1|    1| function |
        |dropper_U0               |dropper               |        0|        0|    0 ns   |    0 ns   |    0|    0|   none   |
        +-------------------------+----------------------+---------+---------+-----------+-----------+-----+-----+----------+

        * Loop: 
        N/A



================================================================
== Utilization Estimates
================================================================
* Summary: 
+-----------------+---------+-------+--------+-------+-----+
|       Name      | BRAM_18K| DSP48E|   FF   |  LUT  | URAM|
+-----------------+---------+-------+--------+-------+-----+
|DSP              |        -|      -|       -|      -|    -|
|Expression       |        -|      -|       -|      -|    -|
|FIFO             |       22|      -|     523|    636|    -|
|Instance         |        -|      -|    1106|   2840|    -|
|Memory           |        -|      -|       -|      -|    -|
|Multiplexer      |        -|      -|       -|      -|    -|
|Register         |        -|      -|       -|      -|    -|
+-----------------+---------+-------+--------+-------+-----+
|Total            |       22|      0|    1629|   3476|    0|
+-----------------+---------+-------+--------+-------+-----+
|Available        |      280|    220|  106400|  53200|    0|
+-----------------+---------+-------+--------+-------+-----+
|Utilization (%)  |        7|      0|       1|      6|    0|
+-----------------+---------+-------+--------+-------+-----+

+ Detail: 
    * Instance: 
    +-------------------------+----------------------+---------+-------+-----+------+-----+
    |         Instance        |        Module        | BRAM_18K| DSP48E|  FF |  LUT | URAM|
    +-------------------------+----------------------+---------+-------+-----+------+-----+
    |check_icmp_checksum_U0   |check_icmp_checksum   |        0|      0|  433|  1213|    0|
    |dropper_U0               |dropper               |        0|      0|    4|   123|    0|
    |insertChecksum_U0        |insertChecksum        |        0|      0|  532|   535|    0|
    |udpAddIpHeader186_U0     |udpAddIpHeader186     |        0|      0|  109|   300|    0|
    |udpPortUnreachable18_U0  |udpPortUnreachable18  |        0|      0|   28|   669|    0|
    +-------------------------+----------------------+---------+-------+-----+------+-----+
    |Total                    |                      |        0|      0| 1106|  2840|    0|
    +-------------------------+----------------------+---------+-------+-----+------+-----+

    * DSP48E: 
    N/A

    * Memory: 
    N/A

    * FIFO: 
    +--------------------------+---------+----+----+-----+------+-----+---------+
    |           Name           | BRAM_18K| FF | LUT| URAM| Depth| Bits| Size:D*B|
    +--------------------------+---------+----+----+-----+------+-----+---------+
    |checksumStreams_V_V_1_U   |        0|   7|   0|    -|    16|   16|      256|
    |checksumStreams_V_V_s_U   |        0|   7|   0|    -|    16|   16|      256|
    |dataStreams_V_data_V_1_U  |        4|  80|   0|    -|    16|   64|     1024|
    |dataStreams_V_data_V_U    |        4|  80|   0|    -|    16|   64|     1024|
    |dataStreams_V_keep_V_1_U  |        0|   7|   0|    -|    16|    8|      128|
    |dataStreams_V_keep_V_U    |        0|   7|   0|    -|    16|    8|      128|
    |dataStreams_V_last_V_1_U  |        0|   7|   0|    -|    16|    1|       16|
    |dataStreams_V_last_V_U    |        0|   7|   0|    -|    16|    1|       16|
    |packageBuffer1_V_U        |        5|  95|   0|    -|    64|   73|     4672|
    |udpPort2addIpHeader_1_U   |        1|  34|   0|    -|   192|    8|     1536|
    |udpPort2addIpHeader_6_U   |        0|  10|   0|    -|   192|    1|      192|
    |udpPort2addIpHeader_7_U   |        4|  86|   0|    -|    64|   64|     4096|
    |udpPort2addIpHeader_8_U   |        4|  90|   0|    -|   192|   64|    12288|
    |validFifo_V_U             |        0|   6|   0|    -|     8|    1|        8|
    +--------------------------+---------+----+----+-----+------+-----+---------+
    |Total                     |       22| 523|   0|    0|   840|  389|    25640|
    +--------------------------+---------+----+----+-----+------+-----+---------+

    * Expression: 
    N/A

    * Multiplexer: 
    N/A

    * Register: 
    N/A



================================================================
== Interface
================================================================
* Summary: 
+---------------+-----+-----+--------------+-----------------+--------------+
|   RTL Ports   | Dir | Bits|   Protocol   |  Source Object  |    C Type    |
+---------------+-----+-----+--------------+-----------------+--------------+
|s_axis_TDATA   |  in |   64|     axis     | s_axis_V_data_V |    pointer   |
|s_axis_TKEEP   |  in |    8|     axis     | s_axis_V_keep_V |    pointer   |
|s_axis_TLAST   |  in |    1|     axis     | s_axis_V_last_V |    pointer   |
|s_axis_TVALID  |  in |    1|     axis     | s_axis_V_last_V |    pointer   |
|s_axis_TREADY  | out |    1|     axis     | s_axis_V_last_V |    pointer   |
|udpIn_TDATA    |  in |   64|     axis     |  udpIn_V_data_V |    pointer   |
|udpIn_TKEEP    |  in |    8|     axis     |  udpIn_V_keep_V |    pointer   |
|udpIn_TLAST    |  in |    1|     axis     |  udpIn_V_last_V |    pointer   |
|udpIn_TVALID   |  in |    1|     axis     |  udpIn_V_last_V |    pointer   |
|udpIn_TREADY   | out |    1|     axis     |  udpIn_V_last_V |    pointer   |
|ttlIn_TDATA    |  in |   64|     axis     |  ttlIn_V_data_V |    pointer   |
|ttlIn_TKEEP    |  in |    8|     axis     |  ttlIn_V_keep_V |    pointer   |
|ttlIn_TLAST    |  in |    1|     axis     |  ttlIn_V_last_V |    pointer   |
|ttlIn_TVALID   |  in |    1|     axis     |  ttlIn_V_last_V |    pointer   |
|ttlIn_TREADY   | out |    1|     axis     |  ttlIn_V_last_V |    pointer   |
|m_axis_TDATA   | out |   64|     axis     | m_axis_V_data_V |    pointer   |
|m_axis_TKEEP   | out |    8|     axis     | m_axis_V_keep_V |    pointer   |
|m_axis_TLAST   | out |    1|     axis     | m_axis_V_last_V |    pointer   |
|m_axis_TVALID  | out |    1|     axis     | m_axis_V_last_V |    pointer   |
|m_axis_TREADY  |  in |    1|     axis     | m_axis_V_last_V |    pointer   |
|ap_clk         |  in |    1| ap_ctrl_none |   icmp_server   | return value |
|ap_rst_n       |  in |    1| ap_ctrl_none |   icmp_server   | return value |
+---------------+-----+-----+--------------+-----------------+--------------+

============================================================
+ Verbose Summary: Synthesis Manager
============================================================
InlineROM: 1
ExposeGlobal: 0
============================================================
+ Verbose Summary: CDFG Model
============================================================
IsTopModel: 1
ResetActiveHigh: 1
IsCombinational: 2
IsDatapathOnly: 2
HasWiredReturn: 1
HasMFsm: 0
HasVarLatency: 1
IsPipeline: 0
IsRtlPipelined: 0
IsInstanceOverlapped: 0
IsDontTouch: 0
HasImplIP: 0
IsGatedGlobalClock: 0


============================================================
+ Verbose Summary: Schedule
============================================================
* Number of FSM states : 8
* Pipeline : 0
* Dataflow Pipeline: 1
  DF-Pipeline-0: Size = 8, States = { 1 2 3 4 5 6 7 8 }

* FSM state transitions: 
1 --> 2 
2 --> 3 
3 --> 4 
4 --> 5 
5 --> 6 
6 --> 7 
7 --> 8 
8 --> 

* FSM state operations: 

State 1 <SV = 0> <Delay = 5.60>
ST_1 : Operation 9 [2/2] (5.60ns)   --->   "call fastcc void @check_icmp_checksum(i64* %s_axis_V_data_V, i8* %s_axis_V_keep_V, i1* %s_axis_V_last_V) noinline" [/home/paulrr2/Projects/ece527/babelsoc/fpga-network-stack/hls/icmp_server/icmp_server.cpp:443]   --->   Operation 9 'call' <Predicate = true> <Delay = 5.60> <CoreType = "Generic">   --->   Core 0 '' <Latency = 0> <II = 1> <Delay = 1.00> <Generic> <Opcode : >

State 2 <SV = 1> <Delay = 5.60>
ST_2 : Operation 10 [1/2] (0.00ns)   --->   "call fastcc void @check_icmp_checksum(i64* %s_axis_V_data_V, i8* %s_axis_V_keep_V, i1* %s_axis_V_last_V) noinline" [/home/paulrr2/Projects/ece527/babelsoc/fpga-network-stack/hls/icmp_server/icmp_server.cpp:443]   --->   Operation 10 'call' <Predicate = true> <Delay = 0.00> <CoreType = "Generic">   --->   Core 0 '' <Latency = 0> <II = 1> <Delay = 1.00> <Generic> <Opcode : >
ST_2 : Operation 11 [1/1] (5.60ns)   --->   "call fastcc void @udpPortUnreachable18(i64* %udpIn_V_data_V, i8* %udpIn_V_keep_V, i1* %udpIn_V_last_V, i64* %ttlIn_V_data_V, i8* %ttlIn_V_keep_V, i1* %ttlIn_V_last_V) noinline" [/home/paulrr2/Projects/ece527/babelsoc/fpga-network-stack/hls/icmp_server/icmp_server.cpp:444]   --->   Operation 11 'call' <Predicate = true> <Delay = 5.60> <CoreType = "Generic">   --->   Core 0 '' <Latency = 0> <II = 1> <Delay = 1.00> <Generic> <Opcode : >

State 3 <SV = 2> <Delay = 0.00>
ST_3 : Operation 12 [1/1] (0.00ns)   --->   "call fastcc void @udpAddIpHeader186() noinline" [/home/paulrr2/Projects/ece527/babelsoc/fpga-network-stack/hls/icmp_server/icmp_server.cpp:445]   --->   Operation 12 'call' <Predicate = true> <Delay = 0.00> <CoreType = "Generic">   --->   Core 0 '' <Latency = 0> <II = 1> <Delay = 1.00> <Generic> <Opcode : >
ST_3 : Operation 13 [1/1] (0.00ns)   --->   "call fastcc void @dropper()" [/home/paulrr2/Projects/ece527/babelsoc/fpga-network-stack/hls/icmp_server/icmp_server.cpp:446]   --->   Operation 13 'call' <Predicate = true> <Delay = 0.00> <CoreType = "Generic">   --->   Core 0 '' <Latency = 0> <II = 1> <Delay = 1.00> <Generic> <Opcode : >

State 4 <SV = 3> <Delay = 0.00>
ST_4 : Operation 14 [4/4] (0.00ns)   --->   "call fastcc void @insertChecksum(i64* %m_axis_V_data_V, i8* %m_axis_V_keep_V, i1* %m_axis_V_last_V) noinline" [/home/paulrr2/Projects/ece527/babelsoc/fpga-network-stack/hls/icmp_server/icmp_server.cpp:447]   --->   Operation 14 'call' <Predicate = true> <Delay = 0.00> <CoreType = "Generic">   --->   Core 0 '' <Latency = 0> <II = 1> <Delay = 1.00> <Generic> <Opcode : >

State 5 <SV = 4> <Delay = 5.60>
ST_5 : Operation 15 [3/4] (5.60ns)   --->   "call fastcc void @insertChecksum(i64* %m_axis_V_data_V, i8* %m_axis_V_keep_V, i1* %m_axis_V_last_V) noinline" [/home/paulrr2/Projects/ece527/babelsoc/fpga-network-stack/hls/icmp_server/icmp_server.cpp:447]   --->   Operation 15 'call' <Predicate = true> <Delay = 5.60> <CoreType = "Generic">   --->   Core 0 '' <Latency = 0> <II = 1> <Delay = 1.00> <Generic> <Opcode : >

State 6 <SV = 5> <Delay = 5.60>
ST_6 : Operation 16 [2/4] (5.60ns)   --->   "call fastcc void @insertChecksum(i64* %m_axis_V_data_V, i8* %m_axis_V_keep_V, i1* %m_axis_V_last_V) noinline" [/home/paulrr2/Projects/ece527/babelsoc/fpga-network-stack/hls/icmp_server/icmp_server.cpp:447]   --->   Operation 16 'call' <Predicate = true> <Delay = 5.60> <CoreType = "Generic">   --->   Core 0 '' <Latency = 0> <II = 1> <Delay = 1.00> <Generic> <Opcode : >

State 7 <SV = 6> <Delay = 0.00>
ST_7 : Operation 17 [1/4] (0.00ns)   --->   "call fastcc void @insertChecksum(i64* %m_axis_V_data_V, i8* %m_axis_V_keep_V, i1* %m_axis_V_last_V) noinline" [/home/paulrr2/Projects/ece527/babelsoc/fpga-network-stack/hls/icmp_server/icmp_server.cpp:447]   --->   Operation 17 'call' <Predicate = true> <Delay = 0.00> <CoreType = "Generic">   --->   Core 0 '' <Latency = 0> <II = 1> <Delay = 1.00> <Generic> <Opcode : >

State 8 <SV = 7> <Delay = 0.00>
ST_8 : Operation 18 [1/1] (0.00ns)   --->   "call void (...)* @_ssdm_op_SpecDataflowPipeline(i32 -1, i32 1, [1 x i8]* @p_str) nounwind" [/home/paulrr2/Projects/ece527/babelsoc/fpga-network-stack/hls/icmp_server/icmp_server.cpp:416]   --->   Operation 18 'specdataflowpipeline' <Predicate = true> <Delay = 0.00>
ST_8 : Operation 19 [1/1] (0.00ns)   --->   "%empty = call i32 (...)* @_ssdm_op_SpecChannel([22 x i8]* @checksumStreams_OC_V_1, i32 1, [1 x i8]* @p_str, [1 x i8]* @p_str, i32 16, i32 16, i16* @checksumStreams_V_V_s, i16* @checksumStreams_V_V_s)"   --->   Operation 19 'specchannel' 'empty' <Predicate = true> <Delay = 0.00>
ST_8 : Operation 20 [1/1] (0.00ns)   --->   "call void (...)* @_ssdm_op_SpecInterface(i16* @checksumStreams_V_V_s, [8 x i8]* @ap_fifo_str, i32 0, i32 0, [1 x i8]* @p_str, i32 0, i32 0, [1 x i8]* @p_str, [1 x i8]* @p_str, [1 x i8]* @p_str, i32 2, i32 2, i32 16, i32 16, [1 x i8]* @p_str, [1 x i8]* @p_str)"   --->   Operation 20 'specinterface' <Predicate = true> <Delay = 0.00>
ST_8 : Operation 21 [1/1] (0.00ns)   --->   "%empty_39 = call i32 (...)* @_ssdm_op_SpecChannel([22 x i8]* @checksumStreams_OC_V, i32 1, [1 x i8]* @p_str, [1 x i8]* @p_str, i32 16, i32 16, i16* @checksumStreams_V_V_1, i16* @checksumStreams_V_V_1)"   --->   Operation 21 'specchannel' 'empty_39' <Predicate = true> <Delay = 0.00>
ST_8 : Operation 22 [1/1] (0.00ns)   --->   "call void (...)* @_ssdm_op_SpecInterface(i16* @checksumStreams_V_V_1, [8 x i8]* @ap_fifo_str, i32 0, i32 0, [1 x i8]* @p_str, i32 0, i32 0, [1 x i8]* @p_str, [1 x i8]* @p_str, [1 x i8]* @p_str, i32 2, i32 2, i32 16, i32 16, [1 x i8]* @p_str, [1 x i8]* @p_str)"   --->   Operation 22 'specinterface' <Predicate = true> <Delay = 0.00>
ST_8 : Operation 23 [1/1] (0.00ns)   --->   "%empty_40 = call i32 (...)* @_ssdm_op_SpecChannel([23 x i8]* @dataStreams_OC_V_OC_5, i32 1, [1 x i8]* @p_str, [1 x i8]* @p_str, i32 16, i32 16, i64* @dataStreams_V_data_V, i64* @dataStreams_V_data_V)"   --->   Operation 23 'specchannel' 'empty_40' <Predicate = true> <Delay = 0.00>
ST_8 : Operation 24 [1/1] (0.00ns)   --->   "call void (...)* @_ssdm_op_SpecInterface(i64* @dataStreams_V_data_V, [8 x i8]* @ap_fifo_str, i32 0, i32 0, [1 x i8]* @p_str, i32 0, i32 0, [1 x i8]* @p_str, [1 x i8]* @p_str, [1 x i8]* @p_str, i32 2, i32 2, i32 16, i32 16, [1 x i8]* @p_str, [1 x i8]* @p_str)"   --->   Operation 24 'specinterface' <Predicate = true> <Delay = 0.00>
ST_8 : Operation 25 [1/1] (0.00ns)   --->   "%empty_41 = call i32 (...)* @_ssdm_op_SpecChannel([23 x i8]* @dataStreams_OC_V_OC_4, i32 1, [1 x i8]* @p_str, [1 x i8]* @p_str, i32 16, i32 16, i64* @dataStreams_V_data_V_1, i64* @dataStreams_V_data_V_1)"   --->   Operation 25 'specchannel' 'empty_41' <Predicate = true> <Delay = 0.00>
ST_8 : Operation 26 [1/1] (0.00ns)   --->   "call void (...)* @_ssdm_op_SpecInterface(i64* @dataStreams_V_data_V_1, [8 x i8]* @ap_fifo_str, i32 0, i32 0, [1 x i8]* @p_str, i32 0, i32 0, [1 x i8]* @p_str, [1 x i8]* @p_str, [1 x i8]* @p_str, i32 2, i32 2, i32 16, i32 16, [1 x i8]* @p_str, [1 x i8]* @p_str)"   --->   Operation 26 'specinterface' <Predicate = true> <Delay = 0.00>
ST_8 : Operation 27 [1/1] (0.00ns)   --->   "%empty_42 = call i32 (...)* @_ssdm_op_SpecChannel([23 x i8]* @dataStreams_OC_V_OC_3, i32 1, [1 x i8]* @p_str, [1 x i8]* @p_str, i32 16, i32 16, i8* @dataStreams_V_keep_V, i8* @dataStreams_V_keep_V)"   --->   Operation 27 'specchannel' 'empty_42' <Predicate = true> <Delay = 0.00>
ST_8 : Operation 28 [1/1] (0.00ns)   --->   "call void (...)* @_ssdm_op_SpecInterface(i8* @dataStreams_V_keep_V, [8 x i8]* @ap_fifo_str, i32 0, i32 0, [1 x i8]* @p_str, i32 0, i32 0, [1 x i8]* @p_str, [1 x i8]* @p_str, [1 x i8]* @p_str, i32 2, i32 2, i32 16, i32 16, [1 x i8]* @p_str, [1 x i8]* @p_str)"   --->   Operation 28 'specinterface' <Predicate = true> <Delay = 0.00>
ST_8 : Operation 29 [1/1] (0.00ns)   --->   "%empty_43 = call i32 (...)* @_ssdm_op_SpecChannel([23 x i8]* @dataStreams_OC_V_OC_2, i32 1, [1 x i8]* @p_str, [1 x i8]* @p_str, i32 16, i32 16, i8* @dataStreams_V_keep_V_1, i8* @dataStreams_V_keep_V_1)"   --->   Operation 29 'specchannel' 'empty_43' <Predicate = true> <Delay = 0.00>
ST_8 : Operation 30 [1/1] (0.00ns)   --->   "call void (...)* @_ssdm_op_SpecInterface(i8* @dataStreams_V_keep_V_1, [8 x i8]* @ap_fifo_str, i32 0, i32 0, [1 x i8]* @p_str, i32 0, i32 0, [1 x i8]* @p_str, [1 x i8]* @p_str, [1 x i8]* @p_str, i32 2, i32 2, i32 16, i32 16, [1 x i8]* @p_str, [1 x i8]* @p_str)"   --->   Operation 30 'specinterface' <Predicate = true> <Delay = 0.00>
ST_8 : Operation 31 [1/1] (0.00ns)   --->   "%empty_44 = call i32 (...)* @_ssdm_op_SpecChannel([23 x i8]* @dataStreams_OC_V_OC_1, i32 1, [1 x i8]* @p_str, [1 x i8]* @p_str, i32 16, i32 16, i1* @dataStreams_V_last_V, i1* @dataStreams_V_last_V)"   --->   Operation 31 'specchannel' 'empty_44' <Predicate = true> <Delay = 0.00>
ST_8 : Operation 32 [1/1] (0.00ns)   --->   "call void (...)* @_ssdm_op_SpecInterface(i1* @dataStreams_V_last_V, [8 x i8]* @ap_fifo_str, i32 0, i32 0, [1 x i8]* @p_str, i32 0, i32 0, [1 x i8]* @p_str, [1 x i8]* @p_str, [1 x i8]* @p_str, i32 2, i32 2, i32 16, i32 16, [1 x i8]* @p_str, [1 x i8]* @p_str)"   --->   Operation 32 'specinterface' <Predicate = true> <Delay = 0.00>
ST_8 : Operation 33 [1/1] (0.00ns)   --->   "%empty_45 = call i32 (...)* @_ssdm_op_SpecChannel([23 x i8]* @dataStreams_OC_V_OC_s, i32 1, [1 x i8]* @p_str, [1 x i8]* @p_str, i32 16, i32 16, i1* @dataStreams_V_last_V_1, i1* @dataStreams_V_last_V_1)"   --->   Operation 33 'specchannel' 'empty_45' <Predicate = true> <Delay = 0.00>
ST_8 : Operation 34 [1/1] (0.00ns)   --->   "call void (...)* @_ssdm_op_SpecInterface(i1* @dataStreams_V_last_V_1, [8 x i8]* @ap_fifo_str, i32 0, i32 0, [1 x i8]* @p_str, i32 0, i32 0, [1 x i8]* @p_str, [1 x i8]* @p_str, [1 x i8]* @p_str, i32 2, i32 2, i32 16, i32 16, [1 x i8]* @p_str, [1 x i8]* @p_str)"   --->   Operation 34 'specinterface' <Predicate = true> <Delay = 0.00>
ST_8 : Operation 35 [1/1] (0.00ns)   --->   "%empty_46 = call i32 (...)* @_ssdm_op_SpecChannel([17 x i8]* @packageBuffer1_OC_V_s, i32 1, [1 x i8]* @p_str, [1 x i8]* @p_str, i32 64, i32 64, i73* @packageBuffer1_V, i73* @packageBuffer1_V)"   --->   Operation 35 'specchannel' 'empty_46' <Predicate = true> <Delay = 0.00>
ST_8 : Operation 36 [1/1] (0.00ns)   --->   "call void (...)* @_ssdm_op_SpecInterface(i73* @packageBuffer1_V, [8 x i8]* @ap_fifo_str, i32 0, i32 0, [1 x i8]* @p_str, i32 0, i32 0, [1 x i8]* @p_str, [1 x i8]* @p_str, [1 x i8]* @p_str, i32 2, i32 2, i32 16, i32 16, [1 x i8]* @p_str, [1 x i8]* @p_str)"   --->   Operation 36 'specinterface' <Predicate = true> <Delay = 0.00>
ST_8 : Operation 37 [1/1] (0.00ns)   --->   "%empty_47 = call i32 (...)* @_ssdm_op_SpecChannel([34 x i8]* @udpPort2addIpHeader_5, i32 1, [1 x i8]* @p_str, [1 x i8]* @p_str, i32 192, i32 192, i64* @udpPort2addIpHeader_8, i64* @udpPort2addIpHeader_8)"   --->   Operation 37 'specchannel' 'empty_47' <Predicate = true> <Delay = 0.00>
ST_8 : Operation 38 [1/1] (0.00ns)   --->   "call void (...)* @_ssdm_op_SpecInterface(i64* @udpPort2addIpHeader_8, [8 x i8]* @ap_fifo_str, i32 0, i32 0, [1 x i8]* @p_str, i32 0, i32 0, [1 x i8]* @p_str, [1 x i8]* @p_str, [1 x i8]* @p_str, i32 2, i32 2, i32 16, i32 16, [1 x i8]* @p_str, [1 x i8]* @p_str)"   --->   Operation 38 'specinterface' <Predicate = true> <Delay = 0.00>
ST_8 : Operation 39 [1/1] (0.00ns)   --->   "%empty_48 = call i32 (...)* @_ssdm_op_SpecChannel([34 x i8]* @udpPort2addIpHeader_4, i32 1, [1 x i8]* @p_str, [1 x i8]* @p_str, i32 192, i32 192, i8* @udpPort2addIpHeader_1, i8* @udpPort2addIpHeader_1)"   --->   Operation 39 'specchannel' 'empty_48' <Predicate = true> <Delay = 0.00>
ST_8 : Operation 40 [1/1] (0.00ns)   --->   "call void (...)* @_ssdm_op_SpecInterface(i8* @udpPort2addIpHeader_1, [8 x i8]* @ap_fifo_str, i32 0, i32 0, [1 x i8]* @p_str, i32 0, i32 0, [1 x i8]* @p_str, [1 x i8]* @p_str, [1 x i8]* @p_str, i32 2, i32 2, i32 16, i32 16, [1 x i8]* @p_str, [1 x i8]* @p_str)"   --->   Operation 40 'specinterface' <Predicate = true> <Delay = 0.00>
ST_8 : Operation 41 [1/1] (0.00ns)   --->   "%empty_49 = call i32 (...)* @_ssdm_op_SpecChannel([34 x i8]* @udpPort2addIpHeader_3, i32 1, [1 x i8]* @p_str, [1 x i8]* @p_str, i32 192, i32 192, i1* @udpPort2addIpHeader_6, i1* @udpPort2addIpHeader_6)"   --->   Operation 41 'specchannel' 'empty_49' <Predicate = true> <Delay = 0.00>
ST_8 : Operation 42 [1/1] (0.00ns)   --->   "call void (...)* @_ssdm_op_SpecInterface(i1* @udpPort2addIpHeader_6, [8 x i8]* @ap_fifo_str, i32 0, i32 0, [1 x i8]* @p_str, i32 0, i32 0, [1 x i8]* @p_str, [1 x i8]* @p_str, [1 x i8]* @p_str, i32 2, i32 2, i32 16, i32 16, [1 x i8]* @p_str, [1 x i8]* @p_str)"   --->   Operation 42 'specinterface' <Predicate = true> <Delay = 0.00>
ST_8 : Operation 43 [1/1] (0.00ns)   --->   "%empty_50 = call i32 (...)* @_ssdm_op_SpecChannel([31 x i8]* @udpPort2addIpHeader_s, i32 1, [1 x i8]* @p_str, [1 x i8]* @p_str, i32 64, i32 64, i64* @udpPort2addIpHeader_7, i64* @udpPort2addIpHeader_7)"   --->   Operation 43 'specchannel' 'empty_50' <Predicate = true> <Delay = 0.00>
ST_8 : Operation 44 [1/1] (0.00ns)   --->   "call void (...)* @_ssdm_op_SpecInterface(i64* @udpPort2addIpHeader_7, [8 x i8]* @ap_fifo_str, i32 0, i32 0, [1 x i8]* @p_str, i32 0, i32 0, [1 x i8]* @p_str, [1 x i8]* @p_str, [1 x i8]* @p_str, i32 2, i32 2, i32 16, i32 16, [1 x i8]* @p_str, [1 x i8]* @p_str)"   --->   Operation 44 'specinterface' <Predicate = true> <Delay = 0.00>
ST_8 : Operation 45 [1/1] (0.00ns)   --->   "%empty_51 = call i32 (...)* @_ssdm_op_SpecChannel([12 x i8]* @validFifo_OC_V_str, i32 1, [1 x i8]* @p_str, [1 x i8]* @p_str, i32 8, i32 8, i1* @validFifo_V, i1* @validFifo_V)"   --->   Operation 45 'specchannel' 'empty_51' <Predicate = true> <Delay = 0.00>
ST_8 : Operation 46 [1/1] (0.00ns)   --->   "call void (...)* @_ssdm_op_SpecInterface(i1* @validFifo_V, [8 x i8]* @ap_fifo_str, i32 0, i32 0, [1 x i8]* @p_str, i32 0, i32 0, [1 x i8]* @p_str, [1 x i8]* @p_str, [1 x i8]* @p_str, i32 2, i32 2, i32 16, i32 16, [1 x i8]* @p_str, [1 x i8]* @p_str)"   --->   Operation 46 'specinterface' <Predicate = true> <Delay = 0.00>
ST_8 : Operation 47 [1/1] (0.00ns)   --->   "call void (...)* @_ssdm_op_SpecBitsMap(i64* %s_axis_V_data_V), !map !239"   --->   Operation 47 'specbitsmap' <Predicate = true> <Delay = 0.00>
ST_8 : Operation 48 [1/1] (0.00ns)   --->   "call void (...)* @_ssdm_op_SpecBitsMap(i8* %s_axis_V_keep_V), !map !243"   --->   Operation 48 'specbitsmap' <Predicate = true> <Delay = 0.00>
ST_8 : Operation 49 [1/1] (0.00ns)   --->   "call void (...)* @_ssdm_op_SpecBitsMap(i1* %s_axis_V_last_V), !map !247"   --->   Operation 49 'specbitsmap' <Predicate = true> <Delay = 0.00>
ST_8 : Operation 50 [1/1] (0.00ns)   --->   "call void (...)* @_ssdm_op_SpecBitsMap(i64* %udpIn_V_data_V), !map !251"   --->   Operation 50 'specbitsmap' <Predicate = true> <Delay = 0.00>
ST_8 : Operation 51 [1/1] (0.00ns)   --->   "call void (...)* @_ssdm_op_SpecBitsMap(i8* %udpIn_V_keep_V), !map !255"   --->   Operation 51 'specbitsmap' <Predicate = true> <Delay = 0.00>
ST_8 : Operation 52 [1/1] (0.00ns)   --->   "call void (...)* @_ssdm_op_SpecBitsMap(i1* %udpIn_V_last_V), !map !259"   --->   Operation 52 'specbitsmap' <Predicate = true> <Delay = 0.00>
ST_8 : Operation 53 [1/1] (0.00ns)   --->   "call void (...)* @_ssdm_op_SpecBitsMap(i64* %ttlIn_V_data_V), !map !263"   --->   Operation 53 'specbitsmap' <Predicate = true> <Delay = 0.00>
ST_8 : Operation 54 [1/1] (0.00ns)   --->   "call void (...)* @_ssdm_op_SpecBitsMap(i8* %ttlIn_V_keep_V), !map !267"   --->   Operation 54 'specbitsmap' <Predicate = true> <Delay = 0.00>
ST_8 : Operation 55 [1/1] (0.00ns)   --->   "call void (...)* @_ssdm_op_SpecBitsMap(i1* %ttlIn_V_last_V), !map !271"   --->   Operation 55 'specbitsmap' <Predicate = true> <Delay = 0.00>
ST_8 : Operation 56 [1/1] (0.00ns)   --->   "call void (...)* @_ssdm_op_SpecBitsMap(i64* %m_axis_V_data_V), !map !275"   --->   Operation 56 'specbitsmap' <Predicate = true> <Delay = 0.00>
ST_8 : Operation 57 [1/1] (0.00ns)   --->   "call void (...)* @_ssdm_op_SpecBitsMap(i8* %m_axis_V_keep_V), !map !279"   --->   Operation 57 'specbitsmap' <Predicate = true> <Delay = 0.00>
ST_8 : Operation 58 [1/1] (0.00ns)   --->   "call void (...)* @_ssdm_op_SpecBitsMap(i1* %m_axis_V_last_V), !map !283"   --->   Operation 58 'specbitsmap' <Predicate = true> <Delay = 0.00>
ST_8 : Operation 59 [1/1] (0.00ns)   --->   "call void (...)* @_ssdm_op_SpecTopModule([12 x i8]* @icmp_server_str) nounwind"   --->   Operation 59 'spectopmodule' <Predicate = true> <Delay = 0.00>
ST_8 : Operation 60 [1/1] (0.00ns)   --->   "call void (...)* @_ssdm_op_SpecInterface(i32 0, [13 x i8]* @p_str3, i32 0, i32 0, [1 x i8]* @p_str, i32 0, i32 0, [1 x i8]* @p_str, [1 x i8]* @p_str, [1 x i8]* @p_str, i32 0, i32 0, i32 0, i32 0, [1 x i8]* @p_str, [1 x i8]* @p_str) nounwind" [/home/paulrr2/Projects/ece527/babelsoc/fpga-network-stack/hls/icmp_server/icmp_server.cpp:417]   --->   Operation 60 'specinterface' <Predicate = true> <Delay = 0.00>
ST_8 : Operation 61 [1/1] (0.00ns)   --->   "call void (...)* @_ssdm_op_SpecInterface(i64* %s_axis_V_data_V, i8* %s_axis_V_keep_V, i1* %s_axis_V_last_V, [5 x i8]* @p_str4, i32 1, i32 1, [5 x i8]* @p_str5, i32 0, i32 0, [1 x i8]* @p_str, [1 x i8]* @p_str, [1 x i8]* @p_str, i32 0, i32 0, i32 0, i32 0, [7 x i8]* @p_str6, [1 x i8]* @p_str) nounwind" [/home/paulrr2/Projects/ece527/babelsoc/fpga-network-stack/hls/icmp_server/icmp_server.cpp:419]   --->   Operation 61 'specinterface' <Predicate = true> <Delay = 0.00>
ST_8 : Operation 62 [1/1] (0.00ns)   --->   "call void (...)* @_ssdm_op_SpecInterface(i64* %udpIn_V_data_V, i8* %udpIn_V_keep_V, i1* %udpIn_V_last_V, [5 x i8]* @p_str4, i32 1, i32 1, [5 x i8]* @p_str5, i32 0, i32 0, [1 x i8]* @p_str, [1 x i8]* @p_str, [1 x i8]* @p_str, i32 0, i32 0, i32 0, i32 0, [6 x i8]* @p_str7, [1 x i8]* @p_str) nounwind" [/home/paulrr2/Projects/ece527/babelsoc/fpga-network-stack/hls/icmp_server/icmp_server.cpp:420]   --->   Operation 62 'specinterface' <Predicate = true> <Delay = 0.00>
ST_8 : Operation 63 [1/1] (0.00ns)   --->   "call void (...)* @_ssdm_op_SpecInterface(i64* %ttlIn_V_data_V, i8* %ttlIn_V_keep_V, i1* %ttlIn_V_last_V, [5 x i8]* @p_str4, i32 1, i32 1, [5 x i8]* @p_str5, i32 0, i32 0, [1 x i8]* @p_str, [1 x i8]* @p_str, [1 x i8]* @p_str, i32 0, i32 0, i32 0, i32 0, [6 x i8]* @p_str8, [1 x i8]* @p_str) nounwind" [/home/paulrr2/Projects/ece527/babelsoc/fpga-network-stack/hls/icmp_server/icmp_server.cpp:421]   --->   Operation 63 'specinterface' <Predicate = true> <Delay = 0.00>
ST_8 : Operation 64 [1/1] (0.00ns)   --->   "call void (...)* @_ssdm_op_SpecInterface(i64* %m_axis_V_data_V, i8* %m_axis_V_keep_V, i1* %m_axis_V_last_V, [5 x i8]* @p_str4, i32 1, i32 1, [5 x i8]* @p_str5, i32 0, i32 0, [1 x i8]* @p_str, [1 x i8]* @p_str, [1 x i8]* @p_str, i32 0, i32 0, i32 0, i32 0, [7 x i8]* @p_str9, [1 x i8]* @p_str) nounwind" [/home/paulrr2/Projects/ece527/babelsoc/fpga-network-stack/hls/icmp_server/icmp_server.cpp:422]   --->   Operation 64 'specinterface' <Predicate = true> <Delay = 0.00>
ST_8 : Operation 65 [1/1] (0.00ns)   --->   "ret void" [/home/paulrr2/Projects/ece527/babelsoc/fpga-network-stack/hls/icmp_server/icmp_server.cpp:448]   --->   Operation 65 'ret' <Predicate = true> <Delay = 0.00>


============================================================
+ Verbose Summary: Binding
============================================================
STG Binding: 
---------------- STG Properties BEGIN ----------------
- Is combinational: 0
- Is one-state seq: 0
- Is datapath-only: 0
- Is pipelined: 0
- Is top level: 1
Port [ Return ] is wired: 1; IO mode=ap_ctrl_none:ce=0
Port [ s_axis_V_data_V]:  wired=1; compound=1; hidden=0; nouse=0; global=0; static=0; extern=0; dir=0; type=0; pingpong=0; private_global=0; IO mode=axis:ce=0
Port [ s_axis_V_keep_V]:  wired=1; compound=1; hidden=0; nouse=0; global=0; static=0; extern=0; dir=0; type=0; pingpong=0; private_global=0; IO mode=axis:ce=0
Port [ s_axis_V_last_V]:  wired=1; compound=1; hidden=0; nouse=0; global=0; static=0; extern=0; dir=0; type=0; pingpong=0; private_global=0; IO mode=axis:ce=0
Port [ udpIn_V_data_V]:  wired=1; compound=1; hidden=0; nouse=0; global=0; static=0; extern=0; dir=0; type=0; pingpong=0; private_global=0; IO mode=axis:ce=0
Port [ udpIn_V_keep_V]:  wired=1; compound=1; hidden=0; nouse=0; global=0; static=0; extern=0; dir=0; type=0; pingpong=0; private_global=0; IO mode=axis:ce=0
Port [ udpIn_V_last_V]:  wired=1; compound=1; hidden=0; nouse=0; global=0; static=0; extern=0; dir=0; type=0; pingpong=0; private_global=0; IO mode=axis:ce=0
Port [ ttlIn_V_data_V]:  wired=1; compound=1; hidden=0; nouse=0; global=0; static=0; extern=0; dir=0; type=0; pingpong=0; private_global=0; IO mode=axis:ce=0
Port [ ttlIn_V_keep_V]:  wired=1; compound=1; hidden=0; nouse=0; global=0; static=0; extern=0; dir=0; type=0; pingpong=0; private_global=0; IO mode=axis:ce=0
Port [ ttlIn_V_last_V]:  wired=1; compound=1; hidden=0; nouse=0; global=0; static=0; extern=0; dir=0; type=0; pingpong=0; private_global=0; IO mode=axis:ce=0
Port [ m_axis_V_data_V]:  wired=1; compound=1; hidden=0; nouse=0; global=0; static=0; extern=0; dir=1; type=0; pingpong=0; private_global=0; IO mode=axis:ce=0
Port [ m_axis_V_keep_V]:  wired=1; compound=1; hidden=0; nouse=0; global=0; static=0; extern=0; dir=1; type=0; pingpong=0; private_global=0; IO mode=axis:ce=0
Port [ m_axis_V_last_V]:  wired=1; compound=1; hidden=0; nouse=0; global=0; static=0; extern=0; dir=1; type=0; pingpong=0; private_global=0; IO mode=axis:ce=0
Port [ cics_writeLastOne]:  wired=0; compound=0; hidden=1; nouse=1; global=1; static=1; extern=0; dir=2; type=0; pingpong=0; private_global=0; linkage=7; visibility=0; IO mode=ap_ovld:ce=0
Port [ cics_prevWord_data_V]:  wired=0; compound=0; hidden=1; nouse=1; global=1; static=1; extern=0; dir=2; type=0; pingpong=0; private_global=0; linkage=7; visibility=0; IO mode=ap_ovld:ce=0
Port [ cics_prevWord_keep_V]:  wired=0; compound=0; hidden=1; nouse=1; global=1; static=1; extern=0; dir=2; type=0; pingpong=0; private_global=0; linkage=7; visibility=0; IO mode=ap_ovld:ce=0
Port [ cics_prevWord_last_V]:  wired=0; compound=0; hidden=1; nouse=1; global=1; static=1; extern=0; dir=2; type=0; pingpong=0; private_global=0; linkage=7; visibility=0; IO mode=ap_ovld:ce=0
Port [ packageBuffer1_V]:  wired=0; compound=1; hidden=1; nouse=0; global=1; static=1; extern=0; dir=2; type=3; pingpong=0; private_global=1; linkage=7; visibility=0; IO mode=ap_fifo:ce=0
Port [ cics_computeCs]:  wired=0; compound=0; hidden=1; nouse=1; global=1; static=1; extern=0; dir=2; type=0; pingpong=0; private_global=0; linkage=7; visibility=0; IO mode=ap_ovld:ce=0
Port [ cics_sums_V_2]:  wired=0; compound=0; hidden=1; nouse=1; global=1; static=1; extern=0; dir=2; type=0; pingpong=0; private_global=0; linkage=7; visibility=0; IO mode=ap_ovld:ce=0
Port [ cics_sums_V_0]:  wired=0; compound=0; hidden=1; nouse=1; global=1; static=1; extern=0; dir=2; type=0; pingpong=0; private_global=0; linkage=7; visibility=0; IO mode=ap_ovld:ce=0
Port [ cics_sums_V_3]:  wired=0; compound=0; hidden=1; nouse=1; global=1; static=1; extern=0; dir=2; type=0; pingpong=0; private_global=0; linkage=7; visibility=0; IO mode=ap_ovld:ce=0
Port [ cics_sums_V_1]:  wired=0; compound=0; hidden=1; nouse=1; global=1; static=1; extern=0; dir=2; type=0; pingpong=0; private_global=0; linkage=7; visibility=0; IO mode=ap_ovld:ce=0
Port [ icmpChecksum_V]:  wired=0; compound=0; hidden=1; nouse=1; global=1; static=1; extern=0; dir=2; type=0; pingpong=0; private_global=0; linkage=7; visibility=0; IO mode=ap_ovld:ce=0
Port [ icmpType_V]:  wired=0; compound=0; hidden=1; nouse=1; global=1; static=1; extern=0; dir=2; type=0; pingpong=0; private_global=0; linkage=7; visibility=0; IO mode=ap_ovld:ce=0
Port [ icmpCode_V]:  wired=0; compound=0; hidden=1; nouse=1; global=1; static=1; extern=0; dir=2; type=0; pingpong=0; private_global=0; linkage=7; visibility=0; IO mode=ap_ovld:ce=0
Port [ cics_state_V]:  wired=0; compound=0; hidden=1; nouse=1; global=1; static=1; extern=0; dir=2; type=0; pingpong=0; private_global=0; linkage=7; visibility=0; IO mode=ap_ovld:ce=0
Port [ validFifo_V]:  wired=0; compound=1; hidden=1; nouse=0; global=1; static=1; extern=0; dir=2; type=3; pingpong=0; private_global=1; linkage=7; visibility=0; IO mode=ap_fifo:ce=0
Port [ checksumStreams_V_V_s]:  wired=0; compound=1; hidden=1; nouse=0; global=1; static=1; extern=0; dir=2; type=3; pingpong=0; private_global=1; linkage=7; visibility=0; IO mode=ap_fifo:ce=0
Port [ cics_wordCount_V]:  wired=0; compound=0; hidden=1; nouse=1; global=1; static=1; extern=0; dir=2; type=0; pingpong=0; private_global=0; linkage=7; visibility=0; IO mode=ap_ovld:ce=0
Port [ udpState]:  wired=0; compound=0; hidden=1; nouse=1; global=1; static=1; extern=0; dir=2; type=0; pingpong=0; private_global=0; linkage=7; visibility=0; IO mode=ap_ovld:ce=0
Port [ ipWordCounter_V]:  wired=0; compound=0; hidden=1; nouse=1; global=1; static=1; extern=0; dir=2; type=0; pingpong=0; private_global=0; linkage=7; visibility=0; IO mode=ap_ovld:ce=0
Port [ streamSource_V_1]:  wired=0; compound=0; hidden=1; nouse=1; global=1; static=1; extern=0; dir=2; type=0; pingpong=0; private_global=0; linkage=7; visibility=0; IO mode=ap_ovld:ce=0
Port [ udpChecksum_V]:  wired=0; compound=0; hidden=1; nouse=1; global=1; static=1; extern=0; dir=2; type=0; pingpong=0; private_global=0; linkage=7; visibility=0; IO mode=ap_ovld:ce=0
Port [ udpPort2addIpHeader_8]:  wired=0; compound=1; hidden=1; nouse=0; global=1; static=1; extern=0; dir=2; type=3; pingpong=0; private_global=1; linkage=7; visibility=0; IO mode=ap_fifo:ce=0
Port [ udpPort2addIpHeader_1]:  wired=0; compound=1; hidden=1; nouse=0; global=1; static=1; extern=0; dir=2; type=3; pingpong=0; private_global=1; linkage=7; visibility=0; IO mode=ap_fifo:ce=0
Port [ udpPort2addIpHeader_6]:  wired=0; compound=1; hidden=1; nouse=0; global=1; static=1; extern=0; dir=2; type=3; pingpong=0; private_global=1; linkage=7; visibility=0; IO mode=ap_fifo:ce=0
Port [ udpPort2addIpHeader_7]:  wired=0; compound=1; hidden=1; nouse=0; global=1; static=1; extern=0; dir=2; type=3; pingpong=0; private_global=1; linkage=7; visibility=0; IO mode=ap_fifo:ce=0
Port [ checksumStreams_V_V_1]:  wired=0; compound=1; hidden=1; nouse=0; global=1; static=1; extern=0; dir=2; type=3; pingpong=0; private_global=1; linkage=7; visibility=0; IO mode=ap_fifo:ce=0
Port [ addIpState]:  wired=0; compound=0; hidden=1; nouse=1; global=1; static=1; extern=0; dir=2; type=0; pingpong=0; private_global=0; linkage=7; visibility=0; IO mode=ap_ovld:ce=0
Port [ tempWord_data_V]:  wired=0; compound=0; hidden=1; nouse=1; global=1; static=1; extern=0; dir=2; type=0; pingpong=0; private_global=0; linkage=7; visibility=0; IO mode=ap_ovld:ce=0
Port [ dataStreams_V_data_V_1]:  wired=0; compound=1; hidden=1; nouse=0; global=1; static=1; extern=0; dir=2; type=3; pingpong=0; private_global=1; linkage=7; visibility=0; IO mode=ap_fifo:ce=0
Port [ dataStreams_V_keep_V_1]:  wired=0; compound=1; hidden=1; nouse=0; global=1; static=1; extern=0; dir=2; type=3; pingpong=0; private_global=1; linkage=7; visibility=0; IO mode=ap_fifo:ce=0
Port [ dataStreams_V_last_V_1]:  wired=0; compound=1; hidden=1; nouse=0; global=1; static=1; extern=0; dir=2; type=3; pingpong=0; private_global=1; linkage=7; visibility=0; IO mode=ap_fifo:ce=0
Port [ tempWord_keep_V]:  wired=0; compound=0; hidden=1; nouse=1; global=1; static=1; extern=0; dir=2; type=0; pingpong=0; private_global=0; linkage=7; visibility=0; IO mode=ap_ovld:ce=0
Port [ sourceIP_V]:  wired=0; compound=0; hidden=1; nouse=1; global=1; static=1; extern=0; dir=2; type=0; pingpong=0; private_global=0; linkage=7; visibility=0; IO mode=ap_ovld:ce=0
Port [ d_isFirstWord]:  wired=0; compound=0; hidden=1; nouse=1; global=1; static=1; extern=0; dir=2; type=0; pingpong=0; private_global=0; linkage=7; visibility=0; IO mode=ap_ovld:ce=0
Port [ d_drop]:  wired=0; compound=0; hidden=1; nouse=1; global=1; static=1; extern=0; dir=2; type=0; pingpong=0; private_global=0; linkage=7; visibility=0; IO mode=ap_ovld:ce=0
Port [ dataStreams_V_data_V]:  wired=0; compound=1; hidden=1; nouse=0; global=1; static=1; extern=0; dir=2; type=3; pingpong=0; private_global=1; linkage=7; visibility=0; IO mode=ap_fifo:ce=0
Port [ dataStreams_V_keep_V]:  wired=0; compound=1; hidden=1; nouse=0; global=1; static=1; extern=0; dir=2; type=3; pingpong=0; private_global=1; linkage=7; visibility=0; IO mode=ap_fifo:ce=0
Port [ dataStreams_V_last_V]:  wired=0; compound=1; hidden=1; nouse=0; global=1; static=1; extern=0; dir=2; type=3; pingpong=0; private_global=1; linkage=7; visibility=0; IO mode=ap_fifo:ce=0
Port [ ic_wordCount_V]:  wired=0; compound=0; hidden=1; nouse=1; global=1; static=1; extern=0; dir=2; type=0; pingpong=0; private_global=0; linkage=7; visibility=0; IO mode=ap_ovld:ce=0
Port [ streamSource_V]:  wired=0; compound=0; hidden=1; nouse=1; global=1; static=1; extern=0; dir=2; type=0; pingpong=0; private_global=0; linkage=7; visibility=0; IO mode=ap_ovld:ce=0
---------------- STG Properties END ------------------

---------------- Datapath Model BEGIN ----------------

<LifeTime>
<method=bitvector/>
call_ln443                 (call                ) [ 000000000]
call_ln444                 (call                ) [ 000000000]
call_ln445                 (call                ) [ 000000000]
call_ln446                 (call                ) [ 000000000]
call_ln447                 (call                ) [ 000000000]
specdataflowpipeline_ln416 (specdataflowpipeline) [ 000000000]
empty                      (specchannel         ) [ 000000000]
specinterface_ln0          (specinterface       ) [ 000000000]
empty_39                   (specchannel         ) [ 000000000]
specinterface_ln0          (specinterface       ) [ 000000000]
empty_40                   (specchannel         ) [ 000000000]
specinterface_ln0          (specinterface       ) [ 000000000]
empty_41                   (specchannel         ) [ 000000000]
specinterface_ln0          (specinterface       ) [ 000000000]
empty_42                   (specchannel         ) [ 000000000]
specinterface_ln0          (specinterface       ) [ 000000000]
empty_43                   (specchannel         ) [ 000000000]
specinterface_ln0          (specinterface       ) [ 000000000]
empty_44                   (specchannel         ) [ 000000000]
specinterface_ln0          (specinterface       ) [ 000000000]
empty_45                   (specchannel         ) [ 000000000]
specinterface_ln0          (specinterface       ) [ 000000000]
empty_46                   (specchannel         ) [ 000000000]
specinterface_ln0          (specinterface       ) [ 000000000]
empty_47                   (specchannel         ) [ 000000000]
specinterface_ln0          (specinterface       ) [ 000000000]
empty_48                   (specchannel         ) [ 000000000]
specinterface_ln0          (specinterface       ) [ 000000000]
empty_49                   (specchannel         ) [ 000000000]
specinterface_ln0          (specinterface       ) [ 000000000]
empty_50                   (specchannel         ) [ 000000000]
specinterface_ln0          (specinterface       ) [ 000000000]
empty_51                   (specchannel         ) [ 000000000]
specinterface_ln0          (specinterface       ) [ 000000000]
specbitsmap_ln0            (specbitsmap         ) [ 000000000]
specbitsmap_ln0            (specbitsmap         ) [ 000000000]
specbitsmap_ln0            (specbitsmap         ) [ 000000000]
specbitsmap_ln0            (specbitsmap         ) [ 000000000]
specbitsmap_ln0            (specbitsmap         ) [ 000000000]
specbitsmap_ln0            (specbitsmap         ) [ 000000000]
specbitsmap_ln0            (specbitsmap         ) [ 000000000]
specbitsmap_ln0            (specbitsmap         ) [ 000000000]
specbitsmap_ln0            (specbitsmap         ) [ 000000000]
specbitsmap_ln0            (specbitsmap         ) [ 000000000]
specbitsmap_ln0            (specbitsmap         ) [ 000000000]
specbitsmap_ln0            (specbitsmap         ) [ 000000000]
spectopmodule_ln0          (spectopmodule       ) [ 000000000]
specinterface_ln417        (specinterface       ) [ 000000000]
specinterface_ln419        (specinterface       ) [ 000000000]
specinterface_ln420        (specinterface       ) [ 000000000]
specinterface_ln421        (specinterface       ) [ 000000000]
specinterface_ln422        (specinterface       ) [ 000000000]
ret_ln448                  (ret                 ) [ 000000000]
</LifeTime>

<model>

<comp_list>
<comp id="0" class="1000" name="s_axis_V_data_V">
<pin_list>
<pin id="1" dir="1" index="0" bw="1" slack="0"/>
</pin_list>
<bind>
<StgValue><ssdm name="s_axis_V_data_V"/></StgValue>
</bind>
</comp>

<comp id="2" class="1000" name="s_axis_V_keep_V">
<pin_list>
<pin id="3" dir="1" index="0" bw="1" slack="0"/>
</pin_list>
<bind>
<StgValue><ssdm name="s_axis_V_keep_V"/></StgValue>
</bind>
</comp>

<comp id="4" class="1000" name="s_axis_V_last_V">
<pin_list>
<pin id="5" dir="1" index="0" bw="1" slack="0"/>
</pin_list>
<bind>
<StgValue><ssdm name="s_axis_V_last_V"/></StgValue>
</bind>
</comp>

<comp id="6" class="1000" name="udpIn_V_data_V">
<pin_list>
<pin id="7" dir="1" index="0" bw="1" slack="0"/>
</pin_list>
<bind>
<StgValue><ssdm name="udpIn_V_data_V"/></StgValue>
</bind>
</comp>

<comp id="8" class="1000" name="udpIn_V_keep_V">
<pin_list>
<pin id="9" dir="1" index="0" bw="1" slack="0"/>
</pin_list>
<bind>
<StgValue><ssdm name="udpIn_V_keep_V"/></StgValue>
</bind>
</comp>

<comp id="10" class="1000" name="udpIn_V_last_V">
<pin_list>
<pin id="11" dir="1" index="0" bw="1" slack="0"/>
</pin_list>
<bind>
<StgValue><ssdm name="udpIn_V_last_V"/></StgValue>
</bind>
</comp>

<comp id="12" class="1000" name="ttlIn_V_data_V">
<pin_list>
<pin id="13" dir="1" index="0" bw="1" slack="0"/>
</pin_list>
<bind>
<StgValue><ssdm name="ttlIn_V_data_V"/></StgValue>
</bind>
</comp>

<comp id="14" class="1000" name="ttlIn_V_keep_V">
<pin_list>
<pin id="15" dir="1" index="0" bw="1" slack="0"/>
</pin_list>
<bind>
<StgValue><ssdm name="ttlIn_V_keep_V"/></StgValue>
</bind>
</comp>

<comp id="16" class="1000" name="ttlIn_V_last_V">
<pin_list>
<pin id="17" dir="1" index="0" bw="1" slack="0"/>
</pin_list>
<bind>
<StgValue><ssdm name="ttlIn_V_last_V"/></StgValue>
</bind>
</comp>

<comp id="18" class="1000" name="m_axis_V_data_V">
<pin_list>
<pin id="19" dir="1" index="0" bw="1" slack="0"/>
</pin_list>
<bind>
<StgValue><ssdm name="m_axis_V_data_V"/></StgValue>
</bind>
</comp>

<comp id="20" class="1000" name="m_axis_V_keep_V">
<pin_list>
<pin id="21" dir="1" index="0" bw="1" slack="0"/>
</pin_list>
<bind>
<StgValue><ssdm name="m_axis_V_keep_V"/></StgValue>
</bind>
</comp>

<comp id="22" class="1000" name="m_axis_V_last_V">
<pin_list>
<pin id="23" dir="1" index="0" bw="1" slack="0"/>
</pin_list>
<bind>
<StgValue><ssdm name="m_axis_V_last_V"/></StgValue>
</bind>
</comp>

<comp id="24" class="1000" name="cics_writeLastOne">
<pin_list>
<pin id="25" dir="1" index="0" bw="1" slack="0"/>
</pin_list>
<bind>
<StgValue><ssdm name="cics_writeLastOne"/></StgValue>
</bind>
</comp>

<comp id="26" class="1000" name="cics_prevWord_data_V">
<pin_list>
<pin id="27" dir="1" index="0" bw="1" slack="0"/>
</pin_list>
<bind>
<StgValue><ssdm name="cics_prevWord_data_V"/></StgValue>
</bind>
</comp>

<comp id="28" class="1000" name="cics_prevWord_keep_V">
<pin_list>
<pin id="29" dir="1" index="0" bw="1" slack="0"/>
</pin_list>
<bind>
<StgValue><ssdm name="cics_prevWord_keep_V"/></StgValue>
</bind>
</comp>

<comp id="30" class="1000" name="cics_prevWord_last_V">
<pin_list>
<pin id="31" dir="1" index="0" bw="1" slack="0"/>
</pin_list>
<bind>
<StgValue><ssdm name="cics_prevWord_last_V"/></StgValue>
</bind>
</comp>

<comp id="32" class="1000" name="packageBuffer1_V">
<pin_list>
<pin id="33" dir="1" index="0" bw="1" slack="0"/>
</pin_list>
<bind>
<StgValue><ssdm name="packageBuffer1_V"/></StgValue>
</bind>
</comp>

<comp id="34" class="1000" name="cics_computeCs">
<pin_list>
<pin id="35" dir="1" index="0" bw="1" slack="0"/>
</pin_list>
<bind>
<StgValue><ssdm name="cics_computeCs"/></StgValue>
</bind>
</comp>

<comp id="36" class="1000" name="cics_sums_V_2">
<pin_list>
<pin id="37" dir="1" index="0" bw="1" slack="0"/>
</pin_list>
<bind>
<StgValue><ssdm name="cics_sums_V_2"/></StgValue>
</bind>
</comp>

<comp id="38" class="1000" name="cics_sums_V_0">
<pin_list>
<pin id="39" dir="1" index="0" bw="1" slack="0"/>
</pin_list>
<bind>
<StgValue><ssdm name="cics_sums_V_0"/></StgValue>
</bind>
</comp>

<comp id="40" class="1000" name="cics_sums_V_3">
<pin_list>
<pin id="41" dir="1" index="0" bw="1" slack="0"/>
</pin_list>
<bind>
<StgValue><ssdm name="cics_sums_V_3"/></StgValue>
</bind>
</comp>

<comp id="42" class="1000" name="cics_sums_V_1">
<pin_list>
<pin id="43" dir="1" index="0" bw="1" slack="0"/>
</pin_list>
<bind>
<StgValue><ssdm name="cics_sums_V_1"/></StgValue>
</bind>
</comp>

<comp id="44" class="1000" name="icmpChecksum_V">
<pin_list>
<pin id="45" dir="1" index="0" bw="1" slack="0"/>
</pin_list>
<bind>
<StgValue><ssdm name="icmpChecksum_V"/></StgValue>
</bind>
</comp>

<comp id="46" class="1000" name="icmpType_V">
<pin_list>
<pin id="47" dir="1" index="0" bw="1" slack="0"/>
</pin_list>
<bind>
<StgValue><ssdm name="icmpType_V"/></StgValue>
</bind>
</comp>

<comp id="48" class="1000" name="icmpCode_V">
<pin_list>
<pin id="49" dir="1" index="0" bw="1" slack="0"/>
</pin_list>
<bind>
<StgValue><ssdm name="icmpCode_V"/></StgValue>
</bind>
</comp>

<comp id="50" class="1000" name="cics_state_V">
<pin_list>
<pin id="51" dir="1" index="0" bw="1" slack="0"/>
</pin_list>
<bind>
<StgValue><ssdm name="cics_state_V"/></StgValue>
</bind>
</comp>

<comp id="52" class="1000" name="validFifo_V">
<pin_list>
<pin id="53" dir="1" index="0" bw="1" slack="0"/>
</pin_list>
<bind>
<StgValue><ssdm name="validFifo_V"/></StgValue>
</bind>
</comp>

<comp id="54" class="1000" name="checksumStreams_V_V_s">
<pin_list>
<pin id="55" dir="1" index="0" bw="1" slack="0"/>
</pin_list>
<bind>
<StgValue><ssdm name="checksumStreams_V_V_s"/></StgValue>
</bind>
</comp>

<comp id="56" class="1000" name="cics_wordCount_V">
<pin_list>
<pin id="57" dir="1" index="0" bw="1" slack="0"/>
</pin_list>
<bind>
<StgValue><ssdm name="cics_wordCount_V"/></StgValue>
</bind>
</comp>

<comp id="58" class="1000" name="udpState">
<pin_list>
<pin id="59" dir="1" index="0" bw="1" slack="0"/>
</pin_list>
<bind>
<StgValue><ssdm name="udpState"/></StgValue>
</bind>
</comp>

<comp id="60" class="1000" name="ipWordCounter_V">
<pin_list>
<pin id="61" dir="1" index="0" bw="1" slack="0"/>
</pin_list>
<bind>
<StgValue><ssdm name="ipWordCounter_V"/></StgValue>
</bind>
</comp>

<comp id="62" class="1000" name="streamSource_V_1">
<pin_list>
<pin id="63" dir="1" index="0" bw="1" slack="0"/>
</pin_list>
<bind>
<StgValue><ssdm name="streamSource_V_1"/></StgValue>
</bind>
</comp>

<comp id="64" class="1000" name="udpChecksum_V">
<pin_list>
<pin id="65" dir="1" index="0" bw="1" slack="0"/>
</pin_list>
<bind>
<StgValue><ssdm name="udpChecksum_V"/></StgValue>
</bind>
</comp>

<comp id="66" class="1000" name="udpPort2addIpHeader_8">
<pin_list>
<pin id="67" dir="1" index="0" bw="1" slack="0"/>
</pin_list>
<bind>
<StgValue><ssdm name="udpPort2addIpHeader_8"/></StgValue>
</bind>
</comp>

<comp id="68" class="1000" name="udpPort2addIpHeader_1">
<pin_list>
<pin id="69" dir="1" index="0" bw="1" slack="0"/>
</pin_list>
<bind>
<StgValue><ssdm name="udpPort2addIpHeader_1"/></StgValue>
</bind>
</comp>

<comp id="70" class="1000" name="udpPort2addIpHeader_6">
<pin_list>
<pin id="71" dir="1" index="0" bw="1" slack="0"/>
</pin_list>
<bind>
<StgValue><ssdm name="udpPort2addIpHeader_6"/></StgValue>
</bind>
</comp>

<comp id="72" class="1000" name="udpPort2addIpHeader_7">
<pin_list>
<pin id="73" dir="1" index="0" bw="1" slack="0"/>
</pin_list>
<bind>
<StgValue><ssdm name="udpPort2addIpHeader_7"/></StgValue>
</bind>
</comp>

<comp id="74" class="1000" name="checksumStreams_V_V_1">
<pin_list>
<pin id="75" dir="1" index="0" bw="1" slack="0"/>
</pin_list>
<bind>
<StgValue><ssdm name="checksumStreams_V_V_1"/></StgValue>
</bind>
</comp>

<comp id="76" class="1000" name="addIpState">
<pin_list>
<pin id="77" dir="1" index="0" bw="1" slack="0"/>
</pin_list>
<bind>
<StgValue><ssdm name="addIpState"/></StgValue>
</bind>
</comp>

<comp id="78" class="1000" name="tempWord_data_V">
<pin_list>
<pin id="79" dir="1" index="0" bw="1" slack="0"/>
</pin_list>
<bind>
<StgValue><ssdm name="tempWord_data_V"/></StgValue>
</bind>
</comp>

<comp id="80" class="1000" name="dataStreams_V_data_V_1">
<pin_list>
<pin id="81" dir="1" index="0" bw="1" slack="0"/>
</pin_list>
<bind>
<StgValue><ssdm name="dataStreams_V_data_V_1"/></StgValue>
</bind>
</comp>

<comp id="82" class="1000" name="dataStreams_V_keep_V_1">
<pin_list>
<pin id="83" dir="1" index="0" bw="1" slack="0"/>
</pin_list>
<bind>
<StgValue><ssdm name="dataStreams_V_keep_V_1"/></StgValue>
</bind>
</comp>

<comp id="84" class="1000" name="dataStreams_V_last_V_1">
<pin_list>
<pin id="85" dir="1" index="0" bw="1" slack="0"/>
</pin_list>
<bind>
<StgValue><ssdm name="dataStreams_V_last_V_1"/></StgValue>
</bind>
</comp>

<comp id="86" class="1000" name="tempWord_keep_V">
<pin_list>
<pin id="87" dir="1" index="0" bw="1" slack="0"/>
</pin_list>
<bind>
<StgValue><ssdm name="tempWord_keep_V"/></StgValue>
</bind>
</comp>

<comp id="88" class="1000" name="sourceIP_V">
<pin_list>
<pin id="89" dir="1" index="0" bw="1" slack="0"/>
</pin_list>
<bind>
<StgValue><ssdm name="sourceIP_V"/></StgValue>
</bind>
</comp>

<comp id="90" class="1000" name="d_isFirstWord">
<pin_list>
<pin id="91" dir="1" index="0" bw="1" slack="0"/>
</pin_list>
<bind>
<StgValue><ssdm name="d_isFirstWord"/></StgValue>
</bind>
</comp>

<comp id="92" class="1000" name="d_drop">
<pin_list>
<pin id="93" dir="1" index="0" bw="1" slack="0"/>
</pin_list>
<bind>
<StgValue><ssdm name="d_drop"/></StgValue>
</bind>
</comp>

<comp id="94" class="1000" name="dataStreams_V_data_V">
<pin_list>
<pin id="95" dir="1" index="0" bw="1" slack="0"/>
</pin_list>
<bind>
<StgValue><ssdm name="dataStreams_V_data_V"/></StgValue>
</bind>
</comp>

<comp id="96" class="1000" name="dataStreams_V_keep_V">
<pin_list>
<pin id="97" dir="1" index="0" bw="1" slack="0"/>
</pin_list>
<bind>
<StgValue><ssdm name="dataStreams_V_keep_V"/></StgValue>
</bind>
</comp>

<comp id="98" class="1000" name="dataStreams_V_last_V">
<pin_list>
<pin id="99" dir="1" index="0" bw="1" slack="0"/>
</pin_list>
<bind>
<StgValue><ssdm name="dataStreams_V_last_V"/></StgValue>
</bind>
</comp>

<comp id="100" class="1000" name="ic_wordCount_V">
<pin_list>
<pin id="101" dir="1" index="0" bw="1" slack="0"/>
</pin_list>
<bind>
<StgValue><ssdm name="ic_wordCount_V"/></StgValue>
</bind>
</comp>

<comp id="102" class="1000" name="streamSource_V">
<pin_list>
<pin id="103" dir="1" index="0" bw="1" slack="0"/>
</pin_list>
<bind>
<StgValue><ssdm name="streamSource_V"/></StgValue>
</bind>
</comp>

<comp id="104" class="1001" name="const_104">
<pin_list>
<pin id="105" dir="1" index="0" bw="1" slack="0"/>
</pin_list>
<bind>
<StgValue><ssdm name="check_icmp_checksum"/></StgValue>
</bind>
</comp>

<comp id="106" class="1001" name="const_106">
<pin_list>
<pin id="107" dir="1" index="0" bw="1" slack="0"/>
</pin_list>
<bind>
<StgValue><ssdm name="udpPortUnreachable18"/></StgValue>
</bind>
</comp>

<comp id="108" class="1001" name="const_108">
<pin_list>
<pin id="109" dir="1" index="0" bw="1" slack="0"/>
</pin_list>
<bind>
<StgValue><ssdm name="udpAddIpHeader186"/></StgValue>
</bind>
</comp>

<comp id="110" class="1001" name="const_110">
<pin_list>
<pin id="111" dir="1" index="0" bw="1" slack="0"/>
</pin_list>
<bind>
<StgValue><ssdm name="dropper"/></StgValue>
</bind>
</comp>

<comp id="112" class="1001" name="const_112">
<pin_list>
<pin id="113" dir="1" index="0" bw="1" slack="0"/>
</pin_list>
<bind>
<StgValue><ssdm name="insertChecksum"/></StgValue>
</bind>
</comp>

<comp id="114" class="1001" name="const_114">
<pin_list>
<pin id="115" dir="1" index="0" bw="1" slack="2147483647"/>
</pin_list>
<bind>
<StgValue><ssdm name="_ssdm_op_SpecDataflowPipeline"/></StgValue>
</bind>
</comp>

<comp id="116" class="1001" name="const_116">
<pin_list>
<pin id="117" dir="1" index="0" bw="1" slack="2147483647"/>
</pin_list>
<bind>
<StgValue><ssdm name=""/></StgValue>
</bind>
</comp>

<comp id="118" class="1001" name="const_118">
<pin_list>
<pin id="119" dir="1" index="0" bw="1" slack="2147483647"/>
</pin_list>
<bind>
<StgValue><ssdm name=""/></StgValue>
</bind>
</comp>

<comp id="120" class="1001" name="const_120">
<pin_list>
<pin id="121" dir="1" index="0" bw="1" slack="2147483647"/>
</pin_list>
<bind>
<StgValue><ssdm name="p_str"/></StgValue>
</bind>
</comp>

<comp id="122" class="1001" name="const_122">
<pin_list>
<pin id="123" dir="1" index="0" bw="1" slack="2147483647"/>
</pin_list>
<bind>
<StgValue><ssdm name="_ssdm_op_SpecChannel"/></StgValue>
</bind>
</comp>

<comp id="124" class="1001" name="const_124">
<pin_list>
<pin id="125" dir="1" index="0" bw="1" slack="2147483647"/>
</pin_list>
<bind>
<StgValue><ssdm name="checksumStreams_OC_V_1"/></StgValue>
</bind>
</comp>

<comp id="126" class="1001" name="const_126">
<pin_list>
<pin id="127" dir="1" index="0" bw="1" slack="2147483647"/>
</pin_list>
<bind>
<StgValue><ssdm name=""/></StgValue>
</bind>
</comp>

<comp id="128" class="1001" name="const_128">
<pin_list>
<pin id="129" dir="1" index="0" bw="1" slack="2147483647"/>
</pin_list>
<bind>
<StgValue><ssdm name="_ssdm_op_SpecInterface"/></StgValue>
</bind>
</comp>

<comp id="130" class="1001" name="const_130">
<pin_list>
<pin id="131" dir="1" index="0" bw="1" slack="2147483647"/>
</pin_list>
<bind>
<StgValue><ssdm name="ap_fifo_str"/></StgValue>
</bind>
</comp>

<comp id="132" class="1001" name="const_132">
<pin_list>
<pin id="133" dir="1" index="0" bw="1" slack="2147483647"/>
</pin_list>
<bind>
<StgValue><ssdm name=""/></StgValue>
</bind>
</comp>

<comp id="134" class="1001" name="const_134">
<pin_list>
<pin id="135" dir="1" index="0" bw="1" slack="2147483647"/>
</pin_list>
<bind>
<StgValue><ssdm name=""/></StgValue>
</bind>
</comp>

<comp id="136" class="1001" name="const_136">
<pin_list>
<pin id="137" dir="1" index="0" bw="1" slack="2147483647"/>
</pin_list>
<bind>
<StgValue><ssdm name="checksumStreams_OC_V"/></StgValue>
</bind>
</comp>

<comp id="138" class="1001" name="const_138">
<pin_list>
<pin id="139" dir="1" index="0" bw="1" slack="2147483647"/>
</pin_list>
<bind>
<StgValue><ssdm name="dataStreams_OC_V_OC_5"/></StgValue>
</bind>
</comp>

<comp id="140" class="1001" name="const_140">
<pin_list>
<pin id="141" dir="1" index="0" bw="1" slack="2147483647"/>
</pin_list>
<bind>
<StgValue><ssdm name="dataStreams_OC_V_OC_4"/></StgValue>
</bind>
</comp>

<comp id="142" class="1001" name="const_142">
<pin_list>
<pin id="143" dir="1" index="0" bw="1" slack="2147483647"/>
</pin_list>
<bind>
<StgValue><ssdm name="dataStreams_OC_V_OC_3"/></StgValue>
</bind>
</comp>

<comp id="144" class="1001" name="const_144">
<pin_list>
<pin id="145" dir="1" index="0" bw="1" slack="2147483647"/>
</pin_list>
<bind>
<StgValue><ssdm name="dataStreams_OC_V_OC_2"/></StgValue>
</bind>
</comp>

<comp id="146" class="1001" name="const_146">
<pin_list>
<pin id="147" dir="1" index="0" bw="1" slack="2147483647"/>
</pin_list>
<bind>
<StgValue><ssdm name="dataStreams_OC_V_OC_1"/></StgValue>
</bind>
</comp>

<comp id="148" class="1001" name="const_148">
<pin_list>
<pin id="149" dir="1" index="0" bw="1" slack="2147483647"/>
</pin_list>
<bind>
<StgValue><ssdm name="dataStreams_OC_V_OC_s"/></StgValue>
</bind>
</comp>

<comp id="150" class="1001" name="const_150">
<pin_list>
<pin id="151" dir="1" index="0" bw="1" slack="2147483647"/>
</pin_list>
<bind>
<StgValue><ssdm name="packageBuffer1_OC_V_s"/></StgValue>
</bind>
</comp>

<comp id="152" class="1001" name="const_152">
<pin_list>
<pin id="153" dir="1" index="0" bw="1" slack="2147483647"/>
</pin_list>
<bind>
<StgValue><ssdm name=""/></StgValue>
</bind>
</comp>

<comp id="154" class="1001" name="const_154">
<pin_list>
<pin id="155" dir="1" index="0" bw="1" slack="2147483647"/>
</pin_list>
<bind>
<StgValue><ssdm name="udpPort2addIpHeader_5"/></StgValue>
</bind>
</comp>

<comp id="156" class="1001" name="const_156">
<pin_list>
<pin id="157" dir="1" index="0" bw="1" slack="2147483647"/>
</pin_list>
<bind>
<StgValue><ssdm name=""/></StgValue>
</bind>
</comp>

<comp id="158" class="1001" name="const_158">
<pin_list>
<pin id="159" dir="1" index="0" bw="1" slack="2147483647"/>
</pin_list>
<bind>
<StgValue><ssdm name="udpPort2addIpHeader_4"/></StgValue>
</bind>
</comp>

<comp id="160" class="1001" name="const_160">
<pin_list>
<pin id="161" dir="1" index="0" bw="1" slack="2147483647"/>
</pin_list>
<bind>
<StgValue><ssdm name="udpPort2addIpHeader_3"/></StgValue>
</bind>
</comp>

<comp id="162" class="1001" name="const_162">
<pin_list>
<pin id="163" dir="1" index="0" bw="1" slack="2147483647"/>
</pin_list>
<bind>
<StgValue><ssdm name="udpPort2addIpHeader_s"/></StgValue>
</bind>
</comp>

<comp id="164" class="1001" name="const_164">
<pin_list>
<pin id="165" dir="1" index="0" bw="1" slack="2147483647"/>
</pin_list>
<bind>
<StgValue><ssdm name="validFifo_OC_V_str"/></StgValue>
</bind>
</comp>

<comp id="166" class="1001" name="const_166">
<pin_list>
<pin id="167" dir="1" index="0" bw="1" slack="2147483647"/>
</pin_list>
<bind>
<StgValue><ssdm name=""/></StgValue>
</bind>
</comp>

<comp id="168" class="1001" name="const_168">
<pin_list>
<pin id="169" dir="1" index="0" bw="1" slack="2147483647"/>
</pin_list>
<bind>
<StgValue><ssdm name="_ssdm_op_SpecBitsMap"/></StgValue>
</bind>
</comp>

<comp id="170" class="1001" name="const_170">
<pin_list>
<pin id="171" dir="1" index="0" bw="1" slack="2147483647"/>
</pin_list>
<bind>
<StgValue><ssdm name="_ssdm_op_SpecTopModule"/></StgValue>
</bind>
</comp>

<comp id="172" class="1001" name="const_172">
<pin_list>
<pin id="173" dir="1" index="0" bw="1" slack="2147483647"/>
</pin_list>
<bind>
<StgValue><ssdm name="icmp_server_str"/></StgValue>
</bind>
</comp>

<comp id="174" class="1001" name="const_174">
<pin_list>
<pin id="175" dir="1" index="0" bw="1" slack="2147483647"/>
</pin_list>
<bind>
<StgValue><ssdm name="p_str3"/></StgValue>
</bind>
</comp>

<comp id="176" class="1001" name="const_176">
<pin_list>
<pin id="177" dir="1" index="0" bw="1" slack="2147483647"/>
</pin_list>
<bind>
<StgValue><ssdm name="p_str4"/></StgValue>
</bind>
</comp>

<comp id="178" class="1001" name="const_178">
<pin_list>
<pin id="179" dir="1" index="0" bw="1" slack="2147483647"/>
</pin_list>
<bind>
<StgValue><ssdm name="p_str5"/></StgValue>
</bind>
</comp>

<comp id="180" class="1001" name="const_180">
<pin_list>
<pin id="181" dir="1" index="0" bw="1" slack="2147483647"/>
</pin_list>
<bind>
<StgValue><ssdm name="p_str6"/></StgValue>
</bind>
</comp>

<comp id="182" class="1001" name="const_182">
<pin_list>
<pin id="183" dir="1" index="0" bw="1" slack="2147483647"/>
</pin_list>
<bind>
<StgValue><ssdm name="p_str7"/></StgValue>
</bind>
</comp>

<comp id="184" class="1001" name="const_184">
<pin_list>
<pin id="185" dir="1" index="0" bw="1" slack="2147483647"/>
</pin_list>
<bind>
<StgValue><ssdm name="p_str8"/></StgValue>
</bind>
</comp>

<comp id="186" class="1001" name="const_186">
<pin_list>
<pin id="187" dir="1" index="0" bw="1" slack="2147483647"/>
</pin_list>
<bind>
<StgValue><ssdm name="p_str9"/></StgValue>
</bind>
</comp>

<comp id="188" class="1004" name="grp_check_icmp_checksum_fu_188">
<pin_list>
<pin id="189" dir="0" index="0" bw="0" slack="0"/>
<pin id="190" dir="0" index="1" bw="64" slack="0"/>
<pin id="191" dir="0" index="2" bw="8" slack="0"/>
<pin id="192" dir="0" index="3" bw="1" slack="0"/>
<pin id="193" dir="0" index="4" bw="1" slack="0"/>
<pin id="194" dir="0" index="5" bw="64" slack="0"/>
<pin id="195" dir="0" index="6" bw="8" slack="0"/>
<pin id="196" dir="0" index="7" bw="1" slack="0"/>
<pin id="197" dir="0" index="8" bw="73" slack="0"/>
<pin id="198" dir="0" index="9" bw="1" slack="0"/>
<pin id="199" dir="0" index="10" bw="16" slack="0"/>
<pin id="200" dir="0" index="11" bw="17" slack="0"/>
<pin id="201" dir="0" index="12" bw="16" slack="0"/>
<pin id="202" dir="0" index="13" bw="16" slack="0"/>
<pin id="203" dir="0" index="14" bw="17" slack="0"/>
<pin id="204" dir="0" index="15" bw="8" slack="0"/>
<pin id="205" dir="0" index="16" bw="8" slack="0"/>
<pin id="206" dir="0" index="17" bw="2" slack="0"/>
<pin id="207" dir="0" index="18" bw="1" slack="0"/>
<pin id="208" dir="0" index="19" bw="16" slack="0"/>
<pin id="209" dir="0" index="20" bw="16" slack="0"/>
<pin id="210" dir="1" index="21" bw="0" slack="2147483647"/>
</pin_list>
<bind>
<opcode="call(48) " fcode="call"/>
<opset="call_ln443/1 "/>
</bind>
</comp>

<comp id="232" class="1004" name="grp_insertChecksum_fu_232">
<pin_list>
<pin id="233" dir="0" index="0" bw="0" slack="0"/>
<pin id="234" dir="0" index="1" bw="64" slack="0"/>
<pin id="235" dir="0" index="2" bw="8" slack="0"/>
<pin id="236" dir="0" index="3" bw="1" slack="0"/>
<pin id="237" dir="0" index="4" bw="16" slack="0"/>
<pin id="238" dir="0" index="5" bw="1" slack="0"/>
<pin id="239" dir="0" index="6" bw="64" slack="0"/>
<pin id="240" dir="0" index="7" bw="8" slack="0"/>
<pin id="241" dir="0" index="8" bw="1" slack="0"/>
<pin id="242" dir="0" index="9" bw="64" slack="0"/>
<pin id="243" dir="0" index="10" bw="8" slack="0"/>
<pin id="244" dir="0" index="11" bw="1" slack="0"/>
<pin id="245" dir="0" index="12" bw="16" slack="0"/>
<pin id="246" dir="0" index="13" bw="16" slack="0"/>
<pin id="247" dir="1" index="14" bw="0" slack="2147483647"/>
</pin_list>
<bind>
<opcode="call(48) " fcode="call"/>
<opset="call_ln447/4 "/>
</bind>
</comp>

<comp id="262" class="1004" name="call_ln444_udpPortUnreachable18_fu_262">
<pin_list>
<pin id="263" dir="0" index="0" bw="0" slack="0"/>
<pin id="264" dir="0" index="1" bw="64" slack="0"/>
<pin id="265" dir="0" index="2" bw="8" slack="0"/>
<pin id="266" dir="0" index="3" bw="1" slack="0"/>
<pin id="267" dir="0" index="4" bw="64" slack="0"/>
<pin id="268" dir="0" index="5" bw="8" slack="0"/>
<pin id="269" dir="0" index="6" bw="1" slack="0"/>
<pin id="270" dir="0" index="7" bw="2" slack="0"/>
<pin id="271" dir="0" index="8" bw="3" slack="0"/>
<pin id="272" dir="0" index="9" bw="1" slack="0"/>
<pin id="273" dir="0" index="10" bw="20" slack="0"/>
<pin id="274" dir="0" index="11" bw="64" slack="0"/>
<pin id="275" dir="0" index="12" bw="8" slack="0"/>
<pin id="276" dir="0" index="13" bw="1" slack="0"/>
<pin id="277" dir="0" index="14" bw="64" slack="0"/>
<pin id="278" dir="0" index="15" bw="16" slack="0"/>
<pin id="279" dir="1" index="16" bw="0" slack="2147483647"/>
</pin_list>
<bind>
<opcode="call(48) " fcode="call"/>
<opset="call_ln444/2 "/>
</bind>
</comp>

<comp id="296" class="1004" name="call_ln445_udpAddIpHeader186_fu_296">
<pin_list>
<pin id="297" dir="0" index="0" bw="0" slack="0"/>
<pin id="298" dir="0" index="1" bw="3" slack="0"/>
<pin id="299" dir="0" index="2" bw="64" slack="0"/>
<pin id="300" dir="0" index="3" bw="64" slack="0"/>
<pin id="301" dir="0" index="4" bw="64" slack="0"/>
<pin id="302" dir="0" index="5" bw="8" slack="0"/>
<pin id="303" dir="0" index="6" bw="1" slack="0"/>
<pin id="304" dir="0" index="7" bw="8" slack="0"/>
<pin id="305" dir="0" index="8" bw="32" slack="0"/>
<pin id="306" dir="0" index="9" bw="64" slack="0"/>
<pin id="307" dir="0" index="10" bw="8" slack="0"/>
<pin id="308" dir="0" index="11" bw="1" slack="0"/>
<pin id="309" dir="1" index="12" bw="0" slack="2147483647"/>
</pin_list>
<bind>
<opcode="call(48) " fcode="call"/>
<opset="call_ln445/3 "/>
</bind>
</comp>

<comp id="322" class="1004" name="call_ln446_dropper_fu_322">
<pin_list>
<pin id="323" dir="0" index="0" bw="0" slack="0"/>
<pin id="324" dir="0" index="1" bw="73" slack="0"/>
<pin id="325" dir="0" index="2" bw="1" slack="0"/>
<pin id="326" dir="0" index="3" bw="1" slack="0"/>
<pin id="327" dir="0" index="4" bw="1" slack="0"/>
<pin id="328" dir="0" index="5" bw="64" slack="0"/>
<pin id="329" dir="0" index="6" bw="8" slack="0"/>
<pin id="330" dir="0" index="7" bw="1" slack="0"/>
<pin id="331" dir="1" index="8" bw="0" slack="2147483647"/>
</pin_list>
<bind>
<opcode="call(48) " fcode="call"/>
<opset="call_ln446/3 "/>
</bind>
</comp>

</comp_list>

<net_list>
<net id="211"><net_src comp="104" pin="0"/><net_sink comp="188" pin=0"/></net>

<net id="212"><net_src comp="0" pin="0"/><net_sink comp="188" pin=1"/></net>

<net id="213"><net_src comp="2" pin="0"/><net_sink comp="188" pin=2"/></net>

<net id="214"><net_src comp="4" pin="0"/><net_sink comp="188" pin=3"/></net>

<net id="215"><net_src comp="24" pin="0"/><net_sink comp="188" pin=4"/></net>

<net id="216"><net_src comp="26" pin="0"/><net_sink comp="188" pin=5"/></net>

<net id="217"><net_src comp="28" pin="0"/><net_sink comp="188" pin=6"/></net>

<net id="218"><net_src comp="30" pin="0"/><net_sink comp="188" pin=7"/></net>

<net id="219"><net_src comp="32" pin="0"/><net_sink comp="188" pin=8"/></net>

<net id="220"><net_src comp="34" pin="0"/><net_sink comp="188" pin=9"/></net>

<net id="221"><net_src comp="36" pin="0"/><net_sink comp="188" pin=10"/></net>

<net id="222"><net_src comp="38" pin="0"/><net_sink comp="188" pin=11"/></net>

<net id="223"><net_src comp="40" pin="0"/><net_sink comp="188" pin=12"/></net>

<net id="224"><net_src comp="42" pin="0"/><net_sink comp="188" pin=13"/></net>

<net id="225"><net_src comp="44" pin="0"/><net_sink comp="188" pin=14"/></net>

<net id="226"><net_src comp="46" pin="0"/><net_sink comp="188" pin=15"/></net>

<net id="227"><net_src comp="48" pin="0"/><net_sink comp="188" pin=16"/></net>

<net id="228"><net_src comp="50" pin="0"/><net_sink comp="188" pin=17"/></net>

<net id="229"><net_src comp="52" pin="0"/><net_sink comp="188" pin=18"/></net>

<net id="230"><net_src comp="54" pin="0"/><net_sink comp="188" pin=19"/></net>

<net id="231"><net_src comp="56" pin="0"/><net_sink comp="188" pin=20"/></net>

<net id="248"><net_src comp="112" pin="0"/><net_sink comp="232" pin=0"/></net>

<net id="249"><net_src comp="18" pin="0"/><net_sink comp="232" pin=1"/></net>

<net id="250"><net_src comp="20" pin="0"/><net_sink comp="232" pin=2"/></net>

<net id="251"><net_src comp="22" pin="0"/><net_sink comp="232" pin=3"/></net>

<net id="252"><net_src comp="100" pin="0"/><net_sink comp="232" pin=4"/></net>

<net id="253"><net_src comp="102" pin="0"/><net_sink comp="232" pin=5"/></net>

<net id="254"><net_src comp="94" pin="0"/><net_sink comp="232" pin=6"/></net>

<net id="255"><net_src comp="96" pin="0"/><net_sink comp="232" pin=7"/></net>

<net id="256"><net_src comp="98" pin="0"/><net_sink comp="232" pin=8"/></net>

<net id="257"><net_src comp="80" pin="0"/><net_sink comp="232" pin=9"/></net>

<net id="258"><net_src comp="82" pin="0"/><net_sink comp="232" pin=10"/></net>

<net id="259"><net_src comp="84" pin="0"/><net_sink comp="232" pin=11"/></net>

<net id="260"><net_src comp="54" pin="0"/><net_sink comp="232" pin=12"/></net>

<net id="261"><net_src comp="74" pin="0"/><net_sink comp="232" pin=13"/></net>

<net id="280"><net_src comp="106" pin="0"/><net_sink comp="262" pin=0"/></net>

<net id="281"><net_src comp="6" pin="0"/><net_sink comp="262" pin=1"/></net>

<net id="282"><net_src comp="8" pin="0"/><net_sink comp="262" pin=2"/></net>

<net id="283"><net_src comp="10" pin="0"/><net_sink comp="262" pin=3"/></net>

<net id="284"><net_src comp="12" pin="0"/><net_sink comp="262" pin=4"/></net>

<net id="285"><net_src comp="14" pin="0"/><net_sink comp="262" pin=5"/></net>

<net id="286"><net_src comp="16" pin="0"/><net_sink comp="262" pin=6"/></net>

<net id="287"><net_src comp="58" pin="0"/><net_sink comp="262" pin=7"/></net>

<net id="288"><net_src comp="60" pin="0"/><net_sink comp="262" pin=8"/></net>

<net id="289"><net_src comp="62" pin="0"/><net_sink comp="262" pin=9"/></net>

<net id="290"><net_src comp="64" pin="0"/><net_sink comp="262" pin=10"/></net>

<net id="291"><net_src comp="66" pin="0"/><net_sink comp="262" pin=11"/></net>

<net id="292"><net_src comp="68" pin="0"/><net_sink comp="262" pin=12"/></net>

<net id="293"><net_src comp="70" pin="0"/><net_sink comp="262" pin=13"/></net>

<net id="294"><net_src comp="72" pin="0"/><net_sink comp="262" pin=14"/></net>

<net id="295"><net_src comp="74" pin="0"/><net_sink comp="262" pin=15"/></net>

<net id="310"><net_src comp="108" pin="0"/><net_sink comp="296" pin=0"/></net>

<net id="311"><net_src comp="76" pin="0"/><net_sink comp="296" pin=1"/></net>

<net id="312"><net_src comp="78" pin="0"/><net_sink comp="296" pin=2"/></net>

<net id="313"><net_src comp="72" pin="0"/><net_sink comp="296" pin=3"/></net>

<net id="314"><net_src comp="80" pin="0"/><net_sink comp="296" pin=4"/></net>

<net id="315"><net_src comp="82" pin="0"/><net_sink comp="296" pin=5"/></net>

<net id="316"><net_src comp="84" pin="0"/><net_sink comp="296" pin=6"/></net>

<net id="317"><net_src comp="86" pin="0"/><net_sink comp="296" pin=7"/></net>

<net id="318"><net_src comp="88" pin="0"/><net_sink comp="296" pin=8"/></net>

<net id="319"><net_src comp="66" pin="0"/><net_sink comp="296" pin=9"/></net>

<net id="320"><net_src comp="68" pin="0"/><net_sink comp="296" pin=10"/></net>

<net id="321"><net_src comp="70" pin="0"/><net_sink comp="296" pin=11"/></net>

<net id="332"><net_src comp="110" pin="0"/><net_sink comp="322" pin=0"/></net>

<net id="333"><net_src comp="32" pin="0"/><net_sink comp="322" pin=1"/></net>

<net id="334"><net_src comp="90" pin="0"/><net_sink comp="322" pin=2"/></net>

<net id="335"><net_src comp="92" pin="0"/><net_sink comp="322" pin=3"/></net>

<net id="336"><net_src comp="52" pin="0"/><net_sink comp="322" pin=4"/></net>

<net id="337"><net_src comp="94" pin="0"/><net_sink comp="322" pin=5"/></net>

<net id="338"><net_src comp="96" pin="0"/><net_sink comp="322" pin=6"/></net>

<net id="339"><net_src comp="98" pin="0"/><net_sink comp="322" pin=7"/></net>

</net_list>

</model> 
---------------- Datapath Model END ------------------

* FSMD analyzer results:
  - Output states:
	Port: m_axis_V_data_V | {7 }
	Port: m_axis_V_keep_V | {7 }
	Port: m_axis_V_last_V | {7 }
	Port: cics_writeLastOne | {1 }
	Port: cics_prevWord_data_V | {2 }
	Port: cics_prevWord_keep_V | {2 }
	Port: cics_prevWord_last_V | {2 }
	Port: packageBuffer1_V | {2 }
	Port: cics_computeCs | {1 }
	Port: cics_sums_V_2 | {1 }
	Port: cics_sums_V_0 | {1 }
	Port: cics_sums_V_3 | {1 }
	Port: cics_sums_V_1 | {1 }
	Port: icmpChecksum_V | {2 }
	Port: icmpType_V | {1 }
	Port: icmpCode_V | {1 }
	Port: cics_state_V | {1 }
	Port: validFifo_V | {2 }
	Port: checksumStreams_V_V_s | {2 }
	Port: cics_wordCount_V | {2 }
	Port: udpState | {2 }
	Port: ipWordCounter_V | {2 }
	Port: streamSource_V_1 | {2 }
	Port: udpChecksum_V | {2 }
	Port: udpPort2addIpHeader_8 | {2 }
	Port: udpPort2addIpHeader_1 | {2 }
	Port: udpPort2addIpHeader_6 | {2 }
	Port: udpPort2addIpHeader_7 | {2 }
	Port: checksumStreams_V_V_1 | {2 }
	Port: addIpState | {3 }
	Port: tempWord_data_V | {3 }
	Port: dataStreams_V_data_V_1 | {3 }
	Port: dataStreams_V_keep_V_1 | {3 }
	Port: dataStreams_V_last_V_1 | {3 }
	Port: tempWord_keep_V | {3 }
	Port: sourceIP_V | {3 }
	Port: d_isFirstWord | {3 }
	Port: d_drop | {3 }
	Port: dataStreams_V_data_V | {3 }
	Port: dataStreams_V_keep_V | {3 }
	Port: dataStreams_V_last_V | {3 }
	Port: ic_wordCount_V | {5 }
	Port: streamSource_V | {5 }
 - Input state : 
	Port: icmp_server : s_axis_V_data_V | {1 }
	Port: icmp_server : s_axis_V_keep_V | {1 }
	Port: icmp_server : s_axis_V_last_V | {1 }
	Port: icmp_server : udpIn_V_data_V | {2 }
	Port: icmp_server : udpIn_V_keep_V | {2 }
	Port: icmp_server : udpIn_V_last_V | {2 }
	Port: icmp_server : ttlIn_V_data_V | {2 }
	Port: icmp_server : ttlIn_V_keep_V | {2 }
	Port: icmp_server : ttlIn_V_last_V | {2 }
	Port: icmp_server : cics_writeLastOne | {1 }
	Port: icmp_server : cics_prevWord_data_V | {1 }
	Port: icmp_server : cics_prevWord_keep_V | {2 }
	Port: icmp_server : cics_prevWord_last_V | {2 }
	Port: icmp_server : packageBuffer1_V | {3 }
	Port: icmp_server : cics_computeCs | {1 }
	Port: icmp_server : cics_sums_V_2 | {1 }
	Port: icmp_server : cics_sums_V_0 | {1 }
	Port: icmp_server : cics_sums_V_3 | {1 }
	Port: icmp_server : cics_sums_V_1 | {1 }
	Port: icmp_server : icmpChecksum_V | {2 }
	Port: icmp_server : icmpType_V | {1 }
	Port: icmp_server : icmpCode_V | {1 }
	Port: icmp_server : cics_state_V | {1 }
	Port: icmp_server : validFifo_V | {3 }
	Port: icmp_server : checksumStreams_V_V_s | {5 }
	Port: icmp_server : cics_wordCount_V | {1 }
	Port: icmp_server : udpState | {2 }
	Port: icmp_server : ipWordCounter_V | {2 }
	Port: icmp_server : streamSource_V_1 | {2 }
	Port: icmp_server : udpChecksum_V | {2 }
	Port: icmp_server : udpPort2addIpHeader_8 | {3 }
	Port: icmp_server : udpPort2addIpHeader_1 | {3 }
	Port: icmp_server : udpPort2addIpHeader_6 | {3 }
	Port: icmp_server : udpPort2addIpHeader_7 | {3 }
	Port: icmp_server : checksumStreams_V_V_1 | {5 }
	Port: icmp_server : addIpState | {3 }
	Port: icmp_server : tempWord_data_V | {3 }
	Port: icmp_server : dataStreams_V_data_V_1 | {5 }
	Port: icmp_server : dataStreams_V_keep_V_1 | {5 }
	Port: icmp_server : dataStreams_V_last_V_1 | {5 }
	Port: icmp_server : tempWord_keep_V | {3 }
	Port: icmp_server : sourceIP_V | {3 }
	Port: icmp_server : d_isFirstWord | {3 }
	Port: icmp_server : d_drop | {3 }
	Port: icmp_server : dataStreams_V_data_V | {5 }
	Port: icmp_server : dataStreams_V_keep_V | {5 }
	Port: icmp_server : dataStreams_V_last_V | {5 }
	Port: icmp_server : ic_wordCount_V | {5 }
	Port: icmp_server : streamSource_V | {4 }
  - Chain level:
	State 1
	State 2
	State 3
	State 4
	State 5
	State 6
	State 7
	State 8


============================================================
+ Verbose Summary: Datapath Resource usage 
============================================================

* Functional unit list:
|----------|----------------------------------------|---------|---------|---------|
| Operation|             Functional Unit            |  Delay  |    FF   |   LUT   |
|----------|----------------------------------------|---------|---------|---------|
|          |     grp_check_icmp_checksum_fu_188     |  3.6295 |   327   |   925   |
|          |        grp_insertChecksum_fu_232       | 5.81025 |   501   |   136   |
|   call   | call_ln444_udpPortUnreachable18_fu_262 | 5.44425 |   155   |   367   |
|          |   call_ln445_udpAddIpHeader186_fu_296  | 5.53575 |    9    |    94   |
|          |        call_ln446_dropper_fu_322       |  1.769  |    3    |    15   |
|----------|----------------------------------------|---------|---------|---------|
|   Total  |                                        | 22.1887 |   995   |   1537  |
|----------|----------------------------------------|---------|---------|---------|

Memories:
N/A

* Register list:
N/A

* Multiplexer (MUX) list: 
|--------|------|------|------|--------|
|  Comp  |  Pin | Size |  BW  | S x BW |
|--------|------|------|------|--------|
|  Total |      |      |      |    0   |
|--------|------|------|------|--------|



* Summary:
+-----------+--------+--------+--------+
|           |  Delay |   FF   |   LUT  |
+-----------+--------+--------+--------+
|  Function |   22   |   995  |  1537  |
|   Memory  |    -   |    -   |    -   |
|Multiplexer|    -   |    -   |    -   |
|  Register |    -   |    -   |    -   |
+-----------+--------+--------+--------+
|   Total   |   22   |   995  |  1537  |
+-----------+--------+--------+--------+
