

================================================================
== Vivado HLS Report for 'udpPortUnreachable18'
================================================================
* Date:           Sat Dec 12 19:20:49 2020

* Version:        2019.2.1 (Build 2724168 on Thu Dec 05 05:19:09 MST 2019)
* Project:        icmp_server_prj
* Solution:       solution1
* Product family: zynq
* Target device:  xc7z020-clg400-1


================================================================
== Performance Estimates
================================================================
+ Timing: 
    * Summary: 
    +--------+---------+-----------+------------+
    |  Clock |  Target | Estimated | Uncertainty|
    +--------+---------+-----------+------------+
    |ap_clk  | 6.40 ns | 10.009 ns |   0.80 ns  |
    +--------+---------+-----------+------------+

+ Latency: 
    * Summary: 
    +---------+---------+----------+----------+-----+-----+----------+
    |  Latency (cycles) |  Latency (absolute) |  Interval | Pipeline |
    |   min   |   max   |    min   |    max   | min | max |   Type   |
    +---------+---------+----------+----------+-----+-----+----------+
    |        0|        0|   0 ns   |   0 ns   |    1|    1| function |
    +---------+---------+----------+----------+-----+-----+----------+

    + Detail: 
        * Instance: 
        N/A

        * Loop: 
        N/A

============================================================
+ Verbose Summary: Synthesis Manager
============================================================
InlineROM: 1
ExposeGlobal: 0
============================================================
+ Verbose Summary: CDFG Model
============================================================
IsTopModel: 0
ResetActiveHigh: 1
IsCombinational: 2
IsDatapathOnly: 0
HasWiredReturn: 1
HasMFsm: 2
HasVarLatency: 0
IsPipeline: 1
IsRtlPipelined: 0
IsInstanceOverlapped: 0
IsDontTouch: 0
HasImplIP: 0
IsGatedGlobalClock: 0

+ Individual pipeline summary: 
  * Pipeline-0: initiation interval (II) = 1, depth = 1


============================================================
+ Verbose Summary: Schedule
============================================================
* Number of FSM states : 1
* Pipeline : 1
  Pipeline-0 : II = 1, D = 1, States = { 1 }
* Dataflow Pipeline: 0

* FSM state transitions: 
1 --> 

* FSM state operations: 

State 1 <SV = 0> <Delay = 10.0>
ST_1 : Operation 2 [1/1] (0.00ns)   --->   "call void (...)* @_ssdm_op_SpecInterface(i16* @checksumStreams_V_V_1, [8 x i8]* @ap_fifo_str, i32 0, i32 0, [1 x i8]* @p_str, i32 0, i32 0, [1 x i8]* @p_str, [1 x i8]* @p_str, [1 x i8]* @p_str, i32 2, i32 2, i32 16, i32 16, [1 x i8]* @p_str, [1 x i8]* @p_str)"   --->   Operation 2 'specinterface' <Predicate = true> <Delay = 0.00>
ST_1 : Operation 3 [1/1] (0.00ns)   --->   "call void (...)* @_ssdm_op_SpecInterface(i64* @udpPort2addIpHeader_8, [8 x i8]* @ap_fifo_str, i32 0, i32 0, [1 x i8]* @p_str, i32 0, i32 0, [1 x i8]* @p_str, [1 x i8]* @p_str, [1 x i8]* @p_str, i32 2, i32 2, i32 16, i32 16, [1 x i8]* @p_str, [1 x i8]* @p_str)"   --->   Operation 3 'specinterface' <Predicate = true> <Delay = 0.00>
ST_1 : Operation 4 [1/1] (0.00ns)   --->   "call void (...)* @_ssdm_op_SpecInterface(i8* @udpPort2addIpHeader_1, [8 x i8]* @ap_fifo_str, i32 0, i32 0, [1 x i8]* @p_str, i32 0, i32 0, [1 x i8]* @p_str, [1 x i8]* @p_str, [1 x i8]* @p_str, i32 2, i32 2, i32 16, i32 16, [1 x i8]* @p_str, [1 x i8]* @p_str)"   --->   Operation 4 'specinterface' <Predicate = true> <Delay = 0.00>
ST_1 : Operation 5 [1/1] (0.00ns)   --->   "call void (...)* @_ssdm_op_SpecInterface(i1* @udpPort2addIpHeader_6, [8 x i8]* @ap_fifo_str, i32 0, i32 0, [1 x i8]* @p_str, i32 0, i32 0, [1 x i8]* @p_str, [1 x i8]* @p_str, [1 x i8]* @p_str, i32 2, i32 2, i32 16, i32 16, [1 x i8]* @p_str, [1 x i8]* @p_str)"   --->   Operation 5 'specinterface' <Predicate = true> <Delay = 0.00>
ST_1 : Operation 6 [1/1] (0.00ns)   --->   "call void (...)* @_ssdm_op_SpecInterface(i64* @udpPort2addIpHeader_7, [8 x i8]* @ap_fifo_str, i32 0, i32 0, [1 x i8]* @p_str, i32 0, i32 0, [1 x i8]* @p_str, [1 x i8]* @p_str, [1 x i8]* @p_str, i32 2, i32 2, i32 16, i32 16, [1 x i8]* @p_str, [1 x i8]* @p_str)"   --->   Operation 6 'specinterface' <Predicate = true> <Delay = 0.00>
ST_1 : Operation 7 [1/1] (0.00ns)   --->   "call void (...)* @_ssdm_op_SpecInterface(i64* %ttlIn_V_data_V, i8* %ttlIn_V_keep_V, i1* %ttlIn_V_last_V, [5 x i8]* @p_str4, i32 1, i32 1, [5 x i8]* @p_str5, i32 0, i32 0, [1 x i8]* @p_str, [1 x i8]* @p_str, [1 x i8]* @p_str, i32 0, i32 0, i32 0, i32 0, [6 x i8]* @p_str8, [1 x i8]* @p_str) nounwind"   --->   Operation 7 'specinterface' <Predicate = true> <Delay = 0.00>
ST_1 : Operation 8 [1/1] (0.00ns)   --->   "call void (...)* @_ssdm_op_SpecInterface(i64* %udpIn_V_data_V, i8* %udpIn_V_keep_V, i1* %udpIn_V_last_V, [5 x i8]* @p_str4, i32 1, i32 1, [5 x i8]* @p_str5, i32 0, i32 0, [1 x i8]* @p_str, [1 x i8]* @p_str, [1 x i8]* @p_str, i32 0, i32 0, i32 0, i32 0, [6 x i8]* @p_str7, [1 x i8]* @p_str) nounwind"   --->   Operation 8 'specinterface' <Predicate = true> <Delay = 0.00>
ST_1 : Operation 9 [1/1] (0.00ns)   --->   "call void (...)* @_ssdm_op_SpecPipeline(i32 1, i32 1, i32 1, i32 0, [1 x i8]* @p_str) nounwind" [/home/paulrr2/Projects/ece527/babelsoc/fpga-network-stack/hls/icmp_server/icmp_server.cpp:172]   --->   Operation 9 'specpipeline' <Predicate = true> <Delay = 0.00>
ST_1 : Operation 10 [1/1] (0.00ns)   --->   "%tmp = call i1 @_ssdm_op_NbReadReq.axis.i64P.i8P.i1P(i64* %udpIn_V_data_V, i8* %udpIn_V_keep_V, i1* %udpIn_V_last_V, i32 1)" [/home/paulrr2/Projects/ece527/babelsoc/fpga-network-stack/hls/icmp_server/icmp_server.cpp:180]   --->   Operation 10 'nbreadreq' 'tmp' <Predicate = true> <Delay = 0.00> <Core = "AXI4Stream">   --->   Core 5 'AXI4Stream' <Latency = 0> <II = 1> <Delay = 1.00> <Adapter> <Opcode : >
ST_1 : Operation 11 [1/1] (0.00ns)   --->   "%tmp_1 = call i1 @_ssdm_op_NbReadReq.axis.i64P.i8P.i1P(i64* %ttlIn_V_data_V, i8* %ttlIn_V_keep_V, i1* %ttlIn_V_last_V, i32 1)" [/home/paulrr2/Projects/ece527/babelsoc/fpga-network-stack/hls/icmp_server/icmp_server.cpp:181]   --->   Operation 11 'nbreadreq' 'tmp_1' <Predicate = true> <Delay = 0.00> <Core = "AXI4Stream">   --->   Core 5 'AXI4Stream' <Latency = 0> <II = 1> <Delay = 1.00> <Adapter> <Opcode : >
ST_1 : Operation 12 [1/1] (0.00ns)   --->   "%udpState_load = load i2* @udpState, align 1" [/home/paulrr2/Projects/ece527/babelsoc/fpga-network-stack/hls/icmp_server/icmp_server.cpp:182]   --->   Operation 12 'load' 'udpState_load' <Predicate = true> <Delay = 0.00>
ST_1 : Operation 13 [1/1] (0.00ns)   --->   "%t_V = load i3* @ipWordCounter_V, align 1" [/home/paulrr2/Projects/ece527/babelsoc/fpga-network-stack/hls/icmp_server/icmp_server.cpp:210]   --->   Operation 13 'load' 't_V' <Predicate = true> <Delay = 0.00>
ST_1 : Operation 14 [1/1] (0.00ns)   --->   "%streamSource_V_1_loa = load i1* @streamSource_V_1, align 1" [/home/paulrr2/Projects/ece527/babelsoc/fpga-network-stack/hls/icmp_server/icmp_server.cpp:201]   --->   Operation 14 'load' 'streamSource_V_1_loa' <Predicate = true> <Delay = 0.00>
ST_1 : Operation 15 [1/1] (0.00ns)   --->   "%udpChecksum_V_load = load i20* @udpChecksum_V, align 4" [/home/paulrr2/Projects/ece527/babelsoc/fpga-network-stack/hls/icmp_server/icmp_server.cpp:207]   --->   Operation 15 'load' 'udpChecksum_V_load' <Predicate = true> <Delay = 0.00>
ST_1 : Operation 16 [1/1] (0.00ns)   --->   "%trunc_ln182 = trunc i20 %udpChecksum_V_load to i16" [/home/paulrr2/Projects/ece527/babelsoc/fpga-network-stack/hls/icmp_server/icmp_server.cpp:182]   --->   Operation 16 'trunc' 'trunc_ln182' <Predicate = true> <Delay = 0.00>
ST_1 : Operation 17 [1/1] (1.30ns)   --->   "switch i2 %udpState_load, label %udpPortUnreachable185.exit [
    i2 0, label %0
    i2 1, label %6
    i2 -2, label %15
    i2 -1, label %21
  ]" [/home/paulrr2/Projects/ece527/babelsoc/fpga-network-stack/hls/icmp_server/icmp_server.cpp:182]   --->   Operation 17 'switch' <Predicate = true> <Delay = 1.30>
ST_1 : Operation 18 [1/1] (0.00ns)   --->   "%tmp_2 = call i1 @_ssdm_op_NbWriteReq.ap_fifo.i16P(i16* @checksumStreams_V_V_1, i32 1)" [/home/paulrr2/Projects/ece527/babelsoc/fpga-network-stack/hls/icmp_server/icmp_server.cpp:230]   --->   Operation 18 'nbwritereq' 'tmp_2' <Predicate = (udpState_load == 3)> <Delay = 0.00> <Core = "FIFO_SRL">   --->   Core 36 'FIFO_SRL' <Latency = 0> <II = 1> <Delay = 3.63> <Storage> <Opcode : 'read' 'write' 'nbread' 'nbwrite'> <Ports = 0> <Width = 64> <Depth = 0> <FIFO>
ST_1 : Operation 19 [1/1] (0.00ns)   --->   "br i1 %tmp_2, label %_ZrsILi20ELb0EEN11ap_int_baseIXT_EXT0_EE5RTypeIXT_EXT0_EE4arg1ERKS1_i.exit6.i, label %._crit_edge19.i" [/home/paulrr2/Projects/ece527/babelsoc/fpga-network-stack/hls/icmp_server/icmp_server.cpp:230]   --->   Operation 19 'br' <Predicate = (udpState_load == 3)> <Delay = 0.00>
ST_1 : Operation 20 [1/1] (0.00ns)   --->   "%zext_ln214 = zext i16 %trunc_ln182 to i17" [/home/paulrr2/Projects/ece527/babelsoc/fpga-network-stack/hls/icmp_server/icmp_server.cpp:231]   --->   Operation 20 'zext' 'zext_ln214' <Predicate = (udpState_load == 3 & tmp_2)> <Delay = 0.00>
ST_1 : Operation 21 [1/1] (0.00ns)   --->   "%tmp_7 = call i4 @_ssdm_op_PartSelect.i4.i20.i32.i32(i20 %udpChecksum_V_load, i32 16, i32 19)" [/home/paulrr2/Projects/ece527/babelsoc/fpga-network-stack/hls/icmp_server/icmp_server.cpp:231]   --->   Operation 21 'partselect' 'tmp_7' <Predicate = (udpState_load == 3 & tmp_2)> <Delay = 0.00>
ST_1 : Operation 22 [1/1] (0.00ns)   --->   "%zext_ln1503 = zext i4 %tmp_7 to i17" [/home/paulrr2/Projects/ece527/babelsoc/fpga-network-stack/hls/icmp_server/icmp_server.cpp:231]   --->   Operation 22 'zext' 'zext_ln1503' <Predicate = (udpState_load == 3 & tmp_2)> <Delay = 0.00>
ST_1 : Operation 23 [1/1] (2.07ns)   --->   "%add_ln214 = add i17 %zext_ln214, %zext_ln1503" [/home/paulrr2/Projects/ece527/babelsoc/fpga-network-stack/hls/icmp_server/icmp_server.cpp:231]   --->   Operation 23 'add' 'add_ln214' <Predicate = (udpState_load == 3 & tmp_2)> <Delay = 2.07> <Core = "AddSub">   --->   Core 14 'AddSub' <Latency = 0> <II = 1> <Delay = 1.65> <FuncUnit> <Opcode : 'add' 'sub'> <InPorts = 2> <OutPorts = 1>
ST_1 : Operation 24 [1/1] (0.00ns)   --->   "%zext_ln214_3 = zext i4 %tmp_7 to i16" [/home/paulrr2/Projects/ece527/babelsoc/fpga-network-stack/hls/icmp_server/icmp_server.cpp:232]   --->   Operation 24 'zext' 'zext_ln214_3' <Predicate = (udpState_load == 3 & tmp_2)> <Delay = 0.00>
ST_1 : Operation 25 [1/1] (2.07ns)   --->   "%add_ln214_1 = add i16 %trunc_ln182, %zext_ln214_3" [/home/paulrr2/Projects/ece527/babelsoc/fpga-network-stack/hls/icmp_server/icmp_server.cpp:232]   --->   Operation 25 'add' 'add_ln214_1' <Predicate = (udpState_load == 3 & tmp_2)> <Delay = 2.07> <Core = "AddSub">   --->   Core 14 'AddSub' <Latency = 0> <II = 1> <Delay = 1.65> <FuncUnit> <Opcode : 'add' 'sub'> <InPorts = 2> <OutPorts = 1>
ST_1 : Operation 26 [1/1] (0.00ns)   --->   "%zext_ln214_1 = zext i16 %add_ln214_1 to i17" [/home/paulrr2/Projects/ece527/babelsoc/fpga-network-stack/hls/icmp_server/icmp_server.cpp:232]   --->   Operation 26 'zext' 'zext_ln214_1' <Predicate = (udpState_load == 3 & tmp_2)> <Delay = 0.00>
ST_1 : Operation 27 [1/1] (0.00ns)   --->   "%tmp_8 = call i1 @_ssdm_op_BitSelect.i1.i17.i32(i17 %add_ln214, i32 16)" [/home/paulrr2/Projects/ece527/babelsoc/fpga-network-stack/hls/icmp_server/icmp_server.cpp:232]   --->   Operation 27 'bitselect' 'tmp_8' <Predicate = (udpState_load == 3 & tmp_2)> <Delay = 0.00>
ST_1 : Operation 28 [1/1] (0.00ns)   --->   "%r_V = zext i1 %tmp_8 to i17" [/home/paulrr2/Projects/ece527/babelsoc/fpga-network-stack/hls/icmp_server/icmp_server.cpp:232]   --->   Operation 28 'zext' 'r_V' <Predicate = (udpState_load == 3 & tmp_2)> <Delay = 0.00>
ST_1 : Operation 29 [1/1] (2.07ns)   --->   "%add_ln214_2 = add i17 %zext_ln214_1, %r_V" [/home/paulrr2/Projects/ece527/babelsoc/fpga-network-stack/hls/icmp_server/icmp_server.cpp:232]   --->   Operation 29 'add' 'add_ln214_2' <Predicate = (udpState_load == 3 & tmp_2)> <Delay = 2.07> <Core = "AddSub">   --->   Core 14 'AddSub' <Latency = 0> <II = 1> <Delay = 1.65> <FuncUnit> <Opcode : 'add' 'sub'> <InPorts = 2> <OutPorts = 1>
ST_1 : Operation 30 [1/1] (0.00ns)   --->   "%zext_ln214_2 = zext i17 %add_ln214_2 to i20" [/home/paulrr2/Projects/ece527/babelsoc/fpga-network-stack/hls/icmp_server/icmp_server.cpp:232]   --->   Operation 30 'zext' 'zext_ln214_2' <Predicate = (udpState_load == 3 & tmp_2)> <Delay = 0.00>
ST_1 : Operation 31 [1/1] (1.00ns)   --->   "%r_V_2 = xor i20 %zext_ln214_2, -1" [/home/paulrr2/Projects/ece527/babelsoc/fpga-network-stack/hls/icmp_server/icmp_server.cpp:233]   --->   Operation 31 'xor' 'r_V_2' <Predicate = (udpState_load == 3 & tmp_2)> <Delay = 1.00> <Core = "LogicGate">   --->   Core 27 'LogicGate' <Latency = 0> <II = 1> <Delay = 0.97> <FuncUnit> <Opcode : 'and' 'or' 'xor'> <InPorts = 2> <OutPorts = 1>
ST_1 : Operation 32 [1/1] (1.86ns)   --->   "store i20 %r_V_2, i20* @udpChecksum_V, align 4" [/home/paulrr2/Projects/ece527/babelsoc/fpga-network-stack/hls/icmp_server/icmp_server.cpp:233]   --->   Operation 32 'store' <Predicate = (udpState_load == 3 & tmp_2)> <Delay = 1.86>
ST_1 : Operation 33 [1/1] (0.00ns)   --->   "%tmp_V = trunc i20 %r_V_2 to i16" [/home/paulrr2/Projects/ece527/babelsoc/fpga-network-stack/hls/icmp_server/icmp_server.cpp:234]   --->   Operation 33 'trunc' 'tmp_V' <Predicate = (udpState_load == 3 & tmp_2)> <Delay = 0.00>
ST_1 : Operation 34 [1/1] (2.80ns)   --->   "call void @_ssdm_op_Write.ap_fifo.volatile.i16P(i16* @checksumStreams_V_V_1, i16 %tmp_V)" [/home/paulrr2/Projects/ece527/babelsoc/fpga-network-stack/hls/icmp_server/icmp_server.cpp:234]   --->   Operation 34 'write' <Predicate = (udpState_load == 3 & tmp_2)> <Delay = 2.80> <Core = "FIFO_SRL">   --->   Core 36 'FIFO_SRL' <Latency = 0> <II = 1> <Delay = 3.63> <Storage> <Opcode : 'read' 'write' 'nbread' 'nbwrite'> <Ports = 0> <Width = 64> <Depth = 0> <FIFO>
ST_1 : Operation 35 [1/1] (1.86ns)   --->   "store i2 0, i2* @udpState, align 1" [/home/paulrr2/Projects/ece527/babelsoc/fpga-network-stack/hls/icmp_server/icmp_server.cpp:235]   --->   Operation 35 'store' <Predicate = (udpState_load == 3 & tmp_2)> <Delay = 1.86>
ST_1 : Operation 36 [1/1] (0.00ns)   --->   "br label %._crit_edge19.i" [/home/paulrr2/Projects/ece527/babelsoc/fpga-network-stack/hls/icmp_server/icmp_server.cpp:236]   --->   Operation 36 'br' <Predicate = (udpState_load == 3 & tmp_2)> <Delay = 0.00>
ST_1 : Operation 37 [1/1] (0.00ns)   --->   "br label %udpPortUnreachable185.exit" [/home/paulrr2/Projects/ece527/babelsoc/fpga-network-stack/hls/icmp_server/icmp_server.cpp:237]   --->   Operation 37 'br' <Predicate = (udpState_load == 3)> <Delay = 0.00>
ST_1 : Operation 38 [1/1] (0.00ns) (grouped into LUT with out node or_ln217)   --->   "%xor_ln217 = xor i1 %streamSource_V_1_loa, true" [/home/paulrr2/Projects/ece527/babelsoc/fpga-network-stack/hls/icmp_server/icmp_server.cpp:217]   --->   Operation 38 'xor' 'xor_ln217' <Predicate = (udpState_load == 2)> <Delay = 0.00> <Core = "LogicGate">   --->   Core 27 'LogicGate' <Latency = 0> <II = 1> <Delay = 0.97> <FuncUnit> <Opcode : 'and' 'or' 'xor'> <InPorts = 2> <OutPorts = 1>
ST_1 : Operation 39 [1/1] (0.00ns) (grouped into LUT with out node or_ln217)   --->   "%and_ln217 = and i1 %tmp, %xor_ln217" [/home/paulrr2/Projects/ece527/babelsoc/fpga-network-stack/hls/icmp_server/icmp_server.cpp:217]   --->   Operation 39 'and' 'and_ln217' <Predicate = (udpState_load == 2)> <Delay = 0.00> <Core = "LogicGate">   --->   Core 27 'LogicGate' <Latency = 0> <II = 1> <Delay = 0.97> <FuncUnit> <Opcode : 'and' 'or' 'xor'> <InPorts = 2> <OutPorts = 1>
ST_1 : Operation 40 [1/1] (0.00ns) (grouped into LUT with out node or_ln217)   --->   "%and_ln217_1 = and i1 %streamSource_V_1_loa, %tmp_1" [/home/paulrr2/Projects/ece527/babelsoc/fpga-network-stack/hls/icmp_server/icmp_server.cpp:217]   --->   Operation 40 'and' 'and_ln217_1' <Predicate = (udpState_load == 2)> <Delay = 0.00> <Core = "LogicGate">   --->   Core 27 'LogicGate' <Latency = 0> <II = 1> <Delay = 0.97> <FuncUnit> <Opcode : 'and' 'or' 'xor'> <InPorts = 2> <OutPorts = 1>
ST_1 : Operation 41 [1/1] (0.97ns) (out node of the LUT)   --->   "%or_ln217 = or i1 %and_ln217, %and_ln217_1" [/home/paulrr2/Projects/ece527/babelsoc/fpga-network-stack/hls/icmp_server/icmp_server.cpp:217]   --->   Operation 41 'or' 'or_ln217' <Predicate = (udpState_load == 2)> <Delay = 0.97> <Core = "LogicGate">   --->   Core 27 'LogicGate' <Latency = 0> <II = 1> <Delay = 0.97> <FuncUnit> <Opcode : 'and' 'or' 'xor'> <InPorts = 2> <OutPorts = 1>
ST_1 : Operation 42 [1/1] (0.00ns)   --->   "br i1 %or_ln217, label %._crit_edge13.i, label %._crit_edge15.i" [/home/paulrr2/Projects/ece527/babelsoc/fpga-network-stack/hls/icmp_server/icmp_server.cpp:217]   --->   Operation 42 'br' <Predicate = (udpState_load == 2)> <Delay = 0.00>
ST_1 : Operation 43 [1/1] (0.00ns)   --->   "%tmp_5 = call i1 @_ssdm_op_NbWriteReq.ap_fifo.i64P.i8P.i1P(i64* @udpPort2addIpHeader_8, i8* @udpPort2addIpHeader_1, i1* @udpPort2addIpHeader_6, i32 1)" [/home/paulrr2/Projects/ece527/babelsoc/fpga-network-stack/hls/icmp_server/icmp_server.cpp:217]   --->   Operation 43 'nbwritereq' 'tmp_5' <Predicate = (udpState_load == 2 & or_ln217)> <Delay = 0.00> <Core = "FIFO_SRL">   --->   Core 36 'FIFO_SRL' <Latency = 0> <II = 1> <Delay = 3.63> <Storage> <Opcode : 'read' 'write' 'nbread' 'nbwrite'> <Ports = 0> <Width = 64> <Depth = 0> <FIFO>
ST_1 : Operation 44 [1/1] (0.00ns)   --->   "br i1 %tmp_5, label %16, label %._crit_edge15.i" [/home/paulrr2/Projects/ece527/babelsoc/fpga-network-stack/hls/icmp_server/icmp_server.cpp:217]   --->   Operation 44 'br' <Predicate = (udpState_load == 2 & or_ln217)> <Delay = 0.00>
ST_1 : Operation 45 [1/1] (0.00ns)   --->   "br i1 %streamSource_V_1_loa, label %18, label %17" [/home/paulrr2/Projects/ece527/babelsoc/fpga-network-stack/hls/icmp_server/icmp_server.cpp:219]   --->   Operation 45 'br' <Predicate = (udpState_load == 2 & or_ln217 & tmp_5)> <Delay = 0.00>
ST_1 : Operation 46 [1/1] (0.00ns)   --->   "%empty_30 = call { i64, i8, i1 } @_ssdm_op_Read.axis.volatile.i64P.i8P.i1P(i64* %udpIn_V_data_V, i8* %udpIn_V_keep_V, i1* %udpIn_V_last_V)" [/home/paulrr2/Projects/ece527/babelsoc/fpga-network-stack/hls/icmp_server/icmp_server.cpp:220]   --->   Operation 46 'read' 'empty_30' <Predicate = (udpState_load == 2 & or_ln217 & tmp_5 & !streamSource_V_1_loa)> <Delay = 0.00> <Core = "AXI4Stream">   --->   Core 5 'AXI4Stream' <Latency = 0> <II = 1> <Delay = 1.00> <Adapter> <Opcode : >
ST_1 : Operation 47 [1/1] (0.00ns)   --->   "%tmp_data_V_1 = extractvalue { i64, i8, i1 } %empty_30, 0" [/home/paulrr2/Projects/ece527/babelsoc/fpga-network-stack/hls/icmp_server/icmp_server.cpp:220]   --->   Operation 47 'extractvalue' 'tmp_data_V_1' <Predicate = (udpState_load == 2 & or_ln217 & tmp_5 & !streamSource_V_1_loa)> <Delay = 0.00>
ST_1 : Operation 48 [1/1] (0.00ns)   --->   "%tmp_keep_V_1 = extractvalue { i64, i8, i1 } %empty_30, 1" [/home/paulrr2/Projects/ece527/babelsoc/fpga-network-stack/hls/icmp_server/icmp_server.cpp:220]   --->   Operation 48 'extractvalue' 'tmp_keep_V_1' <Predicate = (udpState_load == 2 & or_ln217 & tmp_5 & !streamSource_V_1_loa)> <Delay = 0.00>
ST_1 : Operation 49 [1/1] (0.00ns)   --->   "%tmp_last_V_1 = extractvalue { i64, i8, i1 } %empty_30, 2" [/home/paulrr2/Projects/ece527/babelsoc/fpga-network-stack/hls/icmp_server/icmp_server.cpp:220]   --->   Operation 49 'extractvalue' 'tmp_last_V_1' <Predicate = (udpState_load == 2 & or_ln217 & tmp_5 & !streamSource_V_1_loa)> <Delay = 0.00>
ST_1 : Operation 50 [1/1] (1.76ns)   --->   "br label %19" [/home/paulrr2/Projects/ece527/babelsoc/fpga-network-stack/hls/icmp_server/icmp_server.cpp:220]   --->   Operation 50 'br' <Predicate = (udpState_load == 2 & or_ln217 & tmp_5 & !streamSource_V_1_loa)> <Delay = 1.76>
ST_1 : Operation 51 [1/1] (0.00ns)   --->   "%empty_31 = call { i64, i8, i1 } @_ssdm_op_Read.axis.volatile.i64P.i8P.i1P(i64* %ttlIn_V_data_V, i8* %ttlIn_V_keep_V, i1* %ttlIn_V_last_V)" [/home/paulrr2/Projects/ece527/babelsoc/fpga-network-stack/hls/icmp_server/icmp_server.cpp:222]   --->   Operation 51 'read' 'empty_31' <Predicate = (udpState_load == 2 & or_ln217 & tmp_5 & streamSource_V_1_loa)> <Delay = 0.00> <Core = "AXI4Stream">   --->   Core 5 'AXI4Stream' <Latency = 0> <II = 1> <Delay = 1.00> <Adapter> <Opcode : >
ST_1 : Operation 52 [1/1] (0.00ns)   --->   "%tmp_data_V = extractvalue { i64, i8, i1 } %empty_31, 0" [/home/paulrr2/Projects/ece527/babelsoc/fpga-network-stack/hls/icmp_server/icmp_server.cpp:222]   --->   Operation 52 'extractvalue' 'tmp_data_V' <Predicate = (udpState_load == 2 & or_ln217 & tmp_5 & streamSource_V_1_loa)> <Delay = 0.00>
ST_1 : Operation 53 [1/1] (0.00ns)   --->   "%tmp_keep_V = extractvalue { i64, i8, i1 } %empty_31, 1" [/home/paulrr2/Projects/ece527/babelsoc/fpga-network-stack/hls/icmp_server/icmp_server.cpp:222]   --->   Operation 53 'extractvalue' 'tmp_keep_V' <Predicate = (udpState_load == 2 & or_ln217 & tmp_5 & streamSource_V_1_loa)> <Delay = 0.00>
ST_1 : Operation 54 [1/1] (0.00ns)   --->   "%tmp_last_V = extractvalue { i64, i8, i1 } %empty_31, 2" [/home/paulrr2/Projects/ece527/babelsoc/fpga-network-stack/hls/icmp_server/icmp_server.cpp:222]   --->   Operation 54 'extractvalue' 'tmp_last_V' <Predicate = (udpState_load == 2 & or_ln217 & tmp_5 & streamSource_V_1_loa)> <Delay = 0.00>
ST_1 : Operation 55 [1/1] (1.76ns)   --->   "br label %19"   --->   Operation 55 'br' <Predicate = (udpState_load == 2 & or_ln217 & tmp_5 & streamSource_V_1_loa)> <Delay = 1.76>
ST_1 : Operation 56 [1/1] (0.00ns)   --->   "%tmp_last_V_4 = phi i1 [ %tmp_last_V, %18 ], [ %tmp_last_V_1, %17 ]"   --->   Operation 56 'phi' 'tmp_last_V_4' <Predicate = (udpState_load == 2 & or_ln217 & tmp_5)> <Delay = 0.00>
ST_1 : Operation 57 [1/1] (0.00ns)   --->   "%tmp_keep_V_4 = phi i8 [ %tmp_keep_V, %18 ], [ %tmp_keep_V_1, %17 ]"   --->   Operation 57 'phi' 'tmp_keep_V_4' <Predicate = (udpState_load == 2 & or_ln217 & tmp_5)> <Delay = 0.00>
ST_1 : Operation 58 [1/1] (0.00ns)   --->   "%p_Val2_6 = phi i64 [ %tmp_data_V, %18 ], [ %tmp_data_V_1, %17 ]"   --->   Operation 58 'phi' 'p_Val2_6' <Predicate = (udpState_load == 2 & or_ln217 & tmp_5)> <Delay = 0.00>
ST_1 : Operation 59 [1/1] (0.00ns)   --->   "%p_Result_3_i = call i16 @_ssdm_op_PartSelect.i16.i64.i32.i32(i64 %p_Val2_6, i32 48, i32 63)" [/home/paulrr2/Projects/ece527/babelsoc/fpga-network-stack/hls/icmp_server/icmp_server.cpp:223]   --->   Operation 59 'partselect' 'p_Result_3_i' <Predicate = (udpState_load == 2 & or_ln217 & tmp_5)> <Delay = 0.00>
ST_1 : Operation 60 [1/1] (0.00ns)   --->   "%p_Result_4_i = call i16 @_ssdm_op_PartSelect.i16.i64.i32.i32(i64 %p_Val2_6, i32 32, i32 47)" [/home/paulrr2/Projects/ece527/babelsoc/fpga-network-stack/hls/icmp_server/icmp_server.cpp:223]   --->   Operation 60 'partselect' 'p_Result_4_i' <Predicate = (udpState_load == 2 & or_ln217 & tmp_5)> <Delay = 0.00>
ST_1 : Operation 61 [1/1] (0.00ns)   --->   "%zext_ln209_1 = zext i16 %p_Result_3_i to i17" [/home/paulrr2/Projects/ece527/babelsoc/fpga-network-stack/hls/icmp_server/icmp_server.cpp:223]   --->   Operation 61 'zext' 'zext_ln209_1' <Predicate = (udpState_load == 2 & or_ln217 & tmp_5)> <Delay = 0.00>
ST_1 : Operation 62 [1/1] (0.00ns)   --->   "%zext_ln647 = zext i16 %p_Result_4_i to i17" [/home/paulrr2/Projects/ece527/babelsoc/fpga-network-stack/hls/icmp_server/icmp_server.cpp:223]   --->   Operation 62 'zext' 'zext_ln647' <Predicate = (udpState_load == 2 & or_ln217 & tmp_5)> <Delay = 0.00>
ST_1 : Operation 63 [1/1] (0.00ns)   --->   "%p_Result_5_i = call i16 @_ssdm_op_PartSelect.i16.i64.i32.i32(i64 %p_Val2_6, i32 16, i32 31)" [/home/paulrr2/Projects/ece527/babelsoc/fpga-network-stack/hls/icmp_server/icmp_server.cpp:223]   --->   Operation 63 'partselect' 'p_Result_5_i' <Predicate = (udpState_load == 2 & or_ln217 & tmp_5)> <Delay = 0.00>
ST_1 : Operation 64 [1/1] (0.00ns)   --->   "%zext_ln647_1 = zext i16 %p_Result_5_i to i17" [/home/paulrr2/Projects/ece527/babelsoc/fpga-network-stack/hls/icmp_server/icmp_server.cpp:223]   --->   Operation 64 'zext' 'zext_ln647_1' <Predicate = (udpState_load == 2 & or_ln217 & tmp_5)> <Delay = 0.00>
ST_1 : Operation 65 [1/1] (0.00ns)   --->   "%trunc_ln647 = trunc i64 %p_Val2_6 to i16" [/home/paulrr2/Projects/ece527/babelsoc/fpga-network-stack/hls/icmp_server/icmp_server.cpp:223]   --->   Operation 65 'trunc' 'trunc_ln647' <Predicate = (udpState_load == 2 & or_ln217 & tmp_5)> <Delay = 0.00>
ST_1 : Operation 66 [1/1] (0.00ns)   --->   "%zext_ln209_2 = zext i16 %trunc_ln647 to i17" [/home/paulrr2/Projects/ece527/babelsoc/fpga-network-stack/hls/icmp_server/icmp_server.cpp:223]   --->   Operation 66 'zext' 'zext_ln209_2' <Predicate = (udpState_load == 2 & or_ln217 & tmp_5)> <Delay = 0.00>
ST_1 : Operation 67 [1/1] (2.07ns)   --->   "%add_ln209 = add i17 %zext_ln647, %zext_ln209_1" [/home/paulrr2/Projects/ece527/babelsoc/fpga-network-stack/hls/icmp_server/icmp_server.cpp:223]   --->   Operation 67 'add' 'add_ln209' <Predicate = (udpState_load == 2 & or_ln217 & tmp_5)> <Delay = 2.07> <Core = "AddSub">   --->   Core 14 'AddSub' <Latency = 0> <II = 1> <Delay = 1.65> <FuncUnit> <Opcode : 'add' 'sub'> <InPorts = 2> <OutPorts = 1>
ST_1 : Operation 68 [1/1] (0.00ns)   --->   "%zext_ln209_3 = zext i17 %add_ln209 to i18" [/home/paulrr2/Projects/ece527/babelsoc/fpga-network-stack/hls/icmp_server/icmp_server.cpp:223]   --->   Operation 68 'zext' 'zext_ln209_3' <Predicate = (udpState_load == 2 & or_ln217 & tmp_5)> <Delay = 0.00>
ST_1 : Operation 69 [1/1] (2.07ns)   --->   "%add_ln209_1 = add i17 %zext_ln209_2, %zext_ln647_1" [/home/paulrr2/Projects/ece527/babelsoc/fpga-network-stack/hls/icmp_server/icmp_server.cpp:223]   --->   Operation 69 'add' 'add_ln209_1' <Predicate = (udpState_load == 2 & or_ln217 & tmp_5)> <Delay = 2.07> <Core = "AddSub">   --->   Core 14 'AddSub' <Latency = 0> <II = 1> <Delay = 1.65> <FuncUnit> <Opcode : 'add' 'sub'> <InPorts = 2> <OutPorts = 1>
ST_1 : Operation 70 [1/1] (0.00ns)   --->   "%zext_ln209_4 = zext i17 %add_ln209_1 to i18" [/home/paulrr2/Projects/ece527/babelsoc/fpga-network-stack/hls/icmp_server/icmp_server.cpp:223]   --->   Operation 70 'zext' 'zext_ln209_4' <Predicate = (udpState_load == 2 & or_ln217 & tmp_5)> <Delay = 0.00>
ST_1 : Operation 71 [1/1] (2.10ns)   --->   "%add_ln209_2 = add i18 %zext_ln209_3, %zext_ln209_4" [/home/paulrr2/Projects/ece527/babelsoc/fpga-network-stack/hls/icmp_server/icmp_server.cpp:223]   --->   Operation 71 'add' 'add_ln209_2' <Predicate = (udpState_load == 2 & or_ln217 & tmp_5)> <Delay = 2.10> <Core = "AddSub">   --->   Core 14 'AddSub' <Latency = 0> <II = 1> <Delay = 1.65> <FuncUnit> <Opcode : 'add' 'sub'> <InPorts = 2> <OutPorts = 1>
ST_1 : Operation 72 [1/1] (0.00ns)   --->   "%zext_ln209_5 = zext i18 %add_ln209_2 to i20" [/home/paulrr2/Projects/ece527/babelsoc/fpga-network-stack/hls/icmp_server/icmp_server.cpp:223]   --->   Operation 72 'zext' 'zext_ln209_5' <Predicate = (udpState_load == 2 & or_ln217 & tmp_5)> <Delay = 0.00>
ST_1 : Operation 73 [1/1] (2.19ns)   --->   "%add_ln209_3 = add i20 %zext_ln209_5, %udpChecksum_V_load" [/home/paulrr2/Projects/ece527/babelsoc/fpga-network-stack/hls/icmp_server/icmp_server.cpp:223]   --->   Operation 73 'add' 'add_ln209_3' <Predicate = (udpState_load == 2 & or_ln217 & tmp_5)> <Delay = 2.19> <Core = "AddSub">   --->   Core 14 'AddSub' <Latency = 0> <II = 1> <Delay = 1.65> <FuncUnit> <Opcode : 'add' 'sub'> <InPorts = 2> <OutPorts = 1>
ST_1 : Operation 74 [1/1] (1.86ns)   --->   "store i20 %add_ln209_3, i20* @udpChecksum_V, align 4" [/home/paulrr2/Projects/ece527/babelsoc/fpga-network-stack/hls/icmp_server/icmp_server.cpp:223]   --->   Operation 74 'store' <Predicate = (udpState_load == 2 & or_ln217 & tmp_5)> <Delay = 1.86>
ST_1 : Operation 75 [1/1] (2.80ns)   --->   "call void @_ssdm_op_Write.ap_fifo.volatile.i64P.i8P.i1P(i64* @udpPort2addIpHeader_8, i8* @udpPort2addIpHeader_1, i1* @udpPort2addIpHeader_6, i64 %p_Val2_6, i8 %tmp_keep_V_4, i1 %tmp_last_V_4)" [/home/paulrr2/Projects/ece527/babelsoc/fpga-network-stack/hls/icmp_server/icmp_server.cpp:224]   --->   Operation 75 'write' <Predicate = (udpState_load == 2 & or_ln217 & tmp_5)> <Delay = 2.80> <Core = "FIFO_SRL">   --->   Core 36 'FIFO_SRL' <Latency = 0> <II = 1> <Delay = 3.63> <Storage> <Opcode : 'read' 'write' 'nbread' 'nbwrite'> <Ports = 0> <Width = 64> <Depth = 0> <FIFO>
ST_1 : Operation 76 [1/1] (0.00ns)   --->   "br i1 %tmp_last_V_4, label %20, label %._crit_edge18.i" [/home/paulrr2/Projects/ece527/babelsoc/fpga-network-stack/hls/icmp_server/icmp_server.cpp:225]   --->   Operation 76 'br' <Predicate = (udpState_load == 2 & or_ln217 & tmp_5)> <Delay = 0.00>
ST_1 : Operation 77 [1/1] (1.86ns)   --->   "store i2 -1, i2* @udpState, align 1" [/home/paulrr2/Projects/ece527/babelsoc/fpga-network-stack/hls/icmp_server/icmp_server.cpp:226]   --->   Operation 77 'store' <Predicate = (udpState_load == 2 & or_ln217 & tmp_5 & tmp_last_V_4)> <Delay = 1.86>
ST_1 : Operation 78 [1/1] (0.00ns)   --->   "br label %._crit_edge18.i" [/home/paulrr2/Projects/ece527/babelsoc/fpga-network-stack/hls/icmp_server/icmp_server.cpp:226]   --->   Operation 78 'br' <Predicate = (udpState_load == 2 & or_ln217 & tmp_5 & tmp_last_V_4)> <Delay = 0.00>
ST_1 : Operation 79 [1/1] (0.00ns)   --->   "br label %._crit_edge15.i" [/home/paulrr2/Projects/ece527/babelsoc/fpga-network-stack/hls/icmp_server/icmp_server.cpp:227]   --->   Operation 79 'br' <Predicate = (udpState_load == 2 & or_ln217 & tmp_5)> <Delay = 0.00>
ST_1 : Operation 80 [1/1] (0.00ns)   --->   "br label %udpPortUnreachable185.exit" [/home/paulrr2/Projects/ece527/babelsoc/fpga-network-stack/hls/icmp_server/icmp_server.cpp:228]   --->   Operation 80 'br' <Predicate = (udpState_load == 2)> <Delay = 0.00>
ST_1 : Operation 81 [1/1] (0.00ns) (grouped into LUT with out node or_ln201)   --->   "%xor_ln201 = xor i1 %streamSource_V_1_loa, true" [/home/paulrr2/Projects/ece527/babelsoc/fpga-network-stack/hls/icmp_server/icmp_server.cpp:201]   --->   Operation 81 'xor' 'xor_ln201' <Predicate = (udpState_load == 1)> <Delay = 0.00> <Core = "LogicGate">   --->   Core 27 'LogicGate' <Latency = 0> <II = 1> <Delay = 0.97> <FuncUnit> <Opcode : 'and' 'or' 'xor'> <InPorts = 2> <OutPorts = 1>
ST_1 : Operation 82 [1/1] (0.00ns) (grouped into LUT with out node or_ln201)   --->   "%and_ln201 = and i1 %tmp, %xor_ln201" [/home/paulrr2/Projects/ece527/babelsoc/fpga-network-stack/hls/icmp_server/icmp_server.cpp:201]   --->   Operation 82 'and' 'and_ln201' <Predicate = (udpState_load == 1)> <Delay = 0.00> <Core = "LogicGate">   --->   Core 27 'LogicGate' <Latency = 0> <II = 1> <Delay = 0.97> <FuncUnit> <Opcode : 'and' 'or' 'xor'> <InPorts = 2> <OutPorts = 1>
ST_1 : Operation 83 [1/1] (0.00ns) (grouped into LUT with out node or_ln201)   --->   "%and_ln201_1 = and i1 %streamSource_V_1_loa, %tmp_1" [/home/paulrr2/Projects/ece527/babelsoc/fpga-network-stack/hls/icmp_server/icmp_server.cpp:201]   --->   Operation 83 'and' 'and_ln201_1' <Predicate = (udpState_load == 1)> <Delay = 0.00> <Core = "LogicGate">   --->   Core 27 'LogicGate' <Latency = 0> <II = 1> <Delay = 0.97> <FuncUnit> <Opcode : 'and' 'or' 'xor'> <InPorts = 2> <OutPorts = 1>
ST_1 : Operation 84 [1/1] (0.97ns) (out node of the LUT)   --->   "%or_ln201 = or i1 %and_ln201, %and_ln201_1" [/home/paulrr2/Projects/ece527/babelsoc/fpga-network-stack/hls/icmp_server/icmp_server.cpp:201]   --->   Operation 84 'or' 'or_ln201' <Predicate = (udpState_load == 1)> <Delay = 0.97> <Core = "LogicGate">   --->   Core 27 'LogicGate' <Latency = 0> <II = 1> <Delay = 0.97> <FuncUnit> <Opcode : 'and' 'or' 'xor'> <InPorts = 2> <OutPorts = 1>
ST_1 : Operation 85 [1/1] (0.00ns)   --->   "br i1 %or_ln201, label %._crit_edge7.i, label %._crit_edge9.i" [/home/paulrr2/Projects/ece527/babelsoc/fpga-network-stack/hls/icmp_server/icmp_server.cpp:201]   --->   Operation 85 'br' <Predicate = (udpState_load == 1)> <Delay = 0.00>
ST_1 : Operation 86 [1/1] (0.00ns)   --->   "%tmp_4 = call i1 @_ssdm_op_NbWriteReq.ap_fifo.i64P.i8P.i1P(i64* @udpPort2addIpHeader_8, i8* @udpPort2addIpHeader_1, i1* @udpPort2addIpHeader_6, i32 1)" [/home/paulrr2/Projects/ece527/babelsoc/fpga-network-stack/hls/icmp_server/icmp_server.cpp:201]   --->   Operation 86 'nbwritereq' 'tmp_4' <Predicate = (udpState_load == 1 & or_ln201)> <Delay = 0.00> <Core = "FIFO_SRL">   --->   Core 36 'FIFO_SRL' <Latency = 0> <II = 1> <Delay = 3.63> <Storage> <Opcode : 'read' 'write' 'nbread' 'nbwrite'> <Ports = 0> <Width = 64> <Depth = 0> <FIFO>
ST_1 : Operation 87 [1/1] (0.00ns)   --->   "br i1 %tmp_4, label %7, label %._crit_edge9.i" [/home/paulrr2/Projects/ece527/babelsoc/fpga-network-stack/hls/icmp_server/icmp_server.cpp:201]   --->   Operation 87 'br' <Predicate = (udpState_load == 1 & or_ln201)> <Delay = 0.00>
ST_1 : Operation 88 [1/1] (0.00ns)   --->   "%tmp_6 = call i1 @_ssdm_op_NbWriteReq.ap_fifo.i64P(i64* @udpPort2addIpHeader_7, i32 1)" [/home/paulrr2/Projects/ece527/babelsoc/fpga-network-stack/hls/icmp_server/icmp_server.cpp:201]   --->   Operation 88 'nbwritereq' 'tmp_6' <Predicate = (udpState_load == 1 & or_ln201 & tmp_4)> <Delay = 0.00> <Core = "FIFO_SRL">   --->   Core 36 'FIFO_SRL' <Latency = 0> <II = 1> <Delay = 3.63> <Storage> <Opcode : 'read' 'write' 'nbread' 'nbwrite'> <Ports = 0> <Width = 64> <Depth = 0> <FIFO>
ST_1 : Operation 89 [1/1] (0.00ns)   --->   "br i1 %tmp_6, label %8, label %._crit_edge9.i" [/home/paulrr2/Projects/ece527/babelsoc/fpga-network-stack/hls/icmp_server/icmp_server.cpp:201]   --->   Operation 89 'br' <Predicate = (udpState_load == 1 & or_ln201 & tmp_4)> <Delay = 0.00>
ST_1 : Operation 90 [1/1] (0.00ns)   --->   "br i1 %streamSource_V_1_loa, label %10, label %9" [/home/paulrr2/Projects/ece527/babelsoc/fpga-network-stack/hls/icmp_server/icmp_server.cpp:203]   --->   Operation 90 'br' <Predicate = (udpState_load == 1 & or_ln201 & tmp_4 & tmp_6)> <Delay = 0.00>
ST_1 : Operation 91 [1/1] (0.00ns)   --->   "%empty = call { i64, i8, i1 } @_ssdm_op_Read.axis.volatile.i64P.i8P.i1P(i64* %udpIn_V_data_V, i8* %udpIn_V_keep_V, i1* %udpIn_V_last_V)" [/home/paulrr2/Projects/ece527/babelsoc/fpga-network-stack/hls/icmp_server/icmp_server.cpp:204]   --->   Operation 91 'read' 'empty' <Predicate = (udpState_load == 1 & !streamSource_V_1_loa & or_ln201 & tmp_4 & tmp_6)> <Delay = 0.00> <Core = "AXI4Stream">   --->   Core 5 'AXI4Stream' <Latency = 0> <II = 1> <Delay = 1.00> <Adapter> <Opcode : >
ST_1 : Operation 92 [1/1] (0.00ns)   --->   "%tmp_data_V_5 = extractvalue { i64, i8, i1 } %empty, 0" [/home/paulrr2/Projects/ece527/babelsoc/fpga-network-stack/hls/icmp_server/icmp_server.cpp:204]   --->   Operation 92 'extractvalue' 'tmp_data_V_5' <Predicate = (udpState_load == 1 & !streamSource_V_1_loa & or_ln201 & tmp_4 & tmp_6)> <Delay = 0.00>
ST_1 : Operation 93 [1/1] (0.00ns)   --->   "%tmp_keep_V_3 = extractvalue { i64, i8, i1 } %empty, 1" [/home/paulrr2/Projects/ece527/babelsoc/fpga-network-stack/hls/icmp_server/icmp_server.cpp:204]   --->   Operation 93 'extractvalue' 'tmp_keep_V_3' <Predicate = (udpState_load == 1 & !streamSource_V_1_loa & or_ln201 & tmp_4 & tmp_6)> <Delay = 0.00>
ST_1 : Operation 94 [1/1] (0.00ns)   --->   "%tmp_last_V_3 = extractvalue { i64, i8, i1 } %empty, 2" [/home/paulrr2/Projects/ece527/babelsoc/fpga-network-stack/hls/icmp_server/icmp_server.cpp:204]   --->   Operation 94 'extractvalue' 'tmp_last_V_3' <Predicate = (udpState_load == 1 & !streamSource_V_1_loa & or_ln201 & tmp_4 & tmp_6)> <Delay = 0.00>
ST_1 : Operation 95 [1/1] (1.76ns)   --->   "br label %11" [/home/paulrr2/Projects/ece527/babelsoc/fpga-network-stack/hls/icmp_server/icmp_server.cpp:204]   --->   Operation 95 'br' <Predicate = (udpState_load == 1 & !streamSource_V_1_loa & or_ln201 & tmp_4 & tmp_6)> <Delay = 1.76>
ST_1 : Operation 96 [1/1] (0.00ns)   --->   "%empty_29 = call { i64, i8, i1 } @_ssdm_op_Read.axis.volatile.i64P.i8P.i1P(i64* %ttlIn_V_data_V, i8* %ttlIn_V_keep_V, i1* %ttlIn_V_last_V)" [/home/paulrr2/Projects/ece527/babelsoc/fpga-network-stack/hls/icmp_server/icmp_server.cpp:206]   --->   Operation 96 'read' 'empty_29' <Predicate = (udpState_load == 1 & streamSource_V_1_loa & or_ln201 & tmp_4 & tmp_6)> <Delay = 0.00> <Core = "AXI4Stream">   --->   Core 5 'AXI4Stream' <Latency = 0> <II = 1> <Delay = 1.00> <Adapter> <Opcode : >
ST_1 : Operation 97 [1/1] (0.00ns)   --->   "%tmp_data_V_4 = extractvalue { i64, i8, i1 } %empty_29, 0" [/home/paulrr2/Projects/ece527/babelsoc/fpga-network-stack/hls/icmp_server/icmp_server.cpp:206]   --->   Operation 97 'extractvalue' 'tmp_data_V_4' <Predicate = (udpState_load == 1 & streamSource_V_1_loa & or_ln201 & tmp_4 & tmp_6)> <Delay = 0.00>
ST_1 : Operation 98 [1/1] (0.00ns)   --->   "%tmp_keep_V_2 = extractvalue { i64, i8, i1 } %empty_29, 1" [/home/paulrr2/Projects/ece527/babelsoc/fpga-network-stack/hls/icmp_server/icmp_server.cpp:206]   --->   Operation 98 'extractvalue' 'tmp_keep_V_2' <Predicate = (udpState_load == 1 & streamSource_V_1_loa & or_ln201 & tmp_4 & tmp_6)> <Delay = 0.00>
ST_1 : Operation 99 [1/1] (0.00ns)   --->   "%tmp_last_V_2 = extractvalue { i64, i8, i1 } %empty_29, 2" [/home/paulrr2/Projects/ece527/babelsoc/fpga-network-stack/hls/icmp_server/icmp_server.cpp:206]   --->   Operation 99 'extractvalue' 'tmp_last_V_2' <Predicate = (udpState_load == 1 & streamSource_V_1_loa & or_ln201 & tmp_4 & tmp_6)> <Delay = 0.00>
ST_1 : Operation 100 [1/1] (1.76ns)   --->   "br label %11"   --->   Operation 100 'br' <Predicate = (udpState_load == 1 & streamSource_V_1_loa & or_ln201 & tmp_4 & tmp_6)> <Delay = 1.76>
ST_1 : Operation 101 [1/1] (0.00ns)   --->   "%tmp_last_V_5 = phi i1 [ %tmp_last_V_2, %10 ], [ %tmp_last_V_3, %9 ]"   --->   Operation 101 'phi' 'tmp_last_V_5' <Predicate = (udpState_load == 1 & or_ln201 & tmp_4 & tmp_6)> <Delay = 0.00>
ST_1 : Operation 102 [1/1] (0.00ns)   --->   "%tmp_keep_V_5 = phi i8 [ %tmp_keep_V_2, %10 ], [ %tmp_keep_V_3, %9 ]"   --->   Operation 102 'phi' 'tmp_keep_V_5' <Predicate = (udpState_load == 1 & or_ln201 & tmp_4 & tmp_6)> <Delay = 0.00>
ST_1 : Operation 103 [1/1] (0.00ns)   --->   "%p_Val2_5 = phi i64 [ %tmp_data_V_4, %10 ], [ %tmp_data_V_5, %9 ]"   --->   Operation 103 'phi' 'p_Val2_5' <Predicate = (udpState_load == 1 & or_ln201 & tmp_4 & tmp_6)> <Delay = 0.00>
ST_1 : Operation 104 [1/1] (0.00ns)   --->   "%p_Result_7_i = call i16 @_ssdm_op_PartSelect.i16.i64.i32.i32(i64 %p_Val2_5, i32 48, i32 63)" [/home/paulrr2/Projects/ece527/babelsoc/fpga-network-stack/hls/icmp_server/icmp_server.cpp:207]   --->   Operation 104 'partselect' 'p_Result_7_i' <Predicate = (udpState_load == 1 & or_ln201 & tmp_4 & tmp_6)> <Delay = 0.00>
ST_1 : Operation 105 [1/1] (0.00ns)   --->   "%p_Result_8_i = call i16 @_ssdm_op_PartSelect.i16.i64.i32.i32(i64 %p_Val2_5, i32 32, i32 47)" [/home/paulrr2/Projects/ece527/babelsoc/fpga-network-stack/hls/icmp_server/icmp_server.cpp:207]   --->   Operation 105 'partselect' 'p_Result_8_i' <Predicate = (udpState_load == 1 & or_ln201 & tmp_4 & tmp_6)> <Delay = 0.00>
ST_1 : Operation 106 [1/1] (0.00ns)   --->   "%zext_ln209_6 = zext i16 %p_Result_7_i to i17" [/home/paulrr2/Projects/ece527/babelsoc/fpga-network-stack/hls/icmp_server/icmp_server.cpp:207]   --->   Operation 106 'zext' 'zext_ln209_6' <Predicate = (udpState_load == 1 & or_ln201 & tmp_4 & tmp_6)> <Delay = 0.00>
ST_1 : Operation 107 [1/1] (0.00ns)   --->   "%zext_ln647_2 = zext i16 %p_Result_8_i to i17" [/home/paulrr2/Projects/ece527/babelsoc/fpga-network-stack/hls/icmp_server/icmp_server.cpp:207]   --->   Operation 107 'zext' 'zext_ln647_2' <Predicate = (udpState_load == 1 & or_ln201 & tmp_4 & tmp_6)> <Delay = 0.00>
ST_1 : Operation 108 [1/1] (0.00ns)   --->   "%p_Result_9_i = call i16 @_ssdm_op_PartSelect.i16.i64.i32.i32(i64 %p_Val2_5, i32 16, i32 31)" [/home/paulrr2/Projects/ece527/babelsoc/fpga-network-stack/hls/icmp_server/icmp_server.cpp:207]   --->   Operation 108 'partselect' 'p_Result_9_i' <Predicate = (udpState_load == 1 & or_ln201 & tmp_4 & tmp_6)> <Delay = 0.00>
ST_1 : Operation 109 [1/1] (0.00ns)   --->   "%zext_ln647_3 = zext i16 %p_Result_9_i to i17" [/home/paulrr2/Projects/ece527/babelsoc/fpga-network-stack/hls/icmp_server/icmp_server.cpp:207]   --->   Operation 109 'zext' 'zext_ln647_3' <Predicate = (udpState_load == 1 & or_ln201 & tmp_4 & tmp_6)> <Delay = 0.00>
ST_1 : Operation 110 [1/1] (0.00ns)   --->   "%trunc_ln647_1 = trunc i64 %p_Val2_5 to i16" [/home/paulrr2/Projects/ece527/babelsoc/fpga-network-stack/hls/icmp_server/icmp_server.cpp:207]   --->   Operation 110 'trunc' 'trunc_ln647_1' <Predicate = (udpState_load == 1 & or_ln201 & tmp_4 & tmp_6)> <Delay = 0.00>
ST_1 : Operation 111 [1/1] (0.00ns)   --->   "%zext_ln209_7 = zext i16 %trunc_ln647_1 to i17" [/home/paulrr2/Projects/ece527/babelsoc/fpga-network-stack/hls/icmp_server/icmp_server.cpp:207]   --->   Operation 111 'zext' 'zext_ln209_7' <Predicate = (udpState_load == 1 & or_ln201 & tmp_4 & tmp_6)> <Delay = 0.00>
ST_1 : Operation 112 [1/1] (2.07ns)   --->   "%add_ln209_4 = add i17 %zext_ln647_2, %zext_ln209_6" [/home/paulrr2/Projects/ece527/babelsoc/fpga-network-stack/hls/icmp_server/icmp_server.cpp:207]   --->   Operation 112 'add' 'add_ln209_4' <Predicate = (udpState_load == 1 & or_ln201 & tmp_4 & tmp_6)> <Delay = 2.07> <Core = "AddSub">   --->   Core 14 'AddSub' <Latency = 0> <II = 1> <Delay = 1.65> <FuncUnit> <Opcode : 'add' 'sub'> <InPorts = 2> <OutPorts = 1>
ST_1 : Operation 113 [1/1] (0.00ns)   --->   "%zext_ln209_8 = zext i17 %add_ln209_4 to i18" [/home/paulrr2/Projects/ece527/babelsoc/fpga-network-stack/hls/icmp_server/icmp_server.cpp:207]   --->   Operation 113 'zext' 'zext_ln209_8' <Predicate = (udpState_load == 1 & or_ln201 & tmp_4 & tmp_6)> <Delay = 0.00>
ST_1 : Operation 114 [1/1] (2.07ns)   --->   "%add_ln209_5 = add i17 %zext_ln209_7, %zext_ln647_3" [/home/paulrr2/Projects/ece527/babelsoc/fpga-network-stack/hls/icmp_server/icmp_server.cpp:207]   --->   Operation 114 'add' 'add_ln209_5' <Predicate = (udpState_load == 1 & or_ln201 & tmp_4 & tmp_6)> <Delay = 2.07> <Core = "AddSub">   --->   Core 14 'AddSub' <Latency = 0> <II = 1> <Delay = 1.65> <FuncUnit> <Opcode : 'add' 'sub'> <InPorts = 2> <OutPorts = 1>
ST_1 : Operation 115 [1/1] (0.00ns)   --->   "%zext_ln209_9 = zext i17 %add_ln209_5 to i18" [/home/paulrr2/Projects/ece527/babelsoc/fpga-network-stack/hls/icmp_server/icmp_server.cpp:207]   --->   Operation 115 'zext' 'zext_ln209_9' <Predicate = (udpState_load == 1 & or_ln201 & tmp_4 & tmp_6)> <Delay = 0.00>
ST_1 : Operation 116 [1/1] (2.10ns)   --->   "%add_ln209_6 = add i18 %zext_ln209_8, %zext_ln209_9" [/home/paulrr2/Projects/ece527/babelsoc/fpga-network-stack/hls/icmp_server/icmp_server.cpp:207]   --->   Operation 116 'add' 'add_ln209_6' <Predicate = (udpState_load == 1 & or_ln201 & tmp_4 & tmp_6)> <Delay = 2.10> <Core = "AddSub">   --->   Core 14 'AddSub' <Latency = 0> <II = 1> <Delay = 1.65> <FuncUnit> <Opcode : 'add' 'sub'> <InPorts = 2> <OutPorts = 1>
ST_1 : Operation 117 [1/1] (0.00ns)   --->   "%zext_ln209_10 = zext i18 %add_ln209_6 to i20" [/home/paulrr2/Projects/ece527/babelsoc/fpga-network-stack/hls/icmp_server/icmp_server.cpp:207]   --->   Operation 117 'zext' 'zext_ln209_10' <Predicate = (udpState_load == 1 & or_ln201 & tmp_4 & tmp_6)> <Delay = 0.00>
ST_1 : Operation 118 [1/1] (2.19ns)   --->   "%add_ln209_7 = add i20 %zext_ln209_10, %udpChecksum_V_load" [/home/paulrr2/Projects/ece527/babelsoc/fpga-network-stack/hls/icmp_server/icmp_server.cpp:207]   --->   Operation 118 'add' 'add_ln209_7' <Predicate = (udpState_load == 1 & or_ln201 & tmp_4 & tmp_6)> <Delay = 2.19> <Core = "AddSub">   --->   Core 14 'AddSub' <Latency = 0> <II = 1> <Delay = 1.65> <FuncUnit> <Opcode : 'add' 'sub'> <InPorts = 2> <OutPorts = 1>
ST_1 : Operation 119 [1/1] (1.86ns)   --->   "store i20 %add_ln209_7, i20* @udpChecksum_V, align 4" [/home/paulrr2/Projects/ece527/babelsoc/fpga-network-stack/hls/icmp_server/icmp_server.cpp:207]   --->   Operation 119 'store' <Predicate = (udpState_load == 1 & or_ln201 & tmp_4 & tmp_6)> <Delay = 1.86>
ST_1 : Operation 120 [1/1] (2.80ns)   --->   "call void @_ssdm_op_Write.ap_fifo.volatile.i64P.i8P.i1P(i64* @udpPort2addIpHeader_8, i8* @udpPort2addIpHeader_1, i1* @udpPort2addIpHeader_6, i64 %p_Val2_5, i8 %tmp_keep_V_5, i1 %tmp_last_V_5)" [/home/paulrr2/Projects/ece527/babelsoc/fpga-network-stack/hls/icmp_server/icmp_server.cpp:208]   --->   Operation 120 'write' <Predicate = (udpState_load == 1 & or_ln201 & tmp_4 & tmp_6)> <Delay = 2.80> <Core = "FIFO_SRL">   --->   Core 36 'FIFO_SRL' <Latency = 0> <II = 1> <Delay = 3.63> <Storage> <Opcode : 'read' 'write' 'nbread' 'nbwrite'> <Ports = 0> <Width = 64> <Depth = 0> <FIFO>
ST_1 : Operation 121 [1/1] (2.80ns)   --->   "call void @_ssdm_op_Write.ap_fifo.volatile.i64P(i64* @udpPort2addIpHeader_7, i64 %p_Val2_5)" [/home/paulrr2/Projects/ece527/babelsoc/fpga-network-stack/hls/icmp_server/icmp_server.cpp:209]   --->   Operation 121 'write' <Predicate = (udpState_load == 1 & or_ln201 & tmp_4 & tmp_6)> <Delay = 2.80> <Core = "FIFO_SRL">   --->   Core 36 'FIFO_SRL' <Latency = 0> <II = 1> <Delay = 3.63> <Storage> <Opcode : 'read' 'write' 'nbread' 'nbwrite'> <Ports = 0> <Width = 64> <Depth = 0> <FIFO>
ST_1 : Operation 122 [1/1] (1.13ns)   --->   "%icmp_ln879 = icmp eq i3 %t_V, 2" [/home/paulrr2/Projects/ece527/babelsoc/fpga-network-stack/hls/icmp_server/icmp_server.cpp:210]   --->   Operation 122 'icmp' 'icmp_ln879' <Predicate = (udpState_load == 1 & or_ln201 & tmp_4 & tmp_6)> <Delay = 1.13> <Core = "Cmp">   --->   Core 25 'Cmp' <Latency = 0> <II = 1> <Delay = 1.13> <FuncUnit> <Opcode : 'icmp'> <InPorts = 2> <OutPorts = 1>
ST_1 : Operation 123 [1/1] (0.00ns)   --->   "br i1 %icmp_ln879, label %12, label %13" [/home/paulrr2/Projects/ece527/babelsoc/fpga-network-stack/hls/icmp_server/icmp_server.cpp:210]   --->   Operation 123 'br' <Predicate = (udpState_load == 1 & or_ln201 & tmp_4 & tmp_6)> <Delay = 0.00>
ST_1 : Operation 124 [1/1] (1.65ns)   --->   "%add_ln700 = add i3 %t_V, 1" [/home/paulrr2/Projects/ece527/babelsoc/fpga-network-stack/hls/icmp_server/icmp_server.cpp:213]   --->   Operation 124 'add' 'add_ln700' <Predicate = (udpState_load == 1 & or_ln201 & tmp_4 & tmp_6 & !icmp_ln879)> <Delay = 1.65> <Core = "AddSub">   --->   Core 14 'AddSub' <Latency = 0> <II = 1> <Delay = 1.65> <FuncUnit> <Opcode : 'add' 'sub'> <InPorts = 2> <OutPorts = 1>
ST_1 : Operation 125 [1/1] (1.76ns)   --->   "store i3 %add_ln700, i3* @ipWordCounter_V, align 1" [/home/paulrr2/Projects/ece527/babelsoc/fpga-network-stack/hls/icmp_server/icmp_server.cpp:213]   --->   Operation 125 'store' <Predicate = (udpState_load == 1 & or_ln201 & tmp_4 & tmp_6 & !icmp_ln879)> <Delay = 1.76>
ST_1 : Operation 126 [1/1] (0.00ns)   --->   "br label %14"   --->   Operation 126 'br' <Predicate = (udpState_load == 1 & or_ln201 & tmp_4 & tmp_6 & !icmp_ln879)> <Delay = 0.00>
ST_1 : Operation 127 [1/1] (1.86ns)   --->   "store i2 -2, i2* @udpState, align 1" [/home/paulrr2/Projects/ece527/babelsoc/fpga-network-stack/hls/icmp_server/icmp_server.cpp:211]   --->   Operation 127 'store' <Predicate = (udpState_load == 1 & or_ln201 & tmp_4 & tmp_6 & icmp_ln879)> <Delay = 1.86>
ST_1 : Operation 128 [1/1] (0.00ns)   --->   "br label %14" [/home/paulrr2/Projects/ece527/babelsoc/fpga-network-stack/hls/icmp_server/icmp_server.cpp:211]   --->   Operation 128 'br' <Predicate = (udpState_load == 1 & or_ln201 & tmp_4 & tmp_6 & icmp_ln879)> <Delay = 0.00>
ST_1 : Operation 129 [1/1] (0.00ns)   --->   "br label %._crit_edge9.i" [/home/paulrr2/Projects/ece527/babelsoc/fpga-network-stack/hls/icmp_server/icmp_server.cpp:214]   --->   Operation 129 'br' <Predicate = (udpState_load == 1 & or_ln201 & tmp_4 & tmp_6)> <Delay = 0.00>
ST_1 : Operation 130 [1/1] (0.00ns)   --->   "br label %udpPortUnreachable185.exit" [/home/paulrr2/Projects/ece527/babelsoc/fpga-network-stack/hls/icmp_server/icmp_server.cpp:215]   --->   Operation 130 'br' <Predicate = (udpState_load == 1)> <Delay = 0.00>
ST_1 : Operation 131 [1/1] (0.97ns)   --->   "%or_ln184 = or i1 %tmp, %tmp_1" [/home/paulrr2/Projects/ece527/babelsoc/fpga-network-stack/hls/icmp_server/icmp_server.cpp:184]   --->   Operation 131 'or' 'or_ln184' <Predicate = (udpState_load == 0)> <Delay = 0.97> <Core = "LogicGate">   --->   Core 27 'LogicGate' <Latency = 0> <II = 1> <Delay = 0.97> <FuncUnit> <Opcode : 'and' 'or' 'xor'> <InPorts = 2> <OutPorts = 1>
ST_1 : Operation 132 [1/1] (0.00ns)   --->   "br i1 %or_ln184, label %1, label %._crit_edge4.i" [/home/paulrr2/Projects/ece527/babelsoc/fpga-network-stack/hls/icmp_server/icmp_server.cpp:184]   --->   Operation 132 'br' <Predicate = (udpState_load == 0)> <Delay = 0.00>
ST_1 : Operation 133 [1/1] (0.00ns)   --->   "%tmp_3 = call i1 @_ssdm_op_NbWriteReq.ap_fifo.i64P.i8P.i1P(i64* @udpPort2addIpHeader_8, i8* @udpPort2addIpHeader_1, i1* @udpPort2addIpHeader_6, i32 1)" [/home/paulrr2/Projects/ece527/babelsoc/fpga-network-stack/hls/icmp_server/icmp_server.cpp:184]   --->   Operation 133 'nbwritereq' 'tmp_3' <Predicate = (udpState_load == 0 & or_ln184)> <Delay = 0.00> <Core = "FIFO_SRL">   --->   Core 36 'FIFO_SRL' <Latency = 0> <II = 1> <Delay = 3.63> <Storage> <Opcode : 'read' 'write' 'nbread' 'nbwrite'> <Ports = 0> <Width = 64> <Depth = 0> <FIFO>
ST_1 : Operation 134 [1/1] (0.00ns)   --->   "br i1 %tmp_3, label %2, label %._crit_edge4.i" [/home/paulrr2/Projects/ece527/babelsoc/fpga-network-stack/hls/icmp_server/icmp_server.cpp:184]   --->   Operation 134 'br' <Predicate = (udpState_load == 0 & or_ln184)> <Delay = 0.00>
ST_1 : Operation 135 [1/1] (1.76ns)   --->   "store i3 0, i3* @ipWordCounter_V, align 1" [/home/paulrr2/Projects/ece527/babelsoc/fpga-network-stack/hls/icmp_server/icmp_server.cpp:185]   --->   Operation 135 'store' <Predicate = (udpState_load == 0 & or_ln184 & tmp_3)> <Delay = 1.76>
ST_1 : Operation 136 [1/1] (0.00ns)   --->   "br i1 %tmp, label %3, label %4" [/home/paulrr2/Projects/ece527/babelsoc/fpga-network-stack/hls/icmp_server/icmp_server.cpp:187]   --->   Operation 136 'br' <Predicate = (udpState_load == 0 & or_ln184 & tmp_3)> <Delay = 0.00>
ST_1 : Operation 137 [1/1] (1.81ns)   --->   "br i1 %tmp_1, label %5, label %._crit_edge6.i" [/home/paulrr2/Projects/ece527/babelsoc/fpga-network-stack/hls/icmp_server/icmp_server.cpp:191]   --->   Operation 137 'br' <Predicate = (udpState_load == 0 & or_ln184 & tmp_3 & !tmp)> <Delay = 1.81>
ST_1 : Operation 138 [1/1] (1.76ns)   --->   "store i1 true, i1* @streamSource_V_1, align 1" [/home/paulrr2/Projects/ece527/babelsoc/fpga-network-stack/hls/icmp_server/icmp_server.cpp:193]   --->   Operation 138 'store' <Predicate = (udpState_load == 0 & or_ln184 & tmp_3 & !tmp & tmp_1)> <Delay = 1.76>
ST_1 : Operation 139 [1/1] (1.81ns)   --->   "br label %._crit_edge6.i" [/home/paulrr2/Projects/ece527/babelsoc/fpga-network-stack/hls/icmp_server/icmp_server.cpp:194]   --->   Operation 139 'br' <Predicate = (udpState_load == 0 & or_ln184 & tmp_3 & !tmp & tmp_1)> <Delay = 1.81>
ST_1 : Operation 140 [1/1] (1.76ns)   --->   "store i1 false, i1* @streamSource_V_1, align 1" [/home/paulrr2/Projects/ece527/babelsoc/fpga-network-stack/hls/icmp_server/icmp_server.cpp:189]   --->   Operation 140 'store' <Predicate = (udpState_load == 0 & or_ln184 & tmp_3 & tmp)> <Delay = 1.76>
ST_1 : Operation 141 [1/1] (1.81ns)   --->   "br label %._crit_edge6.i" [/home/paulrr2/Projects/ece527/babelsoc/fpga-network-stack/hls/icmp_server/icmp_server.cpp:190]   --->   Operation 141 'br' <Predicate = (udpState_load == 0 & or_ln184 & tmp_3 & tmp)> <Delay = 1.81>
ST_1 : Operation 142 [1/1] (0.00ns)   --->   "%p_Val2_4 = phi i9 [ -253, %3 ], [ 11, %5 ], [ 0, %4 ]"   --->   Operation 142 'phi' 'p_Val2_4' <Predicate = (udpState_load == 0 & or_ln184 & tmp_3)> <Delay = 0.00>
ST_1 : Operation 143 [1/1] (0.00ns)   --->   "%sext_ln357 = sext i9 %p_Val2_4 to i10" [/home/paulrr2/Projects/ece527/babelsoc/fpga-network-stack/hls/icmp_server/icmp_server.cpp:195]   --->   Operation 143 'sext' 'sext_ln357' <Predicate = (udpState_load == 0 & or_ln184 & tmp_3)> <Delay = 0.00>
ST_1 : Operation 144 [1/1] (0.00ns)   --->   "%tmp_data_V_3 = zext i10 %sext_ln357 to i64" [/home/paulrr2/Projects/ece527/babelsoc/fpga-network-stack/hls/icmp_server/icmp_server.cpp:195]   --->   Operation 144 'zext' 'tmp_data_V_3' <Predicate = (udpState_load == 0 & or_ln184 & tmp_3)> <Delay = 0.00>
ST_1 : Operation 145 [1/1] (0.00ns)   --->   "%zext_ln209 = zext i10 %sext_ln357 to i20" [/home/paulrr2/Projects/ece527/babelsoc/fpga-network-stack/hls/icmp_server/icmp_server.cpp:195]   --->   Operation 145 'zext' 'zext_ln209' <Predicate = (udpState_load == 0 & or_ln184 & tmp_3)> <Delay = 0.00>
ST_1 : Operation 146 [1/1] (1.86ns)   --->   "store i20 %zext_ln209, i20* @udpChecksum_V, align 4" [/home/paulrr2/Projects/ece527/babelsoc/fpga-network-stack/hls/icmp_server/icmp_server.cpp:195]   --->   Operation 146 'store' <Predicate = (udpState_load == 0 & or_ln184 & tmp_3)> <Delay = 1.86>
ST_1 : Operation 147 [1/1] (2.80ns)   --->   "call void @_ssdm_op_Write.ap_fifo.volatile.i64P.i8P.i1P(i64* @udpPort2addIpHeader_8, i8* @udpPort2addIpHeader_1, i1* @udpPort2addIpHeader_6, i64 %tmp_data_V_3, i8 -1, i1 false)" [/home/paulrr2/Projects/ece527/babelsoc/fpga-network-stack/hls/icmp_server/icmp_server.cpp:196]   --->   Operation 147 'write' <Predicate = (udpState_load == 0 & or_ln184 & tmp_3)> <Delay = 2.80> <Core = "FIFO_SRL">   --->   Core 36 'FIFO_SRL' <Latency = 0> <II = 1> <Delay = 3.63> <Storage> <Opcode : 'read' 'write' 'nbread' 'nbwrite'> <Ports = 0> <Width = 64> <Depth = 0> <FIFO>
ST_1 : Operation 148 [1/1] (1.86ns)   --->   "store i2 1, i2* @udpState, align 1" [/home/paulrr2/Projects/ece527/babelsoc/fpga-network-stack/hls/icmp_server/icmp_server.cpp:197]   --->   Operation 148 'store' <Predicate = (udpState_load == 0 & or_ln184 & tmp_3)> <Delay = 1.86>
ST_1 : Operation 149 [1/1] (0.00ns)   --->   "br label %._crit_edge4.i" [/home/paulrr2/Projects/ece527/babelsoc/fpga-network-stack/hls/icmp_server/icmp_server.cpp:198]   --->   Operation 149 'br' <Predicate = (udpState_load == 0 & or_ln184 & tmp_3)> <Delay = 0.00>
ST_1 : Operation 150 [1/1] (0.00ns)   --->   "br label %udpPortUnreachable185.exit" [/home/paulrr2/Projects/ece527/babelsoc/fpga-network-stack/hls/icmp_server/icmp_server.cpp:199]   --->   Operation 150 'br' <Predicate = (udpState_load == 0)> <Delay = 0.00>
ST_1 : Operation 151 [1/1] (0.00ns)   --->   "ret void"   --->   Operation 151 'ret' <Predicate = true> <Delay = 0.00>


============================================================
+ Verbose Summary: Timing violations
============================================================
Target clock period: 6.4ns, clock uncertainty: 0.8ns.

 <State 1>: 10ns
The critical path consists of the following:
	axis read on port 'udpIn_V_data_V' (/home/paulrr2/Projects/ece527/babelsoc/fpga-network-stack/hls/icmp_server/icmp_server.cpp:220) [74]  (0 ns)
	multiplexor before 'phi' operation ('tmp.data.V') with incoming values : ('tmp.data.V', /home/paulrr2/Projects/ece527/babelsoc/fpga-network-stack/hls/icmp_server/icmp_server.cpp:220) ('tmp.data.V', /home/paulrr2/Projects/ece527/babelsoc/fpga-network-stack/hls/icmp_server/icmp_server.cpp:222) [88]  (1.77 ns)
	'phi' operation ('tmp.data.V') with incoming values : ('tmp.data.V', /home/paulrr2/Projects/ece527/babelsoc/fpga-network-stack/hls/icmp_server/icmp_server.cpp:220) ('tmp.data.V', /home/paulrr2/Projects/ece527/babelsoc/fpga-network-stack/hls/icmp_server/icmp_server.cpp:222) [88]  (0 ns)
	'add' operation ('add_ln209', /home/paulrr2/Projects/ece527/babelsoc/fpga-network-stack/hls/icmp_server/icmp_server.cpp:223) [97]  (2.08 ns)
	'add' operation ('add_ln209_2', /home/paulrr2/Projects/ece527/babelsoc/fpga-network-stack/hls/icmp_server/icmp_server.cpp:223) [101]  (2.11 ns)
	'add' operation ('add_ln209_3', /home/paulrr2/Projects/ece527/babelsoc/fpga-network-stack/hls/icmp_server/icmp_server.cpp:223) [103]  (2.2 ns)
	'store' operation ('store_ln223', /home/paulrr2/Projects/ece527/babelsoc/fpga-network-stack/hls/icmp_server/icmp_server.cpp:223) of variable 'add_ln209_3', /home/paulrr2/Projects/ece527/babelsoc/fpga-network-stack/hls/icmp_server/icmp_server.cpp:223 on static variable 'udpChecksum_V' [104]  (1.86 ns)


============================================================
+ Verbose Summary: Binding
============================================================
N/A
* FSMD analyzer results:
  - Output states:
 - Input state : 
  - Chain level:
	State 1


============================================================
+ Verbose Summary: Datapath Resource usage 
============================================================
N/A
