

================================================================
== Vivado HLS Report for 'ack_delay'
================================================================
* Date:           Sat Dec 12 19:34:55 2020

* Version:        2019.2.1 (Build 2724168 on Thu Dec 05 05:19:09 MST 2019)
* Project:        toe_prj
* Solution:       solution1
* Product family: zynq
* Target device:  xc7z020-clg400-1


================================================================
== Performance Estimates
================================================================
+ Timing: 
    * Summary: 
    +--------+---------+----------+------------+
    |  Clock |  Target | Estimated| Uncertainty|
    +--------+---------+----------+------------+
    |ap_clk  | 6.40 ns | 5.311 ns |   0.80 ns  |
    +--------+---------+----------+------------+

+ Latency: 
    * Summary: 
    +---------+---------+-----------+-----------+-----+-----+----------+
    |  Latency (cycles) |   Latency (absolute)  |  Interval | Pipeline |
    |   min   |   max   |    min    |    max    | min | max |   Type   |
    +---------+---------+-----------+-----------+-----+-----+----------+
    |        4|        4| 25.600 ns | 25.600 ns |    1|    1| function |
    +---------+---------+-----------+-----------+-----+-----+----------+

    + Detail: 
        * Instance: 
        N/A

        * Loop: 
        N/A



================================================================
== Utilization Estimates
================================================================
* Summary: 
+-----------------+---------+-------+--------+-------+-----+
|       Name      | BRAM_18K| DSP48E|   FF   |  LUT  | URAM|
+-----------------+---------+-------+--------+-------+-----+
|DSP              |        -|      -|       -|      -|    -|
|Expression       |        -|      -|       0|    139|    -|
|FIFO             |        -|      -|       -|      -|    -|
|Instance         |        -|      -|       -|      -|    -|
|Memory           |        1|      -|       0|      0|    0|
|Multiplexer      |        -|      -|       -|    126|    -|
|Register         |        5|      -|     475|     97|    -|
+-----------------+---------+-------+--------+-------+-----+
|Total            |        6|      0|     475|    362|    0|
+-----------------+---------+-------+--------+-------+-----+
|Available        |      280|    220|  106400|  53200|    0|
+-----------------+---------+-------+--------+-------+-----+
|Utilization (%)  |        2|      0|   ~0   |   ~0  |    0|
+-----------------+---------+-------+--------+-------+-----+

+ Detail: 
    * Instance: 
    N/A

    * DSP48E: 
    N/A

    * Memory: 
    +---------------+----------------------+---------+---+----+-----+------+-----+------+-------------+
    |     Memory    |        Module        | BRAM_18K| FF| LUT| URAM| Words| Bits| Banks| W*Bits*Banks|
    +---------------+----------------------+---------+---+----+-----+------+-----+------+-------------+
    |ack_table_V_U  |ack_delay_ack_tabCeG  |        1|  0|   0|    0|  1000|   12|     1|        12000|
    +---------------+----------------------+---------+---+----+-----+------+-----+------+-------------+
    |Total          |                      |        1|  0|   0|    0|  1000|   12|     1|        12000|
    +---------------+----------------------+---------+---+----+-----+------+-----+------+-------------+

    * FIFO: 
    N/A

    * Expression: 
    +-----------------------------------+----------+-------+---+----+------------+------------+
    |           Variable Name           | Operation| DSP48E| FF| LUT| Bitwidth P0| Bitwidth P1|
    +-----------------------------------+----------+-------+---+----+------------+------------+
    |add_ln700_fu_201_p2                |     +    |      0|  0|  23|          16|           1|
    |add_ln701_fu_253_p2                |     +    |      0|  0|  12|          12|           2|
    |ap_block_pp0                       |    and   |      0|  0|   2|           1|           1|
    |ap_block_state2_pp0_stage0_iter1   |    and   |      0|  0|   2|           1|           1|
    |ap_condition_171                   |    and   |      0|  0|   2|           1|           1|
    |ap_condition_283                   |    and   |      0|  0|   2|           1|           1|
    |ap_condition_82                    |    and   |      0|  0|   2|           1|           1|
    |ap_enable_state2_pp0_iter1_stage0  |    and   |      0|  0|   2|           1|           1|
    |ap_enable_state3_pp0_iter2_stage0  |    and   |      0|  0|   2|           1|           1|
    |ap_enable_state4_pp0_iter3_stage0  |    and   |      0|  0|   2|           1|           1|
    |ap_predicate_op20_load_state2      |    and   |      0|  0|   2|           1|           1|
    |ap_predicate_op28_load_state3      |    and   |      0|  0|   2|           1|           1|
    |ap_predicate_op36_write_state4     |    and   |      0|  0|   2|           1|           1|
    |ap_predicate_op51_write_state5     |    and   |      0|  0|   2|           1|           1|
    |tmp_nbreadreq_fu_82_p3             |    and   |      0|  0|   2|           1|           0|
    |grp_fu_162_p2                      |   icmp   |      0|  0|  13|          12|           1|
    |icmp_ln53_fu_182_p2                |   icmp   |      0|  0|   9|           3|           2|
    |icmp_ln879_21_fu_226_p2            |   icmp   |      0|  0|  13|          12|           1|
    |icmp_ln879_22_fu_206_p2            |   icmp   |      0|  0|  13|          16|          10|
    |ap_block_pp0_stage0_01001          |    or    |      0|  0|   2|           1|           1|
    |ap_block_state1_pp0_stage0_iter0   |    or    |      0|  0|   2|           1|           1|
    |ap_block_state4_pp0_stage0_iter3   |    or    |      0|  0|   2|           1|           1|
    |ap_block_state5_pp0_stage0_iter4   |    or    |      0|  0|   2|           1|           1|
    |ap_condition_97                    |    or    |      0|  0|   2|           1|           1|
    |ap_predicate_op55_write_state5     |    or    |      0|  0|   2|           1|           1|
    |select_ln78_fu_212_p3              |  select  |      0|  0|  16|           1|           1|
    |ap_enable_pp0                      |    xor   |      0|  0|   2|           1|           2|
    +-----------------------------------+----------+-------+---+----+------------+------------+
    |Total                              |          |      0|  0| 139|          92|          38|
    +-----------------------------------+----------+-------+---+----+------------+------------+

    * Multiplexer: 
    +-------------------------------------+----+-----------+-----+-----------+
    |                 Name                | LUT| Input Size| Bits| Total Bits|
    +-------------------------------------+----+-----------+-----+-----------+
    |ackDelayFifoReadCoun_1_blk_n         |   9|          2|    1|          2|
    |ackDelayFifoWriteCou_1_blk_n         |   9|          2|    1|          2|
    |ack_table_V_address0                 |  15|          3|   10|         30|
    |ack_table_V_address1                 |  21|          4|   10|         40|
    |ack_table_V_d1                       |  21|          4|   12|         48|
    |ap_done                              |   9|          2|    1|          2|
    |ap_sig_allocacmp_tmp_sessionID_V_20  |   9|          2|   16|         32|
    |eventEng2ackDelay_ev_1_blk_n         |   9|          2|    1|          2|
    |eventEng2txEng_event_1_blk_n         |   9|          2|    1|          2|
    |eventEng2txEng_event_1_din           |  15|          3|  152|        456|
    +-------------------------------------+----+-----------+-----+-----------+
    |Total                                | 126|         26|  205|        616|
    +-------------------------------------+----+-----------+-----+-----------+

    * Register: 
    +------------------------------------------+-----+----+-----+-----------+
    |                   Name                   |  FF | LUT| Bits| Const Bits|
    +------------------------------------------+-----+----+-----+-----------+
    |ack_table_V_addr_1_reg_294                |   10|   0|   10|          0|
    |ack_table_V_addr_1_reg_294_pp0_iter2_reg  |   10|   0|   10|          0|
    |ack_table_V_addr_reg_288                  |   10|   0|   10|          0|
    |ack_table_V_addr_reg_288_pp0_iter2_reg    |   10|   0|   10|          0|
    |ack_table_V_load_reg_300                  |   12|   0|   12|          0|
    |ad_pointer_V                              |   16|   0|   16|          0|
    |ap_CS_fsm                                 |    1|   0|    1|          0|
    |ap_done_reg                               |    1|   0|    1|          0|
    |ap_enable_reg_pp0_iter1                   |    1|   0|    1|          0|
    |ap_enable_reg_pp0_iter2                   |    1|   0|    1|          0|
    |ap_enable_reg_pp0_iter3                   |    1|   0|    1|          0|
    |ap_enable_reg_pp0_iter4                   |    1|   0|    1|          0|
    |icmp_ln53_reg_278                         |    1|   0|    1|          0|
    |icmp_ln879_21_reg_318                     |    1|   0|    1|          0|
    |icmp_ln879_reg_310                        |    1|   0|    1|          0|
    |icmp_ln879_reg_310_pp0_iter3_reg          |    1|   0|    1|          0|
    |icmp_ln895_reg_306                        |    1|   0|    1|          0|
    |icmp_ln895_reg_306_pp0_iter3_reg          |    1|   0|    1|          0|
    |tmp145_reg_267                            |  152|   0|  152|          0|
    |tmp_328_reg_314                           |    1|   0|    1|          0|
    |tmp_reg_263                               |    1|   0|    1|          0|
    |tmp_sessionID_V_20_reg_282                |   16|   0|   16|          0|
    |tmp_sessionID_V_20_reg_282_pp0_iter2_reg  |   16|   0|   16|          0|
    |tmp_sessionID_V_reg_272                   |   16|   0|   16|          0|
    |icmp_ln53_reg_278                         |   64|  32|    1|          0|
    |tmp145_reg_267                            |    1|   1|  152|          0|
    |tmp_reg_263                               |   64|  32|    1|          0|
    |tmp_sessionID_V_reg_272                   |   64|  32|   16|          0|
    +------------------------------------------+-----+----+-----+-----------+
    |Total                                     |  475|  97|  452|          0|
    +------------------------------------------+-----+----+-----+-----------+



================================================================
== Interface
================================================================
* Summary: 
+--------------------------------+-----+-----+------------+------------------------+--------------+
|            RTL Ports           | Dir | Bits|  Protocol  |      Source Object     |    C Type    |
+--------------------------------+-----+-----+------------+------------------------+--------------+
|ap_clk                          |  in |    1| ap_ctrl_hs |        ack_delay       | return value |
|ap_rst                          |  in |    1| ap_ctrl_hs |        ack_delay       | return value |
|ap_start                        |  in |    1| ap_ctrl_hs |        ack_delay       | return value |
|ap_done                         | out |    1| ap_ctrl_hs |        ack_delay       | return value |
|ap_continue                     |  in |    1| ap_ctrl_hs |        ack_delay       | return value |
|ap_idle                         | out |    1| ap_ctrl_hs |        ack_delay       | return value |
|ap_ready                        | out |    1| ap_ctrl_hs |        ack_delay       | return value |
|eventEng2ackDelay_ev_1_dout     |  in |  152|   ap_fifo  | eventEng2ackDelay_ev_1 |    pointer   |
|eventEng2ackDelay_ev_1_empty_n  |  in |    1|   ap_fifo  | eventEng2ackDelay_ev_1 |    pointer   |
|eventEng2ackDelay_ev_1_read     | out |    1|   ap_fifo  | eventEng2ackDelay_ev_1 |    pointer   |
|ackDelayFifoReadCoun_1_din      | out |    1|   ap_fifo  | ackDelayFifoReadCoun_1 |    pointer   |
|ackDelayFifoReadCoun_1_full_n   |  in |    1|   ap_fifo  | ackDelayFifoReadCoun_1 |    pointer   |
|ackDelayFifoReadCoun_1_write    | out |    1|   ap_fifo  | ackDelayFifoReadCoun_1 |    pointer   |
|eventEng2txEng_event_1_din      | out |  152|   ap_fifo  | eventEng2txEng_event_1 |    pointer   |
|eventEng2txEng_event_1_full_n   |  in |    1|   ap_fifo  | eventEng2txEng_event_1 |    pointer   |
|eventEng2txEng_event_1_write    | out |    1|   ap_fifo  | eventEng2txEng_event_1 |    pointer   |
|ackDelayFifoWriteCou_1_din      | out |    1|   ap_fifo  | ackDelayFifoWriteCou_1 |    pointer   |
|ackDelayFifoWriteCou_1_full_n   |  in |    1|   ap_fifo  | ackDelayFifoWriteCou_1 |    pointer   |
|ackDelayFifoWriteCou_1_write    | out |    1|   ap_fifo  | ackDelayFifoWriteCou_1 |    pointer   |
+--------------------------------+-----+-----+------------+------------------------+--------------+

