

================================================================
== Vivado HLS Report for 'check_in_multiplexer'
================================================================
* Date:           Sat Dec 12 19:34:53 2020

* Version:        2019.2.1 (Build 2724168 on Thu Dec 05 05:19:09 MST 2019)
* Project:        toe_prj
* Solution:       solution1
* Product family: zynq
* Target device:  xc7z020-clg400-1


================================================================
== Performance Estimates
================================================================
+ Timing: 
    * Summary: 
    +--------+---------+----------+------------+
    |  Clock |  Target | Estimated| Uncertainty|
    +--------+---------+----------+------------+
    |ap_clk  | 6.40 ns | 2.800 ns |   0.80 ns  |
    +--------+---------+----------+------------+

+ Latency: 
    * Summary: 
    +---------+---------+----------+----------+-----+-----+----------+
    |  Latency (cycles) |  Latency (absolute) |  Interval | Pipeline |
    |   min   |   max   |    min   |    max   | min | max |   Type   |
    +---------+---------+----------+----------+-----+-----+----------+
    |        1|        1| 6.400 ns | 6.400 ns |    1|    1| function |
    +---------+---------+----------+----------+-----+-----+----------+

    + Detail: 
        * Instance: 
        N/A

        * Loop: 
        N/A



================================================================
== Utilization Estimates
================================================================
* Summary: 
+-----------------+---------+-------+--------+-------+-----+
|       Name      | BRAM_18K| DSP48E|   FF   |  LUT  | URAM|
+-----------------+---------+-------+--------+-------+-----+
|DSP              |        -|      -|       -|      -|    -|
|Expression       |        -|      -|       0|     16|    -|
|FIFO             |        -|      -|       -|      -|    -|
|Instance         |        -|      -|       -|      -|    -|
|Memory           |        -|      -|       -|      -|    -|
|Multiplexer      |        -|      -|       -|     60|    -|
|Register         |        -|      -|      20|      -|    -|
+-----------------+---------+-------+--------+-------+-----+
|Total            |        0|      0|      20|     76|    0|
+-----------------+---------+-------+--------+-------+-----+
|Available        |      280|    220|  106400|  53200|    0|
+-----------------+---------+-------+--------+-------+-----+
|Utilization (%)  |        0|      0|   ~0   |   ~0  |    0|
+-----------------+---------+-------+--------+-------+-----+

+ Detail: 
    * Instance: 
    N/A

    * DSP48E: 
    N/A

    * Memory: 
    N/A

    * FIFO: 
    N/A

    * Expression: 
    +----------------------------------+----------+-------+---+----+------------+------------+
    |           Variable Name          | Operation| DSP48E| FF| LUT| Bitwidth P0| Bitwidth P1|
    +----------------------------------+----------+-------+---+----+------------+------------+
    |ap_condition_131                  |    and   |      0|  0|   2|           1|           1|
    |ap_predicate_op16_write_state2    |    and   |      0|  0|   2|           1|           1|
    |ap_predicate_op19_write_state2    |    and   |      0|  0|   2|           1|           1|
    |tmp_nbreadreq_fu_50_p3            |    and   |      0|  0|   2|           1|           0|
    |ap_block_pp0_stage0_01001         |    or    |      0|  0|   2|           1|           1|
    |ap_block_state1_pp0_stage0_iter0  |    or    |      0|  0|   2|           1|           1|
    |ap_block_state2_pp0_stage0_iter1  |    or    |      0|  0|   2|           1|           1|
    |ap_enable_pp0                     |    xor   |      0|  0|   2|           1|           2|
    +----------------------------------+----------+-------+---+----+------------+------------+
    |Total                             |          |      0|  0|  16|           8|           8|
    +----------------------------------+----------+-------+---+----+------------+------------+

    * Multiplexer: 
    +------------------------------+----+-----------+-----+-----------+
    |             Name             | LUT| Input Size| Bits| Total Bits|
    +------------------------------+----+-----------+-----+-----------+
    |ap_done                       |   9|          2|    1|          2|
    |pt_dstFifo_V_blk_n            |   9|          2|    1|          2|
    |pt_dstFifo_V_din              |  15|          3|    1|          3|
    |pt_portCheckListenin_1_blk_n  |   9|          2|    1|          2|
    |pt_portCheckUsed_req_1_blk_n  |   9|          2|    1|          2|
    |rxEng2portTable_chec_1_blk_n  |   9|          2|    1|          2|
    +------------------------------+----+-----------+-----+-----------+
    |Total                         |  60|         13|    6|         13|
    +------------------------------+----+-----------+-----+-----------+

    * Register: 
    +-------------------------+---+----+-----+-----------+
    |           Name          | FF| LUT| Bits| Const Bits|
    +-------------------------+---+----+-----+-----------+
    |ap_CS_fsm                |  1|   0|    1|          0|
    |ap_done_reg              |  1|   0|    1|          0|
    |ap_enable_reg_pp0_iter1  |  1|   0|    1|          0|
    |p_Result_i_reg_121       |  8|   0|    8|          0|
    |tmp_327_reg_131          |  1|   0|    1|          0|
    |tmp_reg_117              |  1|   0|    1|          0|
    |trunc_ln414_reg_126      |  7|   0|    7|          0|
    +-------------------------+---+----+-----+-----------+
    |Total                    | 20|   0|   20|          0|
    +-------------------------+---+----+-----+-----------+



================================================================
== Interface
================================================================
* Summary: 
+--------------------------------+-----+-----+------------+------------------------+--------------+
|            RTL Ports           | Dir | Bits|  Protocol  |      Source Object     |    C Type    |
+--------------------------------+-----+-----+------------+------------------------+--------------+
|ap_clk                          |  in |    1| ap_ctrl_hs |  check_in_multiplexer  | return value |
|ap_rst                          |  in |    1| ap_ctrl_hs |  check_in_multiplexer  | return value |
|ap_start                        |  in |    1| ap_ctrl_hs |  check_in_multiplexer  | return value |
|ap_done                         | out |    1| ap_ctrl_hs |  check_in_multiplexer  | return value |
|ap_continue                     |  in |    1| ap_ctrl_hs |  check_in_multiplexer  | return value |
|ap_idle                         | out |    1| ap_ctrl_hs |  check_in_multiplexer  | return value |
|ap_ready                        | out |    1| ap_ctrl_hs |  check_in_multiplexer  | return value |
|rxEng2portTable_chec_1_dout     |  in |   16|   ap_fifo  | rxEng2portTable_chec_1 |    pointer   |
|rxEng2portTable_chec_1_empty_n  |  in |    1|   ap_fifo  | rxEng2portTable_chec_1 |    pointer   |
|rxEng2portTable_chec_1_read     | out |    1|   ap_fifo  | rxEng2portTable_chec_1 |    pointer   |
|pt_portCheckListenin_1_din      | out |   15|   ap_fifo  | pt_portCheckListenin_1 |    pointer   |
|pt_portCheckListenin_1_full_n   |  in |    1|   ap_fifo  | pt_portCheckListenin_1 |    pointer   |
|pt_portCheckListenin_1_write    | out |    1|   ap_fifo  | pt_portCheckListenin_1 |    pointer   |
|pt_dstFifo_V_din                | out |    1|   ap_fifo  |      pt_dstFifo_V      |    pointer   |
|pt_dstFifo_V_full_n             |  in |    1|   ap_fifo  |      pt_dstFifo_V      |    pointer   |
|pt_dstFifo_V_write              | out |    1|   ap_fifo  |      pt_dstFifo_V      |    pointer   |
|pt_portCheckUsed_req_1_din      | out |   15|   ap_fifo  | pt_portCheckUsed_req_1 |    pointer   |
|pt_portCheckUsed_req_1_full_n   |  in |    1|   ap_fifo  | pt_portCheckUsed_req_1 |    pointer   |
|pt_portCheckUsed_req_1_write    | out |    1|   ap_fifo  | pt_portCheckUsed_req_1 |    pointer   |
+--------------------------------+-----+-----+------------+------------------------+--------------+

