

================================================================
== Vivado HLS Report for 'merge_header_meta'
================================================================
* Date:           Sat Dec 12 19:35:01 2020

* Version:        2019.2.1 (Build 2724168 on Thu Dec 05 05:19:09 MST 2019)
* Project:        toe_prj
* Solution:       solution1
* Product family: zynq
* Target device:  xc7z020-clg400-1


================================================================
== Performance Estimates
================================================================
+ Timing: 
    * Summary: 
    +--------+---------+----------+------------+
    |  Clock |  Target | Estimated| Uncertainty|
    +--------+---------+----------+------------+
    |ap_clk  | 6.40 ns | 5.080 ns |   0.80 ns  |
    +--------+---------+----------+------------+

+ Latency: 
    * Summary: 
    +---------+---------+----------+----------+-----+-----+----------+
    |  Latency (cycles) |  Latency (absolute) |  Interval | Pipeline |
    |   min   |   max   |    min   |    max   | min | max |   Type   |
    +---------+---------+----------+----------+-----+-----+----------+
    |        1|        1| 6.400 ns | 6.400 ns |    1|    1| function |
    +---------+---------+----------+----------+-----+-----+----------+

    + Detail: 
        * Instance: 
        N/A

        * Loop: 
        N/A



================================================================
== Utilization Estimates
================================================================
* Summary: 
+-----------------+---------+-------+--------+-------+-----+
|       Name      | BRAM_18K| DSP48E|   FF   |  LUT  | URAM|
+-----------------+---------+-------+--------+-------+-----+
|DSP              |        -|      -|       -|      -|    -|
|Expression       |        -|      -|       0|     37|    -|
|FIFO             |        -|      -|       -|      -|    -|
|Instance         |        -|      -|       -|      -|    -|
|Memory           |        -|      -|       -|      -|    -|
|Multiplexer      |        -|      -|       -|    132|    -|
|Register         |        -|      -|     220|      -|    -|
+-----------------+---------+-------+--------+-------+-----+
|Total            |        0|      0|     220|    169|    0|
+-----------------+---------+-------+--------+-------+-----+
|Available        |      280|    220|  106400|  53200|    0|
+-----------------+---------+-------+--------+-------+-----+
|Utilization (%)  |        0|      0|   ~0   |   ~0  |    0|
+-----------------+---------+-------+--------+-------+-----+

+ Detail: 
    * Instance: 
    N/A

    * DSP48E: 
    N/A

    * Memory: 
    N/A

    * FIFO: 
    N/A

    * Expression: 
    +----------------------------------+----------+-------+---+----+------------+------------+
    |           Variable Name          | Operation| DSP48E| FF| LUT| Bitwidth P0| Bitwidth P1|
    +----------------------------------+----------+-------+---+----+------------+------------+
    |and_ln719_fu_253_p2               |    and   |      0|  0|   2|           1|           1|
    |ap_condition_137                  |    and   |      0|  0|   2|           1|           1|
    |ap_condition_207                  |    and   |      0|  0|   2|           1|           1|
    |ap_condition_249                  |    and   |      0|  0|   2|           1|           1|
    |ap_predicate_op32_read_state1     |    and   |      0|  0|   2|           1|           1|
    |ap_predicate_op48_write_state2    |    and   |      0|  0|   2|           1|           1|
    |ap_predicate_op63_write_state2    |    and   |      0|  0|   2|           1|           1|
    |ap_predicate_op7_read_state1      |    and   |      0|  0|   2|           1|           1|
    |io_acc_block_signal_op7           |    and   |      0|  0|   2|           1|           1|
    |tmp_nbreadreq_fu_132_p3           |    and   |      0|  0|   2|           1|           0|
    |icmp_ln895_fu_247_p2              |   icmp   |      0|  0|   9|           4|           3|
    |ap_block_pp0_stage0_01001         |    or    |      0|  0|   2|           1|           1|
    |ap_block_state1_pp0_stage0_iter0  |    or    |      0|  0|   2|           1|           1|
    |ap_block_state2_pp0_stage0_iter1  |    or    |      0|  0|   2|           1|           1|
    |ap_enable_pp0                     |    xor   |      0|  0|   2|           1|           2|
    +----------------------------------+----------+-------+---+----+------------+------------+
    |Total                             |          |      0|  0|  37|          18|          17|
    +----------------------------------+----------+-------+---+----+------------+------------+

    * Multiplexer: 
    +-------------------------------+----+-----------+-----+-----------+
    |              Name             | LUT| Input Size| Bits| Total Bits|
    +-------------------------------+----+-----------+-----+-----------+
    |ap_done                        |   9|          2|    1|          2|
    |rxEng_headerMetaFifo_10_blk_n  |   9|          2|    1|          2|
    |rxEng_headerMetaFifo_12_blk_n  |   9|          2|    1|          2|
    |rxEng_headerMetaFifo_14_blk_n  |   9|          2|    1|          2|
    |rxEng_headerMetaFifo_16_blk_n  |   9|          2|    1|          2|
    |rxEng_headerMetaFifo_18_blk_n  |   9|          2|    1|          2|
    |rxEng_headerMetaFifo_19_blk_n  |   9|          2|    1|          2|
    |rxEng_headerMetaFifo_20_blk_n  |   9|          2|    1|          2|
    |rxEng_headerMetaFifo_21_blk_n  |   9|          2|    1|          2|
    |rxEng_headerMetaFifo_22_blk_n  |   9|          2|    1|          2|
    |rxEng_headerMetaFifo_23_blk_n  |   9|          2|    1|          2|
    |rxEng_metaDataFifo_V_blk_n     |   9|          2|    1|          2|
    |rxEng_metaDataFifo_V_din       |  15|          3|  108|        324|
    |rxEng_winScaleFifo_V_blk_n     |   9|          2|    1|          2|
    +-------------------------------+----+-----------+-----+-----------+
    |Total                          | 132|         29|  121|        350|
    +-------------------------------+----+-----------+-----+-----------+

    * Register: 
    +----------------------------+----+----+-----+-----------+
    |            Name            | FF | LUT| Bits| Const Bits|
    +----------------------------+----+----+-----+-----------+
    |and_ln719_reg_400           |   1|   0|    1|          0|
    |ap_CS_fsm                   |   1|   0|    1|          0|
    |ap_done_reg                 |   1|   0|    1|          0|
    |ap_enable_reg_pp0_iter1     |   1|   0|    1|          0|
    |meta_ackNumb_V              |  32|   0|   32|          0|
    |meta_ack_V                  |   1|   0|    1|          0|
    |meta_dataOffset_V           |   4|   0|    4|          0|
    |meta_fin_V                  |   1|   0|    1|          0|
    |meta_length_V               |  16|   0|   16|          0|
    |meta_rst_V                  |   1|   0|    1|          0|
    |meta_seqNumb_V              |  32|   0|   32|          0|
    |meta_syn_V                  |   1|   0|    1|          0|
    |meta_winSize_V              |  16|   0|   16|          0|
    |state_V                     |   1|   0|    1|          0|
    |state_V_load_reg_347        |   1|   0|    1|          0|
    |tmp_231_reg_351             |   1|   0|    1|          0|
    |tmp_V_reg_408               |   4|   0|    4|          0|
    |tmp_ackNumb_V_7_reg_360     |  32|   0|   32|          0|
    |tmp_ack_V_1_reg_375         |   1|   0|    1|          0|
    |tmp_dataOffset_V_2_reg_395  |   4|   0|    4|          0|
    |tmp_fin_V_1_reg_390         |   1|   0|    1|          0|
    |tmp_length_V_6_reg_370      |  16|   0|   16|          0|
    |tmp_reg_404                 |   1|   0|    1|          0|
    |tmp_rst_V_1_reg_380         |   1|   0|    1|          0|
    |tmp_seqNumb_V_7_reg_355     |  32|   0|   32|          0|
    |tmp_syn_V_1_reg_385         |   1|   0|    1|          0|
    |tmp_winSize_V_1_reg_365     |  16|   0|   16|          0|
    +----------------------------+----+----+-----+-----------+
    |Total                       | 220|   0|  220|          0|
    +----------------------------+----+----+-----+-----------+



================================================================
== Interface
================================================================
* Summary: 
+---------------------------------+-----+-----+------------+-------------------------+--------------+
|            RTL Ports            | Dir | Bits|  Protocol  |      Source Object      |    C Type    |
+---------------------------------+-----+-----+------------+-------------------------+--------------+
|ap_clk                           |  in |    1| ap_ctrl_hs |    merge_header_meta    | return value |
|ap_rst                           |  in |    1| ap_ctrl_hs |    merge_header_meta    | return value |
|ap_start                         |  in |    1| ap_ctrl_hs |    merge_header_meta    | return value |
|ap_done                          | out |    1| ap_ctrl_hs |    merge_header_meta    | return value |
|ap_continue                      |  in |    1| ap_ctrl_hs |    merge_header_meta    | return value |
|ap_idle                          | out |    1| ap_ctrl_hs |    merge_header_meta    | return value |
|ap_ready                         | out |    1| ap_ctrl_hs |    merge_header_meta    | return value |
|rxEng_headerMetaFifo_20_dout     |  in |   32|   ap_fifo  | rxEng_headerMetaFifo_20 |    pointer   |
|rxEng_headerMetaFifo_20_empty_n  |  in |    1|   ap_fifo  | rxEng_headerMetaFifo_20 |    pointer   |
|rxEng_headerMetaFifo_20_read     | out |    1|   ap_fifo  | rxEng_headerMetaFifo_20 |    pointer   |
|rxEng_headerMetaFifo_12_dout     |  in |   32|   ap_fifo  | rxEng_headerMetaFifo_12 |    pointer   |
|rxEng_headerMetaFifo_12_empty_n  |  in |    1|   ap_fifo  | rxEng_headerMetaFifo_12 |    pointer   |
|rxEng_headerMetaFifo_12_read     | out |    1|   ap_fifo  | rxEng_headerMetaFifo_12 |    pointer   |
|rxEng_headerMetaFifo_23_dout     |  in |   16|   ap_fifo  | rxEng_headerMetaFifo_23 |    pointer   |
|rxEng_headerMetaFifo_23_empty_n  |  in |    1|   ap_fifo  | rxEng_headerMetaFifo_23 |    pointer   |
|rxEng_headerMetaFifo_23_read     | out |    1|   ap_fifo  | rxEng_headerMetaFifo_23 |    pointer   |
|rxEng_headerMetaFifo_22_dout     |  in |    4|   ap_fifo  | rxEng_headerMetaFifo_22 |    pointer   |
|rxEng_headerMetaFifo_22_empty_n  |  in |    1|   ap_fifo  | rxEng_headerMetaFifo_22 |    pointer   |
|rxEng_headerMetaFifo_22_read     | out |    1|   ap_fifo  | rxEng_headerMetaFifo_22 |    pointer   |
|rxEng_headerMetaFifo_18_dout     |  in |   16|   ap_fifo  | rxEng_headerMetaFifo_18 |    pointer   |
|rxEng_headerMetaFifo_18_empty_n  |  in |    1|   ap_fifo  | rxEng_headerMetaFifo_18 |    pointer   |
|rxEng_headerMetaFifo_18_read     | out |    1|   ap_fifo  | rxEng_headerMetaFifo_18 |    pointer   |
|rxEng_headerMetaFifo_10_dout     |  in |    1|   ap_fifo  | rxEng_headerMetaFifo_10 |    pointer   |
|rxEng_headerMetaFifo_10_empty_n  |  in |    1|   ap_fifo  | rxEng_headerMetaFifo_10 |    pointer   |
|rxEng_headerMetaFifo_10_read     | out |    1|   ap_fifo  | rxEng_headerMetaFifo_10 |    pointer   |
|rxEng_headerMetaFifo_19_dout     |  in |    1|   ap_fifo  | rxEng_headerMetaFifo_19 |    pointer   |
|rxEng_headerMetaFifo_19_empty_n  |  in |    1|   ap_fifo  | rxEng_headerMetaFifo_19 |    pointer   |
|rxEng_headerMetaFifo_19_read     | out |    1|   ap_fifo  | rxEng_headerMetaFifo_19 |    pointer   |
|rxEng_headerMetaFifo_21_dout     |  in |    1|   ap_fifo  | rxEng_headerMetaFifo_21 |    pointer   |
|rxEng_headerMetaFifo_21_empty_n  |  in |    1|   ap_fifo  | rxEng_headerMetaFifo_21 |    pointer   |
|rxEng_headerMetaFifo_21_read     | out |    1|   ap_fifo  | rxEng_headerMetaFifo_21 |    pointer   |
|rxEng_headerMetaFifo_16_dout     |  in |    1|   ap_fifo  | rxEng_headerMetaFifo_16 |    pointer   |
|rxEng_headerMetaFifo_16_empty_n  |  in |    1|   ap_fifo  | rxEng_headerMetaFifo_16 |    pointer   |
|rxEng_headerMetaFifo_16_read     | out |    1|   ap_fifo  | rxEng_headerMetaFifo_16 |    pointer   |
|rxEng_headerMetaFifo_14_dout     |  in |    4|   ap_fifo  | rxEng_headerMetaFifo_14 |    pointer   |
|rxEng_headerMetaFifo_14_empty_n  |  in |    1|   ap_fifo  | rxEng_headerMetaFifo_14 |    pointer   |
|rxEng_headerMetaFifo_14_read     | out |    1|   ap_fifo  | rxEng_headerMetaFifo_14 |    pointer   |
|rxEng_winScaleFifo_V_dout        |  in |    4|   ap_fifo  |   rxEng_winScaleFifo_V  |    pointer   |
|rxEng_winScaleFifo_V_empty_n     |  in |    1|   ap_fifo  |   rxEng_winScaleFifo_V  |    pointer   |
|rxEng_winScaleFifo_V_read        | out |    1|   ap_fifo  |   rxEng_winScaleFifo_V  |    pointer   |
|rxEng_metaDataFifo_V_din         | out |  108|   ap_fifo  |   rxEng_metaDataFifo_V  |    pointer   |
|rxEng_metaDataFifo_V_full_n      |  in |    1|   ap_fifo  |   rxEng_metaDataFifo_V  |    pointer   |
|rxEng_metaDataFifo_V_write       | out |    1|   ap_fifo  |   rxEng_metaDataFifo_V  |    pointer   |
+---------------------------------+-----+-----+------------+-------------------------+--------------+

