

================================================================
== Vivado HLS Report for 'pseudoHeaderConstruc'
================================================================
* Date:           Sat Dec 12 19:35:09 2020

* Version:        2019.2.1 (Build 2724168 on Thu Dec 05 05:19:09 MST 2019)
* Project:        toe_prj
* Solution:       solution1
* Product family: zynq
* Target device:  xc7z020-clg400-1


================================================================
== Performance Estimates
================================================================
+ Timing: 
    * Summary: 
    +--------+---------+-----------+------------+
    |  Clock |  Target | Estimated | Uncertainty|
    +--------+---------+-----------+------------+
    |ap_clk  | 6.40 ns | 12.830 ns |   0.80 ns  |
    +--------+---------+-----------+------------+

+ Latency: 
    * Summary: 
    +---------+---------+-----------+-----------+-----+-----+----------+
    |  Latency (cycles) |   Latency (absolute)  |  Interval | Pipeline |
    |   min   |   max   |    min    |    max    | min | max |   Type   |
    +---------+---------+-----------+-----------+-----+-----+----------+
    |        1|        1| 12.830 ns | 12.830 ns |    1|    1| function |
    +---------+---------+-----------+-----------+-----+-----+----------+

    + Detail: 
        * Instance: 
        N/A

        * Loop: 
        N/A



================================================================
== Utilization Estimates
================================================================
* Summary: 
+-----------------+---------+-------+--------+-------+-----+
|       Name      | BRAM_18K| DSP48E|   FF   |  LUT  | URAM|
+-----------------+---------+-------+--------+-------+-----+
|DSP              |        -|      -|       -|      -|    -|
|Expression       |        -|      -|       0|  11248|    -|
|FIFO             |        -|      -|       -|      -|    -|
|Instance         |        -|      -|       -|      -|    -|
|Memory           |        -|      -|       -|      -|    -|
|Multiplexer      |        -|      -|       -|    135|    -|
|Register         |        -|      -|    1440|      -|    -|
+-----------------+---------+-------+--------+-------+-----+
|Total            |        0|      0|    1440|  11383|    0|
+-----------------+---------+-------+--------+-------+-----+
|Available        |      280|    220|  106400|  53200|    0|
+-----------------+---------+-------+--------+-------+-----+
|Utilization (%)  |        0|      0|       1|     21|    0|
+-----------------+---------+-------+--------+-------+-----+

+ Detail: 
    * Instance: 
    N/A

    * DSP48E: 
    N/A

    * Memory: 
    N/A

    * FIFO: 
    N/A

    * Expression: 
    +----------------------------------+----------+-------+---+-----+------------+------------+
    |           Variable Name          | Operation| DSP48E| FF| LUT | Bitwidth P0| Bitwidth P1|
    +----------------------------------+----------+-------+---+-----+------------+------------+
    |add_ln647_2_fu_530_p2             |     +    |      0|  0|   15|           9|           9|
    |add_ln647_fu_846_p2               |     +    |      0|  0|   15|           9|           9|
    |add_ln76_1_fu_398_p2              |     +    |      0|  0|   30|          23|           7|
    |add_ln76_fu_666_p2                |     +    |      0|  0|   30|          23|           7|
    |grp_fu_325_p2                     |     +    |      0|  0|   23|          16|           1|
    |p_Val2_33_fu_1066_p2              |     +    |      0|  0|   23|           5|          16|
    |sub_ln647_11_fu_718_p2            |     -    |      0|  0|   15|           8|           9|
    |sub_ln647_12_fu_724_p2            |     -    |      0|  0|   15|           9|           9|
    |sub_ln647_13_fu_754_p2            |     -    |      0|  0|   15|           8|           9|
    |sub_ln647_14_fu_852_p2            |     -    |      0|  0|   15|           8|           9|
    |sub_ln647_15_fu_858_p2            |     -    |      0|  0|   15|           8|           9|
    |sub_ln647_16_fu_888_p2            |     -    |      0|  0|   15|           8|           9|
    |sub_ln647_17_fu_444_p2            |     -    |      0|  0|   15|           9|           9|
    |sub_ln647_18_fu_450_p2            |     -    |      0|  0|   15|           8|           9|
    |sub_ln647_19_fu_456_p2            |     -    |      0|  0|   15|           9|           9|
    |sub_ln647_20_fu_486_p2            |     -    |      0|  0|   15|           8|           9|
    |sub_ln647_21_fu_536_p2            |     -    |      0|  0|   15|           8|           9|
    |sub_ln647_22_fu_542_p2            |     -    |      0|  0|   15|           8|           9|
    |sub_ln647_23_fu_572_p2            |     -    |      0|  0|   15|           8|           9|
    |sub_ln647_fu_712_p2               |     -    |      0|  0|   15|           9|           9|
    |sub_ln80_1_fu_796_p2              |     -    |      0|  0|   30|           1|          23|
    |sub_ln80_2_fu_812_p2              |     -    |      0|  0|   15|           1|           8|
    |sub_ln80_fu_782_p2                |     -    |      0|  0|   30|           9|          23|
    |and_ln1087_fu_1577_p2             |    and   |      0|  0|    2|           1|           1|
    |and_ln82_1_fu_594_p2              |    and   |      0|  0|    2|           1|           1|
    |and_ln82_fu_910_p2                |    and   |      0|  0|    2|           1|           1|
    |and_ln883_fu_1232_p2              |    and   |      0|  0|    2|           1|           1|
    |ap_condition_124                  |    and   |      0|  0|    2|           1|           1|
    |ap_condition_283                  |    and   |      0|  0|    2|           1|           1|
    |ap_condition_67                   |    and   |      0|  0|    2|           1|           1|
    |ap_predicate_op10_read_state1     |    and   |      0|  0|    2|           1|           1|
    |ap_predicate_op15_read_state1     |    and   |      0|  0|    2|           1|           1|
    |ap_predicate_op189_write_state2   |    and   |      0|  0|    2|           1|           1|
    |ap_predicate_op206_write_state2   |    and   |      0|  0|    2|           1|           1|
    |grp_nbreadreq_fu_248_p3           |    and   |      0|  0|    2|           1|           0|
    |p_Result_60_fu_1522_p2            |    and   |      0|  0|  256|         256|         256|
    |p_Result_61_fu_1536_p2            |    and   |      0|  0|  256|         256|         256|
    |p_Result_62_fu_1464_p2            |    and   |      0|  0|  256|         256|         256|
    |p_Result_63_fu_1482_p2            |    and   |      0|  0|  256|         256|         256|
    |tmp_3_nbreadreq_fu_270_p3         |    and   |      0|  0|  256|           1|           0|
    |tmp_nbreadreq_fu_262_p3           |    and   |      0|  0|  256|           1|           0|
    |grp_fu_339_p2                     |   icmp   |      0|  0|   13|          14|           1|
    |icmp_ln1087_fu_1334_p2            |   icmp   |      0|  0|   13|          16|           1|
    |icmp_ln647_2_fu_822_p2            |   icmp   |      0|  0|   18|          24|           1|
    |icmp_ln647_3_fu_416_p2            |   icmp   |      0|  0|   18|          22|          22|
    |icmp_ln647_4_fu_506_p2            |   icmp   |      0|  0|   18|          24|           1|
    |icmp_ln647_fu_684_p2              |   icmp   |      0|  0|   18|          22|          22|
    |icmp_ln76_1_fu_404_p2             |   icmp   |      0|  0|   18|          23|           9|
    |icmp_ln76_fu_672_p2               |   icmp   |      0|  0|   18|          23|           9|
    |icmp_ln883_2_fu_1226_p2           |   icmp   |      0|  0|    9|           4|           1|
    |icmp_ln883_fu_1404_p2             |   icmp   |      0|  0|    9|           4|           1|
    |icmp_ln887_fu_966_p2              |   icmp   |      0|  0|   11|           5|           1|
    |lshr_ln647_19_fu_1516_p2          |   lshr   |      0|  0|  950|           2|         256|
    |lshr_ln647_20_fu_898_p2           |   lshr   |      0|  0|  950|         256|         256|
    |lshr_ln647_21_fu_1530_p2          |   lshr   |      0|  0|  950|           2|         256|
    |lshr_ln647_22_fu_496_p2           |   lshr   |      0|  0|  950|         256|         256|
    |lshr_ln647_23_fu_1458_p2          |   lshr   |      0|  0|  950|           2|         256|
    |lshr_ln647_24_fu_582_p2           |   lshr   |      0|  0|  950|         256|         256|
    |lshr_ln647_25_fu_1476_p2          |   lshr   |      0|  0|  950|           2|         256|
    |lshr_ln647_fu_764_p2              |   lshr   |      0|  0|  950|         256|         256|
    |ap_block_pp0_stage0_01001         |    or    |      0|  0|    2|           1|           1|
    |ap_block_state1_pp0_stage0_iter0  |    or    |      0|  0|    2|           1|           1|
    |ap_block_state2_pp0_stage0_iter1  |    or    |      0|  0|    2|           1|           1|
    |or_ln1115_fu_978_p2               |    or    |      0|  0|    2|           1|           1|
    |or_ln78_1_fu_410_p2               |    or    |      0|  0|   22|           6|          22|
    |or_ln78_fu_678_p2                 |    or    |      0|  0|   22|           6|          22|
    |or_ln887_fu_972_p2                |    or    |      0|  0|    2|           1|           1|
    |select_ln1115_1_fu_998_p3         |  select  |      0|  0|    3|           1|           3|
    |select_ln1115_fu_990_p3           |  select  |      0|  0|    4|           1|           2|
    |select_ln1175_fu_632_p3           |  select  |      0|  0|    2|           1|           1|
    |select_ln176_fu_1432_p3           |  select  |      0|  0|    4|           1|           4|
    |select_ln647_10_fu_880_p3         |  select  |      0|  0|    9|           1|           9|
    |select_ln647_11_fu_462_p3         |  select  |      0|  0|    9|           1|           9|
    |select_ln647_12_fu_470_p3         |  select  |      0|  0|  256|           1|         256|
    |select_ln647_13_fu_478_p3         |  select  |      0|  0|    9|           1|           9|
    |select_ln647_14_fu_548_p3         |  select  |      0|  0|    9|           1|           9|
    |select_ln647_15_fu_556_p3         |  select  |      0|  0|  256|           1|         256|
    |select_ln647_16_fu_564_p3         |  select  |      0|  0|    9|           1|           9|
    |select_ln647_6_fu_738_p3          |  select  |      0|  0|  256|           1|         256|
    |select_ln647_7_fu_746_p3          |  select  |      0|  0|    9|           1|           9|
    |select_ln647_8_fu_864_p3          |  select  |      0|  0|    9|           1|           9|
    |select_ln647_9_fu_872_p3          |  select  |      0|  0|  256|           1|         256|
    |select_ln647_fu_730_p3            |  select  |      0|  0|    9|           1|           9|
    |select_ln76_1_fu_600_p3           |  select  |      0|  0|   16|           1|          16|
    |select_ln76_2_fu_1491_p3          |  select  |      0|  0|   64|           1|          64|
    |select_ln76_fu_916_p3             |  select  |      0|  0|   16|           1|          16|
    |select_ln80_fu_958_p3             |  select  |      0|  0|    5|           1|           5|
    |select_ln82_2_fu_608_p3           |  select  |      0|  0|   16|           1|          16|
    |select_ln82_fu_924_p3             |  select  |      0|  0|   16|           1|          16|
    |select_ln883_1_fu_1246_p3         |  select  |      0|  0|    3|           1|           3|
    |select_ln883_fu_1238_p3           |  select  |      0|  0|    3|           1|           3|
    |sendWord_data_V_3_fu_1424_p3      |  select  |      0|  0|   64|           1|          32|
    |sendWord_data_V_fu_1549_p3        |  select  |      0|  0|   64|           1|          64|
    |tmp_data_V_11_fu_1498_p3          |  select  |      0|  0|   64|           1|          64|
    |ap_enable_pp0                     |    xor   |      0|  0|    2|           1|           2|
    |xor_ln1115_fu_984_p2              |    xor   |      0|  0|    2|           1|           2|
    |xor_ln761_fu_1572_p2              |    xor   |      0|  0|    2|           1|           2|
    |xor_ln76_1_fu_588_p2              |    xor   |      0|  0|    2|           1|           2|
    |xor_ln76_fu_904_p2                |    xor   |      0|  0|    2|           1|           2|
    +----------------------------------+----------+-------+---+-----+------------+------------+
    |Total                             |          |      0|  0|11248|        2512|        4845|
    +----------------------------------+----------+-------+---+-----+------------+------------+

    * Multiplexer: 
    +-----------------------------------------+----+-----------+-----+-----------+
    |                   Name                  | LUT| Input Size| Bits| Total Bits|
    +-----------------------------------------+----+-----------+-----+-----------+
    |ap_done                                  |   9|          2|    1|          2|
    |ap_phi_mux_tmp_last_V_phi_fu_300_p4      |   9|          2|    1|          2|
    |ap_phi_reg_pp0_iter1_tmp_last_V_reg_297  |   9|          2|    1|          2|
    |ap_sig_allocacmp_hasBody_load            |   9|          2|    1|          2|
    |header_idx_5                             |  15|          3|   16|         48|
    |state_1                                  |  21|          4|    3|         12|
    |txEng_shift2pseudoFi_1_blk_n             |   9|          2|    1|          2|
    |txEng_tcpMetaFifo_V_blk_n                |   9|          2|    1|          2|
    |txEng_tcpPkgBuffer1_s_8_blk_n            |   9|          2|    1|          2|
    |txEng_tcpPkgBuffer1_s_8_din              |  27|          5|   73|        365|
    |txEng_tcpTupleFifo_V_blk_n               |   9|          2|    1|          2|
    +-----------------------------------------+----+-----------+-----+-----------+
    |Total                                    | 135|         28|  100|        441|
    +-----------------------------------------+----+-----------+-----+-----------+

    * Register: 
    +-----------------------------------------+-----+----+-----+-----------+
    |                   Name                  |  FF | LUT| Bits| Const Bits|
    +-----------------------------------------+-----+----+-----+-----------+
    |and_ln82_1_reg_1629                      |    1|   0|    1|          0|
    |and_ln82_reg_1659                        |    1|   0|    1|          0|
    |ap_CS_fsm                                |    1|   0|    1|          0|
    |ap_done_reg                              |    1|   0|    1|          0|
    |ap_enable_reg_pp0_iter1                  |    1|   0|    1|          0|
    |ap_phi_reg_pp0_iter1_tmp_last_V_reg_297  |    1|   0|    1|          0|
    |hasBody                                  |    1|   0|    1|          0|
    |header_header_V_6                        |  256|   0|  256|          0|
    |header_idx_5                             |   16|   0|   16|          0|
    |icmp_ln1087_reg_1691                     |    1|   0|    1|          0|
    |icmp_ln76_1_reg_1604                     |    1|   0|    1|          0|
    |isSYN                                    |    1|   0|    1|          0|
    |lshr_ln647_20_reg_1654                   |  256|   0|  256|          0|
    |lshr_ln647_22_reg_1614                   |  256|   0|  256|          0|
    |lshr_ln647_24_reg_1624                   |  256|   0|  256|          0|
    |lshr_ln647_reg_1644                      |  256|   0|  256|          0|
    |or_ln887_reg_1664                        |    1|   0|    1|          0|
    |reg_354                                  |   73|   0|   73|          0|
    |state_1                                  |    3|   0|    3|          0|
    |state_1_load_reg_1588                    |    3|   0|    3|          0|
    |sub_ln647_13_reg_1639                    |    8|   0|    9|          1|
    |sub_ln647_16_reg_1649                    |    8|   0|    9|          1|
    |sub_ln647_20_reg_1609                    |    8|   0|    9|          1|
    |sub_ln647_23_reg_1619                    |    8|   0|    9|          1|
    |tmp_102_i_reg_1634                       |    9|   0|    9|          0|
    |tmp_191_reg_1686                         |    1|   0|    1|          0|
    |tmp_1_reg_1600                           |    1|   0|    1|          0|
    |tmp_2_reg_1592                           |    1|   0|    1|          0|
    |tmp_3_reg_1677                           |    1|   0|    1|          0|
    |tmp_reg_1673                             |    1|   0|    1|          0|
    |tmp_win_shift_V_load_reg_1681            |    4|   0|    4|          0|
    |win_shift_V                              |    4|   0|    4|          0|
    +-----------------------------------------+-----+----+-----+-----------+
    |Total                                    | 1440|   0| 1444|          4|
    +-----------------------------------------+-----+----+-----+-----------+



================================================================
== Interface
================================================================
* Summary: 
+--------------------------------+-----+-----+------------+-------------------------+--------------+
|            RTL Ports           | Dir | Bits|  Protocol  |      Source Object      |    C Type    |
+--------------------------------+-----+-----+------------+-------------------------+--------------+
|ap_clk                          |  in |    1| ap_ctrl_hs |   pseudoHeaderConstruc  | return value |
|ap_rst                          |  in |    1| ap_ctrl_hs |   pseudoHeaderConstruc  | return value |
|ap_start                        |  in |    1| ap_ctrl_hs |   pseudoHeaderConstruc  | return value |
|ap_done                         | out |    1| ap_ctrl_hs |   pseudoHeaderConstruc  | return value |
|ap_continue                     |  in |    1| ap_ctrl_hs |   pseudoHeaderConstruc  | return value |
|ap_idle                         | out |    1| ap_ctrl_hs |   pseudoHeaderConstruc  | return value |
|ap_ready                        | out |    1| ap_ctrl_hs |   pseudoHeaderConstruc  | return value |
|txEng_shift2pseudoFi_1_dout     |  in |   73|   ap_fifo  |  txEng_shift2pseudoFi_1 |    pointer   |
|txEng_shift2pseudoFi_1_empty_n  |  in |    1|   ap_fifo  |  txEng_shift2pseudoFi_1 |    pointer   |
|txEng_shift2pseudoFi_1_read     | out |    1|   ap_fifo  |  txEng_shift2pseudoFi_1 |    pointer   |
|txEng_tcpMetaFifo_V_dout        |  in |  104|   ap_fifo  |   txEng_tcpMetaFifo_V   |    pointer   |
|txEng_tcpMetaFifo_V_empty_n     |  in |    1|   ap_fifo  |   txEng_tcpMetaFifo_V   |    pointer   |
|txEng_tcpMetaFifo_V_read        | out |    1|   ap_fifo  |   txEng_tcpMetaFifo_V   |    pointer   |
|txEng_tcpTupleFifo_V_dout       |  in |   96|   ap_fifo  |   txEng_tcpTupleFifo_V  |    pointer   |
|txEng_tcpTupleFifo_V_empty_n    |  in |    1|   ap_fifo  |   txEng_tcpTupleFifo_V  |    pointer   |
|txEng_tcpTupleFifo_V_read       | out |    1|   ap_fifo  |   txEng_tcpTupleFifo_V  |    pointer   |
|txEng_tcpPkgBuffer1_s_8_din     | out |   73|   ap_fifo  | txEng_tcpPkgBuffer1_s_8 |    pointer   |
|txEng_tcpPkgBuffer1_s_8_full_n  |  in |    1|   ap_fifo  | txEng_tcpPkgBuffer1_s_8 |    pointer   |
|txEng_tcpPkgBuffer1_s_8_write   | out |    1|   ap_fifo  | txEng_tcpPkgBuffer1_s_8 |    pointer   |
+--------------------------------+-----+-----+------------+-------------------------+--------------+

