

================================================================
== Vivado HLS Report for 'remove_pseudo_header'
================================================================
* Date:           Sat Dec 12 19:35:12 2020

* Version:        2019.2.1 (Build 2724168 on Thu Dec 05 05:19:09 MST 2019)
* Project:        toe_prj
* Solution:       solution1
* Product family: zynq
* Target device:  xc7z020-clg400-1


================================================================
== Performance Estimates
================================================================
+ Timing: 
    * Summary: 
    +--------+---------+----------+------------+
    |  Clock |  Target | Estimated| Uncertainty|
    +--------+---------+----------+------------+
    |ap_clk  | 6.40 ns | 2.800 ns |   0.80 ns  |
    +--------+---------+----------+------------+

+ Latency: 
    * Summary: 
    +---------+---------+----------+----------+-----+-----+----------+
    |  Latency (cycles) |  Latency (absolute) |  Interval | Pipeline |
    |   min   |   max   |    min   |    max   | min | max |   Type   |
    +---------+---------+----------+----------+-----+-----+----------+
    |        1|        1| 6.400 ns | 6.400 ns |    1|    1| function |
    +---------+---------+----------+----------+-----+-----+----------+

    + Detail: 
        * Instance: 
        N/A

        * Loop: 
        N/A



================================================================
== Utilization Estimates
================================================================
* Summary: 
+-----------------+---------+-------+--------+-------+-----+
|       Name      | BRAM_18K| DSP48E|   FF   |  LUT  | URAM|
+-----------------+---------+-------+--------+-------+-----+
|DSP              |        -|      -|       -|      -|    -|
|Expression       |        -|      -|       0|     12|    -|
|FIFO             |        -|      -|       -|      -|    -|
|Instance         |        -|      -|       -|      -|    -|
|Memory           |        -|      -|       -|      -|    -|
|Multiplexer      |        -|      -|       -|     36|    -|
|Register         |        -|      -|      79|      -|    -|
+-----------------+---------+-------+--------+-------+-----+
|Total            |        0|      0|      79|     48|    0|
+-----------------+---------+-------+--------+-------+-----+
|Available        |      280|    220|  106400|  53200|    0|
+-----------------+---------+-------+--------+-------+-----+
|Utilization (%)  |        0|      0|   ~0   |   ~0  |    0|
+-----------------+---------+-------+--------+-------+-----+

+ Detail: 
    * Instance: 
    N/A

    * DSP48E: 
    N/A

    * Memory: 
    N/A

    * FIFO: 
    N/A

    * Expression: 
    +----------------------------------+----------+-------+---+----+------------+------------+
    |           Variable Name          | Operation| DSP48E| FF| LUT| Bitwidth P0| Bitwidth P1|
    +----------------------------------+----------+-------+---+----+------------+------------+
    |ap_block_state2_pp0_stage0_iter1  |    and   |      0|  0|   2|           1|           1|
    |ap_predicate_op11_write_state2    |    and   |      0|  0|   2|           1|           1|
    |tmp_nbreadreq_fu_34_p3            |    and   |      0|  0|   2|           1|           0|
    |ap_block_pp0_stage0_01001         |    or    |      0|  0|   2|           1|           1|
    |ap_block_state1_pp0_stage0_iter0  |    or    |      0|  0|   2|           1|           1|
    |ap_enable_pp0                     |    xor   |      0|  0|   2|           1|           2|
    +----------------------------------+----------+-------+---+----+------------+------------+
    |Total                             |          |      0|  0|  12|           6|           6|
    +----------------------------------+----------+-------+---+----+------------+------------+

    * Multiplexer: 
    +---------------------------------+----+-----------+-----+-----------+
    |               Name              | LUT| Input Size| Bits| Total Bits|
    +---------------------------------+----+-----------+-----+-----------+
    |ap_done                          |   9|          2|    1|          2|
    |ap_sig_allocacmp_firstWord_load  |   9|          2|    1|          2|
    |txEng_tcpPkgBuffer2_s_7_blk_n    |   9|          2|    1|          2|
    |txEng_tcpPkgBuffer3_s_6_blk_n    |   9|          2|    1|          2|
    +---------------------------------+----+-----------+-----+-----------+
    |Total                            |  36|          8|    4|          8|
    +---------------------------------+----+-----------+-----+-----------+

    * Register: 
    +-------------------------+----+----+-----+-----------+
    |           Name          | FF | LUT| Bits| Const Bits|
    +-------------------------+----+----+-----+-----------+
    |ap_CS_fsm                |   1|   0|    1|          0|
    |ap_done_reg              |   1|   0|    1|          0|
    |ap_enable_reg_pp0_iter1  |   1|   0|    1|          0|
    |firstWord                |   1|   0|    1|          0|
    |firstWord_load_reg_82    |   1|   0|    1|          0|
    |tmp33_reg_76             |  73|   0|   73|          0|
    |tmp_reg_72               |   1|   0|    1|          0|
    +-------------------------+----+----+-----+-----------+
    |Total                    |  79|   0|   79|          0|
    +-------------------------+----+----+-----+-----------+



================================================================
== Interface
================================================================
* Summary: 
+---------------------------------+-----+-----+------------+-------------------------+--------------+
|            RTL Ports            | Dir | Bits|  Protocol  |      Source Object      |    C Type    |
+---------------------------------+-----+-----+------------+-------------------------+--------------+
|ap_clk                           |  in |    1| ap_ctrl_hs |   remove_pseudo_header  | return value |
|ap_rst                           |  in |    1| ap_ctrl_hs |   remove_pseudo_header  | return value |
|ap_start                         |  in |    1| ap_ctrl_hs |   remove_pseudo_header  | return value |
|ap_done                          | out |    1| ap_ctrl_hs |   remove_pseudo_header  | return value |
|ap_continue                      |  in |    1| ap_ctrl_hs |   remove_pseudo_header  | return value |
|ap_idle                          | out |    1| ap_ctrl_hs |   remove_pseudo_header  | return value |
|ap_ready                         | out |    1| ap_ctrl_hs |   remove_pseudo_header  | return value |
|txEng_tcpPkgBuffer2_s_7_dout     |  in |   73|   ap_fifo  | txEng_tcpPkgBuffer2_s_7 |    pointer   |
|txEng_tcpPkgBuffer2_s_7_empty_n  |  in |    1|   ap_fifo  | txEng_tcpPkgBuffer2_s_7 |    pointer   |
|txEng_tcpPkgBuffer2_s_7_read     | out |    1|   ap_fifo  | txEng_tcpPkgBuffer2_s_7 |    pointer   |
|txEng_tcpPkgBuffer3_s_6_din      | out |   73|   ap_fifo  | txEng_tcpPkgBuffer3_s_6 |    pointer   |
|txEng_tcpPkgBuffer3_s_6_full_n   |  in |    1|   ap_fifo  | txEng_tcpPkgBuffer3_s_6 |    pointer   |
|txEng_tcpPkgBuffer3_s_6_write    | out |    1|   ap_fifo  | txEng_tcpPkgBuffer3_s_6 |    pointer   |
+---------------------------------+-----+-----+------------+-------------------------+--------------+

