

================================================================
== Vivado HLS Report for 'retransmit_timer'
================================================================
* Date:           Sat Dec 12 19:34:54 2020

* Version:        2019.2.1 (Build 2724168 on Thu Dec 05 05:19:09 MST 2019)
* Project:        toe_prj
* Solution:       solution1
* Product family: zynq
* Target device:  xc7z020-clg400-1


================================================================
== Performance Estimates
================================================================
+ Timing: 
    * Summary: 
    +--------+---------+----------+------------+
    |  Clock |  Target | Estimated| Uncertainty|
    +--------+---------+----------+------------+
    |ap_clk  | 6.40 ns | 7.683 ns |   0.80 ns  |
    +--------+---------+----------+------------+

+ Latency: 
    * Summary: 
    +---------+---------+-----------+-----------+-----+-----+----------+
    |  Latency (cycles) |   Latency (absolute)  |  Interval | Pipeline |
    |   min   |   max   |    min    |    max    | min | max |   Type   |
    +---------+---------+-----------+-----------+-----+-----+----------+
    |        4|        4| 30.732 ns | 30.732 ns |    1|    1| function |
    +---------+---------+-----------+-----------+-----+-----+----------+

    + Detail: 
        * Instance: 
        N/A

        * Loop: 
        N/A



================================================================
== Utilization Estimates
================================================================
* Summary: 
+-----------------+---------+-------+--------+-------+-----+
|       Name      | BRAM_18K| DSP48E|   FF   |  LUT  | URAM|
+-----------------+---------+-------+--------+-------+-----+
|DSP              |        -|      -|       -|      -|    -|
|Expression       |        -|      -|       0|    328|    -|
|FIFO             |        -|      -|       -|      -|    -|
|Instance         |        -|      -|       -|      -|    -|
|Memory           |        3|      -|       0|      0|    0|
|Multiplexer      |        -|      -|       -|    317|    -|
|Register         |        0|      -|     645|    128|    -|
+-----------------+---------+-------+--------+-------+-----+
|Total            |        3|      0|     645|    773|    0|
+-----------------+---------+-------+--------+-------+-----+
|Available        |      280|    220|  106400|  53200|    0|
+-----------------+---------+-------+--------+-------+-----+
|Utilization (%)  |        1|      0|   ~0   |      1|    0|
+-----------------+---------+-------+--------+-------+-----+

+ Detail: 
    * Instance: 
    N/A

    * DSP48E: 
    N/A

    * Memory: 
    +------------------------+----------------------+---------+---+----+-----+------+-----+------+-------------+
    |         Memory         |        Module        | BRAM_18K| FF| LUT| URAM| Words| Bits| Banks| W*Bits*Banks|
    +------------------------+----------------------+---------+---+----+-----+------+-----+------+-------------+
    |retransmitTimerTable_U  |retransmit_timer_zec  |        3|  0|   0|    0|  1000|   39|     1|        39000|
    +------------------------+----------------------+---------+---+----+-----+------+-----+------+-------------+
    |Total                   |                      |        3|  0|   0|    0|  1000|   39|     1|        39000|
    +------------------------+----------------------+---------+---+----+-----+------+-----+------+-------------+

    * FIFO: 
    N/A

    * Expression: 
    +-----------------------------------+----------+-------+---+----+------------+------------+
    |           Variable Name           | Operation| DSP48E| FF| LUT| Bitwidth P0| Bitwidth P1|
    +-----------------------------------+----------+-------+---+----+------------+------------+
    |add_ln700_8_fu_574_p2              |     +    |      0|  0|  23|          16|           3|
    |add_ln700_fu_502_p2                |     +    |      0|  0|  23|           1|          16|
    |add_ln701_fu_644_p2                |     +    |      0|  0|  39|          32|           2|
    |add_ln891_fu_508_p2                |     +    |      0|  0|  14|           1|          10|
    |ret_V_fu_541_p2                    |     +    |      0|  0|  24|           3|          17|
    |tmp_rt_count_V_fu_699_p2           |     +    |      0|  0|  12|           3|           1|
    |and_ln80_fu_426_p2                 |    and   |      0|  0|   2|           1|           1|
    |ap_block_pp0                       |    and   |      0|  0|   2|           1|           1|
    |ap_block_state4_pp0_stage0_iter3   |    and   |      0|  0|   2|           1|           1|
    |ap_condition_172                   |    and   |      0|  0|   2|           1|           1|
    |ap_condition_320                   |    and   |      0|  0|   2|           1|           1|
    |ap_condition_322                   |    and   |      0|  0|   2|           1|           1|
    |ap_condition_423                   |    and   |      0|  0|   2|           1|           1|
    |ap_condition_432                   |    and   |      0|  0|   2|           1|           1|
    |ap_condition_66                    |    and   |      0|  0|   2|           1|           1|
    |ap_enable_state2_pp0_iter1_stage0  |    and   |      0|  0|   2|           1|           1|
    |ap_enable_state3_pp0_iter2_stage0  |    and   |      0|  0|   2|           1|           1|
    |ap_enable_state4_pp0_iter3_stage0  |    and   |      0|  0|   2|           1|           1|
    |ap_predicate_op110_write_state5    |    and   |      0|  0|   2|           1|           1|
    |ap_predicate_op112_write_state5    |    and   |      0|  0|   2|           1|           1|
    |ap_predicate_op115_write_state5    |    and   |      0|  0|   2|           1|           1|
    |ap_predicate_op16_read_state1      |    and   |      0|  0|   2|           1|           1|
    |ap_predicate_op52_load_state2      |    and   |      0|  0|   2|           1|           1|
    |ap_predicate_op59_load_state3      |    and   |      0|  0|   2|           1|           1|
    |ap_predicate_op87_write_state4     |    and   |      0|  0|   2|           1|           1|
    |ap_predicate_op97_store_state4     |    and   |      0|  0|   2|           1|           1|
    |tmp_147_nbreadreq_fu_158_p3        |    and   |      0|  0|   2|           1|           0|
    |tmp_nbreadreq_fu_144_p3            |    and   |      0|  0|   2|           1|           0|
    |icmp_ln108_fu_551_p2               |   icmp   |      0|  0|  18|          17|          17|
    |icmp_ln175_fu_717_p2               |   icmp   |      0|  0|   9|           3|           2|
    |icmp_ln883_fu_420_p2               |   icmp   |      0|  0|  13|          16|          16|
    |icmp_ln891_fu_514_p2               |   icmp   |      0|  0|  13|          16|          10|
    |icmp_ln895_fu_638_p2               |   icmp   |      0|  0|  18|          32|           1|
    |icmp_ln899_fu_563_p2               |   icmp   |      0|  0|  13|          16|          16|
    |ap_block_pp0_stage0_01001          |    or    |      0|  0|   2|           1|           1|
    |ap_block_state1_pp0_stage0_iter0   |    or    |      0|  0|   2|           1|           1|
    |ap_block_state5_pp0_stage0_iter4   |    or    |      0|  0|   2|           1|           1|
    |or_ln108_fu_568_p2                 |    or    |      0|  0|   2|           1|           1|
    |or_ln94_fu_438_p2                  |    or    |      0|  0|   2|           1|           1|
    |select_ln117_fu_520_p3             |  select  |      0|  0|  10|           1|           1|
    |select_ln82_fu_684_p3              |  select  |      0|  0|  39|           1|          39|
    |ap_enable_pp0                      |    xor   |      0|  0|   2|           1|           2|
    |xor_ln108_fu_557_p2                |    xor   |      0|  0|   2|           1|           2|
    |xor_ln94_fu_432_p2                 |    xor   |      0|  0|   2|           1|           2|
    +-----------------------------------+----------+-------+---+----+------------+------------+
    |Total                              |          |      0|  0| 328|         188|         182|
    +-----------------------------------+----------+-------+---+----+------------+------------+

    * Multiplexer: 
    +----------------------------------------------+----+-----------+-----+-----------+
    |                     Name                     | LUT| Input Size| Bits| Total Bits|
    +----------------------------------------------+----+-----------+-----+-----------+
    |ap_done                                       |   9|          2|    1|          2|
    |ap_phi_mux_empty_386_phi_fu_277_p22           |  15|          3|   32|         96|
    |ap_phi_mux_empty_387_phi_fu_312_p22           |   9|          2|    3|          6|
    |ap_phi_mux_empty_388_phi_fu_346_p22           |  15|          3|    1|          3|
    |ap_phi_mux_empty_389_phi_fu_383_p22           |  21|          4|    3|         12|
    |ap_phi_mux_tmp_sessionID_V_phi_fu_236_p4      |   9|          2|   16|         32|
    |ap_phi_reg_pp0_iter1_empty_reg_243            |   9|          2|    3|          6|
    |ap_phi_reg_pp0_iter1_p_0158_0_i_reg_255       |   9|          2|    1|          2|
    |ap_phi_reg_pp0_iter1_tmp_sessionID_V_reg_232  |   9|          2|   16|         32|
    |ap_phi_reg_pp0_iter2_p_0158_0_i_reg_255       |   9|          2|    1|          2|
    |ap_phi_reg_pp0_iter3_empty_386_reg_269        |  38|          7|   32|        224|
    |ap_phi_reg_pp0_iter3_empty_387_reg_309        |  15|          3|    3|          9|
    |ap_phi_reg_pp0_iter3_empty_388_reg_342        |  15|          3|    1|          3|
    |ap_phi_reg_pp0_iter3_empty_389_reg_380        |   9|          2|    3|          6|
    |ap_sig_allocacmp_rt_prevPosition_V_lo         |   9|          2|   16|         32|
    |retransmitTimerTable_address0                 |  15|          3|   10|         30|
    |retransmitTimerTable_address1                 |  15|          3|   10|         30|
    |retransmitTimerTable_d1                       |  15|          3|   39|        117|
    |rtTimer2eventEng_set_1_blk_n                  |   9|          2|    1|          2|
    |rtTimer2stateTable_r_1_blk_n                  |   9|          2|    1|          2|
    |rt_position_V                                 |   9|          2|   16|         32|
    |rxEng2timer_clearRet_1_blk_n                  |   9|          2|    1|          2|
    |timer2rxApp_notifica_1_blk_n                  |   9|          2|    1|          2|
    |timer2txApp_notifica_1_blk_n                  |   9|          2|    1|          2|
    |tmp_sessionID_V_reg_232                       |   9|          2|   16|         32|
    |txEng2timer_setRetra_1_blk_n                  |   9|          2|    1|          2|
    +----------------------------------------------+----+-----------+-----+-----------+
    |Total                                         | 317|         66|  229|        720|
    +----------------------------------------------+----+-----------+-----+-----------+

    * Register: 
    +----------------------------------------------+----+----+-----+-----------+
    |                     Name                     | FF | LUT| Bits| Const Bits|
    +----------------------------------------------+----+----+-----+-----------+
    |add_ln701_reg_855                             |  32|   0|   32|          0|
    |and_ln80_reg_765                              |   1|   0|    1|          0|
    |ap_CS_fsm                                     |   1|   0|    1|          0|
    |ap_done_reg                                   |   1|   0|    1|          0|
    |ap_enable_reg_pp0_iter1                       |   1|   0|    1|          0|
    |ap_enable_reg_pp0_iter2                       |   1|   0|    1|          0|
    |ap_enable_reg_pp0_iter3                       |   1|   0|    1|          0|
    |ap_enable_reg_pp0_iter4                       |   1|   0|    1|          0|
    |ap_phi_reg_pp0_iter1_empty_386_reg_269        |  32|   0|   32|          0|
    |ap_phi_reg_pp0_iter1_empty_387_reg_309        |   3|   0|    3|          0|
    |ap_phi_reg_pp0_iter1_empty_388_reg_342        |   1|   0|    1|          0|
    |ap_phi_reg_pp0_iter1_empty_389_reg_380        |   3|   0|    3|          0|
    |ap_phi_reg_pp0_iter1_empty_reg_243            |   3|   0|    3|          0|
    |ap_phi_reg_pp0_iter1_p_0158_0_i_reg_255       |   1|   0|    1|          0|
    |ap_phi_reg_pp0_iter1_tmp_sessionID_V_reg_232  |  16|   0|   16|          0|
    |ap_phi_reg_pp0_iter2_empty_386_reg_269        |  32|   0|   32|          0|
    |ap_phi_reg_pp0_iter2_empty_387_reg_309        |   3|   0|    3|          0|
    |ap_phi_reg_pp0_iter2_empty_388_reg_342        |   1|   0|    1|          0|
    |ap_phi_reg_pp0_iter2_empty_389_reg_380        |   3|   0|    3|          0|
    |ap_phi_reg_pp0_iter2_empty_reg_243            |   3|   0|    3|          0|
    |ap_phi_reg_pp0_iter2_p_0158_0_i_reg_255       |   1|   0|    1|          0|
    |ap_phi_reg_pp0_iter3_empty_386_reg_269        |  32|   0|   32|          0|
    |ap_phi_reg_pp0_iter3_empty_387_reg_309        |   3|   0|    3|          0|
    |ap_phi_reg_pp0_iter3_empty_388_reg_342        |   1|   0|    1|          0|
    |ap_phi_reg_pp0_iter3_empty_389_reg_380        |   3|   0|    3|          0|
    |currID_V_1_reg_782                            |  16|   0|   16|          0|
    |icmp_ln175_reg_873                            |   1|   0|    1|          0|
    |icmp_ln895_reg_851                            |   1|   0|    1|          0|
    |icmp_ln895_reg_851_pp0_iter3_reg              |   1|   0|    1|          0|
    |or_ln94_reg_769                               |   1|   0|    1|          0|
    |p_0158_0_i_reg_255                            |   1|   0|    1|          0|
    |p_0158_0_i_reg_255_pp0_iter3_reg              |   1|   0|    1|          0|
    |retransmitTimerTable_1_reg_794                |  10|   0|   10|          0|
    |retransmitTimerTable_4_reg_804                |  10|   0|   10|          0|
    |retransmitTimerTable_4_reg_804_pp0_iter2_reg  |  10|   0|   10|          0|
    |retransmitTimerTable_7_reg_810                |  39|   0|   39|          0|
    |rt_position_V                                 |  16|   0|   16|          0|
    |rt_prevPosition_V                             |  16|   0|   16|          0|
    |rt_update_sessionID_s                         |  16|   0|   16|          0|
    |rt_update_stop                                |   1|   0|    1|          0|
    |rt_waitForWrite                               |   1|   0|    1|          0|
    |select_ln82_reg_860                           |  39|   0|   39|          0|
    |t_V_2_reg_821                                 |   3|   0|    3|          0|
    |tmp_147_reg_778                               |   1|   0|    1|          0|
    |tmp_148_reg_773                               |   1|   0|    1|          0|
    |tmp_148_reg_773_pp0_iter1_reg                 |   1|   0|    1|          0|
    |tmp_149_reg_835                               |   1|   0|    1|          0|
    |tmp_149_reg_835_pp0_iter3_reg                 |   1|   0|    1|          0|
    |tmp_150_reg_865                               |   1|   0|    1|          0|
    |tmp_151_reg_869                               |   1|   0|    1|          0|
    |tmp_sessionID_V_reg_232                       |  16|   0|   16|          0|
    |tmp_type_reg_840                              |   3|   0|    3|          0|
    |and_ln80_reg_765                              |  64|  32|    1|          0|
    |or_ln94_reg_769                               |  64|  32|    1|          0|
    |retransmitTimerTable_1_reg_794                |  64|  32|   10|          0|
    |tmp_sessionID_V_reg_232                       |  64|  32|   16|          0|
    +----------------------------------------------+----+----+-----+-----------+
    |Total                                         | 645| 128|  417|          0|
    +----------------------------------------------+----+----+-----+-----------+



================================================================
== Interface
================================================================
* Summary: 
+--------------------------------+-----+-----+------------+------------------------+--------------+
|            RTL Ports           | Dir | Bits|  Protocol  |      Source Object     |    C Type    |
+--------------------------------+-----+-----+------------+------------------------+--------------+
|ap_clk                          |  in |    1| ap_ctrl_hs |    retransmit_timer    | return value |
|ap_rst                          |  in |    1| ap_ctrl_hs |    retransmit_timer    | return value |
|ap_start                        |  in |    1| ap_ctrl_hs |    retransmit_timer    | return value |
|ap_done                         | out |    1| ap_ctrl_hs |    retransmit_timer    | return value |
|ap_continue                     |  in |    1| ap_ctrl_hs |    retransmit_timer    | return value |
|ap_idle                         | out |    1| ap_ctrl_hs |    retransmit_timer    | return value |
|ap_ready                        | out |    1| ap_ctrl_hs |    retransmit_timer    | return value |
|rxEng2timer_clearRet_1_dout     |  in |   17|   ap_fifo  | rxEng2timer_clearRet_1 |    pointer   |
|rxEng2timer_clearRet_1_empty_n  |  in |    1|   ap_fifo  | rxEng2timer_clearRet_1 |    pointer   |
|rxEng2timer_clearRet_1_read     | out |    1|   ap_fifo  | rxEng2timer_clearRet_1 |    pointer   |
|txEng2timer_setRetra_1_dout     |  in |   19|   ap_fifo  | txEng2timer_setRetra_1 |    pointer   |
|txEng2timer_setRetra_1_empty_n  |  in |    1|   ap_fifo  | txEng2timer_setRetra_1 |    pointer   |
|txEng2timer_setRetra_1_read     | out |    1|   ap_fifo  | txEng2timer_setRetra_1 |    pointer   |
|rtTimer2eventEng_set_1_din      | out |   56|   ap_fifo  | rtTimer2eventEng_set_1 |    pointer   |
|rtTimer2eventEng_set_1_full_n   |  in |    1|   ap_fifo  | rtTimer2eventEng_set_1 |    pointer   |
|rtTimer2eventEng_set_1_write    | out |    1|   ap_fifo  | rtTimer2eventEng_set_1 |    pointer   |
|rtTimer2stateTable_r_1_din      | out |   16|   ap_fifo  | rtTimer2stateTable_r_1 |    pointer   |
|rtTimer2stateTable_r_1_full_n   |  in |    1|   ap_fifo  | rtTimer2stateTable_r_1 |    pointer   |
|rtTimer2stateTable_r_1_write    | out |    1|   ap_fifo  | rtTimer2stateTable_r_1 |    pointer   |
|timer2rxApp_notifica_1_din      | out |   81|   ap_fifo  | timer2rxApp_notifica_1 |    pointer   |
|timer2rxApp_notifica_1_full_n   |  in |    1|   ap_fifo  | timer2rxApp_notifica_1 |    pointer   |
|timer2rxApp_notifica_1_write    | out |    1|   ap_fifo  | timer2rxApp_notifica_1 |    pointer   |
|timer2txApp_notifica_1_din      | out |   17|   ap_fifo  | timer2txApp_notifica_1 |    pointer   |
|timer2txApp_notifica_1_full_n   |  in |    1|   ap_fifo  | timer2txApp_notifica_1 |    pointer   |
|timer2txApp_notifica_1_write    | out |    1|   ap_fifo  | timer2txApp_notifica_1 |    pointer   |
+--------------------------------+-----+-----+------------+------------------------+--------------+

