

================================================================
== Vivado HLS Report for 'rx_app_stream_if'
================================================================
* Date:           Sat Dec 12 19:35:15 2020

* Version:        2019.2.1 (Build 2724168 on Thu Dec 05 05:19:09 MST 2019)
* Project:        toe_prj
* Solution:       solution1
* Product family: zynq
* Target device:  xc7z020-clg400-1


================================================================
== Performance Estimates
================================================================
+ Timing: 
    * Summary: 
    +--------+---------+----------+------------+
    |  Clock |  Target | Estimated| Uncertainty|
    +--------+---------+----------+------------+
    |ap_clk  | 6.40 ns | 4.936 ns |   0.80 ns  |
    +--------+---------+----------+------------+

+ Latency: 
    * Summary: 
    +---------+---------+-----------+-----------+-----+-----+----------+
    |  Latency (cycles) |   Latency (absolute)  |  Interval | Pipeline |
    |   min   |   max   |    min    |    max    | min | max |   Type   |
    +---------+---------+-----------+-----------+-----+-----+----------+
    |        2|        2| 12.800 ns | 12.800 ns |    1|    1| function |
    +---------+---------+-----------+-----------+-----+-----+----------+

    + Detail: 
        * Instance: 
        N/A

        * Loop: 
        N/A



================================================================
== Utilization Estimates
================================================================
* Summary: 
+-----------------+---------+-------+--------+-------+-----+
|       Name      | BRAM_18K| DSP48E|   FF   |  LUT  | URAM|
+-----------------+---------+-------+--------+-------+-----+
|DSP              |        -|      -|       -|      -|    -|
|Expression       |        -|      -|       0|     72|    -|
|FIFO             |        -|      -|       -|      -|    -|
|Instance         |        -|      -|       -|      -|    -|
|Memory           |        -|      -|       -|      -|    -|
|Multiplexer      |        -|      -|       -|     69|    -|
|Register         |        -|      -|      77|      -|    -|
+-----------------+---------+-------+--------+-------+-----+
|Total            |        0|      0|      77|    141|    0|
+-----------------+---------+-------+--------+-------+-----+
|Available        |      280|    220|  106400|  53200|    0|
+-----------------+---------+-------+--------+-------+-----+
|Utilization (%)  |        0|      0|   ~0   |   ~0  |    0|
+-----------------+---------+-------+--------+-------+-----+

+ Detail: 
    * Instance: 
    N/A

    * DSP48E: 
    N/A

    * Memory: 
    N/A

    * FIFO: 
    N/A

    * Expression: 
    +----------------------------------+----------+-------+---+----+------------+------------+
    |           Variable Name          | Operation| DSP48E| FF| LUT| Bitwidth P0| Bitwidth P1|
    +----------------------------------+----------+-------+---+----+------------+------------+
    |tmp_appd_V_fu_196_p2              |     +    |      0|  0|  25|          18|          18|
    |ap_block_state2_io                |    and   |      0|  0|   2|           1|           1|
    |ap_block_state3_io                |    and   |      0|  0|   2|           1|           1|
    |ap_condition_133                  |    and   |      0|  0|   2|           1|           1|
    |ap_condition_177                  |    and   |      0|  0|   2|           1|           1|
    |ap_condition_214                  |    and   |      0|  0|   2|           1|           1|
    |ap_predicate_op17_read_state1     |    and   |      0|  0|   2|           1|           1|
    |ap_predicate_op22_write_state2    |    and   |      0|  0|   2|           1|           1|
    |ap_predicate_op23_write_state2    |    and   |      0|  0|   2|           1|           1|
    |ap_predicate_op39_write_state3    |    and   |      0|  0|   2|           1|           1|
    |ap_predicate_op8_read_state1      |    and   |      0|  0|   2|           1|           1|
    |tmp_92_nbreadreq_fu_74_p3         |    and   |      0|  0|   2|           1|           0|
    |tmp_nbreadreq_fu_88_p3            |    and   |      0|  0|   2|           1|           0|
    |icmp_ln883_fu_138_p2              |   icmp   |      0|  0|  13|          16|           1|
    |ap_block_pp0_stage0_01001         |    or    |      0|  0|   2|           1|           1|
    |ap_block_pp0_stage0_11001         |    or    |      0|  0|   2|           1|           1|
    |ap_block_state1_pp0_stage0_iter0  |    or    |      0|  0|   2|           1|           1|
    |ap_block_state2_pp0_stage0_iter1  |    or    |      0|  0|   2|           1|           1|
    |ap_enable_pp0                     |    xor   |      0|  0|   2|           1|           2|
    +----------------------------------+----------+-------+---+----+------------+------------+
    |Total                             |          |      0|  0|  72|          51|          35|
    +----------------------------------+----------+-------+---+----+------------+------------+

    * Multiplexer: 
    +--------------------------------------+----+-----------+-----+-----------+
    |                 Name                 | LUT| Input Size| Bits| Total Bits|
    +--------------------------------------+----+-----------+-----+-----------+
    |ap_done                               |   9|          2|    1|          2|
    |appRxDataReq_V_TDATA_blk_n            |   9|          2|    1|          2|
    |appRxDataRspMetadata_V_V_TDATA_blk_n  |   9|          2|    1|          2|
    |rxApp2rxSar_upd_req_s_19_blk_n        |   9|          2|    1|          2|
    |rxApp2rxSar_upd_req_s_19_din          |  15|          3|   35|        105|
    |rxBufferReadCmd_V_V_blk_n             |   9|          2|    1|          2|
    |rxSar2rxApp_upd_rsp_s_16_blk_n        |   9|          2|    1|          2|
    +--------------------------------------+----+-----------+-----+-----------+
    |Total                                 |  69|         15|   41|        117|
    +--------------------------------------+----+-----------+-----+-----------+

    * Register: 
    +--------------------------------------------+----+----+-----+-----------+
    |                    Name                    | FF | LUT| Bits| Const Bits|
    +--------------------------------------------+----+----+-----+-----------+
    |ap_CS_fsm                                   |   1|   0|    1|          0|
    |ap_done_reg                                 |   1|   0|    1|          0|
    |ap_enable_reg_pp0_iter1                     |   1|   0|    1|          0|
    |ap_enable_reg_pp0_iter2                     |   1|   0|    1|          0|
    |icmp_ln883_reg_219                          |   1|   0|    1|          0|
    |rasi_fsmState_V                             |   1|   0|    1|          0|
    |rasi_fsmState_V_load_reg_211                |   1|   0|    1|          0|
    |rasi_fsmState_V_load_reg_211_pp0_iter1_reg  |   1|   0|    1|          0|
    |rasi_readLength_V                           |  16|   0|   16|          0|
    |tmp_92_reg_215                              |   1|   0|    1|          0|
    |tmp_V_reg_232                               |  16|   0|   16|          0|
    |tmp_appd_V_load_new_s_reg_238               |  18|   0|   18|          0|
    |tmp_reg_228                                 |   1|   0|    1|          0|
    |tmp_reg_228_pp0_iter1_reg                   |   1|   0|    1|          0|
    |tmp_sessionID_V_6_reg_223                   |  16|   0|   16|          0|
    +--------------------------------------------+----+----+-----+-----------+
    |Total                                       |  77|   0|   77|          0|
    +--------------------------------------------+----+----+-----+-----------+



================================================================
== Interface
================================================================
* Summary: 
+----------------------------------+-----+-----+------------+--------------------------+--------------+
|             RTL Ports            | Dir | Bits|  Protocol  |       Source Object      |    C Type    |
+----------------------------------+-----+-----+------------+--------------------------+--------------+
|ap_clk                            |  in |    1| ap_ctrl_hs |     rx_app_stream_if     | return value |
|ap_rst                            |  in |    1| ap_ctrl_hs |     rx_app_stream_if     | return value |
|ap_start                          |  in |    1| ap_ctrl_hs |     rx_app_stream_if     | return value |
|ap_done                           | out |    1| ap_ctrl_hs |     rx_app_stream_if     | return value |
|ap_continue                       |  in |    1| ap_ctrl_hs |     rx_app_stream_if     | return value |
|ap_idle                           | out |    1| ap_ctrl_hs |     rx_app_stream_if     | return value |
|ap_ready                          | out |    1| ap_ctrl_hs |     rx_app_stream_if     | return value |
|appRxDataReq_V_TVALID             |  in |    1|    axis    |      appRxDataReq_V      |    pointer   |
|appRxDataReq_V_TDATA              |  in |   32|    axis    |      appRxDataReq_V      |    pointer   |
|appRxDataReq_V_TREADY             | out |    1|    axis    |      appRxDataReq_V      |    pointer   |
|rxSar2rxApp_upd_rsp_s_16_dout     |  in |   35|   ap_fifo  | rxSar2rxApp_upd_rsp_s_16 |    pointer   |
|rxSar2rxApp_upd_rsp_s_16_empty_n  |  in |    1|   ap_fifo  | rxSar2rxApp_upd_rsp_s_16 |    pointer   |
|rxSar2rxApp_upd_rsp_s_16_read     | out |    1|   ap_fifo  | rxSar2rxApp_upd_rsp_s_16 |    pointer   |
|rxApp2rxSar_upd_req_s_19_din      | out |   35|   ap_fifo  | rxApp2rxSar_upd_req_s_19 |    pointer   |
|rxApp2rxSar_upd_req_s_19_full_n   |  in |    1|   ap_fifo  | rxApp2rxSar_upd_req_s_19 |    pointer   |
|rxApp2rxSar_upd_req_s_19_write    | out |    1|   ap_fifo  | rxApp2rxSar_upd_req_s_19 |    pointer   |
|rxBufferReadCmd_V_V_din           | out |    1|   ap_fifo  |    rxBufferReadCmd_V_V   |    pointer   |
|rxBufferReadCmd_V_V_full_n        |  in |    1|   ap_fifo  |    rxBufferReadCmd_V_V   |    pointer   |
|rxBufferReadCmd_V_V_write         | out |    1|   ap_fifo  |    rxBufferReadCmd_V_V   |    pointer   |
|appRxDataRspMetadata_V_V_TREADY   |  in |    1|    axis    | appRxDataRspMetadata_V_V |    pointer   |
|appRxDataRspMetadata_V_V_TDATA    | out |   16|    axis    | appRxDataRspMetadata_V_V |    pointer   |
|appRxDataRspMetadata_V_V_TVALID   | out |    1|    axis    | appRxDataRspMetadata_V_V |    pointer   |
+----------------------------------+-----+-----+------------+--------------------------+--------------+

