

================================================================
== Vivado HLS Report for 'rx_sar_table'
================================================================
* Date:           Sat Dec 12 19:34:51 2020

* Version:        2019.2.1 (Build 2724168 on Thu Dec 05 05:19:09 MST 2019)
* Project:        toe_prj
* Solution:       solution1
* Product family: zynq
* Target device:  xc7z020-clg400-1


================================================================
== Performance Estimates
================================================================
+ Timing: 
    * Summary: 
    +--------+---------+----------+------------+
    |  Clock |  Target | Estimated| Uncertainty|
    +--------+---------+----------+------------+
    |ap_clk  | 6.40 ns | 5.390 ns |   0.80 ns  |
    +--------+---------+----------+------------+

+ Latency: 
    * Summary: 
    +---------+---------+-----------+-----------+-----+-----+----------+
    |  Latency (cycles) |   Latency (absolute)  |  Interval | Pipeline |
    |   min   |   max   |    min    |    max    | min | max |   Type   |
    +---------+---------+-----------+-----------+-----+-----+----------+
    |        6|        6| 38.400 ns | 38.400 ns |    1|    1| function |
    +---------+---------+-----------+-----------+-----+-----+----------+

    + Detail: 
        * Instance: 
        N/A

        * Loop: 
        N/A



================================================================
== Utilization Estimates
================================================================
* Summary: 
+-----------------+---------+-------+--------+-------+-----+
|       Name      | BRAM_18K| DSP48E|   FF   |  LUT  | URAM|
+-----------------+---------+-------+--------+-------+-----+
|DSP              |        -|      -|       -|      -|    -|
|Expression       |        -|      -|       0|    142|    -|
|FIFO             |        -|      -|       -|      -|    -|
|Instance         |        -|      -|       -|      -|    -|
|Memory           |        9|      -|       0|      0|    0|
|Multiplexer      |        -|      -|       -|    198|    -|
|Register         |        0|      -|     853|    224|    -|
+-----------------+---------+-------+--------+-------+-----+
|Total            |        9|      0|     853|    564|    0|
+-----------------+---------+-------+--------+-------+-----+
|Available        |      280|    220|  106400|  53200|    0|
+-----------------+---------+-------+--------+-------+-----+
|Utilization (%)  |        3|      0|   ~0   |      1|    0|
+-----------------+---------+-------+--------+-------+-----+

+ Detail: 
    * Instance: 
    N/A

    * DSP48E: 
    N/A

    * Memory: 
    +------------------------+----------------------+---------+---+----+-----+------+-----+------+-------------+
    |         Memory         |        Module        | BRAM_18K| FF| LUT| URAM| Words| Bits| Banks| W*Bits*Banks|
    +------------------------+----------------------+---------+---+----+-----+------+-----+------+-------------+
    |rx_table_recvd_V_U      |rx_sar_table_rx_tg8j  |        2|  0|   0|    0|  1000|   32|     1|        32000|
    |rx_table_head_V_U       |rx_sar_table_rx_tg8j  |        2|  0|   0|    0|  1000|   32|     1|        32000|
    |rx_table_offset_V_U     |rx_sar_table_rx_tg8j  |        2|  0|   0|    0|  1000|   32|     1|        32000|
    |rx_table_appd_V_U       |rx_sar_table_rx_thbi  |        1|  0|   0|    0|  1000|   18|     1|        18000|
    |rx_table_win_shift_V_U  |rx_sar_table_rx_tibs  |        1|  0|   0|    0|  1000|    4|     1|         4000|
    |rx_table_gap_U          |rx_sar_table_rx_tlbW  |        1|  0|   0|    0|  1000|    1|     1|         1000|
    +------------------------+----------------------+---------+---+----+-----+------+-----+------+-------------+
    |Total                   |                      |        9|  0|   0|    0|  6000|  119|     6|       119000|
    +------------------------+----------------------+---------+---+----+-----+------+-----+------+-------------+

    * FIFO: 
    N/A

    * Expression: 
    +-----------------------------------+----------+-------+---+----+------------+------------+
    |           Variable Name           | Operation| DSP48E| FF| LUT| Bitwidth P0| Bitwidth P1|
    +-----------------------------------+----------+-------+---+----+------------+------------+
    |actualWindowSize_V_fu_494_p2       |     +    |      0|  0|  25|          18|          18|
    |ap_block_pp0                       |    and   |      0|  0|   2|           1|           1|
    |ap_block_state2_pp0_stage0_iter1   |    and   |      0|  0|   2|           1|           1|
    |ap_block_state3_pp0_stage0_iter2   |    and   |      0|  0|   2|           1|           1|
    |ap_block_state7_pp0_stage0_iter6   |    and   |      0|  0|   2|           1|           1|
    |ap_condition_317                   |    and   |      0|  0|   2|           1|           1|
    |ap_condition_332                   |    and   |      0|  0|   2|           1|           1|
    |ap_condition_342                   |    and   |      0|  0|   2|           1|           1|
    |ap_condition_377                   |    and   |      0|  0|   2|           1|           1|
    |ap_condition_384                   |    and   |      0|  0|   2|           1|           1|
    |ap_condition_655                   |    and   |      0|  0|   2|           1|           1|
    |ap_condition_658                   |    and   |      0|  0|   2|           1|           1|
    |ap_condition_666                   |    and   |      0|  0|   2|           1|           1|
    |ap_enable_state4_pp0_iter3_stage0  |    and   |      0|  0|   2|           1|           1|
    |ap_enable_state5_pp0_iter4_stage0  |    and   |      0|  0|   2|           1|           1|
    |ap_predicate_op13_read_state2      |    and   |      0|  0|   2|           1|           1|
    |ap_predicate_op20_read_state3      |    and   |      0|  0|   2|           1|           1|
    |ap_predicate_op69_load_state5      |    and   |      0|  0|   2|           1|           1|
    |ap_predicate_op75_load_state5      |    and   |      0|  0|   2|           1|           1|
    |ap_predicate_op83_write_state6     |    and   |      0|  0|   2|           1|           1|
    |ap_predicate_op85_write_state6     |    and   |      0|  0|   2|           1|           1|
    |tmp_86_nbreadreq_fu_132_p3         |    and   |      0|  0|   2|           1|           0|
    |tmp_88_nbreadreq_fu_146_p3         |    and   |      0|  0|   2|           1|           0|
    |tmp_nbreadreq_fu_118_p3            |    and   |      0|  0|   2|           1|           0|
    |lshr_ln808_fu_528_p2               |   lshr   |      0|  0|  45|          18|          18|
    |ap_block_pp0_stage0_01001          |    or    |      0|  0|   2|           1|           1|
    |ap_block_state1_pp0_stage0_iter0   |    or    |      0|  0|   2|           1|           1|
    |ap_block_state6_pp0_stage0_iter5   |    or    |      0|  0|   2|           1|           1|
    |ap_enable_pp0                      |    xor   |      0|  0|   2|           1|           2|
    |xor_ln214_fu_488_p2                |    xor   |      0|  0|  18|          18|           2|
    +-----------------------------------+----------+-------+---+----+------------+------------+
    |Total                              |          |      0|  0| 142|          81|          63|
    +-----------------------------------+----------+-------+---+----+------------+------------+

    * Multiplexer: 
    +--------------------------------+----+-----------+-----+-----------+
    |              Name              | LUT| Input Size| Bits| Total Bits|
    +--------------------------------+----+-----------+-----+-----------+
    |ap_done                         |   9|          2|    1|          2|
    |rxApp2rxSar_upd_req_s_19_blk_n  |   9|          2|    1|          2|
    |rxEng2rxSar_upd_req_s_18_blk_n  |   9|          2|    1|          2|
    |rxSar2rxApp_upd_rsp_s_16_blk_n  |   9|          2|    1|          2|
    |rxSar2rxEng_upd_rsp_s_15_blk_n  |   9|          2|    1|          2|
    |rxSar2txEng_rsp_V_blk_n         |   9|          2|    1|          2|
    |rx_table_appd_V_address0        |  33|          6|   10|         60|
    |rx_table_appd_V_d0              |  15|          3|   18|         54|
    |rx_table_gap_address0           |  15|          3|   10|         30|
    |rx_table_head_V_address0        |  15|          3|   10|         30|
    |rx_table_offset_V_address0      |  15|          3|   10|         30|
    |rx_table_recvd_V_address0       |  21|          4|   10|         40|
    |rx_table_win_shift_V_address0   |  21|          4|   10|         40|
    |txEng2rxSar_req_V_V_blk_n       |   9|          2|    1|          2|
    +--------------------------------+----+-----------+-----+-----------+
    |Total                           | 198|         40|   85|        298|
    +--------------------------------+----+-----------+-----+-----------+

    * Register: 
    +---------------------------------------------+-----+----+-----+-----------+
    |                     Name                    |  FF | LUT| Bits| Const Bits|
    +---------------------------------------------+-----+----+-----+-----------+
    |actualWindowSize_V_reg_680                   |   18|   0|   18|          0|
    |ap_CS_fsm                                    |    1|   0|    1|          0|
    |ap_done_reg                                  |    1|   0|    1|          0|
    |ap_enable_reg_pp0_iter1                      |    1|   0|    1|          0|
    |ap_enable_reg_pp0_iter2                      |    1|   0|    1|          0|
    |ap_enable_reg_pp0_iter3                      |    1|   0|    1|          0|
    |ap_enable_reg_pp0_iter4                      |    1|   0|    1|          0|
    |ap_enable_reg_pp0_iter5                      |    1|   0|    1|          0|
    |ap_enable_reg_pp0_iter6                      |    1|   0|    1|          0|
    |reg_347                                      |   32|   0|   32|          0|
    |reg_347_pp0_iter5_reg                        |   32|   0|   32|          0|
    |reg_351                                      |   18|   0|   18|          0|
    |reg_355                                      |    4|   0|    4|          0|
    |reg_355_pp0_iter5_reg                        |    4|   0|    4|          0|
    |tmp_3_reg_591                                |  119|   0|  119|          0|
    |tmp_86_reg_568                               |    1|   0|    1|          0|
    |tmp_87_reg_572                               |    1|   0|    1|          0|
    |tmp_88_reg_587                               |    1|   0|    1|          0|
    |tmp_89_reg_602                               |    1|   0|    1|          0|
    |tmp_V_reg_563                                |   16|   0|   16|          0|
    |tmp_appd_V_load_new_s_reg_582                |   18|   0|   18|          0|
    |tmp_appd_V_load_new_s_reg_582_pp0_iter2_reg  |   18|   0|   18|          0|
    |tmp_gap_reg_675                              |    1|   0|    1|          0|
    |tmp_head_V_reg_665                           |   32|   0|   32|          0|
    |tmp_offset_V_reg_670                         |   32|   0|   32|          0|
    |tmp_reg_559                                  |    1|   0|    1|          0|
    |tmp_sessionID_V_reg_576                      |   16|   0|   16|          0|
    |tmp_windowSize_V_reg_685                     |   16|   0|   16|          0|
    |trunc_ln544_reg_606                          |   16|   0|   16|          0|
    |tmp_86_reg_568                               |   64|  32|    1|          0|
    |tmp_87_reg_572                               |   64|  32|    1|          0|
    |tmp_88_reg_587                               |   64|  32|    1|          0|
    |tmp_89_reg_602                               |   64|  32|    1|          0|
    |tmp_V_reg_563                                |   64|  32|   16|          0|
    |tmp_reg_559                                  |   64|  32|    1|          0|
    |tmp_sessionID_V_reg_576                      |   64|  32|   16|          0|
    +---------------------------------------------+-----+----+-----+-----------+
    |Total                                        |  853| 224|  442|          0|
    +---------------------------------------------+-----+----+-----+-----------+



================================================================
== Interface
================================================================
* Summary: 
+----------------------------------+-----+-----+------------+--------------------------+--------------+
|             RTL Ports            | Dir | Bits|  Protocol  |       Source Object      |    C Type    |
+----------------------------------+-----+-----+------------+--------------------------+--------------+
|ap_clk                            |  in |    1| ap_ctrl_hs |       rx_sar_table       | return value |
|ap_rst                            |  in |    1| ap_ctrl_hs |       rx_sar_table       | return value |
|ap_start                          |  in |    1| ap_ctrl_hs |       rx_sar_table       | return value |
|ap_done                           | out |    1| ap_ctrl_hs |       rx_sar_table       | return value |
|ap_continue                       |  in |    1| ap_ctrl_hs |       rx_sar_table       | return value |
|ap_idle                           | out |    1| ap_ctrl_hs |       rx_sar_table       | return value |
|ap_ready                          | out |    1| ap_ctrl_hs |       rx_sar_table       | return value |
|txEng2rxSar_req_V_V_dout          |  in |   16|   ap_fifo  |    txEng2rxSar_req_V_V   |    pointer   |
|txEng2rxSar_req_V_V_empty_n       |  in |    1|   ap_fifo  |    txEng2rxSar_req_V_V   |    pointer   |
|txEng2rxSar_req_V_V_read          | out |    1|   ap_fifo  |    txEng2rxSar_req_V_V   |    pointer   |
|rxApp2rxSar_upd_req_s_19_dout     |  in |   35|   ap_fifo  | rxApp2rxSar_upd_req_s_19 |    pointer   |
|rxApp2rxSar_upd_req_s_19_empty_n  |  in |    1|   ap_fifo  | rxApp2rxSar_upd_req_s_19 |    pointer   |
|rxApp2rxSar_upd_req_s_19_read     | out |    1|   ap_fifo  | rxApp2rxSar_upd_req_s_19 |    pointer   |
|rxEng2rxSar_upd_req_s_18_dout     |  in |  119|   ap_fifo  | rxEng2rxSar_upd_req_s_18 |    pointer   |
|rxEng2rxSar_upd_req_s_18_empty_n  |  in |    1|   ap_fifo  | rxEng2rxSar_upd_req_s_18 |    pointer   |
|rxEng2rxSar_upd_req_s_18_read     | out |    1|   ap_fifo  | rxEng2rxSar_upd_req_s_18 |    pointer   |
|rxSar2rxEng_upd_rsp_s_15_din      | out |  119|   ap_fifo  | rxSar2rxEng_upd_rsp_s_15 |    pointer   |
|rxSar2rxEng_upd_rsp_s_15_full_n   |  in |    1|   ap_fifo  | rxSar2rxEng_upd_rsp_s_15 |    pointer   |
|rxSar2rxEng_upd_rsp_s_15_write    | out |    1|   ap_fifo  | rxSar2rxEng_upd_rsp_s_15 |    pointer   |
|rxSar2rxApp_upd_rsp_s_16_din      | out |   35|   ap_fifo  | rxSar2rxApp_upd_rsp_s_16 |    pointer   |
|rxSar2rxApp_upd_rsp_s_16_full_n   |  in |    1|   ap_fifo  | rxSar2rxApp_upd_rsp_s_16 |    pointer   |
|rxSar2rxApp_upd_rsp_s_16_write    | out |    1|   ap_fifo  | rxSar2rxApp_upd_rsp_s_16 |    pointer   |
|rxSar2txEng_rsp_V_din             | out |   70|   ap_fifo  |     rxSar2txEng_rsp_V    |    pointer   |
|rxSar2txEng_rsp_V_full_n          |  in |    1|   ap_fifo  |     rxSar2txEng_rsp_V    |    pointer   |
|rxSar2txEng_rsp_V_write           | out |    1|   ap_fifo  |     rxSar2txEng_rsp_V    |    pointer   |
+----------------------------------+-----+-----+------------+--------------------------+--------------+

