

================================================================
== Vivado HLS Report for 'state_table'
================================================================
* Date:           Sat Dec 12 19:34:50 2020

* Version:        2019.2.1 (Build 2724168 on Thu Dec 05 05:19:09 MST 2019)
* Project:        toe_prj
* Solution:       solution1
* Product family: zynq
* Target device:  xc7z020-clg400-1


================================================================
== Performance Estimates
================================================================
+ Timing: 
    * Summary: 
    +--------+---------+----------+------------+
    |  Clock |  Target | Estimated| Uncertainty|
    +--------+---------+----------+------------+
    |ap_clk  | 6.40 ns | 7.185 ns |   0.80 ns  |
    +--------+---------+----------+------------+

+ Latency: 
    * Summary: 
    +---------+---------+----------+----------+-----+-----+----------+
    |  Latency (cycles) |  Latency (absolute) |  Interval | Pipeline |
    |   min   |   max   |    min   |    max   | min | max |   Type   |
    +---------+---------+----------+----------+-----+-----+----------+
    |        1|        1| 7.185 ns | 7.185 ns |    1|    1| function |
    +---------+---------+----------+----------+-----+-----+----------+

    + Detail: 
        * Instance: 
        N/A

        * Loop: 
        N/A



================================================================
== Utilization Estimates
================================================================
* Summary: 
+-----------------+---------+-------+--------+-------+-----+
|       Name      | BRAM_18K| DSP48E|   FF   |  LUT  | URAM|
+-----------------+---------+-------+--------+-------+-----+
|DSP              |        -|      -|       -|      -|    -|
|Expression       |        -|      -|       0|    238|    -|
|FIFO             |        -|      -|       -|      -|    -|
|Instance         |        -|      -|       -|      -|    -|
|Memory           |        1|      -|       0|      0|    0|
|Multiplexer      |        -|      -|       -|    308|    -|
|Register         |        -|      -|     183|      -|    -|
+-----------------+---------+-------+--------+-------+-----+
|Total            |        1|      0|     183|    546|    0|
+-----------------+---------+-------+--------+-------+-----+
|Available        |      280|    220|  106400|  53200|    0|
+-----------------+---------+-------+--------+-------+-----+
|Utilization (%)  |    ~0   |      0|   ~0   |      1|    0|
+-----------------+---------+-------+--------+-------+-----+

+ Detail: 
    * Instance: 
    N/A

    * DSP48E: 
    N/A

    * Memory: 
    +-----------------+----------------------+---------+---+----+-----+------+-----+------+-------------+
    |      Memory     |        Module        | BRAM_18K| FF| LUT| URAM| Words| Bits| Banks| W*Bits*Banks|
    +-----------------+----------------------+---------+---+----+-----+------+-----+------+-------------+
    |state_table_1_U  |state_table_statefYi  |        1|  0|   0|    0|  1000|    4|     1|         4000|
    +-----------------+----------------------+---------+---+----+-----+------+-----+------+-------------+
    |Total            |                      |        1|  0|   0|    0|  1000|    4|     1|         4000|
    +-----------------+----------------------+---------+---+----+-----+------+-----+------+-------------+

    * FIFO: 
    N/A

    * Expression: 
    +-----------------------------------+----------+-------+---+----+------------+------------+
    |           Variable Name           | Operation| DSP48E| FF| LUT| Bitwidth P0| Bitwidth P1|
    +-----------------------------------+----------+-------+---+----+------------+------------+
    |and_ln114_fu_512_p2                |    and   |      0|  0|   2|           1|           1|
    |and_ln142_1_fu_596_p2              |    and   |      0|  0|   2|           1|           1|
    |and_ln142_fu_584_p2                |    and   |      0|  0|   2|           1|           1|
    |and_ln154_fu_700_p2                |    and   |      0|  0|   2|           1|           1|
    |and_ln172_fu_654_p2                |    and   |      0|  0|   2|           1|           1|
    |and_ln194_1_fu_631_p2              |    and   |      0|  0|   2|           1|           1|
    |and_ln194_fu_619_p2                |    and   |      0|  0|   2|           1|           1|
    |and_ln84_fu_407_p2                 |    and   |      0|  0|   2|           1|           1|
    |ap_block_pp0                       |    and   |      0|  0|   2|           1|           1|
    |ap_condition_230                   |    and   |      0|  0|   2|           1|           1|
    |ap_condition_264                   |    and   |      0|  0|   2|           1|           1|
    |ap_condition_329                   |    and   |      0|  0|   2|           1|           1|
    |ap_condition_331                   |    and   |      0|  0|   2|           1|           1|
    |ap_condition_335                   |    and   |      0|  0|   2|           1|           1|
    |ap_condition_371                   |    and   |      0|  0|   2|           1|           1|
    |ap_condition_373                   |    and   |      0|  0|   2|           1|           1|
    |ap_condition_377                   |    and   |      0|  0|   2|           1|           1|
    |ap_condition_386                   |    and   |      0|  0|   2|           1|           1|
    |ap_condition_388                   |    and   |      0|  0|   2|           1|           1|
    |ap_condition_400                   |    and   |      0|  0|   2|           1|           1|
    |ap_condition_403                   |    and   |      0|  0|   2|           1|           1|
    |ap_condition_417                   |    and   |      0|  0|   2|           1|           1|
    |ap_condition_429                   |    and   |      0|  0|   2|           1|           1|
    |ap_condition_434                   |    and   |      0|  0|   2|           1|           1|
    |ap_condition_510                   |    and   |      0|  0|   2|           1|           1|
    |ap_condition_814                   |    and   |      0|  0|   2|           1|           1|
    |ap_condition_816                   |    and   |      0|  0|   2|           1|           1|
    |ap_condition_822                   |    and   |      0|  0|   2|           1|           1|
    |ap_condition_823                   |    and   |      0|  0|   2|           1|           1|
    |ap_enable_state1_pp0_iter0_stage0  |    and   |      0|  0|   2|           1|           1|
    |ap_enable_state2_pp0_iter1_stage0  |    and   |      0|  0|   2|           1|           1|
    |ap_predicate_op136_read_state1     |    and   |      0|  0|   2|           1|           1|
    |ap_predicate_op150_load_state2     |    and   |      0|  0|   2|           1|           1|
    |ap_predicate_op155_load_state2     |    and   |      0|  0|   2|           1|           1|
    |ap_predicate_op157_write_state2    |    and   |      0|  0|   2|           1|           1|
    |ap_predicate_op162_write_state2    |    and   |      0|  0|   2|           1|           1|
    |ap_predicate_op166_write_state2    |    and   |      0|  0|   2|           1|           1|
    |ap_predicate_op170_load_state2     |    and   |      0|  0|   2|           1|           1|
    |ap_predicate_op172_write_state2    |    and   |      0|  0|   2|           1|           1|
    |ap_predicate_op177_load_state2     |    and   |      0|  0|   2|           1|           1|
    |ap_predicate_op184_load_state2     |    and   |      0|  0|   2|           1|           1|
    |ap_predicate_op45_read_state1      |    and   |      0|  0|   2|           1|           1|
    |ap_predicate_op76_read_state1      |    and   |      0|  0|   2|           1|           1|
    |tmp_76_nbreadreq_fu_112_p3         |    and   |      0|  0|   2|           1|           0|
    |tmp_79_nbreadreq_fu_120_p3         |    and   |      0|  0|   2|           1|           0|
    |tmp_80_nbreadreq_fu_134_p3         |    and   |      0|  0|   2|           1|           0|
    |tmp_nbreadreq_fu_98_p3             |    and   |      0|  0|   2|           1|           0|
    |icmp_ln114_fu_506_p2               |   icmp   |      0|  0|  13|          16|          16|
    |icmp_ln122_fu_529_p2               |   icmp   |      0|  0|   9|           4|           1|
    |icmp_ln142_1_fu_590_p2             |   icmp   |      0|  0|  13|          16|          16|
    |icmp_ln142_fu_578_p2               |   icmp   |      0|  0|  13|          16|          16|
    |icmp_ln154_fu_694_p2               |   icmp   |      0|  0|  13|          16|          16|
    |icmp_ln172_fu_648_p2               |   icmp   |      0|  0|  13|          16|          16|
    |icmp_ln176_fu_671_p2               |   icmp   |      0|  0|   9|           4|           1|
    |icmp_ln194_1_fu_625_p2             |   icmp   |      0|  0|  13|          16|          16|
    |icmp_ln194_fu_613_p2               |   icmp   |      0|  0|  13|          16|          16|
    |icmp_ln84_fu_401_p2                |   icmp   |      0|  0|  13|          16|          16|
    |ap_block_pp0_stage0_01001          |    or    |      0|  0|   2|           1|           1|
    |ap_block_state1_pp0_stage0_iter0   |    or    |      0|  0|   2|           1|           1|
    |ap_block_state2_pp0_stage0_iter1   |    or    |      0|  0|   2|           1|           1|
    |ap_condition_487                   |    or    |      0|  0|   2|           1|           1|
    |or_ln111_fu_459_p2                 |    or    |      0|  0|   2|           1|           1|
    |or_ln138_fu_566_p2                 |    or    |      0|  0|   2|           1|           1|
    |or_ln81_fu_354_p2                  |    or    |      0|  0|   2|           1|           1|
    |ap_enable_pp0                      |    xor   |      0|  0|   2|           1|           2|
    |xor_ln111_fu_453_p2                |    xor   |      0|  0|   2|           1|           2|
    |xor_ln138_fu_560_p2                |    xor   |      0|  0|   2|           1|           2|
    |xor_ln81_fu_348_p2                 |    xor   |      0|  0|   2|           1|           2|
    +-----------------------------------+----------+-------+---+----+------------+------------+
    |Total                              |          |      0|  0| 238|         194|         188|
    +-----------------------------------+----------+-------+---+----+------------+------------+

    * Multiplexer: 
    +-----------------------------------------+----+-----------+-----+-----------+
    |                   Name                  | LUT| Input Size| Bits| Total Bits|
    +-----------------------------------------+----+-----------+-----+-----------+
    |ap_done                                  |   9|          2|    1|          2|
    |ap_phi_mux_storemerge62_i_phi_fu_290_p4  |  15|          3|    1|          3|
    |ap_phi_mux_storemerge63_i_phi_fu_301_p4  |  15|          3|    1|          3|
    |ap_phi_mux_storemerge64_i_phi_fu_312_p4  |  15|          3|    1|          3|
    |ap_phi_mux_storemerge_i_phi_fu_279_p4    |  15|          3|    1|          3|
    |rxEng2stateTable_upd_1_blk_n             |   9|          2|    1|          2|
    |stateTable2rxEng_upd_1_blk_n             |   9|          2|    1|          2|
    |stateTable2sLookup_r_1_blk_n             |   9|          2|    1|          2|
    |stateTable2sLookup_r_1_din               |  27|          5|   16|         80|
    |stateTable2txApp_rsp_1_blk_n             |   9|          2|    1|          2|
    |stateTable2txApp_upd_1_blk_n             |   9|          2|    1|          2|
    |state_table_1_address0                   |  33|          6|   10|         60|
    |state_table_1_address1                   |  38|          7|   10|         70|
    |state_table_1_d1                         |  33|          6|    4|         24|
    |stt_rxSessionID_V                        |   9|          2|   16|         32|
    |stt_rxSessionLocked                      |   9|          2|    1|          2|
    |stt_txSessionID_V                        |   9|          2|   16|         32|
    |stt_txSessionLocked                      |   9|          2|    1|          2|
    |timer2stateTable_rel_1_blk_n             |   9|          2|    1|          2|
    |txApp2stateTable_req_1_blk_n             |   9|          2|    1|          2|
    |txApp2stateTable_upd_1_blk_n             |   9|          2|    1|          2|
    +-----------------------------------------+----+-----------+-----+-----------+
    |Total                                    | 308|         62|   87|        332|
    +-----------------------------------------+----+-----------+-----+-----------+

    * Register: 
    +--------------------------------+----+----+-----+-----------+
    |              Name              | FF | LUT| Bits| Const Bits|
    +--------------------------------+----+----+-----+-----------+
    |and_ln114_reg_799               |   1|   0|    1|          0|
    |and_ln142_1_reg_834             |   1|   0|    1|          0|
    |and_ln142_reg_830               |   1|   0|    1|          0|
    |and_ln154_reg_859               |   1|   0|    1|          0|
    |and_ln172_reg_846               |   1|   0|    1|          0|
    |and_ln194_1_reg_842             |   1|   0|    1|          0|
    |and_ln194_reg_838               |   1|   0|    1|          0|
    |and_ln84_reg_760                |   1|   0|    1|          0|
    |ap_CS_fsm                       |   1|   0|    1|          0|
    |ap_done_reg                     |   1|   0|    1|          0|
    |ap_enable_reg_pp0_iter1         |   1|   0|    1|          0|
    |icmp_ln122_reg_808              |   1|   0|    1|          0|
    |icmp_ln176_reg_855              |   1|   0|    1|          0|
    |or_ln111_reg_786                |   1|   0|    1|          0|
    |or_ln138_reg_821                |   1|   0|    1|          0|
    |or_ln81_reg_752                 |   1|   0|    1|          0|
    |stt_closeSessionID_V            |  16|   0|   16|          0|
    |stt_closeWait                   |   1|   0|    1|          0|
    |stt_closeWait_load_reg_812      |   1|   0|    1|          0|
    |stt_rxAccess_session            |  16|   0|   16|          0|
    |stt_rxAccess_state              |   4|   0|    4|          0|
    |stt_rxAccess_write_V            |   1|   0|    1|          0|
    |stt_rxAccess_write_V_1_reg_782  |   1|   0|    1|          0|
    |stt_rxSessionID_V               |  16|   0|   16|          0|
    |stt_rxSessionLocked             |   1|   0|    1|          0|
    |stt_rxWait                      |   1|   0|    1|          0|
    |stt_rxWait_load_reg_773         |   1|   0|    1|          0|
    |stt_txAccess_session            |  16|   0|   16|          0|
    |stt_txAccess_state              |   4|   0|    4|          0|
    |stt_txAccess_write_V            |   1|   0|    1|          0|
    |stt_txAccess_write_V_1_reg_748  |   1|   0|    1|          0|
    |stt_txSessionID_V               |  16|   0|   16|          0|
    |stt_txSessionLocked             |   1|   0|    1|          0|
    |stt_txWait                      |   1|   0|    1|          0|
    |stt_txWait_load_reg_744         |   1|   0|    1|          0|
    |tmp_76_reg_769                  |   1|   0|    1|          0|
    |tmp_77_reg_756                  |   1|   0|    1|          0|
    |tmp_81_reg_795                  |   1|   0|    1|          0|
    |tmp_V_4_reg_790                 |  16|   0|   16|          0|
    |tmp_V_5_reg_777                 |  16|   0|   16|          0|
    |tmp_V_6_reg_816                 |  16|   0|   16|          0|
    |tmp_V_reg_825                   |  16|   0|   16|          0|
    +--------------------------------+----+----+-----+-----------+
    |Total                           | 183|   0|  183|          0|
    +--------------------------------+----+----+-----+-----------+



================================================================
== Interface
================================================================
* Summary: 
+--------------------------------+-----+-----+------------+------------------------+--------------+
|            RTL Ports           | Dir | Bits|  Protocol  |      Source Object     |    C Type    |
+--------------------------------+-----+-----+------------+------------------------+--------------+
|ap_clk                          |  in |    1| ap_ctrl_hs |       state_table      | return value |
|ap_rst                          |  in |    1| ap_ctrl_hs |       state_table      | return value |
|ap_start                        |  in |    1| ap_ctrl_hs |       state_table      | return value |
|ap_done                         | out |    1| ap_ctrl_hs |       state_table      | return value |
|ap_continue                     |  in |    1| ap_ctrl_hs |       state_table      | return value |
|ap_idle                         | out |    1| ap_ctrl_hs |       state_table      | return value |
|ap_ready                        | out |    1| ap_ctrl_hs |       state_table      | return value |
|txApp2stateTable_upd_1_dout     |  in |   21|   ap_fifo  | txApp2stateTable_upd_1 |    pointer   |
|txApp2stateTable_upd_1_empty_n  |  in |    1|   ap_fifo  | txApp2stateTable_upd_1 |    pointer   |
|txApp2stateTable_upd_1_read     | out |    1|   ap_fifo  | txApp2stateTable_upd_1 |    pointer   |
|rxEng2stateTable_upd_1_dout     |  in |   21|   ap_fifo  | rxEng2stateTable_upd_1 |    pointer   |
|rxEng2stateTable_upd_1_empty_n  |  in |    1|   ap_fifo  | rxEng2stateTable_upd_1 |    pointer   |
|rxEng2stateTable_upd_1_read     | out |    1|   ap_fifo  | rxEng2stateTable_upd_1 |    pointer   |
|timer2stateTable_rel_1_dout     |  in |   16|   ap_fifo  | timer2stateTable_rel_1 |    pointer   |
|timer2stateTable_rel_1_empty_n  |  in |    1|   ap_fifo  | timer2stateTable_rel_1 |    pointer   |
|timer2stateTable_rel_1_read     | out |    1|   ap_fifo  | timer2stateTable_rel_1 |    pointer   |
|txApp2stateTable_req_1_dout     |  in |   16|   ap_fifo  | txApp2stateTable_req_1 |    pointer   |
|txApp2stateTable_req_1_empty_n  |  in |    1|   ap_fifo  | txApp2stateTable_req_1 |    pointer   |
|txApp2stateTable_req_1_read     | out |    1|   ap_fifo  | txApp2stateTable_req_1 |    pointer   |
|stateTable2txApp_upd_1_din      | out |    4|   ap_fifo  | stateTable2txApp_upd_1 |    pointer   |
|stateTable2txApp_upd_1_full_n   |  in |    1|   ap_fifo  | stateTable2txApp_upd_1 |    pointer   |
|stateTable2txApp_upd_1_write    | out |    1|   ap_fifo  | stateTable2txApp_upd_1 |    pointer   |
|stateTable2rxEng_upd_1_din      | out |    4|   ap_fifo  | stateTable2rxEng_upd_1 |    pointer   |
|stateTable2rxEng_upd_1_full_n   |  in |    1|   ap_fifo  | stateTable2rxEng_upd_1 |    pointer   |
|stateTable2rxEng_upd_1_write    | out |    1|   ap_fifo  | stateTable2rxEng_upd_1 |    pointer   |
|stateTable2sLookup_r_1_din      | out |   16|   ap_fifo  | stateTable2sLookup_r_1 |    pointer   |
|stateTable2sLookup_r_1_full_n   |  in |    1|   ap_fifo  | stateTable2sLookup_r_1 |    pointer   |
|stateTable2sLookup_r_1_write    | out |    1|   ap_fifo  | stateTable2sLookup_r_1 |    pointer   |
|stateTable2txApp_rsp_1_din      | out |    4|   ap_fifo  | stateTable2txApp_rsp_1 |    pointer   |
|stateTable2txApp_rsp_1_full_n   |  in |    1|   ap_fifo  | stateTable2txApp_rsp_1 |    pointer   |
|stateTable2txApp_rsp_1_write    | out |    1|   ap_fifo  | stateTable2txApp_rsp_1 |    pointer   |
+--------------------------------+-----+-----+------------+------------------------+--------------+

