

================================================================
== Vivado HLS Report for 'stream_merger_event_s'
================================================================
* Date:           Sat Dec 12 19:34:53 2020

* Version:        2019.2.1 (Build 2724168 on Thu Dec 05 05:19:09 MST 2019)
* Project:        toe_prj
* Solution:       solution1
* Product family: zynq
* Target device:  xc7z020-clg400-1


================================================================
== Performance Estimates
================================================================
+ Timing: 
    * Summary: 
    +--------+---------+----------+------------+
    |  Clock |  Target | Estimated| Uncertainty|
    +--------+---------+----------+------------+
    |ap_clk  | 6.40 ns | 2.800 ns |   0.80 ns  |
    +--------+---------+----------+------------+

+ Latency: 
    * Summary: 
    +---------+---------+-----------+-----------+-----+-----+----------+
    |  Latency (cycles) |   Latency (absolute)  |  Interval | Pipeline |
    |   min   |   max   |    min    |    max    | min | max |   Type   |
    +---------+---------+-----------+-----------+-----+-----+----------+
    |        2|        2| 12.800 ns | 12.800 ns |    1|    1| function |
    +---------+---------+-----------+-----------+-----+-----+----------+

    + Detail: 
        * Instance: 
        N/A

        * Loop: 
        N/A



================================================================
== Utilization Estimates
================================================================
* Summary: 
+-----------------+---------+-------+--------+-------+-----+
|       Name      | BRAM_18K| DSP48E|   FF   |  LUT  | URAM|
+-----------------+---------+-------+--------+-------+-----+
|DSP              |        -|      -|       -|      -|    -|
|Expression       |        -|      -|       0|     18|    -|
|FIFO             |        -|      -|       -|      -|    -|
|Instance         |        -|      -|       -|      -|    -|
|Memory           |        -|      -|       -|      -|    -|
|Multiplexer      |        -|      -|       -|     51|    -|
|Register         |        -|      -|     175|      -|    -|
+-----------------+---------+-------+--------+-------+-----+
|Total            |        0|      0|     175|     69|    0|
+-----------------+---------+-------+--------+-------+-----+
|Available        |      280|    220|  106400|  53200|    0|
+-----------------+---------+-------+--------+-------+-----+
|Utilization (%)  |        0|      0|   ~0   |   ~0  |    0|
+-----------------+---------+-------+--------+-------+-----+

+ Detail: 
    * Instance: 
    N/A

    * DSP48E: 
    N/A

    * Memory: 
    N/A

    * FIFO: 
    N/A

    * Expression: 
    +----------------------------------+----------+-------+---+----+------------+------------+
    |           Variable Name          | Operation| DSP48E| FF| LUT| Bitwidth P0| Bitwidth P1|
    +----------------------------------+----------+-------+---+----+------------+------------+
    |ap_block_state2_pp0_stage0_iter1  |    and   |      0|  0|   2|           1|           1|
    |ap_predicate_op14_write_state3    |    and   |      0|  0|   2|           1|           1|
    |ap_predicate_op9_read_state2      |    and   |      0|  0|   2|           1|           1|
    |tmp_73_nbreadreq_fu_42_p3         |    and   |      0|  0|   2|           1|           0|
    |tmp_nbreadreq_fu_28_p3            |    and   |      0|  0|   2|           1|           0|
    |ap_block_pp0_stage0_01001         |    or    |      0|  0|   2|           1|           1|
    |ap_block_state1_pp0_stage0_iter0  |    or    |      0|  0|   2|           1|           1|
    |ap_block_state3_pp0_stage0_iter2  |    or    |      0|  0|   2|           1|           1|
    |ap_enable_pp0                     |    xor   |      0|  0|   2|           1|           2|
    +----------------------------------+----------+-------+---+----+------------+------------+
    |Total                             |          |      0|  0|  18|           9|           8|
    +----------------------------------+----------+-------+---+----+------------+------------+

    * Multiplexer: 
    +------------------------------+----+-----------+-----+-----------+
    |             Name             | LUT| Input Size| Bits| Total Bits|
    +------------------------------+----+-----------+-----+-----------+
    |ap_done                       |   9|          2|    1|          2|
    |probeTimer2eventEng_1_blk_n   |   9|          2|    1|          2|
    |rtTimer2eventEng_set_1_blk_n  |   9|          2|    1|          2|
    |timer2eventEng_setEv_1_blk_n  |   9|          2|    1|          2|
    |timer2eventEng_setEv_1_din    |  15|          3|   56|        168|
    +------------------------------+----+-----------+-----+-----------+
    |Total                         |  51|         11|   60|        176|
    +------------------------------+----+-----------+-----+-----------+

    * Register: 
    +----------------------------+----+----+-----+-----------+
    |            Name            | FF | LUT| Bits| Const Bits|
    +----------------------------+----+----+-----+-----------+
    |ap_CS_fsm                   |   1|   0|    1|          0|
    |ap_done_reg                 |   1|   0|    1|          0|
    |ap_enable_reg_pp0_iter1     |   1|   0|    1|          0|
    |ap_enable_reg_pp0_iter2     |   1|   0|    1|          0|
    |tmp78_reg_67                |  56|   0|   56|          0|
    |tmp78_reg_67_pp0_iter1_reg  |  56|   0|   56|          0|
    |tmp_2_reg_76                |  56|   0|   56|          0|
    |tmp_73_reg_72               |   1|   0|    1|          0|
    |tmp_reg_63                  |   1|   0|    1|          0|
    |tmp_reg_63_pp0_iter1_reg    |   1|   0|    1|          0|
    +----------------------------+----+----+-----+-----------+
    |Total                       | 175|   0|  175|          0|
    +----------------------------+----+----+-----+-----------+



================================================================
== Interface
================================================================
* Summary: 
+--------------------------------+-----+-----+------------+------------------------+--------------+
|            RTL Ports           | Dir | Bits|  Protocol  |      Source Object     |    C Type    |
+--------------------------------+-----+-----+------------+------------------------+--------------+
|ap_clk                          |  in |    1| ap_ctrl_hs |  stream_merger<event>  | return value |
|ap_rst                          |  in |    1| ap_ctrl_hs |  stream_merger<event>  | return value |
|ap_start                        |  in |    1| ap_ctrl_hs |  stream_merger<event>  | return value |
|ap_done                         | out |    1| ap_ctrl_hs |  stream_merger<event>  | return value |
|ap_continue                     |  in |    1| ap_ctrl_hs |  stream_merger<event>  | return value |
|ap_idle                         | out |    1| ap_ctrl_hs |  stream_merger<event>  | return value |
|ap_ready                        | out |    1| ap_ctrl_hs |  stream_merger<event>  | return value |
|rtTimer2eventEng_set_1_dout     |  in |   56|   ap_fifo  | rtTimer2eventEng_set_1 |    pointer   |
|rtTimer2eventEng_set_1_empty_n  |  in |    1|   ap_fifo  | rtTimer2eventEng_set_1 |    pointer   |
|rtTimer2eventEng_set_1_read     | out |    1|   ap_fifo  | rtTimer2eventEng_set_1 |    pointer   |
|probeTimer2eventEng_1_dout      |  in |   56|   ap_fifo  |  probeTimer2eventEng_1 |    pointer   |
|probeTimer2eventEng_1_empty_n   |  in |    1|   ap_fifo  |  probeTimer2eventEng_1 |    pointer   |
|probeTimer2eventEng_1_read      | out |    1|   ap_fifo  |  probeTimer2eventEng_1 |    pointer   |
|timer2eventEng_setEv_1_din      | out |   56|   ap_fifo  | timer2eventEng_setEv_1 |    pointer   |
|timer2eventEng_setEv_1_full_n   |  in |    1|   ap_fifo  | timer2eventEng_setEv_1 |    pointer   |
|timer2eventEng_setEv_1_write    | out |    1|   ap_fifo  | timer2eventEng_setEv_1 |    pointer   |
+--------------------------------+-----+-----+------------+------------------------+--------------+

