

================================================================
== Vivado HLS Report for 'two_complement_subch'
================================================================
* Date:           Sat Dec 12 19:35:10 2020

* Version:        2019.2.1 (Build 2724168 on Thu Dec 05 05:19:09 MST 2019)
* Project:        toe_prj
* Solution:       solution1
* Product family: zynq
* Target device:  xc7z020-clg400-1


================================================================
== Performance Estimates
================================================================
+ Timing: 
    * Summary: 
    +--------+---------+----------+------------+
    |  Clock |  Target | Estimated| Uncertainty|
    +--------+---------+----------+------------+
    |ap_clk  | 6.40 ns | 6.010 ns |   0.80 ns  |
    +--------+---------+----------+------------+

+ Latency: 
    * Summary: 
    +---------+---------+-----------+-----------+-----+-----+----------+
    |  Latency (cycles) |   Latency (absolute)  |  Interval | Pipeline |
    |   min   |   max   |    min    |    max    | min | max |   Type   |
    +---------+---------+-----------+-----------+-----+-----+----------+
    |        2|        2| 12.800 ns | 12.800 ns |    1|    1| function |
    +---------+---------+-----------+-----------+-----+-----+----------+

    + Detail: 
        * Instance: 
        N/A

        * Loop: 
        N/A



================================================================
== Utilization Estimates
================================================================
* Summary: 
+-----------------+---------+-------+--------+-------+-----+
|       Name      | BRAM_18K| DSP48E|   FF   |  LUT  | URAM|
+-----------------+---------+-------+--------+-------+-----+
|DSP              |        -|      -|       -|      -|    -|
|Expression       |        -|      -|       0|    679|    -|
|FIFO             |        -|      -|       -|      -|    -|
|Instance         |        -|      -|       -|      -|    -|
|Memory           |        -|      -|       -|      -|    -|
|Multiplexer      |        -|      -|       -|    216|    -|
|Register         |        -|      -|     569|      -|    -|
+-----------------+---------+-------+--------+-------+-----+
|Total            |        0|      0|     569|    895|    0|
+-----------------+---------+-------+--------+-------+-----+
|Available        |      280|    220|  106400|  53200|    0|
+-----------------+---------+-------+--------+-------+-----+
|Utilization (%)  |        0|      0|   ~0   |      1|    0|
+-----------------+---------+-------+--------+-------+-----+

+ Detail: 
    * Instance: 
    N/A

    * DSP48E: 
    N/A

    * Memory: 
    N/A

    * FIFO: 
    N/A

    * Expression: 
    +----------------------------------+----------+-------+---+----+------------+------------+
    |           Variable Name          | Operation| DSP48E| FF| LUT| Bitwidth P0| Bitwidth P1|
    +----------------------------------+----------+-------+---+----+------------+------------+
    |add_ln214_10_fu_665_p2            |     +    |      0|  0|  18|          16|          16|
    |add_ln214_11_fu_671_p2            |     +    |      0|  0|  18|          16|          16|
    |add_ln214_12_fu_713_p2            |     +    |      0|  0|  18|          16|          16|
    |add_ln214_13_fu_719_p2            |     +    |      0|  0|  18|          16|          16|
    |add_ln214_14_fu_754_p2            |     +    |      0|  0|  18|          16|          16|
    |add_ln214_15_fu_760_p2            |     +    |      0|  0|  18|          16|          16|
    |add_ln214_1_fu_452_p2             |     +    |      0|  0|  18|          16|          16|
    |add_ln214_2_fu_487_p2             |     +    |      0|  0|  18|          16|          16|
    |add_ln214_3_fu_493_p2             |     +    |      0|  0|  18|          16|          16|
    |add_ln214_4_fu_535_p2             |     +    |      0|  0|  18|          16|          16|
    |add_ln214_5_fu_541_p2             |     +    |      0|  0|  18|          16|          16|
    |add_ln214_6_fu_576_p2             |     +    |      0|  0|  18|          16|          16|
    |add_ln214_7_fu_582_p2             |     +    |      0|  0|  18|          16|          16|
    |add_ln214_8_fu_624_p2             |     +    |      0|  0|  18|          16|          16|
    |add_ln214_9_fu_630_p2             |     +    |      0|  0|  18|          16|          16|
    |add_ln214_fu_446_p2               |     +    |      0|  0|  18|          16|          16|
    |add_ln700_1_fu_469_p2             |     +    |      0|  0|  24|          17|          17|
    |add_ln700_2_fu_517_p2             |     +    |      0|  0|  24|          17|          17|
    |add_ln700_3_fu_558_p2             |     +    |      0|  0|  24|          17|          17|
    |add_ln700_4_fu_606_p2             |     +    |      0|  0|  24|          17|          17|
    |add_ln700_5_fu_647_p2             |     +    |      0|  0|  24|          17|          17|
    |add_ln700_6_fu_695_p2             |     +    |      0|  0|  24|          17|          17|
    |add_ln700_7_fu_736_p2             |     +    |      0|  0|  24|          17|          17|
    |add_ln700_fu_428_p2               |     +    |      0|  0|  24|          17|          17|
    |and_ln647_fu_264_p2               |    and   |      0|  0|   2|           1|           1|
    |ap_block_state2_pp0_stage0_iter1  |    and   |      0|  0|   2|           1|           1|
    |ap_block_state3_pp0_stage0_iter2  |    and   |      0|  0|   2|           1|           1|
    |ap_condition_237                  |    and   |      0|  0|   2|           1|           1|
    |ap_predicate_op122_write_state3   |    and   |      0|  0|   2|           1|           1|
    |tmp_nbreadreq_fu_104_p3           |    and   |      0|  0|   2|           1|           0|
    |icmp_ln879_1_fu_280_p2            |   icmp   |      0|  0|   8|           2|           2|
    |icmp_ln879_2_fu_324_p2            |   icmp   |      0|  0|   8|           2|           2|
    |icmp_ln879_3_fu_368_p2            |   icmp   |      0|  0|   8|           2|           2|
    |icmp_ln879_fu_238_p2              |   icmp   |      0|  0|   8|           2|           2|
    |ap_block_pp0_stage0_01001         |    or    |      0|  0|   2|           1|           1|
    |ap_block_state1_pp0_stage0_iter0  |    or    |      0|  0|   2|           1|           1|
    |or_ln647_fu_772_p2                |    or    |      0|  0|   2|           1|           1|
    |or_ln791_1_fu_817_p2              |    or    |      0|  0|   2|           1|           1|
    |or_ln791_2_fu_843_p2              |    or    |      0|  0|   2|           1|           1|
    |or_ln791_6_fu_805_p2              |    or    |      0|  0|   2|           1|           1|
    |or_ln791_7_fu_831_p2              |    or    |      0|  0|   2|           1|           1|
    |or_ln791_8_fu_857_p2              |    or    |      0|  0|   2|           1|           1|
    |or_ln791_fu_791_p2                |    or    |      0|  0|   2|           1|           1|
    |select_ln647_fu_783_p3            |  select  |      0|  0|  17|           1|          17|
    |select_ln791_1_fu_835_p3          |  select  |      0|  0|  17|           1|          17|
    |select_ln791_2_fu_861_p3          |  select  |      0|  0|  17|           1|          17|
    |select_ln791_fu_809_p3            |  select  |      0|  0|  17|           1|          17|
    |select_ln879_1_fu_796_p3          |  select  |      0|  0|  16|           1|          16|
    |select_ln879_2_fu_822_p3          |  select  |      0|  0|  16|           1|          16|
    |select_ln879_3_fu_848_p3          |  select  |      0|  0|  16|           1|          16|
    |select_ln879_fu_777_p3            |  select  |      0|  0|  17|           1|          17|
    |ap_enable_pp0                     |    xor   |      0|  0|   2|           1|           2|
    |xor_ln879_fu_258_p2               |    xor   |      0|  0|   2|           1|           2|
    +----------------------------------+----------+-------+---+----+------------+------------+
    |Total                             |          |      0|  0| 679|         425|         551|
    +----------------------------------+----------+-------+---+----+------------+------------+

    * Multiplexer: 
    +-----------------------------------------------------+----+-----------+-----+-----------+
    |                         Name                        | LUT| Input Size| Bits| Total Bits|
    +-----------------------------------------------------+----+-----------+-----+-----------+
    |ap_done                                              |   9|          2|    1|          2|
    |ap_phi_mux_tcts_tcp_sums_sum_V_21_phi_fu_136_p4      |   9|          2|    1|          2|
    |ap_phi_mux_tcts_tcp_sums_sum_V_22_phi_fu_147_p4      |   9|          2|   17|         34|
    |ap_phi_mux_tcts_tcp_sums_sum_V_23_phi_fu_158_p4      |   9|          2|    1|          2|
    |ap_phi_mux_tcts_tcp_sums_sum_V_24_phi_fu_169_p4      |   9|          2|   17|         34|
    |ap_phi_mux_tcts_tcp_sums_sum_V_25_phi_fu_180_p4      |   9|          2|    1|          2|
    |ap_phi_mux_tcts_tcp_sums_sum_V_26_phi_fu_191_p4      |   9|          2|   17|         34|
    |ap_phi_mux_tcts_tcp_sums_sum_V_27_phi_fu_202_p4      |   9|          2|    1|          2|
    |ap_phi_mux_tcts_tcp_sums_sum_V_28_phi_fu_213_p4      |   9|          2|   17|         34|
    |ap_phi_reg_pp0_iter2_tcts_tcp_sums_sum_V_21_reg_132  |   9|          2|    1|          2|
    |ap_phi_reg_pp0_iter2_tcts_tcp_sums_sum_V_22_reg_143  |   9|          2|   17|         34|
    |ap_phi_reg_pp0_iter2_tcts_tcp_sums_sum_V_23_reg_154  |   9|          2|    1|          2|
    |ap_phi_reg_pp0_iter2_tcts_tcp_sums_sum_V_24_reg_165  |   9|          2|   17|         34|
    |ap_phi_reg_pp0_iter2_tcts_tcp_sums_sum_V_25_reg_176  |   9|          2|    1|          2|
    |ap_phi_reg_pp0_iter2_tcts_tcp_sums_sum_V_26_reg_187  |   9|          2|   17|         34|
    |ap_phi_reg_pp0_iter2_tcts_tcp_sums_sum_V_27_reg_198  |   9|          2|    1|          2|
    |ap_phi_reg_pp0_iter2_tcts_tcp_sums_sum_V_28_reg_209  |   9|          2|   17|         34|
    |ap_sig_allocacmp_tcts_tcp_sums_sum_V_10              |   9|          2|   17|         34|
    |ap_sig_allocacmp_tcts_tcp_sums_sum_V_11              |   9|          2|   17|         34|
    |ap_sig_allocacmp_tcts_tcp_sums_sum_V_12              |   9|          2|   17|         34|
    |ap_sig_allocacmp_tcts_tcp_sums_sum_V_9               |   9|          2|   17|         34|
    |txEng_subChecksumsFi_1_blk_n                         |   9|          2|    1|          2|
    |txEng_tcpPkgBuffer1_s_8_blk_n                        |   9|          2|    1|          2|
    |txEng_tcpPkgBuffer2_s_7_blk_n                        |   9|          2|    1|          2|
    +-----------------------------------------------------+----+-----------+-----+-----------+
    |Total                                                | 216|         48|  216|        432|
    +-----------------------------------------------------+----+-----------+-----+-----------+

    * Register: 
    +-----------------------------------------------------+----+----+-----+-----------+
    |                         Name                        | FF | LUT| Bits| Const Bits|
    +-----------------------------------------------------+----+----+-----+-----------+
    |add_ln214_11_reg_1054                                |  16|   0|   16|          0|
    |add_ln214_13_reg_1064                                |  16|   0|   16|          0|
    |add_ln214_15_reg_1069                                |  16|   0|   16|          0|
    |add_ln214_1_reg_1019                                 |  16|   0|   16|          0|
    |add_ln214_3_reg_1024                                 |  16|   0|   16|          0|
    |add_ln214_5_reg_1034                                 |  16|   0|   16|          0|
    |add_ln214_7_reg_1039                                 |  16|   0|   16|          0|
    |add_ln214_9_reg_1049                                 |  16|   0|   16|          0|
    |and_ln647_reg_932                                    |   1|   0|    1|          0|
    |and_ln647_reg_932_pp0_iter1_reg                      |   1|   0|    1|          0|
    |ap_CS_fsm                                            |   1|   0|    1|          0|
    |ap_done_reg                                          |   1|   0|    1|          0|
    |ap_enable_reg_pp0_iter1                              |   1|   0|    1|          0|
    |ap_enable_reg_pp0_iter2                              |   1|   0|    1|          0|
    |ap_phi_reg_pp0_iter1_tcts_tcp_sums_sum_V_21_reg_132  |   1|   0|    1|          0|
    |ap_phi_reg_pp0_iter1_tcts_tcp_sums_sum_V_22_reg_143  |  17|   0|   17|          0|
    |ap_phi_reg_pp0_iter1_tcts_tcp_sums_sum_V_23_reg_154  |   1|   0|    1|          0|
    |ap_phi_reg_pp0_iter1_tcts_tcp_sums_sum_V_24_reg_165  |  17|   0|   17|          0|
    |ap_phi_reg_pp0_iter1_tcts_tcp_sums_sum_V_25_reg_176  |   1|   0|    1|          0|
    |ap_phi_reg_pp0_iter1_tcts_tcp_sums_sum_V_26_reg_187  |  17|   0|   17|          0|
    |ap_phi_reg_pp0_iter1_tcts_tcp_sums_sum_V_27_reg_198  |   1|   0|    1|          0|
    |ap_phi_reg_pp0_iter1_tcts_tcp_sums_sum_V_28_reg_209  |  17|   0|   17|          0|
    |ap_phi_reg_pp0_iter2_tcts_tcp_sums_sum_V_21_reg_132  |   1|   0|    1|          0|
    |ap_phi_reg_pp0_iter2_tcts_tcp_sums_sum_V_22_reg_143  |  17|   0|   17|          0|
    |ap_phi_reg_pp0_iter2_tcts_tcp_sums_sum_V_23_reg_154  |   1|   0|    1|          0|
    |ap_phi_reg_pp0_iter2_tcts_tcp_sums_sum_V_24_reg_165  |  17|   0|   17|          0|
    |ap_phi_reg_pp0_iter2_tcts_tcp_sums_sum_V_25_reg_176  |   1|   0|    1|          0|
    |ap_phi_reg_pp0_iter2_tcts_tcp_sums_sum_V_26_reg_187  |  17|   0|   17|          0|
    |ap_phi_reg_pp0_iter2_tcts_tcp_sums_sum_V_27_reg_198  |   1|   0|    1|          0|
    |ap_phi_reg_pp0_iter2_tcts_tcp_sums_sum_V_28_reg_209  |  17|   0|   17|          0|
    |icmp_ln879_1_reg_938                                 |   1|   0|    1|          0|
    |icmp_ln879_1_reg_938_pp0_iter1_reg                   |   1|   0|    1|          0|
    |icmp_ln879_2_reg_962                                 |   1|   0|    1|          0|
    |icmp_ln879_2_reg_962_pp0_iter1_reg                   |   1|   0|    1|          0|
    |icmp_ln879_3_reg_986                                 |   1|   0|    1|          0|
    |icmp_ln879_3_reg_986_pp0_iter1_reg                   |   1|   0|    1|          0|
    |icmp_ln879_reg_915                                   |   1|   0|    1|          0|
    |icmp_ln879_reg_915_pp0_iter1_reg                     |   1|   0|    1|          0|
    |p_Result_11_1_i_reg_945                              |   8|   0|    8|          0|
    |p_Result_11_2_i_reg_969                              |   8|   0|    8|          0|
    |p_Result_11_3_i_reg_993                              |   8|   0|    8|          0|
    |p_Result_11_i_reg_921                                |   8|   0|    8|          0|
    |p_Result_13_1_i_reg_950                              |   8|   0|    8|          0|
    |p_Result_13_2_i_reg_974                              |   8|   0|    8|          0|
    |p_Result_13_3_i_reg_998                              |   8|   0|    8|          0|
    |tcts_tcp_sums_sum_V_10_reg_1029                      |  17|   0|   17|          0|
    |tcts_tcp_sums_sum_V_11_reg_1044                      |  17|   0|   17|          0|
    |tcts_tcp_sums_sum_V_12_reg_1059                      |  17|   0|   17|          0|
    |tcts_tcp_sums_sum_V_1_14                             |  17|   0|   17|          0|
    |tcts_tcp_sums_sum_V_2_13                             |  17|   0|   17|          0|
    |tcts_tcp_sums_sum_V_3_12                             |  17|   0|   17|          0|
    |tcts_tcp_sums_sum_V_9_reg_1014                       |  17|   0|   17|          0|
    |tcts_tcp_sums_sum_V_s                                |  17|   0|   17|          0|
    |tmp33_reg_910                                        |  73|   0|   73|          0|
    |tmp_44_reg_956                                       |   1|   0|    1|          0|
    |tmp_44_reg_956_pp0_iter1_reg                         |   1|   0|    1|          0|
    |tmp_47_reg_980                                       |   1|   0|    1|          0|
    |tmp_47_reg_980_pp0_iter1_reg                         |   1|   0|    1|          0|
    |tmp_50_reg_1004                                      |   1|   0|    1|          0|
    |tmp_50_reg_1004_pp0_iter1_reg                        |   1|   0|    1|          0|
    |tmp_52_reg_1010                                      |   1|   0|    1|          0|
    |tmp_52_reg_1010_pp0_iter1_reg                        |   1|   0|    1|          0|
    |tmp_reg_906                                          |   1|   0|    1|          0|
    |tmp_reg_906_pp0_iter1_reg                            |   1|   0|    1|          0|
    |trunc_ln647_reg_926                                  |   8|   0|    8|          0|
    +-----------------------------------------------------+----+----+-----+-----------+
    |Total                                                | 569|   0|  569|          0|
    +-----------------------------------------------------+----+----+-----+-----------+



================================================================
== Interface
================================================================
* Summary: 
+---------------------------------+-----+-----+------------+-------------------------+--------------+
|            RTL Ports            | Dir | Bits|  Protocol  |      Source Object      |    C Type    |
+---------------------------------+-----+-----+------------+-------------------------+--------------+
|ap_clk                           |  in |    1| ap_ctrl_hs |   two_complement_subch  | return value |
|ap_rst                           |  in |    1| ap_ctrl_hs |   two_complement_subch  | return value |
|ap_start                         |  in |    1| ap_ctrl_hs |   two_complement_subch  | return value |
|ap_done                          | out |    1| ap_ctrl_hs |   two_complement_subch  | return value |
|ap_continue                      |  in |    1| ap_ctrl_hs |   two_complement_subch  | return value |
|ap_idle                          | out |    1| ap_ctrl_hs |   two_complement_subch  | return value |
|ap_ready                         | out |    1| ap_ctrl_hs |   two_complement_subch  | return value |
|txEng_tcpPkgBuffer1_s_8_dout     |  in |   73|   ap_fifo  | txEng_tcpPkgBuffer1_s_8 |    pointer   |
|txEng_tcpPkgBuffer1_s_8_empty_n  |  in |    1|   ap_fifo  | txEng_tcpPkgBuffer1_s_8 |    pointer   |
|txEng_tcpPkgBuffer1_s_8_read     | out |    1|   ap_fifo  | txEng_tcpPkgBuffer1_s_8 |    pointer   |
|txEng_tcpPkgBuffer2_s_7_din      | out |   73|   ap_fifo  | txEng_tcpPkgBuffer2_s_7 |    pointer   |
|txEng_tcpPkgBuffer2_s_7_full_n   |  in |    1|   ap_fifo  | txEng_tcpPkgBuffer2_s_7 |    pointer   |
|txEng_tcpPkgBuffer2_s_7_write    | out |    1|   ap_fifo  | txEng_tcpPkgBuffer2_s_7 |    pointer   |
|txEng_subChecksumsFi_1_din       | out |   68|   ap_fifo  |  txEng_subChecksumsFi_1 |    pointer   |
|txEng_subChecksumsFi_1_full_n    |  in |    1|   ap_fifo  |  txEng_subChecksumsFi_1 |    pointer   |
|txEng_subChecksumsFi_1_write     | out |    1|   ap_fifo  |  txEng_subChecksumsFi_1 |    pointer   |
+---------------------------------+-----+-----+------------+-------------------------+--------------+

