

================================================================
== Vivado HLS Report for 'txAppStatusHandler'
================================================================
* Date:           Sat Dec 12 19:35:17 2020

* Version:        2019.2.1 (Build 2724168 on Thu Dec 05 05:19:09 MST 2019)
* Project:        toe_prj
* Solution:       solution1
* Product family: zynq
* Target device:  xc7z020-clg400-1


================================================================
== Performance Estimates
================================================================
+ Timing: 
    * Summary: 
    +--------+---------+----------+------------+
    |  Clock |  Target | Estimated| Uncertainty|
    +--------+---------+----------+------------+
    |ap_clk  | 6.40 ns | 5.720 ns |   0.80 ns  |
    +--------+---------+----------+------------+

+ Latency: 
    * Summary: 
    +---------+---------+----------+----------+-----+-----+----------+
    |  Latency (cycles) |  Latency (absolute) |  Interval | Pipeline |
    |   min   |   max   |    min   |    max   | min | max |   Type   |
    +---------+---------+----------+----------+-----+-----+----------+
    |        1|        1| 6.400 ns | 6.400 ns |    1|    1| function |
    +---------+---------+----------+----------+-----+-----+----------+

    + Detail: 
        * Instance: 
        N/A

        * Loop: 
        N/A



================================================================
== Utilization Estimates
================================================================
* Summary: 
+-----------------+---------+-------+--------+-------+-----+
|       Name      | BRAM_18K| DSP48E|   FF   |  LUT  | URAM|
+-----------------+---------+-------+--------+-------+-----+
|DSP              |        -|      -|       -|      -|    -|
|Expression       |        -|      -|       0|    117|    -|
|FIFO             |        -|      -|       -|      -|    -|
|Instance         |        -|      -|       -|      -|    -|
|Memory           |        -|      -|       -|      -|    -|
|Multiplexer      |        -|      -|       -|     81|    -|
|Register         |        -|      -|     113|      -|    -|
+-----------------+---------+-------+--------+-------+-----+
|Total            |        0|      0|     113|    198|    0|
+-----------------+---------+-------+--------+-------+-----+
|Available        |      280|    220|  106400|  53200|    0|
+-----------------+---------+-------+--------+-------+-----+
|Utilization (%)  |        0|      0|   ~0   |   ~0  |    0|
+-----------------+---------+-------+--------+-------+-----+

+ Detail: 
    * Instance: 
    N/A

    * DSP48E: 
    N/A

    * Memory: 
    N/A

    * FIFO: 
    N/A

    * Expression: 
    +----------------------------------+----------+-------+---+----+------------+------------+
    |           Variable Name          | Operation| DSP48E| FF| LUT| Bitwidth P0| Bitwidth P1|
    +----------------------------------+----------+-------+---+----+------------+------------+
    |ret_V_fu_160_p2                   |     +    |      0|  0|  26|          19|          19|
    |tmp_app_V_1_fu_262_p2             |     +    |      0|  0|  25|          18|          18|
    |tmp_app_V_fu_245_p2               |     +    |      0|  0|  25|          18|          18|
    |ap_condition_111                  |    and   |      0|  0|   2|           1|           1|
    |ap_condition_154                  |    and   |      0|  0|   2|           1|           1|
    |ap_condition_175                  |    and   |      0|  0|   2|           1|           1|
    |ap_condition_179                  |    and   |      0|  0|   2|           1|           1|
    |ap_condition_206                  |    and   |      0|  0|   2|           1|           1|
    |ap_predicate_op13_read_state1     |    and   |      0|  0|   2|           1|           1|
    |ap_predicate_op26_read_state1     |    and   |      0|  0|   2|           1|           1|
    |ap_predicate_op45_write_state2    |    and   |      0|  0|   2|           1|           1|
    |ap_predicate_op53_write_state2    |    and   |      0|  0|   2|           1|           1|
    |ap_predicate_op8_read_state1      |    and   |      0|  0|   2|           1|           1|
    |grp_nbreadreq_fu_80_p3            |    and   |      0|  0|   2|           1|           0|
    |tmp_nbreadreq_fu_94_p3            |    and   |      0|  0|   2|           1|           0|
    |icmp_ln80_fu_226_p2               |   icmp   |      0|  0|   9|           3|           1|
    |ap_block_pp0_stage0_01001         |    or    |      0|  0|   2|           1|           1|
    |ap_block_state1_pp0_stage0_iter0  |    or    |      0|  0|   2|           1|           1|
    |ap_block_state2_pp0_stage0_iter1  |    or    |      0|  0|   2|           1|           1|
    |ap_enable_pp0                     |    xor   |      0|  0|   2|           1|           2|
    +----------------------------------+----------+-------+---+----+------------+------------+
    |Total                             |          |      0|  0| 117|          74|          71|
    +----------------------------------+----------+-------+---+----+------------+------------+

    * Multiplexer: 
    +---------------------------------------+----+-----------+-----+-----------+
    |                  Name                 | LUT| Input Size| Bits| Total Bits|
    +---------------------------------------+----+-----------+-----+-----------+
    |ap_done                                |   9|          2|    1|          2|
    |ap_phi_mux_storemerge_i_phi_fu_118_p4  |  15|          3|    2|          6|
    |tash_state                             |  15|          3|    2|          6|
    |txApp2txSar_push_V_blk_n               |   9|          2|    1|          2|
    |txApp2txSar_push_V_din                 |  15|          3|   34|        102|
    |txApp_txEventCache_V_blk_n             |   9|          2|    1|          2|
    |txBufferWriteStatus_V_TDATA_blk_n      |   9|          2|    1|          2|
    +---------------------------------------+----+-----------+-----+-----------+
    |Total                                  |  81|         17|   42|        122|
    +---------------------------------------+----+-----------+-----+-----------+

    * Register: 
    +------------------------------+----+----+-----+-----------+
    |             Name             | FF | LUT| Bits| Const Bits|
    +------------------------------+----+----+-----+-----------+
    |ap_CS_fsm                     |   1|   0|    1|          0|
    |ap_done_reg                   |   1|   0|    1|          0|
    |ap_enable_reg_pp0_iter1       |   1|   0|    1|          0|
    |ev_address_V                  |  18|   0|   18|          0|
    |ev_length_V                   |  16|   0|   16|          0|
    |ev_length_V_load_reg_291      |  16|   0|   16|          0|
    |ev_load_reg_285               |  18|   0|   18|          0|
    |ev_sessionID_V                |  16|   0|   16|          0|
    |tash_state                    |   2|   0|    2|          0|
    |tash_state_load_reg_281       |   2|   0|    2|          0|
    |tmp_22_reg_305                |   1|   0|    1|          0|
    |tmp_23_reg_297                |   1|   0|    1|          0|
    |tmp_24_reg_309                |   1|   0|    1|          0|
    |tmp_25_reg_301                |   1|   0|    1|          0|
    |tmp_26_reg_313                |   1|   0|    1|          0|
    |tmp_reg_317                   |   1|   0|    1|          0|
    |tmp_sessionID_V_load_reg_321  |  16|   0|   16|          0|
    +------------------------------+----+----+-----+-----------+
    |Total                         | 113|   0|  113|          0|
    +------------------------------+----+----+-----+-----------+



================================================================
== Interface
================================================================
* Summary: 
+------------------------------+-----+-----+------------+-----------------------+--------------+
|           RTL Ports          | Dir | Bits|  Protocol  |     Source Object     |    C Type    |
+------------------------------+-----+-----+------------+-----------------------+--------------+
|ap_clk                        |  in |    1| ap_ctrl_hs |   txAppStatusHandler  | return value |
|ap_rst                        |  in |    1| ap_ctrl_hs |   txAppStatusHandler  | return value |
|ap_start                      |  in |    1| ap_ctrl_hs |   txAppStatusHandler  | return value |
|ap_done                       | out |    1| ap_ctrl_hs |   txAppStatusHandler  | return value |
|ap_continue                   |  in |    1| ap_ctrl_hs |   txAppStatusHandler  | return value |
|ap_idle                       | out |    1| ap_ctrl_hs |   txAppStatusHandler  | return value |
|ap_ready                      | out |    1| ap_ctrl_hs |   txAppStatusHandler  | return value |
|txBufferWriteStatus_V_TVALID  |  in |    1|    axis    | txBufferWriteStatus_V |    pointer   |
|txBufferWriteStatus_V_TDATA   |  in |    8|    axis    | txBufferWriteStatus_V |    pointer   |
|txBufferWriteStatus_V_TREADY  | out |    1|    axis    | txBufferWriteStatus_V |    pointer   |
|txApp_txEventCache_V_dout     |  in |   56|   ap_fifo  |  txApp_txEventCache_V |    pointer   |
|txApp_txEventCache_V_empty_n  |  in |    1|   ap_fifo  |  txApp_txEventCache_V |    pointer   |
|txApp_txEventCache_V_read     | out |    1|   ap_fifo  |  txApp_txEventCache_V |    pointer   |
|txApp2txSar_push_V_din        | out |   34|   ap_fifo  |   txApp2txSar_push_V  |    pointer   |
|txApp2txSar_push_V_full_n     |  in |    1|   ap_fifo  |   txApp2txSar_push_V  |    pointer   |
|txApp2txSar_push_V_write      | out |    1|   ap_fifo  |   txApp2txSar_push_V  |    pointer   |
+------------------------------+-----+-----+------------+-----------------------+--------------+

