

================================================================
== Vivado HLS Report for 'handle_arp_reply_64_s'
================================================================
* Date:           Fri Dec 18 10:41:45 2020

* Version:        2019.1 (Build 2552052 on Fri May 24 15:28:33 MDT 2019)
* Project:        mac_ip_encode_prj
* Solution:       solution1
* Product family: zynq
* Target device:  xc7z020-clg400-1


================================================================
== Performance Estimates
================================================================
+ Timing (ns): 
    * Summary: 
    +--------+-------+----------+------------+
    |  Clock | Target| Estimated| Uncertainty|
    +--------+-------+----------+------------+
    |ap_clk  |   6.40|     5.600|        0.80|
    +--------+-------+----------+------------+

+ Latency (clock cycles): 
    * Summary: 
    +-----+-----+-----+-----+----------+
    |  Latency  |  Interval | Pipeline |
    | min | max | min | max |   Type   |
    +-----+-----+-----+-----+----------+
    |    1|    1|    1|    1| function |
    +-----+-----+-----+-----+----------+

    + Detail: 
        * Instance: 
        N/A

        * Loop: 
        N/A



================================================================
== Utilization Estimates
================================================================
* Summary: 
+-----------------+---------+-------+--------+-------+-----+
|       Name      | BRAM_18K| DSP48E|   FF   |  LUT  | URAM|
+-----------------+---------+-------+--------+-------+-----+
|DSP              |        -|      -|       -|      -|    -|
|Expression       |        -|      -|       0|     22|    -|
|FIFO             |        -|      -|       -|      -|    -|
|Instance         |        -|      -|       -|      -|    -|
|Memory           |        -|      -|       -|      -|    -|
|Multiplexer      |        -|      -|       -|     69|    -|
|Register         |        -|      -|     132|      -|    -|
+-----------------+---------+-------+--------+-------+-----+
|Total            |        0|      0|     132|     91|    0|
+-----------------+---------+-------+--------+-------+-----+
|Available        |      280|    220|  106400|  53200|    0|
+-----------------+---------+-------+--------+-------+-----+
|Utilization (%)  |        0|      0|   ~0   |   ~0  |    0|
+-----------------+---------+-------+--------+-------+-----+

+ Detail: 
    * Instance: 
    N/A

    * DSP48E: 
    N/A

    * Memory: 
    N/A

    * FIFO: 
    N/A

    * Expression: 
    +----------------------------------+----------+-------+---+----+------------+------------+
    |           Variable Name          | Operation| DSP48E| FF| LUT| Bitwidth P0| Bitwidth P1|
    +----------------------------------+----------+-------+---+----+------------+------------+
    |ap_predicate_op11_read_state1     |    and   |      0|  0|   2|           1|           1|
    |ap_predicate_op18_read_state1     |    and   |      0|  0|   2|           1|           1|
    |ap_predicate_op44_write_state2    |    and   |      0|  0|   2|           1|           1|
    |ap_predicate_op52_write_state2    |    and   |      0|  0|   2|           1|           1|
    |ap_predicate_op6_read_state1      |    and   |      0|  0|   2|           1|           1|
    |grp_nbreadreq_fu_70_p3            |    and   |      0|  0|   2|           1|           0|
    |tmp_nbreadreq_fu_84_p3            |    and   |      0|  0|   2|           1|           0|
    |ap_block_pp0_stage0_01001         |    or    |      0|  0|   2|           1|           1|
    |ap_block_state1_pp0_stage0_iter0  |    or    |      0|  0|   2|           1|           1|
    |ap_block_state2_pp0_stage0_iter1  |    or    |      0|  0|   2|           1|           1|
    |ap_enable_pp0                     |    xor   |      0|  0|   2|           1|           2|
    +----------------------------------+----------+-------+---+----+------------+------------+
    |Total                             |          |      0|  0|  22|          11|          10|
    +----------------------------------+----------+-------+---+----+------------+------------+

    * Multiplexer: 
    +---------------------------+----+-----------+-----+-----------+
    |            Name           | LUT| Input Size| Bits| Total Bits|
    +---------------------------+----+-----------+-----+-----------+
    |ap_done                    |   9|          2|    1|          2|
    |arpTableIn_V_TDATA_blk_n   |   9|          2|    1|          2|
    |dataStreamBuffer2_V_blk_n  |   9|          2|    1|          2|
    |dataStreamBuffer3_V_blk_n  |   9|          2|    1|          2|
    |har_state                  |  15|          3|    2|          6|
    |headerFifo_V_blk_n         |   9|          2|    1|          2|
    |myMacAddress_V_blk_n       |   9|          2|    1|          2|
    +---------------------------+----+-----------+-----+-----------+
    |Total                      |  69|         15|    8|         18|
    +---------------------------+----+-----------+-----+-----------+

    * Register: 
    +-------------------------+----+----+-----+-----------+
    |           Name          | FF | LUT| Bits| Const Bits|
    +-------------------------+----+----+-----+-----------+
    |ap_CS_fsm                |   1|   0|    1|          0|
    |ap_done_reg              |   1|   0|    1|          0|
    |ap_enable_reg_pp0_iter1  |   1|   0|    1|          0|
    |har_state                |   2|   0|    2|          0|
    |har_state_load_reg_177   |   2|   0|    2|          0|
    |reg_132                  |  73|   0|   73|          0|
    |tmp_22_reg_210           |   1|   0|    1|          0|
    |tmp_6_reg_189            |   1|   0|    1|          0|
    |tmp_8_reg_201            |   1|   0|    1|          0|
    |tmp_reg_197              |   1|   0|    1|          0|
    |trunc_ln321_reg_205      |  48|   0|   48|          0|
    +-------------------------+----+----+-----+-----------+
    |Total                    | 132|   0|  132|          0|
    +-------------------------+----+----+-----+-----------+



================================================================
== Interface
================================================================
* Summary: 
+-----------------------------+-----+-----+------------+----------------------+--------------+
|          RTL Ports          | Dir | Bits|  Protocol  |     Source Object    |    C Type    |
+-----------------------------+-----+-----+------------+----------------------+--------------+
|ap_clk                       |  in |    1| ap_ctrl_hs | handle_arp_reply<64> | return value |
|ap_rst                       |  in |    1| ap_ctrl_hs | handle_arp_reply<64> | return value |
|ap_start                     |  in |    1| ap_ctrl_hs | handle_arp_reply<64> | return value |
|ap_done                      | out |    1| ap_ctrl_hs | handle_arp_reply<64> | return value |
|ap_continue                  |  in |    1| ap_ctrl_hs | handle_arp_reply<64> | return value |
|ap_idle                      | out |    1| ap_ctrl_hs | handle_arp_reply<64> | return value |
|ap_ready                     | out |    1| ap_ctrl_hs | handle_arp_reply<64> | return value |
|dataStreamBuffer2_V_dout     |  in |   73|   ap_fifo  |  dataStreamBuffer2_V |    pointer   |
|dataStreamBuffer2_V_empty_n  |  in |    1|   ap_fifo  |  dataStreamBuffer2_V |    pointer   |
|dataStreamBuffer2_V_read     | out |    1|   ap_fifo  |  dataStreamBuffer2_V |    pointer   |
|arpTableIn_V_TVALID          |  in |    1|    axis    |     arpTableIn_V     |    pointer   |
|arpTableIn_V_TDATA           |  in |   56|    axis    |     arpTableIn_V     |    pointer   |
|arpTableIn_V_TREADY          | out |    1|    axis    |     arpTableIn_V     |    pointer   |
|myMacAddress_V_dout          |  in |   48|   ap_fifo  |    myMacAddress_V    |    pointer   |
|myMacAddress_V_empty_n       |  in |    1|   ap_fifo  |    myMacAddress_V    |    pointer   |
|myMacAddress_V_read          | out |    1|   ap_fifo  |    myMacAddress_V    |    pointer   |
|dataStreamBuffer3_V_din      | out |   73|   ap_fifo  |  dataStreamBuffer3_V |    pointer   |
|dataStreamBuffer3_V_full_n   |  in |    1|   ap_fifo  |  dataStreamBuffer3_V |    pointer   |
|dataStreamBuffer3_V_write    | out |    1|   ap_fifo  |  dataStreamBuffer3_V |    pointer   |
|headerFifo_V_din             | out |  129|   ap_fifo  |     headerFifo_V     |    pointer   |
|headerFifo_V_full_n          |  in |    1|   ap_fifo  |     headerFifo_V     |    pointer   |
|headerFifo_V_write           | out |    1|   ap_fifo  |     headerFifo_V     |    pointer   |
+-----------------------------+-----+-----+------------+----------------------+--------------+

