

================================================================
== Vivado HLS Report for 'client'
================================================================
* Date:           Sat Dec 12 19:22:16 2020

* Version:        2019.2.1 (Build 2724168 on Thu Dec 05 05:19:09 MST 2019)
* Project:        echo_server_application_prj
* Solution:       solution1
* Product family: zynq
* Target device:  xc7z020-clg400-1


================================================================
== Performance Estimates
================================================================
+ Timing: 
    * Summary: 
    +--------+---------+----------+------------+
    |  Clock |  Target | Estimated| Uncertainty|
    +--------+---------+----------+------------+
    |ap_clk  | 6.40 ns | 2.800 ns |   0.80 ns  |
    +--------+---------+----------+------------+

+ Latency: 
    * Summary: 
    +---------+---------+----------+----------+-----+-----+----------+
    |  Latency (cycles) |  Latency (absolute) |  Interval | Pipeline |
    |   min   |   max   |    min   |    max   | min | max |   Type   |
    +---------+---------+----------+----------+-----+-----+----------+
    |        0|        0|   0 ns   |   0 ns   |    1|    1| function |
    +---------+---------+----------+----------+-----+-----+----------+

    + Detail: 
        * Instance: 
        N/A

        * Loop: 
        N/A

============================================================
+ Verbose Summary: Synthesis Manager
============================================================
InlineROM: 1
ExposeGlobal: 0
============================================================
+ Verbose Summary: CDFG Model
============================================================
IsTopModel: 0
ResetActiveHigh: 1
IsCombinational: 2
IsDatapathOnly: 0
HasWiredReturn: 1
HasMFsm: 2
HasVarLatency: 0
IsPipeline: 1
IsRtlPipelined: 0
IsInstanceOverlapped: 0
IsDontTouch: 0
HasImplIP: 0
IsGatedGlobalClock: 0

+ Individual pipeline summary: 
  * Pipeline-0: initiation interval (II) = 1, depth = 1


============================================================
+ Verbose Summary: Schedule
============================================================
* Number of FSM states : 1
* Pipeline : 1
  Pipeline-0 : II = 1, D = 1, States = { 1 }
* Dataflow Pipeline: 0

* FSM state transitions: 
1 --> 

* FSM state operations: 

State 1 <SV = 0> <Delay = 2.80>
ST_1 : Operation 2 [1/1] (0.00ns)   --->   "call void (...)* @_ssdm_op_SpecInterface(i64* @esa_dataFifo_V_data_s, [8 x i8]* @ap_fifo_str, i32 0, i32 0, [1 x i8]* @p_str, i32 0, i32 0, [1 x i8]* @p_str, [1 x i8]* @p_str, [1 x i8]* @p_str, i32 2, i32 2, i32 16, i32 16, [1 x i8]* @p_str, [1 x i8]* @p_str)"   --->   Operation 2 'specinterface' <Predicate = true> <Delay = 0.00>
ST_1 : Operation 3 [1/1] (0.00ns)   --->   "call void (...)* @_ssdm_op_SpecInterface(i8* @esa_dataFifo_V_keep_s, [8 x i8]* @ap_fifo_str, i32 0, i32 0, [1 x i8]* @p_str, i32 0, i32 0, [1 x i8]* @p_str, [1 x i8]* @p_str, [1 x i8]* @p_str, i32 2, i32 2, i32 16, i32 16, [1 x i8]* @p_str, [1 x i8]* @p_str)"   --->   Operation 3 'specinterface' <Predicate = true> <Delay = 0.00>
ST_1 : Operation 4 [1/1] (0.00ns)   --->   "call void (...)* @_ssdm_op_SpecInterface(i1* @esa_dataFifo_V_last_s, [8 x i8]* @ap_fifo_str, i32 0, i32 0, [1 x i8]* @p_str, i32 0, i32 0, [1 x i8]* @p_str, [1 x i8]* @p_str, [1 x i8]* @p_str, i32 2, i32 2, i32 16, i32 16, [1 x i8]* @p_str, [1 x i8]* @p_str)"   --->   Operation 4 'specinterface' <Predicate = true> <Delay = 0.00>
ST_1 : Operation 5 [1/1] (0.00ns)   --->   "call void (...)* @_ssdm_op_SpecInterface(i16* @esa_lengthFifo_V_V, [8 x i8]* @ap_fifo_str, i32 0, i32 0, [1 x i8]* @p_str, i32 0, i32 0, [1 x i8]* @p_str, [1 x i8]* @p_str, [1 x i8]* @p_str, i32 2, i32 2, i32 16, i32 16, [1 x i8]* @p_str, [1 x i8]* @p_str)"   --->   Operation 5 'specinterface' <Predicate = true> <Delay = 0.00>
ST_1 : Operation 6 [1/1] (0.00ns)   --->   "call void (...)* @_ssdm_op_SpecInterface(i16* @esa_sessionidFifo_V_s, [8 x i8]* @ap_fifo_str, i32 0, i32 0, [1 x i8]* @p_str, i32 0, i32 0, [1 x i8]* @p_str, [1 x i8]* @p_str, [1 x i8]* @p_str, i32 2, i32 2, i32 16, i32 16, [1 x i8]* @p_str, [1 x i8]* @p_str)"   --->   Operation 6 'specinterface' <Predicate = true> <Delay = 0.00>
ST_1 : Operation 7 [1/1] (0.00ns)   --->   "call void (...)* @_ssdm_op_SpecInterface(i64* %txData_V_data_V, i8* %txData_V_keep_V, i1* %txData_V_last_V, [5 x i8]* @p_str3, i32 1, i32 1, [5 x i8]* @p_str4, i32 0, i32 0, [1 x i8]* @p_str, [1 x i8]* @p_str, [1 x i8]* @p_str, i32 0, i32 0, i32 0, i32 0, [15 x i8]* @p_str15, [1 x i8]* @p_str) nounwind"   --->   Operation 7 'specinterface' <Predicate = true> <Delay = 0.00>
ST_1 : Operation 8 [1/1] (0.00ns)   --->   "call void (...)* @_ssdm_op_SpecInterface(i32* %txMetaData_V, [5 x i8]* @p_str3, i32 1, i32 1, [5 x i8]* @p_str4, i32 0, i32 0, [1 x i8]* @p_str, [1 x i8]* @p_str, [1 x i8]* @p_str, i32 0, i32 0, i32 0, i32 0, [19 x i8]* @p_str14, [1 x i8]* @p_str) nounwind"   --->   Operation 8 'specinterface' <Predicate = true> <Delay = 0.00>
ST_1 : Operation 9 [1/1] (0.00ns)   --->   "call void (...)* @_ssdm_op_SpecPipeline(i32 1, i32 1, i32 1, i32 0, [1 x i8]* @p_str) nounwind" [/home/paulrr2/Projects/ece527/babelsoc/fpga-network-stack/hls/echo_server_application/echo_server_application.cpp:38]   --->   Operation 9 'specpipeline' <Predicate = true> <Delay = 0.00>
ST_1 : Operation 10 [1/1] (0.00ns)   --->   "%esac_fsmState_V_load = load i1* @esac_fsmState_V, align 1" [/home/paulrr2/Projects/ece527/babelsoc/fpga-network-stack/hls/echo_server_application/echo_server_application.cpp:49]   --->   Operation 10 'load' 'esac_fsmState_V_load' <Predicate = true> <Delay = 0.00>
ST_1 : Operation 11 [1/1] (0.00ns)   --->   "br i1 %esac_fsmState_V_load, label %4, label %0" [/home/paulrr2/Projects/ece527/babelsoc/fpga-network-stack/hls/echo_server_application/echo_server_application.cpp:49]   --->   Operation 11 'br' <Predicate = true> <Delay = 0.00>
ST_1 : Operation 12 [1/1] (0.00ns)   --->   "%tmp_4 = call i1 @_ssdm_op_NbReadReq.ap_fifo.i16P(i16* @esa_sessionidFifo_V_s, i32 1)" [/home/paulrr2/Projects/ece527/babelsoc/fpga-network-stack/hls/echo_server_application/echo_server_application.cpp:52]   --->   Operation 12 'nbreadreq' 'tmp_4' <Predicate = (!esac_fsmState_V_load)> <Delay = 0.00> <Core = "FIFO_SRL">   --->   Core 36 'FIFO_SRL' <Latency = 0> <II = 1> <Delay = 3.63> <Storage> <Opcode : 'read' 'write' 'nbread' 'nbwrite'> <Ports = 0> <Width = 64> <Depth = 0> <FIFO>
ST_1 : Operation 13 [1/1] (0.00ns)   --->   "br i1 %tmp_4, label %1, label %._crit_edge2.i" [/home/paulrr2/Projects/ece527/babelsoc/fpga-network-stack/hls/echo_server_application/echo_server_application.cpp:52]   --->   Operation 13 'br' <Predicate = (!esac_fsmState_V_load)> <Delay = 0.00>
ST_1 : Operation 14 [1/1] (0.00ns)   --->   "%tmp_6 = call i1 @_ssdm_op_NbReadReq.ap_fifo.i16P(i16* @esa_lengthFifo_V_V, i32 1)" [/home/paulrr2/Projects/ece527/babelsoc/fpga-network-stack/hls/echo_server_application/echo_server_application.cpp:52]   --->   Operation 14 'nbreadreq' 'tmp_6' <Predicate = (!esac_fsmState_V_load & tmp_4)> <Delay = 0.00> <Core = "FIFO_SRL">   --->   Core 36 'FIFO_SRL' <Latency = 0> <II = 1> <Delay = 3.63> <Storage> <Opcode : 'read' 'write' 'nbread' 'nbwrite'> <Ports = 0> <Width = 64> <Depth = 0> <FIFO>
ST_1 : Operation 15 [1/1] (0.00ns)   --->   "br i1 %tmp_6, label %2, label %._crit_edge2.i" [/home/paulrr2/Projects/ece527/babelsoc/fpga-network-stack/hls/echo_server_application/echo_server_application.cpp:52]   --->   Operation 15 'br' <Predicate = (!esac_fsmState_V_load & tmp_4)> <Delay = 0.00>
ST_1 : Operation 16 [1/1] (0.00ns)   --->   "%tmp_7 = call i1 @_ssdm_op_NbWriteReq.axis.i32P(i32* %txMetaData_V, i32 1)" [/home/paulrr2/Projects/ece527/babelsoc/fpga-network-stack/hls/echo_server_application/echo_server_application.cpp:52]   --->   Operation 16 'nbwritereq' 'tmp_7' <Predicate = (!esac_fsmState_V_load & tmp_4 & tmp_6)> <Delay = 0.00> <Core = "AXI4Stream">   --->   Core 5 'AXI4Stream' <Latency = 0> <II = 1> <Delay = 1.00> <Adapter> <Opcode : >
ST_1 : Operation 17 [1/1] (0.00ns)   --->   "br i1 %tmp_7, label %3, label %._crit_edge2.i" [/home/paulrr2/Projects/ece527/babelsoc/fpga-network-stack/hls/echo_server_application/echo_server_application.cpp:52]   --->   Operation 17 'br' <Predicate = (!esac_fsmState_V_load & tmp_4 & tmp_6)> <Delay = 0.00>
ST_1 : Operation 18 [1/1] (2.80ns)   --->   "%tmp_V = call i16 @_ssdm_op_Read.ap_fifo.volatile.i16P(i16* @esa_sessionidFifo_V_s)" [/home/paulrr2/Projects/ece527/babelsoc/fpga-network-stack/hls/echo_server_application/echo_server_application.cpp:54]   --->   Operation 18 'read' 'tmp_V' <Predicate = (!esac_fsmState_V_load & tmp_4 & tmp_6 & tmp_7)> <Delay = 2.80> <Core = "FIFO_SRL">   --->   Core 36 'FIFO_SRL' <Latency = 0> <II = 1> <Delay = 3.63> <Storage> <Opcode : 'read' 'write' 'nbread' 'nbwrite'> <Ports = 0> <Width = 64> <Depth = 0> <FIFO>
ST_1 : Operation 19 [1/1] (2.80ns)   --->   "%tmp_V_1 = call i16 @_ssdm_op_Read.ap_fifo.volatile.i16P(i16* @esa_lengthFifo_V_V)" [/home/paulrr2/Projects/ece527/babelsoc/fpga-network-stack/hls/echo_server_application/echo_server_application.cpp:55]   --->   Operation 19 'read' 'tmp_V_1' <Predicate = (!esac_fsmState_V_load & tmp_4 & tmp_6 & tmp_7)> <Delay = 2.80> <Core = "FIFO_SRL">   --->   Core 36 'FIFO_SRL' <Latency = 0> <II = 1> <Delay = 3.63> <Storage> <Opcode : 'read' 'write' 'nbread' 'nbwrite'> <Ports = 0> <Width = 64> <Depth = 0> <FIFO>
ST_1 : Operation 20 [1/1] (0.00ns)   --->   "%tmp1 = call i32 @_ssdm_op_BitConcatenate.i32.i16.i16(i16 %tmp_V_1, i16 %tmp_V)" [/home/paulrr2/Projects/ece527/babelsoc/fpga-network-stack/hls/echo_server_application/echo_server_application.cpp:56]   --->   Operation 20 'bitconcatenate' 'tmp1' <Predicate = (!esac_fsmState_V_load & tmp_4 & tmp_6 & tmp_7)> <Delay = 0.00>
ST_1 : Operation 21 [1/1] (0.00ns)   --->   "call void @_ssdm_op_Write.axis.volatile.i32P(i32* %txMetaData_V, i32 %tmp1)" [/home/paulrr2/Projects/ece527/babelsoc/fpga-network-stack/hls/echo_server_application/echo_server_application.cpp:56]   --->   Operation 21 'write' <Predicate = (!esac_fsmState_V_load & tmp_4 & tmp_6 & tmp_7)> <Delay = 0.00> <Core = "AXI4Stream">   --->   Core 5 'AXI4Stream' <Latency = 0> <II = 1> <Delay = 1.00> <Adapter> <Opcode : >
ST_1 : Operation 22 [1/1] (1.76ns)   --->   "store i1 true, i1* @esac_fsmState_V, align 1" [/home/paulrr2/Projects/ece527/babelsoc/fpga-network-stack/hls/echo_server_application/echo_server_application.cpp:57]   --->   Operation 22 'store' <Predicate = (!esac_fsmState_V_load & tmp_4 & tmp_6 & tmp_7)> <Delay = 1.76>
ST_1 : Operation 23 [1/1] (0.00ns)   --->   "br label %._crit_edge2.i" [/home/paulrr2/Projects/ece527/babelsoc/fpga-network-stack/hls/echo_server_application/echo_server_application.cpp:58]   --->   Operation 23 'br' <Predicate = (!esac_fsmState_V_load & tmp_4 & tmp_6 & tmp_7)> <Delay = 0.00>
ST_1 : Operation 24 [1/1] (0.00ns)   --->   "br label %client.exit" [/home/paulrr2/Projects/ece527/babelsoc/fpga-network-stack/hls/echo_server_application/echo_server_application.cpp:59]   --->   Operation 24 'br' <Predicate = (!esac_fsmState_V_load)> <Delay = 0.00>
ST_1 : Operation 25 [1/1] (0.00ns)   --->   "%tmp = call i1 @_ssdm_op_NbReadReq.ap_fifo.i64P.i8P.i1P(i64* @esa_dataFifo_V_data_s, i8* @esa_dataFifo_V_keep_s, i1* @esa_dataFifo_V_last_s, i32 1)" [/home/paulrr2/Projects/ece527/babelsoc/fpga-network-stack/hls/echo_server_application/echo_server_application.cpp:61]   --->   Operation 25 'nbreadreq' 'tmp' <Predicate = (esac_fsmState_V_load)> <Delay = 0.00> <Core = "FIFO_SRL">   --->   Core 36 'FIFO_SRL' <Latency = 0> <II = 1> <Delay = 3.63> <Storage> <Opcode : 'read' 'write' 'nbread' 'nbwrite'> <Ports = 0> <Width = 64> <Depth = 0> <FIFO>
ST_1 : Operation 26 [1/1] (0.00ns)   --->   "br i1 %tmp, label %5, label %._crit_edge5.i" [/home/paulrr2/Projects/ece527/babelsoc/fpga-network-stack/hls/echo_server_application/echo_server_application.cpp:61]   --->   Operation 26 'br' <Predicate = (esac_fsmState_V_load)> <Delay = 0.00>
ST_1 : Operation 27 [1/1] (0.00ns)   --->   "%tmp_5 = call i1 @_ssdm_op_NbWriteReq.axis.i64P.i8P.i1P(i64* %txData_V_data_V, i8* %txData_V_keep_V, i1* %txData_V_last_V, i32 1)" [/home/paulrr2/Projects/ece527/babelsoc/fpga-network-stack/hls/echo_server_application/echo_server_application.cpp:61]   --->   Operation 27 'nbwritereq' 'tmp_5' <Predicate = (esac_fsmState_V_load & tmp)> <Delay = 0.00> <Core = "AXI4Stream">   --->   Core 5 'AXI4Stream' <Latency = 0> <II = 1> <Delay = 1.00> <Adapter> <Opcode : >
ST_1 : Operation 28 [1/1] (0.00ns)   --->   "br i1 %tmp_5, label %6, label %._crit_edge5.i" [/home/paulrr2/Projects/ece527/babelsoc/fpga-network-stack/hls/echo_server_application/echo_server_application.cpp:61]   --->   Operation 28 'br' <Predicate = (esac_fsmState_V_load & tmp)> <Delay = 0.00>
ST_1 : Operation 29 [1/1] (2.80ns)   --->   "%empty = call { i64, i8, i1 } @_ssdm_op_Read.ap_fifo.volatile.i64P.i8P.i1P(i64* @esa_dataFifo_V_data_s, i8* @esa_dataFifo_V_keep_s, i1* @esa_dataFifo_V_last_s)" [/home/paulrr2/Projects/ece527/babelsoc/fpga-network-stack/hls/echo_server_application/echo_server_application.cpp:63]   --->   Operation 29 'read' 'empty' <Predicate = (esac_fsmState_V_load & tmp & tmp_5)> <Delay = 2.80> <Core = "FIFO_SRL">   --->   Core 36 'FIFO_SRL' <Latency = 0> <II = 1> <Delay = 3.63> <Storage> <Opcode : 'read' 'write' 'nbread' 'nbwrite'> <Ports = 0> <Width = 64> <Depth = 0> <FIFO>
ST_1 : Operation 30 [1/1] (0.00ns)   --->   "%tmp_data_V = extractvalue { i64, i8, i1 } %empty, 0" [/home/paulrr2/Projects/ece527/babelsoc/fpga-network-stack/hls/echo_server_application/echo_server_application.cpp:63]   --->   Operation 30 'extractvalue' 'tmp_data_V' <Predicate = (esac_fsmState_V_load & tmp & tmp_5)> <Delay = 0.00>
ST_1 : Operation 31 [1/1] (0.00ns)   --->   "%tmp_keep_V = extractvalue { i64, i8, i1 } %empty, 1" [/home/paulrr2/Projects/ece527/babelsoc/fpga-network-stack/hls/echo_server_application/echo_server_application.cpp:63]   --->   Operation 31 'extractvalue' 'tmp_keep_V' <Predicate = (esac_fsmState_V_load & tmp & tmp_5)> <Delay = 0.00>
ST_1 : Operation 32 [1/1] (0.00ns)   --->   "%tmp_last_V = extractvalue { i64, i8, i1 } %empty, 2" [/home/paulrr2/Projects/ece527/babelsoc/fpga-network-stack/hls/echo_server_application/echo_server_application.cpp:63]   --->   Operation 32 'extractvalue' 'tmp_last_V' <Predicate = (esac_fsmState_V_load & tmp & tmp_5)> <Delay = 0.00>
ST_1 : Operation 33 [1/1] (0.00ns)   --->   "call void @_ssdm_op_Write.axis.volatile.i64P.i8P.i1P(i64* %txData_V_data_V, i8* %txData_V_keep_V, i1* %txData_V_last_V, i64 %tmp_data_V, i8 %tmp_keep_V, i1 %tmp_last_V)" [/home/paulrr2/Projects/ece527/babelsoc/fpga-network-stack/hls/echo_server_application/echo_server_application.cpp:64]   --->   Operation 33 'write' <Predicate = (esac_fsmState_V_load & tmp & tmp_5)> <Delay = 0.00> <Core = "AXI4Stream">   --->   Core 5 'AXI4Stream' <Latency = 0> <II = 1> <Delay = 1.00> <Adapter> <Opcode : >
ST_1 : Operation 34 [1/1] (0.00ns)   --->   "br i1 %tmp_last_V, label %7, label %._crit_edge7.i" [/home/paulrr2/Projects/ece527/babelsoc/fpga-network-stack/hls/echo_server_application/echo_server_application.cpp:65]   --->   Operation 34 'br' <Predicate = (esac_fsmState_V_load & tmp & tmp_5)> <Delay = 0.00>
ST_1 : Operation 35 [1/1] (1.76ns)   --->   "store i1 false, i1* @esac_fsmState_V, align 1" [/home/paulrr2/Projects/ece527/babelsoc/fpga-network-stack/hls/echo_server_application/echo_server_application.cpp:67]   --->   Operation 35 'store' <Predicate = (esac_fsmState_V_load & tmp & tmp_5 & tmp_last_V)> <Delay = 1.76>
ST_1 : Operation 36 [1/1] (0.00ns)   --->   "br label %._crit_edge7.i" [/home/paulrr2/Projects/ece527/babelsoc/fpga-network-stack/hls/echo_server_application/echo_server_application.cpp:68]   --->   Operation 36 'br' <Predicate = (esac_fsmState_V_load & tmp & tmp_5 & tmp_last_V)> <Delay = 0.00>
ST_1 : Operation 37 [1/1] (0.00ns)   --->   "br label %._crit_edge5.i" [/home/paulrr2/Projects/ece527/babelsoc/fpga-network-stack/hls/echo_server_application/echo_server_application.cpp:69]   --->   Operation 37 'br' <Predicate = (esac_fsmState_V_load & tmp & tmp_5)> <Delay = 0.00>
ST_1 : Operation 38 [1/1] (0.00ns)   --->   "br label %client.exit" [/home/paulrr2/Projects/ece527/babelsoc/fpga-network-stack/hls/echo_server_application/echo_server_application.cpp:70]   --->   Operation 38 'br' <Predicate = (esac_fsmState_V_load)> <Delay = 0.00>
ST_1 : Operation 39 [1/1] (0.00ns)   --->   "ret void"   --->   Operation 39 'ret' <Predicate = true> <Delay = 0.00>


============================================================
+ Verbose Summary: Binding
============================================================
STG Binding: 
---------------- STG Properties BEGIN ----------------
- Is combinational: 0
- Is one-state seq: 1
- Is datapath-only: 0
- Is pipelined: 1
- Is top level: 0
Port [ Return ] is wired: 1; IO mode=ap_ctrl_hs:ce=0
Port [ txMetaData_V]:  wired=1; compound=1; hidden=0; nouse=0; global=0; static=0; extern=0; dir=1; type=0; pingpong=0; private_global=0; IO mode=axis:ce=0
Port [ txData_V_data_V]:  wired=1; compound=1; hidden=0; nouse=0; global=0; static=0; extern=0; dir=1; type=0; pingpong=0; private_global=0; IO mode=axis:ce=0
Port [ txData_V_keep_V]:  wired=1; compound=1; hidden=0; nouse=0; global=0; static=0; extern=0; dir=1; type=0; pingpong=0; private_global=0; IO mode=axis:ce=0
Port [ txData_V_last_V]:  wired=1; compound=1; hidden=0; nouse=0; global=0; static=0; extern=0; dir=1; type=0; pingpong=0; private_global=0; IO mode=axis:ce=0
Port [ esac_fsmState_V]:  wired=0; compound=0; hidden=1; nouse=0; global=1; static=1; extern=0; dir=2; type=0; pingpong=0; private_global=1; linkage=7; visibility=0; IO mode=ap_ovld:ce=0
Port [ esa_sessionidFifo_V_s]:  wired=1; compound=1; hidden=0; nouse=0; global=1; static=1; extern=0; dir=0; type=3; pingpong=0; private_global=0; linkage=7; visibility=0; IO mode=ap_fifo:ce=0
Port [ esa_lengthFifo_V_V]:  wired=1; compound=1; hidden=0; nouse=0; global=1; static=1; extern=0; dir=0; type=3; pingpong=0; private_global=0; linkage=7; visibility=0; IO mode=ap_fifo:ce=0
Port [ esa_dataFifo_V_data_s]:  wired=1; compound=1; hidden=0; nouse=0; global=1; static=1; extern=0; dir=0; type=3; pingpong=0; private_global=0; linkage=7; visibility=0; IO mode=ap_fifo:ce=0
Port [ esa_dataFifo_V_keep_s]:  wired=1; compound=1; hidden=0; nouse=0; global=1; static=1; extern=0; dir=0; type=3; pingpong=0; private_global=0; linkage=7; visibility=0; IO mode=ap_fifo:ce=0
Port [ esa_dataFifo_V_last_s]:  wired=1; compound=1; hidden=0; nouse=0; global=1; static=1; extern=0; dir=0; type=3; pingpong=0; private_global=0; linkage=7; visibility=0; IO mode=ap_fifo:ce=0
---------------- STG Properties END ------------------

---------------- Datapath Model BEGIN ----------------

<LifeTime>
<method=bitvector/>
specinterface_ln0    (specinterface ) [ 00]
specinterface_ln0    (specinterface ) [ 00]
specinterface_ln0    (specinterface ) [ 00]
specinterface_ln0    (specinterface ) [ 00]
specinterface_ln0    (specinterface ) [ 00]
specinterface_ln0    (specinterface ) [ 00]
specinterface_ln0    (specinterface ) [ 00]
specpipeline_ln38    (specpipeline  ) [ 00]
esac_fsmState_V_load (load          ) [ 01]
br_ln49              (br            ) [ 00]
tmp_4                (nbreadreq     ) [ 01]
br_ln52              (br            ) [ 00]
tmp_6                (nbreadreq     ) [ 01]
br_ln52              (br            ) [ 00]
tmp_7                (nbwritereq    ) [ 01]
br_ln52              (br            ) [ 00]
tmp_V                (read          ) [ 00]
tmp_V_1              (read          ) [ 00]
tmp1                 (bitconcatenate) [ 00]
write_ln56           (write         ) [ 00]
store_ln57           (store         ) [ 00]
br_ln58              (br            ) [ 00]
br_ln59              (br            ) [ 00]
tmp                  (nbreadreq     ) [ 01]
br_ln61              (br            ) [ 00]
tmp_5                (nbwritereq    ) [ 01]
br_ln61              (br            ) [ 00]
empty                (read          ) [ 00]
tmp_data_V           (extractvalue  ) [ 00]
tmp_keep_V           (extractvalue  ) [ 00]
tmp_last_V           (extractvalue  ) [ 01]
write_ln64           (write         ) [ 00]
br_ln65              (br            ) [ 00]
store_ln67           (store         ) [ 00]
br_ln68              (br            ) [ 00]
br_ln69              (br            ) [ 00]
br_ln70              (br            ) [ 00]
ret_ln0              (ret           ) [ 00]
</LifeTime>

<model>

<comp_list>
<comp id="0" class="1000" name="txMetaData_V">
<pin_list>
<pin id="1" dir="1" index="0" bw="1" slack="0"/>
</pin_list>
<bind>
<StgValue><ssdm name="txMetaData_V"/></StgValue>
</bind>
</comp>

<comp id="2" class="1000" name="txData_V_data_V">
<pin_list>
<pin id="3" dir="1" index="0" bw="1" slack="0"/>
</pin_list>
<bind>
<StgValue><ssdm name="txData_V_data_V"/></StgValue>
</bind>
</comp>

<comp id="4" class="1000" name="txData_V_keep_V">
<pin_list>
<pin id="5" dir="1" index="0" bw="1" slack="0"/>
</pin_list>
<bind>
<StgValue><ssdm name="txData_V_keep_V"/></StgValue>
</bind>
</comp>

<comp id="6" class="1000" name="txData_V_last_V">
<pin_list>
<pin id="7" dir="1" index="0" bw="1" slack="0"/>
</pin_list>
<bind>
<StgValue><ssdm name="txData_V_last_V"/></StgValue>
</bind>
</comp>

<comp id="8" class="1000" name="esac_fsmState_V">
<pin_list>
<pin id="9" dir="1" index="0" bw="1" slack="0"/>
</pin_list>
<bind>
<StgValue><ssdm name="esac_fsmState_V"/></StgValue>
</bind>
</comp>

<comp id="10" class="1000" name="esa_sessionidFifo_V_s">
<pin_list>
<pin id="11" dir="1" index="0" bw="1" slack="0"/>
</pin_list>
<bind>
<StgValue><ssdm name="esa_sessionidFifo_V_s"/></StgValue>
</bind>
</comp>

<comp id="12" class="1000" name="esa_lengthFifo_V_V">
<pin_list>
<pin id="13" dir="1" index="0" bw="1" slack="0"/>
</pin_list>
<bind>
<StgValue><ssdm name="esa_lengthFifo_V_V"/></StgValue>
</bind>
</comp>

<comp id="14" class="1000" name="esa_dataFifo_V_data_s">
<pin_list>
<pin id="15" dir="1" index="0" bw="1" slack="0"/>
</pin_list>
<bind>
<StgValue><ssdm name="esa_dataFifo_V_data_s"/></StgValue>
</bind>
</comp>

<comp id="16" class="1000" name="esa_dataFifo_V_keep_s">
<pin_list>
<pin id="17" dir="1" index="0" bw="1" slack="0"/>
</pin_list>
<bind>
<StgValue><ssdm name="esa_dataFifo_V_keep_s"/></StgValue>
</bind>
</comp>

<comp id="18" class="1000" name="esa_dataFifo_V_last_s">
<pin_list>
<pin id="19" dir="1" index="0" bw="1" slack="0"/>
</pin_list>
<bind>
<StgValue><ssdm name="esa_dataFifo_V_last_s"/></StgValue>
</bind>
</comp>

<comp id="20" class="1001" name="const_20">
<pin_list>
<pin id="21" dir="1" index="0" bw="1" slack="2147483647"/>
</pin_list>
<bind>
<StgValue><ssdm name="_ssdm_op_SpecInterface"/></StgValue>
</bind>
</comp>

<comp id="22" class="1001" name="const_22">
<pin_list>
<pin id="23" dir="1" index="0" bw="1" slack="2147483647"/>
</pin_list>
<bind>
<StgValue><ssdm name="ap_fifo_str"/></StgValue>
</bind>
</comp>

<comp id="24" class="1001" name="const_24">
<pin_list>
<pin id="25" dir="1" index="0" bw="1" slack="2147483647"/>
</pin_list>
<bind>
<StgValue><ssdm name=""/></StgValue>
</bind>
</comp>

<comp id="26" class="1001" name="const_26">
<pin_list>
<pin id="27" dir="1" index="0" bw="1" slack="2147483647"/>
</pin_list>
<bind>
<StgValue><ssdm name="p_str"/></StgValue>
</bind>
</comp>

<comp id="28" class="1001" name="const_28">
<pin_list>
<pin id="29" dir="1" index="0" bw="1" slack="2147483647"/>
</pin_list>
<bind>
<StgValue><ssdm name=""/></StgValue>
</bind>
</comp>

<comp id="30" class="1001" name="const_30">
<pin_list>
<pin id="31" dir="1" index="0" bw="1" slack="2147483647"/>
</pin_list>
<bind>
<StgValue><ssdm name=""/></StgValue>
</bind>
</comp>

<comp id="32" class="1001" name="const_32">
<pin_list>
<pin id="33" dir="1" index="0" bw="1" slack="2147483647"/>
</pin_list>
<bind>
<StgValue><ssdm name="p_str3"/></StgValue>
</bind>
</comp>

<comp id="34" class="1001" name="const_34">
<pin_list>
<pin id="35" dir="1" index="0" bw="1" slack="0"/>
</pin_list>
<bind>
<StgValue><ssdm name=""/></StgValue>
</bind>
</comp>

<comp id="36" class="1001" name="const_36">
<pin_list>
<pin id="37" dir="1" index="0" bw="1" slack="2147483647"/>
</pin_list>
<bind>
<StgValue><ssdm name="p_str4"/></StgValue>
</bind>
</comp>

<comp id="38" class="1001" name="const_38">
<pin_list>
<pin id="39" dir="1" index="0" bw="1" slack="2147483647"/>
</pin_list>
<bind>
<StgValue><ssdm name="p_str15"/></StgValue>
</bind>
</comp>

<comp id="40" class="1001" name="const_40">
<pin_list>
<pin id="41" dir="1" index="0" bw="1" slack="2147483647"/>
</pin_list>
<bind>
<StgValue><ssdm name="p_str14"/></StgValue>
</bind>
</comp>

<comp id="42" class="1001" name="const_42">
<pin_list>
<pin id="43" dir="1" index="0" bw="1" slack="2147483647"/>
</pin_list>
<bind>
<StgValue><ssdm name="_ssdm_op_SpecPipeline"/></StgValue>
</bind>
</comp>

<comp id="44" class="1001" name="const_44">
<pin_list>
<pin id="45" dir="1" index="0" bw="1" slack="0"/>
</pin_list>
<bind>
<StgValue><ssdm name="_ssdm_op_NbReadReq.ap_fifo.i16P"/></StgValue>
</bind>
</comp>

<comp id="46" class="1001" name="const_46">
<pin_list>
<pin id="47" dir="1" index="0" bw="1" slack="0"/>
</pin_list>
<bind>
<StgValue><ssdm name="_ssdm_op_NbWriteReq.axis.i32P"/></StgValue>
</bind>
</comp>

<comp id="48" class="1001" name="const_48">
<pin_list>
<pin id="49" dir="1" index="0" bw="1" slack="0"/>
</pin_list>
<bind>
<StgValue><ssdm name="_ssdm_op_Read.ap_fifo.volatile.i16P"/></StgValue>
</bind>
</comp>

<comp id="50" class="1001" name="const_50">
<pin_list>
<pin id="51" dir="1" index="0" bw="1" slack="0"/>
</pin_list>
<bind>
<StgValue><ssdm name="_ssdm_op_BitConcatenate.i32.i16.i16"/></StgValue>
</bind>
</comp>

<comp id="52" class="1001" name="const_52">
<pin_list>
<pin id="53" dir="1" index="0" bw="1" slack="0"/>
</pin_list>
<bind>
<StgValue><ssdm name="_ssdm_op_Write.axis.volatile.i32P"/></StgValue>
</bind>
</comp>

<comp id="54" class="1001" name="const_54">
<pin_list>
<pin id="55" dir="1" index="0" bw="1" slack="0"/>
</pin_list>
<bind>
<StgValue><ssdm name=""/></StgValue>
</bind>
</comp>

<comp id="56" class="1001" name="const_56">
<pin_list>
<pin id="57" dir="1" index="0" bw="1" slack="0"/>
</pin_list>
<bind>
<StgValue><ssdm name="_ssdm_op_NbReadReq.ap_fifo.i64P.i8P.i1P"/></StgValue>
</bind>
</comp>

<comp id="58" class="1001" name="const_58">
<pin_list>
<pin id="59" dir="1" index="0" bw="1" slack="0"/>
</pin_list>
<bind>
<StgValue><ssdm name="_ssdm_op_NbWriteReq.axis.i64P.i8P.i1P"/></StgValue>
</bind>
</comp>

<comp id="60" class="1001" name="const_60">
<pin_list>
<pin id="61" dir="1" index="0" bw="1" slack="0"/>
</pin_list>
<bind>
<StgValue><ssdm name="_ssdm_op_Read.ap_fifo.volatile.i64P.i8P.i1P"/></StgValue>
</bind>
</comp>

<comp id="62" class="1001" name="const_62">
<pin_list>
<pin id="63" dir="1" index="0" bw="1" slack="0"/>
</pin_list>
<bind>
<StgValue><ssdm name="_ssdm_op_Write.axis.volatile.i64P.i8P.i1P"/></StgValue>
</bind>
</comp>

<comp id="64" class="1001" name="const_64">
<pin_list>
<pin id="65" dir="1" index="0" bw="1" slack="0"/>
</pin_list>
<bind>
<StgValue><ssdm name=""/></StgValue>
</bind>
</comp>

<comp id="66" class="1004" name="tmp_4_nbreadreq_fu_66">
<pin_list>
<pin id="67" dir="0" index="0" bw="1" slack="0"/>
<pin id="68" dir="0" index="1" bw="16" slack="0"/>
<pin id="69" dir="0" index="2" bw="1" slack="0"/>
<pin id="70" dir="1" index="3" bw="1" slack="2147483647"/>
</pin_list>
<bind>
<opcode="nbreadreq(1156) " fcode="nbreadreq"/>
<opset="tmp_4/1 "/>
</bind>
</comp>

<comp id="74" class="1004" name="tmp_6_nbreadreq_fu_74">
<pin_list>
<pin id="75" dir="0" index="0" bw="1" slack="0"/>
<pin id="76" dir="0" index="1" bw="16" slack="0"/>
<pin id="77" dir="0" index="2" bw="1" slack="0"/>
<pin id="78" dir="1" index="3" bw="1" slack="2147483647"/>
</pin_list>
<bind>
<opcode="nbreadreq(1156) " fcode="nbreadreq"/>
<opset="tmp_6/1 "/>
</bind>
</comp>

<comp id="82" class="1004" name="tmp_7_nbwritereq_fu_82">
<pin_list>
<pin id="83" dir="0" index="0" bw="1" slack="0"/>
<pin id="84" dir="0" index="1" bw="32" slack="0"/>
<pin id="85" dir="0" index="2" bw="1" slack="0"/>
<pin id="86" dir="1" index="3" bw="1" slack="2147483647"/>
</pin_list>
<bind>
<opcode="nbwritereq(1157) " fcode="nbwritereq"/>
<opset="tmp_7/1 "/>
</bind>
</comp>

<comp id="90" class="1004" name="tmp_V_read_fu_90">
<pin_list>
<pin id="91" dir="0" index="0" bw="16" slack="0"/>
<pin id="92" dir="0" index="1" bw="16" slack="0"/>
<pin id="93" dir="1" index="2" bw="16" slack="0"/>
</pin_list>
<bind>
<opcode="read(1150) " fcode="read"/>
<opset="tmp_V/1 "/>
</bind>
</comp>

<comp id="96" class="1004" name="tmp_V_1_read_fu_96">
<pin_list>
<pin id="97" dir="0" index="0" bw="16" slack="0"/>
<pin id="98" dir="0" index="1" bw="16" slack="0"/>
<pin id="99" dir="1" index="2" bw="16" slack="0"/>
</pin_list>
<bind>
<opcode="read(1150) " fcode="read"/>
<opset="tmp_V_1/1 "/>
</bind>
</comp>

<comp id="102" class="1004" name="write_ln56_write_fu_102">
<pin_list>
<pin id="103" dir="0" index="0" bw="0" slack="0"/>
<pin id="104" dir="0" index="1" bw="32" slack="0"/>
<pin id="105" dir="0" index="2" bw="32" slack="0"/>
<pin id="106" dir="1" index="3" bw="0" slack="2147483647"/>
</pin_list>
<bind>
<opcode="write(1151) " fcode="write"/>
<opset="write_ln56/1 "/>
</bind>
</comp>

<comp id="109" class="1004" name="tmp_nbreadreq_fu_109">
<pin_list>
<pin id="110" dir="0" index="0" bw="1" slack="0"/>
<pin id="111" dir="0" index="1" bw="64" slack="0"/>
<pin id="112" dir="0" index="2" bw="8" slack="0"/>
<pin id="113" dir="0" index="3" bw="1" slack="0"/>
<pin id="114" dir="0" index="4" bw="1" slack="0"/>
<pin id="115" dir="1" index="5" bw="1" slack="2147483647"/>
</pin_list>
<bind>
<opcode="nbreadreq(1156) " fcode="nbreadreq"/>
<opset="tmp/1 "/>
</bind>
</comp>

<comp id="121" class="1004" name="tmp_5_nbwritereq_fu_121">
<pin_list>
<pin id="122" dir="0" index="0" bw="1" slack="0"/>
<pin id="123" dir="0" index="1" bw="64" slack="0"/>
<pin id="124" dir="0" index="2" bw="8" slack="0"/>
<pin id="125" dir="0" index="3" bw="1" slack="0"/>
<pin id="126" dir="0" index="4" bw="1" slack="0"/>
<pin id="127" dir="1" index="5" bw="1" slack="2147483647"/>
</pin_list>
<bind>
<opcode="nbwritereq(1157) " fcode="nbwritereq"/>
<opset="tmp_5/1 "/>
</bind>
</comp>

<comp id="133" class="1004" name="empty_read_fu_133">
<pin_list>
<pin id="134" dir="0" index="0" bw="73" slack="0"/>
<pin id="135" dir="0" index="1" bw="64" slack="0"/>
<pin id="136" dir="0" index="2" bw="8" slack="0"/>
<pin id="137" dir="0" index="3" bw="1" slack="0"/>
<pin id="138" dir="1" index="4" bw="73" slack="0"/>
</pin_list>
<bind>
<opcode="read(1150) " fcode="read"/>
<opset="empty/1 "/>
</bind>
</comp>

<comp id="143" class="1004" name="write_ln64_write_fu_143">
<pin_list>
<pin id="144" dir="0" index="0" bw="0" slack="0"/>
<pin id="145" dir="0" index="1" bw="64" slack="0"/>
<pin id="146" dir="0" index="2" bw="8" slack="0"/>
<pin id="147" dir="0" index="3" bw="1" slack="0"/>
<pin id="148" dir="0" index="4" bw="64" slack="0"/>
<pin id="149" dir="0" index="5" bw="8" slack="0"/>
<pin id="150" dir="0" index="6" bw="1" slack="0"/>
<pin id="151" dir="1" index="7" bw="0" slack="2147483647"/>
</pin_list>
<bind>
<opcode="write(1151) " fcode="write"/>
<opset="write_ln64/1 "/>
</bind>
</comp>

<comp id="156" class="1004" name="esac_fsmState_V_load_load_fu_156">
<pin_list>
<pin id="157" dir="0" index="0" bw="1" slack="0"/>
<pin id="158" dir="1" index="1" bw="1" slack="2147483647"/>
</pin_list>
<bind>
<opcode="load(27) " fcode="load"/>
<opset="esac_fsmState_V_load/1 "/>
</bind>
</comp>

<comp id="160" class="1004" name="tmp1_fu_160">
<pin_list>
<pin id="161" dir="0" index="0" bw="32" slack="0"/>
<pin id="162" dir="0" index="1" bw="16" slack="0"/>
<pin id="163" dir="0" index="2" bw="16" slack="0"/>
<pin id="164" dir="1" index="3" bw="32" slack="0"/>
</pin_list>
<bind>
<opcode="bitconcatenate(1004) " fcode="bitconcatenate"/>
<opset="tmp1/1 "/>
</bind>
</comp>

<comp id="169" class="1004" name="store_ln57_store_fu_169">
<pin_list>
<pin id="170" dir="0" index="0" bw="1" slack="0"/>
<pin id="171" dir="0" index="1" bw="1" slack="0"/>
<pin id="172" dir="1" index="2" bw="0" slack="2147483647"/>
</pin_list>
<bind>
<opcode="store(28) " fcode="store"/>
<opset="store_ln57/1 "/>
</bind>
</comp>

<comp id="175" class="1004" name="tmp_data_V_fu_175">
<pin_list>
<pin id="176" dir="0" index="0" bw="73" slack="0"/>
<pin id="177" dir="1" index="1" bw="64" slack="0"/>
</pin_list>
<bind>
<opcode="extractvalue(56) " fcode="extractvalue"/>
<opset="tmp_data_V/1 "/>
</bind>
</comp>

<comp id="180" class="1004" name="tmp_keep_V_fu_180">
<pin_list>
<pin id="181" dir="0" index="0" bw="73" slack="0"/>
<pin id="182" dir="1" index="1" bw="8" slack="0"/>
</pin_list>
<bind>
<opcode="extractvalue(56) " fcode="extractvalue"/>
<opset="tmp_keep_V/1 "/>
</bind>
</comp>

<comp id="185" class="1004" name="tmp_last_V_fu_185">
<pin_list>
<pin id="186" dir="0" index="0" bw="73" slack="0"/>
<pin id="187" dir="1" index="1" bw="1" slack="0"/>
</pin_list>
<bind>
<opcode="extractvalue(56) " fcode="extractvalue"/>
<opset="tmp_last_V/1 "/>
</bind>
</comp>

<comp id="190" class="1004" name="store_ln67_store_fu_190">
<pin_list>
<pin id="191" dir="0" index="0" bw="1" slack="0"/>
<pin id="192" dir="0" index="1" bw="1" slack="0"/>
<pin id="193" dir="1" index="2" bw="0" slack="2147483647"/>
</pin_list>
<bind>
<opcode="store(28) " fcode="store"/>
<opset="store_ln67/1 "/>
</bind>
</comp>

</comp_list>

<net_list>
<net id="71"><net_src comp="44" pin="0"/><net_sink comp="66" pin=0"/></net>

<net id="72"><net_src comp="10" pin="0"/><net_sink comp="66" pin=1"/></net>

<net id="73"><net_src comp="34" pin="0"/><net_sink comp="66" pin=2"/></net>

<net id="79"><net_src comp="44" pin="0"/><net_sink comp="74" pin=0"/></net>

<net id="80"><net_src comp="12" pin="0"/><net_sink comp="74" pin=1"/></net>

<net id="81"><net_src comp="34" pin="0"/><net_sink comp="74" pin=2"/></net>

<net id="87"><net_src comp="46" pin="0"/><net_sink comp="82" pin=0"/></net>

<net id="88"><net_src comp="0" pin="0"/><net_sink comp="82" pin=1"/></net>

<net id="89"><net_src comp="34" pin="0"/><net_sink comp="82" pin=2"/></net>

<net id="94"><net_src comp="48" pin="0"/><net_sink comp="90" pin=0"/></net>

<net id="95"><net_src comp="10" pin="0"/><net_sink comp="90" pin=1"/></net>

<net id="100"><net_src comp="48" pin="0"/><net_sink comp="96" pin=0"/></net>

<net id="101"><net_src comp="12" pin="0"/><net_sink comp="96" pin=1"/></net>

<net id="107"><net_src comp="52" pin="0"/><net_sink comp="102" pin=0"/></net>

<net id="108"><net_src comp="0" pin="0"/><net_sink comp="102" pin=1"/></net>

<net id="116"><net_src comp="56" pin="0"/><net_sink comp="109" pin=0"/></net>

<net id="117"><net_src comp="14" pin="0"/><net_sink comp="109" pin=1"/></net>

<net id="118"><net_src comp="16" pin="0"/><net_sink comp="109" pin=2"/></net>

<net id="119"><net_src comp="18" pin="0"/><net_sink comp="109" pin=3"/></net>

<net id="120"><net_src comp="34" pin="0"/><net_sink comp="109" pin=4"/></net>

<net id="128"><net_src comp="58" pin="0"/><net_sink comp="121" pin=0"/></net>

<net id="129"><net_src comp="2" pin="0"/><net_sink comp="121" pin=1"/></net>

<net id="130"><net_src comp="4" pin="0"/><net_sink comp="121" pin=2"/></net>

<net id="131"><net_src comp="6" pin="0"/><net_sink comp="121" pin=3"/></net>

<net id="132"><net_src comp="34" pin="0"/><net_sink comp="121" pin=4"/></net>

<net id="139"><net_src comp="60" pin="0"/><net_sink comp="133" pin=0"/></net>

<net id="140"><net_src comp="14" pin="0"/><net_sink comp="133" pin=1"/></net>

<net id="141"><net_src comp="16" pin="0"/><net_sink comp="133" pin=2"/></net>

<net id="142"><net_src comp="18" pin="0"/><net_sink comp="133" pin=3"/></net>

<net id="152"><net_src comp="62" pin="0"/><net_sink comp="143" pin=0"/></net>

<net id="153"><net_src comp="2" pin="0"/><net_sink comp="143" pin=1"/></net>

<net id="154"><net_src comp="4" pin="0"/><net_sink comp="143" pin=2"/></net>

<net id="155"><net_src comp="6" pin="0"/><net_sink comp="143" pin=3"/></net>

<net id="159"><net_src comp="8" pin="0"/><net_sink comp="156" pin=0"/></net>

<net id="165"><net_src comp="50" pin="0"/><net_sink comp="160" pin=0"/></net>

<net id="166"><net_src comp="96" pin="2"/><net_sink comp="160" pin=1"/></net>

<net id="167"><net_src comp="90" pin="2"/><net_sink comp="160" pin=2"/></net>

<net id="168"><net_src comp="160" pin="3"/><net_sink comp="102" pin=2"/></net>

<net id="173"><net_src comp="54" pin="0"/><net_sink comp="169" pin=0"/></net>

<net id="174"><net_src comp="8" pin="0"/><net_sink comp="169" pin=1"/></net>

<net id="178"><net_src comp="133" pin="4"/><net_sink comp="175" pin=0"/></net>

<net id="179"><net_src comp="175" pin="1"/><net_sink comp="143" pin=4"/></net>

<net id="183"><net_src comp="133" pin="4"/><net_sink comp="180" pin=0"/></net>

<net id="184"><net_src comp="180" pin="1"/><net_sink comp="143" pin=5"/></net>

<net id="188"><net_src comp="133" pin="4"/><net_sink comp="185" pin=0"/></net>

<net id="189"><net_src comp="185" pin="1"/><net_sink comp="143" pin=6"/></net>

<net id="194"><net_src comp="64" pin="0"/><net_sink comp="190" pin=0"/></net>

<net id="195"><net_src comp="8" pin="0"/><net_sink comp="190" pin=1"/></net>

</net_list>

</model> 
---------------- Datapath Model END ------------------

* FSMD analyzer results:
  - Output states:
	Port: txMetaData_V | {1 }
	Port: txData_V_data_V | {1 }
	Port: txData_V_keep_V | {1 }
	Port: txData_V_last_V | {1 }
	Port: esac_fsmState_V | {1 }
 - Input state : 
	Port: client : esac_fsmState_V | {1 }
	Port: client : esa_sessionidFifo_V_s | {1 }
	Port: client : esa_lengthFifo_V_V | {1 }
	Port: client : esa_dataFifo_V_data_s | {1 }
	Port: client : esa_dataFifo_V_keep_s | {1 }
	Port: client : esa_dataFifo_V_last_s | {1 }
  - Chain level:
	State 1
		br_ln49 : 1
		write_ln56 : 1
		write_ln64 : 1
		br_ln65 : 1


============================================================
+ Verbose Summary: Datapath Resource usage 
============================================================

* Functional unit list:
|----------|-------------------------|
| Operation|     Functional Unit     |
|----------|-------------------------|
|          |  tmp_4_nbreadreq_fu_66  |
| nbreadreq|  tmp_6_nbreadreq_fu_74  |
|          |   tmp_nbreadreq_fu_109  |
|----------|-------------------------|
|nbwritereq|  tmp_7_nbwritereq_fu_82 |
|          | tmp_5_nbwritereq_fu_121 |
|----------|-------------------------|
|          |     tmp_V_read_fu_90    |
|   read   |    tmp_V_1_read_fu_96   |
|          |    empty_read_fu_133    |
|----------|-------------------------|
|   write  | write_ln56_write_fu_102 |
|          | write_ln64_write_fu_143 |
|----------|-------------------------|
|bitconcatenate|       tmp1_fu_160       |
|----------|-------------------------|
|          |    tmp_data_V_fu_175    |
|extractvalue|    tmp_keep_V_fu_180    |
|          |    tmp_last_V_fu_185    |
|----------|-------------------------|
|   Total  |                         |
|----------|-------------------------|

Memories:
N/A

* Register list:
N/A

* Multiplexer (MUX) list: 
|--------|------|------|------|--------|
|  Comp  |  Pin | Size |  BW  | S x BW |
|--------|------|------|------|--------|
|  Total |      |      |      |    0   |
|--------|------|------|------|--------|



* Summary:
+-----------+
|           |
+-----------+
|  Function |
|   Memory  |
|Multiplexer|
|  Register |
+-----------+
|   Total   |
+-----------+
