

================================================================
== Vivado HLS Report for 'notification_handler'
================================================================
* Date:           Sat Dec 12 19:22:16 2020

* Version:        2019.2.1 (Build 2724168 on Thu Dec 05 05:19:09 MST 2019)
* Project:        echo_server_application_prj
* Solution:       solution1
* Product family: zynq
* Target device:  xc7z020-clg400-1


================================================================
== Performance Estimates
================================================================
+ Timing: 
    * Summary: 
    +--------+---------+----------+------------+
    |  Clock |  Target | Estimated| Uncertainty|
    +--------+---------+----------+------------+
    |ap_clk  | 6.40 ns | 2.800 ns |   0.80 ns  |
    +--------+---------+----------+------------+

+ Latency: 
    * Summary: 
    +---------+---------+-----------+-----------+-----+-----+----------+
    |  Latency (cycles) |   Latency (absolute)  |  Interval | Pipeline |
    |   min   |   max   |    min    |    max    | min | max |   Type   |
    +---------+---------+-----------+-----------+-----+-----+----------+
    |        2|        2| 12.800 ns | 12.800 ns |    1|    1| function |
    +---------+---------+-----------+-----------+-----+-----+----------+

    + Detail: 
        * Instance: 
        N/A

        * Loop: 
        N/A



================================================================
== Utilization Estimates
================================================================
* Summary: 
+-----------------+---------+-------+--------+-------+-----+
|       Name      | BRAM_18K| DSP48E|   FF   |  LUT  | URAM|
+-----------------+---------+-------+--------+-------+-----+
|DSP              |        -|      -|       -|      -|    -|
|Expression       |        -|      -|       0|     33|    -|
|FIFO             |        -|      -|       -|      -|    -|
|Instance         |        -|      -|       -|      -|    -|
|Memory           |        -|      -|       -|      -|    -|
|Multiplexer      |        -|      -|       -|     36|    -|
|Register         |        -|      -|      56|      -|    -|
+-----------------+---------+-------+--------+-------+-----+
|Total            |        0|      0|      56|     69|    0|
+-----------------+---------+-------+--------+-------+-----+
|Available        |      280|    220|  106400|  53200|    0|
+-----------------+---------+-------+--------+-------+-----+
|Utilization (%)  |        0|      0|   ~0   |   ~0  |    0|
+-----------------+---------+-------+--------+-------+-----+

+ Detail: 
    * Instance: 
    N/A

    * DSP48E: 
    N/A

    * Memory: 
    N/A

    * FIFO: 
    N/A

    * Expression: 
    +----------------------------------+----------+-------+---+----+------------+------------+
    |           Variable Name          | Operation| DSP48E| FF| LUT| Bitwidth P0| Bitwidth P1|
    +----------------------------------+----------+-------+---+----+------------+------------+
    |ap_block_state2_io                |    and   |      0|  0|   2|           1|           1|
    |ap_block_state2_pp0_stage0_iter1  |    and   |      0|  0|   2|           1|           1|
    |ap_block_state3_io                |    and   |      0|  0|   2|           1|           1|
    |ap_predicate_op11_write_state2    |    and   |      0|  0|   2|           1|           1|
    |ap_predicate_op17_write_state3    |    and   |      0|  0|   2|           1|           1|
    |tmp_nbreadreq_fu_44_p3            |    and   |      0|  0|   2|           1|           0|
    |icmp_ln883_fu_82_p2               |   icmp   |      0|  0|  13|          16|           1|
    |ap_block_pp0_stage0_01001         |    or    |      0|  0|   2|           1|           1|
    |ap_block_pp0_stage0_11001         |    or    |      0|  0|   2|           1|           1|
    |ap_block_state1_pp0_stage0_iter0  |    or    |      0|  0|   2|           1|           1|
    |ap_enable_pp0                     |    xor   |      0|  0|   2|           1|           2|
    +----------------------------------+----------+-------+---+----+------------+------------+
    |Total                             |          |      0|  0|  33|          26|          11|
    +----------------------------------+----------+-------+---+----+------------+------------+

    * Multiplexer: 
    +--------------------------+----+-----------+-----+-----------+
    |           Name           | LUT| Input Size| Bits| Total Bits|
    +--------------------------+----+-----------+-----+-----------+
    |ap_done                   |   9|          2|    1|          2|
    |esa_lengthFifo_V_V_blk_n  |   9|          2|    1|          2|
    |notific_V_TDATA_blk_n     |   9|          2|    1|          2|
    |readReq_V_TDATA_blk_n     |   9|          2|    1|          2|
    +--------------------------+----+-----------+-----+-----------+
    |Total                     |  36|          8|    4|          8|
    +--------------------------+----+-----------+-----+-----------+

    * Register: 
    +----------------------------------+----+----+-----+-----------+
    |               Name               | FF | LUT| Bits| Const Bits|
    +----------------------------------+----+----+-----+-----------+
    |ap_CS_fsm                         |   1|   0|    1|          0|
    |ap_done_reg                       |   1|   0|    1|          0|
    |ap_enable_reg_pp0_iter1           |   1|   0|    1|          0|
    |ap_enable_reg_pp0_iter2           |   1|   0|    1|          0|
    |icmp_ln883_reg_101                |   1|   0|    1|          0|
    |icmp_ln883_reg_101_pp0_iter1_reg  |   1|   0|    1|          0|
    |tmp_1_reg_105                     |  32|   0|   32|          0|
    |tmp_length_V_reg_96               |  16|   0|   16|          0|
    |tmp_reg_92                        |   1|   0|    1|          0|
    |tmp_reg_92_pp0_iter1_reg          |   1|   0|    1|          0|
    +----------------------------------+----+----+-----+-----------+
    |Total                             |  56|   0|   56|          0|
    +----------------------------------+----+----+-----+-----------+



================================================================
== Interface
================================================================
* Summary: 
+---------------------------+-----+-----+------------+----------------------+--------------+
|         RTL Ports         | Dir | Bits|  Protocol  |     Source Object    |    C Type    |
+---------------------------+-----+-----+------------+----------------------+--------------+
|ap_clk                     |  in |    1| ap_ctrl_hs | notification_handler | return value |
|ap_rst                     |  in |    1| ap_ctrl_hs | notification_handler | return value |
|ap_start                   |  in |    1| ap_ctrl_hs | notification_handler | return value |
|ap_done                    | out |    1| ap_ctrl_hs | notification_handler | return value |
|ap_continue                |  in |    1| ap_ctrl_hs | notification_handler | return value |
|ap_idle                    | out |    1| ap_ctrl_hs | notification_handler | return value |
|ap_ready                   | out |    1| ap_ctrl_hs | notification_handler | return value |
|notific_V_TVALID           |  in |    1|    axis    |       notific_V      |    pointer   |
|notific_V_TDATA            |  in |   88|    axis    |       notific_V      |    pointer   |
|notific_V_TREADY           | out |    1|    axis    |       notific_V      |    pointer   |
|esa_lengthFifo_V_V_din     | out |   16|   ap_fifo  |  esa_lengthFifo_V_V  |    pointer   |
|esa_lengthFifo_V_V_full_n  |  in |    1|   ap_fifo  |  esa_lengthFifo_V_V  |    pointer   |
|esa_lengthFifo_V_V_write   | out |    1|   ap_fifo  |  esa_lengthFifo_V_V  |    pointer   |
|readReq_V_TREADY           |  in |    1|    axis    |       readReq_V      |    pointer   |
|readReq_V_TDATA            | out |   32|    axis    |       readReq_V      |    pointer   |
|readReq_V_TVALID           | out |    1|    axis    |       readReq_V      |    pointer   |
+---------------------------+-----+-----+------------+----------------------+--------------+

============================================================
+ Verbose Summary: Synthesis Manager
============================================================
InlineROM: 1
ExposeGlobal: 0
============================================================
+ Verbose Summary: CDFG Model
============================================================
IsTopModel: 0
ResetActiveHigh: 1
IsCombinational: 2
IsDatapathOnly: 0
HasWiredReturn: 1
HasMFsm: 2
HasVarLatency: 0
IsPipeline: 1
IsRtlPipelined: 1
IsInstanceOverlapped: 0
IsDontTouch: 0
HasImplIP: 0
IsGatedGlobalClock: 0

+ Individual pipeline summary: 
  * Pipeline-0: initiation interval (II) = 1, depth = 3


============================================================
+ Verbose Summary: Schedule
============================================================
* Number of FSM states : 3
* Pipeline : 1
  Pipeline-0 : II = 1, D = 3, States = { 1 2 3 }
* Dataflow Pipeline: 0

* FSM state transitions: 
1 --> 2 
2 --> 3 
3 --> 

* FSM state operations: 

State 1 <SV = 0> <Delay = 2.42>
ST_1 : Operation 4 [1/1] (0.00ns)   --->   "%tmp = call i1 @_ssdm_op_NbReadReq.axis.i88P(i88* %notific_V, i32 1)" [/home/paulrr2/Projects/ece527/babelsoc/fpga-network-stack/hls/echo_server_application/echo_server_application.cpp:154]   --->   Operation 4 'nbreadreq' 'tmp' <Predicate = true> <Delay = 0.00> <Core = "AXI4Stream">   --->   Core 5 'AXI4Stream' <Latency = 0> <II = 1> <Delay = 1.00> <Adapter> <Opcode : >
ST_1 : Operation 5 [1/1] (0.00ns)   --->   "br i1 %tmp, label %0, label %notification_handler.exit" [/home/paulrr2/Projects/ece527/babelsoc/fpga-network-stack/hls/echo_server_application/echo_server_application.cpp:154]   --->   Operation 5 'br' <Predicate = true> <Delay = 0.00>
ST_1 : Operation 6 [1/1] (0.00ns)   --->   "%notific_V_read = call i88 @_ssdm_op_Read.axis.volatile.i88P(i88* %notific_V)" [/home/paulrr2/Projects/ece527/babelsoc/fpga-network-stack/hls/echo_server_application/echo_server_application.cpp:156]   --->   Operation 6 'read' 'notific_V_read' <Predicate = (tmp)> <Delay = 0.00> <Core = "AXI4Stream">   --->   Core 5 'AXI4Stream' <Latency = 0> <II = 1> <Delay = 1.00> <Adapter> <Opcode : >
ST_1 : Operation 7 [1/1] (0.00ns)   --->   "%tmp_length_V = call i16 @_ssdm_op_PartSelect.i16.i88.i32.i32(i88 %notific_V_read, i32 16, i32 31)" [/home/paulrr2/Projects/ece527/babelsoc/fpga-network-stack/hls/echo_server_application/../toe/toe.hpp:96->/home/paulrr2/Projects/ece527/babelsoc/fpga-network-stack/hls/echo_server_application/echo_server_application.cpp:156]   --->   Operation 7 'partselect' 'tmp_length_V' <Predicate = (tmp)> <Delay = 0.00>
ST_1 : Operation 8 [1/1] (2.42ns)   --->   "%icmp_ln883 = icmp eq i16 %tmp_length_V, 0" [/home/paulrr2/Projects/ece527/babelsoc/fpga-network-stack/hls/echo_server_application/echo_server_application.cpp:158]   --->   Operation 8 'icmp' 'icmp_ln883' <Predicate = (tmp)> <Delay = 2.42> <Core = "Cmp">   --->   Core 25 'Cmp' <Latency = 0> <II = 1> <Delay = 2.42> <FuncUnit> <Opcode : 'icmp'> <InPorts = 2> <OutPorts = 1>
ST_1 : Operation 9 [1/1] (0.00ns)   --->   "br i1 %icmp_ln883, label %._crit_edge1.i, label %1" [/home/paulrr2/Projects/ece527/babelsoc/fpga-network-stack/hls/echo_server_application/echo_server_application.cpp:158]   --->   Operation 9 'br' <Predicate = (tmp)> <Delay = 0.00>
ST_1 : Operation 10 [1/1] (0.00ns)   --->   "%tmp_1 = trunc i88 %notific_V_read to i32" [/home/paulrr2/Projects/ece527/babelsoc/fpga-network-stack/hls/echo_server_application/echo_server_application.cpp:160]   --->   Operation 10 'trunc' 'tmp_1' <Predicate = (tmp & !icmp_ln883)> <Delay = 0.00>

State 2 <SV = 1> <Delay = 2.80>
ST_2 : Operation 11 [2/2] (0.00ns)   --->   "call void @_ssdm_op_Write.axis.volatile.i32P(i32* %readReq_V, i32 %tmp_1)" [/home/paulrr2/Projects/ece527/babelsoc/fpga-network-stack/hls/echo_server_application/echo_server_application.cpp:160]   --->   Operation 11 'write' <Predicate = (tmp & !icmp_ln883)> <Delay = 0.00> <Core = "AXI4Stream">   --->   Core 5 'AXI4Stream' <Latency = 0> <II = 1> <Delay = 1.00> <Adapter> <Opcode : >
ST_2 : Operation 12 [1/1] (2.80ns)   --->   "call void @_ssdm_op_Write.ap_fifo.volatile.i16P(i16* @esa_lengthFifo_V_V, i16 %tmp_length_V)" [/home/paulrr2/Projects/ece527/babelsoc/fpga-network-stack/hls/echo_server_application/echo_server_application.cpp:161]   --->   Operation 12 'write' <Predicate = (tmp & !icmp_ln883)> <Delay = 2.80> <Core = "FIFO_SRL">   --->   Core 36 'FIFO_SRL' <Latency = 0> <II = 1> <Delay = 3.63> <Storage> <Opcode : 'read' 'write' 'nbread' 'nbwrite'> <Ports = 0> <Width = 16> <Depth = 0> <FIFO>

State 3 <SV = 2> <Delay = 0.00>
ST_3 : Operation 13 [1/1] (0.00ns)   --->   "call void (...)* @_ssdm_op_SpecInterface(i16* @esa_lengthFifo_V_V, [8 x i8]* @ap_fifo_str, i32 0, i32 0, [1 x i8]* @p_str, i32 0, i32 0, [1 x i8]* @p_str, [1 x i8]* @p_str, [1 x i8]* @p_str, i32 2, i32 2, i32 16, i32 16, [1 x i8]* @p_str, [1 x i8]* @p_str)"   --->   Operation 13 'specinterface' <Predicate = true> <Delay = 0.00>
ST_3 : Operation 14 [1/1] (0.00ns)   --->   "call void (...)* @_ssdm_op_SpecInterface(i32* %readReq_V, [5 x i8]* @p_str3, i32 1, i32 1, [5 x i8]* @p_str4, i32 0, i32 0, [1 x i8]* @p_str, [1 x i8]* @p_str, [1 x i8]* @p_str, i32 0, i32 0, i32 0, i32 0, [20 x i8]* @p_str8, [1 x i8]* @p_str) nounwind"   --->   Operation 14 'specinterface' <Predicate = true> <Delay = 0.00>
ST_3 : Operation 15 [1/1] (0.00ns)   --->   "call void (...)* @_ssdm_op_SpecInterface(i88* %notific_V, [5 x i8]* @p_str3, i32 1, i32 1, [5 x i8]* @p_str4, i32 0, i32 0, [1 x i8]* @p_str, [1 x i8]* @p_str, [1 x i8]* @p_str, i32 0, i32 0, i32 0, i32 0, [21 x i8]* @p_str7, [1 x i8]* @p_str)"   --->   Operation 15 'specinterface' <Predicate = true> <Delay = 0.00>
ST_3 : Operation 16 [1/1] (0.00ns)   --->   "call void (...)* @_ssdm_op_SpecPipeline(i32 1, i32 1, i32 1, i32 0, [1 x i8]* @p_str) nounwind" [/home/paulrr2/Projects/ece527/babelsoc/fpga-network-stack/hls/echo_server_application/echo_server_application.cpp:148]   --->   Operation 16 'specpipeline' <Predicate = true> <Delay = 0.00>
ST_3 : Operation 17 [1/2] (0.00ns)   --->   "call void @_ssdm_op_Write.axis.volatile.i32P(i32* %readReq_V, i32 %tmp_1)" [/home/paulrr2/Projects/ece527/babelsoc/fpga-network-stack/hls/echo_server_application/echo_server_application.cpp:160]   --->   Operation 17 'write' <Predicate = (tmp & !icmp_ln883)> <Delay = 0.00> <Core = "AXI4Stream">   --->   Core 5 'AXI4Stream' <Latency = 0> <II = 1> <Delay = 1.00> <Adapter> <Opcode : >
ST_3 : Operation 18 [1/1] (0.00ns)   --->   "br label %._crit_edge1.i" [/home/paulrr2/Projects/ece527/babelsoc/fpga-network-stack/hls/echo_server_application/echo_server_application.cpp:162]   --->   Operation 18 'br' <Predicate = (tmp & !icmp_ln883)> <Delay = 0.00>
ST_3 : Operation 19 [1/1] (0.00ns)   --->   "br label %notification_handler.exit" [/home/paulrr2/Projects/ece527/babelsoc/fpga-network-stack/hls/echo_server_application/echo_server_application.cpp:163]   --->   Operation 19 'br' <Predicate = (tmp)> <Delay = 0.00>
ST_3 : Operation 20 [1/1] (0.00ns)   --->   "ret void"   --->   Operation 20 'ret' <Predicate = true> <Delay = 0.00>


============================================================
+ Verbose Summary: Binding
============================================================
STG Binding: 
---------------- STG Properties BEGIN ----------------
- Is combinational: 0
- Is one-state seq: 0
- Is datapath-only: 0
- Is pipelined: 1
- Is top level: 0
Port [ Return ] is wired: 1; IO mode=ap_ctrl_hs:ce=0
Port [ notific_V]:  wired=1; compound=1; hidden=0; nouse=0; global=0; static=0; extern=0; dir=0; type=0; pingpong=0; private_global=0; IO mode=axis:ce=0
Port [ readReq_V]:  wired=1; compound=1; hidden=0; nouse=0; global=0; static=0; extern=0; dir=1; type=0; pingpong=0; private_global=0; IO mode=axis:ce=0
Port [ esa_lengthFifo_V_V]:  wired=1; compound=1; hidden=0; nouse=0; global=1; static=1; extern=0; dir=1; type=3; pingpong=0; private_global=0; linkage=7; visibility=0; IO mode=ap_fifo:ce=0
---------------- STG Properties END ------------------

---------------- Datapath Model BEGIN ----------------

<LifeTime>
<method=bitvector/>
tmp                (nbreadreq    ) [ 0111]
br_ln154           (br           ) [ 0000]
notific_V_read     (read         ) [ 0000]
tmp_length_V       (partselect   ) [ 0110]
icmp_ln883         (icmp         ) [ 0111]
br_ln158           (br           ) [ 0000]
tmp_1              (trunc        ) [ 0111]
write_ln161        (write        ) [ 0000]
specinterface_ln0  (specinterface) [ 0000]
specinterface_ln0  (specinterface) [ 0000]
specinterface_ln0  (specinterface) [ 0000]
specpipeline_ln148 (specpipeline ) [ 0000]
write_ln160        (write        ) [ 0000]
br_ln162           (br           ) [ 0000]
br_ln163           (br           ) [ 0000]
ret_ln0            (ret          ) [ 0000]
</LifeTime>

<model>

<comp_list>
<comp id="0" class="1000" name="notific_V">
<pin_list>
<pin id="1" dir="1" index="0" bw="1" slack="0"/>
</pin_list>
<bind>
<StgValue><ssdm name="notific_V"/></StgValue>
</bind>
</comp>

<comp id="2" class="1000" name="readReq_V">
<pin_list>
<pin id="3" dir="1" index="0" bw="1" slack="0"/>
</pin_list>
<bind>
<StgValue><ssdm name="readReq_V"/></StgValue>
</bind>
</comp>

<comp id="4" class="1000" name="esa_lengthFifo_V_V">
<pin_list>
<pin id="5" dir="1" index="0" bw="1" slack="0"/>
</pin_list>
<bind>
<StgValue><ssdm name="esa_lengthFifo_V_V"/></StgValue>
</bind>
</comp>

<comp id="6" class="1001" name="const_6">
<pin_list>
<pin id="7" dir="1" index="0" bw="1" slack="0"/>
</pin_list>
<bind>
<StgValue><ssdm name="_ssdm_op_NbReadReq.axis.i88P"/></StgValue>
</bind>
</comp>

<comp id="8" class="1001" name="const_8">
<pin_list>
<pin id="9" dir="1" index="0" bw="1" slack="0"/>
</pin_list>
<bind>
<StgValue><ssdm name=""/></StgValue>
</bind>
</comp>

<comp id="10" class="1001" name="const_10">
<pin_list>
<pin id="11" dir="1" index="0" bw="1" slack="0"/>
</pin_list>
<bind>
<StgValue><ssdm name="_ssdm_op_Read.axis.volatile.i88P"/></StgValue>
</bind>
</comp>

<comp id="12" class="1001" name="const_12">
<pin_list>
<pin id="13" dir="1" index="0" bw="1" slack="0"/>
</pin_list>
<bind>
<StgValue><ssdm name="_ssdm_op_PartSelect.i16.i88.i32.i32"/></StgValue>
</bind>
</comp>

<comp id="14" class="1001" name="const_14">
<pin_list>
<pin id="15" dir="1" index="0" bw="1" slack="0"/>
</pin_list>
<bind>
<StgValue><ssdm name=""/></StgValue>
</bind>
</comp>

<comp id="16" class="1001" name="const_16">
<pin_list>
<pin id="17" dir="1" index="0" bw="1" slack="0"/>
</pin_list>
<bind>
<StgValue><ssdm name=""/></StgValue>
</bind>
</comp>

<comp id="18" class="1001" name="const_18">
<pin_list>
<pin id="19" dir="1" index="0" bw="1" slack="0"/>
</pin_list>
<bind>
<StgValue><ssdm name=""/></StgValue>
</bind>
</comp>

<comp id="20" class="1001" name="const_20">
<pin_list>
<pin id="21" dir="1" index="0" bw="1" slack="0"/>
</pin_list>
<bind>
<StgValue><ssdm name="_ssdm_op_Write.axis.volatile.i32P"/></StgValue>
</bind>
</comp>

<comp id="22" class="1001" name="const_22">
<pin_list>
<pin id="23" dir="1" index="0" bw="1" slack="0"/>
</pin_list>
<bind>
<StgValue><ssdm name="_ssdm_op_Write.ap_fifo.volatile.i16P"/></StgValue>
</bind>
</comp>

<comp id="24" class="1001" name="const_24">
<pin_list>
<pin id="25" dir="1" index="0" bw="1" slack="2147483647"/>
</pin_list>
<bind>
<StgValue><ssdm name="_ssdm_op_SpecInterface"/></StgValue>
</bind>
</comp>

<comp id="26" class="1001" name="const_26">
<pin_list>
<pin id="27" dir="1" index="0" bw="1" slack="2147483647"/>
</pin_list>
<bind>
<StgValue><ssdm name="ap_fifo_str"/></StgValue>
</bind>
</comp>

<comp id="28" class="1001" name="const_28">
<pin_list>
<pin id="29" dir="1" index="0" bw="1" slack="2147483647"/>
</pin_list>
<bind>
<StgValue><ssdm name=""/></StgValue>
</bind>
</comp>

<comp id="30" class="1001" name="const_30">
<pin_list>
<pin id="31" dir="1" index="0" bw="1" slack="2147483647"/>
</pin_list>
<bind>
<StgValue><ssdm name="p_str"/></StgValue>
</bind>
</comp>

<comp id="32" class="1001" name="const_32">
<pin_list>
<pin id="33" dir="1" index="0" bw="1" slack="2147483647"/>
</pin_list>
<bind>
<StgValue><ssdm name=""/></StgValue>
</bind>
</comp>

<comp id="34" class="1001" name="const_34">
<pin_list>
<pin id="35" dir="1" index="0" bw="1" slack="2147483647"/>
</pin_list>
<bind>
<StgValue><ssdm name="p_str3"/></StgValue>
</bind>
</comp>

<comp id="36" class="1001" name="const_36">
<pin_list>
<pin id="37" dir="1" index="0" bw="1" slack="2147483647"/>
</pin_list>
<bind>
<StgValue><ssdm name="p_str4"/></StgValue>
</bind>
</comp>

<comp id="38" class="1001" name="const_38">
<pin_list>
<pin id="39" dir="1" index="0" bw="1" slack="2147483647"/>
</pin_list>
<bind>
<StgValue><ssdm name="p_str8"/></StgValue>
</bind>
</comp>

<comp id="40" class="1001" name="const_40">
<pin_list>
<pin id="41" dir="1" index="0" bw="1" slack="2147483647"/>
</pin_list>
<bind>
<StgValue><ssdm name="p_str7"/></StgValue>
</bind>
</comp>

<comp id="42" class="1001" name="const_42">
<pin_list>
<pin id="43" dir="1" index="0" bw="1" slack="2147483647"/>
</pin_list>
<bind>
<StgValue><ssdm name="_ssdm_op_SpecPipeline"/></StgValue>
</bind>
</comp>

<comp id="44" class="1004" name="tmp_nbreadreq_fu_44">
<pin_list>
<pin id="45" dir="0" index="0" bw="1" slack="0"/>
<pin id="46" dir="0" index="1" bw="88" slack="0"/>
<pin id="47" dir="0" index="2" bw="1" slack="0"/>
<pin id="48" dir="1" index="3" bw="1" slack="1"/>
</pin_list>
<bind>
<opcode="nbreadreq(1156) " fcode="nbreadreq"/>
<opset="tmp/1 "/>
</bind>
</comp>

<comp id="52" class="1004" name="notific_V_read_read_fu_52">
<pin_list>
<pin id="53" dir="0" index="0" bw="88" slack="0"/>
<pin id="54" dir="0" index="1" bw="88" slack="0"/>
<pin id="55" dir="1" index="2" bw="88" slack="0"/>
</pin_list>
<bind>
<opcode="read(1150) " fcode="read"/>
<opset="notific_V_read/1 "/>
</bind>
</comp>

<comp id="58" class="1004" name="grp_write_fu_58">
<pin_list>
<pin id="59" dir="0" index="0" bw="0" slack="0"/>
<pin id="60" dir="0" index="1" bw="32" slack="0"/>
<pin id="61" dir="0" index="2" bw="32" slack="1"/>
<pin id="62" dir="1" index="3" bw="0" slack="2147483647"/>
</pin_list>
<bind>
<opcode="write(1151) " fcode="write"/>
<opset="write_ln160/2 "/>
</bind>
</comp>

<comp id="65" class="1004" name="write_ln161_write_fu_65">
<pin_list>
<pin id="66" dir="0" index="0" bw="0" slack="0"/>
<pin id="67" dir="0" index="1" bw="16" slack="0"/>
<pin id="68" dir="0" index="2" bw="16" slack="1"/>
<pin id="69" dir="1" index="3" bw="0" slack="2147483647"/>
</pin_list>
<bind>
<opcode="write(1151) " fcode="write"/>
<opset="write_ln161/2 "/>
</bind>
</comp>

<comp id="72" class="1004" name="tmp_length_V_fu_72">
<pin_list>
<pin id="73" dir="0" index="0" bw="16" slack="0"/>
<pin id="74" dir="0" index="1" bw="88" slack="0"/>
<pin id="75" dir="0" index="2" bw="6" slack="0"/>
<pin id="76" dir="0" index="3" bw="6" slack="0"/>
<pin id="77" dir="1" index="4" bw="16" slack="0"/>
</pin_list>
<bind>
<opcode="partselect(1002) " fcode="partselect"/>
<opset="tmp_length_V/1 "/>
</bind>
</comp>

<comp id="82" class="1004" name="icmp_ln883_fu_82">
<pin_list>
<pin id="83" dir="0" index="0" bw="16" slack="0"/>
<pin id="84" dir="0" index="1" bw="16" slack="0"/>
<pin id="85" dir="1" index="2" bw="1" slack="1"/>
</pin_list>
<bind>
<opcode="icmp(45) " fcode="icmp"/>
<opset="icmp_ln883/1 "/>
</bind>
</comp>

<comp id="88" class="1004" name="tmp_1_fu_88">
<pin_list>
<pin id="89" dir="0" index="0" bw="88" slack="0"/>
<pin id="90" dir="1" index="1" bw="32" slack="1"/>
</pin_list>
<bind>
<opcode="trunc(33) " fcode="trunc"/>
<opset="tmp_1/1 "/>
</bind>
</comp>

<comp id="92" class="1005" name="tmp_reg_92">
<pin_list>
<pin id="93" dir="0" index="0" bw="1" slack="1"/>
<pin id="94" dir="1" index="1" bw="1" slack="2147483647"/>
</pin_list>
<bind>
<opset="tmp "/>
</bind>
</comp>

<comp id="96" class="1005" name="tmp_length_V_reg_96">
<pin_list>
<pin id="97" dir="0" index="0" bw="16" slack="1"/>
<pin id="98" dir="1" index="1" bw="16" slack="1"/>
</pin_list>
<bind>
<opset="tmp_length_V "/>
</bind>
</comp>

<comp id="101" class="1005" name="icmp_ln883_reg_101">
<pin_list>
<pin id="102" dir="0" index="0" bw="1" slack="1"/>
<pin id="103" dir="1" index="1" bw="1" slack="2147483647"/>
</pin_list>
<bind>
<opset="icmp_ln883 "/>
</bind>
</comp>

<comp id="105" class="1005" name="tmp_1_reg_105">
<pin_list>
<pin id="106" dir="0" index="0" bw="32" slack="1"/>
<pin id="107" dir="1" index="1" bw="32" slack="1"/>
</pin_list>
<bind>
<opset="tmp_1 "/>
</bind>
</comp>

</comp_list>

<net_list>
<net id="49"><net_src comp="6" pin="0"/><net_sink comp="44" pin=0"/></net>

<net id="50"><net_src comp="0" pin="0"/><net_sink comp="44" pin=1"/></net>

<net id="51"><net_src comp="8" pin="0"/><net_sink comp="44" pin=2"/></net>

<net id="56"><net_src comp="10" pin="0"/><net_sink comp="52" pin=0"/></net>

<net id="57"><net_src comp="0" pin="0"/><net_sink comp="52" pin=1"/></net>

<net id="63"><net_src comp="20" pin="0"/><net_sink comp="58" pin=0"/></net>

<net id="64"><net_src comp="2" pin="0"/><net_sink comp="58" pin=1"/></net>

<net id="70"><net_src comp="22" pin="0"/><net_sink comp="65" pin=0"/></net>

<net id="71"><net_src comp="4" pin="0"/><net_sink comp="65" pin=1"/></net>

<net id="78"><net_src comp="12" pin="0"/><net_sink comp="72" pin=0"/></net>

<net id="79"><net_src comp="52" pin="2"/><net_sink comp="72" pin=1"/></net>

<net id="80"><net_src comp="14" pin="0"/><net_sink comp="72" pin=2"/></net>

<net id="81"><net_src comp="16" pin="0"/><net_sink comp="72" pin=3"/></net>

<net id="86"><net_src comp="72" pin="4"/><net_sink comp="82" pin=0"/></net>

<net id="87"><net_src comp="18" pin="0"/><net_sink comp="82" pin=1"/></net>

<net id="91"><net_src comp="52" pin="2"/><net_sink comp="88" pin=0"/></net>

<net id="95"><net_src comp="44" pin="3"/><net_sink comp="92" pin=0"/></net>

<net id="99"><net_src comp="72" pin="4"/><net_sink comp="96" pin=0"/></net>

<net id="100"><net_src comp="96" pin="1"/><net_sink comp="65" pin=2"/></net>

<net id="104"><net_src comp="82" pin="2"/><net_sink comp="101" pin=0"/></net>

<net id="108"><net_src comp="88" pin="1"/><net_sink comp="105" pin=0"/></net>

<net id="109"><net_src comp="105" pin="1"/><net_sink comp="58" pin=2"/></net>

</net_list>

</model> 
---------------- Datapath Model END ------------------

* FSMD analyzer results:
  - Output states:
	Port: notific_V | {}
	Port: readReq_V | {3 }
	Port: esa_lengthFifo_V_V | {2 }
 - Input state : 
	Port: notification_handler : notific_V | {1 }
	Port: notification_handler : readReq_V | {}
	Port: notification_handler : esa_lengthFifo_V_V | {}
  - Chain level:
	State 1
		icmp_ln883 : 1
		br_ln158 : 2
	State 2
	State 3


============================================================
+ Verbose Summary: Datapath Resource usage 
============================================================

* Functional unit list:
|----------|---------------------------|---------|---------|
| Operation|      Functional Unit      |    FF   |   LUT   |
|----------|---------------------------|---------|---------|
|   icmp   |      icmp_ln883_fu_82     |    0    |    13   |
|----------|---------------------------|---------|---------|
| nbreadreq|    tmp_nbreadreq_fu_44    |    0    |    0    |
|----------|---------------------------|---------|---------|
|   read   | notific_V_read_read_fu_52 |    0    |    0    |
|----------|---------------------------|---------|---------|
|   write  |      grp_write_fu_58      |    0    |    0    |
|          |  write_ln161_write_fu_65  |    0    |    0    |
|----------|---------------------------|---------|---------|
|partselect|     tmp_length_V_fu_72    |    0    |    0    |
|----------|---------------------------|---------|---------|
|   trunc  |        tmp_1_fu_88        |    0    |    0    |
|----------|---------------------------|---------|---------|
|   Total  |                           |    0    |    13   |
|----------|---------------------------|---------|---------|

Memories:
N/A

* Register list:
+-------------------+--------+
|                   |   FF   |
+-------------------+--------+
| icmp_ln883_reg_101|    1   |
|   tmp_1_reg_105   |   32   |
|tmp_length_V_reg_96|   16   |
|     tmp_reg_92    |    1   |
+-------------------+--------+
|       Total       |   50   |
+-------------------+--------+

* Multiplexer (MUX) list: 
|--------|------|------|------|--------|
|  Comp  |  Pin | Size |  BW  | S x BW |
|--------|------|------|------|--------|
|  Total |      |      |      |    0   |
|--------|------|------|------|--------|



* Summary:
+-----------+--------+--------+
|           |   FF   |   LUT  |
+-----------+--------+--------+
|  Function |    0   |   13   |
|   Memory  |    -   |    -   |
|Multiplexer|    -   |    -   |
|  Register |   50   |    -   |
+-----------+--------+--------+
|   Total   |   50   |   13   |
+-----------+--------+--------+
