

================================================================
== Vivado HLS Report for 'open_port'
================================================================
* Date:           Sat Dec 12 19:22:16 2020

* Version:        2019.2.1 (Build 2724168 on Thu Dec 05 05:19:09 MST 2019)
* Project:        echo_server_application_prj
* Solution:       solution1
* Product family: zynq
* Target device:  xc7z020-clg400-1


================================================================
== Performance Estimates
================================================================
+ Timing: 
    * Summary: 
    +--------+---------+----------+------------+
    |  Clock |  Target | Estimated| Uncertainty|
    +--------+---------+----------+------------+
    |ap_clk  | 6.40 ns | 2.762 ns |   0.80 ns  |
    +--------+---------+----------+------------+

+ Latency: 
    * Summary: 
    +---------+---------+-----------+-----------+-----+-----+----------+
    |  Latency (cycles) |   Latency (absolute)  |  Interval | Pipeline |
    |   min   |   max   |    min    |    max    | min | max |   Type   |
    +---------+---------+-----------+-----------+-----+-----+----------+
    |        2|        2| 12.800 ns | 12.800 ns |    1|    1| function |
    +---------+---------+-----------+-----------+-----+-----+----------+

    + Detail: 
        * Instance: 
        N/A

        * Loop: 
        N/A



================================================================
== Utilization Estimates
================================================================
* Summary: 
+-----------------+---------+-------+--------+-------+-----+
|       Name      | BRAM_18K| DSP48E|   FF   |  LUT  | URAM|
+-----------------+---------+-------+--------+-------+-----+
|DSP              |        -|      -|       -|      -|    -|
|Expression       |        -|      -|       0|     21|    -|
|FIFO             |        -|      -|       -|      -|    -|
|Instance         |        -|      -|       -|      -|    -|
|Memory           |        -|      -|       -|      -|    -|
|Multiplexer      |        -|      -|       -|     36|    -|
|Register         |        -|      -|      10|      -|    -|
+-----------------+---------+-------+--------+-------+-----+
|Total            |        0|      0|      10|     57|    0|
+-----------------+---------+-------+--------+-------+-----+
|Available        |      280|    220|  106400|  53200|    0|
+-----------------+---------+-------+--------+-------+-----+
|Utilization (%)  |        0|      0|   ~0   |   ~0  |    0|
+-----------------+---------+-------+--------+-------+-----+

+ Detail: 
    * Instance: 
    N/A

    * DSP48E: 
    N/A

    * Memory: 
    N/A

    * FIFO: 
    N/A

    * Expression: 
    +----------------------------------+----------+-------+---+----+------------+------------+
    |           Variable Name          | Operation| DSP48E| FF| LUT| Bitwidth P0| Bitwidth P1|
    +----------------------------------+----------+-------+---+----+------------+------------+
    |ap_block_state2_io                |    and   |      0|  0|   2|           1|           1|
    |ap_block_state3_io                |    and   |      0|  0|   2|           1|           1|
    |ap_condition_82                   |    and   |      0|  0|   2|           1|           1|
    |ap_predicate_op8_read_state1      |    and   |      0|  0|   2|           1|           1|
    |tmp_nbreadreq_fu_40_p3            |    and   |      0|  0|   2|           1|           0|
    |ap_block_pp0_stage0_01001         |    or    |      0|  0|   2|           1|           1|
    |ap_block_pp0_stage0_11001         |    or    |      0|  0|   2|           1|           1|
    |ap_block_state1_pp0_stage0_iter0  |    or    |      0|  0|   2|           1|           1|
    |select_ln127_fu_70_p3             |  select  |      0|  0|   3|           1|           3|
    |ap_enable_pp0                     |    xor   |      0|  0|   2|           1|           2|
    +----------------------------------+----------+-------+---+----+------------+------------+
    |Total                             |          |      0|  0|  21|          10|          12|
    +----------------------------------+----------+-------+---+----+------------+------------+

    * Multiplexer: 
    +----------------------------+----+-----------+-----+-----------+
    |            Name            | LUT| Input Size| Bits| Total Bits|
    +----------------------------+----+-----------+-----+-----------+
    |ap_done                     |   9|          2|    1|          2|
    |listenPort_V_V_TDATA_blk_n  |   9|          2|    1|          2|
    |listenSts_V_TDATA_blk_n     |   9|          2|    1|          2|
    |state_V                     |   9|          2|    2|          4|
    +----------------------------+----+-----------+-----+-----------+
    |Total                       |  36|          8|    5|         10|
    +----------------------------+----+-----------+-----+-----------+

    * Register: 
    +-----------------------------------+---+----+-----+-----------+
    |                Name               | FF| LUT| Bits| Const Bits|
    +-----------------------------------+---+----+-----+-----------+
    |ap_CS_fsm                          |  1|   0|    1|          0|
    |ap_done_reg                        |  1|   0|    1|          0|
    |ap_enable_reg_pp0_iter1            |  1|   0|    1|          0|
    |ap_enable_reg_pp0_iter2            |  1|   0|    1|          0|
    |state_V                            |  2|   0|    2|          0|
    |state_V_load_reg_90                |  2|   0|    2|          0|
    |state_V_load_reg_90_pp0_iter1_reg  |  2|   0|    2|          0|
    +-----------------------------------+---+----+-----+-----------+
    |Total                              | 10|   0|   10|          0|
    +-----------------------------------+---+----+-----+-----------+



================================================================
== Interface
================================================================
* Summary: 
+-----------------------+-----+-----+------------+----------------+--------------+
|       RTL Ports       | Dir | Bits|  Protocol  |  Source Object |    C Type    |
+-----------------------+-----+-----+------------+----------------+--------------+
|ap_clk                 |  in |    1| ap_ctrl_hs |    open_port   | return value |
|ap_rst                 |  in |    1| ap_ctrl_hs |    open_port   | return value |
|ap_start               |  in |    1| ap_ctrl_hs |    open_port   | return value |
|ap_done                | out |    1| ap_ctrl_hs |    open_port   | return value |
|ap_continue            |  in |    1| ap_ctrl_hs |    open_port   | return value |
|ap_idle                | out |    1| ap_ctrl_hs |    open_port   | return value |
|ap_ready               | out |    1| ap_ctrl_hs |    open_port   | return value |
|listenSts_V_TVALID     |  in |    1|    axis    |   listenSts_V  |    pointer   |
|listenSts_V_TDATA      |  in |    8|    axis    |   listenSts_V  |    pointer   |
|listenSts_V_TREADY     | out |    1|    axis    |   listenSts_V  |    pointer   |
|listenPort_V_V_TREADY  |  in |    1|    axis    | listenPort_V_V |    pointer   |
|listenPort_V_V_TDATA   | out |   16|    axis    | listenPort_V_V |    pointer   |
|listenPort_V_V_TVALID  | out |    1|    axis    | listenPort_V_V |    pointer   |
+-----------------------+-----+-----+------------+----------------+--------------+

============================================================
+ Verbose Summary: Synthesis Manager
============================================================
InlineROM: 1
ExposeGlobal: 0
============================================================
+ Verbose Summary: CDFG Model
============================================================
IsTopModel: 0
ResetActiveHigh: 1
IsCombinational: 2
IsDatapathOnly: 0
HasWiredReturn: 1
HasMFsm: 2
HasVarLatency: 0
IsPipeline: 1
IsRtlPipelined: 1
IsInstanceOverlapped: 0
IsDontTouch: 0
HasImplIP: 0
IsGatedGlobalClock: 0

+ Individual pipeline summary: 
  * Pipeline-0: initiation interval (II) = 1, depth = 3


============================================================
+ Verbose Summary: Schedule
============================================================
* Number of FSM states : 3
* Pipeline : 1
  Pipeline-0 : II = 1, D = 3, States = { 1 2 3 }
* Dataflow Pipeline: 0

* FSM state transitions: 
1 --> 2 
2 --> 3 
3 --> 

* FSM state operations: 

State 1 <SV = 0> <Delay = 2.76>
ST_1 : Operation 4 [1/1] (0.00ns)   --->   "%state_V_load = load i2* @state_V, align 1" [/home/paulrr2/Projects/ece527/babelsoc/fpga-network-stack/hls/echo_server_application/echo_server_application.cpp:117]   --->   Operation 4 'load' 'state_V_load' <Predicate = true> <Delay = 0.00>
ST_1 : Operation 5 [1/1] (1.13ns)   --->   "switch i2 %state_V_load, label %._crit_edge35 [
    i2 0, label %0
    i2 1, label %1
  ]" [/home/paulrr2/Projects/ece527/babelsoc/fpga-network-stack/hls/echo_server_application/echo_server_application.cpp:117]   --->   Operation 5 'switch' <Predicate = true> <Delay = 1.13>
ST_1 : Operation 6 [1/1] (0.00ns)   --->   "%tmp = call i1 @_ssdm_op_NbReadReq.axis.i8P(i8* %listenSts_V, i32 1)" [/home/paulrr2/Projects/ece527/babelsoc/fpga-network-stack/hls/echo_server_application/echo_server_application.cpp:124]   --->   Operation 6 'nbreadreq' 'tmp' <Predicate = (state_V_load == 1)> <Delay = 0.00> <Core = "AXI4Stream">   --->   Core 5 'AXI4Stream' <Latency = 0> <II = 1> <Delay = 1.00> <Adapter> <Opcode : >
ST_1 : Operation 7 [1/1] (0.00ns)   --->   "br i1 %tmp, label %2, label %._crit_edge36" [/home/paulrr2/Projects/ece527/babelsoc/fpga-network-stack/hls/echo_server_application/echo_server_application.cpp:124]   --->   Operation 7 'br' <Predicate = (state_V_load == 1)> <Delay = 0.00>
ST_1 : Operation 8 [1/1] (0.00ns)   --->   "%listenSts_V_read = call i8 @_ssdm_op_Read.axis.volatile.i8P(i8* %listenSts_V)" [/home/paulrr2/Projects/ece527/babelsoc/fpga-network-stack/hls/echo_server_application/echo_server_application.cpp:126]   --->   Operation 8 'read' 'listenSts_V_read' <Predicate = (state_V_load == 1 & tmp)> <Delay = 0.00> <Core = "AXI4Stream">   --->   Core 5 'AXI4Stream' <Latency = 0> <II = 1> <Delay = 1.00> <Adapter> <Opcode : >
ST_1 : Operation 9 [1/1] (0.00ns)   --->   "%tmp_3 = trunc i8 %listenSts_V_read to i1" [/home/paulrr2/Projects/ece527/babelsoc/fpga-network-stack/hls/echo_server_application/echo_server_application.cpp:126]   --->   Operation 9 'trunc' 'tmp_3' <Predicate = (state_V_load == 1 & tmp)> <Delay = 0.00>
ST_1 : Operation 10 [1/1] (0.99ns)   --->   "%select_ln127 = select i1 %tmp_3, i2 -2, i2 0" [/home/paulrr2/Projects/ece527/babelsoc/fpga-network-stack/hls/echo_server_application/echo_server_application.cpp:127]   --->   Operation 10 'select' 'select_ln127' <Predicate = (state_V_load == 1 & tmp)> <Delay = 0.99> <Core = "Sel">   --->   Core 26 'Sel' <Latency = 0> <II = 1> <Delay = 0.98> <FuncUnit> <Opcode : 'select'> <InPorts = 3> <OutPorts = 1>
ST_1 : Operation 11 [1/1] (1.76ns)   --->   "store i2 %select_ln127, i2* @state_V, align 1" [/home/paulrr2/Projects/ece527/babelsoc/fpga-network-stack/hls/echo_server_application/echo_server_application.cpp:129]   --->   Operation 11 'store' <Predicate = (state_V_load == 1 & tmp)> <Delay = 1.76>
ST_1 : Operation 12 [1/1] (1.76ns)   --->   "store i2 1, i2* @state_V, align 1" [/home/paulrr2/Projects/ece527/babelsoc/fpga-network-stack/hls/echo_server_application/echo_server_application.cpp:121]   --->   Operation 12 'store' <Predicate = (state_V_load == 0)> <Delay = 1.76>

State 2 <SV = 1> <Delay = 0.00>
ST_2 : Operation 13 [2/2] (0.00ns)   --->   "call void @_ssdm_op_Write.axis.volatile.i16P(i16* %listenPort_V_V, i16 7)" [/home/paulrr2/Projects/ece527/babelsoc/fpga-network-stack/hls/echo_server_application/echo_server_application.cpp:120]   --->   Operation 13 'write' <Predicate = (state_V_load == 0)> <Delay = 0.00> <Core = "AXI4Stream">   --->   Core 5 'AXI4Stream' <Latency = 0> <II = 1> <Delay = 1.00> <Adapter> <Opcode : >

State 3 <SV = 2> <Delay = 0.00>
ST_3 : Operation 14 [1/1] (0.00ns)   --->   "call void (...)* @_ssdm_op_SpecInterface(i8* %listenSts_V, [5 x i8]* @p_str3, i32 1, i32 1, [5 x i8]* @p_str4, i32 0, i32 0, [1 x i8]* @p_str, [1 x i8]* @p_str, [1 x i8]* @p_str, i32 0, i32 0, i32 0, i32 0, [26 x i8]* @p_str6, [1 x i8]* @p_str)"   --->   Operation 14 'specinterface' <Predicate = true> <Delay = 0.00>
ST_3 : Operation 15 [1/1] (0.00ns)   --->   "call void (...)* @_ssdm_op_SpecInterface(i16* %listenPort_V_V, [5 x i8]* @p_str3, i32 1, i32 1, [5 x i8]* @p_str4, i32 0, i32 0, [1 x i8]* @p_str, [1 x i8]* @p_str, [1 x i8]* @p_str, i32 0, i32 0, i32 0, i32 0, [19 x i8]* @p_str5, [1 x i8]* @p_str) nounwind"   --->   Operation 15 'specinterface' <Predicate = true> <Delay = 0.00>
ST_3 : Operation 16 [1/1] (0.00ns)   --->   "call void (...)* @_ssdm_op_SpecPipeline(i32 1, i32 1, i32 1, i32 0, [1 x i8]* @p_str) nounwind" [/home/paulrr2/Projects/ece527/babelsoc/fpga-network-stack/hls/echo_server_application/echo_server_application.cpp:109]   --->   Operation 16 'specpipeline' <Predicate = true> <Delay = 0.00>
ST_3 : Operation 17 [1/1] (0.00ns)   --->   "call void (...)* @_ssdm_op_SpecReset(i2* @state_V, i32 1, [1 x i8]* @p_str) nounwind" [/home/paulrr2/Projects/ece527/babelsoc/fpga-network-stack/hls/echo_server_application/echo_server_application.cpp:113]   --->   Operation 17 'specreset' <Predicate = true> <Delay = 0.00>
ST_3 : Operation 18 [1/1] (0.00ns)   --->   "br label %._crit_edge36" [/home/paulrr2/Projects/ece527/babelsoc/fpga-network-stack/hls/echo_server_application/echo_server_application.cpp:135]   --->   Operation 18 'br' <Predicate = (state_V_load == 1 & tmp)> <Delay = 0.00>
ST_3 : Operation 19 [1/1] (0.00ns)   --->   "br label %._crit_edge35" [/home/paulrr2/Projects/ece527/babelsoc/fpga-network-stack/hls/echo_server_application/echo_server_application.cpp:136]   --->   Operation 19 'br' <Predicate = (state_V_load == 1)> <Delay = 0.00>
ST_3 : Operation 20 [1/2] (0.00ns)   --->   "call void @_ssdm_op_Write.axis.volatile.i16P(i16* %listenPort_V_V, i16 7)" [/home/paulrr2/Projects/ece527/babelsoc/fpga-network-stack/hls/echo_server_application/echo_server_application.cpp:120]   --->   Operation 20 'write' <Predicate = (state_V_load == 0)> <Delay = 0.00> <Core = "AXI4Stream">   --->   Core 5 'AXI4Stream' <Latency = 0> <II = 1> <Delay = 1.00> <Adapter> <Opcode : >
ST_3 : Operation 21 [1/1] (0.00ns)   --->   "br label %._crit_edge35" [/home/paulrr2/Projects/ece527/babelsoc/fpga-network-stack/hls/echo_server_application/echo_server_application.cpp:122]   --->   Operation 21 'br' <Predicate = (state_V_load == 0)> <Delay = 0.00>
ST_3 : Operation 22 [1/1] (0.00ns)   --->   "ret void" [/home/paulrr2/Projects/ece527/babelsoc/fpga-network-stack/hls/echo_server_application/echo_server_application.cpp:142]   --->   Operation 22 'ret' <Predicate = true> <Delay = 0.00>


============================================================
+ Verbose Summary: Binding
============================================================
STG Binding: 
---------------- STG Properties BEGIN ----------------
- Is combinational: 0
- Is one-state seq: 0
- Is datapath-only: 0
- Is pipelined: 1
- Is top level: 0
Port [ Return ] is wired: 1; IO mode=ap_ctrl_hs:ce=0
Port [ listenPort_V_V]:  wired=1; compound=1; hidden=0; nouse=0; global=0; static=0; extern=0; dir=1; type=0; pingpong=0; private_global=0; IO mode=axis:ce=0
Port [ listenSts_V]:  wired=1; compound=1; hidden=0; nouse=0; global=0; static=0; extern=0; dir=0; type=0; pingpong=0; private_global=0; IO mode=axis:ce=0
Port [ state_V]:  wired=0; compound=0; hidden=1; nouse=0; global=1; static=1; extern=0; dir=2; type=0; pingpong=0; private_global=1; linkage=7; visibility=0; IO mode=ap_ovld:ce=0
---------------- STG Properties END ------------------

---------------- Datapath Model BEGIN ----------------

<LifeTime>
<method=bitvector/>
state_V_load       (load         ) [ 0111]
switch_ln117       (switch       ) [ 0000]
tmp                (nbreadreq    ) [ 0111]
br_ln124           (br           ) [ 0000]
listenSts_V_read   (read         ) [ 0000]
tmp_3              (trunc        ) [ 0000]
select_ln127       (select       ) [ 0000]
store_ln129        (store        ) [ 0000]
store_ln121        (store        ) [ 0000]
specinterface_ln0  (specinterface) [ 0000]
specinterface_ln0  (specinterface) [ 0000]
specpipeline_ln109 (specpipeline ) [ 0000]
specreset_ln113    (specreset    ) [ 0000]
br_ln135           (br           ) [ 0000]
br_ln136           (br           ) [ 0000]
write_ln120        (write        ) [ 0000]
br_ln122           (br           ) [ 0000]
ret_ln142          (ret          ) [ 0000]
</LifeTime>

<model>

<comp_list>
<comp id="0" class="1000" name="listenPort_V_V">
<pin_list>
<pin id="1" dir="1" index="0" bw="1" slack="0"/>
</pin_list>
<bind>
<StgValue><ssdm name="listenPort_V_V"/></StgValue>
</bind>
</comp>

<comp id="2" class="1000" name="listenSts_V">
<pin_list>
<pin id="3" dir="1" index="0" bw="1" slack="0"/>
</pin_list>
<bind>
<StgValue><ssdm name="listenSts_V"/></StgValue>
</bind>
</comp>

<comp id="4" class="1000" name="state_V">
<pin_list>
<pin id="5" dir="1" index="0" bw="1" slack="0"/>
</pin_list>
<bind>
<StgValue><ssdm name="state_V"/></StgValue>
</bind>
</comp>

<comp id="6" class="1001" name="const_6">
<pin_list>
<pin id="7" dir="1" index="0" bw="1" slack="0"/>
</pin_list>
<bind>
<StgValue><ssdm name=""/></StgValue>
</bind>
</comp>

<comp id="8" class="1001" name="const_8">
<pin_list>
<pin id="9" dir="1" index="0" bw="1" slack="0"/>
</pin_list>
<bind>
<StgValue><ssdm name=""/></StgValue>
</bind>
</comp>

<comp id="10" class="1001" name="const_10">
<pin_list>
<pin id="11" dir="1" index="0" bw="1" slack="0"/>
</pin_list>
<bind>
<StgValue><ssdm name="_ssdm_op_NbReadReq.axis.i8P"/></StgValue>
</bind>
</comp>

<comp id="12" class="1001" name="const_12">
<pin_list>
<pin id="13" dir="1" index="0" bw="1" slack="0"/>
</pin_list>
<bind>
<StgValue><ssdm name=""/></StgValue>
</bind>
</comp>

<comp id="14" class="1001" name="const_14">
<pin_list>
<pin id="15" dir="1" index="0" bw="1" slack="0"/>
</pin_list>
<bind>
<StgValue><ssdm name="_ssdm_op_Read.axis.volatile.i8P"/></StgValue>
</bind>
</comp>

<comp id="16" class="1001" name="const_16">
<pin_list>
<pin id="17" dir="1" index="0" bw="1" slack="0"/>
</pin_list>
<bind>
<StgValue><ssdm name=""/></StgValue>
</bind>
</comp>

<comp id="18" class="1001" name="const_18">
<pin_list>
<pin id="19" dir="1" index="0" bw="1" slack="0"/>
</pin_list>
<bind>
<StgValue><ssdm name="_ssdm_op_Write.axis.volatile.i16P"/></StgValue>
</bind>
</comp>

<comp id="20" class="1001" name="const_20">
<pin_list>
<pin id="21" dir="1" index="0" bw="1" slack="0"/>
</pin_list>
<bind>
<StgValue><ssdm name=""/></StgValue>
</bind>
</comp>

<comp id="22" class="1001" name="const_22">
<pin_list>
<pin id="23" dir="1" index="0" bw="1" slack="2147483647"/>
</pin_list>
<bind>
<StgValue><ssdm name="_ssdm_op_SpecInterface"/></StgValue>
</bind>
</comp>

<comp id="24" class="1001" name="const_24">
<pin_list>
<pin id="25" dir="1" index="0" bw="1" slack="2147483647"/>
</pin_list>
<bind>
<StgValue><ssdm name="p_str3"/></StgValue>
</bind>
</comp>

<comp id="26" class="1001" name="const_26">
<pin_list>
<pin id="27" dir="1" index="0" bw="1" slack="2147483647"/>
</pin_list>
<bind>
<StgValue><ssdm name="p_str4"/></StgValue>
</bind>
</comp>

<comp id="28" class="1001" name="const_28">
<pin_list>
<pin id="29" dir="1" index="0" bw="1" slack="2147483647"/>
</pin_list>
<bind>
<StgValue><ssdm name=""/></StgValue>
</bind>
</comp>

<comp id="30" class="1001" name="const_30">
<pin_list>
<pin id="31" dir="1" index="0" bw="1" slack="2147483647"/>
</pin_list>
<bind>
<StgValue><ssdm name="p_str"/></StgValue>
</bind>
</comp>

<comp id="32" class="1001" name="const_32">
<pin_list>
<pin id="33" dir="1" index="0" bw="1" slack="2147483647"/>
</pin_list>
<bind>
<StgValue><ssdm name="p_str6"/></StgValue>
</bind>
</comp>

<comp id="34" class="1001" name="const_34">
<pin_list>
<pin id="35" dir="1" index="0" bw="1" slack="2147483647"/>
</pin_list>
<bind>
<StgValue><ssdm name="p_str5"/></StgValue>
</bind>
</comp>

<comp id="36" class="1001" name="const_36">
<pin_list>
<pin id="37" dir="1" index="0" bw="1" slack="2147483647"/>
</pin_list>
<bind>
<StgValue><ssdm name="_ssdm_op_SpecPipeline"/></StgValue>
</bind>
</comp>

<comp id="38" class="1001" name="const_38">
<pin_list>
<pin id="39" dir="1" index="0" bw="1" slack="2147483647"/>
</pin_list>
<bind>
<StgValue><ssdm name="_ssdm_op_SpecReset"/></StgValue>
</bind>
</comp>

<comp id="40" class="1004" name="tmp_nbreadreq_fu_40">
<pin_list>
<pin id="41" dir="0" index="0" bw="1" slack="0"/>
<pin id="42" dir="0" index="1" bw="8" slack="0"/>
<pin id="43" dir="0" index="2" bw="1" slack="0"/>
<pin id="44" dir="1" index="3" bw="1" slack="2"/>
</pin_list>
<bind>
<opcode="nbreadreq(1156) " fcode="nbreadreq"/>
<opset="tmp/1 "/>
</bind>
</comp>

<comp id="48" class="1004" name="listenSts_V_read_read_fu_48">
<pin_list>
<pin id="49" dir="0" index="0" bw="8" slack="0"/>
<pin id="50" dir="0" index="1" bw="8" slack="0"/>
<pin id="51" dir="1" index="2" bw="8" slack="0"/>
</pin_list>
<bind>
<opcode="read(1150) " fcode="read"/>
<opset="listenSts_V_read/1 "/>
</bind>
</comp>

<comp id="54" class="1004" name="grp_write_fu_54">
<pin_list>
<pin id="55" dir="0" index="0" bw="0" slack="0"/>
<pin id="56" dir="0" index="1" bw="16" slack="0"/>
<pin id="57" dir="0" index="2" bw="4" slack="0"/>
<pin id="58" dir="1" index="3" bw="0" slack="2147483647"/>
</pin_list>
<bind>
<opcode="write(1151) " fcode="write"/>
<opset="write_ln120/2 "/>
</bind>
</comp>

<comp id="62" class="1004" name="state_V_load_load_fu_62">
<pin_list>
<pin id="63" dir="0" index="0" bw="2" slack="0"/>
<pin id="64" dir="1" index="1" bw="2" slack="1"/>
</pin_list>
<bind>
<opcode="load(27) " fcode="load"/>
<opset="state_V_load/1 "/>
</bind>
</comp>

<comp id="66" class="1004" name="tmp_3_fu_66">
<pin_list>
<pin id="67" dir="0" index="0" bw="8" slack="0"/>
<pin id="68" dir="1" index="1" bw="1" slack="0"/>
</pin_list>
<bind>
<opcode="trunc(33) " fcode="trunc"/>
<opset="tmp_3/1 "/>
</bind>
</comp>

<comp id="70" class="1004" name="select_ln127_fu_70">
<pin_list>
<pin id="71" dir="0" index="0" bw="1" slack="0"/>
<pin id="72" dir="0" index="1" bw="2" slack="0"/>
<pin id="73" dir="0" index="2" bw="2" slack="0"/>
<pin id="74" dir="1" index="3" bw="2" slack="0"/>
</pin_list>
<bind>
<opcode="select(49) " fcode="select"/>
<opset="select_ln127/1 "/>
</bind>
</comp>

<comp id="78" class="1004" name="store_ln129_store_fu_78">
<pin_list>
<pin id="79" dir="0" index="0" bw="2" slack="0"/>
<pin id="80" dir="0" index="1" bw="2" slack="0"/>
<pin id="81" dir="1" index="2" bw="0" slack="2147483647"/>
</pin_list>
<bind>
<opcode="store(28) " fcode="store"/>
<opset="store_ln129/1 "/>
</bind>
</comp>

<comp id="84" class="1004" name="store_ln121_store_fu_84">
<pin_list>
<pin id="85" dir="0" index="0" bw="1" slack="0"/>
<pin id="86" dir="0" index="1" bw="2" slack="0"/>
<pin id="87" dir="1" index="2" bw="0" slack="2147483647"/>
</pin_list>
<bind>
<opcode="store(28) " fcode="store"/>
<opset="store_ln121/1 "/>
</bind>
</comp>

<comp id="90" class="1005" name="state_V_load_reg_90">
<pin_list>
<pin id="91" dir="0" index="0" bw="2" slack="1"/>
<pin id="92" dir="1" index="1" bw="2" slack="2147483647"/>
</pin_list>
<bind>
<opset="state_V_load "/>
</bind>
</comp>

<comp id="94" class="1005" name="tmp_reg_94">
<pin_list>
<pin id="95" dir="0" index="0" bw="1" slack="2"/>
<pin id="96" dir="1" index="1" bw="1" slack="2147483647"/>
</pin_list>
<bind>
<opset="tmp "/>
</bind>
</comp>

</comp_list>

<net_list>
<net id="45"><net_src comp="10" pin="0"/><net_sink comp="40" pin=0"/></net>

<net id="46"><net_src comp="2" pin="0"/><net_sink comp="40" pin=1"/></net>

<net id="47"><net_src comp="12" pin="0"/><net_sink comp="40" pin=2"/></net>

<net id="52"><net_src comp="14" pin="0"/><net_sink comp="48" pin=0"/></net>

<net id="53"><net_src comp="2" pin="0"/><net_sink comp="48" pin=1"/></net>

<net id="59"><net_src comp="18" pin="0"/><net_sink comp="54" pin=0"/></net>

<net id="60"><net_src comp="0" pin="0"/><net_sink comp="54" pin=1"/></net>

<net id="61"><net_src comp="20" pin="0"/><net_sink comp="54" pin=2"/></net>

<net id="65"><net_src comp="4" pin="0"/><net_sink comp="62" pin=0"/></net>

<net id="69"><net_src comp="48" pin="2"/><net_sink comp="66" pin=0"/></net>

<net id="75"><net_src comp="66" pin="1"/><net_sink comp="70" pin=0"/></net>

<net id="76"><net_src comp="16" pin="0"/><net_sink comp="70" pin=1"/></net>

<net id="77"><net_src comp="6" pin="0"/><net_sink comp="70" pin=2"/></net>

<net id="82"><net_src comp="70" pin="3"/><net_sink comp="78" pin=0"/></net>

<net id="83"><net_src comp="4" pin="0"/><net_sink comp="78" pin=1"/></net>

<net id="88"><net_src comp="8" pin="0"/><net_sink comp="84" pin=0"/></net>

<net id="89"><net_src comp="4" pin="0"/><net_sink comp="84" pin=1"/></net>

<net id="93"><net_src comp="62" pin="1"/><net_sink comp="90" pin=0"/></net>

<net id="97"><net_src comp="40" pin="3"/><net_sink comp="94" pin=0"/></net>

</net_list>

</model> 
---------------- Datapath Model END ------------------

* FSMD analyzer results:
  - Output states:
	Port: listenPort_V_V | {3 }
	Port: listenSts_V | {}
	Port: state_V | {1 }
 - Input state : 
	Port: open_port : listenPort_V_V | {}
	Port: open_port : listenSts_V | {1 }
	Port: open_port : state_V | {1 }
  - Chain level:
	State 1
		switch_ln117 : 1
		select_ln127 : 1
		store_ln129 : 2
	State 2
	State 3


============================================================
+ Verbose Summary: Datapath Resource usage 
============================================================

* Functional unit list:
|----------|-----------------------------|---------|---------|
| Operation|       Functional Unit       |    FF   |   LUT   |
|----------|-----------------------------|---------|---------|
|  select  |      select_ln127_fu_70     |    0    |    2    |
|----------|-----------------------------|---------|---------|
| nbreadreq|     tmp_nbreadreq_fu_40     |    0    |    0    |
|----------|-----------------------------|---------|---------|
|   read   | listenSts_V_read_read_fu_48 |    0    |    0    |
|----------|-----------------------------|---------|---------|
|   write  |       grp_write_fu_54       |    0    |    0    |
|----------|-----------------------------|---------|---------|
|   trunc  |         tmp_3_fu_66         |    0    |    0    |
|----------|-----------------------------|---------|---------|
|   Total  |                             |    0    |    2    |
|----------|-----------------------------|---------|---------|

Memories:
N/A

* Register list:
+-------------------+--------+
|                   |   FF   |
+-------------------+--------+
|state_V_load_reg_90|    2   |
|     tmp_reg_94    |    1   |
+-------------------+--------+
|       Total       |    3   |
+-------------------+--------+

* Multiplexer (MUX) list: 
|--------|------|------|------|--------|
|  Comp  |  Pin | Size |  BW  | S x BW |
|--------|------|------|------|--------|
|  Total |      |      |      |    0   |
|--------|------|------|------|--------|



* Summary:
+-----------+--------+--------+
|           |   FF   |   LUT  |
+-----------+--------+--------+
|  Function |    0   |    2   |
|   Memory  |    -   |    -   |
|Multiplexer|    -   |    -   |
|  Register |    3   |    -   |
+-----------+--------+--------+
|   Total   |    3   |    2   |
+-----------+--------+--------+
