regslice_core
regslice_core
fifo_w1_d2_A
fifo_w1_d2_A
fifo_w14_d2_A
fifo_w8_d2_A
fifo_w8_d2_A
fifo_w32_d2_A
fifo_w64_d2_A
fifo_w32_d2_A
fifo_w32_d2_A
fifo_w32_d2_A
fifo_w32_d2_A
fifo_w32_d2_A
fifo_w32_d2_A
fifo_w32_d2_A
fifo_w32_d2_A
fifo_w32_d2_A
fifo_w32_d2_A
fifo_w1_d3_A
fifo_w1_d3_A
fifo_w14_d3_A
fifo_w8_d3_A
fifo_w8_d3_A
fifo_w32_d3_A
fifo_w64_d4_A
fifo_w32_d3_A
fifo_w32_d3_A
fifo_w32_d3_A
fifo_w32_d3_A
fifo_w32_d3_A
fifo_w32_d3_A
fifo_w32_d3_A
fifo_w32_d3_A
fifo_w32_d3_A
fifo_w32_d3_A
fifo_w16_d1024_A
fifo_w2_d1024_A
fifo_w1_d2_A
fifo_w1_d2_A
regslice_core
iperf_client_entry3
iperf_client_entry16
status_handler
client_64_s
server_64_s
clock
iperf_client
