

================================================================
== Vivado HLS Report for 'clock'
================================================================
* Date:           Sat Dec 12 19:21:35 2020

* Version:        2019.2.1 (Build 2724168 on Thu Dec 05 05:19:09 MST 2019)
* Project:        iperf_client_prj
* Solution:       solution1
* Product family: virtex7
* Target device:  xc7vx690t-ffg1761-2


================================================================
== Performance Estimates
================================================================
+ Timing: 
    * Summary: 
    +--------+---------+----------+------------+
    |  Clock |  Target | Estimated| Uncertainty|
    +--------+---------+----------+------------+
    |ap_clk  | 6.40 ns | 3.792 ns |   0.80 ns  |
    +--------+---------+----------+------------+

+ Latency: 
    * Summary: 
    +---------+---------+----------+----------+-----+-----+----------+
    |  Latency (cycles) |  Latency (absolute) |  Interval | Pipeline |
    |   min   |   max   |    min   |    max   | min | max |   Type   |
    +---------+---------+----------+----------+-----+-----+----------+
    |        1|        1| 6.400 ns | 6.400 ns |    1|    1| function |
    +---------+---------+----------+----------+-----+-----+----------+

    + Detail: 
        * Instance: 
        N/A

        * Loop: 
        N/A

============================================================
+ Verbose Summary: Synthesis Manager
============================================================
InlineROM: 1
ExposeGlobal: 0
============================================================
+ Verbose Summary: CDFG Model
============================================================
IsTopModel: 0
ResetActiveHigh: 1
IsCombinational: 2
IsDatapathOnly: 0
HasWiredReturn: 1
HasMFsm: 2
HasVarLatency: 0
IsPipeline: 1
IsRtlPipelined: 1
IsInstanceOverlapped: 0
IsDontTouch: 0
HasImplIP: 0
IsGatedGlobalClock: 0

+ Individual pipeline summary: 
  * Pipeline-0: initiation interval (II) = 1, depth = 2


============================================================
+ Verbose Summary: Schedule
============================================================
* Number of FSM states : 2
* Pipeline : 1
  Pipeline-0 : II = 1, D = 2, States = { 1 2 }
* Dataflow Pipeline: 0

* FSM state transitions: 
1 --> 2 
2 --> 

* FSM state operations: 

State 1 <SV = 0> <Delay = 3.79>
ST_1 : Operation 3 [1/1] (2.39ns)   --->   "%timeInCycles_V_read = call i64 @_ssdm_op_Read.ap_fifo.i64P(i64* %timeInCycles_V)" [/home/paulrr2/Projects/ece527/babelsoc/fpga-network-stack/hls/iperf_client/iperf_client.cpp:435]   --->   Operation 3 'read' 'timeInCycles_V_read' <Predicate = true> <Delay = 2.39> <Core = "FIFO">   --->   Core 32 'FIFO' <Latency = 0> <II = 1> <Delay = 2.39> <Storage> <Opcode : 'read' 'write' 'nbread' 'nbwrite'> <Ports = 0> <Width = 1> <Depth = 2> <FIFO>
ST_1 : Operation 4 [1/1] (0.00ns)   --->   "%sw_state_load = load i1* @sw_state, align 1" [/home/paulrr2/Projects/ece527/babelsoc/fpga-network-stack/hls/iperf_client/iperf_client.cpp:423->/home/paulrr2/Projects/ece527/babelsoc/fpga-network-stack/hls/iperf_client/iperf_client.cpp:476]   --->   Operation 4 'load' 'sw_state_load' <Predicate = true> <Delay = 0.00>
ST_1 : Operation 5 [1/1] (0.00ns)   --->   "%t_V = load i48* @time_V, align 8" [/home/paulrr2/Projects/ece527/babelsoc/fpga-network-stack/hls/iperf_client/iperf_client.cpp:434->/home/paulrr2/Projects/ece527/babelsoc/fpga-network-stack/hls/iperf_client/iperf_client.cpp:476]   --->   Operation 5 'load' 't_V' <Predicate = true> <Delay = 0.00>
ST_1 : Operation 6 [1/1] (0.00ns)   --->   "br i1 %sw_state_load, label %2, label %0" [/home/paulrr2/Projects/ece527/babelsoc/fpga-network-stack/hls/iperf_client/iperf_client.cpp:423->/home/paulrr2/Projects/ece527/babelsoc/fpga-network-stack/hls/iperf_client/iperf_client.cpp:476]   --->   Operation 6 'br' <Predicate = true> <Delay = 0.00>
ST_1 : Operation 7 [1/1] (0.00ns)   --->   "%tmp = call i1 @_ssdm_op_NbReadReq.ap_fifo.i1P(i1* @startSignalFifo_V, i32 1)" [/home/paulrr2/Projects/ece527/babelsoc/fpga-network-stack/hls/iperf_client/iperf_client.cpp:426->/home/paulrr2/Projects/ece527/babelsoc/fpga-network-stack/hls/iperf_client/iperf_client.cpp:476]   --->   Operation 7 'nbreadreq' 'tmp' <Predicate = (!sw_state_load)> <Delay = 0.00> <Core = "FIFO">   --->   Core 32 'FIFO' <Latency = 0> <II = 1> <Delay = 2.39> <Storage> <Opcode : 'read' 'write' 'nbread' 'nbwrite'> <Ports = 0> <Width = 1> <Depth = 2> <FIFO>
ST_1 : Operation 8 [1/1] (0.00ns)   --->   "br i1 %tmp, label %1, label %._crit_edge2.i.i" [/home/paulrr2/Projects/ece527/babelsoc/fpga-network-stack/hls/iperf_client/iperf_client.cpp:426->/home/paulrr2/Projects/ece527/babelsoc/fpga-network-stack/hls/iperf_client/iperf_client.cpp:476]   --->   Operation 8 'br' <Predicate = (!sw_state_load)> <Delay = 0.00>
ST_1 : Operation 9 [1/1] (2.39ns)   --->   "%tmp_7_0 = call i1 @_ssdm_op_Read.ap_fifo.volatile.i1P(i1* @startSignalFifo_V)" [/home/paulrr2/Projects/ece527/babelsoc/fpga-network-stack/hls/iperf_client/iperf_client.cpp:428->/home/paulrr2/Projects/ece527/babelsoc/fpga-network-stack/hls/iperf_client/iperf_client.cpp:476]   --->   Operation 9 'read' 'tmp_7_0' <Predicate = (!sw_state_load & tmp)> <Delay = 2.39> <Core = "FIFO">   --->   Core 32 'FIFO' <Latency = 0> <II = 1> <Delay = 2.39> <Storage> <Opcode : 'read' 'write' 'nbread' 'nbwrite'> <Ports = 0> <Width = 1> <Depth = 2> <FIFO>
ST_1 : Operation 10 [1/1] (0.85ns)   --->   "store i48 0, i48* @time_V, align 8" [/home/paulrr2/Projects/ece527/babelsoc/fpga-network-stack/hls/iperf_client/iperf_client.cpp:429->/home/paulrr2/Projects/ece527/babelsoc/fpga-network-stack/hls/iperf_client/iperf_client.cpp:476]   --->   Operation 10 'store' <Predicate = (!sw_state_load & tmp)> <Delay = 0.85>
ST_1 : Operation 11 [1/1] (0.85ns)   --->   "store i1 true, i1* @sw_state, align 1" [/home/paulrr2/Projects/ece527/babelsoc/fpga-network-stack/hls/iperf_client/iperf_client.cpp:430->/home/paulrr2/Projects/ece527/babelsoc/fpga-network-stack/hls/iperf_client/iperf_client.cpp:476]   --->   Operation 11 'store' <Predicate = (!sw_state_load & tmp)> <Delay = 0.85>
ST_1 : Operation 12 [1/1] (1.59ns)   --->   "%add_ln700 = add i48 %t_V, 1" [/home/paulrr2/Projects/ece527/babelsoc/fpga-network-stack/hls/iperf_client/iperf_client.cpp:434->/home/paulrr2/Projects/ece527/babelsoc/fpga-network-stack/hls/iperf_client/iperf_client.cpp:476]   --->   Operation 12 'add' 'add_ln700' <Predicate = (sw_state_load)> <Delay = 1.59> <Core = "AddSub">   --->   Core 14 'AddSub' <Latency = 0> <II = 1> <Delay = 1.59> <FuncUnit> <Opcode : 'add' 'sub'> <InPorts = 2> <OutPorts = 1>
ST_1 : Operation 13 [1/1] (0.85ns)   --->   "store i48 %add_ln700, i48* @time_V, align 8" [/home/paulrr2/Projects/ece527/babelsoc/fpga-network-stack/hls/iperf_client/iperf_client.cpp:434->/home/paulrr2/Projects/ece527/babelsoc/fpga-network-stack/hls/iperf_client/iperf_client.cpp:476]   --->   Operation 13 'store' <Predicate = (sw_state_load)> <Delay = 0.85>
ST_1 : Operation 14 [1/1] (0.00ns)   --->   "%zext_ln879 = zext i48 %add_ln700 to i64" [/home/paulrr2/Projects/ece527/babelsoc/fpga-network-stack/hls/iperf_client/iperf_client.cpp:435->/home/paulrr2/Projects/ece527/babelsoc/fpga-network-stack/hls/iperf_client/iperf_client.cpp:476]   --->   Operation 14 'zext' 'zext_ln879' <Predicate = (sw_state_load)> <Delay = 0.00>
ST_1 : Operation 15 [1/1] (1.40ns)   --->   "%icmp_ln879 = icmp eq i64 %zext_ln879, %timeInCycles_V_read" [/home/paulrr2/Projects/ece527/babelsoc/fpga-network-stack/hls/iperf_client/iperf_client.cpp:435->/home/paulrr2/Projects/ece527/babelsoc/fpga-network-stack/hls/iperf_client/iperf_client.cpp:476]   --->   Operation 15 'icmp' 'icmp_ln879' <Predicate = (sw_state_load)> <Delay = 1.40> <Core = "Cmp">   --->   Core 25 'Cmp' <Latency = 0> <II = 1> <Delay = 1.40> <FuncUnit> <Opcode : 'icmp'> <InPorts = 2> <OutPorts = 1>
ST_1 : Operation 16 [1/1] (0.00ns)   --->   "br i1 %icmp_ln879, label %3, label %._crit_edge3.i.i" [/home/paulrr2/Projects/ece527/babelsoc/fpga-network-stack/hls/iperf_client/iperf_client.cpp:435->/home/paulrr2/Projects/ece527/babelsoc/fpga-network-stack/hls/iperf_client/iperf_client.cpp:476]   --->   Operation 16 'br' <Predicate = (sw_state_load)> <Delay = 0.00>
ST_1 : Operation 17 [1/1] (0.85ns)   --->   "store i1 false, i1* @sw_state, align 1" [/home/paulrr2/Projects/ece527/babelsoc/fpga-network-stack/hls/iperf_client/iperf_client.cpp:438->/home/paulrr2/Projects/ece527/babelsoc/fpga-network-stack/hls/iperf_client/iperf_client.cpp:476]   --->   Operation 17 'store' <Predicate = (sw_state_load & icmp_ln879)> <Delay = 0.85>

State 2 <SV = 1> <Delay = 2.39>
ST_2 : Operation 18 [1/1] (0.00ns)   --->   "call void (...)* @_ssdm_op_SpecInterface(i1* @startSignalFifo_V, [8 x i8]* @ap_fifo_str, i32 0, i32 0, [1 x i8]* @p_str, i32 0, i32 0, [1 x i8]* @p_str, [1 x i8]* @p_str, [1 x i8]* @p_str, i32 2, i32 2, i32 16, i32 16, [1 x i8]* @p_str, [1 x i8]* @p_str)"   --->   Operation 18 'specinterface' <Predicate = true> <Delay = 0.00>
ST_2 : Operation 19 [1/1] (0.00ns)   --->   "call void (...)* @_ssdm_op_SpecInterface(i1* @stopSignalFifo_V, [8 x i8]* @ap_fifo_str, i32 0, i32 0, [1 x i8]* @p_str, i32 0, i32 0, [1 x i8]* @p_str, [1 x i8]* @p_str, [1 x i8]* @p_str, i32 2, i32 2, i32 16, i32 16, [1 x i8]* @p_str, [1 x i8]* @p_str)"   --->   Operation 19 'specinterface' <Predicate = true> <Delay = 0.00>
ST_2 : Operation 20 [1/1] (0.00ns)   --->   "call void (...)* @_ssdm_op_SpecInterface(i64* %timeInCycles_V, [8 x i8]* @ap_fifo_str, i32 0, i32 0, [1 x i8]* @p_str, i32 0, i32 0, [1 x i8]* @p_str, [1 x i8]* @p_str, [1 x i8]* @p_str, i32 2, i32 2, i32 16, i32 16, [1 x i8]* @p_str, [11 x i8]* @ScalarProp_str)"   --->   Operation 20 'specinterface' <Predicate = true> <Delay = 0.00>
ST_2 : Operation 21 [1/1] (0.00ns)   --->   "call void (...)* @_ssdm_op_SpecInterface(i1* @startSignalFifo_V, [8 x i8]* @ap_fifo_str, i32 0, i32 0, [1 x i8]* @p_str, i32 0, i32 0, [1 x i8]* @p_str, [1 x i8]* @p_str, [1 x i8]* @p_str, i32 2, i32 2, i32 16, i32 16, [1 x i8]* @p_str, [1 x i8]* @p_str)"   --->   Operation 21 'specinterface' <Predicate = true> <Delay = 0.00>
ST_2 : Operation 22 [1/1] (0.00ns)   --->   "call void (...)* @_ssdm_op_SpecInterface(i1* @stopSignalFifo_V, [8 x i8]* @ap_fifo_str, i32 0, i32 0, [1 x i8]* @p_str, i32 0, i32 0, [1 x i8]* @p_str, [1 x i8]* @p_str, [1 x i8]* @p_str, i32 2, i32 2, i32 16, i32 16, [1 x i8]* @p_str, [1 x i8]* @p_str)"   --->   Operation 22 'specinterface' <Predicate = true> <Delay = 0.00>
ST_2 : Operation 23 [1/1] (0.00ns)   --->   "call void (...)* @_ssdm_op_SpecPipeline(i32 1, i32 1, i32 1, i32 0, [1 x i8]* @p_str) nounwind" [/home/paulrr2/Projects/ece527/babelsoc/fpga-network-stack/hls/iperf_client/iperf_client.cpp:416->/home/paulrr2/Projects/ece527/babelsoc/fpga-network-stack/hls/iperf_client/iperf_client.cpp:476]   --->   Operation 23 'specpipeline' <Predicate = true> <Delay = 0.00>
ST_2 : Operation 24 [1/1] (0.00ns)   --->   "br label %._crit_edge2.i.i" [/home/paulrr2/Projects/ece527/babelsoc/fpga-network-stack/hls/iperf_client/iperf_client.cpp:431->/home/paulrr2/Projects/ece527/babelsoc/fpga-network-stack/hls/iperf_client/iperf_client.cpp:476]   --->   Operation 24 'br' <Predicate = (!sw_state_load & tmp)> <Delay = 0.00>
ST_2 : Operation 25 [1/1] (0.00ns)   --->   "br label %.exit" [/home/paulrr2/Projects/ece527/babelsoc/fpga-network-stack/hls/iperf_client/iperf_client.cpp:432->/home/paulrr2/Projects/ece527/babelsoc/fpga-network-stack/hls/iperf_client/iperf_client.cpp:476]   --->   Operation 25 'br' <Predicate = (!sw_state_load)> <Delay = 0.00>
ST_2 : Operation 26 [1/1] (2.39ns)   --->   "call void @_ssdm_op_Write.ap_fifo.volatile.i1P(i1* @stopSignalFifo_V, i1 true)" [/home/paulrr2/Projects/ece527/babelsoc/fpga-network-stack/hls/iperf_client/iperf_client.cpp:437->/home/paulrr2/Projects/ece527/babelsoc/fpga-network-stack/hls/iperf_client/iperf_client.cpp:476]   --->   Operation 26 'write' <Predicate = (sw_state_load & icmp_ln879)> <Delay = 2.39> <Core = "FIFO">   --->   Core 32 'FIFO' <Latency = 0> <II = 1> <Delay = 2.39> <Storage> <Opcode : 'read' 'write' 'nbread' 'nbwrite'> <Ports = 0> <Width = 1> <Depth = 2> <FIFO>
ST_2 : Operation 27 [1/1] (0.00ns)   --->   "br label %._crit_edge3.i.i" [/home/paulrr2/Projects/ece527/babelsoc/fpga-network-stack/hls/iperf_client/iperf_client.cpp:439->/home/paulrr2/Projects/ece527/babelsoc/fpga-network-stack/hls/iperf_client/iperf_client.cpp:476]   --->   Operation 27 'br' <Predicate = (sw_state_load & icmp_ln879)> <Delay = 0.00>
ST_2 : Operation 28 [1/1] (0.00ns)   --->   "br label %.exit" [/home/paulrr2/Projects/ece527/babelsoc/fpga-network-stack/hls/iperf_client/iperf_client.cpp:440->/home/paulrr2/Projects/ece527/babelsoc/fpga-network-stack/hls/iperf_client/iperf_client.cpp:476]   --->   Operation 28 'br' <Predicate = (sw_state_load)> <Delay = 0.00>
ST_2 : Operation 29 [1/1] (0.00ns)   --->   "ret void" [/home/paulrr2/Projects/ece527/babelsoc/fpga-network-stack/hls/iperf_client/iperf_client.cpp:476]   --->   Operation 29 'ret' <Predicate = true> <Delay = 0.00>


============================================================
+ Verbose Summary: Timing violations
============================================================
Target clock period: 6.4ns, clock uncertainty: 0.8ns.

 <State 1>: 3.79ns
The critical path consists of the following:
	fifo read on port 'timeInCycles_V' (/home/paulrr2/Projects/ece527/babelsoc/fpga-network-stack/hls/iperf_client/iperf_client.cpp:435) [11]  (2.39 ns)
	'icmp' operation ('icmp_ln879', /home/paulrr2/Projects/ece527/babelsoc/fpga-network-stack/hls/iperf_client/iperf_client.cpp:435->/home/paulrr2/Projects/ece527/babelsoc/fpga-network-stack/hls/iperf_client/iperf_client.cpp:476) [32]  (1.4 ns)

 <State 2>: 2.39ns
The critical path consists of the following:
	fifo write on port 'stopSignalFifo_V' (/home/paulrr2/Projects/ece527/babelsoc/fpga-network-stack/hls/iperf_client/iperf_client.cpp:437->/home/paulrr2/Projects/ece527/babelsoc/fpga-network-stack/hls/iperf_client/iperf_client.cpp:476) [35]  (2.39 ns)


============================================================
+ Verbose Summary: Binding
============================================================
N/A
* FSMD analyzer results:
  - Output states:
 - Input state : 
  - Chain level:
	State 1
	State 2


============================================================
+ Verbose Summary: Datapath Resource usage 
============================================================
N/A
