

================================================================
== Vivado HLS Report for 'drop_optional_ip_hea'
================================================================
* Date:           Sat Dec 12 19:41:23 2020

* Version:        2019.2.1 (Build 2724168 on Thu Dec 05 05:19:09 MST 2019)
* Project:        rocev2_prj
* Solution:       solution1
* Product family: virtex7
* Target device:  xc7vx690t-ffg1761-2


================================================================
== Performance Estimates
================================================================
+ Timing: 
    * Summary: 
    +--------+---------+----------+------------+
    |  Clock |  Target | Estimated| Uncertainty|
    +--------+---------+----------+------------+
    |ap_clk  | 6.40 ns | 4.998 ns |   0.80 ns  |
    +--------+---------+----------+------------+

+ Latency: 
    * Summary: 
    +---------+---------+----------+----------+-----+-----+----------+
    |  Latency (cycles) |  Latency (absolute) |  Interval | Pipeline |
    |   min   |   max   |    min   |    max   | min | max |   Type   |
    +---------+---------+----------+----------+-----+-----+----------+
    |        1|        1| 6.400 ns | 6.400 ns |    1|    1| function |
    +---------+---------+----------+----------+-----+-----+----------+

    + Detail: 
        * Instance: 
        N/A

        * Loop: 
        N/A



================================================================
== Utilization Estimates
================================================================
* Summary: 
+-----------------+---------+-------+--------+--------+-----+
|       Name      | BRAM_18K| DSP48E|   FF   |   LUT  | URAM|
+-----------------+---------+-------+--------+--------+-----+
|DSP              |        -|      -|       -|       -|    -|
|Expression       |        -|      -|       0|      78|    -|
|FIFO             |        -|      -|       -|       -|    -|
|Instance         |        -|      -|       -|       -|    -|
|Memory           |        -|      -|       -|       -|    -|
|Multiplexer      |        -|      -|       -|     210|    -|
|Register         |        -|      -|     272|       -|    -|
+-----------------+---------+-------+--------+--------+-----+
|Total            |        0|      0|     272|     288|    0|
+-----------------+---------+-------+--------+--------+-----+
|Available        |     2940|   3600|  866400|  433200|    0|
+-----------------+---------+-------+--------+--------+-----+
|Utilization (%)  |        0|      0|   ~0   |   ~0   |    0|
+-----------------+---------+-------+--------+--------+-----+

+ Detail: 
    * Instance: 
    N/A

    * DSP48E: 
    N/A

    * Memory: 
    N/A

    * FIFO: 
    N/A

    * Expression: 
    +----------------------------------+----------+-------+---+----+------------+------------+
    |           Variable Name          | Operation| DSP48E| FF| LUT| Bitwidth P0| Bitwidth P1|
    +----------------------------------+----------+-------+---+----+------------+------------+
    |add_ln701_fu_289_p2               |     +    |      0|  0|  13|           4|           3|
    |ap_condition_343                  |    and   |      0|  0|   2|           1|           1|
    |ap_condition_517                  |    and   |      0|  0|   2|           1|           1|
    |ap_condition_95                   |    and   |      0|  0|   2|           1|           1|
    |ap_predicate_op107_write_state2   |    and   |      0|  0|   2|           1|           1|
    |ap_predicate_op114_write_state2   |    and   |      0|  0|   2|           1|           1|
    |ap_predicate_op13_read_state1     |    and   |      0|  0|   2|           1|           1|
    |ap_predicate_op23_read_state1     |    and   |      0|  0|   2|           1|           1|
    |ap_predicate_op37_read_state1     |    and   |      0|  0|   2|           1|           1|
    |ap_predicate_op44_read_state1     |    and   |      0|  0|   2|           1|           1|
    |ap_predicate_op66_read_state1     |    and   |      0|  0|   2|           1|           1|
    |ap_predicate_op99_write_state2    |    and   |      0|  0|   2|           1|           1|
    |grp_nbreadreq_fu_116_p5           |    and   |      0|  0|   2|           1|           1|
    |io_acc_block_signal_op107         |    and   |      0|  0|   2|           1|           1|
    |tmp_nbreadreq_fu_138_p3           |    and   |      0|  0|   2|           1|           0|
    |icmp_ln879_8_fu_307_p2            |   icmp   |      0|  0|   9|           4|           1|
    |icmp_ln879_fu_301_p2              |   icmp   |      0|  0|   9|           4|           1|
    |icmp_ln895_fu_341_p2              |   icmp   |      0|  0|   9|           3|           1|
    |ap_block_pp0_stage0_01001         |    or    |      0|  0|   2|           1|           1|
    |ap_block_state1_pp0_stage0_iter0  |    or    |      0|  0|   2|           1|           1|
    |ap_block_state2_pp0_stage0_iter1  |    or    |      0|  0|   2|           1|           1|
    |ap_enable_pp0                     |    xor   |      0|  0|   2|           1|           2|
    |tmp_last_V_36_fu_429_p2           |    xor   |      0|  0|   2|           1|           2|
    +----------------------------------+----------+-------+---+----+------------+------------+
    |Total                             |          |      0|  0|  78|          34|          26|
    +----------------------------------+----------+-------+---+----+------------+------------+

    * Multiplexer: 
    +---------------------------------------+----+-----------+-----+-----------+
    |                  Name                 | LUT| Input Size| Bits| Total Bits|
    +---------------------------------------+----+-----------+-----+-----------+
    |ap_done                                |   9|          2|    1|          2|
    |ap_phi_mux_storemerge_i_phi_fu_169_p4  |  15|          3|    2|          6|
    |doh_state                              |  27|          5|    3|         15|
    |length_V                               |   9|          2|    4|          8|
    |rx_ip2udpFifo_V_data_blk_n             |   9|          2|    1|          2|
    |rx_ip2udpFifo_V_data_din               |  33|          6|   64|        384|
    |rx_ip2udpFifo_V_keep_blk_n             |   9|          2|    1|          2|
    |rx_ip2udpFifo_V_keep_din               |  33|          6|    8|         48|
    |rx_ip2udpFifo_V_last_blk_n             |   9|          2|    1|          2|
    |rx_ip2udpFifo_V_last_din               |  21|          4|    1|          4|
    |rx_process2dropFifo_1_5_blk_n          |   9|          2|    1|          2|
    |rx_process2dropFifo_2_4_blk_n          |   9|          2|    1|          2|
    |rx_process2dropFifo_s_6_blk_n          |   9|          2|    1|          2|
    |rx_process2dropLengt_1_blk_n           |   9|          2|    1|          2|
    +---------------------------------------+----+-----------+-----+-----------+
    |Total                                  | 210|         42|   90|        481|
    +---------------------------------------+----+-----------+-----+-----------+

    * Register: 
    +-------------------------+----+----+-----+-----------+
    |           Name          | FF | LUT| Bits| Const Bits|
    +-------------------------+----+----+-----+-----------+
    |ap_CS_fsm                |   1|   0|    1|          0|
    |ap_done_reg              |   1|   0|    1|          0|
    |ap_enable_reg_pp0_iter1  |   1|   0|    1|          0|
    |doh_state                |   3|   0|    3|          0|
    |doh_state_load_reg_435   |   3|   0|    3|          0|
    |length_V                 |   4|   0|    4|          0|
    |p_Val2_58_reg_445        |   8|   0|    8|          0|
    |p_Val2_s_reg_439         |  64|   0|   64|          0|
    |prevWord_data_V_9        |  64|   0|   64|          0|
    |prevWord_keep_V_9        |   8|   0|    8|          0|
    |tmp_138_reg_488          |   1|   0|    1|          0|
    |tmp_139_reg_465          |   1|   0|    1|          0|
    |tmp_140_reg_451          |   1|   0|    1|          0|
    |tmp_144_reg_483          |   1|   0|    1|          0|
    |tmp_data_V_47_reg_492    |  64|   0|   64|          0|
    |tmp_keep_V_39_reg_497    |   8|   0|    8|          0|
    |tmp_last_V_reg_502       |   1|   0|    1|          0|
    |trunc_ln647_26_reg_478   |   4|   0|    4|          0|
    |trunc_ln647_27_reg_455   |   1|   0|    1|          0|
    |trunc_ln647_28_reg_460   |   1|   0|    1|          0|
    |trunc_ln647_reg_473      |  32|   0|   32|          0|
    +-------------------------+----+----+-----+-----------+
    |Total                    | 272|   0|  272|          0|
    +-------------------------+----+----+-----+-----------+



================================================================
== Interface
================================================================
* Summary: 
+---------------------------------+-----+-----+------------+-------------------------+--------------+
|            RTL Ports            | Dir | Bits|  Protocol  |      Source Object      |    C Type    |
+---------------------------------+-----+-----+------------+-------------------------+--------------+
|ap_clk                           |  in |    1| ap_ctrl_hs |   drop_optional_ip_hea  | return value |
|ap_rst                           |  in |    1| ap_ctrl_hs |   drop_optional_ip_hea  | return value |
|ap_start                         |  in |    1| ap_ctrl_hs |   drop_optional_ip_hea  | return value |
|ap_done                          | out |    1| ap_ctrl_hs |   drop_optional_ip_hea  | return value |
|ap_continue                      |  in |    1| ap_ctrl_hs |   drop_optional_ip_hea  | return value |
|ap_idle                          | out |    1| ap_ctrl_hs |   drop_optional_ip_hea  | return value |
|ap_ready                         | out |    1| ap_ctrl_hs |   drop_optional_ip_hea  | return value |
|rx_process2dropFifo_1_5_dout     |  in |   64|   ap_fifo  | rx_process2dropFifo_1_5 |    pointer   |
|rx_process2dropFifo_1_5_empty_n  |  in |    1|   ap_fifo  | rx_process2dropFifo_1_5 |    pointer   |
|rx_process2dropFifo_1_5_read     | out |    1|   ap_fifo  | rx_process2dropFifo_1_5 |    pointer   |
|rx_process2dropFifo_2_4_dout     |  in |    8|   ap_fifo  | rx_process2dropFifo_2_4 |    pointer   |
|rx_process2dropFifo_2_4_empty_n  |  in |    1|   ap_fifo  | rx_process2dropFifo_2_4 |    pointer   |
|rx_process2dropFifo_2_4_read     | out |    1|   ap_fifo  | rx_process2dropFifo_2_4 |    pointer   |
|rx_process2dropFifo_s_6_dout     |  in |    1|   ap_fifo  | rx_process2dropFifo_s_6 |    pointer   |
|rx_process2dropFifo_s_6_empty_n  |  in |    1|   ap_fifo  | rx_process2dropFifo_s_6 |    pointer   |
|rx_process2dropFifo_s_6_read     | out |    1|   ap_fifo  | rx_process2dropFifo_s_6 |    pointer   |
|rx_process2dropLengt_1_dout      |  in |    4|   ap_fifo  |  rx_process2dropLengt_1 |    pointer   |
|rx_process2dropLengt_1_empty_n   |  in |    1|   ap_fifo  |  rx_process2dropLengt_1 |    pointer   |
|rx_process2dropLengt_1_read      | out |    1|   ap_fifo  |  rx_process2dropLengt_1 |    pointer   |
|rx_ip2udpFifo_V_data_din         | out |   64|   ap_fifo  |   rx_ip2udpFifo_V_data  |    pointer   |
|rx_ip2udpFifo_V_data_full_n      |  in |    1|   ap_fifo  |   rx_ip2udpFifo_V_data  |    pointer   |
|rx_ip2udpFifo_V_data_write       | out |    1|   ap_fifo  |   rx_ip2udpFifo_V_data  |    pointer   |
|rx_ip2udpFifo_V_keep_din         | out |    8|   ap_fifo  |   rx_ip2udpFifo_V_keep  |    pointer   |
|rx_ip2udpFifo_V_keep_full_n      |  in |    1|   ap_fifo  |   rx_ip2udpFifo_V_keep  |    pointer   |
|rx_ip2udpFifo_V_keep_write       | out |    1|   ap_fifo  |   rx_ip2udpFifo_V_keep  |    pointer   |
|rx_ip2udpFifo_V_last_din         | out |    1|   ap_fifo  |   rx_ip2udpFifo_V_last  |    pointer   |
|rx_ip2udpFifo_V_last_full_n      |  in |    1|   ap_fifo  |   rx_ip2udpFifo_V_last  |    pointer   |
|rx_ip2udpFifo_V_last_write       | out |    1|   ap_fifo  |   rx_ip2udpFifo_V_last  |    pointer   |
+---------------------------------+-----+-----+------------+-------------------------+--------------+

