

================================================================
== Vivado HLS Report for 'generate_udp_64_s'
================================================================
* Date:           Sat Dec 12 19:41:25 2020

* Version:        2019.2.1 (Build 2724168 on Thu Dec 05 05:19:09 MST 2019)
* Project:        rocev2_prj
* Solution:       solution1
* Product family: virtex7
* Target device:  xc7vx690t-ffg1761-2


================================================================
== Performance Estimates
================================================================
+ Timing: 
    * Summary: 
    +--------+---------+----------+------------+
    |  Clock |  Target | Estimated| Uncertainty|
    +--------+---------+----------+------------+
    |ap_clk  | 6.40 ns | 6.807 ns |   0.80 ns  |
    +--------+---------+----------+------------+

+ Latency: 
    * Summary: 
    +---------+---------+-----------+-----------+-----+-----+----------+
    |  Latency (cycles) |   Latency (absolute)  |  Interval | Pipeline |
    |   min   |   max   |    min    |    max    | min | max |   Type   |
    +---------+---------+-----------+-----------+-----+-----+----------+
    |        2|        2| 13.615 ns | 13.615 ns |    1|    1| function |
    +---------+---------+-----------+-----------+-----+-----+----------+

    + Detail: 
        * Instance: 
        N/A

        * Loop: 
        N/A



================================================================
== Utilization Estimates
================================================================
* Summary: 
+-----------------+---------+-------+--------+--------+-----+
|       Name      | BRAM_18K| DSP48E|   FF   |   LUT  | URAM|
+-----------------+---------+-------+--------+--------+-----+
|DSP              |        -|      -|       -|       -|    -|
|Expression       |        -|      -|       0|    2275|    -|
|FIFO             |        -|      -|       -|       -|    -|
|Instance         |        -|      -|       -|       -|    -|
|Memory           |        -|      -|       -|       -|    -|
|Multiplexer      |        -|      -|       -|     192|    -|
|Register         |        -|      -|     727|       -|    -|
+-----------------+---------+-------+--------+--------+-----+
|Total            |        0|      0|     727|    2467|    0|
+-----------------+---------+-------+--------+--------+-----+
|Available        |     2940|   3600|  866400|  433200|    0|
+-----------------+---------+-------+--------+--------+-----+
|Utilization (%)  |        0|      0|   ~0   |   ~0   |    0|
+-----------------+---------+-------+--------+--------+-----+

+ Detail: 
    * Instance: 
    N/A

    * DSP48E: 
    N/A

    * Memory: 
    N/A

    * FIFO: 
    N/A

    * Expression: 
    +----------------------------------+----------+-------+---+-----+------------+------------+
    |           Variable Name          | Operation| DSP48E| FF| LUT | Bitwidth P0| Bitwidth P1|
    +----------------------------------+----------+-------+---+-----+------------+------------+
    |add_ln647_fu_398_p2               |     +    |      0|  0|   15|           7|           7|
    |add_ln76_2_fu_266_p2              |     +    |      0|  0|   30|          23|           7|
    |add_ln76_fu_526_p2                |     +    |      0|  0|   30|          23|           7|
    |grp_fu_211_p2                     |     +    |      0|  0|   23|          16|           1|
    |sub_ln647_14_fu_318_p2            |     -    |      0|  0|   15|           6|           7|
    |sub_ln647_15_fu_324_p2            |     -    |      0|  0|   15|           7|           7|
    |sub_ln647_16_fu_354_p2            |     -    |      0|  0|   15|           6|           7|
    |sub_ln647_17_fu_404_p2            |     -    |      0|  0|   15|           6|           7|
    |sub_ln647_18_fu_410_p2            |     -    |      0|  0|   15|           6|           7|
    |sub_ln647_19_fu_440_p2            |     -    |      0|  0|   15|           6|           7|
    |sub_ln647_fu_312_p2               |     -    |      0|  0|   15|           7|           7|
    |sub_ln80_3_fu_570_p2              |     -    |      0|  0|   30|           1|          23|
    |sub_ln80_4_fu_586_p2              |     -    |      0|  0|   15|           1|           8|
    |sub_ln80_fu_556_p2                |     -    |      0|  0|   30|           7|          23|
    |sub_ln82_1_fu_848_p2              |     -    |      0|  0|   15|           6|           7|
    |sub_ln82_2_fu_854_p2              |     -    |      0|  0|   15|           7|           7|
    |sub_ln82_3_fu_880_p2              |     -    |      0|  0|   15|           6|           7|
    |sub_ln82_fu_843_p2                |     -    |      0|  0|   15|           7|           7|
    |and_ln82_2_fu_462_p2              |    and   |      0|  0|    2|           1|           1|
    |and_ln82_fu_598_p2                |    and   |      0|  0|    2|           1|           1|
    |ap_condition_155                  |    and   |      0|  0|    2|           1|           1|
    |ap_condition_280                  |    and   |      0|  0|    2|           1|           1|
    |ap_predicate_op138_write_state3   |    and   |      0|  0|    2|           1|           1|
    |ap_predicate_op14_read_state1     |    and   |      0|  0|    2|           1|           1|
    |ap_predicate_op152_write_state3   |    and   |      0|  0|    2|           1|           1|
    |ap_predicate_op8_read_state1      |    and   |      0|  0|    2|           1|           1|
    |ap_predicate_op93_read_state1     |    and   |      0|  0|    2|           1|           1|
    |grp_nbreadreq_fu_136_p5           |    and   |      0|  0|    2|           1|           1|
    |io_acc_block_signal_op138         |    and   |      0|  0|    2|           1|           1|
    |io_acc_block_signal_op93          |    and   |      0|  0|    2|           1|           1|
    |p_Result_37_fu_922_p2             |    and   |      0|  0|   64|          64|          64|
    |p_Result_40_fu_908_p2             |    and   |      0|  0|   64|          64|          64|
    |ret_V_7_fu_951_p2                 |    and   |      0|  0|   64|          64|          64|
    |grp_fu_216_p2                     |   icmp   |      0|  0|   13|          16|           1|
    |icmp_ln647_4_fu_374_p2            |   icmp   |      0|  0|   18|          26|           1|
    |icmp_ln647_fu_284_p2              |   icmp   |      0|  0|   18|          22|          22|
    |icmp_ln76_2_fu_272_p2             |   icmp   |      0|  0|   18|          23|           7|
    |icmp_ln76_fu_532_p2               |   icmp   |      0|  0|   18|          23|           7|
    |icmp_ln82_3_fu_628_p2             |   icmp   |      0|  0|   18|          22|          22|
    |icmp_ln887_fu_672_p2              |   icmp   |      0|  0|   11|           5|           1|
    |lshr_ln647_10_fu_916_p2           |   lshr   |      0|  0|  182|           2|          64|
    |lshr_ln647_8_fu_902_p2            |   lshr   |      0|  0|  182|           2|          64|
    |lshr_ln647_9_fu_450_p2            |   lshr   |      0|  0|  182|          64|          64|
    |lshr_ln647_fu_364_p2              |   lshr   |      0|  0|  182|          64|          64|
    |lshr_ln82_1_fu_945_p2             |   lshr   |      0|  0|  182|           2|          64|
    |lshr_ln82_fu_890_p2               |   lshr   |      0|  0|  182|          64|          64|
    |ap_block_pp0_stage0_01001         |    or    |      0|  0|    2|           1|           1|
    |ap_block_state1_pp0_stage0_iter0  |    or    |      0|  0|    2|           1|           1|
    |ap_block_state3_pp0_stage0_iter2  |    or    |      0|  0|    2|           1|           1|
    |or_ln78_2_fu_278_p2               |    or    |      0|  0|   22|           6|          22|
    |or_ln78_fu_538_p2                 |    or    |      0|  0|   22|           6|          22|
    |or_ln887_fu_678_p2                |    or    |      0|  0|    2|           1|           1|
    |ret_V_5_fu_927_p3                 |  select  |      0|  0|   64|           1|          64|
    |ret_V_fu_934_p3                   |  select  |      0|  0|   64|           1|          64|
    |select_ln132_fu_496_p3            |  select  |      0|  0|    2|           1|           2|
    |select_ln647_12_fu_338_p3         |  select  |      0|  0|   64|           1|          64|
    |select_ln647_13_fu_346_p3         |  select  |      0|  0|    7|           1|           7|
    |select_ln647_14_fu_416_p3         |  select  |      0|  0|    7|           1|           7|
    |select_ln647_15_fu_424_p3         |  select  |      0|  0|   64|           1|          64|
    |select_ln647_16_fu_432_p3         |  select  |      0|  0|    7|           1|           7|
    |select_ln647_fu_330_p3            |  select  |      0|  0|    7|           1|           7|
    |select_ln76_3_fu_468_p3           |  select  |      0|  0|   16|           1|          16|
    |select_ln76_fu_604_p3             |  select  |      0|  0|   16|           1|          16|
    |select_ln80_fu_664_p3             |  select  |      0|  0|    5|           1|           5|
    |select_ln82_4_fu_620_p3           |  select  |      0|  0|   22|           1|           6|
    |select_ln82_5_fu_476_p3           |  select  |      0|  0|   16|           1|          16|
    |select_ln82_6_fu_859_p3           |  select  |      0|  0|    7|           1|           7|
    |select_ln82_7_fu_866_p3           |  select  |      0|  0|   64|           1|          64|
    |select_ln82_8_fu_873_p3           |  select  |      0|  0|    7|           1|           7|
    |select_ln82_fu_612_p3             |  select  |      0|  0|   16|           1|          16|
    |ap_enable_pp0                     |    xor   |      0|  0|    2|           1|           2|
    |xor_ln132_fu_490_p2               |    xor   |      0|  0|    2|           1|           2|
    |xor_ln76_2_fu_456_p2              |    xor   |      0|  0|    2|           1|           2|
    |xor_ln76_fu_592_p2                |    xor   |      0|  0|    2|           1|           2|
    +----------------------------------+----------+-------+---+-----+------------+------------+
    |Total                             |          |      0|  0| 2275|         725|        1297|
    +----------------------------------+----------+-------+---+-----+------------+------------+

    * Multiplexer: 
    +-----------------------------+----+-----------+-----+-----------+
    |             Name            | LUT| Input Size| Bits| Total Bits|
    +-----------------------------+----+-----------+-----+-----------+
    |ap_done                      |   9|          2|    1|          2|
    |header_idx_4                 |  15|          3|   16|         48|
    |state_4                      |  21|          4|    2|          8|
    |tx_shift2udpFifo_V_d_blk_n   |   9|          2|    1|          2|
    |tx_shift2udpFifo_V_k_blk_n   |   9|          2|    1|          2|
    |tx_shift2udpFifo_V_l_blk_n   |   9|          2|    1|          2|
    |tx_udp2ipFifo_V_data_blk_n   |   9|          2|    1|          2|
    |tx_udp2ipFifo_V_data_din     |  21|          4|   64|        256|
    |tx_udp2ipFifo_V_keep_blk_n   |   9|          2|    1|          2|
    |tx_udp2ipFifo_V_keep_din     |  15|          3|    8|         24|
    |tx_udp2ipFifo_V_last_blk_n   |   9|          2|    1|          2|
    |tx_udp2ipFifo_V_last_din     |  21|          4|    1|          4|
    |tx_udpMetaFifo_V_len_blk_n   |   9|          2|    1|          2|
    |tx_udpMetaFifo_V_my_s_blk_n  |   9|          2|    1|          2|
    |tx_udpMetaFifo_V_the_blk_n   |   9|          2|    1|          2|
    |tx_udpMetaFifo_V_val_blk_n   |   9|          2|    1|          2|
    +-----------------------------+----+-----------+-----+-----------+
    |Total                        | 192|         40|  102|        362|
    +-----------------------------+----+-----------+-----+-----------+

    * Register: 
    +-------------------------------------+----+----+-----+-----------+
    |                 Name                | FF | LUT| Bits| Const Bits|
    +-------------------------------------+----+----+-----+-----------+
    |and_ln82_2_reg_1014                  |   1|   0|    1|          0|
    |and_ln82_2_reg_1014_pp0_iter1_reg    |   1|   0|    1|          0|
    |ap_CS_fsm                            |   1|   0|    1|          0|
    |ap_done_reg                          |   1|   0|    1|          0|
    |ap_enable_reg_pp0_iter1              |   1|   0|    1|          0|
    |ap_enable_reg_pp0_iter2              |   1|   0|    1|          0|
    |empty_411_reg_979_0                  |  64|   0|   64|          0|
    |empty_411_reg_979_pp0_iter1_reg_0    |  64|   0|   64|          0|
    |header_header_V_5                    |  64|   0|   64|          0|
    |header_idx_4                         |  16|   0|   16|          0|
    |icmp_ln76_2_reg_989                  |   1|   0|    1|          0|
    |icmp_ln76_2_reg_989_pp0_iter1_reg    |   1|   0|    1|          0|
    |icmp_ln82_3_reg_1024                 |   1|   0|    1|          0|
    |lshr_ln647_9_reg_1009                |  64|   0|   64|          0|
    |lshr_ln647_9_reg_1009_pp0_iter1_reg  |  64|   0|   64|          0|
    |lshr_ln647_reg_999                   |  64|   0|   64|          0|
    |lshr_ln647_reg_999_pp0_iter1_reg     |  64|   0|   64|          0|
    |lshr_ln82_reg_1050                   |  64|   0|   64|          0|
    |reg_221                              |   8|   0|    8|          0|
    |reg_221_pp0_iter1_reg                |   8|   0|    8|          0|
    |state_4                              |   2|   0|    2|          0|
    |state_4_load_reg_957                 |   2|   0|    2|          0|
    |state_4_load_reg_957_pp0_iter1_reg   |   2|   0|    2|          0|
    |sub_ln647_16_reg_994                 |   6|   0|    7|          1|
    |sub_ln647_16_reg_994_pp0_iter1_reg   |   6|   0|    7|          1|
    |sub_ln647_19_reg_1004                |   6|   0|    7|          1|
    |sub_ln647_19_reg_1004_pp0_iter1_reg  |   6|   0|    7|          1|
    |sub_ln82_3_reg_1045                  |   6|   0|    7|          1|
    |tmp_93_reg_975                       |   1|   0|    1|          0|
    |tmp_93_reg_975_pp0_iter1_reg         |   1|   0|    1|          0|
    |tmp_94_reg_961                       |   1|   0|    1|          0|
    |tmp_94_reg_961_pp0_iter1_reg         |   1|   0|    1|          0|
    |tmp_data_V_34_reg_965                |  64|   0|   64|          0|
    |tmp_data_V_34_reg_965_pp0_iter1_reg  |  64|   0|   64|          0|
    |tmp_last_V_28_reg_970                |   1|   0|    1|          0|
    |tmp_last_V_28_reg_970_pp0_iter1_reg  |   1|   0|    1|          0|
    |tmp_last_V_reg_984                   |   1|   0|    1|          0|
    |tmp_last_V_reg_984_pp0_iter1_reg     |   1|   0|    1|          0|
    |trunc_ln76_reg_1019                  |   1|   0|    1|          0|
    |trunc_ln82_reg_1031                  |   1|   0|    7|          6|
    +-------------------------------------+----+----+-----+-----------+
    |Total                                | 727|   0|  738|         11|
    +-------------------------------------+----+----+-----+-----------+



================================================================
== Interface
================================================================
* Summary: 
+-------------------------------+-----+-----+------------+-----------------------+--------------+
|           RTL Ports           | Dir | Bits|  Protocol  |     Source Object     |    C Type    |
+-------------------------------+-----+-----+------------+-----------------------+--------------+
|ap_clk                         |  in |    1| ap_ctrl_hs |    generate_udp<64>   | return value |
|ap_rst                         |  in |    1| ap_ctrl_hs |    generate_udp<64>   | return value |
|ap_start                       |  in |    1| ap_ctrl_hs |    generate_udp<64>   | return value |
|ap_done                        | out |    1| ap_ctrl_hs |    generate_udp<64>   | return value |
|ap_continue                    |  in |    1| ap_ctrl_hs |    generate_udp<64>   | return value |
|ap_idle                        | out |    1| ap_ctrl_hs |    generate_udp<64>   | return value |
|ap_ready                       | out |    1| ap_ctrl_hs |    generate_udp<64>   | return value |
|tx_shift2udpFifo_V_d_dout      |  in |   64|   ap_fifo  |  tx_shift2udpFifo_V_d |    pointer   |
|tx_shift2udpFifo_V_d_empty_n   |  in |    1|   ap_fifo  |  tx_shift2udpFifo_V_d |    pointer   |
|tx_shift2udpFifo_V_d_read      | out |    1|   ap_fifo  |  tx_shift2udpFifo_V_d |    pointer   |
|tx_shift2udpFifo_V_k_dout      |  in |    8|   ap_fifo  |  tx_shift2udpFifo_V_k |    pointer   |
|tx_shift2udpFifo_V_k_empty_n   |  in |    1|   ap_fifo  |  tx_shift2udpFifo_V_k |    pointer   |
|tx_shift2udpFifo_V_k_read      | out |    1|   ap_fifo  |  tx_shift2udpFifo_V_k |    pointer   |
|tx_shift2udpFifo_V_l_dout      |  in |    1|   ap_fifo  |  tx_shift2udpFifo_V_l |    pointer   |
|tx_shift2udpFifo_V_l_empty_n   |  in |    1|   ap_fifo  |  tx_shift2udpFifo_V_l |    pointer   |
|tx_shift2udpFifo_V_l_read      | out |    1|   ap_fifo  |  tx_shift2udpFifo_V_l |    pointer   |
|tx_udpMetaFifo_V_the_dout      |  in |   16|   ap_fifo  |  tx_udpMetaFifo_V_the |    pointer   |
|tx_udpMetaFifo_V_the_empty_n   |  in |    1|   ap_fifo  |  tx_udpMetaFifo_V_the |    pointer   |
|tx_udpMetaFifo_V_the_read      | out |    1|   ap_fifo  |  tx_udpMetaFifo_V_the |    pointer   |
|tx_udpMetaFifo_V_my_s_dout     |  in |   16|   ap_fifo  | tx_udpMetaFifo_V_my_s |    pointer   |
|tx_udpMetaFifo_V_my_s_empty_n  |  in |    1|   ap_fifo  | tx_udpMetaFifo_V_my_s |    pointer   |
|tx_udpMetaFifo_V_my_s_read     | out |    1|   ap_fifo  | tx_udpMetaFifo_V_my_s |    pointer   |
|tx_udpMetaFifo_V_len_dout      |  in |   16|   ap_fifo  |  tx_udpMetaFifo_V_len |    pointer   |
|tx_udpMetaFifo_V_len_empty_n   |  in |    1|   ap_fifo  |  tx_udpMetaFifo_V_len |    pointer   |
|tx_udpMetaFifo_V_len_read      | out |    1|   ap_fifo  |  tx_udpMetaFifo_V_len |    pointer   |
|tx_udpMetaFifo_V_val_dout      |  in |    1|   ap_fifo  |  tx_udpMetaFifo_V_val |    pointer   |
|tx_udpMetaFifo_V_val_empty_n   |  in |    1|   ap_fifo  |  tx_udpMetaFifo_V_val |    pointer   |
|tx_udpMetaFifo_V_val_read      | out |    1|   ap_fifo  |  tx_udpMetaFifo_V_val |    pointer   |
|tx_udp2ipFifo_V_data_din       | out |   64|   ap_fifo  |  tx_udp2ipFifo_V_data |    pointer   |
|tx_udp2ipFifo_V_data_full_n    |  in |    1|   ap_fifo  |  tx_udp2ipFifo_V_data |    pointer   |
|tx_udp2ipFifo_V_data_write     | out |    1|   ap_fifo  |  tx_udp2ipFifo_V_data |    pointer   |
|tx_udp2ipFifo_V_keep_din       | out |    8|   ap_fifo  |  tx_udp2ipFifo_V_keep |    pointer   |
|tx_udp2ipFifo_V_keep_full_n    |  in |    1|   ap_fifo  |  tx_udp2ipFifo_V_keep |    pointer   |
|tx_udp2ipFifo_V_keep_write     | out |    1|   ap_fifo  |  tx_udp2ipFifo_V_keep |    pointer   |
|tx_udp2ipFifo_V_last_din       | out |    1|   ap_fifo  |  tx_udp2ipFifo_V_last |    pointer   |
|tx_udp2ipFifo_V_last_full_n    |  in |    1|   ap_fifo  |  tx_udp2ipFifo_V_last |    pointer   |
|tx_udp2ipFifo_V_last_write     | out |    1|   ap_fifo  |  tx_udp2ipFifo_V_last |    pointer   |
+-------------------------------+-----+-----+------------+-----------------------+--------------+

