

================================================================
== Vivado HLS Report for 'merge_rx_meta'
================================================================
* Date:           Fri Dec 18 10:42:47 2020

* Version:        2019.1 (Build 2552052 on Fri May 24 15:28:33 MDT 2019)
* Project:        udp_prj
* Solution:       solution1
* Product family: zynq
* Target device:  xc7z020-clg400-1


================================================================
== Performance Estimates
================================================================
+ Timing (ns): 
    * Summary: 
    +--------+-------+----------+------------+
    |  Clock | Target| Estimated| Uncertainty|
    +--------+-------+----------+------------+
    |ap_clk  |   6.40|     2.800|        0.80|
    +--------+-------+----------+------------+

+ Latency (clock cycles): 
    * Summary: 
    +-----+-----+-----+-----+----------+
    |  Latency  |  Interval | Pipeline |
    | min | max | min | max |   Type   |
    +-----+-----+-----+-----+----------+
    |    2|    2|    1|    1| function |
    +-----+-----+-----+-----+----------+

    + Detail: 
        * Instance: 
        N/A

        * Loop: 
        N/A

============================================================
+ Verbose Summary: Synthesis Manager
============================================================
InlineROM: 1
ExposeGlobal: 0
============================================================
+ Verbose Summary: CDFG Model
============================================================
IsTopModel: 0
ResetActiveHigh: 1
IsCombinational: 2
IsDatapathOnly: 0
HasWiredReturn: 1
HasMFsm: 2
HasVarLatency: 0
IsPipeline: 1
IsRtlPipelined: 1
IsInstanceOverlapped: 0
IsDontTouch: 0
HasImplIP: 0
IsGatedGlobalClock: 0

+ Individual pipeline summary: 
  * Pipeline-0: initiation interval (II) = 1, depth = 3


============================================================
+ Verbose Summary: Schedule
============================================================
* Number of FSM states : 3
* Pipeline : 1
  Pipeline-0 : II = 1, D = 3, States = { 1 2 3 }
* Dataflow Pipeline: 0

* FSM state transitions: 
1 --> 2 
2 --> 3 
3 --> 

* FSM state operations: 

State 1 <SV = 0> <Delay = 2.80>
ST_1 : Operation 4 [1/1] (0.00ns)   --->   "%tmp = call i1 @_ssdm_op_NbReadReq.axis.i48P(i48* %ipMetaIn_V, i32 1)" [/home/paulrr2/Projects/ece527/babelsoc/fpga-network-stack/hls/udp/udp.cpp:187]   --->   Operation 4 'nbreadreq' 'tmp' <Predicate = true> <Delay = 0.00> <Core = "AXI4Stream">   --->   Core 5 'AXI4Stream' <Latency = 0> <II = 1> <Delay = 1.00> <Adapter> <Opcode : >
ST_1 : Operation 5 [1/1] (0.00ns)   --->   "br i1 %tmp, label %0, label %merge_rx_meta.exit" [/home/paulrr2/Projects/ece527/babelsoc/fpga-network-stack/hls/udp/udp.cpp:187]   --->   Operation 5 'br' <Predicate = true> <Delay = 0.00>
ST_1 : Operation 6 [1/1] (0.00ns)   --->   "%tmp_3 = call i1 @_ssdm_op_NbReadReq.ap_fifo.i49P(i49* @rx_udpMetaFifo_V, i32 1)" [/home/paulrr2/Projects/ece527/babelsoc/fpga-network-stack/hls/udp/udp.cpp:187]   --->   Operation 6 'nbreadreq' 'tmp_3' <Predicate = (tmp)> <Delay = 0.00> <Core = "FIFO">   --->   Core 32 'FIFO' <Latency = 0> <II = 1> <Delay = 3.63> <Storage> <Opcode : 'read' 'write' 'nbread' 'nbwrite'> <Ports = 0> <Width = 49> <Depth = 2> <FIFO>
ST_1 : Operation 7 [1/1] (0.00ns)   --->   "br i1 %tmp_3, label %1, label %merge_rx_meta.exit" [/home/paulrr2/Projects/ece527/babelsoc/fpga-network-stack/hls/udp/udp.cpp:187]   --->   Operation 7 'br' <Predicate = (tmp)> <Delay = 0.00>
ST_1 : Operation 8 [1/1] (0.00ns)   --->   "%tmp34 = call i48 @_ssdm_op_Read.axis.volatile.i48P(i48* %ipMetaIn_V)" [/home/paulrr2/Projects/ece527/babelsoc/fpga-network-stack/hls/udp/udp.cpp:189]   --->   Operation 8 'read' 'tmp34' <Predicate = (tmp & tmp_3)> <Delay = 0.00> <Core = "AXI4Stream">   --->   Core 5 'AXI4Stream' <Latency = 0> <II = 1> <Delay = 1.00> <Adapter> <Opcode : >
ST_1 : Operation 9 [1/1] (0.00ns)   --->   "%trunc_ln321 = trunc i48 %tmp34 to i32" [/home/paulrr2/Projects/ece527/babelsoc/fpga-network-stack/hls/udp/../ipv4/ipv4.hpp:34->/home/paulrr2/Projects/ece527/babelsoc/fpga-network-stack/hls/udp/udp.cpp:189]   --->   Operation 9 'trunc' 'trunc_ln321' <Predicate = (tmp & tmp_3)> <Delay = 0.00>
ST_1 : Operation 10 [1/1] (2.80ns)   --->   "%tmp_1 = call i49 @_ssdm_op_Read.ap_fifo.volatile.i49P(i49* @rx_udpMetaFifo_V)" [/home/paulrr2/Projects/ece527/babelsoc/fpga-network-stack/hls/udp/udp.cpp:190]   --->   Operation 10 'read' 'tmp_1' <Predicate = (tmp & tmp_3)> <Delay = 2.80> <Core = "FIFO">   --->   Core 32 'FIFO' <Latency = 0> <II = 1> <Delay = 3.63> <Storage> <Opcode : 'read' 'write' 'nbread' 'nbwrite'> <Ports = 0> <Width = 49> <Depth = 2> <FIFO>
ST_1 : Operation 11 [1/1] (0.00ns)   --->   "%tmp_4 = call i1 @_ssdm_op_BitSelect.i1.i49.i32(i49 %tmp_1, i32 48)" [/home/paulrr2/Projects/ece527/babelsoc/fpga-network-stack/hls/udp/udp.hpp:57->/home/paulrr2/Projects/ece527/babelsoc/fpga-network-stack/hls/udp/udp.cpp:190]   --->   Operation 11 'bitselect' 'tmp_4' <Predicate = (tmp & tmp_3)> <Delay = 0.00>
ST_1 : Operation 12 [1/1] (0.00ns)   --->   "br i1 %tmp_4, label %2, label %._crit_edge2.i" [/home/paulrr2/Projects/ece527/babelsoc/fpga-network-stack/hls/udp/udp.cpp:191]   --->   Operation 12 'br' <Predicate = (tmp & tmp_3)> <Delay = 0.00>
ST_1 : Operation 13 [1/1] (0.00ns)   --->   "%trunc_ln162 = trunc i49 %tmp_1 to i48" [/home/paulrr2/Projects/ece527/babelsoc/fpga-network-stack/hls/udp/udp.cpp:193]   --->   Operation 13 'trunc' 'trunc_ln162' <Predicate = (tmp & tmp_3 & tmp_4)> <Delay = 0.00>

State 2 <SV = 1> <Delay = 0.00>
ST_2 : Operation 14 [1/1] (0.00ns)   --->   "%tmp_their_address_V = zext i32 %trunc_ln321 to i128" [/home/paulrr2/Projects/ece527/babelsoc/fpga-network-stack/hls/udp/udp.cpp:193]   --->   Operation 14 'zext' 'tmp_their_address_V' <Predicate = (tmp & tmp_3 & tmp_4)> <Delay = 0.00>
ST_2 : Operation 15 [1/1] (0.00ns)   --->   "%tmp_28 = call i176 @_ssdm_op_BitConcatenate.i176.i48.i128(i48 %trunc_ln162, i128 %tmp_their_address_V)" [/home/paulrr2/Projects/ece527/babelsoc/fpga-network-stack/hls/udp/udp.cpp:193]   --->   Operation 15 'bitconcatenate' 'tmp_28' <Predicate = (tmp & tmp_3 & tmp_4)> <Delay = 0.00>
ST_2 : Operation 16 [2/2] (0.00ns)   --->   "call void @_ssdm_op_Write.axis.volatile.i176P(i176* %metaOut_V, i176 %tmp_28)" [/home/paulrr2/Projects/ece527/babelsoc/fpga-network-stack/hls/udp/udp.cpp:193]   --->   Operation 16 'write' <Predicate = (tmp & tmp_3 & tmp_4)> <Delay = 0.00> <Core = "AXI4Stream">   --->   Core 5 'AXI4Stream' <Latency = 0> <II = 1> <Delay = 1.00> <Adapter> <Opcode : >

State 3 <SV = 2> <Delay = 0.00>
ST_3 : Operation 17 [1/1] (0.00ns)   --->   "call void (...)* @_ssdm_op_SpecInterface(i49* @rx_udpMetaFifo_V, [8 x i8]* @ap_fifo_str, i32 0, i32 0, [1 x i8]* @p_str, i32 0, i32 0, [1 x i8]* @p_str, [1 x i8]* @p_str, [1 x i8]* @p_str, i32 2, i32 2, i32 16, i32 16, [1 x i8]* @p_str, [1 x i8]* @p_str)"   --->   Operation 17 'specinterface' <Predicate = true> <Delay = 0.00>
ST_3 : Operation 18 [1/1] (0.00ns)   --->   "call void (...)* @_ssdm_op_SpecInterface(i176* %metaOut_V, [5 x i8]* @p_str2, i32 1, i32 1, [5 x i8]* @p_str3, i32 0, i32 0, [1 x i8]* @p_str, [1 x i8]* @p_str, [1 x i8]* @p_str, i32 0, i32 0, i32 0, i32 0, [1 x i8]* @p_str, [1 x i8]* @p_str) nounwind"   --->   Operation 18 'specinterface' <Predicate = true> <Delay = 0.00>
ST_3 : Operation 19 [1/1] (0.00ns)   --->   "call void (...)* @_ssdm_op_SpecInterface(i48* %ipMetaIn_V, [5 x i8]* @p_str2, i32 1, i32 1, [5 x i8]* @p_str3, i32 0, i32 0, [1 x i8]* @p_str, [1 x i8]* @p_str, [1 x i8]* @p_str, i32 0, i32 0, i32 0, i32 0, [1 x i8]* @p_str, [1 x i8]* @p_str) nounwind"   --->   Operation 19 'specinterface' <Predicate = true> <Delay = 0.00>
ST_3 : Operation 20 [1/1] (0.00ns)   --->   "call void (...)* @_ssdm_op_SpecPipeline(i32 1, i32 1, i32 1, i32 0, [1 x i8]* @p_str) nounwind" [/home/paulrr2/Projects/ece527/babelsoc/fpga-network-stack/hls/udp/udp.cpp:181]   --->   Operation 20 'specpipeline' <Predicate = true> <Delay = 0.00>
ST_3 : Operation 21 [1/2] (0.00ns)   --->   "call void @_ssdm_op_Write.axis.volatile.i176P(i176* %metaOut_V, i176 %tmp_28)" [/home/paulrr2/Projects/ece527/babelsoc/fpga-network-stack/hls/udp/udp.cpp:193]   --->   Operation 21 'write' <Predicate = (tmp & tmp_3 & tmp_4)> <Delay = 0.00> <Core = "AXI4Stream">   --->   Core 5 'AXI4Stream' <Latency = 0> <II = 1> <Delay = 1.00> <Adapter> <Opcode : >
ST_3 : Operation 22 [1/1] (0.00ns)   --->   "br label %._crit_edge2.i" [/home/paulrr2/Projects/ece527/babelsoc/fpga-network-stack/hls/udp/udp.cpp:194]   --->   Operation 22 'br' <Predicate = (tmp & tmp_3 & tmp_4)> <Delay = 0.00>
ST_3 : Operation 23 [1/1] (0.00ns)   --->   "br label %merge_rx_meta.exit" [/home/paulrr2/Projects/ece527/babelsoc/fpga-network-stack/hls/udp/udp.cpp:195]   --->   Operation 23 'br' <Predicate = (tmp & tmp_3)> <Delay = 0.00>
ST_3 : Operation 24 [1/1] (0.00ns)   --->   "ret void"   --->   Operation 24 'ret' <Predicate = true> <Delay = 0.00>


============================================================
+ Verbose Summary: Binding
============================================================
STG Binding: 
---------------- STG Properties BEGIN ----------------
- Is combinational: 0
- Is one-state seq: 0
- Is datapath-only: 0
- Is pipelined: 1
- Is top level: 0
Port [ Return ] is wired: 1; IO mode=ap_ctrl_hs:ce=0
Port [ ipMetaIn_V]:  wired=1; compound=1; hidden=0; nouse=0; global=0; static=0; extern=0; dir=0; type=0; pingpong=0; private_global=0; IO mode=axis:ce=0
Port [ metaOut_V]:  wired=1; compound=1; hidden=0; nouse=0; global=0; static=0; extern=0; dir=1; type=0; pingpong=0; private_global=0; IO mode=axis:ce=0
Port [ rx_udpMetaFifo_V]:  wired=1; compound=1; hidden=0; nouse=0; global=1; static=1; extern=0; dir=0; type=3; pingpong=0; private_global=0; linkage=7; visibility=0; IO mode=ap_fifo:ce=0
---------------- STG Properties END ------------------

---------------- Datapath Model BEGIN ----------------

<LifeTime>
<method=bitvector/>
tmp                 (nbreadreq     ) [ 0111]
br_ln187            (br            ) [ 0000]
tmp_3               (nbreadreq     ) [ 0111]
br_ln187            (br            ) [ 0000]
tmp34               (read          ) [ 0000]
trunc_ln321         (trunc         ) [ 0110]
tmp_1               (read          ) [ 0000]
tmp_4               (bitselect     ) [ 0111]
br_ln191            (br            ) [ 0000]
trunc_ln162         (trunc         ) [ 0110]
tmp_their_address_V (zext          ) [ 0000]
tmp_28              (bitconcatenate) [ 0101]
specinterface_ln0   (specinterface ) [ 0000]
specinterface_ln0   (specinterface ) [ 0000]
specinterface_ln0   (specinterface ) [ 0000]
specpipeline_ln181  (specpipeline  ) [ 0000]
write_ln193         (write         ) [ 0000]
br_ln194            (br            ) [ 0000]
br_ln195            (br            ) [ 0000]
ret_ln0             (ret           ) [ 0000]
</LifeTime>

<model>

<comp_list>
<comp id="0" class="1000" name="ipMetaIn_V">
<pin_list>
<pin id="1" dir="1" index="0" bw="1" slack="0"/>
</pin_list>
<bind>
<StgValue><ssdm name="ipMetaIn_V"/></StgValue>
</bind>
</comp>

<comp id="2" class="1000" name="metaOut_V">
<pin_list>
<pin id="3" dir="1" index="0" bw="1" slack="0"/>
</pin_list>
<bind>
<StgValue><ssdm name="metaOut_V"/></StgValue>
</bind>
</comp>

<comp id="4" class="1000" name="rx_udpMetaFifo_V">
<pin_list>
<pin id="5" dir="1" index="0" bw="1" slack="0"/>
</pin_list>
<bind>
<StgValue><ssdm name="rx_udpMetaFifo_V"/></StgValue>
</bind>
</comp>

<comp id="6" class="1001" name="const_6">
<pin_list>
<pin id="7" dir="1" index="0" bw="1" slack="0"/>
</pin_list>
<bind>
<StgValue><ssdm name="_ssdm_op_NbReadReq.axis.i48P"/></StgValue>
</bind>
</comp>

<comp id="8" class="1001" name="const_8">
<pin_list>
<pin id="9" dir="1" index="0" bw="1" slack="0"/>
</pin_list>
<bind>
<StgValue><ssdm name=""/></StgValue>
</bind>
</comp>

<comp id="10" class="1001" name="const_10">
<pin_list>
<pin id="11" dir="1" index="0" bw="1" slack="0"/>
</pin_list>
<bind>
<StgValue><ssdm name="_ssdm_op_NbReadReq.ap_fifo.i49P"/></StgValue>
</bind>
</comp>

<comp id="12" class="1001" name="const_12">
<pin_list>
<pin id="13" dir="1" index="0" bw="1" slack="0"/>
</pin_list>
<bind>
<StgValue><ssdm name="_ssdm_op_Read.axis.volatile.i48P"/></StgValue>
</bind>
</comp>

<comp id="14" class="1001" name="const_14">
<pin_list>
<pin id="15" dir="1" index="0" bw="1" slack="0"/>
</pin_list>
<bind>
<StgValue><ssdm name="_ssdm_op_Read.ap_fifo.volatile.i49P"/></StgValue>
</bind>
</comp>

<comp id="16" class="1001" name="const_16">
<pin_list>
<pin id="17" dir="1" index="0" bw="1" slack="0"/>
</pin_list>
<bind>
<StgValue><ssdm name="_ssdm_op_BitSelect.i1.i49.i32"/></StgValue>
</bind>
</comp>

<comp id="18" class="1001" name="const_18">
<pin_list>
<pin id="19" dir="1" index="0" bw="1" slack="0"/>
</pin_list>
<bind>
<StgValue><ssdm name=""/></StgValue>
</bind>
</comp>

<comp id="20" class="1001" name="const_20">
<pin_list>
<pin id="21" dir="1" index="0" bw="1" slack="0"/>
</pin_list>
<bind>
<StgValue><ssdm name="_ssdm_op_BitConcatenate.i176.i48.i128"/></StgValue>
</bind>
</comp>

<comp id="22" class="1001" name="const_22">
<pin_list>
<pin id="23" dir="1" index="0" bw="1" slack="0"/>
</pin_list>
<bind>
<StgValue><ssdm name="_ssdm_op_Write.axis.volatile.i176P"/></StgValue>
</bind>
</comp>

<comp id="24" class="1001" name="const_24">
<pin_list>
<pin id="25" dir="1" index="0" bw="1" slack="2147483647"/>
</pin_list>
<bind>
<StgValue><ssdm name="_ssdm_op_SpecInterface"/></StgValue>
</bind>
</comp>

<comp id="26" class="1001" name="const_26">
<pin_list>
<pin id="27" dir="1" index="0" bw="1" slack="2147483647"/>
</pin_list>
<bind>
<StgValue><ssdm name="ap_fifo_str"/></StgValue>
</bind>
</comp>

<comp id="28" class="1001" name="const_28">
<pin_list>
<pin id="29" dir="1" index="0" bw="1" slack="2147483647"/>
</pin_list>
<bind>
<StgValue><ssdm name=""/></StgValue>
</bind>
</comp>

<comp id="30" class="1001" name="const_30">
<pin_list>
<pin id="31" dir="1" index="0" bw="1" slack="2147483647"/>
</pin_list>
<bind>
<StgValue><ssdm name="p_str"/></StgValue>
</bind>
</comp>

<comp id="32" class="1001" name="const_32">
<pin_list>
<pin id="33" dir="1" index="0" bw="1" slack="2147483647"/>
</pin_list>
<bind>
<StgValue><ssdm name=""/></StgValue>
</bind>
</comp>

<comp id="34" class="1001" name="const_34">
<pin_list>
<pin id="35" dir="1" index="0" bw="1" slack="2147483647"/>
</pin_list>
<bind>
<StgValue><ssdm name=""/></StgValue>
</bind>
</comp>

<comp id="36" class="1001" name="const_36">
<pin_list>
<pin id="37" dir="1" index="0" bw="1" slack="2147483647"/>
</pin_list>
<bind>
<StgValue><ssdm name="p_str2"/></StgValue>
</bind>
</comp>

<comp id="38" class="1001" name="const_38">
<pin_list>
<pin id="39" dir="1" index="0" bw="1" slack="2147483647"/>
</pin_list>
<bind>
<StgValue><ssdm name="p_str3"/></StgValue>
</bind>
</comp>

<comp id="40" class="1001" name="const_40">
<pin_list>
<pin id="41" dir="1" index="0" bw="1" slack="2147483647"/>
</pin_list>
<bind>
<StgValue><ssdm name="_ssdm_op_SpecPipeline"/></StgValue>
</bind>
</comp>

<comp id="42" class="1004" name="tmp_nbreadreq_fu_42">
<pin_list>
<pin id="43" dir="0" index="0" bw="1" slack="0"/>
<pin id="44" dir="0" index="1" bw="48" slack="0"/>
<pin id="45" dir="0" index="2" bw="1" slack="0"/>
<pin id="46" dir="1" index="3" bw="1" slack="1"/>
</pin_list>
<bind>
<opcode="nbreadreq(1156) " fcode="nbreadreq"/>
<opset="tmp/1 "/>
</bind>
</comp>

<comp id="50" class="1004" name="tmp_3_nbreadreq_fu_50">
<pin_list>
<pin id="51" dir="0" index="0" bw="1" slack="0"/>
<pin id="52" dir="0" index="1" bw="49" slack="0"/>
<pin id="53" dir="0" index="2" bw="1" slack="0"/>
<pin id="54" dir="1" index="3" bw="1" slack="1"/>
</pin_list>
<bind>
<opcode="nbreadreq(1156) " fcode="nbreadreq"/>
<opset="tmp_3/1 "/>
</bind>
</comp>

<comp id="58" class="1004" name="tmp34_read_fu_58">
<pin_list>
<pin id="59" dir="0" index="0" bw="48" slack="0"/>
<pin id="60" dir="0" index="1" bw="48" slack="0"/>
<pin id="61" dir="1" index="2" bw="48" slack="0"/>
</pin_list>
<bind>
<opcode="read(1150) " fcode="read"/>
<opset="tmp34/1 "/>
</bind>
</comp>

<comp id="64" class="1004" name="tmp_1_read_fu_64">
<pin_list>
<pin id="65" dir="0" index="0" bw="49" slack="0"/>
<pin id="66" dir="0" index="1" bw="49" slack="0"/>
<pin id="67" dir="1" index="2" bw="49" slack="0"/>
</pin_list>
<bind>
<opcode="read(1150) " fcode="read"/>
<opset="tmp_1/1 "/>
</bind>
</comp>

<comp id="70" class="1004" name="grp_write_fu_70">
<pin_list>
<pin id="71" dir="0" index="0" bw="0" slack="0"/>
<pin id="72" dir="0" index="1" bw="176" slack="0"/>
<pin id="73" dir="0" index="2" bw="176" slack="0"/>
<pin id="74" dir="1" index="3" bw="0" slack="2147483647"/>
</pin_list>
<bind>
<opcode="write(1151) " fcode="write"/>
<opset="write_ln193/2 "/>
</bind>
</comp>

<comp id="77" class="1004" name="trunc_ln321_fu_77">
<pin_list>
<pin id="78" dir="0" index="0" bw="48" slack="0"/>
<pin id="79" dir="1" index="1" bw="32" slack="1"/>
</pin_list>
<bind>
<opcode="trunc(33) " fcode="trunc"/>
<opset="trunc_ln321/1 "/>
</bind>
</comp>

<comp id="81" class="1004" name="tmp_4_fu_81">
<pin_list>
<pin id="82" dir="0" index="0" bw="1" slack="0"/>
<pin id="83" dir="0" index="1" bw="49" slack="0"/>
<pin id="84" dir="0" index="2" bw="7" slack="0"/>
<pin id="85" dir="1" index="3" bw="1" slack="1"/>
</pin_list>
<bind>
<opcode="bitselect(1000) " fcode="bitselect"/>
<opset="tmp_4/1 "/>
</bind>
</comp>

<comp id="89" class="1004" name="trunc_ln162_fu_89">
<pin_list>
<pin id="90" dir="0" index="0" bw="49" slack="0"/>
<pin id="91" dir="1" index="1" bw="48" slack="1"/>
</pin_list>
<bind>
<opcode="trunc(33) " fcode="trunc"/>
<opset="trunc_ln162/1 "/>
</bind>
</comp>

<comp id="93" class="1004" name="tmp_their_address_V_fu_93">
<pin_list>
<pin id="94" dir="0" index="0" bw="32" slack="1"/>
<pin id="95" dir="1" index="1" bw="128" slack="0"/>
</pin_list>
<bind>
<opcode="zext(34) " fcode="zext"/>
<opset="tmp_their_address_V/2 "/>
</bind>
</comp>

<comp id="96" class="1004" name="tmp_28_fu_96">
<pin_list>
<pin id="97" dir="0" index="0" bw="176" slack="0"/>
<pin id="98" dir="0" index="1" bw="48" slack="1"/>
<pin id="99" dir="0" index="2" bw="32" slack="0"/>
<pin id="100" dir="1" index="3" bw="176" slack="0"/>
</pin_list>
<bind>
<opcode="bitconcatenate(1004) " fcode="bitconcatenate"/>
<opset="tmp_28/2 "/>
</bind>
</comp>

<comp id="104" class="1005" name="tmp_reg_104">
<pin_list>
<pin id="105" dir="0" index="0" bw="1" slack="1"/>
<pin id="106" dir="1" index="1" bw="1" slack="2147483647"/>
</pin_list>
<bind>
<opset="tmp "/>
</bind>
</comp>

<comp id="108" class="1005" name="tmp_3_reg_108">
<pin_list>
<pin id="109" dir="0" index="0" bw="1" slack="1"/>
<pin id="110" dir="1" index="1" bw="1" slack="2147483647"/>
</pin_list>
<bind>
<opset="tmp_3 "/>
</bind>
</comp>

<comp id="112" class="1005" name="trunc_ln321_reg_112">
<pin_list>
<pin id="113" dir="0" index="0" bw="32" slack="1"/>
<pin id="114" dir="1" index="1" bw="32" slack="1"/>
</pin_list>
<bind>
<opset="trunc_ln321 "/>
</bind>
</comp>

<comp id="117" class="1005" name="tmp_4_reg_117">
<pin_list>
<pin id="118" dir="0" index="0" bw="1" slack="1"/>
<pin id="119" dir="1" index="1" bw="1" slack="2147483647"/>
</pin_list>
<bind>
<opset="tmp_4 "/>
</bind>
</comp>

<comp id="121" class="1005" name="trunc_ln162_reg_121">
<pin_list>
<pin id="122" dir="0" index="0" bw="48" slack="1"/>
<pin id="123" dir="1" index="1" bw="48" slack="1"/>
</pin_list>
<bind>
<opset="trunc_ln162 "/>
</bind>
</comp>

<comp id="126" class="1005" name="tmp_28_reg_126">
<pin_list>
<pin id="127" dir="0" index="0" bw="176" slack="1"/>
<pin id="128" dir="1" index="1" bw="176" slack="1"/>
</pin_list>
<bind>
<opset="tmp_28 "/>
</bind>
</comp>

</comp_list>

<net_list>
<net id="47"><net_src comp="6" pin="0"/><net_sink comp="42" pin=0"/></net>

<net id="48"><net_src comp="0" pin="0"/><net_sink comp="42" pin=1"/></net>

<net id="49"><net_src comp="8" pin="0"/><net_sink comp="42" pin=2"/></net>

<net id="55"><net_src comp="10" pin="0"/><net_sink comp="50" pin=0"/></net>

<net id="56"><net_src comp="4" pin="0"/><net_sink comp="50" pin=1"/></net>

<net id="57"><net_src comp="8" pin="0"/><net_sink comp="50" pin=2"/></net>

<net id="62"><net_src comp="12" pin="0"/><net_sink comp="58" pin=0"/></net>

<net id="63"><net_src comp="0" pin="0"/><net_sink comp="58" pin=1"/></net>

<net id="68"><net_src comp="14" pin="0"/><net_sink comp="64" pin=0"/></net>

<net id="69"><net_src comp="4" pin="0"/><net_sink comp="64" pin=1"/></net>

<net id="75"><net_src comp="22" pin="0"/><net_sink comp="70" pin=0"/></net>

<net id="76"><net_src comp="2" pin="0"/><net_sink comp="70" pin=1"/></net>

<net id="80"><net_src comp="58" pin="2"/><net_sink comp="77" pin=0"/></net>

<net id="86"><net_src comp="16" pin="0"/><net_sink comp="81" pin=0"/></net>

<net id="87"><net_src comp="64" pin="2"/><net_sink comp="81" pin=1"/></net>

<net id="88"><net_src comp="18" pin="0"/><net_sink comp="81" pin=2"/></net>

<net id="92"><net_src comp="64" pin="2"/><net_sink comp="89" pin=0"/></net>

<net id="101"><net_src comp="20" pin="0"/><net_sink comp="96" pin=0"/></net>

<net id="102"><net_src comp="93" pin="1"/><net_sink comp="96" pin=2"/></net>

<net id="103"><net_src comp="96" pin="3"/><net_sink comp="70" pin=2"/></net>

<net id="107"><net_src comp="42" pin="3"/><net_sink comp="104" pin=0"/></net>

<net id="111"><net_src comp="50" pin="3"/><net_sink comp="108" pin=0"/></net>

<net id="115"><net_src comp="77" pin="1"/><net_sink comp="112" pin=0"/></net>

<net id="116"><net_src comp="112" pin="1"/><net_sink comp="93" pin=0"/></net>

<net id="120"><net_src comp="81" pin="3"/><net_sink comp="117" pin=0"/></net>

<net id="124"><net_src comp="89" pin="1"/><net_sink comp="121" pin=0"/></net>

<net id="125"><net_src comp="121" pin="1"/><net_sink comp="96" pin=1"/></net>

<net id="129"><net_src comp="96" pin="3"/><net_sink comp="126" pin=0"/></net>

<net id="130"><net_src comp="126" pin="1"/><net_sink comp="70" pin=2"/></net>

</net_list>

</model> 
---------------- Datapath Model END ------------------

* FSMD analyzer results:
  - Output states:
	Port: metaOut_V | {3 }
 - Input state : 
	Port: merge_rx_meta : ipMetaIn_V | {1 }
	Port: merge_rx_meta : rx_udpMetaFifo_V | {1 }
  - Chain level:
	State 1
		br_ln191 : 1
	State 2
		tmp_28 : 1
		write_ln193 : 2
	State 3


============================================================
+ Verbose Summary: Datapath Resource usage 
============================================================

* Functional unit list:
|----------|---------------------------|
| Operation|      Functional Unit      |
|----------|---------------------------|
| nbreadreq|    tmp_nbreadreq_fu_42    |
|          |   tmp_3_nbreadreq_fu_50   |
|----------|---------------------------|
|   read   |      tmp34_read_fu_58     |
|          |      tmp_1_read_fu_64     |
|----------|---------------------------|
|   write  |      grp_write_fu_70      |
|----------|---------------------------|
|   trunc  |     trunc_ln321_fu_77     |
|          |     trunc_ln162_fu_89     |
|----------|---------------------------|
| bitselect|        tmp_4_fu_81        |
|----------|---------------------------|
|   zext   | tmp_their_address_V_fu_93 |
|----------|---------------------------|
|bitconcatenate|        tmp_28_fu_96       |
|----------|---------------------------|
|   Total  |                           |
|----------|---------------------------|

Memories:
N/A

* Register list:
+-------------------+--------+
|                   |   FF   |
+-------------------+--------+
|   tmp_28_reg_126  |   176  |
|   tmp_3_reg_108   |    1   |
|   tmp_4_reg_117   |    1   |
|    tmp_reg_104    |    1   |
|trunc_ln162_reg_121|   48   |
|trunc_ln321_reg_112|   32   |
+-------------------+--------+
|       Total       |   259  |
+-------------------+--------+

* Multiplexer (MUX) list: 
|-----------------|------|------|------|--------||---------||---------|
|       Comp      |  Pin | Size |  BW  | S x BW ||  Delay  ||   LUT   |
|-----------------|------|------|------|--------||---------||---------|
| grp_write_fu_70 |  p2  |   2  |  176 |   352  ||    9    |
|-----------------|------|------|------|--------||---------||---------|
|      Total      |      |      |      |   352  ||  1.769  ||    9    |
|-----------------|------|------|------|--------||---------||---------|



* Summary:
+-----------+--------+--------+--------+
|           |  Delay |   FF   |   LUT  |
+-----------+--------+--------+--------+
|  Function |    -   |    -   |    -   |
|   Memory  |    -   |    -   |    -   |
|Multiplexer|    1   |    -   |    9   |
|  Register |    -   |   259  |    -   |
+-----------+--------+--------+--------+
|   Total   |    1   |   259  |    9   |
+-----------+--------+--------+--------+
