

================================================================
== Vivado HLS Report for 'merge_rx_meta'
================================================================
* Date:           Fri Dec 18 10:42:47 2020

* Version:        2019.1 (Build 2552052 on Fri May 24 15:28:33 MDT 2019)
* Project:        udp_prj
* Solution:       solution1
* Product family: zynq
* Target device:  xc7z020-clg400-1


================================================================
== Performance Estimates
================================================================
+ Timing (ns): 
    * Summary: 
    +--------+-------+----------+------------+
    |  Clock | Target| Estimated| Uncertainty|
    +--------+-------+----------+------------+
    |ap_clk  |   6.40|     2.800|        0.80|
    +--------+-------+----------+------------+

+ Latency (clock cycles): 
    * Summary: 
    +-----+-----+-----+-----+----------+
    |  Latency  |  Interval | Pipeline |
    | min | max | min | max |   Type   |
    +-----+-----+-----+-----+----------+
    |    2|    2|    1|    1| function |
    +-----+-----+-----+-----+----------+

    + Detail: 
        * Instance: 
        N/A

        * Loop: 
        N/A

============================================================
+ Verbose Summary: Synthesis Manager
============================================================
InlineROM: 1
ExposeGlobal: 0
============================================================
+ Verbose Summary: CDFG Model
============================================================
IsTopModel: 0
ResetActiveHigh: 1
IsCombinational: 2
IsDatapathOnly: 0
HasWiredReturn: 1
HasMFsm: 2
HasVarLatency: 0
IsPipeline: 1
IsRtlPipelined: 1
IsInstanceOverlapped: 0
IsDontTouch: 0
HasImplIP: 0
IsGatedGlobalClock: 0

+ Individual pipeline summary: 
  * Pipeline-0: initiation interval (II) = 1, depth = 3


============================================================
+ Verbose Summary: Schedule
============================================================
* Number of FSM states : 3
* Pipeline : 1
  Pipeline-0 : II = 1, D = 3, States = { 1 2 3 }
* Dataflow Pipeline: 0

* FSM state transitions: 
1 --> 2 
2 --> 3 
3 --> 

* FSM state operations: 

State 1 <SV = 0> <Delay = 2.80>
ST_1 : Operation 4 [1/1] (0.00ns)   --->   "%tmp = call i1 @_ssdm_op_NbReadReq.axis.i48P(i48* %ipMetaIn_V, i32 1)" [/home/paulrr2/Projects/ece527/babelsoc/fpga-network-stack/hls/udp/udp.cpp:187]   --->   Operation 4 'nbreadreq' 'tmp' <Predicate = true> <Delay = 0.00> <Core = "AXI4Stream">   --->   Core 5 'AXI4Stream' <Latency = 0> <II = 1> <Delay = 1.00> <Adapter> <Opcode : >
ST_1 : Operation 5 [1/1] (0.00ns)   --->   "br i1 %tmp, label %0, label %merge_rx_meta.exit" [/home/paulrr2/Projects/ece527/babelsoc/fpga-network-stack/hls/udp/udp.cpp:187]   --->   Operation 5 'br' <Predicate = true> <Delay = 0.00>
ST_1 : Operation 6 [1/1] (0.00ns)   --->   "%tmp_3 = call i1 @_ssdm_op_NbReadReq.ap_fifo.i49P(i49* @rx_udpMetaFifo_V, i32 1)" [/home/paulrr2/Projects/ece527/babelsoc/fpga-network-stack/hls/udp/udp.cpp:187]   --->   Operation 6 'nbreadreq' 'tmp_3' <Predicate = (tmp)> <Delay = 0.00> <Core = "FIFO">   --->   Core 32 'FIFO' <Latency = 0> <II = 1> <Delay = 3.63> <Storage> <Opcode : 'read' 'write' 'nbread' 'nbwrite'> <Ports = 0> <Width = 49> <Depth = 2> <FIFO>
ST_1 : Operation 7 [1/1] (0.00ns)   --->   "br i1 %tmp_3, label %1, label %merge_rx_meta.exit" [/home/paulrr2/Projects/ece527/babelsoc/fpga-network-stack/hls/udp/udp.cpp:187]   --->   Operation 7 'br' <Predicate = (tmp)> <Delay = 0.00>
ST_1 : Operation 8 [1/1] (0.00ns)   --->   "%tmp34 = call i48 @_ssdm_op_Read.axis.volatile.i48P(i48* %ipMetaIn_V)" [/home/paulrr2/Projects/ece527/babelsoc/fpga-network-stack/hls/udp/udp.cpp:189]   --->   Operation 8 'read' 'tmp34' <Predicate = (tmp & tmp_3)> <Delay = 0.00> <Core = "AXI4Stream">   --->   Core 5 'AXI4Stream' <Latency = 0> <II = 1> <Delay = 1.00> <Adapter> <Opcode : >
ST_1 : Operation 9 [1/1] (0.00ns)   --->   "%trunc_ln321 = trunc i48 %tmp34 to i32" [/home/paulrr2/Projects/ece527/babelsoc/fpga-network-stack/hls/udp/../ipv4/ipv4.hpp:34->/home/paulrr2/Projects/ece527/babelsoc/fpga-network-stack/hls/udp/udp.cpp:189]   --->   Operation 9 'trunc' 'trunc_ln321' <Predicate = (tmp & tmp_3)> <Delay = 0.00>
ST_1 : Operation 10 [1/1] (2.80ns)   --->   "%tmp_1 = call i49 @_ssdm_op_Read.ap_fifo.volatile.i49P(i49* @rx_udpMetaFifo_V)" [/home/paulrr2/Projects/ece527/babelsoc/fpga-network-stack/hls/udp/udp.cpp:190]   --->   Operation 10 'read' 'tmp_1' <Predicate = (tmp & tmp_3)> <Delay = 2.80> <Core = "FIFO">   --->   Core 32 'FIFO' <Latency = 0> <II = 1> <Delay = 3.63> <Storage> <Opcode : 'read' 'write' 'nbread' 'nbwrite'> <Ports = 0> <Width = 49> <Depth = 2> <FIFO>
ST_1 : Operation 11 [1/1] (0.00ns)   --->   "%tmp_4 = call i1 @_ssdm_op_BitSelect.i1.i49.i32(i49 %tmp_1, i32 48)" [/home/paulrr2/Projects/ece527/babelsoc/fpga-network-stack/hls/udp/udp.hpp:57->/home/paulrr2/Projects/ece527/babelsoc/fpga-network-stack/hls/udp/udp.cpp:190]   --->   Operation 11 'bitselect' 'tmp_4' <Predicate = (tmp & tmp_3)> <Delay = 0.00>
ST_1 : Operation 12 [1/1] (0.00ns)   --->   "br i1 %tmp_4, label %2, label %._crit_edge2.i" [/home/paulrr2/Projects/ece527/babelsoc/fpga-network-stack/hls/udp/udp.cpp:191]   --->   Operation 12 'br' <Predicate = (tmp & tmp_3)> <Delay = 0.00>
ST_1 : Operation 13 [1/1] (0.00ns)   --->   "%trunc_ln162 = trunc i49 %tmp_1 to i48" [/home/paulrr2/Projects/ece527/babelsoc/fpga-network-stack/hls/udp/udp.cpp:193]   --->   Operation 13 'trunc' 'trunc_ln162' <Predicate = (tmp & tmp_3 & tmp_4)> <Delay = 0.00>

State 2 <SV = 1> <Delay = 0.00>
ST_2 : Operation 14 [1/1] (0.00ns)   --->   "%tmp_their_address_V = zext i32 %trunc_ln321 to i128" [/home/paulrr2/Projects/ece527/babelsoc/fpga-network-stack/hls/udp/udp.cpp:193]   --->   Operation 14 'zext' 'tmp_their_address_V' <Predicate = (tmp & tmp_3 & tmp_4)> <Delay = 0.00>
ST_2 : Operation 15 [1/1] (0.00ns)   --->   "%tmp_28 = call i176 @_ssdm_op_BitConcatenate.i176.i48.i128(i48 %trunc_ln162, i128 %tmp_their_address_V)" [/home/paulrr2/Projects/ece527/babelsoc/fpga-network-stack/hls/udp/udp.cpp:193]   --->   Operation 15 'bitconcatenate' 'tmp_28' <Predicate = (tmp & tmp_3 & tmp_4)> <Delay = 0.00>
ST_2 : Operation 16 [2/2] (0.00ns)   --->   "call void @_ssdm_op_Write.axis.volatile.i176P(i176* %metaOut_V, i176 %tmp_28)" [/home/paulrr2/Projects/ece527/babelsoc/fpga-network-stack/hls/udp/udp.cpp:193]   --->   Operation 16 'write' <Predicate = (tmp & tmp_3 & tmp_4)> <Delay = 0.00> <Core = "AXI4Stream">   --->   Core 5 'AXI4Stream' <Latency = 0> <II = 1> <Delay = 1.00> <Adapter> <Opcode : >

State 3 <SV = 2> <Delay = 0.00>
ST_3 : Operation 17 [1/1] (0.00ns)   --->   "call void (...)* @_ssdm_op_SpecInterface(i49* @rx_udpMetaFifo_V, [8 x i8]* @ap_fifo_str, i32 0, i32 0, [1 x i8]* @p_str, i32 0, i32 0, [1 x i8]* @p_str, [1 x i8]* @p_str, [1 x i8]* @p_str, i32 2, i32 2, i32 16, i32 16, [1 x i8]* @p_str, [1 x i8]* @p_str)"   --->   Operation 17 'specinterface' <Predicate = true> <Delay = 0.00>
ST_3 : Operation 18 [1/1] (0.00ns)   --->   "call void (...)* @_ssdm_op_SpecInterface(i176* %metaOut_V, [5 x i8]* @p_str2, i32 1, i32 1, [5 x i8]* @p_str3, i32 0, i32 0, [1 x i8]* @p_str, [1 x i8]* @p_str, [1 x i8]* @p_str, i32 0, i32 0, i32 0, i32 0, [1 x i8]* @p_str, [1 x i8]* @p_str) nounwind"   --->   Operation 18 'specinterface' <Predicate = true> <Delay = 0.00>
ST_3 : Operation 19 [1/1] (0.00ns)   --->   "call void (...)* @_ssdm_op_SpecInterface(i48* %ipMetaIn_V, [5 x i8]* @p_str2, i32 1, i32 1, [5 x i8]* @p_str3, i32 0, i32 0, [1 x i8]* @p_str, [1 x i8]* @p_str, [1 x i8]* @p_str, i32 0, i32 0, i32 0, i32 0, [1 x i8]* @p_str, [1 x i8]* @p_str) nounwind"   --->   Operation 19 'specinterface' <Predicate = true> <Delay = 0.00>
ST_3 : Operation 20 [1/1] (0.00ns)   --->   "call void (...)* @_ssdm_op_SpecPipeline(i32 1, i32 1, i32 1, i32 0, [1 x i8]* @p_str) nounwind" [/home/paulrr2/Projects/ece527/babelsoc/fpga-network-stack/hls/udp/udp.cpp:181]   --->   Operation 20 'specpipeline' <Predicate = true> <Delay = 0.00>
ST_3 : Operation 21 [1/2] (0.00ns)   --->   "call void @_ssdm_op_Write.axis.volatile.i176P(i176* %metaOut_V, i176 %tmp_28)" [/home/paulrr2/Projects/ece527/babelsoc/fpga-network-stack/hls/udp/udp.cpp:193]   --->   Operation 21 'write' <Predicate = (tmp & tmp_3 & tmp_4)> <Delay = 0.00> <Core = "AXI4Stream">   --->   Core 5 'AXI4Stream' <Latency = 0> <II = 1> <Delay = 1.00> <Adapter> <Opcode : >
ST_3 : Operation 22 [1/1] (0.00ns)   --->   "br label %._crit_edge2.i" [/home/paulrr2/Projects/ece527/babelsoc/fpga-network-stack/hls/udp/udp.cpp:194]   --->   Operation 22 'br' <Predicate = (tmp & tmp_3 & tmp_4)> <Delay = 0.00>
ST_3 : Operation 23 [1/1] (0.00ns)   --->   "br label %merge_rx_meta.exit" [/home/paulrr2/Projects/ece527/babelsoc/fpga-network-stack/hls/udp/udp.cpp:195]   --->   Operation 23 'br' <Predicate = (tmp & tmp_3)> <Delay = 0.00>
ST_3 : Operation 24 [1/1] (0.00ns)   --->   "ret void"   --->   Operation 24 'ret' <Predicate = true> <Delay = 0.00>


============================================================
+ Verbose Summary: Timing violations
============================================================
Target clock period: 6.4ns, clock uncertainty: 0.8ns.

 <State 1>: 2.8ns
The critical path consists of the following:
	fifo read on port 'rx_udpMetaFifo_V' (/home/paulrr2/Projects/ece527/babelsoc/fpga-network-stack/hls/udp/udp.cpp:190) [16]  (2.8 ns)

 <State 2>: 0ns
The critical path consists of the following:

 <State 3>: 0ns
The critical path consists of the following:


============================================================
+ Verbose Summary: Binding
============================================================
N/A
* FSMD analyzer results:
  - Output states:
 - Input state : 
  - Chain level:
	State 1
	State 2
	State 3


============================================================
+ Verbose Summary: Datapath Resource usage 
============================================================
N/A
