

================================================================
== Vivado HLS Report for 'process_udp_64_s'
================================================================
* Date:           Fri Dec 18 10:42:47 2020

* Version:        2019.1 (Build 2552052 on Fri May 24 15:28:33 MDT 2019)
* Project:        udp_prj
* Solution:       solution1
* Product family: zynq
* Target device:  xc7z020-clg400-1


================================================================
== Performance Estimates
================================================================
+ Timing (ns): 
    * Summary: 
    +--------+-------+----------+------------+
    |  Clock | Target| Estimated| Uncertainty|
    +--------+-------+----------+------------+
    |ap_clk  |   6.40|     5.229|        0.80|
    +--------+-------+----------+------------+

+ Latency (clock cycles): 
    * Summary: 
    +-----+-----+-----+-----+----------+
    |  Latency  |  Interval | Pipeline |
    | min | max | min | max |   Type   |
    +-----+-----+-----+-----+----------+
    |    4|    4|    1|    1| function |
    +-----+-----+-----+-----+----------+

    + Detail: 
        * Instance: 
        N/A

        * Loop: 
        N/A

============================================================
+ Verbose Summary: Synthesis Manager
============================================================
InlineROM: 1
ExposeGlobal: 0
============================================================
+ Verbose Summary: CDFG Model
============================================================
IsTopModel: 0
ResetActiveHigh: 1
IsCombinational: 2
IsDatapathOnly: 0
HasWiredReturn: 1
HasMFsm: 2
HasVarLatency: 0
IsPipeline: 1
IsRtlPipelined: 1
IsInstanceOverlapped: 0
IsDontTouch: 0
HasImplIP: 0
IsGatedGlobalClock: 0

+ Individual pipeline summary: 
  * Pipeline-0: initiation interval (II) = 1, depth = 5


============================================================
+ Verbose Summary: Schedule
============================================================
* Number of FSM states : 5
* Pipeline : 1
  Pipeline-0 : II = 1, D = 5, States = { 1 2 3 4 5 }
* Dataflow Pipeline: 0

* FSM state transitions: 
1 --> 2 
2 --> 3 
3 --> 4 
4 --> 5 
5 --> 

* FSM state operations: 

State 1 <SV = 0> <Delay = 4.65>
ST_1 : Operation 6 [1/1] (0.00ns)   --->   "%tmp = call i1 @_ssdm_op_NbReadReq.axis.i64P.i8P.i1P(i64* %input_V_data_V, i8* %input_V_keep_V, i1* %input_V_last_V, i32 1)" [/home/paulrr2/Projects/ece527/babelsoc/fpga-network-stack/hls/udp/udp.cpp:43->/home/paulrr2/Projects/ece527/babelsoc/fpga-network-stack/hls/udp/udp.cpp:258]   --->   Operation 6 'nbreadreq' 'tmp' <Predicate = true> <Delay = 0.00> <Core = "AXI4Stream">   --->   Core 5 'AXI4Stream' <Latency = 0> <II = 1> <Delay = 1.00> <Adapter> <Opcode : >
ST_1 : Operation 7 [1/1] (0.00ns)   --->   "br i1 %tmp, label %0, label %.exit" [/home/paulrr2/Projects/ece527/babelsoc/fpga-network-stack/hls/udp/udp.cpp:43->/home/paulrr2/Projects/ece527/babelsoc/fpga-network-stack/hls/udp/udp.cpp:258]   --->   Operation 7 'br' <Predicate = true> <Delay = 0.00>
ST_1 : Operation 8 [1/1] (0.00ns)   --->   "%empty = call { i64, i8, i1 } @_ssdm_op_Read.axis.volatile.i64P.i8P.i1P(i64* %input_V_data_V, i8* %input_V_keep_V, i1* %input_V_last_V)" [/home/paulrr2/Projects/ece527/babelsoc/fpga-network-stack/hls/udp/udp.cpp:45->/home/paulrr2/Projects/ece527/babelsoc/fpga-network-stack/hls/udp/udp.cpp:258]   --->   Operation 8 'read' 'empty' <Predicate = (tmp)> <Delay = 0.00> <Core = "AXI4Stream">   --->   Core 5 'AXI4Stream' <Latency = 0> <II = 1> <Delay = 1.00> <Adapter> <Opcode : >
ST_1 : Operation 9 [1/1] (0.00ns)   --->   "%tmp_data_V = extractvalue { i64, i8, i1 } %empty, 0" [/home/paulrr2/Projects/ece527/babelsoc/fpga-network-stack/hls/udp/udp.cpp:45->/home/paulrr2/Projects/ece527/babelsoc/fpga-network-stack/hls/udp/udp.cpp:258]   --->   Operation 9 'extractvalue' 'tmp_data_V' <Predicate = (tmp)> <Delay = 0.00>
ST_1 : Operation 10 [1/1] (0.00ns)   --->   "%tmp_keep_V = extractvalue { i64, i8, i1 } %empty, 1" [/home/paulrr2/Projects/ece527/babelsoc/fpga-network-stack/hls/udp/udp.cpp:45->/home/paulrr2/Projects/ece527/babelsoc/fpga-network-stack/hls/udp/udp.cpp:258]   --->   Operation 10 'extractvalue' 'tmp_keep_V' <Predicate = (tmp)> <Delay = 0.00>
ST_1 : Operation 11 [1/1] (0.00ns)   --->   "%tmp_last_V = extractvalue { i64, i8, i1 } %empty, 2" [/home/paulrr2/Projects/ece527/babelsoc/fpga-network-stack/hls/udp/udp.cpp:45->/home/paulrr2/Projects/ece527/babelsoc/fpga-network-stack/hls/udp/udp.cpp:258]   --->   Operation 11 'extractvalue' 'tmp_last_V' <Predicate = (tmp)> <Delay = 0.00>
ST_1 : Operation 12 [1/1] (0.00ns)   --->   "%pu_header_ready_load = load i1* @pu_header_ready, align 1" [/home/paulrr2/Projects/ece527/babelsoc/fpga-network-stack/hls/udp/udp.cpp:51->/home/paulrr2/Projects/ece527/babelsoc/fpga-network-stack/hls/udp/udp.cpp:258]   --->   Operation 12 'load' 'pu_header_ready_load' <Predicate = (tmp)> <Delay = 0.00>
ST_1 : Operation 13 [1/1] (0.00ns)   --->   "%pu_header_idx_load = load i16* @pu_header_idx, align 2" [/home/paulrr2/Projects/ece527/babelsoc/fpga-network-stack/hls/udp/udp.cpp:51->/home/paulrr2/Projects/ece527/babelsoc/fpga-network-stack/hls/udp/udp.cpp:258]   --->   Operation 13 'load' 'pu_header_idx_load' <Predicate = (tmp)> <Delay = 0.00>
ST_1 : Operation 14 [1/1] (1.76ns)   --->   "br i1 %pu_header_ready_load, label %parseWord.exit.i.i, label %1" [/home/paulrr2/Projects/ece527/babelsoc/fpga-network-stack/hls/udp/../packet.hpp:55->/home/paulrr2/Projects/ece527/babelsoc/fpga-network-stack/hls/udp/udp.cpp:51->/home/paulrr2/Projects/ece527/babelsoc/fpga-network-stack/hls/udp/udp.cpp:258]   --->   Operation 14 'br' <Predicate = (tmp)> <Delay = 1.76>
ST_1 : Operation 15 [1/1] (0.00ns)   --->   "%trunc_ln64 = trunc i16 %pu_header_idx_load to i1" [/home/paulrr2/Projects/ece527/babelsoc/fpga-network-stack/hls/udp/../packet.hpp:64->/home/paulrr2/Projects/ece527/babelsoc/fpga-network-stack/hls/udp/udp.cpp:51->/home/paulrr2/Projects/ece527/babelsoc/fpga-network-stack/hls/udp/udp.cpp:258]   --->   Operation 15 'trunc' 'trunc_ln64' <Predicate = (tmp & !pu_header_ready_load)> <Delay = 0.00>
ST_1 : Operation 16 [1/1] (0.00ns)   --->   "%zext_ln414 = zext i16 %pu_header_idx_load to i26" [/home/paulrr2/Projects/ece527/babelsoc/fpga-network-stack/hls/udp/../packet.hpp:64->/home/paulrr2/Projects/ece527/babelsoc/fpga-network-stack/hls/udp/udp.cpp:51->/home/paulrr2/Projects/ece527/babelsoc/fpga-network-stack/hls/udp/udp.cpp:258]   --->   Operation 16 'zext' 'zext_ln414' <Predicate = (tmp & !pu_header_ready_load)> <Delay = 0.00>
ST_1 : Operation 17 [1/1] (2.42ns)   --->   "%icmp_ln414 = icmp ne i26 %zext_ln414, 0" [/home/paulrr2/Projects/ece527/babelsoc/fpga-network-stack/hls/udp/../packet.hpp:64->/home/paulrr2/Projects/ece527/babelsoc/fpga-network-stack/hls/udp/udp.cpp:51->/home/paulrr2/Projects/ece527/babelsoc/fpga-network-stack/hls/udp/udp.cpp:258]   --->   Operation 17 'icmp' 'icmp_ln414' <Predicate = (tmp & !pu_header_ready_load)> <Delay = 2.42> <Core = "Cmp">   --->   Core 25 'Cmp' <Latency = 0> <II = 1> <Delay = 2.42> <FuncUnit> <Opcode : 'icmp'> <InPorts = 2> <OutPorts = 1>
ST_1 : Operation 18 [1/1] (0.00ns)   --->   "%tmp_1 = call i7 @_ssdm_op_BitConcatenate.i7.i1.i6(i1 %trunc_ln64, i6 0)" [/home/paulrr2/Projects/ece527/babelsoc/fpga-network-stack/hls/udp/../packet.hpp:64->/home/paulrr2/Projects/ece527/babelsoc/fpga-network-stack/hls/udp/udp.cpp:51->/home/paulrr2/Projects/ece527/babelsoc/fpga-network-stack/hls/udp/udp.cpp:258]   --->   Operation 18 'bitconcatenate' 'tmp_1' <Predicate = (tmp & !pu_header_ready_load)> <Delay = 0.00>
ST_1 : Operation 19 [1/1] (1.87ns)   --->   "%sub_ln414 = sub i7 63, %tmp_1" [/home/paulrr2/Projects/ece527/babelsoc/fpga-network-stack/hls/udp/../packet.hpp:64->/home/paulrr2/Projects/ece527/babelsoc/fpga-network-stack/hls/udp/udp.cpp:51->/home/paulrr2/Projects/ece527/babelsoc/fpga-network-stack/hls/udp/udp.cpp:258]   --->   Operation 19 'sub' 'sub_ln414' <Predicate = (tmp & !pu_header_ready_load)> <Delay = 1.87> <Core = "AddSub">   --->   Core 14 'AddSub' <Latency = 0> <II = 1> <Delay = 2.07> <FuncUnit> <Opcode : 'add' 'sub'> <InPorts = 2> <OutPorts = 1>
ST_1 : Operation 20 [1/1] (2.07ns)   --->   "%add_ln67 = add i16 %pu_header_idx_load, 1" [/home/paulrr2/Projects/ece527/babelsoc/fpga-network-stack/hls/udp/../packet.hpp:67->/home/paulrr2/Projects/ece527/babelsoc/fpga-network-stack/hls/udp/udp.cpp:51->/home/paulrr2/Projects/ece527/babelsoc/fpga-network-stack/hls/udp/udp.cpp:258]   --->   Operation 20 'add' 'add_ln67' <Predicate = (tmp & !pu_header_ready_load)> <Delay = 2.07> <Core = "AddSub">   --->   Core 14 'AddSub' <Latency = 0> <II = 1> <Delay = 2.07> <FuncUnit> <Opcode : 'add' 'sub'> <InPorts = 2> <OutPorts = 1>
ST_1 : Operation 21 [1/1] (1.76ns)   --->   "br label %parseWord.exit.i.i" [/home/paulrr2/Projects/ece527/babelsoc/fpga-network-stack/hls/udp/../packet.hpp:73->/home/paulrr2/Projects/ece527/babelsoc/fpga-network-stack/hls/udp/udp.cpp:51->/home/paulrr2/Projects/ece527/babelsoc/fpga-network-stack/hls/udp/udp.cpp:258]   --->   Operation 21 'br' <Predicate = (tmp & !pu_header_ready_load)> <Delay = 1.76>
ST_1 : Operation 22 [1/1] (0.00ns) (grouped into LUT with out node or_ln73_1)   --->   "%write_flag_0_i_i_i = phi i1 [ false, %0 ], [ true, %1 ]"   --->   Operation 22 'phi' 'write_flag_0_i_i_i' <Predicate = (tmp)> <Delay = 0.00>
ST_1 : Operation 23 [1/1] (0.00ns)   --->   "%packetHeader_idx_0_i = phi i16 [ %pu_header_idx_load, %0 ], [ %add_ln67, %1 ]" [/home/paulrr2/Projects/ece527/babelsoc/fpga-network-stack/hls/udp/udp.cpp:51->/home/paulrr2/Projects/ece527/babelsoc/fpga-network-stack/hls/udp/udp.cpp:258]   --->   Operation 23 'phi' 'packetHeader_idx_0_i' <Predicate = (tmp)> <Delay = 0.00>
ST_1 : Operation 24 [1/1] (0.97ns) (out node of the LUT)   --->   "%or_ln73_1 = or i1 %pu_header_ready_load, %write_flag_0_i_i_i" [/home/paulrr2/Projects/ece527/babelsoc/fpga-network-stack/hls/udp/../packet.hpp:73->/home/paulrr2/Projects/ece527/babelsoc/fpga-network-stack/hls/udp/udp.cpp:51->/home/paulrr2/Projects/ece527/babelsoc/fpga-network-stack/hls/udp/udp.cpp:258]   --->   Operation 24 'or' 'or_ln73_1' <Predicate = (tmp)> <Delay = 0.97> <Core = "LogicGate">   --->   Core 27 'LogicGate' <Latency = 0> <II = 1> <Delay = 0.97> <FuncUnit> <Opcode : 'and' 'or' 'xor'> <InPorts = 2> <OutPorts = 1>
ST_1 : Operation 25 [1/1] (0.97ns)   --->   "%xor_ln73 = xor i1 %tmp_last_V, true" [/home/paulrr2/Projects/ece527/babelsoc/fpga-network-stack/hls/udp/udp.cpp:73->/home/paulrr2/Projects/ece527/babelsoc/fpga-network-stack/hls/udp/udp.cpp:258]   --->   Operation 25 'xor' 'xor_ln73' <Predicate = (tmp)> <Delay = 0.97> <Core = "LogicGate">   --->   Core 27 'LogicGate' <Latency = 0> <II = 1> <Delay = 0.97> <FuncUnit> <Opcode : 'and' 'or' 'xor'> <InPorts = 2> <OutPorts = 1>
ST_1 : Operation 26 [1/1] (0.97ns)   --->   "%and_ln73 = and i1 %or_ln73_1, %xor_ln73" [/home/paulrr2/Projects/ece527/babelsoc/fpga-network-stack/hls/udp/udp.cpp:73->/home/paulrr2/Projects/ece527/babelsoc/fpga-network-stack/hls/udp/udp.cpp:258]   --->   Operation 26 'and' 'and_ln73' <Predicate = (tmp)> <Delay = 0.97> <Core = "LogicGate">   --->   Core 27 'LogicGate' <Latency = 0> <II = 1> <Delay = 0.97> <FuncUnit> <Opcode : 'and' 'or' 'xor'> <InPorts = 2> <OutPorts = 1>
ST_1 : Operation 27 [1/1] (0.80ns)   --->   "%select_ln73 = select i1 %tmp_last_V, i16 0, i16 %packetHeader_idx_0_i" [/home/paulrr2/Projects/ece527/babelsoc/fpga-network-stack/hls/udp/udp.cpp:73->/home/paulrr2/Projects/ece527/babelsoc/fpga-network-stack/hls/udp/udp.cpp:258]   --->   Operation 27 'select' 'select_ln73' <Predicate = (tmp)> <Delay = 0.80> <Core = "Sel">   --->   Core 26 'Sel' <Latency = 0> <II = 1> <Delay = 0.80> <FuncUnit> <Opcode : 'select'> <InPorts = 3> <OutPorts = 1>
ST_1 : Operation 28 [1/1] (0.00ns)   --->   "store i16 %select_ln73, i16* @pu_header_idx, align 2" [/home/paulrr2/Projects/ece527/babelsoc/fpga-network-stack/hls/udp/udp.cpp:51->/home/paulrr2/Projects/ece527/babelsoc/fpga-network-stack/hls/udp/udp.cpp:258]   --->   Operation 28 'store' <Predicate = (tmp)> <Delay = 0.00>
ST_1 : Operation 29 [1/1] (0.00ns)   --->   "store i1 %and_ln73, i1* @pu_header_ready, align 1" [/home/paulrr2/Projects/ece527/babelsoc/fpga-network-stack/hls/udp/udp.cpp:51->/home/paulrr2/Projects/ece527/babelsoc/fpga-network-stack/hls/udp/udp.cpp:258]   --->   Operation 29 'store' <Predicate = (tmp)> <Delay = 0.00>

State 2 <SV = 1> <Delay = 4.59>
ST_2 : Operation 30 [1/1] (0.00ns) (grouped into LUT with out node shl_ln414)   --->   "%select_ln414_1 = select i1 %icmp_ln414, i7 %sub_ln414, i7 %tmp_1" [/home/paulrr2/Projects/ece527/babelsoc/fpga-network-stack/hls/udp/../packet.hpp:64->/home/paulrr2/Projects/ece527/babelsoc/fpga-network-stack/hls/udp/udp.cpp:51->/home/paulrr2/Projects/ece527/babelsoc/fpga-network-stack/hls/udp/udp.cpp:258]   --->   Operation 30 'select' 'select_ln414_1' <Predicate = (tmp & !pu_header_ready_load)> <Delay = 0.00> <Core = "Sel">   --->   Core 26 'Sel' <Latency = 0> <II = 1> <Delay = 0.80> <FuncUnit> <Opcode : 'select'> <InPorts = 3> <OutPorts = 1>
ST_2 : Operation 31 [1/1] (1.87ns)   --->   "%sub_ln414_1 = sub i7 63, %tmp_1" [/home/paulrr2/Projects/ece527/babelsoc/fpga-network-stack/hls/udp/../packet.hpp:64->/home/paulrr2/Projects/ece527/babelsoc/fpga-network-stack/hls/udp/udp.cpp:51->/home/paulrr2/Projects/ece527/babelsoc/fpga-network-stack/hls/udp/udp.cpp:258]   --->   Operation 31 'sub' 'sub_ln414_1' <Predicate = (tmp & !pu_header_ready_load & icmp_ln414)> <Delay = 1.87> <Core = "AddSub">   --->   Core 14 'AddSub' <Latency = 0> <II = 1> <Delay = 2.07> <FuncUnit> <Opcode : 'add' 'sub'> <InPorts = 2> <OutPorts = 1>
ST_2 : Operation 32 [1/1] (0.00ns) (grouped into LUT with out node shl_ln414)   --->   "%zext_ln414_1 = zext i7 %select_ln414_1 to i64" [/home/paulrr2/Projects/ece527/babelsoc/fpga-network-stack/hls/udp/../packet.hpp:64->/home/paulrr2/Projects/ece527/babelsoc/fpga-network-stack/hls/udp/udp.cpp:51->/home/paulrr2/Projects/ece527/babelsoc/fpga-network-stack/hls/udp/udp.cpp:258]   --->   Operation 32 'zext' 'zext_ln414_1' <Predicate = (tmp & !pu_header_ready_load)> <Delay = 0.00>
ST_2 : Operation 33 [1/1] (4.59ns) (out node of the LUT)   --->   "%shl_ln414 = shl i64 %tmp_data_V, %zext_ln414_1" [/home/paulrr2/Projects/ece527/babelsoc/fpga-network-stack/hls/udp/../packet.hpp:64->/home/paulrr2/Projects/ece527/babelsoc/fpga-network-stack/hls/udp/udp.cpp:51->/home/paulrr2/Projects/ece527/babelsoc/fpga-network-stack/hls/udp/udp.cpp:258]   --->   Operation 33 'shl' 'shl_ln414' <Predicate = (tmp & !pu_header_ready_load)> <Delay = 4.59> <Core = "Shift">   --->   Core 28 'Shift' <Latency = 0> <II = 1> <Delay = 3.04> <FuncUnit> <Opcode : 'shl' 'lshr' 'ashr'> <InPorts = 2> <OutPorts = 1>
ST_2 : Operation 34 [1/1] (1.76ns)   --->   "br i1 %or_ln73_1, label %4, label %._crit_edge4.i.i" [/home/paulrr2/Projects/ece527/babelsoc/fpga-network-stack/hls/udp/udp.cpp:58->/home/paulrr2/Projects/ece527/babelsoc/fpga-network-stack/hls/udp/udp.cpp:258]   --->   Operation 34 'br' <Predicate = (tmp)> <Delay = 1.76>

State 3 <SV = 2> <Delay = 4.52>
ST_3 : Operation 35 [1/1] (2.80ns)   --->   "%regListenPort_V_read = call i16 @_ssdm_op_Read.ap_fifo.i16P(i16* %regListenPort_V)" [/home/paulrr2/Projects/ece527/babelsoc/fpga-network-stack/hls/udp/udp.cpp:53]   --->   Operation 35 'read' 'regListenPort_V_read' <Predicate = true> <Delay = 2.80> <Core = "FIFO">   --->   Core 32 'FIFO' <Latency = 0> <II = 1> <Delay = 3.63> <Storage> <Opcode : 'read' 'write' 'nbread' 'nbwrite'> <Ports = 0> <Width = 49> <Depth = 2> <FIFO>
ST_3 : Operation 36 [1/1] (0.00ns)   --->   "%p_Val2_s = load i64* @pu_header_header_V, align 8" [/home/paulrr2/Projects/ece527/babelsoc/fpga-network-stack/hls/udp/../packet.hpp:64->/home/paulrr2/Projects/ece527/babelsoc/fpga-network-stack/hls/udp/udp.cpp:51->/home/paulrr2/Projects/ece527/babelsoc/fpga-network-stack/hls/udp/udp.cpp:258]   --->   Operation 36 'load' 'p_Val2_s' <Predicate = (tmp & !pu_header_ready_load)> <Delay = 0.00>
ST_3 : Operation 37 [1/1] (0.00ns) (grouped into LUT with out node and_ln414)   --->   "%select_ln414 = select i1 %icmp_ln414, i7 63, i7 %tmp_1" [/home/paulrr2/Projects/ece527/babelsoc/fpga-network-stack/hls/udp/../packet.hpp:64->/home/paulrr2/Projects/ece527/babelsoc/fpga-network-stack/hls/udp/udp.cpp:51->/home/paulrr2/Projects/ece527/babelsoc/fpga-network-stack/hls/udp/udp.cpp:258]   --->   Operation 37 'select' 'select_ln414' <Predicate = (tmp & !pu_header_ready_load)> <Delay = 0.00> <Core = "Sel">   --->   Core 26 'Sel' <Latency = 0> <II = 1> <Delay = 0.80> <FuncUnit> <Opcode : 'select'> <InPorts = 3> <OutPorts = 1>
ST_3 : Operation 38 [1/1] (0.00ns) (grouped into LUT with out node and_ln414)   --->   "%select_ln414_2 = select i1 %icmp_ln414, i7 %sub_ln414_1, i7 0" [/home/paulrr2/Projects/ece527/babelsoc/fpga-network-stack/hls/udp/../packet.hpp:64->/home/paulrr2/Projects/ece527/babelsoc/fpga-network-stack/hls/udp/udp.cpp:51->/home/paulrr2/Projects/ece527/babelsoc/fpga-network-stack/hls/udp/udp.cpp:258]   --->   Operation 38 'select' 'select_ln414_2' <Predicate = (tmp & !pu_header_ready_load)> <Delay = 0.00> <Core = "Sel">   --->   Core 26 'Sel' <Latency = 0> <II = 1> <Delay = 0.80> <FuncUnit> <Opcode : 'select'> <InPorts = 3> <OutPorts = 1>
ST_3 : Operation 39 [1/1] (0.00ns) (grouped into LUT with out node and_ln414)   --->   "%zext_ln414_2 = zext i7 %select_ln414 to i64" [/home/paulrr2/Projects/ece527/babelsoc/fpga-network-stack/hls/udp/../packet.hpp:64->/home/paulrr2/Projects/ece527/babelsoc/fpga-network-stack/hls/udp/udp.cpp:51->/home/paulrr2/Projects/ece527/babelsoc/fpga-network-stack/hls/udp/udp.cpp:258]   --->   Operation 39 'zext' 'zext_ln414_2' <Predicate = (tmp & !pu_header_ready_load)> <Delay = 0.00>
ST_3 : Operation 40 [1/1] (0.00ns) (grouped into LUT with out node and_ln414)   --->   "%zext_ln414_3 = zext i7 %select_ln414_2 to i64" [/home/paulrr2/Projects/ece527/babelsoc/fpga-network-stack/hls/udp/../packet.hpp:64->/home/paulrr2/Projects/ece527/babelsoc/fpga-network-stack/hls/udp/udp.cpp:51->/home/paulrr2/Projects/ece527/babelsoc/fpga-network-stack/hls/udp/udp.cpp:258]   --->   Operation 40 'zext' 'zext_ln414_3' <Predicate = (tmp & !pu_header_ready_load)> <Delay = 0.00>
ST_3 : Operation 41 [1/1] (0.00ns) (grouped into LUT with out node p_Result_s)   --->   "%tmp_2 = call i64 @llvm.part.select.i64(i64 %shl_ln414, i32 63, i32 0)" [/home/paulrr2/Projects/ece527/babelsoc/fpga-network-stack/hls/udp/../packet.hpp:64->/home/paulrr2/Projects/ece527/babelsoc/fpga-network-stack/hls/udp/udp.cpp:51->/home/paulrr2/Projects/ece527/babelsoc/fpga-network-stack/hls/udp/udp.cpp:258]   --->   Operation 41 'partselect' 'tmp_2' <Predicate = (tmp & !pu_header_ready_load & icmp_ln414)> <Delay = 0.00>
ST_3 : Operation 42 [1/1] (0.00ns) (grouped into LUT with out node p_Result_s)   --->   "%select_ln414_3 = select i1 %icmp_ln414, i64 %tmp_2, i64 %shl_ln414" [/home/paulrr2/Projects/ece527/babelsoc/fpga-network-stack/hls/udp/../packet.hpp:64->/home/paulrr2/Projects/ece527/babelsoc/fpga-network-stack/hls/udp/udp.cpp:51->/home/paulrr2/Projects/ece527/babelsoc/fpga-network-stack/hls/udp/udp.cpp:258]   --->   Operation 42 'select' 'select_ln414_3' <Predicate = (tmp & !pu_header_ready_load)> <Delay = 0.00> <Core = "Sel">   --->   Core 26 'Sel' <Latency = 0> <II = 1> <Delay = 0.80> <FuncUnit> <Opcode : 'select'> <InPorts = 3> <OutPorts = 1>
ST_3 : Operation 43 [1/1] (0.00ns) (grouped into LUT with out node and_ln414)   --->   "%shl_ln414_1 = shl i64 -1, %zext_ln414_2" [/home/paulrr2/Projects/ece527/babelsoc/fpga-network-stack/hls/udp/../packet.hpp:64->/home/paulrr2/Projects/ece527/babelsoc/fpga-network-stack/hls/udp/udp.cpp:51->/home/paulrr2/Projects/ece527/babelsoc/fpga-network-stack/hls/udp/udp.cpp:258]   --->   Operation 43 'shl' 'shl_ln414_1' <Predicate = (tmp & !pu_header_ready_load)> <Delay = 0.00> <Core = "Shift">   --->   Core 28 'Shift' <Latency = 0> <II = 1> <Delay = 3.04> <FuncUnit> <Opcode : 'shl' 'lshr' 'ashr'> <InPorts = 2> <OutPorts = 1>
ST_3 : Operation 44 [1/1] (0.00ns) (grouped into LUT with out node and_ln414)   --->   "%lshr_ln414 = lshr i64 -1, %zext_ln414_3" [/home/paulrr2/Projects/ece527/babelsoc/fpga-network-stack/hls/udp/../packet.hpp:64->/home/paulrr2/Projects/ece527/babelsoc/fpga-network-stack/hls/udp/udp.cpp:51->/home/paulrr2/Projects/ece527/babelsoc/fpga-network-stack/hls/udp/udp.cpp:258]   --->   Operation 44 'lshr' 'lshr_ln414' <Predicate = (tmp & !pu_header_ready_load)> <Delay = 0.00> <Core = "Shift">   --->   Core 28 'Shift' <Latency = 0> <II = 1> <Delay = 3.04> <FuncUnit> <Opcode : 'shl' 'lshr' 'ashr'> <InPorts = 2> <OutPorts = 1>
ST_3 : Operation 45 [1/1] (3.04ns) (out node of the LUT)   --->   "%and_ln414 = and i64 %shl_ln414_1, %lshr_ln414" [/home/paulrr2/Projects/ece527/babelsoc/fpga-network-stack/hls/udp/../packet.hpp:64->/home/paulrr2/Projects/ece527/babelsoc/fpga-network-stack/hls/udp/udp.cpp:51->/home/paulrr2/Projects/ece527/babelsoc/fpga-network-stack/hls/udp/udp.cpp:258]   --->   Operation 45 'and' 'and_ln414' <Predicate = (tmp & !pu_header_ready_load)> <Delay = 3.04> <Core = "LogicGate">   --->   Core 27 'LogicGate' <Latency = 0> <II = 1> <Delay = 0.97> <FuncUnit> <Opcode : 'and' 'or' 'xor'> <InPorts = 2> <OutPorts = 1>
ST_3 : Operation 46 [1/1] (0.00ns) (grouped into LUT with out node p_Result_s)   --->   "%xor_ln414 = xor i64 %and_ln414, -1" [/home/paulrr2/Projects/ece527/babelsoc/fpga-network-stack/hls/udp/../packet.hpp:64->/home/paulrr2/Projects/ece527/babelsoc/fpga-network-stack/hls/udp/udp.cpp:51->/home/paulrr2/Projects/ece527/babelsoc/fpga-network-stack/hls/udp/udp.cpp:258]   --->   Operation 46 'xor' 'xor_ln414' <Predicate = (tmp & !pu_header_ready_load)> <Delay = 0.00> <Core = "LogicGate">   --->   Core 27 'LogicGate' <Latency = 0> <II = 1> <Delay = 0.97> <FuncUnit> <Opcode : 'and' 'or' 'xor'> <InPorts = 2> <OutPorts = 1>
ST_3 : Operation 47 [1/1] (0.00ns) (grouped into LUT with out node p_Result_s)   --->   "%and_ln414_1 = and i64 %p_Val2_s, %xor_ln414" [/home/paulrr2/Projects/ece527/babelsoc/fpga-network-stack/hls/udp/../packet.hpp:64->/home/paulrr2/Projects/ece527/babelsoc/fpga-network-stack/hls/udp/udp.cpp:51->/home/paulrr2/Projects/ece527/babelsoc/fpga-network-stack/hls/udp/udp.cpp:258]   --->   Operation 47 'and' 'and_ln414_1' <Predicate = (tmp & !pu_header_ready_load)> <Delay = 0.00> <Core = "LogicGate">   --->   Core 27 'LogicGate' <Latency = 0> <II = 1> <Delay = 0.97> <FuncUnit> <Opcode : 'and' 'or' 'xor'> <InPorts = 2> <OutPorts = 1>
ST_3 : Operation 48 [1/1] (0.00ns) (grouped into LUT with out node p_Result_s)   --->   "%and_ln414_2 = and i64 %select_ln414_3, %and_ln414" [/home/paulrr2/Projects/ece527/babelsoc/fpga-network-stack/hls/udp/../packet.hpp:64->/home/paulrr2/Projects/ece527/babelsoc/fpga-network-stack/hls/udp/udp.cpp:51->/home/paulrr2/Projects/ece527/babelsoc/fpga-network-stack/hls/udp/udp.cpp:258]   --->   Operation 48 'and' 'and_ln414_2' <Predicate = (tmp & !pu_header_ready_load)> <Delay = 0.00> <Core = "LogicGate">   --->   Core 27 'LogicGate' <Latency = 0> <II = 1> <Delay = 0.97> <FuncUnit> <Opcode : 'and' 'or' 'xor'> <InPorts = 2> <OutPorts = 1>
ST_3 : Operation 49 [1/1] (1.48ns) (out node of the LUT)   --->   "%p_Result_s = or i64 %and_ln414_1, %and_ln414_2" [/home/paulrr2/Projects/ece527/babelsoc/fpga-network-stack/hls/udp/../packet.hpp:64->/home/paulrr2/Projects/ece527/babelsoc/fpga-network-stack/hls/udp/udp.cpp:51->/home/paulrr2/Projects/ece527/babelsoc/fpga-network-stack/hls/udp/udp.cpp:258]   --->   Operation 49 'or' 'p_Result_s' <Predicate = (tmp & !pu_header_ready_load)> <Delay = 1.48> <Core = "LogicGate">   --->   Core 27 'LogicGate' <Latency = 0> <II = 1> <Delay = 0.97> <FuncUnit> <Opcode : 'and' 'or' 'xor'> <InPorts = 2> <OutPorts = 1>
ST_3 : Operation 50 [1/1] (0.00ns)   --->   "store i64 %p_Result_s, i64* @pu_header_header_V, align 8" [/home/paulrr2/Projects/ece527/babelsoc/fpga-network-stack/hls/udp/../packet.hpp:64->/home/paulrr2/Projects/ece527/babelsoc/fpga-network-stack/hls/udp/udp.cpp:51->/home/paulrr2/Projects/ece527/babelsoc/fpga-network-stack/hls/udp/udp.cpp:258]   --->   Operation 50 'store' <Predicate = (tmp & !pu_header_ready_load)> <Delay = 0.00>
ST_3 : Operation 51 [1/1] (0.00ns)   --->   "%metaWritten_load = load i1* @metaWritten, align 1" [/home/paulrr2/Projects/ece527/babelsoc/fpga-network-stack/hls/udp/udp.cpp:53->/home/paulrr2/Projects/ece527/babelsoc/fpga-network-stack/hls/udp/udp.cpp:258]   --->   Operation 51 'load' 'metaWritten_load' <Predicate = (tmp)> <Delay = 0.00>
ST_3 : Operation 52 [1/1] (0.00ns)   --->   "br i1 %metaWritten_load, label %2, label %._crit_edge2.i.i" [/home/paulrr2/Projects/ece527/babelsoc/fpga-network-stack/hls/udp/udp.cpp:53->/home/paulrr2/Projects/ece527/babelsoc/fpga-network-stack/hls/udp/udp.cpp:258]   --->   Operation 52 'br' <Predicate = (tmp)> <Delay = 0.00>
ST_3 : Operation 53 [1/1] (1.76ns)   --->   "br i1 %metaWritten_load, label %._crit_edge4.i.i, label %5" [/home/paulrr2/Projects/ece527/babelsoc/fpga-network-stack/hls/udp/udp.cpp:66->/home/paulrr2/Projects/ece527/babelsoc/fpga-network-stack/hls/udp/udp.cpp:258]   --->   Operation 53 'br' <Predicate = (tmp & or_ln73_1)> <Delay = 1.76>
ST_3 : Operation 54 [1/1] (1.76ns)   --->   "br label %._crit_edge4.i.i" [/home/paulrr2/Projects/ece527/babelsoc/fpga-network-stack/hls/udp/udp.cpp:71->/home/paulrr2/Projects/ece527/babelsoc/fpga-network-stack/hls/udp/udp.cpp:258]   --->   Operation 54 'br' <Predicate = (tmp & !metaWritten_load & or_ln73_1)> <Delay = 1.76>
ST_3 : Operation 55 [1/1] (0.00ns) (grouped into LUT with out node or_ln73)   --->   "%metaWritten_flag_1_i = phi i1 [ false, %._crit_edge2.i.i ], [ false, %4 ], [ true, %5 ]"   --->   Operation 55 'phi' 'metaWritten_flag_1_i' <Predicate = (tmp)> <Delay = 0.00>
ST_3 : Operation 56 [1/1] (0.97ns) (out node of the LUT)   --->   "%or_ln73 = or i1 %tmp_last_V, %metaWritten_flag_1_i" [/home/paulrr2/Projects/ece527/babelsoc/fpga-network-stack/hls/udp/udp.cpp:73->/home/paulrr2/Projects/ece527/babelsoc/fpga-network-stack/hls/udp/udp.cpp:258]   --->   Operation 56 'or' 'or_ln73' <Predicate = (tmp)> <Delay = 0.97> <Core = "LogicGate">   --->   Core 27 'LogicGate' <Latency = 0> <II = 1> <Delay = 0.97> <FuncUnit> <Opcode : 'and' 'or' 'xor'> <InPorts = 2> <OutPorts = 1>
ST_3 : Operation 57 [1/1] (0.00ns)   --->   "br i1 %or_ln73, label %mergeST26.i.i, label %._crit_edge6.new27.i.i" [/home/paulrr2/Projects/ece527/babelsoc/fpga-network-stack/hls/udp/udp.cpp:73->/home/paulrr2/Projects/ece527/babelsoc/fpga-network-stack/hls/udp/udp.cpp:258]   --->   Operation 57 'br' <Predicate = (tmp)> <Delay = 0.00>
ST_3 : Operation 58 [1/1] (0.00ns)   --->   "store i1 %xor_ln73, i1* @metaWritten, align 1" [/home/paulrr2/Projects/ece527/babelsoc/fpga-network-stack/hls/udp/udp.cpp:70->/home/paulrr2/Projects/ece527/babelsoc/fpga-network-stack/hls/udp/udp.cpp:258]   --->   Operation 58 'store' <Predicate = (tmp & or_ln73)> <Delay = 0.00>

State 4 <SV = 3> <Delay = 5.22>
ST_4 : Operation 59 [1/1] (0.00ns)   --->   "%p_Val2_1 = load i64* @pu_header_header_V, align 8" [/home/paulrr2/Projects/ece527/babelsoc/fpga-network-stack/hls/udp/udp.hpp:99->/home/paulrr2/Projects/ece527/babelsoc/fpga-network-stack/hls/udp/udp.cpp:53->/home/paulrr2/Projects/ece527/babelsoc/fpga-network-stack/hls/udp/udp.cpp:258]   --->   Operation 59 'load' 'p_Val2_1' <Predicate = (tmp & metaWritten_load)> <Delay = 0.00>
ST_4 : Operation 60 [1/1] (0.00ns)   --->   "%p_Result_10_i_i_i_s = call i8 @_ssdm_op_PartSelect.i8.i64.i32.i32(i64 %p_Val2_1, i32 24, i32 31)" [/home/paulrr2/Projects/ece527/babelsoc/fpga-network-stack/hls/udp/../axi_utils.hpp:79->/home/paulrr2/Projects/ece527/babelsoc/fpga-network-stack/hls/udp/udp.hpp:99->/home/paulrr2/Projects/ece527/babelsoc/fpga-network-stack/hls/udp/udp.cpp:53->/home/paulrr2/Projects/ece527/babelsoc/fpga-network-stack/hls/udp/udp.cpp:258]   --->   Operation 60 'partselect' 'p_Result_10_i_i_i_s' <Predicate = (tmp & metaWritten_load)> <Delay = 0.00>
ST_4 : Operation 61 [1/1] (0.00ns)   --->   "%p_Result_10_1_i_i_s = call i8 @_ssdm_op_PartSelect.i8.i64.i32.i32(i64 %p_Val2_1, i32 16, i32 23)" [/home/paulrr2/Projects/ece527/babelsoc/fpga-network-stack/hls/udp/../axi_utils.hpp:79->/home/paulrr2/Projects/ece527/babelsoc/fpga-network-stack/hls/udp/udp.hpp:99->/home/paulrr2/Projects/ece527/babelsoc/fpga-network-stack/hls/udp/udp.cpp:53->/home/paulrr2/Projects/ece527/babelsoc/fpga-network-stack/hls/udp/udp.cpp:258]   --->   Operation 61 'partselect' 'p_Result_10_1_i_i_s' <Predicate = (tmp & metaWritten_load)> <Delay = 0.00>
ST_4 : Operation 62 [1/1] (0.00ns)   --->   "%agg_result_V_0_1_i_i = call i16 @_ssdm_op_BitConcatenate.i16.i8.i8(i8 %p_Result_10_1_i_i_s, i8 %p_Result_10_i_i_i_s)" [/home/paulrr2/Projects/ece527/babelsoc/fpga-network-stack/hls/udp/../axi_utils.hpp:79->/home/paulrr2/Projects/ece527/babelsoc/fpga-network-stack/hls/udp/udp.hpp:99->/home/paulrr2/Projects/ece527/babelsoc/fpga-network-stack/hls/udp/udp.cpp:53->/home/paulrr2/Projects/ece527/babelsoc/fpga-network-stack/hls/udp/udp.cpp:258]   --->   Operation 62 'bitconcatenate' 'agg_result_V_0_1_i_i' <Predicate = (tmp & metaWritten_load)> <Delay = 0.00>
ST_4 : Operation 63 [1/1] (2.42ns)   --->   "%icmp_ln879 = icmp eq i16 %agg_result_V_0_1_i_i, %regListenPort_V_read" [/home/paulrr2/Projects/ece527/babelsoc/fpga-network-stack/hls/udp/udp.cpp:53->/home/paulrr2/Projects/ece527/babelsoc/fpga-network-stack/hls/udp/udp.cpp:258]   --->   Operation 63 'icmp' 'icmp_ln879' <Predicate = (tmp & metaWritten_load)> <Delay = 2.42> <Core = "Cmp">   --->   Core 25 'Cmp' <Latency = 0> <II = 1> <Delay = 2.42> <FuncUnit> <Opcode : 'icmp'> <InPorts = 2> <OutPorts = 1>
ST_4 : Operation 64 [1/1] (0.00ns)   --->   "br i1 %icmp_ln879, label %3, label %._crit_edge2.i.i" [/home/paulrr2/Projects/ece527/babelsoc/fpga-network-stack/hls/udp/udp.cpp:53->/home/paulrr2/Projects/ece527/babelsoc/fpga-network-stack/hls/udp/udp.cpp:258]   --->   Operation 64 'br' <Predicate = (tmp & metaWritten_load)> <Delay = 0.00>
ST_4 : Operation 65 [1/1] (0.00ns)   --->   "%p_Val2_2 = load i64* @pu_header_header_V, align 8" [/home/paulrr2/Projects/ece527/babelsoc/fpga-network-stack/hls/udp/udp.hpp:99->/home/paulrr2/Projects/ece527/babelsoc/fpga-network-stack/hls/udp/udp.cpp:61->/home/paulrr2/Projects/ece527/babelsoc/fpga-network-stack/hls/udp/udp.cpp:258]   --->   Operation 65 'load' 'p_Val2_2' <Predicate = (tmp & or_ln73_1)> <Delay = 0.00>
ST_4 : Operation 66 [1/1] (0.00ns)   --->   "%p_Result_10_i_i32_s = call i8 @_ssdm_op_PartSelect.i8.i64.i32.i32(i64 %p_Val2_2, i32 24, i32 31)" [/home/paulrr2/Projects/ece527/babelsoc/fpga-network-stack/hls/udp/../axi_utils.hpp:79->/home/paulrr2/Projects/ece527/babelsoc/fpga-network-stack/hls/udp/udp.hpp:99->/home/paulrr2/Projects/ece527/babelsoc/fpga-network-stack/hls/udp/udp.cpp:61->/home/paulrr2/Projects/ece527/babelsoc/fpga-network-stack/hls/udp/udp.cpp:258]   --->   Operation 66 'partselect' 'p_Result_10_i_i32_s' <Predicate = (tmp & or_ln73_1)> <Delay = 0.00>
ST_4 : Operation 67 [1/1] (0.00ns)   --->   "%p_Result_10_1_i_i3 = call i8 @_ssdm_op_PartSelect.i8.i64.i32.i32(i64 %p_Val2_2, i32 16, i32 23)" [/home/paulrr2/Projects/ece527/babelsoc/fpga-network-stack/hls/udp/../axi_utils.hpp:79->/home/paulrr2/Projects/ece527/babelsoc/fpga-network-stack/hls/udp/udp.hpp:99->/home/paulrr2/Projects/ece527/babelsoc/fpga-network-stack/hls/udp/udp.cpp:61->/home/paulrr2/Projects/ece527/babelsoc/fpga-network-stack/hls/udp/udp.cpp:258]   --->   Operation 67 'partselect' 'p_Result_10_1_i_i3' <Predicate = (tmp & or_ln73_1)> <Delay = 0.00>
ST_4 : Operation 68 [1/1] (0.00ns)   --->   "%dstPort_V = call i16 @_ssdm_op_BitConcatenate.i16.i8.i8(i8 %p_Result_10_1_i_i3, i8 %p_Result_10_i_i32_s)" [/home/paulrr2/Projects/ece527/babelsoc/fpga-network-stack/hls/udp/../axi_utils.hpp:79->/home/paulrr2/Projects/ece527/babelsoc/fpga-network-stack/hls/udp/udp.hpp:99->/home/paulrr2/Projects/ece527/babelsoc/fpga-network-stack/hls/udp/udp.cpp:61->/home/paulrr2/Projects/ece527/babelsoc/fpga-network-stack/hls/udp/udp.cpp:258]   --->   Operation 68 'bitconcatenate' 'dstPort_V' <Predicate = (tmp & or_ln73_1)> <Delay = 0.00>
ST_4 : Operation 69 [1/1] (0.00ns)   --->   "%p_Result_10_i_i37_s = call i8 @_ssdm_op_PartSelect.i8.i64.i32.i32(i64 %p_Val2_2, i32 8, i32 15)" [/home/paulrr2/Projects/ece527/babelsoc/fpga-network-stack/hls/udp/../axi_utils.hpp:79->/home/paulrr2/Projects/ece527/babelsoc/fpga-network-stack/hls/udp/udp.hpp:91->/home/paulrr2/Projects/ece527/babelsoc/fpga-network-stack/hls/udp/udp.cpp:69->/home/paulrr2/Projects/ece527/babelsoc/fpga-network-stack/hls/udp/udp.cpp:258]   --->   Operation 69 'partselect' 'p_Result_10_i_i37_s' <Predicate = (tmp & !metaWritten_load & or_ln73_1)> <Delay = 0.00>
ST_4 : Operation 70 [1/1] (0.00ns)   --->   "%trunc_ln647 = trunc i64 %p_Val2_2 to i8" [/home/paulrr2/Projects/ece527/babelsoc/fpga-network-stack/hls/udp/../axi_utils.hpp:79->/home/paulrr2/Projects/ece527/babelsoc/fpga-network-stack/hls/udp/udp.hpp:91->/home/paulrr2/Projects/ece527/babelsoc/fpga-network-stack/hls/udp/udp.cpp:69->/home/paulrr2/Projects/ece527/babelsoc/fpga-network-stack/hls/udp/udp.cpp:258]   --->   Operation 70 'trunc' 'trunc_ln647' <Predicate = (tmp & !metaWritten_load & or_ln73_1)> <Delay = 0.00>
ST_4 : Operation 71 [1/1] (0.00ns)   --->   "%p_Result_10_i_i42_s = call i8 @_ssdm_op_PartSelect.i8.i64.i32.i32(i64 %p_Val2_2, i32 40, i32 47)" [/home/paulrr2/Projects/ece527/babelsoc/fpga-network-stack/hls/udp/../axi_utils.hpp:79->/home/paulrr2/Projects/ece527/babelsoc/fpga-network-stack/hls/udp/udp.hpp:107->/home/paulrr2/Projects/ece527/babelsoc/fpga-network-stack/hls/udp/udp.cpp:69->/home/paulrr2/Projects/ece527/babelsoc/fpga-network-stack/hls/udp/udp.cpp:258]   --->   Operation 71 'partselect' 'p_Result_10_i_i42_s' <Predicate = (tmp & !metaWritten_load & or_ln73_1)> <Delay = 0.00>
ST_4 : Operation 72 [1/1] (0.00ns)   --->   "%p_Result_10_1_i_i4 = call i8 @_ssdm_op_PartSelect.i8.i64.i32.i32(i64 %p_Val2_2, i32 32, i32 39)" [/home/paulrr2/Projects/ece527/babelsoc/fpga-network-stack/hls/udp/../axi_utils.hpp:79->/home/paulrr2/Projects/ece527/babelsoc/fpga-network-stack/hls/udp/udp.hpp:107->/home/paulrr2/Projects/ece527/babelsoc/fpga-network-stack/hls/udp/udp.cpp:69->/home/paulrr2/Projects/ece527/babelsoc/fpga-network-stack/hls/udp/udp.cpp:258]   --->   Operation 72 'partselect' 'p_Result_10_1_i_i4' <Predicate = (tmp & !metaWritten_load & or_ln73_1)> <Delay = 0.00>
ST_4 : Operation 73 [1/1] (2.42ns)   --->   "%tmp_valid = icmp eq i16 %dstPort_V, %regListenPort_V_read" [/home/paulrr2/Projects/ece527/babelsoc/fpga-network-stack/hls/udp/udp.cpp:69->/home/paulrr2/Projects/ece527/babelsoc/fpga-network-stack/hls/udp/udp.cpp:258]   --->   Operation 73 'icmp' 'tmp_valid' <Predicate = (tmp & !metaWritten_load & or_ln73_1)> <Delay = 2.42> <Core = "Cmp">   --->   Core 25 'Cmp' <Latency = 0> <II = 1> <Delay = 2.42> <FuncUnit> <Opcode : 'icmp'> <InPorts = 2> <OutPorts = 1>
ST_4 : Operation 74 [1/1] (0.00ns)   --->   "%tmp_3 = call i49 @_ssdm_op_BitConcatenate.i49.i1.i8.i8.i8.i8.i8.i8(i1 %tmp_valid, i8 %p_Result_10_1_i_i4, i8 %p_Result_10_i_i42_s, i8 %p_Result_10_1_i_i3, i8 %p_Result_10_i_i32_s, i8 %trunc_ln647, i8 %p_Result_10_i_i37_s)" [/home/paulrr2/Projects/ece527/babelsoc/fpga-network-stack/hls/udp/udp.cpp:69->/home/paulrr2/Projects/ece527/babelsoc/fpga-network-stack/hls/udp/udp.cpp:258]   --->   Operation 74 'bitconcatenate' 'tmp_3' <Predicate = (tmp & !metaWritten_load & or_ln73_1)> <Delay = 0.00>
ST_4 : Operation 75 [1/1] (2.80ns)   --->   "call void @_ssdm_op_Write.ap_fifo.volatile.i49P(i49* @rx_udpMetaFifo_V, i49 %tmp_3)" [/home/paulrr2/Projects/ece527/babelsoc/fpga-network-stack/hls/udp/udp.cpp:69->/home/paulrr2/Projects/ece527/babelsoc/fpga-network-stack/hls/udp/udp.cpp:258]   --->   Operation 75 'write' <Predicate = (tmp & !metaWritten_load & or_ln73_1)> <Delay = 2.80> <Core = "FIFO">   --->   Core 32 'FIFO' <Latency = 0> <II = 1> <Delay = 3.63> <Storage> <Opcode : 'read' 'write' 'nbread' 'nbwrite'> <Ports = 0> <Width = 49> <Depth = 2> <FIFO>

State 5 <SV = 4> <Delay = 2.80>
ST_5 : Operation 76 [1/1] (0.00ns)   --->   "call void (...)* @_ssdm_op_SpecInterface(i64* %input_V_data_V, i8* %input_V_keep_V, i1* %input_V_last_V, [5 x i8]* @p_str2, i32 1, i32 1, [5 x i8]* @p_str3, i32 0, i32 0, [1 x i8]* @p_str, [1 x i8]* @p_str, [1 x i8]* @p_str, i32 0, i32 0, i32 0, i32 0, [1 x i8]* @p_str, [1 x i8]* @p_str) nounwind"   --->   Operation 76 'specinterface' <Predicate = true> <Delay = 0.00>
ST_5 : Operation 77 [1/1] (0.00ns)   --->   "call void (...)* @_ssdm_op_SpecInterface(i64* %input_V_data_V, i8* %input_V_keep_V, i1* %input_V_last_V, [5 x i8]* @p_str2, i32 1, i32 1, [5 x i8]* @p_str3, i32 0, i32 0, [1 x i8]* @p_str, [1 x i8]* @p_str, [1 x i8]* @p_str, i32 0, i32 0, i32 0, i32 0, [1 x i8]* @p_str, [1 x i8]* @p_str) nounwind"   --->   Operation 77 'specinterface' <Predicate = true> <Delay = 0.00>
ST_5 : Operation 78 [1/1] (0.00ns)   --->   "call void (...)* @_ssdm_op_SpecInterface(i64* %input_V_data_V, i8* %input_V_keep_V, i1* %input_V_last_V, [5 x i8]* @p_str2, i32 1, i32 1, [5 x i8]* @p_str3, i32 0, i32 0, [1 x i8]* @p_str, [1 x i8]* @p_str, [1 x i8]* @p_str, i32 0, i32 0, i32 0, i32 0, [1 x i8]* @p_str, [1 x i8]* @p_str) nounwind"   --->   Operation 78 'specinterface' <Predicate = true> <Delay = 0.00>
ST_5 : Operation 79 [1/1] (0.00ns)   --->   "call void (...)* @_ssdm_op_SpecInterface(i64* @rx_udp2shiftFifo_V_d, [8 x i8]* @ap_fifo_str, i32 0, i32 0, [1 x i8]* @p_str, i32 0, i32 0, [1 x i8]* @p_str, [1 x i8]* @p_str, [1 x i8]* @p_str, i32 2, i32 2, i32 16, i32 16, [1 x i8]* @p_str, [1 x i8]* @p_str)"   --->   Operation 79 'specinterface' <Predicate = true> <Delay = 0.00>
ST_5 : Operation 80 [1/1] (0.00ns)   --->   "call void (...)* @_ssdm_op_SpecInterface(i8* @rx_udp2shiftFifo_V_k, [8 x i8]* @ap_fifo_str, i32 0, i32 0, [1 x i8]* @p_str, i32 0, i32 0, [1 x i8]* @p_str, [1 x i8]* @p_str, [1 x i8]* @p_str, i32 2, i32 2, i32 16, i32 16, [1 x i8]* @p_str, [1 x i8]* @p_str)"   --->   Operation 80 'specinterface' <Predicate = true> <Delay = 0.00>
ST_5 : Operation 81 [1/1] (0.00ns)   --->   "call void (...)* @_ssdm_op_SpecInterface(i1* @rx_udp2shiftFifo_V_l, [8 x i8]* @ap_fifo_str, i32 0, i32 0, [1 x i8]* @p_str, i32 0, i32 0, [1 x i8]* @p_str, [1 x i8]* @p_str, [1 x i8]* @p_str, i32 2, i32 2, i32 16, i32 16, [1 x i8]* @p_str, [1 x i8]* @p_str)"   --->   Operation 81 'specinterface' <Predicate = true> <Delay = 0.00>
ST_5 : Operation 82 [1/1] (0.00ns)   --->   "call void (...)* @_ssdm_op_SpecInterface(i49* @rx_udpMetaFifo_V, [8 x i8]* @ap_fifo_str, i32 0, i32 0, [1 x i8]* @p_str, i32 0, i32 0, [1 x i8]* @p_str, [1 x i8]* @p_str, [1 x i8]* @p_str, i32 2, i32 2, i32 16, i32 16, [1 x i8]* @p_str, [1 x i8]* @p_str)"   --->   Operation 82 'specinterface' <Predicate = true> <Delay = 0.00>
ST_5 : Operation 83 [1/1] (0.00ns)   --->   "call void (...)* @_ssdm_op_SpecInterface(i16* %regListenPort_V, [8 x i8]* @ap_fifo_str, i32 0, i32 0, [1 x i8]* @p_str, i32 0, i32 0, [1 x i8]* @p_str, [1 x i8]* @p_str, [1 x i8]* @p_str, i32 2, i32 2, i32 16, i32 16, [1 x i8]* @p_str, [11 x i8]* @ScalarProp_str)"   --->   Operation 83 'specinterface' <Predicate = true> <Delay = 0.00>
ST_5 : Operation 84 [1/1] (0.00ns)   --->   "call void (...)* @_ssdm_op_SpecInterface(i64* @rx_udp2shiftFifo_V_d, [8 x i8]* @ap_fifo_str, i32 0, i32 0, [1 x i8]* @p_str, i32 0, i32 0, [1 x i8]* @p_str, [1 x i8]* @p_str, [1 x i8]* @p_str, i32 2, i32 2, i32 16, i32 16, [1 x i8]* @p_str, [1 x i8]* @p_str)"   --->   Operation 84 'specinterface' <Predicate = true> <Delay = 0.00>
ST_5 : Operation 85 [1/1] (0.00ns)   --->   "call void (...)* @_ssdm_op_SpecInterface(i8* @rx_udp2shiftFifo_V_k, [8 x i8]* @ap_fifo_str, i32 0, i32 0, [1 x i8]* @p_str, i32 0, i32 0, [1 x i8]* @p_str, [1 x i8]* @p_str, [1 x i8]* @p_str, i32 2, i32 2, i32 16, i32 16, [1 x i8]* @p_str, [1 x i8]* @p_str)"   --->   Operation 85 'specinterface' <Predicate = true> <Delay = 0.00>
ST_5 : Operation 86 [1/1] (0.00ns)   --->   "call void (...)* @_ssdm_op_SpecInterface(i1* @rx_udp2shiftFifo_V_l, [8 x i8]* @ap_fifo_str, i32 0, i32 0, [1 x i8]* @p_str, i32 0, i32 0, [1 x i8]* @p_str, [1 x i8]* @p_str, [1 x i8]* @p_str, i32 2, i32 2, i32 16, i32 16, [1 x i8]* @p_str, [1 x i8]* @p_str)"   --->   Operation 86 'specinterface' <Predicate = true> <Delay = 0.00>
ST_5 : Operation 87 [1/1] (0.00ns)   --->   "call void (...)* @_ssdm_op_SpecInterface(i49* @rx_udpMetaFifo_V, [8 x i8]* @ap_fifo_str, i32 0, i32 0, [1 x i8]* @p_str, i32 0, i32 0, [1 x i8]* @p_str, [1 x i8]* @p_str, [1 x i8]* @p_str, i32 2, i32 2, i32 16, i32 16, [1 x i8]* @p_str, [1 x i8]* @p_str)"   --->   Operation 87 'specinterface' <Predicate = true> <Delay = 0.00>
ST_5 : Operation 88 [1/1] (0.00ns)   --->   "call void (...)* @_ssdm_op_SpecInterface(i64* %input_V_data_V, i8* %input_V_keep_V, i1* %input_V_last_V, [5 x i8]* @p_str2, i32 1, i32 1, [5 x i8]* @p_str3, i32 0, i32 0, [1 x i8]* @p_str, [1 x i8]* @p_str, [1 x i8]* @p_str, i32 0, i32 0, i32 0, i32 0, [1 x i8]* @p_str, [1 x i8]* @p_str) nounwind"   --->   Operation 88 'specinterface' <Predicate = true> <Delay = 0.00>
ST_5 : Operation 89 [1/1] (0.00ns)   --->   "call void (...)* @_ssdm_op_SpecPipeline(i32 1, i32 1, i32 1, i32 0, [1 x i8]* @p_str) nounwind" [/home/paulrr2/Projects/ece527/babelsoc/fpga-network-stack/hls/udp/udp.cpp:37->/home/paulrr2/Projects/ece527/babelsoc/fpga-network-stack/hls/udp/udp.cpp:258]   --->   Operation 89 'specpipeline' <Predicate = true> <Delay = 0.00>
ST_5 : Operation 90 [1/1] (2.80ns)   --->   "call void @_ssdm_op_Write.ap_fifo.volatile.i64P.i8P.i1P(i64* @rx_udp2shiftFifo_V_d, i8* @rx_udp2shiftFifo_V_k, i1* @rx_udp2shiftFifo_V_l, i64 %tmp_data_V, i8 %tmp_keep_V, i1 %tmp_last_V)" [/home/paulrr2/Projects/ece527/babelsoc/fpga-network-stack/hls/udp/udp.cpp:55->/home/paulrr2/Projects/ece527/babelsoc/fpga-network-stack/hls/udp/udp.cpp:258]   --->   Operation 90 'write' <Predicate = (tmp & metaWritten_load & icmp_ln879)> <Delay = 2.80> <Core = "FIFO">   --->   Core 32 'FIFO' <Latency = 0> <II = 1> <Delay = 3.63> <Storage> <Opcode : 'read' 'write' 'nbread' 'nbwrite'> <Ports = 0> <Width = 49> <Depth = 2> <FIFO>
ST_5 : Operation 91 [1/1] (0.00ns)   --->   "br label %._crit_edge2.i.i" [/home/paulrr2/Projects/ece527/babelsoc/fpga-network-stack/hls/udp/udp.cpp:56->/home/paulrr2/Projects/ece527/babelsoc/fpga-network-stack/hls/udp/udp.cpp:258]   --->   Operation 91 'br' <Predicate = (tmp & metaWritten_load & icmp_ln879)> <Delay = 0.00>
ST_5 : Operation 92 [1/1] (0.00ns)   --->   "br label %._crit_edge6.new27.i.i"   --->   Operation 92 'br' <Predicate = (tmp & or_ln73)> <Delay = 0.00>
ST_5 : Operation 93 [1/1] (0.00ns)   --->   "br label %.exit" [/home/paulrr2/Projects/ece527/babelsoc/fpga-network-stack/hls/udp/udp.cpp:78->/home/paulrr2/Projects/ece527/babelsoc/fpga-network-stack/hls/udp/udp.cpp:258]   --->   Operation 93 'br' <Predicate = (tmp)> <Delay = 0.00>
ST_5 : Operation 94 [1/1] (0.00ns)   --->   "ret void" [/home/paulrr2/Projects/ece527/babelsoc/fpga-network-stack/hls/udp/udp.cpp:258]   --->   Operation 94 'ret' <Predicate = true> <Delay = 0.00>


============================================================
+ Verbose Summary: Timing violations
============================================================
Target clock period: 6.4ns, clock uncertainty: 0.8ns.

 <State 1>: 4.65ns
The critical path consists of the following:
	'load' operation ('packetHeader<64, 64>.idx', /home/paulrr2/Projects/ece527/babelsoc/fpga-network-stack/hls/udp/udp.cpp:51->/home/paulrr2/Projects/ece527/babelsoc/fpga-network-stack/hls/udp/udp.cpp:258) on static variable 'pu_header_idx' [36]  (0 ns)
	'add' operation ('add_ln67', /home/paulrr2/Projects/ece527/babelsoc/fpga-network-stack/hls/udp/../packet.hpp:67->/home/paulrr2/Projects/ece527/babelsoc/fpga-network-stack/hls/udp/udp.cpp:51->/home/paulrr2/Projects/ece527/babelsoc/fpga-network-stack/hls/udp/udp.cpp:258) [63]  (2.08 ns)
	multiplexor before 'phi' operation ('packetHeader_idx_0_i', /home/paulrr2/Projects/ece527/babelsoc/fpga-network-stack/hls/udp/udp.cpp:51->/home/paulrr2/Projects/ece527/babelsoc/fpga-network-stack/hls/udp/udp.cpp:258) with incoming values : ('packetHeader<64, 64>.idx', /home/paulrr2/Projects/ece527/babelsoc/fpga-network-stack/hls/udp/udp.cpp:51->/home/paulrr2/Projects/ece527/babelsoc/fpga-network-stack/hls/udp/udp.cpp:258) ('add_ln67', /home/paulrr2/Projects/ece527/babelsoc/fpga-network-stack/hls/udp/../packet.hpp:67->/home/paulrr2/Projects/ece527/babelsoc/fpga-network-stack/hls/udp/udp.cpp:51->/home/paulrr2/Projects/ece527/babelsoc/fpga-network-stack/hls/udp/udp.cpp:258) [67]  (1.77 ns)
	'phi' operation ('packetHeader_idx_0_i', /home/paulrr2/Projects/ece527/babelsoc/fpga-network-stack/hls/udp/udp.cpp:51->/home/paulrr2/Projects/ece527/babelsoc/fpga-network-stack/hls/udp/udp.cpp:258) with incoming values : ('packetHeader<64, 64>.idx', /home/paulrr2/Projects/ece527/babelsoc/fpga-network-stack/hls/udp/udp.cpp:51->/home/paulrr2/Projects/ece527/babelsoc/fpga-network-stack/hls/udp/udp.cpp:258) ('add_ln67', /home/paulrr2/Projects/ece527/babelsoc/fpga-network-stack/hls/udp/../packet.hpp:67->/home/paulrr2/Projects/ece527/babelsoc/fpga-network-stack/hls/udp/udp.cpp:51->/home/paulrr2/Projects/ece527/babelsoc/fpga-network-stack/hls/udp/udp.cpp:258) [67]  (0 ns)
	'select' operation ('select_ln73', /home/paulrr2/Projects/ece527/babelsoc/fpga-network-stack/hls/udp/udp.cpp:73->/home/paulrr2/Projects/ece527/babelsoc/fpga-network-stack/hls/udp/udp.cpp:258) [102]  (0.805 ns)
	'store' operation ('store_ln51', /home/paulrr2/Projects/ece527/babelsoc/fpga-network-stack/hls/udp/udp.cpp:51->/home/paulrr2/Projects/ece527/babelsoc/fpga-network-stack/hls/udp/udp.cpp:258) of variable 'select_ln73', /home/paulrr2/Projects/ece527/babelsoc/fpga-network-stack/hls/udp/udp.cpp:73->/home/paulrr2/Projects/ece527/babelsoc/fpga-network-stack/hls/udp/udp.cpp:258 on static variable 'pu_header_idx' [109]  (0 ns)

 <State 2>: 4.59ns
The critical path consists of the following:
	'select' operation ('select_ln414_1', /home/paulrr2/Projects/ece527/babelsoc/fpga-network-stack/hls/udp/../packet.hpp:64->/home/paulrr2/Projects/ece527/babelsoc/fpga-network-stack/hls/udp/udp.cpp:51->/home/paulrr2/Projects/ece527/babelsoc/fpga-network-stack/hls/udp/udp.cpp:258) [46]  (0 ns)
	'shl' operation ('shl_ln414', /home/paulrr2/Projects/ece527/babelsoc/fpga-network-stack/hls/udp/../packet.hpp:64->/home/paulrr2/Projects/ece527/babelsoc/fpga-network-stack/hls/udp/udp.cpp:51->/home/paulrr2/Projects/ece527/babelsoc/fpga-network-stack/hls/udp/udp.cpp:258) [52]  (4.59 ns)

 <State 3>: 4.53ns
The critical path consists of the following:
	'select' operation ('select_ln414', /home/paulrr2/Projects/ece527/babelsoc/fpga-network-stack/hls/udp/../packet.hpp:64->/home/paulrr2/Projects/ece527/babelsoc/fpga-network-stack/hls/udp/udp.cpp:51->/home/paulrr2/Projects/ece527/babelsoc/fpga-network-stack/hls/udp/udp.cpp:258) [45]  (0 ns)
	'shl' operation ('shl_ln414_1', /home/paulrr2/Projects/ece527/babelsoc/fpga-network-stack/hls/udp/../packet.hpp:64->/home/paulrr2/Projects/ece527/babelsoc/fpga-network-stack/hls/udp/udp.cpp:51->/home/paulrr2/Projects/ece527/babelsoc/fpga-network-stack/hls/udp/udp.cpp:258) [55]  (0 ns)
	'and' operation ('and_ln414', /home/paulrr2/Projects/ece527/babelsoc/fpga-network-stack/hls/udp/../packet.hpp:64->/home/paulrr2/Projects/ece527/babelsoc/fpga-network-stack/hls/udp/udp.cpp:51->/home/paulrr2/Projects/ece527/babelsoc/fpga-network-stack/hls/udp/udp.cpp:258) [57]  (3.04 ns)
	'xor' operation ('xor_ln414', /home/paulrr2/Projects/ece527/babelsoc/fpga-network-stack/hls/udp/../packet.hpp:64->/home/paulrr2/Projects/ece527/babelsoc/fpga-network-stack/hls/udp/udp.cpp:51->/home/paulrr2/Projects/ece527/babelsoc/fpga-network-stack/hls/udp/udp.cpp:258) [58]  (0 ns)
	'and' operation ('and_ln414_1', /home/paulrr2/Projects/ece527/babelsoc/fpga-network-stack/hls/udp/../packet.hpp:64->/home/paulrr2/Projects/ece527/babelsoc/fpga-network-stack/hls/udp/udp.cpp:51->/home/paulrr2/Projects/ece527/babelsoc/fpga-network-stack/hls/udp/udp.cpp:258) [59]  (0 ns)
	'or' operation ('__Result__', /home/paulrr2/Projects/ece527/babelsoc/fpga-network-stack/hls/udp/../packet.hpp:64->/home/paulrr2/Projects/ece527/babelsoc/fpga-network-stack/hls/udp/udp.cpp:51->/home/paulrr2/Projects/ece527/babelsoc/fpga-network-stack/hls/udp/udp.cpp:258) [61]  (1.48 ns)

 <State 4>: 5.23ns
The critical path consists of the following:
	'load' operation ('__Val2__', /home/paulrr2/Projects/ece527/babelsoc/fpga-network-stack/hls/udp/udp.hpp:99->/home/paulrr2/Projects/ece527/babelsoc/fpga-network-stack/hls/udp/udp.cpp:61->/home/paulrr2/Projects/ece527/babelsoc/fpga-network-stack/hls/udp/udp.cpp:258) on static variable 'pu_header_header_V' [84]  (0 ns)
	'icmp' operation ('valid', /home/paulrr2/Projects/ece527/babelsoc/fpga-network-stack/hls/udp/udp.cpp:69->/home/paulrr2/Projects/ece527/babelsoc/fpga-network-stack/hls/udp/udp.cpp:258) [94]  (2.43 ns)
	fifo write on port 'rx_udpMetaFifo_V' (/home/paulrr2/Projects/ece527/babelsoc/fpga-network-stack/hls/udp/udp.cpp:69->/home/paulrr2/Projects/ece527/babelsoc/fpga-network-stack/hls/udp/udp.cpp:258) [96]  (2.8 ns)

 <State 5>: 2.8ns
The critical path consists of the following:
	fifo write on port 'rx_udp2shiftFifo_V_d' (/home/paulrr2/Projects/ece527/babelsoc/fpga-network-stack/hls/udp/udp.cpp:55->/home/paulrr2/Projects/ece527/babelsoc/fpga-network-stack/hls/udp/udp.cpp:258) [79]  (2.8 ns)


============================================================
+ Verbose Summary: Binding
============================================================
N/A
* FSMD analyzer results:
  - Output states:
 - Input state : 
  - Chain level:
	State 1
	State 2
	State 3
	State 4
	State 5


============================================================
+ Verbose Summary: Datapath Resource usage 
============================================================
N/A
