

================================================================
== Vivado HLS Report for 'compute_ipv4_checksu'
================================================================
* Date:           Fri Dec 18 10:37:54 2020

* Version:        2019.1 (Build 2552052 on Fri May 24 15:28:33 MDT 2019)
* Project:        ip_handler_prj
* Solution:       solution1
* Product family: zynq
* Target device:  xc7z020-clg400-1


================================================================
== Performance Estimates
================================================================
+ Timing (ns): 
    * Summary: 
    +--------+-------+----------+------------+
    |  Clock | Target| Estimated| Uncertainty|
    +--------+-------+----------+------------+
    |ap_clk  |   6.40|     8.646|        0.80|
    +--------+-------+----------+------------+

+ Latency (clock cycles): 
    * Summary: 
    +-----+-----+-----+-----+----------+
    |  Latency  |  Interval | Pipeline |
    | min | max | min | max |   Type   |
    +-----+-----+-----+-----+----------+
    |    2|    2|    1|    1| function |
    +-----+-----+-----+-----+----------+

    + Detail: 
        * Instance: 
        N/A

        * Loop: 
        N/A



================================================================
== Utilization Estimates
================================================================
* Summary: 
+-----------------+---------+-------+--------+-------+-----+
|       Name      | BRAM_18K| DSP48E|   FF   |  LUT  | URAM|
+-----------------+---------+-------+--------+-------+-----+
|DSP              |        -|      -|       -|      -|    -|
|Expression       |        -|      -|       0|    929|    -|
|FIFO             |        -|      -|       -|      -|    -|
|Instance         |        -|      -|       -|      -|    -|
|Memory           |        -|      -|       -|      -|    -|
|Multiplexer      |        -|      -|       -|    246|    -|
|Register         |        -|      -|     286|      -|    -|
+-----------------+---------+-------+--------+-------+-----+
|Total            |        0|      0|     286|   1175|    0|
+-----------------+---------+-------+--------+-------+-----+
|Available        |      280|    220|  106400|  53200|    0|
+-----------------+---------+-------+--------+-------+-----+
|Utilization (%)  |        0|      0|   ~0   |      2|    0|
+-----------------+---------+-------+--------+-------+-----+

+ Detail: 
    * Instance: 
    N/A

    * DSP48E: 
    N/A

    * Memory: 
    N/A

    * FIFO: 
    N/A

    * Expression: 
    +----------------------------------+----------+-------+---+----+------------+------------+
    |           Variable Name          | Operation| DSP48E| FF| LUT| Bitwidth P0| Bitwidth P1|
    +----------------------------------+----------+-------+---+----+------------+------------+
    |add_ln214_10_fu_489_p2            |     +    |      0|  0|  16|          16|          16|
    |add_ln214_11_fu_495_p2            |     +    |      0|  0|  16|          16|          16|
    |add_ln214_12_fu_532_p2            |     +    |      0|  0|  16|          16|          16|
    |add_ln214_13_fu_538_p2            |     +    |      0|  0|  16|          16|          16|
    |add_ln214_14_fu_575_p2            |     +    |      0|  0|  16|          16|          16|
    |add_ln214_15_fu_581_p2            |     +    |      0|  0|  16|          16|          16|
    |add_ln214_16_fu_918_p2            |     +    |      0|  0|  16|          16|          16|
    |add_ln214_17_fu_924_p2            |     +    |      0|  0|  16|          16|          16|
    |add_ln214_18_fu_961_p2            |     +    |      0|  0|  16|          16|          16|
    |add_ln214_19_fu_967_p2            |     +    |      0|  0|  16|          16|          16|
    |add_ln214_1_fu_642_p2             |     +    |      0|  0|  16|          16|          16|
    |add_ln214_20_fu_1004_p2           |     +    |      0|  0|  16|          16|          16|
    |add_ln214_21_fu_1010_p2           |     +    |      0|  0|  16|          16|          16|
    |add_ln214_22_fu_1047_p2           |     +    |      0|  0|  16|          16|          16|
    |add_ln214_23_fu_1053_p2           |     +    |      0|  0|  16|          16|          16|
    |add_ln214_24_fu_823_p2            |     +    |      0|  0|  16|          16|          16|
    |add_ln214_25_fu_829_p2            |     +    |      0|  0|  16|          16|          16|
    |add_ln214_26_fu_866_p2            |     +    |      0|  0|  16|          16|          16|
    |add_ln214_27_fu_872_p2            |     +    |      0|  0|  16|          16|          16|
    |add_ln214_2_fu_679_p2             |     +    |      0|  0|  16|          16|          16|
    |add_ln214_3_fu_685_p2             |     +    |      0|  0|  16|          16|          16|
    |add_ln214_4_fu_722_p2             |     +    |      0|  0|  16|          16|          16|
    |add_ln214_5_fu_728_p2             |     +    |      0|  0|  16|          16|          16|
    |add_ln214_6_fu_765_p2             |     +    |      0|  0|  16|          16|          16|
    |add_ln214_7_fu_771_p2             |     +    |      0|  0|  16|          16|          16|
    |add_ln214_8_fu_446_p2             |     +    |      0|  0|  16|          16|          16|
    |add_ln214_9_fu_452_p2             |     +    |      0|  0|  16|          16|          16|
    |add_ln214_fu_636_p2               |     +    |      0|  0|  16|          16|          16|
    |add_ln700_10_fu_986_p2            |     +    |      0|  0|  24|          17|          17|
    |add_ln700_11_fu_1029_p2           |     +    |      0|  0|  24|          17|          17|
    |add_ln700_12_fu_805_p2            |     +    |      0|  0|  24|          17|          17|
    |add_ln700_13_fu_848_p2            |     +    |      0|  0|  24|          17|          17|
    |add_ln700_1_fu_661_p2             |     +    |      0|  0|  24|          17|          17|
    |add_ln700_2_fu_704_p2             |     +    |      0|  0|  24|          17|          17|
    |add_ln700_3_fu_747_p2             |     +    |      0|  0|  24|          17|          17|
    |add_ln700_4_fu_428_p2             |     +    |      0|  0|  24|          17|          17|
    |add_ln700_5_fu_471_p2             |     +    |      0|  0|  24|          17|          17|
    |add_ln700_6_fu_514_p2             |     +    |      0|  0|  24|          17|          17|
    |add_ln700_7_fu_557_p2             |     +    |      0|  0|  24|          17|          17|
    |add_ln700_8_fu_900_p2             |     +    |      0|  0|  24|          17|          17|
    |add_ln700_9_fu_943_p2             |     +    |      0|  0|  24|          17|          17|
    |add_ln700_fu_618_p2               |     +    |      0|  0|  24|          17|          17|
    |add_ln701_1_fu_588_p2             |     +    |      0|  0|  13|           3|           4|
    |add_ln701_2_fu_1066_p2            |     +    |      0|  0|  13|           4|           3|
    |add_ln701_fu_778_p2               |     +    |      0|  0|  13|           3|           4|
    |ap_block_state2_pp0_stage0_iter1  |    and   |      0|  0|   2|           1|           1|
    |ap_condition_138                  |    and   |      0|  0|   2|           1|           1|
    |ap_condition_303                  |    and   |      0|  0|   2|           1|           1|
    |ap_condition_869                  |    and   |      0|  0|   2|           1|           1|
    |ap_condition_873                  |    and   |      0|  0|   2|           1|           1|
    |ap_predicate_op198_write_state3   |    and   |      0|  0|   2|           1|           1|
    |ap_predicate_op204_write_state3   |    and   |      0|  0|   2|           1|           1|
    |io_acc_block_signal_op6           |    and   |      0|  0|   2|           1|           1|
    |icmp_ln879_fu_1060_p2             |   icmp   |      0|  0|   9|           4|           2|
    |ap_block_pp0_stage0_01001         |    or    |      0|  0|   2|           1|           1|
    |ap_block_state1_pp0_stage0_iter0  |    or    |      0|  0|   2|           1|           1|
    |ap_block_state3_pp0_stage0_iter2  |    or    |      0|  0|   2|           1|           1|
    |or_ln117_1_fu_1090_p2             |    or    |      0|  0|   2|           1|           1|
    |or_ln117_2_fu_1109_p2             |    or    |      0|  0|   2|           1|           1|
    |or_ln117_fu_1078_p2               |    or    |      0|  0|   2|           1|           1|
    |select_ln117_1_fu_1095_p3         |  select  |      0|  0|  16|           1|           1|
    |select_ln117_2_fu_1102_p3         |  select  |      0|  0|  16|           1|           1|
    |select_ln117_3_fu_1114_p3         |  select  |      0|  0|  16|           1|           1|
    |select_ln117_4_fu_1121_p3         |  select  |      0|  0|  16|           1|           1|
    |select_ln117_fu_1083_p3           |  select  |      0|  0|   3|           1|           1|
    |ap_enable_pp0                     |    xor   |      0|  0|   2|           1|           2|
    +----------------------------------+----------+-------+---+----+------------+------------+
    |Total                             |          |      0|  0| 929|         720|         720|
    +----------------------------------+----------+-------+---+----+------------+------------+

    * Multiplexer: 
    +--------------------------------------------------+----+-----------+-----+-----------+
    |                       Name                       | LUT| Input Size| Bits| Total Bits|
    +--------------------------------------------------+----+-----------+-----+-----------+
    |ap_done                                           |   9|          2|    1|          2|
    |ap_phi_mux_cics_ip_sums_sum_V_0_2_phi_fu_187_p10  |  15|          3|    1|          3|
    |ap_phi_mux_cics_ip_sums_sum_V_0_3_phi_fu_207_p10  |  27|          5|   16|         80|
    |ap_phi_mux_cics_ip_sums_sum_V_1_2_phi_fu_223_p10  |  27|          5|   16|         80|
    |ap_phi_mux_cics_ip_sums_sum_V_2_2_phi_fu_239_p10  |  15|          3|    1|          3|
    |ap_phi_mux_cics_ip_sums_sum_V_2_3_phi_fu_259_p10  |  21|          4|   16|         64|
    |ap_phi_mux_cics_ip_sums_sum_V_3_2_phi_fu_276_p10  |  21|          4|   16|         64|
    |ap_phi_mux_cics_wordCount_V_fla_phi_fu_147_p10    |  15|          3|    1|          3|
    |ap_phi_mux_cics_wordCount_V_new_phi_fu_167_p10    |  15|          3|    3|          9|
    |cics_ipHeaderLen_V                                |  21|          4|    4|         16|
    |ipDataCheckFifo_V_blk_n                           |   9|          2|    1|          2|
    |ipDataMetaFifo_V_dat_blk_n                        |   9|          2|    1|          2|
    |ipDataMetaFifo_V_kee_blk_n                        |   9|          2|    1|          2|
    |ipDataMetaFifo_V_las_blk_n                        |   9|          2|    1|          2|
    |iph_subSumsFifoOut_V_blk_n                        |   9|          2|    1|          2|
    |iph_subSumsFifoOut_V_din                          |  15|          3|   68|        204|
    +--------------------------------------------------+----+-----------+-----+-----------+
    |Total                                             | 246|         49|  148|        538|
    +--------------------------------------------------+----+-----------+-----+-----------+

    * Register: 
    +---------------------------------+----+----+-----+-----------+
    |               Name              | FF | LUT| Bits| Const Bits|
    +---------------------------------+----+----+-----+-----------+
    |add_ln214_17_reg_1271            |  16|   0|   16|          0|
    |add_ln214_19_reg_1276            |  16|   0|   16|          0|
    |add_ln214_21_reg_1281            |  16|   0|   16|          0|
    |add_ln214_23_reg_1286            |  16|   0|   16|          0|
    |add_ln214_25_reg_1261            |  16|   0|   16|          0|
    |add_ln214_27_reg_1266            |  16|   0|   16|          0|
    |ap_CS_fsm                        |   1|   0|    1|          0|
    |ap_done_reg                      |   1|   0|    1|          0|
    |ap_enable_reg_pp0_iter1          |   1|   0|    1|          0|
    |ap_enable_reg_pp0_iter2          |   1|   0|    1|          0|
    |cics_ipHeaderLen_V               |   4|   0|    4|          0|
    |cics_ipHeaderLen_V_l_reg_1257    |   4|   0|    4|          0|
    |cics_ip_sums_sum_V_0             |  16|   0|   16|          0|
    |cics_ip_sums_sum_V_1             |  16|   0|   16|          0|
    |cics_ip_sums_sum_V_2             |  16|   0|   16|          0|
    |cics_ip_sums_sum_V_3             |  16|   0|   16|          0|
    |cics_ip_sums_sum_V_3_1_reg_1252  |  16|   0|   16|          0|
    |cics_wordCount_V                 |   3|   0|    3|          0|
    |icmp_ln879_reg_1291              |   1|   0|    1|          0|
    |t_V_reg_1243                     |   3|   0|    3|          0|
    |tmp_data_V_reg_1208              |  64|   0|   64|          0|
    |tmp_keep_V_reg_1225              |   8|   0|    8|          0|
    |tmp_last_V_reg_1230              |   1|   0|    1|          0|
    |tmp_reg_1204                     |   1|   0|    1|          0|
    |tmp_reg_1204_pp0_iter1_reg       |   1|   0|    1|          0|
    |zext_ln700_2_reg_1247            |  16|   0|   17|          1|
    +---------------------------------+----+----+-----+-----------+
    |Total                            | 286|   0|  287|          1|
    +---------------------------------+----+----+-----+-----------+



================================================================
== Interface
================================================================
* Summary: 
+------------------------------+-----+-----+------------+----------------------+--------------+
|           RTL Ports          | Dir | Bits|  Protocol  |     Source Object    |    C Type    |
+------------------------------+-----+-----+------------+----------------------+--------------+
|ap_clk                        |  in |    1| ap_ctrl_hs | compute_ipv4_checksu | return value |
|ap_rst                        |  in |    1| ap_ctrl_hs | compute_ipv4_checksu | return value |
|ap_start                      |  in |    1| ap_ctrl_hs | compute_ipv4_checksu | return value |
|ap_done                       | out |    1| ap_ctrl_hs | compute_ipv4_checksu | return value |
|ap_continue                   |  in |    1| ap_ctrl_hs | compute_ipv4_checksu | return value |
|ap_idle                       | out |    1| ap_ctrl_hs | compute_ipv4_checksu | return value |
|ap_ready                      | out |    1| ap_ctrl_hs | compute_ipv4_checksu | return value |
|ipDataMetaFifo_V_dat_dout     |  in |   64|   ap_fifo  | ipDataMetaFifo_V_dat |    pointer   |
|ipDataMetaFifo_V_dat_empty_n  |  in |    1|   ap_fifo  | ipDataMetaFifo_V_dat |    pointer   |
|ipDataMetaFifo_V_dat_read     | out |    1|   ap_fifo  | ipDataMetaFifo_V_dat |    pointer   |
|ipDataMetaFifo_V_kee_dout     |  in |    8|   ap_fifo  | ipDataMetaFifo_V_kee |    pointer   |
|ipDataMetaFifo_V_kee_empty_n  |  in |    1|   ap_fifo  | ipDataMetaFifo_V_kee |    pointer   |
|ipDataMetaFifo_V_kee_read     | out |    1|   ap_fifo  | ipDataMetaFifo_V_kee |    pointer   |
|ipDataMetaFifo_V_las_dout     |  in |    1|   ap_fifo  | ipDataMetaFifo_V_las |    pointer   |
|ipDataMetaFifo_V_las_empty_n  |  in |    1|   ap_fifo  | ipDataMetaFifo_V_las |    pointer   |
|ipDataMetaFifo_V_las_read     | out |    1|   ap_fifo  | ipDataMetaFifo_V_las |    pointer   |
|ipDataCheckFifo_V_din         | out |   73|   ap_fifo  |   ipDataCheckFifo_V  |    pointer   |
|ipDataCheckFifo_V_full_n      |  in |    1|   ap_fifo  |   ipDataCheckFifo_V  |    pointer   |
|ipDataCheckFifo_V_write       | out |    1|   ap_fifo  |   ipDataCheckFifo_V  |    pointer   |
|iph_subSumsFifoOut_V_din      | out |   68|   ap_fifo  | iph_subSumsFifoOut_V |    pointer   |
|iph_subSumsFifoOut_V_full_n   |  in |    1|   ap_fifo  | iph_subSumsFifoOut_V |    pointer   |
|iph_subSumsFifoOut_V_write    | out |    1|   ap_fifo  | iph_subSumsFifoOut_V |    pointer   |
+------------------------------+-----+-----+------------+----------------------+--------------+

