

================================================================
== Vivado HLS Report for 'detect_eth_protocol3'
================================================================
* Date:           Fri Dec 18 10:37:51 2020

* Version:        2019.1 (Build 2552052 on Fri May 24 15:28:33 MDT 2019)
* Project:        ip_handler_prj
* Solution:       solution1
* Product family: zynq
* Target device:  xc7z020-clg400-1


================================================================
== Performance Estimates
================================================================
+ Timing (ns): 
    * Summary: 
    +--------+-------+----------+------------+
    |  Clock | Target| Estimated| Uncertainty|
    +--------+-------+----------+------------+
    |ap_clk  |   6.40|     9.406|        0.80|
    +--------+-------+----------+------------+

+ Latency (clock cycles): 
    * Summary: 
    +-----+-----+-----+-----+----------+
    |  Latency  |  Interval | Pipeline |
    | min | max | min | max |   Type   |
    +-----+-----+-----+-----+----------+
    |    3|    3|    1|    1| function |
    +-----+-----+-----+-----+----------+

    + Detail: 
        * Instance: 
        N/A

        * Loop: 
        N/A



================================================================
== Utilization Estimates
================================================================
* Summary: 
+-----------------+---------+-------+--------+-------+-----+
|       Name      | BRAM_18K| DSP48E|   FF   |  LUT  | URAM|
+-----------------+---------+-------+--------+-------+-----+
|DSP              |        -|      -|       -|      -|    -|
|Expression       |        -|      -|       0|   2031|    -|
|FIFO             |        -|      -|       -|      -|    -|
|Instance         |        -|      -|       -|      -|    -|
|Memory           |        -|      -|       -|      -|    -|
|Multiplexer      |        -|      -|       -|    117|    -|
|Register         |        0|      -|     373|     32|    -|
+-----------------+---------+-------+--------+-------+-----+
|Total            |        0|      0|     373|   2180|    0|
+-----------------+---------+-------+--------+-------+-----+
|Available        |      280|    220|  106400|  53200|    0|
+-----------------+---------+-------+--------+-------+-----+
|Utilization (%)  |        0|      0|   ~0   |      4|    0|
+-----------------+---------+-------+--------+-------+-----+

+ Detail: 
    * Instance: 
    N/A

    * DSP48E: 
    N/A

    * Memory: 
    N/A

    * FIFO: 
    N/A

    * Expression: 
    +----------------------------------+----------+-------+---+-----+------------+------------+
    |           Variable Name          | Operation| DSP48E| FF| LUT | Bitwidth P0| Bitwidth P1|
    +----------------------------------+----------+-------+---+-----+------------+------------+
    |add_ln58_fu_225_p2                |     +    |      0|  0|   30|          23|           7|
    |add_ln67_fu_244_p2                |     +    |      0|  0|   23|          16|           1|
    |sub_ln58_2_fu_331_p2              |     -    |      0|  0|   15|           6|           7|
    |sub_ln58_fu_317_p2                |     -    |      0|  0|   15|           6|           7|
    |and_ln58_3_fu_437_p2              |    and   |      0|  0|  112|         112|         112|
    |and_ln58_4_fu_443_p2              |    and   |      0|  0|  112|         112|         112|
    |and_ln58_fu_425_p2                |    and   |      0|  0|  112|         112|         112|
    |and_ln62_fu_263_p2                |    and   |      0|  0|    2|           1|           1|
    |ap_block_state2_pp0_stage0_iter1  |    and   |      0|  0|    2|           1|           1|
    |ap_condition_126                  |    and   |      0|  0|    2|           1|           1|
    |ap_condition_136                  |    and   |      0|  0|    2|           1|           1|
    |ap_predicate_op156_write_state4   |    and   |      0|  0|    2|           1|           1|
    |io_acc_block_signal_op44          |    and   |      0|  0|    2|           1|           1|
    |tmp_nbreadreq_fu_102_p5           |    and   |      0|  0|    2|           1|           0|
    |icmp_ln58_2_fu_301_p2             |   icmp   |      0|  0|   18|          22|          22|
    |icmp_ln58_fu_231_p2               |   icmp   |      0|  0|   18|          23|           7|
    |lshr_ln58_fu_419_p2               |   lshr   |      0|  0|  375|           2|         112|
    |ap_block_pp0_stage0_01001         |    or    |      0|  0|    2|           1|           1|
    |ap_block_state1_pp0_stage0_iter0  |    or    |      0|  0|    2|           1|           1|
    |ap_block_state4_pp0_stage0_iter3  |    or    |      0|  0|    2|           1|           1|
    |or_ln54_fu_346_p2                 |    or    |      0|  0|    2|           1|           1|
    |or_ln58_fu_449_p2                 |    or    |      0|  0|  112|         112|         112|
    |or_ln60_fu_289_p2                 |    or    |      0|  0|   22|           6|          22|
    |or_ln62_fu_352_p2                 |    or    |      0|  0|    2|           1|           1|
    |or_ln73_fu_251_p2                 |    or    |      0|  0|    2|           1|           1|
    |select_ln58_5_fu_323_p3           |  select  |      0|  0|    7|           1|           7|
    |select_ln58_6_fu_369_p3           |  select  |      0|  0|    7|           1|           7|
    |select_ln58_7_fu_374_p3           |  select  |      0|  0|    7|           1|           7|
    |select_ln58_8_fu_406_p3           |  select  |      0|  0|  112|           1|         112|
    |select_ln58_fu_294_p3             |  select  |      0|  0|   22|           1|          22|
    |select_ln62_fu_269_p3             |  select  |      0|  0|   16|           1|           1|
    |shl_ln58_2_fu_413_p2              |    shl   |      0|  0|  375|           2|         112|
    |shl_ln58_fu_390_p2                |    shl   |      0|  0|  375|         112|         112|
    |ap_enable_pp0                     |    xor   |      0|  0|    2|           1|           2|
    |xor_ln54_fu_341_p2                |    xor   |      0|  0|    2|           1|           2|
    |xor_ln58_2_fu_237_p2              |    xor   |      0|  0|    2|           1|           2|
    |xor_ln58_fu_431_p2                |    xor   |      0|  0|  112|           2|         112|
    |xor_ln62_fu_257_p2                |    xor   |      0|  0|    2|           1|           2|
    +----------------------------------+----------+-------+---+-----+------------+------------+
    |Total                             |          |      0|  0| 2031|         691|        1145|
    +----------------------------------+----------+-------+---+-----+------------+------------+

    * Multiplexer: 
    +-----------------------------------------------+----+-----------+-----+-----------+
    |                      Name                     | LUT| Input Size| Bits| Total Bits|
    +-----------------------------------------------+----+-----------+-----+-----------+
    |ap_done                                        |   9|          2|    1|          2|
    |ap_phi_mux_metaWritten_1_flag_0_phi_fu_180_p4  |  15|          3|    1|          3|
    |ap_phi_mux_phi_ln73_phi_fu_161_p4              |  15|          3|   16|         48|
    |ap_phi_mux_write_flag_1_i_i_i_i_phi_fu_170_p4  |  15|          3|    1|          3|
    |ethDataFifo_V_data_V_blk_n                     |   9|          2|    1|          2|
    |ethDataFifo_V_keep_V_blk_n                     |   9|          2|    1|          2|
    |ethDataFifo_V_last_V_blk_n                     |   9|          2|    1|          2|
    |etherTypeFifo_V_V_blk_n                        |   9|          2|    1|          2|
    |myIpAddress_V_blk_n                            |   9|          2|    1|          2|
    |myIpAddress_V_out_blk_n                        |   9|          2|    1|          2|
    |s_axis_raw_TDATA_blk_n                         |   9|          2|    1|          2|
    +-----------------------------------------------+----+-----------+-----+-----------+
    |Total                                          | 117|         25|   26|         70|
    +-----------------------------------------------+----+-----------+-----+-----------+

    * Register: 
    +-----------------------------------------+-----+----+-----+-----------+
    |                   Name                  |  FF | LUT| Bits| Const Bits|
    +-----------------------------------------+-----+----+-----+-----------+
    |Lo_assign_i_reg_524                      |   16|   0|   22|          6|
    |ap_CS_fsm                                |    1|   0|    1|          0|
    |ap_done_reg                              |    1|   0|    1|          0|
    |ap_enable_reg_pp0_iter1                  |    1|   0|    1|          0|
    |ap_enable_reg_pp0_iter2                  |    1|   0|    1|          0|
    |ap_enable_reg_pp0_iter3                  |    1|   0|    1|          0|
    |header_header_V_1                        |  112|   0|  112|          0|
    |header_idx_1                             |   16|   0|   16|          0|
    |header_ready                             |    1|   0|    1|          0|
    |header_ready_load_reg_515                |    1|   0|    1|          0|
    |header_ready_load_reg_515_pp0_iter1_reg  |    1|   0|    1|          0|
    |icmp_ln58_2_reg_545                      |    1|   0|    1|          0|
    |icmp_ln58_reg_530                        |    1|   0|    1|          0|
    |metaWritten_1                            |    1|   0|    1|          0|
    |or_ln54_reg_573                          |    1|   0|    1|          0|
    |or_ln54_reg_573_pp0_iter2_reg            |    1|   0|    1|          0|
    |or_ln73_reg_535                          |    1|   0|    1|          0|
    |sub_ln58_2_reg_568                       |    7|   0|    7|          0|
    |sub_ln58_reg_563                         |    1|   0|    7|          6|
    |tmp_23_reg_552                           |    1|   0|    7|          6|
    |tmp_data_V_reg_498                       |   64|   0|   64|          0|
    |tmp_data_V_reg_498_pp0_iter1_reg         |   64|   0|   64|          0|
    |tmp_keep_V_reg_504                       |    8|   0|    8|          0|
    |tmp_last_V_reg_509                       |    1|   0|    1|          0|
    |tmp_reg_494                              |    1|   0|    1|          0|
    |trunc_ln58_2_reg_558                     |    2|   0|    7|          5|
    |trunc_ln58_reg_519                       |    1|   0|    1|          0|
    |xor_ln62_reg_540                         |    1|   0|    1|          0|
    |tmp_reg_494                              |   64|  32|    1|          0|
    +-----------------------------------------+-----+----+-----+-----------+
    |Total                                    |  373|  32|  333|         23|
    +-----------------------------------------+-----+----+-----+-----------+



================================================================
== Interface
================================================================
* Summary: 
+-----------------------------+-----+-----+------------+----------------------+--------------+
|          RTL Ports          | Dir | Bits|  Protocol  |     Source Object    |    C Type    |
+-----------------------------+-----+-----+------------+----------------------+--------------+
|ap_clk                       |  in |    1| ap_ctrl_hs | detect_eth_protocol3 | return value |
|ap_rst                       |  in |    1| ap_ctrl_hs | detect_eth_protocol3 | return value |
|ap_start                     |  in |    1| ap_ctrl_hs | detect_eth_protocol3 | return value |
|ap_done                      | out |    1| ap_ctrl_hs | detect_eth_protocol3 | return value |
|ap_continue                  |  in |    1| ap_ctrl_hs | detect_eth_protocol3 | return value |
|ap_idle                      | out |    1| ap_ctrl_hs | detect_eth_protocol3 | return value |
|ap_ready                     | out |    1| ap_ctrl_hs | detect_eth_protocol3 | return value |
|s_axis_raw_TVALID            |  in |    1|    axis    |    dataIn_V_data_V   |    pointer   |
|s_axis_raw_TDATA             |  in |   64|    axis    |    dataIn_V_data_V   |    pointer   |
|ethDataFifo_V_data_V_din     | out |   64|   ap_fifo  | ethDataFifo_V_data_V |    pointer   |
|ethDataFifo_V_data_V_full_n  |  in |    1|   ap_fifo  | ethDataFifo_V_data_V |    pointer   |
|ethDataFifo_V_data_V_write   | out |    1|   ap_fifo  | ethDataFifo_V_data_V |    pointer   |
|ethDataFifo_V_keep_V_din     | out |    8|   ap_fifo  | ethDataFifo_V_keep_V |    pointer   |
|ethDataFifo_V_keep_V_full_n  |  in |    1|   ap_fifo  | ethDataFifo_V_keep_V |    pointer   |
|ethDataFifo_V_keep_V_write   | out |    1|   ap_fifo  | ethDataFifo_V_keep_V |    pointer   |
|ethDataFifo_V_last_V_din     | out |    1|   ap_fifo  | ethDataFifo_V_last_V |    pointer   |
|ethDataFifo_V_last_V_full_n  |  in |    1|   ap_fifo  | ethDataFifo_V_last_V |    pointer   |
|ethDataFifo_V_last_V_write   | out |    1|   ap_fifo  | ethDataFifo_V_last_V |    pointer   |
|myIpAddress_V_dout           |  in |   32|   ap_fifo  |     myIpAddress_V    |    pointer   |
|myIpAddress_V_empty_n        |  in |    1|   ap_fifo  |     myIpAddress_V    |    pointer   |
|myIpAddress_V_read           | out |    1|   ap_fifo  |     myIpAddress_V    |    pointer   |
|myIpAddress_V_out_din        | out |   32|   ap_fifo  |   myIpAddress_V_out  |    pointer   |
|myIpAddress_V_out_full_n     |  in |    1|   ap_fifo  |   myIpAddress_V_out  |    pointer   |
|myIpAddress_V_out_write      | out |    1|   ap_fifo  |   myIpAddress_V_out  |    pointer   |
|etherTypeFifo_V_V_din        | out |   16|   ap_fifo  |   etherTypeFifo_V_V  |    pointer   |
|etherTypeFifo_V_V_full_n     |  in |    1|   ap_fifo  |   etherTypeFifo_V_V  |    pointer   |
|etherTypeFifo_V_V_write      | out |    1|   ap_fifo  |   etherTypeFifo_V_V  |    pointer   |
|s_axis_raw_TREADY            | out |    1|    axis    |    dataIn_V_last_V   |    pointer   |
|s_axis_raw_TLAST             |  in |    1|    axis    |    dataIn_V_last_V   |    pointer   |
|s_axis_raw_TKEEP             |  in |    8|    axis    |    dataIn_V_keep_V   |    pointer   |
+-----------------------------+-----+-----+------------+----------------------+--------------+

