

================================================================
== Vivado HLS Report for 'dhcp_client'
================================================================
* Date:           Sat Dec 12 19:23:48 2020

* Version:        2019.2.1 (Build 2724168 on Thu Dec 05 05:19:09 MST 2019)
* Project:        dhcp_client_prj
* Solution:       solution1
* Product family: zynq
* Target device:  xc7z020-clg400-1


================================================================
== Performance Estimates
================================================================
+ Timing: 
    * Summary: 
    +--------+---------+----------+------------+
    |  Clock |  Target | Estimated| Uncertainty|
    +--------+---------+----------+------------+
    |ap_clk  | 6.40 ns | 7.980 ns |   0.80 ns  |
    +--------+---------+----------+------------+

+ Latency: 
    * Summary: 
    +---------+---------+-----------+-----------+-----+-----+----------+
    |  Latency (cycles) |   Latency (absolute)  |  Interval | Pipeline |
    |   min   |   max   |    min    |    max    | min | max |   Type   |
    +---------+---------+-----------+-----------+-----+-----+----------+
    |        7|        7| 55.863 ns | 55.863 ns |    1|    1| dataflow |
    +---------+---------+-----------+-----------+-----+-----+----------+

    + Detail: 
        * Instance: 
        +--------------------+-----------------+---------+---------+-----------+-----------+-----+-----+----------+
        |                    |                 |  Latency (cycles) |   Latency (absolute)  |  Interval | Pipeline |
        |      Instance      |      Module     |   min   |   max   |    min    |    max    | min | max |   Type   |
        +--------------------+-----------------+---------+---------+-----------+-----------+-----+-----+----------+
        |send_message_U0     |send_message     |        2|        2| 15.961 ns | 15.961 ns |    1|    1| function |
        |dhcp_fsm_U0         |dhcp_fsm         |        1|        1|  7.980 ns |  7.980 ns |    1|    1| function |
        |receive_message_U0  |receive_message  |        2|        2| 15.961 ns | 15.961 ns |    1|    1| function |
        |open_dhcp_port_U0   |open_dhcp_port   |        1|        1|  7.980 ns |  7.980 ns |    1|    1| function |
        +--------------------+-----------------+---------+---------+-----------+-----------+-----+-----+----------+

        * Loop: 
        N/A



================================================================
== Utilization Estimates
================================================================
* Summary: 
+-----------------+---------+-------+--------+-------+-----+
|       Name      | BRAM_18K| DSP48E|   FF   |  LUT  | URAM|
+-----------------+---------+-------+--------+-------+-----+
|DSP              |        -|      -|       -|      -|    -|
|Expression       |        -|      -|       -|      -|    -|
|FIFO             |        0|      -|      15|    216|    -|
|Instance         |        -|      -|     682|   1052|    -|
|Memory           |        -|      -|       -|      -|    -|
|Multiplexer      |        -|      -|       -|      -|    -|
|Register         |        -|      -|       -|      -|    -|
+-----------------+---------+-------+--------+-------+-----+
|Total            |        0|      0|     697|   1268|    0|
+-----------------+---------+-------+--------+-------+-----+
|Available        |      280|    220|  106400|  53200|    0|
+-----------------+---------+-------+--------+-------+-----+
|Utilization (%)  |        0|      0|   ~0   |      2|    0|
+-----------------+---------+-------+--------+-------+-----+

+ Detail: 
    * Instance: 
    +--------------------+-----------------+---------+-------+-----+-----+-----+
    |      Instance      |      Module     | BRAM_18K| DSP48E|  FF | LUT | URAM|
    +--------------------+-----------------+---------+-------+-----+-----+-----+
    |dhcp_fsm_U0         |dhcp_fsm         |        0|      0|  304|  378|    0|
    |open_dhcp_port_U0   |open_dhcp_port   |        0|      0|   41|  117|    0|
    |receive_message_U0  |receive_message  |        0|      0|  201|  255|    0|
    |send_message_U0     |send_message     |        0|      0|  136|  302|    0|
    +--------------------+-----------------+---------+-------+-----+-----+-----+
    |Total               |                 |        0|      0|  682| 1052|    0|
    +--------------------+-----------------+---------+-------+-----+-----+-----+

    * DSP48E: 
    N/A

    * Memory: 
    N/A

    * FIFO: 
    +--------------------------+---------+---+----+-----+------+-----+---------+
    |           Name           | BRAM_18K| FF| LUT| URAM| Depth| Bits| Size:D*B|
    +--------------------------+---------+---+----+-----+------+-----+---------+
    |dhcp_replyMetaFifo_V_U    |        0|  5|   0|    -|     4|  104|      416|
    |dhcp_requestMetaFifo_1_U  |        0|  5|   0|    -|     4|   72|      288|
    |portOpen_V_V_U            |        0|  5|   0|    -|     2|    1|        2|
    +--------------------------+---------+---+----+-----+------+-----+---------+
    |Total                     |        0| 15|   0|    0|    10|  177|      706|
    +--------------------------+---------+---+----+-----+------+-----+---------+

    * Expression: 
    N/A

    * Multiplexer: 
    N/A

    * Register: 
    N/A



================================================================
== Interface
================================================================
* Summary: 
+-----------------------------------------------+-----+-----+--------------+----------------------------------------+--------------+
|                   RTL Ports                   | Dir | Bits|   Protocol   |              Source Object             |    C Type    |
+-----------------------------------------------+-----+-----+--------------+----------------------------------------+--------------+
|m_axis_open_port_V_V_TDATA                     | out |   16|     axis     |          m_axis_open_port_V_V          |    pointer   |
|m_axis_open_port_V_V_TVALID                    | out |    1|     axis     |          m_axis_open_port_V_V          |    pointer   |
|m_axis_open_port_V_V_TREADY                    |  in |    1|     axis     |          m_axis_open_port_V_V          |    pointer   |
|s_axis_open_port_status_V_TDATA                |  in |    8|     axis     |        s_axis_open_port_status_V       |    pointer   |
|s_axis_open_port_status_V_TVALID               |  in |    1|     axis     |        s_axis_open_port_status_V       |    pointer   |
|s_axis_open_port_status_V_TREADY               | out |    1|     axis     |        s_axis_open_port_status_V       |    pointer   |
|s_axis_rx_metadata_V_sourceSocket_TDATA        |  in |   48|     axis     |    s_axis_rx_metadata_V_sourceSocket   |    pointer   |
|s_axis_rx_metadata_V_sourceSocket_TVALID       |  in |    1|     axis     |    s_axis_rx_metadata_V_sourceSocket   |    pointer   |
|s_axis_rx_metadata_V_sourceSocket_TREADY       | out |    1|     axis     |    s_axis_rx_metadata_V_sourceSocket   |    pointer   |
|s_axis_rx_metadata_V_destinationSocket_TDATA   |  in |   48|     axis     | s_axis_rx_metadata_V_destinationSocket |    pointer   |
|s_axis_rx_metadata_V_destinationSocket_TVALID  |  in |    1|     axis     | s_axis_rx_metadata_V_destinationSocket |    pointer   |
|s_axis_rx_metadata_V_destinationSocket_TREADY  | out |    1|     axis     | s_axis_rx_metadata_V_destinationSocket |    pointer   |
|s_axis_rx_data_TDATA                           |  in |   64|     axis     |         s_axis_rx_data_V_data_V        |    pointer   |
|s_axis_rx_data_TKEEP                           |  in |    8|     axis     |         s_axis_rx_data_V_keep_V        |    pointer   |
|s_axis_rx_data_TLAST                           |  in |    1|     axis     |         s_axis_rx_data_V_last_V        |    pointer   |
|s_axis_rx_data_TVALID                          |  in |    1|     axis     |         s_axis_rx_data_V_last_V        |    pointer   |
|s_axis_rx_data_TREADY                          | out |    1|     axis     |         s_axis_rx_data_V_last_V        |    pointer   |
|m_axis_tx_metadata_V_TDATA                     | out |   96|     axis     |          m_axis_tx_metadata_V          |    pointer   |
|m_axis_tx_metadata_V_TVALID                    | out |    1|     axis     |          m_axis_tx_metadata_V          |    pointer   |
|m_axis_tx_metadata_V_TREADY                    |  in |    1|     axis     |          m_axis_tx_metadata_V          |    pointer   |
|m_axis_tx_length_V_V_TDATA                     | out |   16|     axis     |          m_axis_tx_length_V_V          |    pointer   |
|m_axis_tx_length_V_V_TVALID                    | out |    1|     axis     |          m_axis_tx_length_V_V          |    pointer   |
|m_axis_tx_length_V_V_TREADY                    |  in |    1|     axis     |          m_axis_tx_length_V_V          |    pointer   |
|m_axis_tx_data_TDATA                           | out |   64|     axis     |         m_axis_tx_data_V_data_V        |    pointer   |
|m_axis_tx_data_TKEEP                           | out |    8|     axis     |         m_axis_tx_data_V_keep_V        |    pointer   |
|m_axis_tx_data_TLAST                           | out |    1|     axis     |         m_axis_tx_data_V_last_V        |    pointer   |
|m_axis_tx_data_TVALID                          | out |    1|     axis     |         m_axis_tx_data_V_last_V        |    pointer   |
|m_axis_tx_data_TREADY                          |  in |    1|     axis     |         m_axis_tx_data_V_last_V        |    pointer   |
|dhcpEnable_V                                   |  in |    1|   ap_stable  |              dhcpEnable_V              |    pointer   |
|inputIpAddress_V                               |  in |   32|   ap_stable  |            inputIpAddress_V            |    pointer   |
|dhcpIpAddressOut_V                             | out |   32|    ap_vld    |           dhcpIpAddressOut_V           |    pointer   |
|dhcpIpAddressOut_V_ap_vld                      | out |    1|    ap_vld    |           dhcpIpAddressOut_V           |    pointer   |
|myMacAddress_V                                 |  in |   48|   ap_stable  |             myMacAddress_V             |    pointer   |
|ap_clk                                         |  in |    1| ap_ctrl_none |               dhcp_client              | return value |
|ap_rst_n                                       |  in |    1| ap_ctrl_none |               dhcp_client              | return value |
+-----------------------------------------------+-----+-----+--------------+----------------------------------------+--------------+

