

================================================================
== Vivado HLS Report for 'receive_message'
================================================================
* Date:           Sat Dec 12 19:23:48 2020

* Version:        2019.2.1 (Build 2724168 on Thu Dec 05 05:19:09 MST 2019)
* Project:        dhcp_client_prj
* Solution:       solution1
* Product family: zynq
* Target device:  xc7z020-clg400-1


================================================================
== Performance Estimates
================================================================
+ Timing: 
    * Summary: 
    +--------+---------+----------+------------+
    |  Clock |  Target | Estimated| Uncertainty|
    +--------+---------+----------+------------+
    |ap_clk  | 6.40 ns | 5.266 ns |   0.80 ns  |
    +--------+---------+----------+------------+

+ Latency: 
    * Summary: 
    +---------+---------+-----------+-----------+-----+-----+----------+
    |  Latency (cycles) |   Latency (absolute)  |  Interval | Pipeline |
    |   min   |   max   |    min    |    max    | min | max |   Type   |
    +---------+---------+-----------+-----------+-----+-----+----------+
    |        2|        2| 12.800 ns | 12.800 ns |    1|    1| function |
    +---------+---------+-----------+-----------+-----+-----+----------+

    + Detail: 
        * Instance: 
        N/A

        * Loop: 
        N/A



================================================================
== Utilization Estimates
================================================================
* Summary: 
+-----------------+---------+-------+--------+-------+-----+
|       Name      | BRAM_18K| DSP48E|   FF   |  LUT  | URAM|
+-----------------+---------+-------+--------+-------+-----+
|DSP              |        -|      -|       -|      -|    -|
|Expression       |        -|      -|       0|    114|    -|
|FIFO             |        -|      -|       -|      -|    -|
|Instance         |        -|      -|       -|      -|    -|
|Memory           |        -|      -|       -|      -|    -|
|Multiplexer      |        -|      -|       -|    141|    -|
|Register         |        -|      -|     201|      -|    -|
+-----------------+---------+-------+--------+-------+-----+
|Total            |        0|      0|     201|    255|    0|
+-----------------+---------+-------+--------+-------+-----+
|Available        |      280|    220|  106400|  53200|    0|
+-----------------+---------+-------+--------+-------+-----+
|Utilization (%)  |        0|      0|   ~0   |   ~0  |    0|
+-----------------+---------+-------+--------+-------+-----+

+ Detail: 
    * Instance: 
    N/A

    * DSP48E: 
    N/A

    * Memory: 
    N/A

    * FIFO: 
    N/A

    * Expression: 
    +----------------------------------+----------+-------+---+----+------------+------------+
    |           Variable Name          | Operation| DSP48E| FF| LUT| Bitwidth P0| Bitwidth P1|
    +----------------------------------+----------+-------+---+----+------------+------------+
    |add_ln700_fu_358_p2               |     +    |      0|  0|  15|           6|           1|
    |and_ln121_1_fu_415_p2             |    and   |      0|  0|   2|           1|           1|
    |and_ln121_fu_409_p2               |    and   |      0|  0|   2|           1|           1|
    |and_ln93_1_fu_302_p2              |    and   |      0|  0|   2|           1|           1|
    |and_ln93_fu_324_p2                |    and   |      0|  0|   2|           1|           1|
    |ap_block_state3_pp0_stage0_iter2  |    and   |      0|  0|   2|           1|           1|
    |ap_condition_279                  |    and   |      0|  0|   2|           1|           1|
    |ap_condition_84                   |    and   |      0|  0|   2|           1|           1|
    |ap_predicate_op73_write_state3    |    and   |      0|  0|   2|           1|           1|
    |io_acc_block_signal_op43          |    and   |      0|  0|   2|           1|           1|
    |tmp_nbreadreq_fu_110_p5           |    and   |      0|  0|   2|           1|           0|
    |icmp_ln879_2_fu_382_p2            |   icmp   |      0|  0|  13|          16|           9|
    |icmp_ln879_3_fu_270_p2            |   icmp   |      0|  0|  18|          32|          31|
    |icmp_ln879_4_fu_318_p2            |   icmp   |      0|  0|  18|          32|          32|
    |icmp_ln879_5_fu_296_p2            |   icmp   |      0|  0|  13|          16|          16|
    |icmp_ln879_fu_340_p2              |   icmp   |      0|  0|  11|           8|           2|
    |ap_block_pp0_stage0_01001         |    or    |      0|  0|   2|           1|           1|
    |ap_block_state1_pp0_stage0_iter0  |    or    |      0|  0|   2|           1|           1|
    |ap_enable_pp0                     |    xor   |      0|  0|   2|           1|           2|
    +----------------------------------+----------+-------+---+----+------------+------------+
    |Total                             |          |      0|  0| 114|         123|         104|
    +----------------------------------+----------+-------+---+----+------------+------------+

    * Multiplexer: 
    +----------------------------------------------------+----+-----------+-----+-----------+
    |                        Name                        | LUT| Input Size| Bits| Total Bits|
    +----------------------------------------------------+----+-----------+-----+-----------+
    |ap_done                                             |   9|          2|    1|          2|
    |ap_phi_reg_pp0_iter1_rm_correctMac_loc_0_s_reg_176  |  27|          5|    1|          5|
    |ap_phi_reg_pp0_iter1_rm_isDHCP_loc_0_i_i_reg_197    |  15|          3|    1|          3|
    |ap_phi_reg_pp0_iter1_rm_isReply_loc_0_i_i_reg_157   |  15|          3|    1|          3|
    |ap_phi_reg_pp0_iter1_rm_wordCount_V_new_0_reg_216   |  15|          3|    6|         18|
    |ap_sig_allocacmp_t_V                                |   9|          2|    6|         12|
    |dataInMeta_V_destina_TDATA_blk_n                    |   9|          2|    1|          2|
    |dataInMeta_V_sourceS_TDATA_blk_n                    |   9|          2|    1|          2|
    |dhcp_replyMetaFifo_V_blk_n                          |   9|          2|    1|          2|
    |rm_correctMac                                       |  15|          3|    1|          3|
    |s_axis_rx_data_TDATA_blk_n                          |   9|          2|    1|          2|
    +----------------------------------------------------+----+-----------+-----+-----------+
    |Total                                               | 141|         29|   21|         54|
    +----------------------------------------------------+----+-----------+-----+-----------+

    * Register: 
    +----------------------------------------------------+----+----+-----+-----------+
    |                        Name                        | FF | LUT| Bits| Const Bits|
    +----------------------------------------------------+----+----+-----+-----------+
    |and_ln121_1_reg_537                                 |   1|   0|    1|          0|
    |ap_CS_fsm                                           |   1|   0|    1|          0|
    |ap_done_reg                                         |   1|   0|    1|          0|
    |ap_enable_reg_pp0_iter1                             |   1|   0|    1|          0|
    |ap_enable_reg_pp0_iter2                             |   1|   0|    1|          0|
    |ap_phi_reg_pp0_iter1_rm_correctMac_loc_0_s_reg_176  |   1|   0|    1|          0|
    |ap_phi_reg_pp0_iter1_rm_isDHCP_loc_0_i_i_reg_197    |   1|   0|    1|          0|
    |ap_phi_reg_pp0_iter1_rm_isReply_loc_0_i_i_reg_157   |   1|   0|    1|          0|
    |ap_phi_reg_pp0_iter1_rm_wordCount_V_new_0_reg_216   |   6|   0|    6|          0|
    |meta_assignedIpAddre                                |  32|   0|   32|          0|
    |meta_identifier_V                                   |  32|   0|   32|          0|
    |meta_serverAddress_V                                |  32|   0|   32|          0|
    |meta_type_V_1                                       |   8|   0|    8|          0|
    |rm_correctMac                                       |   1|   0|    1|          0|
    |rm_isDHCP                                           |   1|   0|    1|          0|
    |rm_isReply                                          |   1|   0|    1|          0|
    |rm_wordCount_V                                      |   6|   0|    6|          0|
    |t_V_reg_472                                         |   6|   0|    6|          0|
    |tmp_data_V_reg_460                                  |  64|   0|   64|          0|
    |tmp_last_V_reg_468                                  |   1|   0|    1|          0|
    |tmp_last_V_reg_468_pp0_iter1_reg                    |   1|   0|    1|          0|
    |tmp_reg_456                                         |   1|   0|    1|          0|
    |tmp_reg_456_pp0_iter1_reg                           |   1|   0|    1|          0|
    +----------------------------------------------------+----+----+-----+-----------+
    |Total                                               | 201|   0|  201|          0|
    +----------------------------------------------------+----+----+-----+-----------+



================================================================
== Interface
================================================================
* Summary: 
+-----------------------------+-----+-----+------------+----------------------+--------------+
|          RTL Ports          | Dir | Bits|  Protocol  |     Source Object    |    C Type    |
+-----------------------------+-----+-----+------------+----------------------+--------------+
|ap_clk                       |  in |    1| ap_ctrl_hs |    receive_message   | return value |
|ap_rst                       |  in |    1| ap_ctrl_hs |    receive_message   | return value |
|ap_start                     |  in |    1| ap_ctrl_hs |    receive_message   | return value |
|ap_done                      | out |    1| ap_ctrl_hs |    receive_message   | return value |
|ap_continue                  |  in |    1| ap_ctrl_hs |    receive_message   | return value |
|ap_idle                      | out |    1| ap_ctrl_hs |    receive_message   | return value |
|ap_ready                     | out |    1| ap_ctrl_hs |    receive_message   | return value |
|s_axis_rx_data_TVALID        |  in |    1|    axis    |    dataIn_V_data_V   |    pointer   |
|s_axis_rx_data_TDATA         |  in |   64|    axis    |    dataIn_V_data_V   |    pointer   |
|dataInMeta_V_sourceS_TVALID  |  in |    1|    axis    | dataInMeta_V_sourceS |    pointer   |
|dataInMeta_V_sourceS_TDATA   |  in |   48|    axis    | dataInMeta_V_sourceS |    pointer   |
|dataInMeta_V_sourceS_TREADY  | out |    1|    axis    | dataInMeta_V_sourceS |    pointer   |
|dataInMeta_V_destina_TVALID  |  in |    1|    axis    | dataInMeta_V_destina |    pointer   |
|dataInMeta_V_destina_TDATA   |  in |   48|    axis    | dataInMeta_V_destina |    pointer   |
|dataInMeta_V_destina_TREADY  | out |    1|    axis    | dataInMeta_V_destina |    pointer   |
|dhcp_replyMetaFifo_V_din     | out |  104|   ap_fifo  | dhcp_replyMetaFifo_V |    pointer   |
|dhcp_replyMetaFifo_V_full_n  |  in |    1|   ap_fifo  | dhcp_replyMetaFifo_V |    pointer   |
|dhcp_replyMetaFifo_V_write   | out |    1|   ap_fifo  | dhcp_replyMetaFifo_V |    pointer   |
|s_axis_rx_data_TREADY        | out |    1|    axis    |    dataIn_V_last_V   |    pointer   |
|s_axis_rx_data_TLAST         |  in |    1|    axis    |    dataIn_V_last_V   |    pointer   |
|s_axis_rx_data_TKEEP         |  in |    8|    axis    |    dataIn_V_keep_V   |    pointer   |
|myMacAddress_V               |  in |   48|  ap_stable |    myMacAddress_V    |    pointer   |
+-----------------------------+-----+-----+------------+----------------------+--------------+

