

================================================================
== Vivado HLS Report for 'append_payload_64_s'
================================================================
* Date:           Sat Dec 12 19:41:11 2020

* Version:        2019.2.1 (Build 2724168 on Thu Dec 05 05:19:09 MST 2019)
* Project:        rocev2_prj
* Solution:       solution1
* Product family: virtex7
* Target device:  xc7vx690t-ffg1761-2


================================================================
== Performance Estimates
================================================================
+ Timing: 
    * Summary: 
    +--------+---------+----------+------------+
    |  Clock |  Target | Estimated| Uncertainty|
    +--------+---------+----------+------------+
    |ap_clk  | 6.40 ns | 3.827 ns |   0.80 ns  |
    +--------+---------+----------+------------+

+ Latency: 
    * Summary: 
    +---------+---------+----------+----------+-----+-----+----------+
    |  Latency (cycles) |  Latency (absolute) |  Interval | Pipeline |
    |   min   |   max   |    min   |    max   | min | max |   Type   |
    +---------+---------+----------+----------+-----+-----+----------+
    |        1|        1| 6.400 ns | 6.400 ns |    1|    1| function |
    +---------+---------+----------+----------+-----+-----+----------+

    + Detail: 
        * Instance: 
        N/A

        * Loop: 
        N/A

============================================================
+ Verbose Summary: Synthesis Manager
============================================================
InlineROM: 1
ExposeGlobal: 0
============================================================
+ Verbose Summary: CDFG Model
============================================================
IsTopModel: 0
ResetActiveHigh: 1
IsCombinational: 2
IsDatapathOnly: 0
HasWiredReturn: 1
HasMFsm: 2
HasVarLatency: 0
IsPipeline: 1
IsRtlPipelined: 1
IsInstanceOverlapped: 0
IsDontTouch: 0
HasImplIP: 0
IsGatedGlobalClock: 0

+ Individual pipeline summary: 
  * Pipeline-0: initiation interval (II) = 1, depth = 2


============================================================
+ Verbose Summary: Schedule
============================================================
* Number of FSM states : 2
* Pipeline : 1
  Pipeline-0 : II = 1, D = 2, States = { 1 2 }
* Dataflow Pipeline: 0

* FSM state transitions: 
1 --> 2 
2 --> 

* FSM state operations: 

State 1 <SV = 0> <Delay = 3.82>
ST_1 : Operation 3 [1/1] (0.00ns)   --->   "%state_6_load = load i3* @state_6, align 1" [/home/paulrr2/Projects/ece527/babelsoc/fpga-network-stack/hls/rocev2/../ib_transport_protocol/ib_transport_protocol.cpp:1370]   --->   Operation 3 'load' 'state_6_load' <Predicate = true> <Delay = 0.00>
ST_1 : Operation 4 [1/1] (0.00ns)   --->   "%firstPayload_load = load i1* @firstPayload, align 1" [/home/paulrr2/Projects/ece527/babelsoc/fpga-network-stack/hls/rocev2/../ib_transport_protocol/ib_transport_protocol.cpp:1435]   --->   Operation 4 'load' 'firstPayload_load' <Predicate = true> <Delay = 0.00>
ST_1 : Operation 5 [1/1] (0.00ns)   --->   "%info_isAETH_load = load i1* @info_isAETH, align 1" [/home/paulrr2/Projects/ece527/babelsoc/fpga-network-stack/hls/rocev2/../ib_transport_protocol/ib_transport_protocol.cpp:1410]   --->   Operation 5 'load' 'info_isAETH_load' <Predicate = true> <Delay = 0.00>
ST_1 : Operation 6 [1/1] (0.00ns)   --->   "%info_hasPayload_load = load i1* @info_hasPayload, align 1" [/home/paulrr2/Projects/ece527/babelsoc/fpga-network-stack/hls/rocev2/../ib_transport_protocol/ib_transport_protocol.cpp:1402]   --->   Operation 6 'load' 'info_hasPayload_load' <Predicate = true> <Delay = 0.00>
ST_1 : Operation 7 [1/1] (0.87ns)   --->   "switch i3 %state_6_load, label %"append_payload<64>.exit" [
    i3 0, label %0
    i3 1, label %2
    i3 2, label %11
    i3 3, label %15
    i3 -4, label %18
  ]" [/home/paulrr2/Projects/ece527/babelsoc/fpga-network-stack/hls/rocev2/../ib_transport_protocol/ib_transport_protocol.cpp:1370]   --->   Operation 7 'switch' <Predicate = true> <Delay = 0.87>
ST_1 : Operation 8 [1/1] (0.00ns)   --->   "%tmp_156 = call i1 @_ssdm_op_NbReadReq.ap_fifo.i64P.i8P.i1P(i64* @tx_rawPayFifo_V_data, i8* @tx_rawPayFifo_V_keep, i1* @tx_rawPayFifo_V_last, i32 1) nounwind" [/home/paulrr2/Projects/ece527/babelsoc/fpga-network-stack/hls/rocev2/../ib_transport_protocol/ib_transport_protocol.cpp:1479]   --->   Operation 8 'nbreadreq' 'tmp_156' <Predicate = (state_6_load == 4)> <Delay = 0.00> <Core = "FIFO">   --->   Core 32 'FIFO' <Latency = 0> <II = 1> <Delay = 2.39> <Storage> <Opcode : 'read' 'write' 'nbread' 'nbwrite'> <Ports = 0> <Width = 3> <Depth = 2> <FIFO>
ST_1 : Operation 9 [1/1] (0.00ns)   --->   "br i1 %tmp_156, label %19, label %._crit_edge10.i" [/home/paulrr2/Projects/ece527/babelsoc/fpga-network-stack/hls/rocev2/../ib_transport_protocol/ib_transport_protocol.cpp:1479]   --->   Operation 9 'br' <Predicate = (state_6_load == 4)> <Delay = 0.00>
ST_1 : Operation 10 [1/1] (2.39ns)   --->   "%empty_424 = call { i64, i8, i1 } @_ssdm_op_Read.ap_fifo.volatile.i64P.i8P.i1P(i64* @tx_rawPayFifo_V_data, i8* @tx_rawPayFifo_V_keep, i1* @tx_rawPayFifo_V_last) nounwind" [/home/paulrr2/Projects/ece527/babelsoc/fpga-network-stack/hls/rocev2/../ib_transport_protocol/ib_transport_protocol.cpp:1481]   --->   Operation 10 'read' 'empty_424' <Predicate = (state_6_load == 4 & tmp_156)> <Delay = 2.39> <Core = "FIFO">   --->   Core 32 'FIFO' <Latency = 0> <II = 1> <Delay = 2.39> <Storage> <Opcode : 'read' 'write' 'nbread' 'nbwrite'> <Ports = 0> <Width = 3> <Depth = 2> <FIFO>
ST_1 : Operation 11 [1/1] (0.00ns)   --->   "%tmp_data_V_57 = extractvalue { i64, i8, i1 } %empty_424, 0" [/home/paulrr2/Projects/ece527/babelsoc/fpga-network-stack/hls/rocev2/../ib_transport_protocol/ib_transport_protocol.cpp:1481]   --->   Operation 11 'extractvalue' 'tmp_data_V_57' <Predicate = (state_6_load == 4 & tmp_156)> <Delay = 0.00>
ST_1 : Operation 12 [1/1] (0.00ns)   --->   "%tmp_keep_V_49 = extractvalue { i64, i8, i1 } %empty_424, 1" [/home/paulrr2/Projects/ece527/babelsoc/fpga-network-stack/hls/rocev2/../ib_transport_protocol/ib_transport_protocol.cpp:1481]   --->   Operation 12 'extractvalue' 'tmp_keep_V_49' <Predicate = (state_6_load == 4 & tmp_156)> <Delay = 0.00>
ST_1 : Operation 13 [1/1] (0.00ns)   --->   "%tmp_last_V_40 = extractvalue { i64, i8, i1 } %empty_424, 2" [/home/paulrr2/Projects/ece527/babelsoc/fpga-network-stack/hls/rocev2/../ib_transport_protocol/ib_transport_protocol.cpp:1481]   --->   Operation 13 'extractvalue' 'tmp_last_V_40' <Predicate = (state_6_load == 4 & tmp_156)> <Delay = 0.00>
ST_1 : Operation 14 [1/1] (0.92ns)   --->   "store i3 0, i3* @state_6, align 1" [/home/paulrr2/Projects/ece527/babelsoc/fpga-network-stack/hls/rocev2/../ib_transport_protocol/ib_transport_protocol.cpp:1485]   --->   Operation 14 'store' <Predicate = (state_6_load == 4 & tmp_156 & tmp_last_V_40)> <Delay = 0.92>
ST_1 : Operation 15 [1/1] (0.00ns)   --->   "%tmp_155 = call i1 @_ssdm_op_NbReadReq.ap_fifo.i64P.i8P.i1P(i64* @tx_rethShift2payFifo_3, i8* @tx_rethShift2payFifo_5, i1* @tx_rethShift2payFifo_6, i32 1) nounwind" [/home/paulrr2/Projects/ece527/babelsoc/fpga-network-stack/hls/rocev2/../ib_transport_protocol/ib_transport_protocol.cpp:1452]   --->   Operation 15 'nbreadreq' 'tmp_155' <Predicate = (state_6_load == 3)> <Delay = 0.00> <Core = "FIFO">   --->   Core 32 'FIFO' <Latency = 0> <II = 1> <Delay = 2.39> <Storage> <Opcode : 'read' 'write' 'nbread' 'nbwrite'> <Ports = 0> <Width = 3> <Depth = 2> <FIFO>
ST_1 : Operation 16 [1/1] (0.00ns)   --->   "br i1 %tmp_155, label %16, label %._crit_edge8.i" [/home/paulrr2/Projects/ece527/babelsoc/fpga-network-stack/hls/rocev2/../ib_transport_protocol/ib_transport_protocol.cpp:1452]   --->   Operation 16 'br' <Predicate = (state_6_load == 3)> <Delay = 0.00>
ST_1 : Operation 17 [1/1] (2.39ns)   --->   "%empty_423 = call { i64, i8, i1 } @_ssdm_op_Read.ap_fifo.volatile.i64P.i8P.i1P(i64* @tx_rethShift2payFifo_3, i8* @tx_rethShift2payFifo_5, i1* @tx_rethShift2payFifo_6) nounwind" [/home/paulrr2/Projects/ece527/babelsoc/fpga-network-stack/hls/rocev2/../ib_transport_protocol/ib_transport_protocol.cpp:1454]   --->   Operation 17 'read' 'empty_423' <Predicate = (state_6_load == 3 & tmp_155)> <Delay = 2.39> <Core = "FIFO">   --->   Core 32 'FIFO' <Latency = 0> <II = 1> <Delay = 2.39> <Storage> <Opcode : 'read' 'write' 'nbread' 'nbwrite'> <Ports = 0> <Width = 3> <Depth = 2> <FIFO>
ST_1 : Operation 18 [1/1] (0.00ns)   --->   "%tmp_data_V_56 = extractvalue { i64, i8, i1 } %empty_423, 0" [/home/paulrr2/Projects/ece527/babelsoc/fpga-network-stack/hls/rocev2/../ib_transport_protocol/ib_transport_protocol.cpp:1454]   --->   Operation 18 'extractvalue' 'tmp_data_V_56' <Predicate = (state_6_load == 3 & tmp_155)> <Delay = 0.00>
ST_1 : Operation 19 [1/1] (0.00ns)   --->   "%tmp_keep_V_48 = extractvalue { i64, i8, i1 } %empty_423, 1" [/home/paulrr2/Projects/ece527/babelsoc/fpga-network-stack/hls/rocev2/../ib_transport_protocol/ib_transport_protocol.cpp:1454]   --->   Operation 19 'extractvalue' 'tmp_keep_V_48' <Predicate = (state_6_load == 3 & tmp_155)> <Delay = 0.00>
ST_1 : Operation 20 [1/1] (0.00ns)   --->   "%tmp_last_V_39 = extractvalue { i64, i8, i1 } %empty_423, 2" [/home/paulrr2/Projects/ece527/babelsoc/fpga-network-stack/hls/rocev2/../ib_transport_protocol/ib_transport_protocol.cpp:1454]   --->   Operation 20 'extractvalue' 'tmp_last_V_39' <Predicate = (state_6_load == 3 & tmp_155)> <Delay = 0.00>
ST_1 : Operation 21 [1/1] (0.92ns)   --->   "store i3 0, i3* @state_6, align 1" [/home/paulrr2/Projects/ece527/babelsoc/fpga-network-stack/hls/rocev2/../ib_transport_protocol/ib_transport_protocol.cpp:1474]   --->   Operation 21 'store' <Predicate = (state_6_load == 3 & tmp_155 & tmp_last_V_39)> <Delay = 0.92>
ST_1 : Operation 22 [1/1] (0.00ns)   --->   "%tmp_154 = call i1 @_ssdm_op_NbReadReq.ap_fifo.i64P.i8P.i1P(i64* @tx_aethShift2payFifo_3, i8* @tx_aethShift2payFifo_5, i1* @tx_aethShift2payFifo_6, i32 1) nounwind" [/home/paulrr2/Projects/ece527/babelsoc/fpga-network-stack/hls/rocev2/../ib_transport_protocol/ib_transport_protocol.cpp:1427]   --->   Operation 22 'nbreadreq' 'tmp_154' <Predicate = (state_6_load == 2)> <Delay = 0.00> <Core = "FIFO">   --->   Core 32 'FIFO' <Latency = 0> <II = 1> <Delay = 2.39> <Storage> <Opcode : 'read' 'write' 'nbread' 'nbwrite'> <Ports = 0> <Width = 3> <Depth = 2> <FIFO>
ST_1 : Operation 23 [1/1] (0.00ns)   --->   "br i1 %tmp_154, label %12, label %._crit_edge5.i" [/home/paulrr2/Projects/ece527/babelsoc/fpga-network-stack/hls/rocev2/../ib_transport_protocol/ib_transport_protocol.cpp:1427]   --->   Operation 23 'br' <Predicate = (state_6_load == 2)> <Delay = 0.00>
ST_1 : Operation 24 [1/1] (2.39ns)   --->   "%empty_422 = call { i64, i8, i1 } @_ssdm_op_Read.ap_fifo.volatile.i64P.i8P.i1P(i64* @tx_aethShift2payFifo_3, i8* @tx_aethShift2payFifo_5, i1* @tx_aethShift2payFifo_6) nounwind" [/home/paulrr2/Projects/ece527/babelsoc/fpga-network-stack/hls/rocev2/../ib_transport_protocol/ib_transport_protocol.cpp:1429]   --->   Operation 24 'read' 'empty_422' <Predicate = (state_6_load == 2 & tmp_154)> <Delay = 2.39> <Core = "FIFO">   --->   Core 32 'FIFO' <Latency = 0> <II = 1> <Delay = 2.39> <Storage> <Opcode : 'read' 'write' 'nbread' 'nbwrite'> <Ports = 0> <Width = 3> <Depth = 2> <FIFO>
ST_1 : Operation 25 [1/1] (0.00ns)   --->   "%tmp_data_V_59 = extractvalue { i64, i8, i1 } %empty_422, 0" [/home/paulrr2/Projects/ece527/babelsoc/fpga-network-stack/hls/rocev2/../ib_transport_protocol/ib_transport_protocol.cpp:1429]   --->   Operation 25 'extractvalue' 'tmp_data_V_59' <Predicate = (state_6_load == 2 & tmp_154)> <Delay = 0.00>
ST_1 : Operation 26 [1/1] (0.00ns)   --->   "%tmp_keep_V_47 = extractvalue { i64, i8, i1 } %empty_422, 1" [/home/paulrr2/Projects/ece527/babelsoc/fpga-network-stack/hls/rocev2/../ib_transport_protocol/ib_transport_protocol.cpp:1429]   --->   Operation 26 'extractvalue' 'tmp_keep_V_47' <Predicate = (state_6_load == 2 & tmp_154)> <Delay = 0.00>
ST_1 : Operation 27 [1/1] (0.00ns)   --->   "%tmp_last_V_38 = extractvalue { i64, i8, i1 } %empty_422, 2" [/home/paulrr2/Projects/ece527/babelsoc/fpga-network-stack/hls/rocev2/../ib_transport_protocol/ib_transport_protocol.cpp:1429]   --->   Operation 27 'extractvalue' 'tmp_last_V_38' <Predicate = (state_6_load == 2 & tmp_154)> <Delay = 0.00>
ST_1 : Operation 28 [1/1] (0.85ns)   --->   "br i1 %firstPayload_load, label %13, label %._crit_edge6.i" [/home/paulrr2/Projects/ece527/babelsoc/fpga-network-stack/hls/rocev2/../ib_transport_protocol/ib_transport_protocol.cpp:1435]   --->   Operation 28 'br' <Predicate = (state_6_load == 2 & tmp_154)> <Delay = 0.85>
ST_1 : Operation 29 [1/1] (0.00ns)   --->   "%p_Val2_s = load i64* @prevWord_data_V, align 8" [/home/paulrr2/Projects/ece527/babelsoc/fpga-network-stack/hls/rocev2/../ib_transport_protocol/ib_transport_protocol.cpp:1437]   --->   Operation 29 'load' 'p_Val2_s' <Predicate = (state_6_load == 2 & tmp_154 & firstPayload_load)> <Delay = 0.00>
ST_1 : Operation 30 [1/1] (0.00ns)   --->   "%trunc_ln647 = trunc i64 %p_Val2_s to i32" [/home/paulrr2/Projects/ece527/babelsoc/fpga-network-stack/hls/rocev2/../ib_transport_protocol/ib_transport_protocol.cpp:1437]   --->   Operation 30 'trunc' 'trunc_ln647' <Predicate = (state_6_load == 2 & tmp_154 & firstPayload_load)> <Delay = 0.00>
ST_1 : Operation 31 [1/1] (0.00ns)   --->   "%p_Result_s = call i64 @llvm.part.set.i64.i32(i64 %tmp_data_V_59, i32 %trunc_ln647, i32 0, i32 31) nounwind" [/home/paulrr2/Projects/ece527/babelsoc/fpga-network-stack/hls/rocev2/../ib_transport_protocol/ib_transport_protocol.cpp:1437]   --->   Operation 31 'partset' 'p_Result_s' <Predicate = (state_6_load == 2 & tmp_154 & firstPayload_load)> <Delay = 0.00>
ST_1 : Operation 32 [1/1] (0.85ns)   --->   "store i1 false, i1* @firstPayload, align 1" [/home/paulrr2/Projects/ece527/babelsoc/fpga-network-stack/hls/rocev2/../ib_transport_protocol/ib_transport_protocol.cpp:1438]   --->   Operation 32 'store' <Predicate = (state_6_load == 2 & tmp_154 & firstPayload_load)> <Delay = 0.85>
ST_1 : Operation 33 [1/1] (0.85ns)   --->   "br label %._crit_edge6.i" [/home/paulrr2/Projects/ece527/babelsoc/fpga-network-stack/hls/rocev2/../ib_transport_protocol/ib_transport_protocol.cpp:1439]   --->   Operation 33 'br' <Predicate = (state_6_load == 2 & tmp_154 & firstPayload_load)> <Delay = 0.85>
ST_1 : Operation 34 [1/1] (0.92ns)   --->   "store i3 0, i3* @state_6, align 1" [/home/paulrr2/Projects/ece527/babelsoc/fpga-network-stack/hls/rocev2/../ib_transport_protocol/ib_transport_protocol.cpp:1447]   --->   Operation 34 'store' <Predicate = (state_6_load == 2 & tmp_154 & tmp_last_V_38)> <Delay = 0.92>
ST_1 : Operation 35 [1/1] (0.00ns)   --->   "%tmp_153 = call i1 @_ssdm_op_NbReadReq.ap_fifo.i64P.i8P.i1P(i64* @tx_exh2payFifo_V_dat, i8* @tx_exh2payFifo_V_kee, i1* @tx_exh2payFifo_V_las, i32 1) nounwind" [/home/paulrr2/Projects/ece527/babelsoc/fpga-network-stack/hls/rocev2/../ib_transport_protocol/ib_transport_protocol.cpp:1389]   --->   Operation 35 'nbreadreq' 'tmp_153' <Predicate = (state_6_load == 1)> <Delay = 0.00> <Core = "FIFO">   --->   Core 32 'FIFO' <Latency = 0> <II = 1> <Delay = 2.39> <Storage> <Opcode : 'read' 'write' 'nbread' 'nbwrite'> <Ports = 0> <Width = 3> <Depth = 2> <FIFO>
ST_1 : Operation 36 [1/1] (0.00ns)   --->   "br i1 %tmp_153, label %3, label %._crit_edge3.i" [/home/paulrr2/Projects/ece527/babelsoc/fpga-network-stack/hls/rocev2/../ib_transport_protocol/ib_transport_protocol.cpp:1389]   --->   Operation 36 'br' <Predicate = (state_6_load == 1)> <Delay = 0.00>
ST_1 : Operation 37 [1/1] (2.39ns)   --->   "%empty = call { i64, i8, i1 } @_ssdm_op_Read.ap_fifo.volatile.i64P.i8P.i1P(i64* @tx_exh2payFifo_V_dat, i8* @tx_exh2payFifo_V_kee, i1* @tx_exh2payFifo_V_las) nounwind" [/home/paulrr2/Projects/ece527/babelsoc/fpga-network-stack/hls/rocev2/../ib_transport_protocol/ib_transport_protocol.cpp:1391]   --->   Operation 37 'read' 'empty' <Predicate = (state_6_load == 1 & tmp_153)> <Delay = 2.39> <Core = "FIFO">   --->   Core 32 'FIFO' <Latency = 0> <II = 1> <Delay = 2.39> <Storage> <Opcode : 'read' 'write' 'nbread' 'nbwrite'> <Ports = 0> <Width = 3> <Depth = 2> <FIFO>
ST_1 : Operation 38 [1/1] (0.00ns)   --->   "%tmp_data_V = extractvalue { i64, i8, i1 } %empty, 0" [/home/paulrr2/Projects/ece527/babelsoc/fpga-network-stack/hls/rocev2/../ib_transport_protocol/ib_transport_protocol.cpp:1391]   --->   Operation 38 'extractvalue' 'tmp_data_V' <Predicate = (state_6_load == 1 & tmp_153)> <Delay = 0.00>
ST_1 : Operation 39 [1/1] (0.00ns)   --->   "%tmp_keep_V = extractvalue { i64, i8, i1 } %empty, 1" [/home/paulrr2/Projects/ece527/babelsoc/fpga-network-stack/hls/rocev2/../ib_transport_protocol/ib_transport_protocol.cpp:1391]   --->   Operation 39 'extractvalue' 'tmp_keep_V' <Predicate = (state_6_load == 1 & tmp_153)> <Delay = 0.00>
ST_1 : Operation 40 [1/1] (0.00ns)   --->   "%tmp_last_V = extractvalue { i64, i8, i1 } %empty, 2" [/home/paulrr2/Projects/ece527/babelsoc/fpga-network-stack/hls/rocev2/../ib_transport_protocol/ib_transport_protocol.cpp:1391]   --->   Operation 40 'extractvalue' 'tmp_last_V' <Predicate = (state_6_load == 1 & tmp_153)> <Delay = 0.00>
ST_1 : Operation 41 [1/1] (0.00ns)   --->   "store i64 %tmp_data_V, i64* @prevWord_data_V, align 8" [/home/paulrr2/Projects/ece527/babelsoc/fpga-network-stack/hls/rocev2/../axi_utils.hpp:50->/home/paulrr2/Projects/ece527/babelsoc/fpga-network-stack/hls/rocev2/../ib_transport_protocol/ib_transport_protocol.cpp:1391]   --->   Operation 41 'store' <Predicate = (state_6_load == 1 & tmp_153)> <Delay = 0.00>
ST_1 : Operation 42 [1/1] (0.00ns)   --->   "br i1 %tmp_last_V, label %5, label %4" [/home/paulrr2/Projects/ece527/babelsoc/fpga-network-stack/hls/rocev2/../ib_transport_protocol/ib_transport_protocol.cpp:1396]   --->   Operation 42 'br' <Predicate = (state_6_load == 1 & tmp_153)> <Delay = 0.00>
ST_1 : Operation 43 [1/1] (0.00ns)   --->   "br i1 %info_hasPayload_load, label %7, label %6" [/home/paulrr2/Projects/ece527/babelsoc/fpga-network-stack/hls/rocev2/../ib_transport_protocol/ib_transport_protocol.cpp:1402]   --->   Operation 43 'br' <Predicate = (state_6_load == 1 & tmp_153 & tmp_last_V)> <Delay = 0.00>
ST_1 : Operation 44 [1/1] (0.92ns)   --->   "store i3 0, i3* @state_6, align 1" [/home/paulrr2/Projects/ece527/babelsoc/fpga-network-stack/hls/rocev2/../ib_transport_protocol/ib_transport_protocol.cpp:1404]   --->   Operation 44 'store' <Predicate = (state_6_load == 1 & tmp_153 & tmp_last_V & !info_hasPayload_load)> <Delay = 0.92>
ST_1 : Operation 45 [1/1] (0.85ns)   --->   "br i1 %info_isAETH_load, label %._crit_edge4.i, label %8" [/home/paulrr2/Projects/ece527/babelsoc/fpga-network-stack/hls/rocev2/../ib_transport_protocol/ib_transport_protocol.cpp:1410]   --->   Operation 45 'br' <Predicate = (state_6_load == 1 & tmp_153 & tmp_last_V & info_hasPayload_load)> <Delay = 0.85>
ST_1 : Operation 46 [1/1] (0.85ns)   --->   "br label %._crit_edge4.i"   --->   Operation 46 'br' <Predicate = (state_6_load == 1 & tmp_153 & tmp_last_V & info_hasPayload_load & !info_isAETH_load)> <Delay = 0.85>
ST_1 : Operation 47 [1/1] (0.00ns)   --->   "%storemerge_i = phi i2 [ -1, %8 ], [ -2, %7 ]"   --->   Operation 47 'phi' 'storemerge_i' <Predicate = (state_6_load == 1 & tmp_153 & tmp_last_V & info_hasPayload_load)> <Delay = 0.00>
ST_1 : Operation 48 [1/1] (0.00ns)   --->   "%zext_ln1412 = zext i2 %storemerge_i to i3" [/home/paulrr2/Projects/ece527/babelsoc/fpga-network-stack/hls/rocev2/../ib_transport_protocol/ib_transport_protocol.cpp:1412]   --->   Operation 48 'zext' 'zext_ln1412' <Predicate = (state_6_load == 1 & tmp_153 & tmp_last_V & info_hasPayload_load)> <Delay = 0.00>
ST_1 : Operation 49 [1/1] (0.92ns)   --->   "store i3 %zext_ln1412, i3* @state_6, align 1" [/home/paulrr2/Projects/ece527/babelsoc/fpga-network-stack/hls/rocev2/../ib_transport_protocol/ib_transport_protocol.cpp:1412]   --->   Operation 49 'store' <Predicate = (state_6_load == 1 & tmp_153 & tmp_last_V & info_hasPayload_load)> <Delay = 0.92>
ST_1 : Operation 50 [1/1] (0.00ns)   --->   "%tmp = call i1 @_ssdm_op_NbReadReq.ap_fifo.i3P(i3* @tx_packetInfoFifo_V, i32 1) nounwind" [/home/paulrr2/Projects/ece527/babelsoc/fpga-network-stack/hls/rocev2/../ib_transport_protocol/ib_transport_protocol.cpp:1373]   --->   Operation 50 'nbreadreq' 'tmp' <Predicate = (state_6_load == 0)> <Delay = 0.00> <Core = "FIFO">   --->   Core 32 'FIFO' <Latency = 0> <II = 1> <Delay = 2.39> <Storage> <Opcode : 'read' 'write' 'nbread' 'nbwrite'> <Ports = 0> <Width = 3> <Depth = 2> <FIFO>
ST_1 : Operation 51 [1/1] (0.00ns)   --->   "br i1 %tmp, label %1, label %._crit_edge2.i" [/home/paulrr2/Projects/ece527/babelsoc/fpga-network-stack/hls/rocev2/../ib_transport_protocol/ib_transport_protocol.cpp:1373]   --->   Operation 51 'br' <Predicate = (state_6_load == 0)> <Delay = 0.00>
ST_1 : Operation 52 [1/1] (0.85ns)   --->   "store i1 true, i1* @firstPayload, align 1" [/home/paulrr2/Projects/ece527/babelsoc/fpga-network-stack/hls/rocev2/../ib_transport_protocol/ib_transport_protocol.cpp:1375]   --->   Operation 52 'store' <Predicate = (state_6_load == 0 & tmp)> <Delay = 0.85>
ST_1 : Operation 53 [1/1] (2.39ns)   --->   "%tmp96 = call i3 @_ssdm_op_Read.ap_fifo.volatile.i3P(i3* @tx_packetInfoFifo_V) nounwind" [/home/paulrr2/Projects/ece527/babelsoc/fpga-network-stack/hls/rocev2/../ib_transport_protocol/ib_transport_protocol.cpp:1376]   --->   Operation 53 'read' 'tmp96' <Predicate = (state_6_load == 0 & tmp)> <Delay = 2.39> <Core = "FIFO">   --->   Core 32 'FIFO' <Latency = 0> <II = 1> <Delay = 2.39> <Storage> <Opcode : 'read' 'write' 'nbread' 'nbwrite'> <Ports = 0> <Width = 3> <Depth = 2> <FIFO>
ST_1 : Operation 54 [1/1] (0.00ns)   --->   "%trunc_ln145 = trunc i3 %tmp96 to i1" [/home/paulrr2/Projects/ece527/babelsoc/fpga-network-stack/hls/rocev2/../ib_transport_protocol/ib_transport_protocol.cpp:1376]   --->   Operation 54 'trunc' 'trunc_ln145' <Predicate = (state_6_load == 0 & tmp)> <Delay = 0.00>
ST_1 : Operation 55 [1/1] (0.00ns)   --->   "store i1 %trunc_ln145, i1* @info_isAETH, align 1" [/home/paulrr2/Projects/ece527/babelsoc/fpga-network-stack/hls/rocev2/../ib_transport_protocol/ib_transport_protocol.cpp:1376]   --->   Operation 55 'store' <Predicate = (state_6_load == 0 & tmp)> <Delay = 0.00>
ST_1 : Operation 56 [1/1] (0.00ns)   --->   "%tmp_157 = call i1 @_ssdm_op_BitSelect.i1.i3.i32(i3 %tmp96, i32 1)" [/home/paulrr2/Projects/ece527/babelsoc/fpga-network-stack/hls/rocev2/../ib_transport_protocol/ib_transport_protocol.cpp:1376]   --->   Operation 56 'bitselect' 'tmp_157' <Predicate = (state_6_load == 0 & tmp)> <Delay = 0.00>
ST_1 : Operation 57 [1/1] (0.00ns)   --->   "%tmp_158 = call i1 @_ssdm_op_BitSelect.i1.i3.i32(i3 %tmp96, i32 2)" [/home/paulrr2/Projects/ece527/babelsoc/fpga-network-stack/hls/rocev2/../ib_transport_protocol/ib_transport_protocol.cpp:1376]   --->   Operation 57 'bitselect' 'tmp_158' <Predicate = (state_6_load == 0 & tmp)> <Delay = 0.00>
ST_1 : Operation 58 [1/1] (0.00ns)   --->   "store i1 %tmp_158, i1* @info_hasPayload, align 1" [/home/paulrr2/Projects/ece527/babelsoc/fpga-network-stack/hls/rocev2/../ib_transport_protocol/ib_transport_protocol.cpp:1376]   --->   Operation 58 'store' <Predicate = (state_6_load == 0 & tmp)> <Delay = 0.00>
ST_1 : Operation 59 [1/1] (0.51ns)   --->   "%select_ln1378 = select i1 %tmp_157, i3 1, i3 -4" [/home/paulrr2/Projects/ece527/babelsoc/fpga-network-stack/hls/rocev2/../ib_transport_protocol/ib_transport_protocol.cpp:1378]   --->   Operation 59 'select' 'select_ln1378' <Predicate = (state_6_load == 0 & tmp)> <Delay = 0.51> <Core = "Sel">   --->   Core 26 'Sel' <Latency = 0> <II = 1> <Delay = 0.51> <FuncUnit> <Opcode : 'select'> <InPorts = 3> <OutPorts = 1>
ST_1 : Operation 60 [1/1] (0.92ns)   --->   "store i3 %select_ln1378, i3* @state_6, align 1" [/home/paulrr2/Projects/ece527/babelsoc/fpga-network-stack/hls/rocev2/../ib_transport_protocol/ib_transport_protocol.cpp:1380]   --->   Operation 60 'store' <Predicate = (state_6_load == 0 & tmp)> <Delay = 0.92>

State 2 <SV = 1> <Delay = 2.39>
ST_2 : Operation 61 [1/1] (0.00ns)   --->   "call void (...)* @_ssdm_op_SpecInterface(i64* @tx_aethShift2payFifo_3, [8 x i8]* @ap_fifo_str, i32 0, i32 0, [1 x i8]* @p_str, i32 0, i32 0, [1 x i8]* @p_str, [1 x i8]* @p_str, [1 x i8]* @p_str, i32 2, i32 2, i32 16, i32 16, [1 x i8]* @p_str, [1 x i8]* @p_str)"   --->   Operation 61 'specinterface' <Predicate = true> <Delay = 0.00>
ST_2 : Operation 62 [1/1] (0.00ns)   --->   "call void (...)* @_ssdm_op_SpecInterface(i8* @tx_aethShift2payFifo_5, [8 x i8]* @ap_fifo_str, i32 0, i32 0, [1 x i8]* @p_str, i32 0, i32 0, [1 x i8]* @p_str, [1 x i8]* @p_str, [1 x i8]* @p_str, i32 2, i32 2, i32 16, i32 16, [1 x i8]* @p_str, [1 x i8]* @p_str)"   --->   Operation 62 'specinterface' <Predicate = true> <Delay = 0.00>
ST_2 : Operation 63 [1/1] (0.00ns)   --->   "call void (...)* @_ssdm_op_SpecInterface(i1* @tx_aethShift2payFifo_6, [8 x i8]* @ap_fifo_str, i32 0, i32 0, [1 x i8]* @p_str, i32 0, i32 0, [1 x i8]* @p_str, [1 x i8]* @p_str, [1 x i8]* @p_str, i32 2, i32 2, i32 16, i32 16, [1 x i8]* @p_str, [1 x i8]* @p_str)"   --->   Operation 63 'specinterface' <Predicate = true> <Delay = 0.00>
ST_2 : Operation 64 [1/1] (0.00ns)   --->   "call void (...)* @_ssdm_op_SpecInterface(i64* @tx_exh2payFifo_V_dat, [8 x i8]* @ap_fifo_str, i32 0, i32 0, [1 x i8]* @p_str, i32 0, i32 0, [1 x i8]* @p_str, [1 x i8]* @p_str, [1 x i8]* @p_str, i32 2, i32 2, i32 16, i32 16, [1 x i8]* @p_str, [1 x i8]* @p_str)"   --->   Operation 64 'specinterface' <Predicate = true> <Delay = 0.00>
ST_2 : Operation 65 [1/1] (0.00ns)   --->   "call void (...)* @_ssdm_op_SpecInterface(i8* @tx_exh2payFifo_V_kee, [8 x i8]* @ap_fifo_str, i32 0, i32 0, [1 x i8]* @p_str, i32 0, i32 0, [1 x i8]* @p_str, [1 x i8]* @p_str, [1 x i8]* @p_str, i32 2, i32 2, i32 16, i32 16, [1 x i8]* @p_str, [1 x i8]* @p_str)"   --->   Operation 65 'specinterface' <Predicate = true> <Delay = 0.00>
ST_2 : Operation 66 [1/1] (0.00ns)   --->   "call void (...)* @_ssdm_op_SpecInterface(i1* @tx_exh2payFifo_V_las, [8 x i8]* @ap_fifo_str, i32 0, i32 0, [1 x i8]* @p_str, i32 0, i32 0, [1 x i8]* @p_str, [1 x i8]* @p_str, [1 x i8]* @p_str, i32 2, i32 2, i32 16, i32 16, [1 x i8]* @p_str, [1 x i8]* @p_str)"   --->   Operation 66 'specinterface' <Predicate = true> <Delay = 0.00>
ST_2 : Operation 67 [1/1] (0.00ns)   --->   "call void (...)* @_ssdm_op_SpecInterface(i64* @tx_exh2shiftFifo_V_d, [8 x i8]* @ap_fifo_str, i32 0, i32 0, [1 x i8]* @p_str, i32 0, i32 0, [1 x i8]* @p_str, [1 x i8]* @p_str, [1 x i8]* @p_str, i32 2, i32 2, i32 16, i32 16, [1 x i8]* @p_str, [1 x i8]* @p_str)"   --->   Operation 67 'specinterface' <Predicate = true> <Delay = 0.00>
ST_2 : Operation 68 [1/1] (0.00ns)   --->   "call void (...)* @_ssdm_op_SpecInterface(i8* @tx_exh2shiftFifo_V_k, [8 x i8]* @ap_fifo_str, i32 0, i32 0, [1 x i8]* @p_str, i32 0, i32 0, [1 x i8]* @p_str, [1 x i8]* @p_str, [1 x i8]* @p_str, i32 2, i32 2, i32 16, i32 16, [1 x i8]* @p_str, [1 x i8]* @p_str)"   --->   Operation 68 'specinterface' <Predicate = true> <Delay = 0.00>
ST_2 : Operation 69 [1/1] (0.00ns)   --->   "call void (...)* @_ssdm_op_SpecInterface(i1* @tx_exh2shiftFifo_V_l, [8 x i8]* @ap_fifo_str, i32 0, i32 0, [1 x i8]* @p_str, i32 0, i32 0, [1 x i8]* @p_str, [1 x i8]* @p_str, [1 x i8]* @p_str, i32 2, i32 2, i32 16, i32 16, [1 x i8]* @p_str, [1 x i8]* @p_str)"   --->   Operation 69 'specinterface' <Predicate = true> <Delay = 0.00>
ST_2 : Operation 70 [1/1] (0.00ns)   --->   "call void (...)* @_ssdm_op_SpecInterface(i3* @tx_packetInfoFifo_V, [8 x i8]* @ap_fifo_str, i32 0, i32 0, [1 x i8]* @p_str, i32 0, i32 0, [1 x i8]* @p_str, [1 x i8]* @p_str, [1 x i8]* @p_str, i32 2, i32 2, i32 16, i32 16, [1 x i8]* @p_str, [1 x i8]* @p_str)"   --->   Operation 70 'specinterface' <Predicate = true> <Delay = 0.00>
ST_2 : Operation 71 [1/1] (0.00ns)   --->   "call void (...)* @_ssdm_op_SpecInterface(i64* @tx_rawPayFifo_V_data, [8 x i8]* @ap_fifo_str, i32 0, i32 0, [1 x i8]* @p_str, i32 0, i32 0, [1 x i8]* @p_str, [1 x i8]* @p_str, [1 x i8]* @p_str, i32 2, i32 2, i32 16, i32 16, [1 x i8]* @p_str, [1 x i8]* @p_str)"   --->   Operation 71 'specinterface' <Predicate = true> <Delay = 0.00>
ST_2 : Operation 72 [1/1] (0.00ns)   --->   "call void (...)* @_ssdm_op_SpecInterface(i8* @tx_rawPayFifo_V_keep, [8 x i8]* @ap_fifo_str, i32 0, i32 0, [1 x i8]* @p_str, i32 0, i32 0, [1 x i8]* @p_str, [1 x i8]* @p_str, [1 x i8]* @p_str, i32 2, i32 2, i32 16, i32 16, [1 x i8]* @p_str, [1 x i8]* @p_str)"   --->   Operation 72 'specinterface' <Predicate = true> <Delay = 0.00>
ST_2 : Operation 73 [1/1] (0.00ns)   --->   "call void (...)* @_ssdm_op_SpecInterface(i1* @tx_rawPayFifo_V_last, [8 x i8]* @ap_fifo_str, i32 0, i32 0, [1 x i8]* @p_str, i32 0, i32 0, [1 x i8]* @p_str, [1 x i8]* @p_str, [1 x i8]* @p_str, i32 2, i32 2, i32 16, i32 16, [1 x i8]* @p_str, [1 x i8]* @p_str)"   --->   Operation 73 'specinterface' <Predicate = true> <Delay = 0.00>
ST_2 : Operation 74 [1/1] (0.00ns)   --->   "call void (...)* @_ssdm_op_SpecInterface(i64* @tx_rethShift2payFifo_3, [8 x i8]* @ap_fifo_str, i32 0, i32 0, [1 x i8]* @p_str, i32 0, i32 0, [1 x i8]* @p_str, [1 x i8]* @p_str, [1 x i8]* @p_str, i32 2, i32 2, i32 16, i32 16, [1 x i8]* @p_str, [1 x i8]* @p_str)"   --->   Operation 74 'specinterface' <Predicate = true> <Delay = 0.00>
ST_2 : Operation 75 [1/1] (0.00ns)   --->   "call void (...)* @_ssdm_op_SpecInterface(i8* @tx_rethShift2payFifo_5, [8 x i8]* @ap_fifo_str, i32 0, i32 0, [1 x i8]* @p_str, i32 0, i32 0, [1 x i8]* @p_str, [1 x i8]* @p_str, [1 x i8]* @p_str, i32 2, i32 2, i32 16, i32 16, [1 x i8]* @p_str, [1 x i8]* @p_str)"   --->   Operation 75 'specinterface' <Predicate = true> <Delay = 0.00>
ST_2 : Operation 76 [1/1] (0.00ns)   --->   "call void (...)* @_ssdm_op_SpecInterface(i1* @tx_rethShift2payFifo_6, [8 x i8]* @ap_fifo_str, i32 0, i32 0, [1 x i8]* @p_str, i32 0, i32 0, [1 x i8]* @p_str, [1 x i8]* @p_str, [1 x i8]* @p_str, i32 2, i32 2, i32 16, i32 16, [1 x i8]* @p_str, [1 x i8]* @p_str)"   --->   Operation 76 'specinterface' <Predicate = true> <Delay = 0.00>
ST_2 : Operation 77 [1/1] (0.00ns)   --->   "call void (...)* @_ssdm_op_SpecPipeline(i32 1, i32 1, i32 1, i32 0, [1 x i8]* @p_str91) nounwind" [/home/paulrr2/Projects/ece527/babelsoc/fpga-network-stack/hls/rocev2/../ib_transport_protocol/ib_transport_protocol.cpp:1358]   --->   Operation 77 'specpipeline' <Predicate = true> <Delay = 0.00>
ST_2 : Operation 78 [1/1] (2.39ns)   --->   "call void @_ssdm_op_Write.ap_fifo.volatile.i64P.i8P.i1P(i64* @tx_exh2shiftFifo_V_d, i8* @tx_exh2shiftFifo_V_k, i1* @tx_exh2shiftFifo_V_l, i64 %tmp_data_V_57, i8 %tmp_keep_V_49, i1 %tmp_last_V_40) nounwind" [/home/paulrr2/Projects/ece527/babelsoc/fpga-network-stack/hls/rocev2/../ib_transport_protocol/ib_transport_protocol.cpp:1482]   --->   Operation 78 'write' <Predicate = (state_6_load == 4 & tmp_156)> <Delay = 2.39> <Core = "FIFO">   --->   Core 32 'FIFO' <Latency = 0> <II = 1> <Delay = 2.39> <Storage> <Opcode : 'read' 'write' 'nbread' 'nbwrite'> <Ports = 0> <Width = 3> <Depth = 2> <FIFO>
ST_2 : Operation 79 [1/1] (0.00ns)   --->   "br i1 %tmp_last_V_40, label %20, label %._crit_edge11.i" [/home/paulrr2/Projects/ece527/babelsoc/fpga-network-stack/hls/rocev2/../ib_transport_protocol/ib_transport_protocol.cpp:1483]   --->   Operation 79 'br' <Predicate = (state_6_load == 4 & tmp_156)> <Delay = 0.00>
ST_2 : Operation 80 [1/1] (0.00ns)   --->   "br label %._crit_edge11.i" [/home/paulrr2/Projects/ece527/babelsoc/fpga-network-stack/hls/rocev2/../ib_transport_protocol/ib_transport_protocol.cpp:1486]   --->   Operation 80 'br' <Predicate = (state_6_load == 4 & tmp_156 & tmp_last_V_40)> <Delay = 0.00>
ST_2 : Operation 81 [1/1] (0.00ns)   --->   "br label %._crit_edge10.i" [/home/paulrr2/Projects/ece527/babelsoc/fpga-network-stack/hls/rocev2/../ib_transport_protocol/ib_transport_protocol.cpp:1487]   --->   Operation 81 'br' <Predicate = (state_6_load == 4 & tmp_156)> <Delay = 0.00>
ST_2 : Operation 82 [1/1] (0.00ns)   --->   "br label %"append_payload<64>.exit"" [/home/paulrr2/Projects/ece527/babelsoc/fpga-network-stack/hls/rocev2/../ib_transport_protocol/ib_transport_protocol.cpp:1488]   --->   Operation 82 'br' <Predicate = (state_6_load == 4)> <Delay = 0.00>
ST_2 : Operation 83 [1/1] (2.39ns)   --->   "call void @_ssdm_op_Write.ap_fifo.volatile.i64P.i8P.i1P(i64* @tx_exh2shiftFifo_V_d, i8* @tx_exh2shiftFifo_V_k, i1* @tx_exh2shiftFifo_V_l, i64 %tmp_data_V_56, i8 %tmp_keep_V_48, i1 %tmp_last_V_39) nounwind" [/home/paulrr2/Projects/ece527/babelsoc/fpga-network-stack/hls/rocev2/../ib_transport_protocol/ib_transport_protocol.cpp:1471]   --->   Operation 83 'write' <Predicate = (state_6_load == 3 & tmp_155)> <Delay = 2.39> <Core = "FIFO">   --->   Core 32 'FIFO' <Latency = 0> <II = 1> <Delay = 2.39> <Storage> <Opcode : 'read' 'write' 'nbread' 'nbwrite'> <Ports = 0> <Width = 3> <Depth = 2> <FIFO>
ST_2 : Operation 84 [1/1] (0.00ns)   --->   "br i1 %tmp_last_V_39, label %17, label %._crit_edge9.i" [/home/paulrr2/Projects/ece527/babelsoc/fpga-network-stack/hls/rocev2/../ib_transport_protocol/ib_transport_protocol.cpp:1472]   --->   Operation 84 'br' <Predicate = (state_6_load == 3 & tmp_155)> <Delay = 0.00>
ST_2 : Operation 85 [1/1] (0.00ns)   --->   "br label %._crit_edge9.i" [/home/paulrr2/Projects/ece527/babelsoc/fpga-network-stack/hls/rocev2/../ib_transport_protocol/ib_transport_protocol.cpp:1475]   --->   Operation 85 'br' <Predicate = (state_6_load == 3 & tmp_155 & tmp_last_V_39)> <Delay = 0.00>
ST_2 : Operation 86 [1/1] (0.00ns)   --->   "br label %._crit_edge8.i" [/home/paulrr2/Projects/ece527/babelsoc/fpga-network-stack/hls/rocev2/../ib_transport_protocol/ib_transport_protocol.cpp:1476]   --->   Operation 86 'br' <Predicate = (state_6_load == 3 & tmp_155)> <Delay = 0.00>
ST_2 : Operation 87 [1/1] (0.00ns)   --->   "br label %"append_payload<64>.exit"" [/home/paulrr2/Projects/ece527/babelsoc/fpga-network-stack/hls/rocev2/../ib_transport_protocol/ib_transport_protocol.cpp:1477]   --->   Operation 87 'br' <Predicate = (state_6_load == 3)> <Delay = 0.00>
ST_2 : Operation 88 [1/1] (0.00ns)   --->   "%tmp_data_V_58 = phi i64 [ %tmp_data_V_59, %12 ], [ %p_Result_s, %13 ]"   --->   Operation 88 'phi' 'tmp_data_V_58' <Predicate = (state_6_load == 2 & tmp_154)> <Delay = 0.00>
ST_2 : Operation 89 [1/1] (2.39ns)   --->   "call void @_ssdm_op_Write.ap_fifo.volatile.i64P.i8P.i1P(i64* @tx_exh2shiftFifo_V_d, i8* @tx_exh2shiftFifo_V_k, i1* @tx_exh2shiftFifo_V_l, i64 %tmp_data_V_58, i8 %tmp_keep_V_47, i1 %tmp_last_V_38) nounwind" [/home/paulrr2/Projects/ece527/babelsoc/fpga-network-stack/hls/rocev2/../ib_transport_protocol/ib_transport_protocol.cpp:1444]   --->   Operation 89 'write' <Predicate = (state_6_load == 2 & tmp_154)> <Delay = 2.39> <Core = "FIFO">   --->   Core 32 'FIFO' <Latency = 0> <II = 1> <Delay = 2.39> <Storage> <Opcode : 'read' 'write' 'nbread' 'nbwrite'> <Ports = 0> <Width = 3> <Depth = 2> <FIFO>
ST_2 : Operation 90 [1/1] (0.00ns)   --->   "br i1 %tmp_last_V_38, label %14, label %._crit_edge7.i" [/home/paulrr2/Projects/ece527/babelsoc/fpga-network-stack/hls/rocev2/../ib_transport_protocol/ib_transport_protocol.cpp:1445]   --->   Operation 90 'br' <Predicate = (state_6_load == 2 & tmp_154)> <Delay = 0.00>
ST_2 : Operation 91 [1/1] (0.00ns)   --->   "br label %._crit_edge7.i" [/home/paulrr2/Projects/ece527/babelsoc/fpga-network-stack/hls/rocev2/../ib_transport_protocol/ib_transport_protocol.cpp:1448]   --->   Operation 91 'br' <Predicate = (state_6_load == 2 & tmp_154 & tmp_last_V_38)> <Delay = 0.00>
ST_2 : Operation 92 [1/1] (0.00ns)   --->   "br label %._crit_edge5.i" [/home/paulrr2/Projects/ece527/babelsoc/fpga-network-stack/hls/rocev2/../ib_transport_protocol/ib_transport_protocol.cpp:1449]   --->   Operation 92 'br' <Predicate = (state_6_load == 2 & tmp_154)> <Delay = 0.00>
ST_2 : Operation 93 [1/1] (0.00ns)   --->   "br label %"append_payload<64>.exit"" [/home/paulrr2/Projects/ece527/babelsoc/fpga-network-stack/hls/rocev2/../ib_transport_protocol/ib_transport_protocol.cpp:1450]   --->   Operation 93 'br' <Predicate = (state_6_load == 2)> <Delay = 0.00>
ST_2 : Operation 94 [1/1] (2.39ns)   --->   "call void @_ssdm_op_Write.ap_fifo.volatile.i64P.i8P.i1P(i64* @tx_exh2shiftFifo_V_d, i8* @tx_exh2shiftFifo_V_k, i1* @tx_exh2shiftFifo_V_l, i64 %tmp_data_V, i8 %tmp_keep_V, i1 false) nounwind" [/home/paulrr2/Projects/ece527/babelsoc/fpga-network-stack/hls/rocev2/../ib_transport_protocol/ib_transport_protocol.cpp:1398]   --->   Operation 94 'write' <Predicate = (state_6_load == 1 & tmp_153 & !tmp_last_V)> <Delay = 2.39> <Core = "FIFO">   --->   Core 32 'FIFO' <Latency = 0> <II = 1> <Delay = 2.39> <Storage> <Opcode : 'read' 'write' 'nbread' 'nbwrite'> <Ports = 0> <Width = 3> <Depth = 2> <FIFO>
ST_2 : Operation 95 [1/1] (0.00ns)   --->   "br label %10" [/home/paulrr2/Projects/ece527/babelsoc/fpga-network-stack/hls/rocev2/../ib_transport_protocol/ib_transport_protocol.cpp:1399]   --->   Operation 95 'br' <Predicate = (state_6_load == 1 & tmp_153 & !tmp_last_V)> <Delay = 0.00>
ST_2 : Operation 96 [1/1] (2.39ns)   --->   "call void @_ssdm_op_Write.ap_fifo.volatile.i64P.i8P.i1P(i64* @tx_exh2shiftFifo_V_d, i8* @tx_exh2shiftFifo_V_k, i1* @tx_exh2shiftFifo_V_l, i64 %tmp_data_V, i8 %tmp_keep_V, i1 true) nounwind" [/home/paulrr2/Projects/ece527/babelsoc/fpga-network-stack/hls/rocev2/../ib_transport_protocol/ib_transport_protocol.cpp:1405]   --->   Operation 96 'write' <Predicate = (state_6_load == 1 & tmp_153 & tmp_last_V & !info_hasPayload_load)> <Delay = 2.39> <Core = "FIFO">   --->   Core 32 'FIFO' <Latency = 0> <II = 1> <Delay = 2.39> <Storage> <Opcode : 'read' 'write' 'nbread' 'nbwrite'> <Ports = 0> <Width = 3> <Depth = 2> <FIFO>
ST_2 : Operation 97 [1/1] (0.00ns)   --->   "br label %9" [/home/paulrr2/Projects/ece527/babelsoc/fpga-network-stack/hls/rocev2/../ib_transport_protocol/ib_transport_protocol.cpp:1406]   --->   Operation 97 'br' <Predicate = (state_6_load == 1 & tmp_153 & tmp_last_V & !info_hasPayload_load)> <Delay = 0.00>
ST_2 : Operation 98 [1/1] (2.39ns)   --->   "call void @_ssdm_op_Write.ap_fifo.volatile.i64P.i8P.i1P(i64* @tx_exh2shiftFifo_V_d, i8* @tx_exh2shiftFifo_V_k, i1* @tx_exh2shiftFifo_V_l, i64 %tmp_data_V, i8 %tmp_keep_V, i1 false) nounwind" [/home/paulrr2/Projects/ece527/babelsoc/fpga-network-stack/hls/rocev2/../ib_transport_protocol/ib_transport_protocol.cpp:1418]   --->   Operation 98 'write' <Predicate = (state_6_load == 1 & tmp_153 & tmp_last_V & info_hasPayload_load & !info_isAETH_load)> <Delay = 2.39> <Core = "FIFO">   --->   Core 32 'FIFO' <Latency = 0> <II = 1> <Delay = 2.39> <Storage> <Opcode : 'read' 'write' 'nbread' 'nbwrite'> <Ports = 0> <Width = 3> <Depth = 2> <FIFO>
ST_2 : Operation 99 [1/1] (0.00ns)   --->   "br label %9"   --->   Operation 99 'br' <Predicate = (state_6_load == 1 & tmp_153 & tmp_last_V & info_hasPayload_load)> <Delay = 0.00>
ST_2 : Operation 100 [1/1] (0.00ns)   --->   "br label %10"   --->   Operation 100 'br' <Predicate = (state_6_load == 1 & tmp_153 & tmp_last_V)> <Delay = 0.00>
ST_2 : Operation 101 [1/1] (0.00ns)   --->   "br label %._crit_edge3.i" [/home/paulrr2/Projects/ece527/babelsoc/fpga-network-stack/hls/rocev2/../ib_transport_protocol/ib_transport_protocol.cpp:1424]   --->   Operation 101 'br' <Predicate = (state_6_load == 1 & tmp_153)> <Delay = 0.00>
ST_2 : Operation 102 [1/1] (0.00ns)   --->   "br label %"append_payload<64>.exit"" [/home/paulrr2/Projects/ece527/babelsoc/fpga-network-stack/hls/rocev2/../ib_transport_protocol/ib_transport_protocol.cpp:1425]   --->   Operation 102 'br' <Predicate = (state_6_load == 1)> <Delay = 0.00>
ST_2 : Operation 103 [1/1] (0.00ns)   --->   "br label %._crit_edge2.i" [/home/paulrr2/Projects/ece527/babelsoc/fpga-network-stack/hls/rocev2/../ib_transport_protocol/ib_transport_protocol.cpp:1386]   --->   Operation 103 'br' <Predicate = (state_6_load == 0 & tmp)> <Delay = 0.00>
ST_2 : Operation 104 [1/1] (0.00ns)   --->   "br label %"append_payload<64>.exit"" [/home/paulrr2/Projects/ece527/babelsoc/fpga-network-stack/hls/rocev2/../ib_transport_protocol/ib_transport_protocol.cpp:1387]   --->   Operation 104 'br' <Predicate = (state_6_load == 0)> <Delay = 0.00>
ST_2 : Operation 105 [1/1] (0.00ns)   --->   "ret void"   --->   Operation 105 'ret' <Predicate = true> <Delay = 0.00>


============================================================
+ Verbose Summary: Binding
============================================================
STG Binding: 
---------------- STG Properties BEGIN ----------------
- Is combinational: 0
- Is one-state seq: 0
- Is datapath-only: 0
- Is pipelined: 1
- Is top level: 0
Port [ Return ] is wired: 1; IO mode=ap_ctrl_hs:ce=0
Port [ state_6]:  wired=0; compound=0; hidden=1; nouse=0; global=1; static=1; extern=0; dir=2; type=0; pingpong=0; private_global=1; linkage=7; visibility=0; IO mode=ap_ovld:ce=0
Port [ firstPayload]:  wired=0; compound=0; hidden=1; nouse=0; global=1; static=1; extern=0; dir=2; type=0; pingpong=0; private_global=1; linkage=7; visibility=0; IO mode=ap_ovld:ce=0
Port [ info_isAETH]:  wired=0; compound=0; hidden=1; nouse=0; global=1; static=1; extern=0; dir=2; type=0; pingpong=0; private_global=1; linkage=7; visibility=0; IO mode=ap_ovld:ce=0
Port [ info_hasPayload]:  wired=0; compound=0; hidden=1; nouse=0; global=1; static=1; extern=0; dir=2; type=0; pingpong=0; private_global=1; linkage=7; visibility=0; IO mode=ap_ovld:ce=0
Port [ tx_packetInfoFifo_V]:  wired=1; compound=1; hidden=0; nouse=0; global=1; static=1; extern=0; dir=0; type=3; pingpong=0; private_global=0; linkage=7; visibility=0; IO mode=ap_fifo:ce=0
Port [ tx_exh2payFifo_V_dat]:  wired=1; compound=1; hidden=0; nouse=0; global=1; static=1; extern=0; dir=0; type=3; pingpong=0; private_global=0; linkage=7; visibility=0; IO mode=ap_fifo:ce=0
Port [ tx_exh2payFifo_V_kee]:  wired=1; compound=1; hidden=0; nouse=0; global=1; static=1; extern=0; dir=0; type=3; pingpong=0; private_global=0; linkage=7; visibility=0; IO mode=ap_fifo:ce=0
Port [ tx_exh2payFifo_V_las]:  wired=1; compound=1; hidden=0; nouse=0; global=1; static=1; extern=0; dir=0; type=3; pingpong=0; private_global=0; linkage=7; visibility=0; IO mode=ap_fifo:ce=0
Port [ prevWord_data_V]:  wired=0; compound=0; hidden=1; nouse=0; global=1; static=1; extern=0; dir=2; type=0; pingpong=0; private_global=1; linkage=7; visibility=0; IO mode=ap_ovld:ce=0
Port [ tx_exh2shiftFifo_V_d]:  wired=1; compound=1; hidden=0; nouse=0; global=1; static=1; extern=0; dir=1; type=3; pingpong=0; private_global=0; linkage=7; visibility=0; IO mode=ap_fifo:ce=0
Port [ tx_exh2shiftFifo_V_k]:  wired=1; compound=1; hidden=0; nouse=0; global=1; static=1; extern=0; dir=1; type=3; pingpong=0; private_global=0; linkage=7; visibility=0; IO mode=ap_fifo:ce=0
Port [ tx_exh2shiftFifo_V_l]:  wired=1; compound=1; hidden=0; nouse=0; global=1; static=1; extern=0; dir=1; type=3; pingpong=0; private_global=0; linkage=7; visibility=0; IO mode=ap_fifo:ce=0
Port [ tx_aethShift2payFifo_3]:  wired=1; compound=1; hidden=0; nouse=0; global=1; static=1; extern=0; dir=0; type=3; pingpong=0; private_global=0; linkage=7; visibility=0; IO mode=ap_fifo:ce=0
Port [ tx_aethShift2payFifo_5]:  wired=1; compound=1; hidden=0; nouse=0; global=1; static=1; extern=0; dir=0; type=3; pingpong=0; private_global=0; linkage=7; visibility=0; IO mode=ap_fifo:ce=0
Port [ tx_aethShift2payFifo_6]:  wired=1; compound=1; hidden=0; nouse=0; global=1; static=1; extern=0; dir=0; type=3; pingpong=0; private_global=0; linkage=7; visibility=0; IO mode=ap_fifo:ce=0
Port [ tx_rethShift2payFifo_3]:  wired=1; compound=1; hidden=0; nouse=0; global=1; static=1; extern=0; dir=0; type=3; pingpong=0; private_global=0; linkage=7; visibility=0; IO mode=ap_fifo:ce=0
Port [ tx_rethShift2payFifo_5]:  wired=1; compound=1; hidden=0; nouse=0; global=1; static=1; extern=0; dir=0; type=3; pingpong=0; private_global=0; linkage=7; visibility=0; IO mode=ap_fifo:ce=0
Port [ tx_rethShift2payFifo_6]:  wired=1; compound=1; hidden=0; nouse=0; global=1; static=1; extern=0; dir=0; type=3; pingpong=0; private_global=0; linkage=7; visibility=0; IO mode=ap_fifo:ce=0
Port [ tx_rawPayFifo_V_data]:  wired=1; compound=1; hidden=0; nouse=0; global=1; static=1; extern=0; dir=0; type=3; pingpong=0; private_global=0; linkage=7; visibility=0; IO mode=ap_fifo:ce=0
Port [ tx_rawPayFifo_V_keep]:  wired=1; compound=1; hidden=0; nouse=0; global=1; static=1; extern=0; dir=0; type=3; pingpong=0; private_global=0; linkage=7; visibility=0; IO mode=ap_fifo:ce=0
Port [ tx_rawPayFifo_V_last]:  wired=1; compound=1; hidden=0; nouse=0; global=1; static=1; extern=0; dir=0; type=3; pingpong=0; private_global=0; linkage=7; visibility=0; IO mode=ap_fifo:ce=0
---------------- STG Properties END ------------------

---------------- Datapath Model BEGIN ----------------

<LifeTime>
<method=bitvector/>
state_6_load         (load         ) [ 011]
firstPayload_load    (load         ) [ 010]
info_isAETH_load     (load         ) [ 011]
info_hasPayload_load (load         ) [ 011]
switch_ln1370        (switch       ) [ 000]
tmp_156              (nbreadreq    ) [ 011]
br_ln1479            (br           ) [ 000]
empty_424            (read         ) [ 000]
tmp_data_V_57        (extractvalue ) [ 011]
tmp_keep_V_49        (extractvalue ) [ 011]
tmp_last_V_40        (extractvalue ) [ 011]
store_ln1485         (store        ) [ 000]
tmp_155              (nbreadreq    ) [ 011]
br_ln1452            (br           ) [ 000]
empty_423            (read         ) [ 000]
tmp_data_V_56        (extractvalue ) [ 011]
tmp_keep_V_48        (extractvalue ) [ 011]
tmp_last_V_39        (extractvalue ) [ 011]
store_ln1474         (store        ) [ 000]
tmp_154              (nbreadreq    ) [ 011]
br_ln1427            (br           ) [ 000]
empty_422            (read         ) [ 000]
tmp_data_V_59        (extractvalue ) [ 011]
tmp_keep_V_47        (extractvalue ) [ 011]
tmp_last_V_38        (extractvalue ) [ 011]
br_ln1435            (br           ) [ 011]
p_Val2_s             (load         ) [ 000]
trunc_ln647          (trunc        ) [ 000]
p_Result_s           (partset      ) [ 011]
store_ln1438         (store        ) [ 000]
br_ln1439            (br           ) [ 011]
store_ln1447         (store        ) [ 000]
tmp_153              (nbreadreq    ) [ 011]
br_ln1389            (br           ) [ 000]
empty                (read         ) [ 000]
tmp_data_V           (extractvalue ) [ 011]
tmp_keep_V           (extractvalue ) [ 011]
tmp_last_V           (extractvalue ) [ 011]
store_ln50           (store        ) [ 000]
br_ln1396            (br           ) [ 000]
br_ln1402            (br           ) [ 000]
store_ln1404         (store        ) [ 000]
br_ln1410            (br           ) [ 000]
br_ln0               (br           ) [ 000]
storemerge_i         (phi          ) [ 000]
zext_ln1412          (zext         ) [ 000]
store_ln1412         (store        ) [ 000]
tmp                  (nbreadreq    ) [ 011]
br_ln1373            (br           ) [ 000]
store_ln1375         (store        ) [ 000]
tmp96                (read         ) [ 000]
trunc_ln145          (trunc        ) [ 000]
store_ln1376         (store        ) [ 000]
tmp_157              (bitselect    ) [ 000]
tmp_158              (bitselect    ) [ 000]
store_ln1376         (store        ) [ 000]
select_ln1378        (select       ) [ 000]
store_ln1380         (store        ) [ 000]
specinterface_ln0    (specinterface) [ 000]
specinterface_ln0    (specinterface) [ 000]
specinterface_ln0    (specinterface) [ 000]
specinterface_ln0    (specinterface) [ 000]
specinterface_ln0    (specinterface) [ 000]
specinterface_ln0    (specinterface) [ 000]
specinterface_ln0    (specinterface) [ 000]
specinterface_ln0    (specinterface) [ 000]
specinterface_ln0    (specinterface) [ 000]
specinterface_ln0    (specinterface) [ 000]
specinterface_ln0    (specinterface) [ 000]
specinterface_ln0    (specinterface) [ 000]
specinterface_ln0    (specinterface) [ 000]
specinterface_ln0    (specinterface) [ 000]
specinterface_ln0    (specinterface) [ 000]
specinterface_ln0    (specinterface) [ 000]
specpipeline_ln1358  (specpipeline ) [ 000]
write_ln1482         (write        ) [ 000]
br_ln1483            (br           ) [ 000]
br_ln1486            (br           ) [ 000]
br_ln1487            (br           ) [ 000]
br_ln1488            (br           ) [ 000]
write_ln1471         (write        ) [ 000]
br_ln1472            (br           ) [ 000]
br_ln1475            (br           ) [ 000]
br_ln1476            (br           ) [ 000]
br_ln1477            (br           ) [ 000]
tmp_data_V_58        (phi          ) [ 011]
write_ln1444         (write        ) [ 000]
br_ln1445            (br           ) [ 000]
br_ln1448            (br           ) [ 000]
br_ln1449            (br           ) [ 000]
br_ln1450            (br           ) [ 000]
write_ln1398         (write        ) [ 000]
br_ln1399            (br           ) [ 000]
write_ln1405         (write        ) [ 000]
br_ln1406            (br           ) [ 000]
write_ln1418         (write        ) [ 000]
br_ln0               (br           ) [ 000]
br_ln0               (br           ) [ 000]
br_ln1424            (br           ) [ 000]
br_ln1425            (br           ) [ 000]
br_ln1386            (br           ) [ 000]
br_ln1387            (br           ) [ 000]
ret_ln0              (ret          ) [ 000]
</LifeTime>

<model>

<comp_list>
<comp id="0" class="1000" name="state_6">
<pin_list>
<pin id="1" dir="1" index="0" bw="1" slack="0"/>
</pin_list>
<bind>
<StgValue><ssdm name="state_6"/></StgValue>
</bind>
</comp>

<comp id="2" class="1000" name="firstPayload">
<pin_list>
<pin id="3" dir="1" index="0" bw="1" slack="0"/>
</pin_list>
<bind>
<StgValue><ssdm name="firstPayload"/></StgValue>
</bind>
</comp>

<comp id="4" class="1000" name="info_isAETH">
<pin_list>
<pin id="5" dir="1" index="0" bw="1" slack="0"/>
</pin_list>
<bind>
<StgValue><ssdm name="info_isAETH"/></StgValue>
</bind>
</comp>

<comp id="6" class="1000" name="info_hasPayload">
<pin_list>
<pin id="7" dir="1" index="0" bw="1" slack="0"/>
</pin_list>
<bind>
<StgValue><ssdm name="info_hasPayload"/></StgValue>
</bind>
</comp>

<comp id="8" class="1000" name="tx_packetInfoFifo_V">
<pin_list>
<pin id="9" dir="1" index="0" bw="1" slack="0"/>
</pin_list>
<bind>
<StgValue><ssdm name="tx_packetInfoFifo_V"/></StgValue>
</bind>
</comp>

<comp id="10" class="1000" name="tx_exh2payFifo_V_dat">
<pin_list>
<pin id="11" dir="1" index="0" bw="1" slack="0"/>
</pin_list>
<bind>
<StgValue><ssdm name="tx_exh2payFifo_V_dat"/></StgValue>
</bind>
</comp>

<comp id="12" class="1000" name="tx_exh2payFifo_V_kee">
<pin_list>
<pin id="13" dir="1" index="0" bw="1" slack="0"/>
</pin_list>
<bind>
<StgValue><ssdm name="tx_exh2payFifo_V_kee"/></StgValue>
</bind>
</comp>

<comp id="14" class="1000" name="tx_exh2payFifo_V_las">
<pin_list>
<pin id="15" dir="1" index="0" bw="1" slack="0"/>
</pin_list>
<bind>
<StgValue><ssdm name="tx_exh2payFifo_V_las"/></StgValue>
</bind>
</comp>

<comp id="16" class="1000" name="prevWord_data_V">
<pin_list>
<pin id="17" dir="1" index="0" bw="1" slack="0"/>
</pin_list>
<bind>
<StgValue><ssdm name="prevWord_data_V"/></StgValue>
</bind>
</comp>

<comp id="18" class="1000" name="tx_exh2shiftFifo_V_d">
<pin_list>
<pin id="19" dir="1" index="0" bw="1" slack="0"/>
</pin_list>
<bind>
<StgValue><ssdm name="tx_exh2shiftFifo_V_d"/></StgValue>
</bind>
</comp>

<comp id="20" class="1000" name="tx_exh2shiftFifo_V_k">
<pin_list>
<pin id="21" dir="1" index="0" bw="1" slack="0"/>
</pin_list>
<bind>
<StgValue><ssdm name="tx_exh2shiftFifo_V_k"/></StgValue>
</bind>
</comp>

<comp id="22" class="1000" name="tx_exh2shiftFifo_V_l">
<pin_list>
<pin id="23" dir="1" index="0" bw="1" slack="0"/>
</pin_list>
<bind>
<StgValue><ssdm name="tx_exh2shiftFifo_V_l"/></StgValue>
</bind>
</comp>

<comp id="24" class="1000" name="tx_aethShift2payFifo_3">
<pin_list>
<pin id="25" dir="1" index="0" bw="1" slack="0"/>
</pin_list>
<bind>
<StgValue><ssdm name="tx_aethShift2payFifo_3"/></StgValue>
</bind>
</comp>

<comp id="26" class="1000" name="tx_aethShift2payFifo_5">
<pin_list>
<pin id="27" dir="1" index="0" bw="1" slack="0"/>
</pin_list>
<bind>
<StgValue><ssdm name="tx_aethShift2payFifo_5"/></StgValue>
</bind>
</comp>

<comp id="28" class="1000" name="tx_aethShift2payFifo_6">
<pin_list>
<pin id="29" dir="1" index="0" bw="1" slack="0"/>
</pin_list>
<bind>
<StgValue><ssdm name="tx_aethShift2payFifo_6"/></StgValue>
</bind>
</comp>

<comp id="30" class="1000" name="tx_rethShift2payFifo_3">
<pin_list>
<pin id="31" dir="1" index="0" bw="1" slack="0"/>
</pin_list>
<bind>
<StgValue><ssdm name="tx_rethShift2payFifo_3"/></StgValue>
</bind>
</comp>

<comp id="32" class="1000" name="tx_rethShift2payFifo_5">
<pin_list>
<pin id="33" dir="1" index="0" bw="1" slack="0"/>
</pin_list>
<bind>
<StgValue><ssdm name="tx_rethShift2payFifo_5"/></StgValue>
</bind>
</comp>

<comp id="34" class="1000" name="tx_rethShift2payFifo_6">
<pin_list>
<pin id="35" dir="1" index="0" bw="1" slack="0"/>
</pin_list>
<bind>
<StgValue><ssdm name="tx_rethShift2payFifo_6"/></StgValue>
</bind>
</comp>

<comp id="36" class="1000" name="tx_rawPayFifo_V_data">
<pin_list>
<pin id="37" dir="1" index="0" bw="1" slack="0"/>
</pin_list>
<bind>
<StgValue><ssdm name="tx_rawPayFifo_V_data"/></StgValue>
</bind>
</comp>

<comp id="38" class="1000" name="tx_rawPayFifo_V_keep">
<pin_list>
<pin id="39" dir="1" index="0" bw="1" slack="0"/>
</pin_list>
<bind>
<StgValue><ssdm name="tx_rawPayFifo_V_keep"/></StgValue>
</bind>
</comp>

<comp id="40" class="1000" name="tx_rawPayFifo_V_last">
<pin_list>
<pin id="41" dir="1" index="0" bw="1" slack="0"/>
</pin_list>
<bind>
<StgValue><ssdm name="tx_rawPayFifo_V_last"/></StgValue>
</bind>
</comp>

<comp id="42" class="1001" name="const_42">
<pin_list>
<pin id="43" dir="1" index="0" bw="1" slack="0"/>
</pin_list>
<bind>
<StgValue><ssdm name=""/></StgValue>
</bind>
</comp>

<comp id="44" class="1001" name="const_44">
<pin_list>
<pin id="45" dir="1" index="0" bw="1" slack="0"/>
</pin_list>
<bind>
<StgValue><ssdm name=""/></StgValue>
</bind>
</comp>

<comp id="46" class="1001" name="const_46">
<pin_list>
<pin id="47" dir="1" index="0" bw="1" slack="2147483647"/>
</pin_list>
<bind>
<StgValue><ssdm name=""/></StgValue>
</bind>
</comp>

<comp id="48" class="1001" name="const_48">
<pin_list>
<pin id="49" dir="1" index="0" bw="1" slack="2147483647"/>
</pin_list>
<bind>
<StgValue><ssdm name=""/></StgValue>
</bind>
</comp>

<comp id="50" class="1001" name="const_50">
<pin_list>
<pin id="51" dir="1" index="0" bw="1" slack="0"/>
</pin_list>
<bind>
<StgValue><ssdm name=""/></StgValue>
</bind>
</comp>

<comp id="52" class="1001" name="const_52">
<pin_list>
<pin id="53" dir="1" index="0" bw="1" slack="0"/>
</pin_list>
<bind>
<StgValue><ssdm name="_ssdm_op_NbReadReq.ap_fifo.i64P.i8P.i1P"/></StgValue>
</bind>
</comp>

<comp id="54" class="1001" name="const_54">
<pin_list>
<pin id="55" dir="1" index="0" bw="1" slack="0"/>
</pin_list>
<bind>
<StgValue><ssdm name=""/></StgValue>
</bind>
</comp>

<comp id="56" class="1001" name="const_56">
<pin_list>
<pin id="57" dir="1" index="0" bw="1" slack="0"/>
</pin_list>
<bind>
<StgValue><ssdm name="_ssdm_op_Read.ap_fifo.volatile.i64P.i8P.i1P"/></StgValue>
</bind>
</comp>

<comp id="58" class="1001" name="const_58">
<pin_list>
<pin id="59" dir="1" index="0" bw="1" slack="0"/>
</pin_list>
<bind>
<StgValue><ssdm name="llvm.part.set.i64.i32"/></StgValue>
</bind>
</comp>

<comp id="60" class="1001" name="const_60">
<pin_list>
<pin id="61" dir="1" index="0" bw="1" slack="0"/>
</pin_list>
<bind>
<StgValue><ssdm name=""/></StgValue>
</bind>
</comp>

<comp id="62" class="1001" name="const_62">
<pin_list>
<pin id="63" dir="1" index="0" bw="1" slack="0"/>
</pin_list>
<bind>
<StgValue><ssdm name=""/></StgValue>
</bind>
</comp>

<comp id="64" class="1001" name="const_64">
<pin_list>
<pin id="65" dir="1" index="0" bw="1" slack="0"/>
</pin_list>
<bind>
<StgValue><ssdm name=""/></StgValue>
</bind>
</comp>

<comp id="66" class="1001" name="const_66">
<pin_list>
<pin id="67" dir="1" index="0" bw="1" slack="0"/>
</pin_list>
<bind>
<StgValue><ssdm name=""/></StgValue>
</bind>
</comp>

<comp id="68" class="1001" name="const_68">
<pin_list>
<pin id="69" dir="1" index="0" bw="1" slack="0"/>
</pin_list>
<bind>
<StgValue><ssdm name=""/></StgValue>
</bind>
</comp>

<comp id="70" class="1001" name="const_70">
<pin_list>
<pin id="71" dir="1" index="0" bw="1" slack="0"/>
</pin_list>
<bind>
<StgValue><ssdm name="_ssdm_op_NbReadReq.ap_fifo.i3P"/></StgValue>
</bind>
</comp>

<comp id="72" class="1001" name="const_72">
<pin_list>
<pin id="73" dir="1" index="0" bw="1" slack="0"/>
</pin_list>
<bind>
<StgValue><ssdm name=""/></StgValue>
</bind>
</comp>

<comp id="74" class="1001" name="const_74">
<pin_list>
<pin id="75" dir="1" index="0" bw="1" slack="0"/>
</pin_list>
<bind>
<StgValue><ssdm name="_ssdm_op_Read.ap_fifo.volatile.i3P"/></StgValue>
</bind>
</comp>

<comp id="76" class="1001" name="const_76">
<pin_list>
<pin id="77" dir="1" index="0" bw="1" slack="0"/>
</pin_list>
<bind>
<StgValue><ssdm name="_ssdm_op_BitSelect.i1.i3.i32"/></StgValue>
</bind>
</comp>

<comp id="78" class="1001" name="const_78">
<pin_list>
<pin id="79" dir="1" index="0" bw="1" slack="0"/>
</pin_list>
<bind>
<StgValue><ssdm name=""/></StgValue>
</bind>
</comp>

<comp id="80" class="1001" name="const_80">
<pin_list>
<pin id="81" dir="1" index="0" bw="1" slack="2147483647"/>
</pin_list>
<bind>
<StgValue><ssdm name="_ssdm_op_SpecInterface"/></StgValue>
</bind>
</comp>

<comp id="82" class="1001" name="const_82">
<pin_list>
<pin id="83" dir="1" index="0" bw="1" slack="2147483647"/>
</pin_list>
<bind>
<StgValue><ssdm name="ap_fifo_str"/></StgValue>
</bind>
</comp>

<comp id="84" class="1001" name="const_84">
<pin_list>
<pin id="85" dir="1" index="0" bw="1" slack="2147483647"/>
</pin_list>
<bind>
<StgValue><ssdm name="p_str"/></StgValue>
</bind>
</comp>

<comp id="86" class="1001" name="const_86">
<pin_list>
<pin id="87" dir="1" index="0" bw="1" slack="2147483647"/>
</pin_list>
<bind>
<StgValue><ssdm name=""/></StgValue>
</bind>
</comp>

<comp id="88" class="1001" name="const_88">
<pin_list>
<pin id="89" dir="1" index="0" bw="1" slack="2147483647"/>
</pin_list>
<bind>
<StgValue><ssdm name="_ssdm_op_SpecPipeline"/></StgValue>
</bind>
</comp>

<comp id="90" class="1001" name="const_90">
<pin_list>
<pin id="91" dir="1" index="0" bw="1" slack="2147483647"/>
</pin_list>
<bind>
<StgValue><ssdm name="p_str91"/></StgValue>
</bind>
</comp>

<comp id="92" class="1001" name="const_92">
<pin_list>
<pin id="93" dir="1" index="0" bw="1" slack="0"/>
</pin_list>
<bind>
<StgValue><ssdm name="_ssdm_op_Write.ap_fifo.volatile.i64P.i8P.i1P"/></StgValue>
</bind>
</comp>

<comp id="94" class="1004" name="tmp_156_nbreadreq_fu_94">
<pin_list>
<pin id="95" dir="0" index="0" bw="1" slack="0"/>
<pin id="96" dir="0" index="1" bw="64" slack="0"/>
<pin id="97" dir="0" index="2" bw="8" slack="0"/>
<pin id="98" dir="0" index="3" bw="1" slack="0"/>
<pin id="99" dir="0" index="4" bw="1" slack="0"/>
<pin id="100" dir="1" index="5" bw="1" slack="1"/>
</pin_list>
<bind>
<opcode="nbreadreq(1156) " fcode="nbreadreq"/>
<opset="tmp_156/1 "/>
</bind>
</comp>

<comp id="106" class="1004" name="empty_424_read_fu_106">
<pin_list>
<pin id="107" dir="0" index="0" bw="73" slack="0"/>
<pin id="108" dir="0" index="1" bw="64" slack="0"/>
<pin id="109" dir="0" index="2" bw="8" slack="0"/>
<pin id="110" dir="0" index="3" bw="1" slack="0"/>
<pin id="111" dir="1" index="4" bw="73" slack="0"/>
</pin_list>
<bind>
<opcode="read(1150) " fcode="read"/>
<opset="empty_424/1 "/>
</bind>
</comp>

<comp id="116" class="1004" name="tmp_155_nbreadreq_fu_116">
<pin_list>
<pin id="117" dir="0" index="0" bw="1" slack="0"/>
<pin id="118" dir="0" index="1" bw="64" slack="0"/>
<pin id="119" dir="0" index="2" bw="8" slack="0"/>
<pin id="120" dir="0" index="3" bw="1" slack="0"/>
<pin id="121" dir="0" index="4" bw="1" slack="0"/>
<pin id="122" dir="1" index="5" bw="1" slack="1"/>
</pin_list>
<bind>
<opcode="nbreadreq(1156) " fcode="nbreadreq"/>
<opset="tmp_155/1 "/>
</bind>
</comp>

<comp id="128" class="1004" name="empty_423_read_fu_128">
<pin_list>
<pin id="129" dir="0" index="0" bw="73" slack="0"/>
<pin id="130" dir="0" index="1" bw="64" slack="0"/>
<pin id="131" dir="0" index="2" bw="8" slack="0"/>
<pin id="132" dir="0" index="3" bw="1" slack="0"/>
<pin id="133" dir="1" index="4" bw="73" slack="0"/>
</pin_list>
<bind>
<opcode="read(1150) " fcode="read"/>
<opset="empty_423/1 "/>
</bind>
</comp>

<comp id="138" class="1004" name="tmp_154_nbreadreq_fu_138">
<pin_list>
<pin id="139" dir="0" index="0" bw="1" slack="0"/>
<pin id="140" dir="0" index="1" bw="64" slack="0"/>
<pin id="141" dir="0" index="2" bw="8" slack="0"/>
<pin id="142" dir="0" index="3" bw="1" slack="0"/>
<pin id="143" dir="0" index="4" bw="1" slack="0"/>
<pin id="144" dir="1" index="5" bw="1" slack="1"/>
</pin_list>
<bind>
<opcode="nbreadreq(1156) " fcode="nbreadreq"/>
<opset="tmp_154/1 "/>
</bind>
</comp>

<comp id="150" class="1004" name="empty_422_read_fu_150">
<pin_list>
<pin id="151" dir="0" index="0" bw="73" slack="0"/>
<pin id="152" dir="0" index="1" bw="64" slack="0"/>
<pin id="153" dir="0" index="2" bw="8" slack="0"/>
<pin id="154" dir="0" index="3" bw="1" slack="0"/>
<pin id="155" dir="1" index="4" bw="73" slack="0"/>
</pin_list>
<bind>
<opcode="read(1150) " fcode="read"/>
<opset="empty_422/1 "/>
</bind>
</comp>

<comp id="160" class="1004" name="tmp_153_nbreadreq_fu_160">
<pin_list>
<pin id="161" dir="0" index="0" bw="1" slack="0"/>
<pin id="162" dir="0" index="1" bw="64" slack="0"/>
<pin id="163" dir="0" index="2" bw="8" slack="0"/>
<pin id="164" dir="0" index="3" bw="1" slack="0"/>
<pin id="165" dir="0" index="4" bw="1" slack="0"/>
<pin id="166" dir="1" index="5" bw="1" slack="1"/>
</pin_list>
<bind>
<opcode="nbreadreq(1156) " fcode="nbreadreq"/>
<opset="tmp_153/1 "/>
</bind>
</comp>

<comp id="172" class="1004" name="empty_read_fu_172">
<pin_list>
<pin id="173" dir="0" index="0" bw="73" slack="0"/>
<pin id="174" dir="0" index="1" bw="64" slack="0"/>
<pin id="175" dir="0" index="2" bw="8" slack="0"/>
<pin id="176" dir="0" index="3" bw="1" slack="0"/>
<pin id="177" dir="1" index="4" bw="73" slack="0"/>
</pin_list>
<bind>
<opcode="read(1150) " fcode="read"/>
<opset="empty/1 "/>
</bind>
</comp>

<comp id="182" class="1004" name="tmp_nbreadreq_fu_182">
<pin_list>
<pin id="183" dir="0" index="0" bw="1" slack="0"/>
<pin id="184" dir="0" index="1" bw="3" slack="0"/>
<pin id="185" dir="0" index="2" bw="1" slack="0"/>
<pin id="186" dir="1" index="3" bw="1" slack="1"/>
</pin_list>
<bind>
<opcode="nbreadreq(1156) " fcode="nbreadreq"/>
<opset="tmp/1 "/>
</bind>
</comp>

<comp id="190" class="1004" name="tmp96_read_fu_190">
<pin_list>
<pin id="191" dir="0" index="0" bw="3" slack="0"/>
<pin id="192" dir="0" index="1" bw="3" slack="0"/>
<pin id="193" dir="1" index="2" bw="3" slack="0"/>
</pin_list>
<bind>
<opcode="read(1150) " fcode="read"/>
<opset="tmp96/1 "/>
</bind>
</comp>

<comp id="196" class="1004" name="grp_write_fu_196">
<pin_list>
<pin id="197" dir="0" index="0" bw="0" slack="0"/>
<pin id="198" dir="0" index="1" bw="64" slack="0"/>
<pin id="199" dir="0" index="2" bw="8" slack="0"/>
<pin id="200" dir="0" index="3" bw="1" slack="0"/>
<pin id="201" dir="0" index="4" bw="64" slack="0"/>
<pin id="202" dir="0" index="5" bw="8" slack="1"/>
<pin id="203" dir="0" index="6" bw="1" slack="0"/>
<pin id="204" dir="1" index="7" bw="0" slack="2147483647"/>
</pin_list>
<bind>
<opcode="write(1151) " fcode="write"/>
<opset="write_ln1482/2 write_ln1471/2 write_ln1444/2 write_ln1398/2 write_ln1405/2 write_ln1418/2 "/>
</bind>
</comp>

<comp id="211" class="1005" name="storemerge_i_reg_211">
<pin_list>
<pin id="212" dir="0" index="0" bw="2" slack="2147483647"/>
<pin id="213" dir="1" index="1" bw="2" slack="2147483647"/>
</pin_list>
<bind>
<opset="storemerge_i (phireg) "/>
</bind>
</comp>

<comp id="214" class="1004" name="storemerge_i_phi_fu_214">
<pin_list>
<pin id="215" dir="0" index="0" bw="1" slack="0"/>
<pin id="216" dir="0" index="1" bw="0" slack="2147483647"/>
<pin id="217" dir="0" index="2" bw="2" slack="0"/>
<pin id="218" dir="0" index="3" bw="0" slack="2147483647"/>
<pin id="219" dir="1" index="4" bw="2" slack="0"/>
</pin_list>
<bind>
<opcode="phi(47) " fcode="phi"/>
<opset="storemerge_i/1 "/>
</bind>
</comp>

<comp id="222" class="1005" name="tmp_data_V_58_reg_222">
<pin_list>
<pin id="223" dir="0" index="0" bw="64" slack="2147483647"/>
<pin id="224" dir="1" index="1" bw="64" slack="2147483647"/>
</pin_list>
<bind>
<opset="tmp_data_V_58 (phireg) "/>
</bind>
</comp>

<comp id="225" class="1004" name="tmp_data_V_58_phi_fu_225">
<pin_list>
<pin id="226" dir="0" index="0" bw="64" slack="1"/>
<pin id="227" dir="0" index="1" bw="0" slack="2147483647"/>
<pin id="228" dir="0" index="2" bw="64" slack="1"/>
<pin id="229" dir="0" index="3" bw="0" slack="2147483647"/>
<pin id="230" dir="1" index="4" bw="64" slack="0"/>
</pin_list>
<bind>
<opcode="phi(47) " fcode="phi"/>
<opset="tmp_data_V_58/2 "/>
</bind>
</comp>

<comp id="232" class="1004" name="grp_store_fu_232">
<pin_list>
<pin id="233" dir="0" index="0" bw="1" slack="0"/>
<pin id="234" dir="0" index="1" bw="3" slack="0"/>
<pin id="235" dir="1" index="2" bw="0" slack="2147483647"/>
</pin_list>
<bind>
<opcode="store(28) " fcode="store"/>
<opset="store_ln1485/1 store_ln1474/1 store_ln1447/1 store_ln1404/1 "/>
</bind>
</comp>

<comp id="238" class="1004" name="state_6_load_load_fu_238">
<pin_list>
<pin id="239" dir="0" index="0" bw="3" slack="0"/>
<pin id="240" dir="1" index="1" bw="3" slack="1"/>
</pin_list>
<bind>
<opcode="load(27) " fcode="load"/>
<opset="state_6_load/1 "/>
</bind>
</comp>

<comp id="242" class="1004" name="firstPayload_load_load_fu_242">
<pin_list>
<pin id="243" dir="0" index="0" bw="1" slack="0"/>
<pin id="244" dir="1" index="1" bw="1" slack="2147483647"/>
</pin_list>
<bind>
<opcode="load(27) " fcode="load"/>
<opset="firstPayload_load/1 "/>
</bind>
</comp>

<comp id="246" class="1004" name="info_isAETH_load_load_fu_246">
<pin_list>
<pin id="247" dir="0" index="0" bw="1" slack="0"/>
<pin id="248" dir="1" index="1" bw="1" slack="1"/>
</pin_list>
<bind>
<opcode="load(27) " fcode="load"/>
<opset="info_isAETH_load/1 "/>
</bind>
</comp>

<comp id="250" class="1004" name="info_hasPayload_load_load_fu_250">
<pin_list>
<pin id="251" dir="0" index="0" bw="1" slack="0"/>
<pin id="252" dir="1" index="1" bw="1" slack="1"/>
</pin_list>
<bind>
<opcode="load(27) " fcode="load"/>
<opset="info_hasPayload_load/1 "/>
</bind>
</comp>

<comp id="254" class="1004" name="tmp_data_V_57_fu_254">
<pin_list>
<pin id="255" dir="0" index="0" bw="73" slack="0"/>
<pin id="256" dir="1" index="1" bw="64" slack="1"/>
</pin_list>
<bind>
<opcode="extractvalue(56) " fcode="extractvalue"/>
<opset="tmp_data_V_57/1 "/>
</bind>
</comp>

<comp id="258" class="1004" name="tmp_keep_V_49_fu_258">
<pin_list>
<pin id="259" dir="0" index="0" bw="73" slack="0"/>
<pin id="260" dir="1" index="1" bw="8" slack="1"/>
</pin_list>
<bind>
<opcode="extractvalue(56) " fcode="extractvalue"/>
<opset="tmp_keep_V_49/1 "/>
</bind>
</comp>

<comp id="262" class="1004" name="tmp_last_V_40_fu_262">
<pin_list>
<pin id="263" dir="0" index="0" bw="73" slack="0"/>
<pin id="264" dir="1" index="1" bw="1" slack="1"/>
</pin_list>
<bind>
<opcode="extractvalue(56) " fcode="extractvalue"/>
<opset="tmp_last_V_40/1 "/>
</bind>
</comp>

<comp id="266" class="1004" name="tmp_data_V_56_fu_266">
<pin_list>
<pin id="267" dir="0" index="0" bw="73" slack="0"/>
<pin id="268" dir="1" index="1" bw="64" slack="1"/>
</pin_list>
<bind>
<opcode="extractvalue(56) " fcode="extractvalue"/>
<opset="tmp_data_V_56/1 "/>
</bind>
</comp>

<comp id="270" class="1004" name="tmp_keep_V_48_fu_270">
<pin_list>
<pin id="271" dir="0" index="0" bw="73" slack="0"/>
<pin id="272" dir="1" index="1" bw="8" slack="1"/>
</pin_list>
<bind>
<opcode="extractvalue(56) " fcode="extractvalue"/>
<opset="tmp_keep_V_48/1 "/>
</bind>
</comp>

<comp id="274" class="1004" name="tmp_last_V_39_fu_274">
<pin_list>
<pin id="275" dir="0" index="0" bw="73" slack="0"/>
<pin id="276" dir="1" index="1" bw="1" slack="1"/>
</pin_list>
<bind>
<opcode="extractvalue(56) " fcode="extractvalue"/>
<opset="tmp_last_V_39/1 "/>
</bind>
</comp>

<comp id="278" class="1004" name="tmp_data_V_59_fu_278">
<pin_list>
<pin id="279" dir="0" index="0" bw="73" slack="0"/>
<pin id="280" dir="1" index="1" bw="64" slack="0"/>
</pin_list>
<bind>
<opcode="extractvalue(56) " fcode="extractvalue"/>
<opset="tmp_data_V_59/1 "/>
</bind>
</comp>

<comp id="282" class="1004" name="tmp_keep_V_47_fu_282">
<pin_list>
<pin id="283" dir="0" index="0" bw="73" slack="0"/>
<pin id="284" dir="1" index="1" bw="8" slack="1"/>
</pin_list>
<bind>
<opcode="extractvalue(56) " fcode="extractvalue"/>
<opset="tmp_keep_V_47/1 "/>
</bind>
</comp>

<comp id="286" class="1004" name="tmp_last_V_38_fu_286">
<pin_list>
<pin id="287" dir="0" index="0" bw="73" slack="0"/>
<pin id="288" dir="1" index="1" bw="1" slack="1"/>
</pin_list>
<bind>
<opcode="extractvalue(56) " fcode="extractvalue"/>
<opset="tmp_last_V_38/1 "/>
</bind>
</comp>

<comp id="290" class="1004" name="p_Val2_s_load_fu_290">
<pin_list>
<pin id="291" dir="0" index="0" bw="64" slack="0"/>
<pin id="292" dir="1" index="1" bw="64" slack="0"/>
</pin_list>
<bind>
<opcode="load(27) " fcode="load"/>
<opset="p_Val2_s/1 "/>
</bind>
</comp>

<comp id="294" class="1004" name="trunc_ln647_fu_294">
<pin_list>
<pin id="295" dir="0" index="0" bw="64" slack="0"/>
<pin id="296" dir="1" index="1" bw="32" slack="0"/>
</pin_list>
<bind>
<opcode="trunc(33) " fcode="trunc"/>
<opset="trunc_ln647/1 "/>
</bind>
</comp>

<comp id="298" class="1004" name="p_Result_s_fu_298">
<pin_list>
<pin id="299" dir="0" index="0" bw="64" slack="0"/>
<pin id="300" dir="0" index="1" bw="64" slack="0"/>
<pin id="301" dir="0" index="2" bw="32" slack="0"/>
<pin id="302" dir="0" index="3" bw="1" slack="0"/>
<pin id="303" dir="0" index="4" bw="6" slack="0"/>
<pin id="304" dir="1" index="5" bw="64" slack="1"/>
</pin_list>
<bind>
<opcode="partset(1003) " fcode="partset"/>
<opset="p_Result_s/1 "/>
</bind>
</comp>

<comp id="310" class="1004" name="store_ln1438_store_fu_310">
<pin_list>
<pin id="311" dir="0" index="0" bw="1" slack="0"/>
<pin id="312" dir="0" index="1" bw="1" slack="0"/>
<pin id="313" dir="1" index="2" bw="0" slack="2147483647"/>
</pin_list>
<bind>
<opcode="store(28) " fcode="store"/>
<opset="store_ln1438/1 "/>
</bind>
</comp>

<comp id="316" class="1004" name="tmp_data_V_fu_316">
<pin_list>
<pin id="317" dir="0" index="0" bw="73" slack="0"/>
<pin id="318" dir="1" index="1" bw="64" slack="0"/>
</pin_list>
<bind>
<opcode="extractvalue(56) " fcode="extractvalue"/>
<opset="tmp_data_V/1 "/>
</bind>
</comp>

<comp id="320" class="1004" name="tmp_keep_V_fu_320">
<pin_list>
<pin id="321" dir="0" index="0" bw="73" slack="0"/>
<pin id="322" dir="1" index="1" bw="8" slack="1"/>
</pin_list>
<bind>
<opcode="extractvalue(56) " fcode="extractvalue"/>
<opset="tmp_keep_V/1 "/>
</bind>
</comp>

<comp id="324" class="1004" name="tmp_last_V_fu_324">
<pin_list>
<pin id="325" dir="0" index="0" bw="73" slack="0"/>
<pin id="326" dir="1" index="1" bw="1" slack="1"/>
</pin_list>
<bind>
<opcode="extractvalue(56) " fcode="extractvalue"/>
<opset="tmp_last_V/1 "/>
</bind>
</comp>

<comp id="328" class="1004" name="store_ln50_store_fu_328">
<pin_list>
<pin id="329" dir="0" index="0" bw="64" slack="0"/>
<pin id="330" dir="0" index="1" bw="64" slack="0"/>
<pin id="331" dir="1" index="2" bw="0" slack="2147483647"/>
</pin_list>
<bind>
<opcode="store(28) " fcode="store"/>
<opset="store_ln50/1 "/>
</bind>
</comp>

<comp id="334" class="1004" name="zext_ln1412_fu_334">
<pin_list>
<pin id="335" dir="0" index="0" bw="2" slack="0"/>
<pin id="336" dir="1" index="1" bw="3" slack="0"/>
</pin_list>
<bind>
<opcode="zext(34) " fcode="zext"/>
<opset="zext_ln1412/1 "/>
</bind>
</comp>

<comp id="338" class="1004" name="store_ln1412_store_fu_338">
<pin_list>
<pin id="339" dir="0" index="0" bw="2" slack="0"/>
<pin id="340" dir="0" index="1" bw="3" slack="0"/>
<pin id="341" dir="1" index="2" bw="0" slack="2147483647"/>
</pin_list>
<bind>
<opcode="store(28) " fcode="store"/>
<opset="store_ln1412/1 "/>
</bind>
</comp>

<comp id="344" class="1004" name="store_ln1375_store_fu_344">
<pin_list>
<pin id="345" dir="0" index="0" bw="1" slack="0"/>
<pin id="346" dir="0" index="1" bw="1" slack="0"/>
<pin id="347" dir="1" index="2" bw="0" slack="2147483647"/>
</pin_list>
<bind>
<opcode="store(28) " fcode="store"/>
<opset="store_ln1375/1 "/>
</bind>
</comp>

<comp id="350" class="1004" name="trunc_ln145_fu_350">
<pin_list>
<pin id="351" dir="0" index="0" bw="3" slack="0"/>
<pin id="352" dir="1" index="1" bw="1" slack="0"/>
</pin_list>
<bind>
<opcode="trunc(33) " fcode="trunc"/>
<opset="trunc_ln145/1 "/>
</bind>
</comp>

<comp id="354" class="1004" name="store_ln1376_store_fu_354">
<pin_list>
<pin id="355" dir="0" index="0" bw="1" slack="0"/>
<pin id="356" dir="0" index="1" bw="1" slack="0"/>
<pin id="357" dir="1" index="2" bw="0" slack="2147483647"/>
</pin_list>
<bind>
<opcode="store(28) " fcode="store"/>
<opset="store_ln1376/1 "/>
</bind>
</comp>

<comp id="360" class="1004" name="tmp_157_fu_360">
<pin_list>
<pin id="361" dir="0" index="0" bw="1" slack="0"/>
<pin id="362" dir="0" index="1" bw="3" slack="0"/>
<pin id="363" dir="0" index="2" bw="1" slack="0"/>
<pin id="364" dir="1" index="3" bw="1" slack="0"/>
</pin_list>
<bind>
<opcode="bitselect(1000) " fcode="bitselect"/>
<opset="tmp_157/1 "/>
</bind>
</comp>

<comp id="368" class="1004" name="tmp_158_fu_368">
<pin_list>
<pin id="369" dir="0" index="0" bw="1" slack="0"/>
<pin id="370" dir="0" index="1" bw="3" slack="0"/>
<pin id="371" dir="0" index="2" bw="3" slack="0"/>
<pin id="372" dir="1" index="3" bw="1" slack="0"/>
</pin_list>
<bind>
<opcode="bitselect(1000) " fcode="bitselect"/>
<opset="tmp_158/1 "/>
</bind>
</comp>

<comp id="376" class="1004" name="store_ln1376_store_fu_376">
<pin_list>
<pin id="377" dir="0" index="0" bw="1" slack="0"/>
<pin id="378" dir="0" index="1" bw="1" slack="0"/>
<pin id="379" dir="1" index="2" bw="0" slack="2147483647"/>
</pin_list>
<bind>
<opcode="store(28) " fcode="store"/>
<opset="store_ln1376/1 "/>
</bind>
</comp>

<comp id="382" class="1004" name="select_ln1378_fu_382">
<pin_list>
<pin id="383" dir="0" index="0" bw="1" slack="0"/>
<pin id="384" dir="0" index="1" bw="1" slack="0"/>
<pin id="385" dir="0" index="2" bw="3" slack="0"/>
<pin id="386" dir="1" index="3" bw="3" slack="0"/>
</pin_list>
<bind>
<opcode="select(49) " fcode="select"/>
<opset="select_ln1378/1 "/>
</bind>
</comp>

<comp id="390" class="1004" name="store_ln1380_store_fu_390">
<pin_list>
<pin id="391" dir="0" index="0" bw="3" slack="0"/>
<pin id="392" dir="0" index="1" bw="3" slack="0"/>
<pin id="393" dir="1" index="2" bw="0" slack="2147483647"/>
</pin_list>
<bind>
<opcode="store(28) " fcode="store"/>
<opset="store_ln1380/1 "/>
</bind>
</comp>

<comp id="396" class="1005" name="state_6_load_reg_396">
<pin_list>
<pin id="397" dir="0" index="0" bw="3" slack="1"/>
<pin id="398" dir="1" index="1" bw="3" slack="2147483647"/>
</pin_list>
<bind>
<opset="state_6_load "/>
</bind>
</comp>

<comp id="403" class="1005" name="info_isAETH_load_reg_403">
<pin_list>
<pin id="404" dir="0" index="0" bw="1" slack="1"/>
<pin id="405" dir="1" index="1" bw="1" slack="2147483647"/>
</pin_list>
<bind>
<opset="info_isAETH_load "/>
</bind>
</comp>

<comp id="407" class="1005" name="info_hasPayload_load_reg_407">
<pin_list>
<pin id="408" dir="0" index="0" bw="1" slack="1"/>
<pin id="409" dir="1" index="1" bw="1" slack="2147483647"/>
</pin_list>
<bind>
<opset="info_hasPayload_load "/>
</bind>
</comp>

<comp id="411" class="1005" name="tmp_156_reg_411">
<pin_list>
<pin id="412" dir="0" index="0" bw="1" slack="1"/>
<pin id="413" dir="1" index="1" bw="1" slack="2147483647"/>
</pin_list>
<bind>
<opset="tmp_156 "/>
</bind>
</comp>

<comp id="415" class="1005" name="tmp_data_V_57_reg_415">
<pin_list>
<pin id="416" dir="0" index="0" bw="64" slack="1"/>
<pin id="417" dir="1" index="1" bw="64" slack="1"/>
</pin_list>
<bind>
<opset="tmp_data_V_57 "/>
</bind>
</comp>

<comp id="420" class="1005" name="tmp_keep_V_49_reg_420">
<pin_list>
<pin id="421" dir="0" index="0" bw="8" slack="1"/>
<pin id="422" dir="1" index="1" bw="8" slack="1"/>
</pin_list>
<bind>
<opset="tmp_keep_V_49 "/>
</bind>
</comp>

<comp id="425" class="1005" name="tmp_last_V_40_reg_425">
<pin_list>
<pin id="426" dir="0" index="0" bw="1" slack="1"/>
<pin id="427" dir="1" index="1" bw="1" slack="1"/>
</pin_list>
<bind>
<opset="tmp_last_V_40 "/>
</bind>
</comp>

<comp id="430" class="1005" name="tmp_155_reg_430">
<pin_list>
<pin id="431" dir="0" index="0" bw="1" slack="1"/>
<pin id="432" dir="1" index="1" bw="1" slack="2147483647"/>
</pin_list>
<bind>
<opset="tmp_155 "/>
</bind>
</comp>

<comp id="434" class="1005" name="tmp_data_V_56_reg_434">
<pin_list>
<pin id="435" dir="0" index="0" bw="64" slack="1"/>
<pin id="436" dir="1" index="1" bw="64" slack="1"/>
</pin_list>
<bind>
<opset="tmp_data_V_56 "/>
</bind>
</comp>

<comp id="439" class="1005" name="tmp_keep_V_48_reg_439">
<pin_list>
<pin id="440" dir="0" index="0" bw="8" slack="1"/>
<pin id="441" dir="1" index="1" bw="8" slack="1"/>
</pin_list>
<bind>
<opset="tmp_keep_V_48 "/>
</bind>
</comp>

<comp id="444" class="1005" name="tmp_last_V_39_reg_444">
<pin_list>
<pin id="445" dir="0" index="0" bw="1" slack="1"/>
<pin id="446" dir="1" index="1" bw="1" slack="1"/>
</pin_list>
<bind>
<opset="tmp_last_V_39 "/>
</bind>
</comp>

<comp id="449" class="1005" name="tmp_154_reg_449">
<pin_list>
<pin id="450" dir="0" index="0" bw="1" slack="1"/>
<pin id="451" dir="1" index="1" bw="1" slack="2147483647"/>
</pin_list>
<bind>
<opset="tmp_154 "/>
</bind>
</comp>

<comp id="453" class="1005" name="tmp_data_V_59_reg_453">
<pin_list>
<pin id="454" dir="0" index="0" bw="64" slack="1"/>
<pin id="455" dir="1" index="1" bw="64" slack="1"/>
</pin_list>
<bind>
<opset="tmp_data_V_59 "/>
</bind>
</comp>

<comp id="458" class="1005" name="tmp_keep_V_47_reg_458">
<pin_list>
<pin id="459" dir="0" index="0" bw="8" slack="1"/>
<pin id="460" dir="1" index="1" bw="8" slack="1"/>
</pin_list>
<bind>
<opset="tmp_keep_V_47 "/>
</bind>
</comp>

<comp id="463" class="1005" name="tmp_last_V_38_reg_463">
<pin_list>
<pin id="464" dir="0" index="0" bw="1" slack="1"/>
<pin id="465" dir="1" index="1" bw="1" slack="1"/>
</pin_list>
<bind>
<opset="tmp_last_V_38 "/>
</bind>
</comp>

<comp id="468" class="1005" name="p_Result_s_reg_468">
<pin_list>
<pin id="469" dir="0" index="0" bw="64" slack="1"/>
<pin id="470" dir="1" index="1" bw="64" slack="1"/>
</pin_list>
<bind>
<opset="p_Result_s "/>
</bind>
</comp>

<comp id="473" class="1005" name="tmp_153_reg_473">
<pin_list>
<pin id="474" dir="0" index="0" bw="1" slack="1"/>
<pin id="475" dir="1" index="1" bw="1" slack="2147483647"/>
</pin_list>
<bind>
<opset="tmp_153 "/>
</bind>
</comp>

<comp id="477" class="1005" name="tmp_data_V_reg_477">
<pin_list>
<pin id="478" dir="0" index="0" bw="64" slack="1"/>
<pin id="479" dir="1" index="1" bw="64" slack="1"/>
</pin_list>
<bind>
<opset="tmp_data_V "/>
</bind>
</comp>

<comp id="482" class="1005" name="tmp_keep_V_reg_482">
<pin_list>
<pin id="483" dir="0" index="0" bw="8" slack="1"/>
<pin id="484" dir="1" index="1" bw="8" slack="1"/>
</pin_list>
<bind>
<opset="tmp_keep_V "/>
</bind>
</comp>

<comp id="487" class="1005" name="tmp_last_V_reg_487">
<pin_list>
<pin id="488" dir="0" index="0" bw="1" slack="1"/>
<pin id="489" dir="1" index="1" bw="1" slack="2147483647"/>
</pin_list>
<bind>
<opset="tmp_last_V "/>
</bind>
</comp>

<comp id="491" class="1005" name="tmp_reg_491">
<pin_list>
<pin id="492" dir="0" index="0" bw="1" slack="1"/>
<pin id="493" dir="1" index="1" bw="1" slack="2147483647"/>
</pin_list>
<bind>
<opset="tmp "/>
</bind>
</comp>

</comp_list>

<net_list>
<net id="101"><net_src comp="52" pin="0"/><net_sink comp="94" pin=0"/></net>

<net id="102"><net_src comp="36" pin="0"/><net_sink comp="94" pin=1"/></net>

<net id="103"><net_src comp="38" pin="0"/><net_sink comp="94" pin=2"/></net>

<net id="104"><net_src comp="40" pin="0"/><net_sink comp="94" pin=3"/></net>

<net id="105"><net_src comp="54" pin="0"/><net_sink comp="94" pin=4"/></net>

<net id="112"><net_src comp="56" pin="0"/><net_sink comp="106" pin=0"/></net>

<net id="113"><net_src comp="36" pin="0"/><net_sink comp="106" pin=1"/></net>

<net id="114"><net_src comp="38" pin="0"/><net_sink comp="106" pin=2"/></net>

<net id="115"><net_src comp="40" pin="0"/><net_sink comp="106" pin=3"/></net>

<net id="123"><net_src comp="52" pin="0"/><net_sink comp="116" pin=0"/></net>

<net id="124"><net_src comp="30" pin="0"/><net_sink comp="116" pin=1"/></net>

<net id="125"><net_src comp="32" pin="0"/><net_sink comp="116" pin=2"/></net>

<net id="126"><net_src comp="34" pin="0"/><net_sink comp="116" pin=3"/></net>

<net id="127"><net_src comp="54" pin="0"/><net_sink comp="116" pin=4"/></net>

<net id="134"><net_src comp="56" pin="0"/><net_sink comp="128" pin=0"/></net>

<net id="135"><net_src comp="30" pin="0"/><net_sink comp="128" pin=1"/></net>

<net id="136"><net_src comp="32" pin="0"/><net_sink comp="128" pin=2"/></net>

<net id="137"><net_src comp="34" pin="0"/><net_sink comp="128" pin=3"/></net>

<net id="145"><net_src comp="52" pin="0"/><net_sink comp="138" pin=0"/></net>

<net id="146"><net_src comp="24" pin="0"/><net_sink comp="138" pin=1"/></net>

<net id="147"><net_src comp="26" pin="0"/><net_sink comp="138" pin=2"/></net>

<net id="148"><net_src comp="28" pin="0"/><net_sink comp="138" pin=3"/></net>

<net id="149"><net_src comp="54" pin="0"/><net_sink comp="138" pin=4"/></net>

<net id="156"><net_src comp="56" pin="0"/><net_sink comp="150" pin=0"/></net>

<net id="157"><net_src comp="24" pin="0"/><net_sink comp="150" pin=1"/></net>

<net id="158"><net_src comp="26" pin="0"/><net_sink comp="150" pin=2"/></net>

<net id="159"><net_src comp="28" pin="0"/><net_sink comp="150" pin=3"/></net>

<net id="167"><net_src comp="52" pin="0"/><net_sink comp="160" pin=0"/></net>

<net id="168"><net_src comp="10" pin="0"/><net_sink comp="160" pin=1"/></net>

<net id="169"><net_src comp="12" pin="0"/><net_sink comp="160" pin=2"/></net>

<net id="170"><net_src comp="14" pin="0"/><net_sink comp="160" pin=3"/></net>

<net id="171"><net_src comp="54" pin="0"/><net_sink comp="160" pin=4"/></net>

<net id="178"><net_src comp="56" pin="0"/><net_sink comp="172" pin=0"/></net>

<net id="179"><net_src comp="10" pin="0"/><net_sink comp="172" pin=1"/></net>

<net id="180"><net_src comp="12" pin="0"/><net_sink comp="172" pin=2"/></net>

<net id="181"><net_src comp="14" pin="0"/><net_sink comp="172" pin=3"/></net>

<net id="187"><net_src comp="70" pin="0"/><net_sink comp="182" pin=0"/></net>

<net id="188"><net_src comp="8" pin="0"/><net_sink comp="182" pin=1"/></net>

<net id="189"><net_src comp="54" pin="0"/><net_sink comp="182" pin=2"/></net>

<net id="194"><net_src comp="74" pin="0"/><net_sink comp="190" pin=0"/></net>

<net id="195"><net_src comp="8" pin="0"/><net_sink comp="190" pin=1"/></net>

<net id="205"><net_src comp="92" pin="0"/><net_sink comp="196" pin=0"/></net>

<net id="206"><net_src comp="18" pin="0"/><net_sink comp="196" pin=1"/></net>

<net id="207"><net_src comp="20" pin="0"/><net_sink comp="196" pin=2"/></net>

<net id="208"><net_src comp="22" pin="0"/><net_sink comp="196" pin=3"/></net>

<net id="209"><net_src comp="64" pin="0"/><net_sink comp="196" pin=6"/></net>

<net id="210"><net_src comp="72" pin="0"/><net_sink comp="196" pin=6"/></net>

<net id="220"><net_src comp="66" pin="0"/><net_sink comp="214" pin=0"/></net>

<net id="221"><net_src comp="68" pin="0"/><net_sink comp="214" pin=2"/></net>

<net id="231"><net_src comp="225" pin="4"/><net_sink comp="196" pin=4"/></net>

<net id="236"><net_src comp="42" pin="0"/><net_sink comp="232" pin=0"/></net>

<net id="237"><net_src comp="0" pin="0"/><net_sink comp="232" pin=1"/></net>

<net id="241"><net_src comp="0" pin="0"/><net_sink comp="238" pin=0"/></net>

<net id="245"><net_src comp="2" pin="0"/><net_sink comp="242" pin=0"/></net>

<net id="249"><net_src comp="4" pin="0"/><net_sink comp="246" pin=0"/></net>

<net id="253"><net_src comp="6" pin="0"/><net_sink comp="250" pin=0"/></net>

<net id="257"><net_src comp="106" pin="4"/><net_sink comp="254" pin=0"/></net>

<net id="261"><net_src comp="106" pin="4"/><net_sink comp="258" pin=0"/></net>

<net id="265"><net_src comp="106" pin="4"/><net_sink comp="262" pin=0"/></net>

<net id="269"><net_src comp="128" pin="4"/><net_sink comp="266" pin=0"/></net>

<net id="273"><net_src comp="128" pin="4"/><net_sink comp="270" pin=0"/></net>

<net id="277"><net_src comp="128" pin="4"/><net_sink comp="274" pin=0"/></net>

<net id="281"><net_src comp="150" pin="4"/><net_sink comp="278" pin=0"/></net>

<net id="285"><net_src comp="150" pin="4"/><net_sink comp="282" pin=0"/></net>

<net id="289"><net_src comp="150" pin="4"/><net_sink comp="286" pin=0"/></net>

<net id="293"><net_src comp="16" pin="0"/><net_sink comp="290" pin=0"/></net>

<net id="297"><net_src comp="290" pin="1"/><net_sink comp="294" pin=0"/></net>

<net id="305"><net_src comp="58" pin="0"/><net_sink comp="298" pin=0"/></net>

<net id="306"><net_src comp="278" pin="1"/><net_sink comp="298" pin=1"/></net>

<net id="307"><net_src comp="294" pin="1"/><net_sink comp="298" pin=2"/></net>

<net id="308"><net_src comp="60" pin="0"/><net_sink comp="298" pin=3"/></net>

<net id="309"><net_src comp="62" pin="0"/><net_sink comp="298" pin=4"/></net>

<net id="314"><net_src comp="64" pin="0"/><net_sink comp="310" pin=0"/></net>

<net id="315"><net_src comp="2" pin="0"/><net_sink comp="310" pin=1"/></net>

<net id="319"><net_src comp="172" pin="4"/><net_sink comp="316" pin=0"/></net>

<net id="323"><net_src comp="172" pin="4"/><net_sink comp="320" pin=0"/></net>

<net id="327"><net_src comp="172" pin="4"/><net_sink comp="324" pin=0"/></net>

<net id="332"><net_src comp="316" pin="1"/><net_sink comp="328" pin=0"/></net>

<net id="333"><net_src comp="16" pin="0"/><net_sink comp="328" pin=1"/></net>

<net id="337"><net_src comp="214" pin="4"/><net_sink comp="334" pin=0"/></net>

<net id="342"><net_src comp="334" pin="1"/><net_sink comp="338" pin=0"/></net>

<net id="343"><net_src comp="0" pin="0"/><net_sink comp="338" pin=1"/></net>

<net id="348"><net_src comp="72" pin="0"/><net_sink comp="344" pin=0"/></net>

<net id="349"><net_src comp="2" pin="0"/><net_sink comp="344" pin=1"/></net>

<net id="353"><net_src comp="190" pin="2"/><net_sink comp="350" pin=0"/></net>

<net id="358"><net_src comp="350" pin="1"/><net_sink comp="354" pin=0"/></net>

<net id="359"><net_src comp="4" pin="0"/><net_sink comp="354" pin=1"/></net>

<net id="365"><net_src comp="76" pin="0"/><net_sink comp="360" pin=0"/></net>

<net id="366"><net_src comp="190" pin="2"/><net_sink comp="360" pin=1"/></net>

<net id="367"><net_src comp="54" pin="0"/><net_sink comp="360" pin=2"/></net>

<net id="373"><net_src comp="76" pin="0"/><net_sink comp="368" pin=0"/></net>

<net id="374"><net_src comp="190" pin="2"/><net_sink comp="368" pin=1"/></net>

<net id="375"><net_src comp="78" pin="0"/><net_sink comp="368" pin=2"/></net>

<net id="380"><net_src comp="368" pin="3"/><net_sink comp="376" pin=0"/></net>

<net id="381"><net_src comp="6" pin="0"/><net_sink comp="376" pin=1"/></net>

<net id="387"><net_src comp="360" pin="3"/><net_sink comp="382" pin=0"/></net>

<net id="388"><net_src comp="44" pin="0"/><net_sink comp="382" pin=1"/></net>

<net id="389"><net_src comp="50" pin="0"/><net_sink comp="382" pin=2"/></net>

<net id="394"><net_src comp="382" pin="3"/><net_sink comp="390" pin=0"/></net>

<net id="395"><net_src comp="0" pin="0"/><net_sink comp="390" pin=1"/></net>

<net id="399"><net_src comp="238" pin="1"/><net_sink comp="396" pin=0"/></net>

<net id="406"><net_src comp="246" pin="1"/><net_sink comp="403" pin=0"/></net>

<net id="410"><net_src comp="250" pin="1"/><net_sink comp="407" pin=0"/></net>

<net id="414"><net_src comp="94" pin="5"/><net_sink comp="411" pin=0"/></net>

<net id="418"><net_src comp="254" pin="1"/><net_sink comp="415" pin=0"/></net>

<net id="419"><net_src comp="415" pin="1"/><net_sink comp="196" pin=4"/></net>

<net id="423"><net_src comp="258" pin="1"/><net_sink comp="420" pin=0"/></net>

<net id="424"><net_src comp="420" pin="1"/><net_sink comp="196" pin=5"/></net>

<net id="428"><net_src comp="262" pin="1"/><net_sink comp="425" pin=0"/></net>

<net id="429"><net_src comp="425" pin="1"/><net_sink comp="196" pin=6"/></net>

<net id="433"><net_src comp="116" pin="5"/><net_sink comp="430" pin=0"/></net>

<net id="437"><net_src comp="266" pin="1"/><net_sink comp="434" pin=0"/></net>

<net id="438"><net_src comp="434" pin="1"/><net_sink comp="196" pin=4"/></net>

<net id="442"><net_src comp="270" pin="1"/><net_sink comp="439" pin=0"/></net>

<net id="443"><net_src comp="439" pin="1"/><net_sink comp="196" pin=5"/></net>

<net id="447"><net_src comp="274" pin="1"/><net_sink comp="444" pin=0"/></net>

<net id="448"><net_src comp="444" pin="1"/><net_sink comp="196" pin=6"/></net>

<net id="452"><net_src comp="138" pin="5"/><net_sink comp="449" pin=0"/></net>

<net id="456"><net_src comp="278" pin="1"/><net_sink comp="453" pin=0"/></net>

<net id="457"><net_src comp="453" pin="1"/><net_sink comp="225" pin=0"/></net>

<net id="461"><net_src comp="282" pin="1"/><net_sink comp="458" pin=0"/></net>

<net id="462"><net_src comp="458" pin="1"/><net_sink comp="196" pin=5"/></net>

<net id="466"><net_src comp="286" pin="1"/><net_sink comp="463" pin=0"/></net>

<net id="467"><net_src comp="463" pin="1"/><net_sink comp="196" pin=6"/></net>

<net id="471"><net_src comp="298" pin="5"/><net_sink comp="468" pin=0"/></net>

<net id="472"><net_src comp="468" pin="1"/><net_sink comp="225" pin=2"/></net>

<net id="476"><net_src comp="160" pin="5"/><net_sink comp="473" pin=0"/></net>

<net id="480"><net_src comp="316" pin="1"/><net_sink comp="477" pin=0"/></net>

<net id="481"><net_src comp="477" pin="1"/><net_sink comp="196" pin=4"/></net>

<net id="485"><net_src comp="320" pin="1"/><net_sink comp="482" pin=0"/></net>

<net id="486"><net_src comp="482" pin="1"/><net_sink comp="196" pin=5"/></net>

<net id="490"><net_src comp="324" pin="1"/><net_sink comp="487" pin=0"/></net>

<net id="494"><net_src comp="182" pin="3"/><net_sink comp="491" pin=0"/></net>

</net_list>

</model> 
---------------- Datapath Model END ------------------

* FSMD analyzer results:
  - Output states:
	Port: state_6 | {1 }
	Port: firstPayload | {1 }
	Port: info_isAETH | {1 }
	Port: info_hasPayload | {1 }
	Port: prevWord_data_V | {1 }
	Port: tx_exh2shiftFifo_V_d | {2 }
	Port: tx_exh2shiftFifo_V_k | {2 }
	Port: tx_exh2shiftFifo_V_l | {2 }
 - Input state : 
	Port: append_payload<64> : state_6 | {1 }
	Port: append_payload<64> : firstPayload | {1 }
	Port: append_payload<64> : info_isAETH | {1 }
	Port: append_payload<64> : info_hasPayload | {1 }
	Port: append_payload<64> : tx_packetInfoFifo_V | {1 }
	Port: append_payload<64> : tx_exh2payFifo_V_dat | {1 }
	Port: append_payload<64> : tx_exh2payFifo_V_kee | {1 }
	Port: append_payload<64> : tx_exh2payFifo_V_las | {1 }
	Port: append_payload<64> : prevWord_data_V | {1 }
	Port: append_payload<64> : tx_aethShift2payFifo_3 | {1 }
	Port: append_payload<64> : tx_aethShift2payFifo_5 | {1 }
	Port: append_payload<64> : tx_aethShift2payFifo_6 | {1 }
	Port: append_payload<64> : tx_rethShift2payFifo_3 | {1 }
	Port: append_payload<64> : tx_rethShift2payFifo_5 | {1 }
	Port: append_payload<64> : tx_rethShift2payFifo_6 | {1 }
	Port: append_payload<64> : tx_rawPayFifo_V_data | {1 }
	Port: append_payload<64> : tx_rawPayFifo_V_keep | {1 }
	Port: append_payload<64> : tx_rawPayFifo_V_last | {1 }
  - Chain level:
	State 1
		switch_ln1370 : 1
		br_ln1435 : 1
		trunc_ln647 : 1
		p_Result_s : 2
		store_ln50 : 1
		br_ln1396 : 1
		br_ln1402 : 1
		br_ln1410 : 1
		storemerge_i : 2
		zext_ln1412 : 3
		store_ln1412 : 4
		store_ln1376 : 1
		store_ln1376 : 1
		select_ln1378 : 1
		store_ln1380 : 2
	State 2
		write_ln1444 : 1


============================================================
+ Verbose Summary: Datapath Resource usage 
============================================================

* Functional unit list:
|----------|--------------------------|---------|---------|
| Operation|      Functional Unit     |    FF   |   LUT   |
|----------|--------------------------|---------|---------|
|  select  |   select_ln1378_fu_382   |    0    |    3    |
|----------|--------------------------|---------|---------|
|          |  tmp_156_nbreadreq_fu_94 |    0    |    0    |
|          | tmp_155_nbreadreq_fu_116 |    0    |    0    |
| nbreadreq| tmp_154_nbreadreq_fu_138 |    0    |    0    |
|          | tmp_153_nbreadreq_fu_160 |    0    |    0    |
|          |   tmp_nbreadreq_fu_182   |    0    |    0    |
|----------|--------------------------|---------|---------|
|          |   empty_424_read_fu_106  |    0    |    0    |
|          |   empty_423_read_fu_128  |    0    |    0    |
|   read   |   empty_422_read_fu_150  |    0    |    0    |
|          |     empty_read_fu_172    |    0    |    0    |
|          |     tmp96_read_fu_190    |    0    |    0    |
|----------|--------------------------|---------|---------|
|   write  |     grp_write_fu_196     |    0    |    0    |
|----------|--------------------------|---------|---------|
|          |   tmp_data_V_57_fu_254   |    0    |    0    |
|          |   tmp_keep_V_49_fu_258   |    0    |    0    |
|          |   tmp_last_V_40_fu_262   |    0    |    0    |
|          |   tmp_data_V_56_fu_266   |    0    |    0    |
|          |   tmp_keep_V_48_fu_270   |    0    |    0    |
|extractvalue|   tmp_last_V_39_fu_274   |    0    |    0    |
|          |   tmp_data_V_59_fu_278   |    0    |    0    |
|          |   tmp_keep_V_47_fu_282   |    0    |    0    |
|          |   tmp_last_V_38_fu_286   |    0    |    0    |
|          |     tmp_data_V_fu_316    |    0    |    0    |
|          |     tmp_keep_V_fu_320    |    0    |    0    |
|          |     tmp_last_V_fu_324    |    0    |    0    |
|----------|--------------------------|---------|---------|
|   trunc  |    trunc_ln647_fu_294    |    0    |    0    |
|          |    trunc_ln145_fu_350    |    0    |    0    |
|----------|--------------------------|---------|---------|
|  partset |     p_Result_s_fu_298    |    0    |    0    |
|----------|--------------------------|---------|---------|
|   zext   |    zext_ln1412_fu_334    |    0    |    0    |
|----------|--------------------------|---------|---------|
| bitselect|      tmp_157_fu_360      |    0    |    0    |
|          |      tmp_158_fu_368      |    0    |    0    |
|----------|--------------------------|---------|---------|
|   Total  |                          |    0    |    3    |
|----------|--------------------------|---------|---------|

Memories:
N/A

* Register list:
+----------------------------+--------+
|                            |   FF   |
+----------------------------+--------+
|info_hasPayload_load_reg_407|    1   |
|  info_isAETH_load_reg_403  |    1   |
|     p_Result_s_reg_468     |   64   |
|    state_6_load_reg_396    |    3   |
|    storemerge_i_reg_211    |    2   |
|       tmp_153_reg_473      |    1   |
|       tmp_154_reg_449      |    1   |
|       tmp_155_reg_430      |    1   |
|       tmp_156_reg_411      |    1   |
|    tmp_data_V_56_reg_434   |   64   |
|    tmp_data_V_57_reg_415   |   64   |
|    tmp_data_V_58_reg_222   |   64   |
|    tmp_data_V_59_reg_453   |   64   |
|     tmp_data_V_reg_477     |   64   |
|    tmp_keep_V_47_reg_458   |    8   |
|    tmp_keep_V_48_reg_439   |    8   |
|    tmp_keep_V_49_reg_420   |    8   |
|     tmp_keep_V_reg_482     |    8   |
|    tmp_last_V_38_reg_463   |    1   |
|    tmp_last_V_39_reg_444   |    1   |
|    tmp_last_V_40_reg_425   |    1   |
|     tmp_last_V_reg_487     |    1   |
|         tmp_reg_491        |    1   |
+----------------------------+--------+
|            Total           |   432  |
+----------------------------+--------+

* Multiplexer (MUX) list: 
|------------------|------|------|------|--------||---------||---------|
|       Comp       |  Pin | Size |  BW  | S x BW ||  Delay  ||   LUT   |
|------------------|------|------|------|--------||---------||---------|
| grp_write_fu_196 |  p4  |   4  |  64  |   256  ||    21   |
| grp_write_fu_196 |  p5  |   4  |   8  |   32   ||    21   |
| grp_write_fu_196 |  p6  |   5  |   1  |    5   ||    21   |
|------------------|------|------|------|--------||---------||---------|
|       Total      |      |      |      |   293  ||  3.0855 ||    63   |
|------------------|------|------|------|--------||---------||---------|



* Summary:
+-----------+--------+--------+--------+
|           |  Delay |   FF   |   LUT  |
+-----------+--------+--------+--------+
|  Function |    -   |    0   |    3   |
|   Memory  |    -   |    -   |    -   |
|Multiplexer|    3   |    -   |   63   |
|  Register |    -   |   432  |    -   |
+-----------+--------+--------+--------+
|   Total   |    3   |   432  |   66   |
+-----------+--------+--------+--------+
