

================================================================
== Vivado HLS Report for 'drop_optional_ip_hea'
================================================================
* Date:           Sat Dec 12 19:40:56 2020

* Version:        2019.2.1 (Build 2724168 on Thu Dec 05 05:19:09 MST 2019)
* Project:        rocev2_prj
* Solution:       solution1
* Product family: virtex7
* Target device:  xc7vx690t-ffg1761-2


================================================================
== Performance Estimates
================================================================
+ Timing: 
    * Summary: 
    +--------+---------+----------+------------+
    |  Clock |  Target | Estimated| Uncertainty|
    +--------+---------+----------+------------+
    |ap_clk  | 6.40 ns | 4.998 ns |   0.80 ns  |
    +--------+---------+----------+------------+

+ Latency: 
    * Summary: 
    +---------+---------+----------+----------+-----+-----+----------+
    |  Latency (cycles) |  Latency (absolute) |  Interval | Pipeline |
    |   min   |   max   |    min   |    max   | min | max |   Type   |
    +---------+---------+----------+----------+-----+-----+----------+
    |        1|        1| 6.400 ns | 6.400 ns |    1|    1| function |
    +---------+---------+----------+----------+-----+-----+----------+

    + Detail: 
        * Instance: 
        N/A

        * Loop: 
        N/A

============================================================
+ Verbose Summary: Synthesis Manager
============================================================
InlineROM: 1
ExposeGlobal: 0
============================================================
+ Verbose Summary: CDFG Model
============================================================
IsTopModel: 0
ResetActiveHigh: 1
IsCombinational: 2
IsDatapathOnly: 0
HasWiredReturn: 1
HasMFsm: 2
HasVarLatency: 0
IsPipeline: 1
IsRtlPipelined: 1
IsInstanceOverlapped: 0
IsDontTouch: 0
HasImplIP: 0
IsGatedGlobalClock: 0

+ Individual pipeline summary: 
  * Pipeline-0: initiation interval (II) = 1, depth = 2


============================================================
+ Verbose Summary: Schedule
============================================================
* Number of FSM states : 2
* Pipeline : 1
  Pipeline-0 : II = 1, D = 2, States = { 1 2 }
* Dataflow Pipeline: 0

* FSM state transitions: 
1 --> 2 
2 --> 

* FSM state operations: 

State 1 <SV = 0> <Delay = 4.99>
ST_1 : Operation 3 [1/1] (0.00ns)   --->   "%doh_state_load = load i3* @doh_state, align 1" [/home/paulrr2/Projects/ece527/babelsoc/fpga-network-stack/hls/rocev2/../ipv4/ipv4.hpp:69]   --->   Operation 3 'load' 'doh_state_load' <Predicate = true> <Delay = 0.00>
ST_1 : Operation 4 [1/1] (0.00ns)   --->   "%length_V_load = load i4* @length_V, align 1" [/home/paulrr2/Projects/ece527/babelsoc/fpga-network-stack/hls/rocev2/../ipv4/ipv4.hpp:109]   --->   Operation 4 'load' 'length_V_load' <Predicate = true> <Delay = 0.00>
ST_1 : Operation 5 [1/1] (0.00ns)   --->   "%p_Val2_s = load i64* @prevWord_data_V_9, align 8" [/home/paulrr2/Projects/ece527/babelsoc/fpga-network-stack/hls/rocev2/../ipv4/ipv4.hpp:134]   --->   Operation 5 'load' 'p_Val2_s' <Predicate = true> <Delay = 0.00>
ST_1 : Operation 6 [1/1] (0.00ns)   --->   "%p_Val2_58 = load i8* @prevWord_keep_V_9, align 1" [/home/paulrr2/Projects/ece527/babelsoc/fpga-network-stack/hls/rocev2/../ipv4/ipv4.hpp:135]   --->   Operation 6 'load' 'p_Val2_58' <Predicate = true> <Delay = 0.00>
ST_1 : Operation 7 [1/1] (0.87ns)   --->   "switch i3 %doh_state_load, label %"drop_optional_ip_header<64>.exit" [
    i3 0, label %0
    i3 1, label %4
    i3 2, label %10
    i3 3, label %13
    i3 -3, label %19
    i3 -4, label %21
    i3 -2, label %22
  ]" [/home/paulrr2/Projects/ece527/babelsoc/fpga-network-stack/hls/rocev2/../ipv4/ipv4.hpp:69]   --->   Operation 7 'switch' <Predicate = true> <Delay = 0.87>
ST_1 : Operation 8 [1/1] (1.07ns)   --->   "store i3 0, i3* @doh_state, align 1" [/home/paulrr2/Projects/ece527/babelsoc/fpga-network-stack/hls/rocev2/../ipv4/ipv4.hpp:188]   --->   Operation 8 'store' <Predicate = (doh_state_load == 6)> <Delay = 1.07>
ST_1 : Operation 9 [1/1] (0.00ns)   --->   "br label %"drop_optional_ip_header<64>.exit"" [/home/paulrr2/Projects/ece527/babelsoc/fpga-network-stack/hls/rocev2/../ipv4/ipv4.hpp:189]   --->   Operation 9 'br' <Predicate = (doh_state_load == 6)> <Delay = 0.00>
ST_1 : Operation 10 [1/1] (1.07ns)   --->   "store i3 0, i3* @doh_state, align 1" [/home/paulrr2/Projects/ece527/babelsoc/fpga-network-stack/hls/rocev2/../ipv4/ipv4.hpp:179]   --->   Operation 10 'store' <Predicate = (doh_state_load == 4)> <Delay = 1.07>
ST_1 : Operation 11 [1/1] (0.00ns)   --->   "br label %"drop_optional_ip_header<64>.exit"" [/home/paulrr2/Projects/ece527/babelsoc/fpga-network-stack/hls/rocev2/../ipv4/ipv4.hpp:180]   --->   Operation 11 'br' <Predicate = (doh_state_load == 4)> <Delay = 0.00>
ST_1 : Operation 12 [1/1] (0.00ns)   --->   "%tmp_140 = call i1 @_ssdm_op_NbReadReq.ap_fifo.i64P.i8P.i1P(i64* @rx_process2dropFifo_1_5, i8* @rx_process2dropFifo_2_4, i1* @rx_process2dropFifo_s_6, i32 1) nounwind" [/home/paulrr2/Projects/ece527/babelsoc/fpga-network-stack/hls/rocev2/../ipv4/ipv4.hpp:152]   --->   Operation 12 'nbreadreq' 'tmp_140' <Predicate = (doh_state_load == 5)> <Delay = 0.00> <Core = "FIFO">   --->   Core 32 'FIFO' <Latency = 0> <II = 1> <Delay = 2.39> <Storage> <Opcode : 'read' 'write' 'nbread' 'nbwrite'> <Ports = 0> <Width = 64> <Depth = 2> <FIFO>
ST_1 : Operation 13 [1/1] (2.39ns)   --->   "%empty_419 = call { i64, i8, i1 } @_ssdm_op_Read.ap_fifo.volatile.i64P.i8P.i1P(i64* @rx_process2dropFifo_1_5, i8* @rx_process2dropFifo_2_4, i1* @rx_process2dropFifo_s_6) nounwind" [/home/paulrr2/Projects/ece527/babelsoc/fpga-network-stack/hls/rocev2/../ipv4/ipv4.hpp:154]   --->   Operation 13 'read' 'empty_419' <Predicate = (doh_state_load == 5 & tmp_140)> <Delay = 2.39> <Core = "FIFO">   --->   Core 32 'FIFO' <Latency = 0> <II = 1> <Delay = 2.39> <Storage> <Opcode : 'read' 'write' 'nbread' 'nbwrite'> <Ports = 0> <Width = 64> <Depth = 2> <FIFO>
ST_1 : Operation 14 [1/1] (0.00ns)   --->   "%tmp_data_V_54 = extractvalue { i64, i8, i1 } %empty_419, 0" [/home/paulrr2/Projects/ece527/babelsoc/fpga-network-stack/hls/rocev2/../ipv4/ipv4.hpp:154]   --->   Operation 14 'extractvalue' 'tmp_data_V_54' <Predicate = (doh_state_load == 5 & tmp_140)> <Delay = 0.00>
ST_1 : Operation 15 [1/1] (0.00ns)   --->   "%tmp_keep_V_46 = extractvalue { i64, i8, i1 } %empty_419, 1" [/home/paulrr2/Projects/ece527/babelsoc/fpga-network-stack/hls/rocev2/../ipv4/ipv4.hpp:154]   --->   Operation 15 'extractvalue' 'tmp_keep_V_46' <Predicate = (doh_state_load == 5 & tmp_140)> <Delay = 0.00>
ST_1 : Operation 16 [1/1] (0.00ns)   --->   "%trunc_ln647_27 = trunc i64 %tmp_data_V_54 to i1" [/home/paulrr2/Projects/ece527/babelsoc/fpga-network-stack/hls/rocev2/../ipv4/ipv4.hpp:157]   --->   Operation 16 'trunc' 'trunc_ln647_27' <Predicate = (doh_state_load == 5 & tmp_140)> <Delay = 0.00>
ST_1 : Operation 17 [1/1] (0.00ns)   --->   "%trunc_ln647_28 = trunc i8 %tmp_keep_V_46 to i1" [/home/paulrr2/Projects/ece527/babelsoc/fpga-network-stack/hls/rocev2/../ipv4/ipv4.hpp:158]   --->   Operation 17 'trunc' 'trunc_ln647_28' <Predicate = (doh_state_load == 5 & tmp_140)> <Delay = 0.00>
ST_1 : Operation 18 [1/1] (1.00ns)   --->   "store i64 %tmp_data_V_54, i64* @prevWord_data_V_9, align 8" [/home/paulrr2/Projects/ece527/babelsoc/fpga-network-stack/hls/rocev2/../axi_utils.hpp:50->/home/paulrr2/Projects/ece527/babelsoc/fpga-network-stack/hls/rocev2/../ipv4/ipv4.hpp:161]   --->   Operation 18 'store' <Predicate = (doh_state_load == 5 & tmp_140)> <Delay = 1.00>
ST_1 : Operation 19 [1/1] (1.00ns)   --->   "store i8 %tmp_keep_V_46, i8* @prevWord_keep_V_9, align 8" [/home/paulrr2/Projects/ece527/babelsoc/fpga-network-stack/hls/rocev2/../axi_utils.hpp:50->/home/paulrr2/Projects/ece527/babelsoc/fpga-network-stack/hls/rocev2/../ipv4/ipv4.hpp:161]   --->   Operation 19 'store' <Predicate = (doh_state_load == 5 & tmp_140)> <Delay = 1.00>
ST_1 : Operation 20 [1/1] (1.07ns)   --->   "store i3 0, i3* @doh_state, align 1" [/home/paulrr2/Projects/ece527/babelsoc/fpga-network-stack/hls/rocev2/../ipv4/ipv4.hpp:164]   --->   Operation 20 'store' <Predicate = (doh_state_load == 5 & tmp_140)> <Delay = 1.07>
ST_1 : Operation 21 [1/1] (0.00ns)   --->   "br label %"drop_optional_ip_header<64>.exit"" [/home/paulrr2/Projects/ece527/babelsoc/fpga-network-stack/hls/rocev2/../ipv4/ipv4.hpp:171]   --->   Operation 21 'br' <Predicate = (doh_state_load == 5)> <Delay = 0.00>
ST_1 : Operation 22 [1/1] (0.00ns)   --->   "%tmp_139 = call i1 @_ssdm_op_NbReadReq.ap_fifo.i64P.i8P.i1P(i64* @rx_process2dropFifo_1_5, i8* @rx_process2dropFifo_2_4, i1* @rx_process2dropFifo_s_6, i32 1) nounwind" [/home/paulrr2/Projects/ece527/babelsoc/fpga-network-stack/hls/rocev2/../ipv4/ipv4.hpp:131]   --->   Operation 22 'nbreadreq' 'tmp_139' <Predicate = (doh_state_load == 3)> <Delay = 0.00> <Core = "FIFO">   --->   Core 32 'FIFO' <Latency = 0> <II = 1> <Delay = 2.39> <Storage> <Opcode : 'read' 'write' 'nbread' 'nbwrite'> <Ports = 0> <Width = 64> <Depth = 2> <FIFO>
ST_1 : Operation 23 [1/1] (2.39ns)   --->   "%empty_418 = call { i64, i8, i1 } @_ssdm_op_Read.ap_fifo.volatile.i64P.i8P.i1P(i64* @rx_process2dropFifo_1_5, i8* @rx_process2dropFifo_2_4, i1* @rx_process2dropFifo_s_6) nounwind" [/home/paulrr2/Projects/ece527/babelsoc/fpga-network-stack/hls/rocev2/../ipv4/ipv4.hpp:133]   --->   Operation 23 'read' 'empty_418' <Predicate = (doh_state_load == 3 & tmp_139)> <Delay = 2.39> <Core = "FIFO">   --->   Core 32 'FIFO' <Latency = 0> <II = 1> <Delay = 2.39> <Storage> <Opcode : 'read' 'write' 'nbread' 'nbwrite'> <Ports = 0> <Width = 64> <Depth = 2> <FIFO>
ST_1 : Operation 24 [1/1] (0.00ns)   --->   "%tmp_data_V_53 = extractvalue { i64, i8, i1 } %empty_418, 0" [/home/paulrr2/Projects/ece527/babelsoc/fpga-network-stack/hls/rocev2/../ipv4/ipv4.hpp:133]   --->   Operation 24 'extractvalue' 'tmp_data_V_53' <Predicate = (doh_state_load == 3 & tmp_139)> <Delay = 0.00>
ST_1 : Operation 25 [1/1] (0.00ns)   --->   "%tmp_keep_V_45 = extractvalue { i64, i8, i1 } %empty_418, 1" [/home/paulrr2/Projects/ece527/babelsoc/fpga-network-stack/hls/rocev2/../ipv4/ipv4.hpp:133]   --->   Operation 25 'extractvalue' 'tmp_keep_V_45' <Predicate = (doh_state_load == 3 & tmp_139)> <Delay = 0.00>
ST_1 : Operation 26 [1/1] (0.00ns)   --->   "%tmp_last_V_35 = extractvalue { i64, i8, i1 } %empty_418, 2" [/home/paulrr2/Projects/ece527/babelsoc/fpga-network-stack/hls/rocev2/../ipv4/ipv4.hpp:133]   --->   Operation 26 'extractvalue' 'tmp_last_V_35' <Predicate = (doh_state_load == 3 & tmp_139)> <Delay = 0.00>
ST_1 : Operation 27 [1/1] (0.00ns)   --->   "%trunc_ln647 = trunc i64 %tmp_data_V_53 to i32" [/home/paulrr2/Projects/ece527/babelsoc/fpga-network-stack/hls/rocev2/../ipv4/ipv4.hpp:136]   --->   Operation 27 'trunc' 'trunc_ln647' <Predicate = (doh_state_load == 3 & tmp_139)> <Delay = 0.00>
ST_1 : Operation 28 [1/1] (0.00ns)   --->   "%trunc_ln647_26 = trunc i8 %tmp_keep_V_45 to i4" [/home/paulrr2/Projects/ece527/babelsoc/fpga-network-stack/hls/rocev2/../ipv4/ipv4.hpp:137]   --->   Operation 28 'trunc' 'trunc_ln647_26' <Predicate = (doh_state_load == 3 & tmp_139)> <Delay = 0.00>
ST_1 : Operation 29 [1/1] (0.00ns)   --->   "%tmp_144 = call i1 @_ssdm_op_BitSelect.i1.i8.i32(i8 %tmp_keep_V_45, i32 4)" [/home/paulrr2/Projects/ece527/babelsoc/fpga-network-stack/hls/rocev2/../ipv4/ipv4.hpp:138]   --->   Operation 29 'bitselect' 'tmp_144' <Predicate = (doh_state_load == 3 & tmp_139)> <Delay = 0.00>
ST_1 : Operation 30 [1/1] (1.00ns)   --->   "store i64 %tmp_data_V_53, i64* @prevWord_data_V_9, align 8" [/home/paulrr2/Projects/ece527/babelsoc/fpga-network-stack/hls/rocev2/../axi_utils.hpp:50->/home/paulrr2/Projects/ece527/babelsoc/fpga-network-stack/hls/rocev2/../ipv4/ipv4.hpp:140]   --->   Operation 30 'store' <Predicate = (doh_state_load == 3 & tmp_139)> <Delay = 1.00>
ST_1 : Operation 31 [1/1] (1.00ns)   --->   "store i8 %tmp_keep_V_45, i8* @prevWord_keep_V_9, align 8" [/home/paulrr2/Projects/ece527/babelsoc/fpga-network-stack/hls/rocev2/../axi_utils.hpp:50->/home/paulrr2/Projects/ece527/babelsoc/fpga-network-stack/hls/rocev2/../ipv4/ipv4.hpp:140]   --->   Operation 31 'store' <Predicate = (doh_state_load == 3 & tmp_139)> <Delay = 1.00>
ST_1 : Operation 32 [1/1] (1.07ns)   --->   "store i3 0, i3* @doh_state, align 1" [/home/paulrr2/Projects/ece527/babelsoc/fpga-network-stack/hls/rocev2/../ipv4/ipv4.hpp:143]   --->   Operation 32 'store' <Predicate = (doh_state_load == 3 & tmp_139 & !tmp_144)> <Delay = 1.07>
ST_1 : Operation 33 [1/1] (0.00ns)   --->   "br i1 %tmp_last_V_35, label %17, label %._crit_edge141.i" [/home/paulrr2/Projects/ece527/babelsoc/fpga-network-stack/hls/rocev2/../ipv4/ipv4.hpp:145]   --->   Operation 33 'br' <Predicate = (doh_state_load == 3 & tmp_139 & tmp_144)> <Delay = 0.00>
ST_1 : Operation 34 [1/1] (1.07ns)   --->   "store i3 -4, i3* @doh_state, align 1" [/home/paulrr2/Projects/ece527/babelsoc/fpga-network-stack/hls/rocev2/../ipv4/ipv4.hpp:147]   --->   Operation 34 'store' <Predicate = (doh_state_load == 3 & tmp_139 & tmp_144 & tmp_last_V_35)> <Delay = 1.07>
ST_1 : Operation 35 [1/1] (0.00ns)   --->   "br label %"drop_optional_ip_header<64>.exit"" [/home/paulrr2/Projects/ece527/babelsoc/fpga-network-stack/hls/rocev2/../ipv4/ipv4.hpp:150]   --->   Operation 35 'br' <Predicate = (doh_state_load == 3)> <Delay = 0.00>
ST_1 : Operation 36 [1/1] (0.00ns)   --->   "%tmp_138 = call i1 @_ssdm_op_NbReadReq.ap_fifo.i64P.i8P.i1P(i64* @rx_process2dropFifo_1_5, i8* @rx_process2dropFifo_2_4, i1* @rx_process2dropFifo_s_6, i32 1) nounwind" [/home/paulrr2/Projects/ece527/babelsoc/fpga-network-stack/hls/rocev2/../ipv4/ipv4.hpp:120]   --->   Operation 36 'nbreadreq' 'tmp_138' <Predicate = (doh_state_load == 2)> <Delay = 0.00> <Core = "FIFO">   --->   Core 32 'FIFO' <Latency = 0> <II = 1> <Delay = 2.39> <Storage> <Opcode : 'read' 'write' 'nbread' 'nbwrite'> <Ports = 0> <Width = 64> <Depth = 2> <FIFO>
ST_1 : Operation 37 [1/1] (2.39ns)   --->   "%empty_417 = call { i64, i8, i1 } @_ssdm_op_Read.ap_fifo.volatile.i64P.i8P.i1P(i64* @rx_process2dropFifo_1_5, i8* @rx_process2dropFifo_2_4, i1* @rx_process2dropFifo_s_6) nounwind" [/home/paulrr2/Projects/ece527/babelsoc/fpga-network-stack/hls/rocev2/../ipv4/ipv4.hpp:122]   --->   Operation 37 'read' 'empty_417' <Predicate = (doh_state_load == 2 & tmp_138)> <Delay = 2.39> <Core = "FIFO">   --->   Core 32 'FIFO' <Latency = 0> <II = 1> <Delay = 2.39> <Storage> <Opcode : 'read' 'write' 'nbread' 'nbwrite'> <Ports = 0> <Width = 64> <Depth = 2> <FIFO>
ST_1 : Operation 38 [1/1] (0.00ns)   --->   "%tmp_data_V_47 = extractvalue { i64, i8, i1 } %empty_417, 0" [/home/paulrr2/Projects/ece527/babelsoc/fpga-network-stack/hls/rocev2/../ipv4/ipv4.hpp:122]   --->   Operation 38 'extractvalue' 'tmp_data_V_47' <Predicate = (doh_state_load == 2 & tmp_138)> <Delay = 0.00>
ST_1 : Operation 39 [1/1] (0.00ns)   --->   "%tmp_keep_V_39 = extractvalue { i64, i8, i1 } %empty_417, 1" [/home/paulrr2/Projects/ece527/babelsoc/fpga-network-stack/hls/rocev2/../ipv4/ipv4.hpp:122]   --->   Operation 39 'extractvalue' 'tmp_keep_V_39' <Predicate = (doh_state_load == 2 & tmp_138)> <Delay = 0.00>
ST_1 : Operation 40 [1/1] (0.00ns)   --->   "%tmp_last_V = extractvalue { i64, i8, i1 } %empty_417, 2" [/home/paulrr2/Projects/ece527/babelsoc/fpga-network-stack/hls/rocev2/../ipv4/ipv4.hpp:122]   --->   Operation 40 'extractvalue' 'tmp_last_V' <Predicate = (doh_state_load == 2 & tmp_138)> <Delay = 0.00>
ST_1 : Operation 41 [1/1] (1.07ns)   --->   "store i3 0, i3* @doh_state, align 1" [/home/paulrr2/Projects/ece527/babelsoc/fpga-network-stack/hls/rocev2/../ipv4/ipv4.hpp:126]   --->   Operation 41 'store' <Predicate = (doh_state_load == 2 & tmp_138 & tmp_last_V)> <Delay = 1.07>
ST_1 : Operation 42 [1/1] (0.00ns)   --->   "br label %"drop_optional_ip_header<64>.exit"" [/home/paulrr2/Projects/ece527/babelsoc/fpga-network-stack/hls/rocev2/../ipv4/ipv4.hpp:129]   --->   Operation 42 'br' <Predicate = (doh_state_load == 2)> <Delay = 0.00>
ST_1 : Operation 43 [1/1] (0.00ns)   --->   "%tmp_137 = call i1 @_ssdm_op_NbReadReq.ap_fifo.i64P.i8P.i1P(i64* @rx_process2dropFifo_1_5, i8* @rx_process2dropFifo_2_4, i1* @rx_process2dropFifo_s_6, i32 1) nounwind" [/home/paulrr2/Projects/ece527/babelsoc/fpga-network-stack/hls/rocev2/../ipv4/ipv4.hpp:106]   --->   Operation 43 'nbreadreq' 'tmp_137' <Predicate = (doh_state_load == 1)> <Delay = 0.00> <Core = "FIFO">   --->   Core 32 'FIFO' <Latency = 0> <II = 1> <Delay = 2.39> <Storage> <Opcode : 'read' 'write' 'nbread' 'nbwrite'> <Ports = 0> <Width = 64> <Depth = 2> <FIFO>
ST_1 : Operation 44 [1/1] (2.39ns)   --->   "%empty_416 = call { i64, i8, i1 } @_ssdm_op_Read.ap_fifo.volatile.i64P.i8P.i1P(i64* @rx_process2dropFifo_1_5, i8* @rx_process2dropFifo_2_4, i1* @rx_process2dropFifo_s_6) nounwind" [/home/paulrr2/Projects/ece527/babelsoc/fpga-network-stack/hls/rocev2/../ipv4/ipv4.hpp:108]   --->   Operation 44 'read' 'empty_416' <Predicate = (doh_state_load == 1 & tmp_137)> <Delay = 2.39> <Core = "FIFO">   --->   Core 32 'FIFO' <Latency = 0> <II = 1> <Delay = 2.39> <Storage> <Opcode : 'read' 'write' 'nbread' 'nbwrite'> <Ports = 0> <Width = 64> <Depth = 2> <FIFO>
ST_1 : Operation 45 [1/1] (0.00ns)   --->   "%tmp_data_V_46 = extractvalue { i64, i8, i1 } %empty_416, 0" [/home/paulrr2/Projects/ece527/babelsoc/fpga-network-stack/hls/rocev2/../ipv4/ipv4.hpp:108]   --->   Operation 45 'extractvalue' 'tmp_data_V_46' <Predicate = (doh_state_load == 1 & tmp_137)> <Delay = 0.00>
ST_1 : Operation 46 [1/1] (0.00ns)   --->   "%tmp_keep_V_38 = extractvalue { i64, i8, i1 } %empty_416, 1" [/home/paulrr2/Projects/ece527/babelsoc/fpga-network-stack/hls/rocev2/../ipv4/ipv4.hpp:108]   --->   Operation 46 'extractvalue' 'tmp_keep_V_38' <Predicate = (doh_state_load == 1 & tmp_137)> <Delay = 0.00>
ST_1 : Operation 47 [1/1] (1.00ns)   --->   "store i64 %tmp_data_V_46, i64* @prevWord_data_V_9, align 8" [/home/paulrr2/Projects/ece527/babelsoc/fpga-network-stack/hls/rocev2/../axi_utils.hpp:50->/home/paulrr2/Projects/ece527/babelsoc/fpga-network-stack/hls/rocev2/../ipv4/ipv4.hpp:108]   --->   Operation 47 'store' <Predicate = (doh_state_load == 1 & tmp_137)> <Delay = 1.00>
ST_1 : Operation 48 [1/1] (1.00ns)   --->   "store i8 %tmp_keep_V_38, i8* @prevWord_keep_V_9, align 8" [/home/paulrr2/Projects/ece527/babelsoc/fpga-network-stack/hls/rocev2/../axi_utils.hpp:50->/home/paulrr2/Projects/ece527/babelsoc/fpga-network-stack/hls/rocev2/../ipv4/ipv4.hpp:108]   --->   Operation 48 'store' <Predicate = (doh_state_load == 1 & tmp_137)> <Delay = 1.00>
ST_1 : Operation 49 [1/1] (1.01ns)   --->   "%add_ln701 = add i4 %length_V_load, -2" [/home/paulrr2/Projects/ece527/babelsoc/fpga-network-stack/hls/rocev2/../ipv4/ipv4.hpp:109]   --->   Operation 49 'add' 'add_ln701' <Predicate = (doh_state_load == 1 & tmp_137)> <Delay = 1.01> <Core = "AddSub">   --->   Core 14 'AddSub' <Latency = 0> <II = 1> <Delay = 1.01> <FuncUnit> <Opcode : 'add' 'sub'> <InPorts = 2> <OutPorts = 1>
ST_1 : Operation 50 [1/1] (0.85ns)   --->   "store i4 %add_ln701, i4* @length_V, align 1" [/home/paulrr2/Projects/ece527/babelsoc/fpga-network-stack/hls/rocev2/../ipv4/ipv4.hpp:109]   --->   Operation 50 'store' <Predicate = (doh_state_load == 1 & tmp_137)> <Delay = 0.85>
ST_1 : Operation 51 [1/1] (0.87ns)   --->   "%icmp_ln879 = icmp eq i4 %add_ln701, 1" [/home/paulrr2/Projects/ece527/babelsoc/fpga-network-stack/hls/rocev2/../ipv4/ipv4.hpp:110]   --->   Operation 51 'icmp' 'icmp_ln879' <Predicate = (doh_state_load == 1 & tmp_137)> <Delay = 0.87> <Core = "Cmp">   --->   Core 25 'Cmp' <Latency = 0> <II = 1> <Delay = 0.67> <FuncUnit> <Opcode : 'icmp'> <InPorts = 2> <OutPorts = 1>
ST_1 : Operation 52 [1/1] (0.00ns)   --->   "br i1 %icmp_ln879, label %6, label %7" [/home/paulrr2/Projects/ece527/babelsoc/fpga-network-stack/hls/rocev2/../ipv4/ipv4.hpp:110]   --->   Operation 52 'br' <Predicate = (doh_state_load == 1 & tmp_137)> <Delay = 0.00>
ST_1 : Operation 53 [1/1] (0.87ns)   --->   "%icmp_ln879_8 = icmp eq i4 %add_ln701, 0" [/home/paulrr2/Projects/ece527/babelsoc/fpga-network-stack/hls/rocev2/../ipv4/ipv4.hpp:113]   --->   Operation 53 'icmp' 'icmp_ln879_8' <Predicate = (doh_state_load == 1 & tmp_137 & !icmp_ln879)> <Delay = 0.87> <Core = "Cmp">   --->   Core 25 'Cmp' <Latency = 0> <II = 1> <Delay = 0.67> <FuncUnit> <Opcode : 'icmp'> <InPorts = 2> <OutPorts = 1>
ST_1 : Operation 54 [1/1] (0.00ns)   --->   "br i1 %icmp_ln879_8, label %8, label %._crit_edge137.i" [/home/paulrr2/Projects/ece527/babelsoc/fpga-network-stack/hls/rocev2/../ipv4/ipv4.hpp:113]   --->   Operation 54 'br' <Predicate = (doh_state_load == 1 & tmp_137 & !icmp_ln879)> <Delay = 0.00>
ST_1 : Operation 55 [1/1] (1.07ns)   --->   "store i3 2, i3* @doh_state, align 1" [/home/paulrr2/Projects/ece527/babelsoc/fpga-network-stack/hls/rocev2/../ipv4/ipv4.hpp:115]   --->   Operation 55 'store' <Predicate = (doh_state_load == 1 & tmp_137 & !icmp_ln879 & icmp_ln879_8)> <Delay = 1.07>
ST_1 : Operation 56 [1/1] (1.07ns)   --->   "store i3 3, i3* @doh_state, align 1" [/home/paulrr2/Projects/ece527/babelsoc/fpga-network-stack/hls/rocev2/../ipv4/ipv4.hpp:112]   --->   Operation 56 'store' <Predicate = (doh_state_load == 1 & tmp_137 & icmp_ln879)> <Delay = 1.07>
ST_1 : Operation 57 [1/1] (0.00ns)   --->   "br label %"drop_optional_ip_header<64>.exit"" [/home/paulrr2/Projects/ece527/babelsoc/fpga-network-stack/hls/rocev2/../ipv4/ipv4.hpp:118]   --->   Operation 57 'br' <Predicate = (doh_state_load == 1)> <Delay = 0.00>
ST_1 : Operation 58 [1/1] (0.00ns)   --->   "%tmp = call i1 @_ssdm_op_NbReadReq.ap_fifo.i4P(i4* @rx_process2dropLengt_1, i32 1) nounwind" [/home/paulrr2/Projects/ece527/babelsoc/fpga-network-stack/hls/rocev2/../ipv4/ipv4.hpp:72]   --->   Operation 58 'nbreadreq' 'tmp' <Predicate = (doh_state_load == 0)> <Delay = 0.00> <Core = "FIFO">   --->   Core 32 'FIFO' <Latency = 0> <II = 1> <Delay = 2.39> <Storage> <Opcode : 'read' 'write' 'nbread' 'nbwrite'> <Ports = 0> <Width = 64> <Depth = 2> <FIFO>
ST_1 : Operation 59 [1/1] (0.00ns)   --->   "br i1 %tmp, label %1, label %._crit_edge133.i" [/home/paulrr2/Projects/ece527/babelsoc/fpga-network-stack/hls/rocev2/../ipv4/ipv4.hpp:72]   --->   Operation 59 'br' <Predicate = (doh_state_load == 0)> <Delay = 0.00>
ST_1 : Operation 60 [1/1] (0.00ns)   --->   "%tmp_143 = call i1 @_ssdm_op_NbReadReq.ap_fifo.i64P.i8P.i1P(i64* @rx_process2dropFifo_1_5, i8* @rx_process2dropFifo_2_4, i1* @rx_process2dropFifo_s_6, i32 1) nounwind" [/home/paulrr2/Projects/ece527/babelsoc/fpga-network-stack/hls/rocev2/../ipv4/ipv4.hpp:72]   --->   Operation 60 'nbreadreq' 'tmp_143' <Predicate = (doh_state_load == 0 & tmp)> <Delay = 0.00> <Core = "FIFO">   --->   Core 32 'FIFO' <Latency = 0> <II = 1> <Delay = 2.39> <Storage> <Opcode : 'read' 'write' 'nbread' 'nbwrite'> <Ports = 0> <Width = 64> <Depth = 2> <FIFO>
ST_1 : Operation 61 [1/1] (2.39ns)   --->   "%tmp_V = call i4 @_ssdm_op_Read.ap_fifo.volatile.i4P(i4* @rx_process2dropLengt_1) nounwind" [/home/paulrr2/Projects/ece527/babelsoc/fpga-network-stack/hls/rocev2/../ipv4/ipv4.hpp:74]   --->   Operation 61 'read' 'tmp_V' <Predicate = (doh_state_load == 0 & tmp & tmp_143)> <Delay = 2.39> <Core = "FIFO">   --->   Core 32 'FIFO' <Latency = 0> <II = 1> <Delay = 2.39> <Storage> <Opcode : 'read' 'write' 'nbread' 'nbwrite'> <Ports = 0> <Width = 64> <Depth = 2> <FIFO>
ST_1 : Operation 62 [1/1] (0.85ns)   --->   "store i4 %tmp_V, i4* @length_V, align 1" [/home/paulrr2/Projects/ece527/babelsoc/fpga-network-stack/hls/rocev2/../ipv4/ipv4.hpp:74]   --->   Operation 62 'store' <Predicate = (doh_state_load == 0 & tmp & tmp_143)> <Delay = 0.85>
ST_1 : Operation 63 [1/1] (0.00ns)   --->   "%tmp_147 = call i3 @_ssdm_op_PartSelect.i3.i4.i32.i32(i4 %tmp_V, i32 1, i32 3)" [/home/paulrr2/Projects/ece527/babelsoc/fpga-network-stack/hls/rocev2/../ipv4/ipv4.hpp:80]   --->   Operation 63 'partselect' 'tmp_147' <Predicate = (doh_state_load == 0 & tmp & tmp_143)> <Delay = 0.00>
ST_1 : Operation 64 [1/1] (0.67ns)   --->   "%icmp_ln895 = icmp eq i3 %tmp_147, 0" [/home/paulrr2/Projects/ece527/babelsoc/fpga-network-stack/hls/rocev2/../ipv4/ipv4.hpp:80]   --->   Operation 64 'icmp' 'icmp_ln895' <Predicate = (doh_state_load == 0 & tmp & tmp_143)> <Delay = 0.67> <Core = "Cmp">   --->   Core 25 'Cmp' <Latency = 0> <II = 1> <Delay = 0.67> <FuncUnit> <Opcode : 'icmp'> <InPorts = 2> <OutPorts = 1>
ST_1 : Operation 65 [1/1] (0.85ns)   --->   "br i1 %icmp_ln895, label %3, label %._crit_edge135.i" [/home/paulrr2/Projects/ece527/babelsoc/fpga-network-stack/hls/rocev2/../ipv4/ipv4.hpp:80]   --->   Operation 65 'br' <Predicate = (doh_state_load == 0 & tmp & tmp_143)> <Delay = 0.85>
ST_1 : Operation 66 [1/1] (2.39ns)   --->   "%empty = call { i64, i8, i1 } @_ssdm_op_Read.ap_fifo.volatile.i64P.i8P.i1P(i64* @rx_process2dropFifo_1_5, i8* @rx_process2dropFifo_2_4, i1* @rx_process2dropFifo_s_6) nounwind" [/home/paulrr2/Projects/ece527/babelsoc/fpga-network-stack/hls/rocev2/../ipv4/ipv4.hpp:86]   --->   Operation 66 'read' 'empty' <Predicate = (doh_state_load == 0 & tmp & tmp_143 & icmp_ln895)> <Delay = 2.39> <Core = "FIFO">   --->   Core 32 'FIFO' <Latency = 0> <II = 1> <Delay = 2.39> <Storage> <Opcode : 'read' 'write' 'nbread' 'nbwrite'> <Ports = 0> <Width = 64> <Depth = 2> <FIFO>
ST_1 : Operation 67 [1/1] (0.00ns)   --->   "%tmp_data_V_52 = extractvalue { i64, i8, i1 } %empty, 0" [/home/paulrr2/Projects/ece527/babelsoc/fpga-network-stack/hls/rocev2/../ipv4/ipv4.hpp:86]   --->   Operation 67 'extractvalue' 'tmp_data_V_52' <Predicate = (doh_state_load == 0 & tmp & tmp_143 & icmp_ln895)> <Delay = 0.00>
ST_1 : Operation 68 [1/1] (0.00ns)   --->   "%tmp_keep_V_44 = extractvalue { i64, i8, i1 } %empty, 1" [/home/paulrr2/Projects/ece527/babelsoc/fpga-network-stack/hls/rocev2/../ipv4/ipv4.hpp:86]   --->   Operation 68 'extractvalue' 'tmp_keep_V_44' <Predicate = (doh_state_load == 0 & tmp & tmp_143 & icmp_ln895)> <Delay = 0.00>
ST_1 : Operation 69 [1/1] (1.00ns)   --->   "store i64 %tmp_data_V_52, i64* @prevWord_data_V_9, align 8" [/home/paulrr2/Projects/ece527/babelsoc/fpga-network-stack/hls/rocev2/../axi_utils.hpp:50->/home/paulrr2/Projects/ece527/babelsoc/fpga-network-stack/hls/rocev2/../ipv4/ipv4.hpp:86]   --->   Operation 69 'store' <Predicate = (doh_state_load == 0 & tmp & tmp_143 & icmp_ln895)> <Delay = 1.00>
ST_1 : Operation 70 [1/1] (1.00ns)   --->   "store i8 %tmp_keep_V_44, i8* @prevWord_keep_V_9, align 8" [/home/paulrr2/Projects/ece527/babelsoc/fpga-network-stack/hls/rocev2/../axi_utils.hpp:50->/home/paulrr2/Projects/ece527/babelsoc/fpga-network-stack/hls/rocev2/../ipv4/ipv4.hpp:86]   --->   Operation 70 'store' <Predicate = (doh_state_load == 0 & tmp & tmp_143 & icmp_ln895)> <Delay = 1.00>
ST_1 : Operation 71 [1/1] (0.85ns)   --->   "br label %._crit_edge135.i"   --->   Operation 71 'br' <Predicate = (doh_state_load == 0 & tmp & tmp_143 & icmp_ln895)> <Delay = 0.85>
ST_1 : Operation 72 [1/1] (0.00ns)   --->   "%storemerge_i = phi i2 [ -1, %3 ], [ 1, %2 ]"   --->   Operation 72 'phi' 'storemerge_i' <Predicate = (doh_state_load == 0 & tmp & tmp_143)> <Delay = 0.00>
ST_1 : Operation 73 [1/1] (0.00ns)   --->   "%zext_ln82 = zext i2 %storemerge_i to i3" [/home/paulrr2/Projects/ece527/babelsoc/fpga-network-stack/hls/rocev2/../ipv4/ipv4.hpp:82]   --->   Operation 73 'zext' 'zext_ln82' <Predicate = (doh_state_load == 0 & tmp & tmp_143)> <Delay = 0.00>
ST_1 : Operation 74 [1/1] (1.07ns)   --->   "store i3 %zext_ln82, i3* @doh_state, align 1" [/home/paulrr2/Projects/ece527/babelsoc/fpga-network-stack/hls/rocev2/../ipv4/ipv4.hpp:82]   --->   Operation 74 'store' <Predicate = (doh_state_load == 0 & tmp & tmp_143)> <Delay = 1.07>
ST_1 : Operation 75 [1/1] (0.00ns)   --->   "br label %"drop_optional_ip_header<64>.exit"" [/home/paulrr2/Projects/ece527/babelsoc/fpga-network-stack/hls/rocev2/../ipv4/ipv4.hpp:104]   --->   Operation 75 'br' <Predicate = (doh_state_load == 0)> <Delay = 0.00>

State 2 <SV = 1> <Delay = 2.87>
ST_2 : Operation 76 [1/1] (0.00ns)   --->   "call void (...)* @_ssdm_op_SpecInterface(i64* @rx_ip2udpFifo_V_data, [8 x i8]* @ap_fifo_str, i32 0, i32 0, [1 x i8]* @p_str, i32 0, i32 0, [1 x i8]* @p_str, [1 x i8]* @p_str, [1 x i8]* @p_str, i32 2, i32 2, i32 16, i32 16, [1 x i8]* @p_str, [1 x i8]* @p_str)"   --->   Operation 76 'specinterface' <Predicate = true> <Delay = 0.00>
ST_2 : Operation 77 [1/1] (0.00ns)   --->   "call void (...)* @_ssdm_op_SpecInterface(i8* @rx_ip2udpFifo_V_keep, [8 x i8]* @ap_fifo_str, i32 0, i32 0, [1 x i8]* @p_str, i32 0, i32 0, [1 x i8]* @p_str, [1 x i8]* @p_str, [1 x i8]* @p_str, i32 2, i32 2, i32 16, i32 16, [1 x i8]* @p_str, [1 x i8]* @p_str)"   --->   Operation 77 'specinterface' <Predicate = true> <Delay = 0.00>
ST_2 : Operation 78 [1/1] (0.00ns)   --->   "call void (...)* @_ssdm_op_SpecInterface(i1* @rx_ip2udpFifo_V_last, [8 x i8]* @ap_fifo_str, i32 0, i32 0, [1 x i8]* @p_str, i32 0, i32 0, [1 x i8]* @p_str, [1 x i8]* @p_str, [1 x i8]* @p_str, i32 2, i32 2, i32 16, i32 16, [1 x i8]* @p_str, [1 x i8]* @p_str)"   --->   Operation 78 'specinterface' <Predicate = true> <Delay = 0.00>
ST_2 : Operation 79 [1/1] (0.00ns)   --->   "call void (...)* @_ssdm_op_SpecInterface(i64* @rx_process2dropFifo_1_5, [8 x i8]* @ap_fifo_str, i32 0, i32 0, [1 x i8]* @p_str, i32 0, i32 0, [1 x i8]* @p_str, [1 x i8]* @p_str, [1 x i8]* @p_str, i32 2, i32 2, i32 16, i32 16, [1 x i8]* @p_str, [1 x i8]* @p_str)"   --->   Operation 79 'specinterface' <Predicate = true> <Delay = 0.00>
ST_2 : Operation 80 [1/1] (0.00ns)   --->   "call void (...)* @_ssdm_op_SpecInterface(i8* @rx_process2dropFifo_2_4, [8 x i8]* @ap_fifo_str, i32 0, i32 0, [1 x i8]* @p_str, i32 0, i32 0, [1 x i8]* @p_str, [1 x i8]* @p_str, [1 x i8]* @p_str, i32 2, i32 2, i32 16, i32 16, [1 x i8]* @p_str, [1 x i8]* @p_str)"   --->   Operation 80 'specinterface' <Predicate = true> <Delay = 0.00>
ST_2 : Operation 81 [1/1] (0.00ns)   --->   "call void (...)* @_ssdm_op_SpecInterface(i1* @rx_process2dropFifo_s_6, [8 x i8]* @ap_fifo_str, i32 0, i32 0, [1 x i8]* @p_str, i32 0, i32 0, [1 x i8]* @p_str, [1 x i8]* @p_str, [1 x i8]* @p_str, i32 2, i32 2, i32 16, i32 16, [1 x i8]* @p_str, [1 x i8]* @p_str)"   --->   Operation 81 'specinterface' <Predicate = true> <Delay = 0.00>
ST_2 : Operation 82 [1/1] (0.00ns)   --->   "call void (...)* @_ssdm_op_SpecInterface(i4* @rx_process2dropLengt_1, [8 x i8]* @ap_fifo_str, i32 0, i32 0, [1 x i8]* @p_str, i32 0, i32 0, [1 x i8]* @p_str, [1 x i8]* @p_str, [1 x i8]* @p_str, i32 2, i32 2, i32 16, i32 16, [1 x i8]* @p_str, [1 x i8]* @p_str)"   --->   Operation 82 'specinterface' <Predicate = true> <Delay = 0.00>
ST_2 : Operation 83 [1/1] (0.00ns)   --->   "call void (...)* @_ssdm_op_SpecPipeline(i32 1, i32 1, i32 1, i32 0, [1 x i8]* @p_str177) nounwind" [/home/paulrr2/Projects/ece527/babelsoc/fpga-network-stack/hls/rocev2/../ipv4/ipv4.hpp:59]   --->   Operation 83 'specpipeline' <Predicate = true> <Delay = 0.00>
ST_2 : Operation 84 [1/1] (0.00ns)   --->   "%tmp_141 = call i1 @_ssdm_op_BitSelect.i1.i64.i32(i64 %p_Val2_s, i32 63)" [/home/paulrr2/Projects/ece527/babelsoc/fpga-network-stack/hls/rocev2/../ipv4/ipv4.hpp:182]   --->   Operation 84 'bitselect' 'tmp_141' <Predicate = (doh_state_load == 6)> <Delay = 0.00>
ST_2 : Operation 85 [1/1] (0.00ns)   --->   "%tmp_142 = call i1 @_ssdm_op_BitSelect.i1.i8.i32(i8 %p_Val2_58, i32 7)" [/home/paulrr2/Projects/ece527/babelsoc/fpga-network-stack/hls/rocev2/../ipv4/ipv4.hpp:183]   --->   Operation 85 'bitselect' 'tmp_142' <Predicate = (doh_state_load == 6)> <Delay = 0.00>
ST_2 : Operation 86 [1/1] (0.00ns)   --->   "%p_Result_82 = call i64 @_ssdm_op_BitConcatenate.i64.i63.i1(i63 0, i1 %tmp_141) nounwind" [/home/paulrr2/Projects/ece527/babelsoc/fpga-network-stack/hls/rocev2/../ipv4/ipv4.hpp:184]   --->   Operation 86 'bitconcatenate' 'p_Result_82' <Predicate = (doh_state_load == 6)> <Delay = 0.00>
ST_2 : Operation 87 [1/1] (0.00ns)   --->   "%p_Result_83 = call i8 @_ssdm_op_BitConcatenate.i8.i7.i1(i7 0, i1 %tmp_142) nounwind" [/home/paulrr2/Projects/ece527/babelsoc/fpga-network-stack/hls/rocev2/../ipv4/ipv4.hpp:185]   --->   Operation 87 'bitconcatenate' 'p_Result_83' <Predicate = (doh_state_load == 6)> <Delay = 0.00>
ST_2 : Operation 88 [1/1] (2.39ns)   --->   "call void @_ssdm_op_Write.ap_fifo.volatile.i64P.i8P.i1P(i64* @rx_ip2udpFifo_V_data, i8* @rx_ip2udpFifo_V_keep, i1* @rx_ip2udpFifo_V_last, i64 %p_Result_82, i8 %p_Result_83, i1 true) nounwind" [/home/paulrr2/Projects/ece527/babelsoc/fpga-network-stack/hls/rocev2/../ipv4/ipv4.hpp:187]   --->   Operation 88 'write' <Predicate = (doh_state_load == 6)> <Delay = 2.39> <Core = "FIFO">   --->   Core 32 'FIFO' <Latency = 0> <II = 1> <Delay = 2.39> <Storage> <Opcode : 'read' 'write' 'nbread' 'nbwrite'> <Ports = 0> <Width = 64> <Depth = 2> <FIFO>
ST_2 : Operation 89 [1/1] (0.00ns)   --->   "%p_Result_i_420 = call i32 @_ssdm_op_PartSelect.i32.i64.i32.i32(i64 %p_Val2_s, i32 32, i32 63) nounwind" [/home/paulrr2/Projects/ece527/babelsoc/fpga-network-stack/hls/rocev2/../ipv4/ipv4.hpp:173]   --->   Operation 89 'partselect' 'p_Result_i_420' <Predicate = (doh_state_load == 4)> <Delay = 0.00>
ST_2 : Operation 90 [1/1] (0.00ns)   --->   "%p_Result_58_i = call i4 @_ssdm_op_PartSelect.i4.i8.i32.i32(i8 %p_Val2_58, i32 4, i32 7) nounwind" [/home/paulrr2/Projects/ece527/babelsoc/fpga-network-stack/hls/rocev2/../ipv4/ipv4.hpp:174]   --->   Operation 90 'partselect' 'p_Result_58_i' <Predicate = (doh_state_load == 4)> <Delay = 0.00>
ST_2 : Operation 91 [1/1] (0.00ns)   --->   "%p_Result_80 = call i64 @_ssdm_op_BitConcatenate.i64.i32.i32(i32 0, i32 %p_Result_i_420) nounwind" [/home/paulrr2/Projects/ece527/babelsoc/fpga-network-stack/hls/rocev2/../ipv4/ipv4.hpp:175]   --->   Operation 91 'bitconcatenate' 'p_Result_80' <Predicate = (doh_state_load == 4)> <Delay = 0.00>
ST_2 : Operation 92 [1/1] (0.00ns)   --->   "%p_Result_81 = call i8 @_ssdm_op_BitConcatenate.i8.i4.i4(i4 0, i4 %p_Result_58_i) nounwind" [/home/paulrr2/Projects/ece527/babelsoc/fpga-network-stack/hls/rocev2/../ipv4/ipv4.hpp:176]   --->   Operation 92 'bitconcatenate' 'p_Result_81' <Predicate = (doh_state_load == 4)> <Delay = 0.00>
ST_2 : Operation 93 [1/1] (2.39ns)   --->   "call void @_ssdm_op_Write.ap_fifo.volatile.i64P.i8P.i1P(i64* @rx_ip2udpFifo_V_data, i8* @rx_ip2udpFifo_V_keep, i1* @rx_ip2udpFifo_V_last, i64 %p_Result_80, i8 %p_Result_81, i1 true) nounwind" [/home/paulrr2/Projects/ece527/babelsoc/fpga-network-stack/hls/rocev2/../ipv4/ipv4.hpp:178]   --->   Operation 93 'write' <Predicate = (doh_state_load == 4)> <Delay = 2.39> <Core = "FIFO">   --->   Core 32 'FIFO' <Latency = 0> <II = 1> <Delay = 2.39> <Storage> <Opcode : 'read' 'write' 'nbread' 'nbwrite'> <Ports = 0> <Width = 64> <Depth = 2> <FIFO>
ST_2 : Operation 94 [1/1] (0.00ns)   --->   "br i1 %tmp_140, label %20, label %._crit_edge142.i" [/home/paulrr2/Projects/ece527/babelsoc/fpga-network-stack/hls/rocev2/../ipv4/ipv4.hpp:152]   --->   Operation 94 'br' <Predicate = (doh_state_load == 5)> <Delay = 0.00>
ST_2 : Operation 95 [1/1] (0.00ns)   --->   "%tmp_145 = call i1 @_ssdm_op_BitSelect.i1.i64.i32(i64 %p_Val2_s, i32 63)" [/home/paulrr2/Projects/ece527/babelsoc/fpga-network-stack/hls/rocev2/../ipv4/ipv4.hpp:155]   --->   Operation 95 'bitselect' 'tmp_145' <Predicate = (doh_state_load == 5 & tmp_140)> <Delay = 0.00>
ST_2 : Operation 96 [1/1] (0.00ns)   --->   "%tmp_146 = call i1 @_ssdm_op_BitSelect.i1.i8.i32(i8 %p_Val2_58, i32 7)" [/home/paulrr2/Projects/ece527/babelsoc/fpga-network-stack/hls/rocev2/../ipv4/ipv4.hpp:156]   --->   Operation 96 'bitselect' 'tmp_146' <Predicate = (doh_state_load == 5 & tmp_140)> <Delay = 0.00>
ST_2 : Operation 97 [1/1] (0.00ns)   --->   "%p_Result_78 = call i64 @_ssdm_op_BitConcatenate.i64.i1.i62.i1(i1 %trunc_ln647_27, i62 0, i1 %tmp_145) nounwind" [/home/paulrr2/Projects/ece527/babelsoc/fpga-network-stack/hls/rocev2/../ipv4/ipv4.hpp:157]   --->   Operation 97 'bitconcatenate' 'p_Result_78' <Predicate = (doh_state_load == 5 & tmp_140)> <Delay = 0.00>
ST_2 : Operation 98 [1/1] (0.00ns)   --->   "%p_Result_79 = call i8 @_ssdm_op_BitConcatenate.i8.i1.i6.i1(i1 %trunc_ln647_28, i6 0, i1 %tmp_146) nounwind" [/home/paulrr2/Projects/ece527/babelsoc/fpga-network-stack/hls/rocev2/../ipv4/ipv4.hpp:158]   --->   Operation 98 'bitconcatenate' 'p_Result_79' <Predicate = (doh_state_load == 5 & tmp_140)> <Delay = 0.00>
ST_2 : Operation 99 [1/1] (2.39ns)   --->   "call void @_ssdm_op_Write.ap_fifo.volatile.i64P.i8P.i1P(i64* @rx_ip2udpFifo_V_data, i8* @rx_ip2udpFifo_V_keep, i1* @rx_ip2udpFifo_V_last, i64 %p_Result_78, i8 %p_Result_79, i1 true) nounwind" [/home/paulrr2/Projects/ece527/babelsoc/fpga-network-stack/hls/rocev2/../ipv4/ipv4.hpp:160]   --->   Operation 99 'write' <Predicate = (doh_state_load == 5 & tmp_140)> <Delay = 2.39> <Core = "FIFO">   --->   Core 32 'FIFO' <Latency = 0> <II = 1> <Delay = 2.39> <Storage> <Opcode : 'read' 'write' 'nbread' 'nbwrite'> <Ports = 0> <Width = 64> <Depth = 2> <FIFO>
ST_2 : Operation 100 [1/1] (0.00ns)   --->   "br label %._crit_edge142.i" [/home/paulrr2/Projects/ece527/babelsoc/fpga-network-stack/hls/rocev2/../ipv4/ipv4.hpp:170]   --->   Operation 100 'br' <Predicate = (doh_state_load == 5 & tmp_140)> <Delay = 0.00>
ST_2 : Operation 101 [1/1] (0.00ns)   --->   "br i1 %tmp_139, label %14, label %._crit_edge140.i" [/home/paulrr2/Projects/ece527/babelsoc/fpga-network-stack/hls/rocev2/../ipv4/ipv4.hpp:131]   --->   Operation 101 'br' <Predicate = (doh_state_load == 3)> <Delay = 0.00>
ST_2 : Operation 102 [1/1] (0.00ns)   --->   "%p_Result_i = call i32 @_ssdm_op_PartSelect.i32.i64.i32.i32(i64 %p_Val2_s, i32 32, i32 63) nounwind" [/home/paulrr2/Projects/ece527/babelsoc/fpga-network-stack/hls/rocev2/../ipv4/ipv4.hpp:134]   --->   Operation 102 'partselect' 'p_Result_i' <Predicate = (doh_state_load == 3 & tmp_139)> <Delay = 0.00>
ST_2 : Operation 103 [1/1] (0.00ns)   --->   "%p_Result_65_i = call i4 @_ssdm_op_PartSelect.i4.i8.i32.i32(i8 %p_Val2_58, i32 4, i32 7) nounwind" [/home/paulrr2/Projects/ece527/babelsoc/fpga-network-stack/hls/rocev2/../ipv4/ipv4.hpp:135]   --->   Operation 103 'partselect' 'p_Result_65_i' <Predicate = (doh_state_load == 3 & tmp_139)> <Delay = 0.00>
ST_2 : Operation 104 [1/1] (0.00ns)   --->   "%p_Result_s = call i64 @_ssdm_op_BitConcatenate.i64.i32.i32(i32 %trunc_ln647, i32 %p_Result_i) nounwind" [/home/paulrr2/Projects/ece527/babelsoc/fpga-network-stack/hls/rocev2/../ipv4/ipv4.hpp:136]   --->   Operation 104 'bitconcatenate' 'p_Result_s' <Predicate = (doh_state_load == 3 & tmp_139)> <Delay = 0.00>
ST_2 : Operation 105 [1/1] (0.00ns)   --->   "%p_Result_77 = call i8 @_ssdm_op_BitConcatenate.i8.i4.i4(i4 %trunc_ln647_26, i4 %p_Result_65_i) nounwind" [/home/paulrr2/Projects/ece527/babelsoc/fpga-network-stack/hls/rocev2/../ipv4/ipv4.hpp:137]   --->   Operation 105 'bitconcatenate' 'p_Result_77' <Predicate = (doh_state_load == 3 & tmp_139)> <Delay = 0.00>
ST_2 : Operation 106 [1/1] (0.48ns)   --->   "%tmp_last_V_36 = xor i1 %tmp_144, true" [/home/paulrr2/Projects/ece527/babelsoc/fpga-network-stack/hls/rocev2/../ipv4/ipv4.hpp:138]   --->   Operation 106 'xor' 'tmp_last_V_36' <Predicate = (doh_state_load == 3 & tmp_139)> <Delay = 0.48> <Core = "LogicGate">   --->   Core 27 'LogicGate' <Latency = 0> <II = 1> <Delay = 0.48> <FuncUnit> <Opcode : 'and' 'or' 'xor'> <InPorts = 2> <OutPorts = 1>
ST_2 : Operation 107 [1/1] (2.39ns)   --->   "call void @_ssdm_op_Write.ap_fifo.volatile.i64P.i8P.i1P(i64* @rx_ip2udpFifo_V_data, i8* @rx_ip2udpFifo_V_keep, i1* @rx_ip2udpFifo_V_last, i64 %p_Result_s, i8 %p_Result_77, i1 %tmp_last_V_36) nounwind" [/home/paulrr2/Projects/ece527/babelsoc/fpga-network-stack/hls/rocev2/../ipv4/ipv4.hpp:139]   --->   Operation 107 'write' <Predicate = (doh_state_load == 3 & tmp_139)> <Delay = 2.39> <Core = "FIFO">   --->   Core 32 'FIFO' <Latency = 0> <II = 1> <Delay = 2.39> <Storage> <Opcode : 'read' 'write' 'nbread' 'nbwrite'> <Ports = 0> <Width = 64> <Depth = 2> <FIFO>
ST_2 : Operation 108 [1/1] (0.00ns)   --->   "br i1 %tmp_144, label %16, label %15" [/home/paulrr2/Projects/ece527/babelsoc/fpga-network-stack/hls/rocev2/../ipv4/ipv4.hpp:141]   --->   Operation 108 'br' <Predicate = (doh_state_load == 3 & tmp_139)> <Delay = 0.00>
ST_2 : Operation 109 [1/1] (0.00ns)   --->   "br label %18" [/home/paulrr2/Projects/ece527/babelsoc/fpga-network-stack/hls/rocev2/../ipv4/ipv4.hpp:144]   --->   Operation 109 'br' <Predicate = (doh_state_load == 3 & tmp_139 & !tmp_144)> <Delay = 0.00>
ST_2 : Operation 110 [1/1] (0.00ns)   --->   "br label %._crit_edge141.i" [/home/paulrr2/Projects/ece527/babelsoc/fpga-network-stack/hls/rocev2/../ipv4/ipv4.hpp:148]   --->   Operation 110 'br' <Predicate = (doh_state_load == 3 & tmp_139 & tmp_144 & tmp_last_V_35)> <Delay = 0.00>
ST_2 : Operation 111 [1/1] (0.00ns)   --->   "br label %18"   --->   Operation 111 'br' <Predicate = (doh_state_load == 3 & tmp_139 & tmp_144)> <Delay = 0.00>
ST_2 : Operation 112 [1/1] (0.00ns)   --->   "br label %._crit_edge140.i" [/home/paulrr2/Projects/ece527/babelsoc/fpga-network-stack/hls/rocev2/../ipv4/ipv4.hpp:149]   --->   Operation 112 'br' <Predicate = (doh_state_load == 3 & tmp_139)> <Delay = 0.00>
ST_2 : Operation 113 [1/1] (0.00ns)   --->   "br i1 %tmp_138, label %11, label %._crit_edge138.i" [/home/paulrr2/Projects/ece527/babelsoc/fpga-network-stack/hls/rocev2/../ipv4/ipv4.hpp:120]   --->   Operation 113 'br' <Predicate = (doh_state_load == 2)> <Delay = 0.00>
ST_2 : Operation 114 [1/1] (2.39ns)   --->   "call void @_ssdm_op_Write.ap_fifo.volatile.i64P.i8P.i1P(i64* @rx_ip2udpFifo_V_data, i8* @rx_ip2udpFifo_V_keep, i1* @rx_ip2udpFifo_V_last, i64 %tmp_data_V_47, i8 %tmp_keep_V_39, i1 %tmp_last_V) nounwind" [/home/paulrr2/Projects/ece527/babelsoc/fpga-network-stack/hls/rocev2/../ipv4/ipv4.hpp:123]   --->   Operation 114 'write' <Predicate = (doh_state_load == 2 & tmp_138)> <Delay = 2.39> <Core = "FIFO">   --->   Core 32 'FIFO' <Latency = 0> <II = 1> <Delay = 2.39> <Storage> <Opcode : 'read' 'write' 'nbread' 'nbwrite'> <Ports = 0> <Width = 64> <Depth = 2> <FIFO>
ST_2 : Operation 115 [1/1] (0.00ns)   --->   "br i1 %tmp_last_V, label %12, label %._crit_edge139.i" [/home/paulrr2/Projects/ece527/babelsoc/fpga-network-stack/hls/rocev2/../ipv4/ipv4.hpp:124]   --->   Operation 115 'br' <Predicate = (doh_state_load == 2 & tmp_138)> <Delay = 0.00>
ST_2 : Operation 116 [1/1] (0.00ns)   --->   "br label %._crit_edge139.i" [/home/paulrr2/Projects/ece527/babelsoc/fpga-network-stack/hls/rocev2/../ipv4/ipv4.hpp:127]   --->   Operation 116 'br' <Predicate = (doh_state_load == 2 & tmp_138 & tmp_last_V)> <Delay = 0.00>
ST_2 : Operation 117 [1/1] (0.00ns)   --->   "br label %._crit_edge138.i" [/home/paulrr2/Projects/ece527/babelsoc/fpga-network-stack/hls/rocev2/../ipv4/ipv4.hpp:128]   --->   Operation 117 'br' <Predicate = (doh_state_load == 2 & tmp_138)> <Delay = 0.00>
ST_2 : Operation 118 [1/1] (0.00ns)   --->   "br i1 %tmp_137, label %5, label %._crit_edge136.i" [/home/paulrr2/Projects/ece527/babelsoc/fpga-network-stack/hls/rocev2/../ipv4/ipv4.hpp:106]   --->   Operation 118 'br' <Predicate = (doh_state_load == 1)> <Delay = 0.00>
ST_2 : Operation 119 [1/1] (0.00ns)   --->   "br label %._crit_edge137.i" [/home/paulrr2/Projects/ece527/babelsoc/fpga-network-stack/hls/rocev2/../ipv4/ipv4.hpp:116]   --->   Operation 119 'br' <Predicate = (doh_state_load == 1 & tmp_137 & !icmp_ln879 & icmp_ln879_8)> <Delay = 0.00>
ST_2 : Operation 120 [1/1] (0.00ns)   --->   "br label %9"   --->   Operation 120 'br' <Predicate = (doh_state_load == 1 & tmp_137 & !icmp_ln879)> <Delay = 0.00>
ST_2 : Operation 121 [1/1] (0.00ns)   --->   "br label %9" [/home/paulrr2/Projects/ece527/babelsoc/fpga-network-stack/hls/rocev2/../ipv4/ipv4.hpp:113]   --->   Operation 121 'br' <Predicate = (doh_state_load == 1 & tmp_137 & icmp_ln879)> <Delay = 0.00>
ST_2 : Operation 122 [1/1] (0.00ns)   --->   "br label %._crit_edge136.i" [/home/paulrr2/Projects/ece527/babelsoc/fpga-network-stack/hls/rocev2/../ipv4/ipv4.hpp:117]   --->   Operation 122 'br' <Predicate = (doh_state_load == 1 & tmp_137)> <Delay = 0.00>
ST_2 : Operation 123 [1/1] (0.00ns)   --->   "br i1 %tmp_143, label %2, label %._crit_edge133.i" [/home/paulrr2/Projects/ece527/babelsoc/fpga-network-stack/hls/rocev2/../ipv4/ipv4.hpp:72]   --->   Operation 123 'br' <Predicate = (doh_state_load == 0 & tmp)> <Delay = 0.00>
ST_2 : Operation 124 [1/1] (0.00ns)   --->   "br label %._crit_edge133.i" [/home/paulrr2/Projects/ece527/babelsoc/fpga-network-stack/hls/rocev2/../ipv4/ipv4.hpp:103]   --->   Operation 124 'br' <Predicate = (doh_state_load == 0 & tmp & tmp_143)> <Delay = 0.00>
ST_2 : Operation 125 [1/1] (0.00ns)   --->   "ret void"   --->   Operation 125 'ret' <Predicate = true> <Delay = 0.00>


============================================================
+ Verbose Summary: Timing violations
============================================================
Target clock period: 6.4ns, clock uncertainty: 0.8ns.

 <State 1>: 5ns
The critical path consists of the following:
	fifo read on port 'rx_process2dropLengt_1' (/home/paulrr2/Projects/ece527/babelsoc/fpga-network-stack/hls/rocev2/../ipv4/ipv4.hpp:74) [152]  (2.39 ns)
	'icmp' operation ('icmp_ln895', /home/paulrr2/Projects/ece527/babelsoc/fpga-network-stack/hls/rocev2/../ipv4/ipv4.hpp:80) [155]  (0.677 ns)
	multiplexor before 'phi' operation ('storemerge_i') [165]  (0.85 ns)
	'phi' operation ('storemerge_i') [165]  (0 ns)
	'store' operation ('store_ln82', /home/paulrr2/Projects/ece527/babelsoc/fpga-network-stack/hls/rocev2/../ipv4/ipv4.hpp:82) of variable 'zext_ln82', /home/paulrr2/Projects/ece527/babelsoc/fpga-network-stack/hls/rocev2/../ipv4/ipv4.hpp:82 on static variable 'doh_state' [167]  (1.08 ns)

 <State 2>: 2.88ns
The critical path consists of the following:
	'xor' operation ('val', /home/paulrr2/Projects/ece527/babelsoc/fpga-network-stack/hls/rocev2/../ipv4/ipv4.hpp:138) [81]  (0.485 ns)
	fifo write on port 'rx_ip2udpFifo_V_data' (/home/paulrr2/Projects/ece527/babelsoc/fpga-network-stack/hls/rocev2/../ipv4/ipv4.hpp:139) [82]  (2.39 ns)


============================================================
+ Verbose Summary: Binding
============================================================
N/A
* FSMD analyzer results:
  - Output states:
 - Input state : 
  - Chain level:
	State 1
	State 2


============================================================
+ Verbose Summary: Datapath Resource usage 
============================================================
N/A
