

================================================================
== Vivado HLS Report for 'extract_icrc_64_s'
================================================================
* Date:           Sat Dec 12 19:41:17 2020

* Version:        2019.2.1 (Build 2724168 on Thu Dec 05 05:19:09 MST 2019)
* Project:        rocev2_prj
* Solution:       solution1
* Product family: virtex7
* Target device:  xc7vx690t-ffg1761-2


================================================================
== Performance Estimates
================================================================
+ Timing: 
    * Summary: 
    +--------+---------+----------+------------+
    |  Clock |  Target | Estimated| Uncertainty|
    +--------+---------+----------+------------+
    |ap_clk  | 6.40 ns | 2.391 ns |   0.80 ns  |
    +--------+---------+----------+------------+

+ Latency: 
    * Summary: 
    +---------+---------+----------+----------+-----+-----+----------+
    |  Latency (cycles) |  Latency (absolute) |  Interval | Pipeline |
    |   min   |   max   |    min   |    max   | min | max |   Type   |
    +---------+---------+----------+----------+-----+-----+----------+
    |        1|        1| 6.400 ns | 6.400 ns |    1|    1| function |
    +---------+---------+----------+----------+-----+-----+----------+

    + Detail: 
        * Instance: 
        N/A

        * Loop: 
        N/A

============================================================
+ Verbose Summary: Synthesis Manager
============================================================
InlineROM: 1
ExposeGlobal: 0
============================================================
+ Verbose Summary: CDFG Model
============================================================
IsTopModel: 0
ResetActiveHigh: 1
IsCombinational: 2
IsDatapathOnly: 0
HasWiredReturn: 1
HasMFsm: 2
HasVarLatency: 0
IsPipeline: 1
IsRtlPipelined: 1
IsInstanceOverlapped: 0
IsDontTouch: 0
HasImplIP: 0
IsGatedGlobalClock: 0

+ Individual pipeline summary: 
  * Pipeline-0: initiation interval (II) = 1, depth = 2


============================================================
+ Verbose Summary: Schedule
============================================================
* Number of FSM states : 2
* Pipeline : 1
  Pipeline-0 : II = 1, D = 2, States = { 1 2 }
* Dataflow Pipeline: 0

* FSM state transitions: 
1 --> 2 
2 --> 

* FSM state operations: 

State 1 <SV = 0> <Delay = 1.83>
ST_1 : Operation 3 [1/1] (0.00ns)   --->   "%ei_state_load = load i2* @ei_state, align 1" [/home/paulrr2/Projects/ece527/babelsoc/fpga-network-stack/hls/rocev2/rocev2.cpp:53]   --->   Operation 3 'load' 'ei_state_load' <Predicate = true> <Delay = 0.00>
ST_1 : Operation 4 [1/1] (0.00ns)   --->   "%tmp_data_V_43 = load i64* @ei_prevWord_data_V, align 8" [/home/paulrr2/Projects/ece527/babelsoc/fpga-network-stack/hls/rocev2/rocev2.cpp:87]   --->   Operation 4 'load' 'tmp_data_V_43' <Predicate = true> <Delay = 0.00>
ST_1 : Operation 5 [1/1] (0.00ns)   --->   "%tmp_keep_V_35 = load i8* @ei_prevWord_keep_V, align 1" [/home/paulrr2/Projects/ece527/babelsoc/fpga-network-stack/hls/rocev2/rocev2.cpp:87]   --->   Operation 5 'load' 'tmp_keep_V_35' <Predicate = true> <Delay = 0.00>
ST_1 : Operation 6 [1/1] (0.00ns)   --->   "%tmp_last_V_33 = load i1* @ei_prevWord_last_V, align 1" [/home/paulrr2/Projects/ece527/babelsoc/fpga-network-stack/hls/rocev2/rocev2.cpp:87]   --->   Operation 6 'load' 'tmp_last_V_33' <Predicate = true> <Delay = 0.00>
ST_1 : Operation 7 [1/1] (0.87ns)   --->   "switch i2 %ei_state_load, label %._crit_edge1.i [
    i2 0, label %0
    i2 1, label %1
    i2 -2, label %3
  ]" [/home/paulrr2/Projects/ece527/babelsoc/fpga-network-stack/hls/rocev2/rocev2.cpp:53]   --->   Operation 7 'switch' <Predicate = true> <Delay = 0.87>
ST_1 : Operation 8 [1/1] (0.86ns)   --->   "%icmp_ln93 = icmp eq i8 %tmp_keep_V_35, -1" [/home/paulrr2/Projects/ece527/babelsoc/fpga-network-stack/hls/rocev2/rocev2.cpp:93]   --->   Operation 8 'icmp' 'icmp_ln93' <Predicate = (ei_state_load == 2)> <Delay = 0.86> <Core = "Cmp">   --->   Core 25 'Cmp' <Latency = 0> <II = 1> <Delay = 0.86> <FuncUnit> <Opcode : 'icmp'> <InPorts = 2> <OutPorts = 1>
ST_1 : Operation 9 [1/1] (0.85ns)   --->   "br i1 %icmp_ln93, label %4, label %._crit_edge7.i" [/home/paulrr2/Projects/ece527/babelsoc/fpga-network-stack/hls/rocev2/rocev2.cpp:93]   --->   Operation 9 'br' <Predicate = (ei_state_load == 2)> <Delay = 0.85>
ST_1 : Operation 10 [1/1] (0.92ns)   --->   "store i8 15, i8* @ei_prevWord_keep_V, align 8" [/home/paulrr2/Projects/ece527/babelsoc/fpga-network-stack/hls/rocev2/rocev2.cpp:101]   --->   Operation 10 'store' <Predicate = (ei_state_load == 2 & icmp_ln93)> <Delay = 0.92>
ST_1 : Operation 11 [1/1] (0.85ns)   --->   "br label %._crit_edge7.i" [/home/paulrr2/Projects/ece527/babelsoc/fpga-network-stack/hls/rocev2/rocev2.cpp:102]   --->   Operation 11 'br' <Predicate = (ei_state_load == 2 & icmp_ln93)> <Delay = 0.85>
ST_1 : Operation 12 [1/1] (0.92ns)   --->   "store i2 0, i2* @ei_state, align 1" [/home/paulrr2/Projects/ece527/babelsoc/fpga-network-stack/hls/rocev2/rocev2.cpp:164]   --->   Operation 12 'store' <Predicate = (ei_state_load == 2)> <Delay = 0.92>
ST_1 : Operation 13 [1/1] (0.85ns)   --->   "br label %._crit_edge1.i" [/home/paulrr2/Projects/ece527/babelsoc/fpga-network-stack/hls/rocev2/rocev2.cpp:165]   --->   Operation 13 'br' <Predicate = (ei_state_load == 2)> <Delay = 0.85>
ST_1 : Operation 14 [1/1] (0.00ns)   --->   "%tmp_135 = call i1 @_ssdm_op_NbReadReq.axis.i64P.i8P.i1P(i64* %input_V_data_V, i8* %input_V_keep_V, i1* %input_V_last_V, i32 1)" [/home/paulrr2/Projects/ece527/babelsoc/fpga-network-stack/hls/rocev2/rocev2.cpp:68]   --->   Operation 14 'nbreadreq' 'tmp_135' <Predicate = (ei_state_load == 1)> <Delay = 0.00> <Core = "AXI4Stream">   --->   Core 5 'AXI4Stream' <Latency = 0> <II = 1> <Delay = 1.00> <Adapter> <Opcode : >
ST_1 : Operation 15 [1/1] (0.85ns)   --->   "br i1 %tmp_135, label %2, label %._crit_edge1.i" [/home/paulrr2/Projects/ece527/babelsoc/fpga-network-stack/hls/rocev2/rocev2.cpp:68]   --->   Operation 15 'br' <Predicate = (ei_state_load == 1)> <Delay = 0.85>
ST_1 : Operation 16 [1/1] (0.00ns)   --->   "%empty_415 = call { i64, i8, i1 } @_ssdm_op_Read.axis.volatile.i64P.i8P.i1P(i64* %input_V_data_V, i8* %input_V_keep_V, i1* %input_V_last_V)" [/home/paulrr2/Projects/ece527/babelsoc/fpga-network-stack/hls/rocev2/rocev2.cpp:70]   --->   Operation 16 'read' 'empty_415' <Predicate = (ei_state_load == 1 & tmp_135)> <Delay = 0.00> <Core = "AXI4Stream">   --->   Core 5 'AXI4Stream' <Latency = 0> <II = 1> <Delay = 1.00> <Adapter> <Opcode : >
ST_1 : Operation 17 [1/1] (0.00ns)   --->   "%tmp_data_V_44 = extractvalue { i64, i8, i1 } %empty_415, 0" [/home/paulrr2/Projects/ece527/babelsoc/fpga-network-stack/hls/rocev2/rocev2.cpp:70]   --->   Operation 17 'extractvalue' 'tmp_data_V_44' <Predicate = (ei_state_load == 1 & tmp_135)> <Delay = 0.00>
ST_1 : Operation 18 [1/1] (0.00ns)   --->   "%tmp_keep_V_36 = extractvalue { i64, i8, i1 } %empty_415, 1" [/home/paulrr2/Projects/ece527/babelsoc/fpga-network-stack/hls/rocev2/rocev2.cpp:70]   --->   Operation 18 'extractvalue' 'tmp_keep_V_36' <Predicate = (ei_state_load == 1 & tmp_135)> <Delay = 0.00>
ST_1 : Operation 19 [1/1] (0.00ns)   --->   "%tmp_last_V_32 = extractvalue { i64, i8, i1 } %empty_415, 2" [/home/paulrr2/Projects/ece527/babelsoc/fpga-network-stack/hls/rocev2/rocev2.cpp:70]   --->   Operation 19 'extractvalue' 'tmp_last_V_32' <Predicate = (ei_state_load == 1 & tmp_135)> <Delay = 0.00>
ST_1 : Operation 20 [1/1] (0.85ns)   --->   "br i1 %tmp_last_V_32, label %._crit_edge6.i, label %._crit_edge5.i" [/home/paulrr2/Projects/ece527/babelsoc/fpga-network-stack/hls/rocev2/rocev2.cpp:71]   --->   Operation 20 'br' <Predicate = (ei_state_load == 1 & tmp_135)> <Delay = 0.85>
ST_1 : Operation 21 [1/1] (0.00ns)   --->   "%tmp_136 = call i1 @_ssdm_op_BitSelect.i1.i8.i32(i8 %tmp_keep_V_36, i32 4)" [/home/paulrr2/Projects/ece527/babelsoc/fpga-network-stack/hls/rocev2/rocev2.cpp:73]   --->   Operation 21 'bitselect' 'tmp_136' <Predicate = (ei_state_load == 1 & tmp_135 & tmp_last_V_32)> <Delay = 0.00>
ST_1 : Operation 22 [1/1] (0.00ns) (grouped into LUT with out node or_ln73)   --->   "%xor_ln1054 = xor i1 %tmp_136, true" [/home/paulrr2/Projects/ece527/babelsoc/fpga-network-stack/hls/rocev2/rocev2.cpp:73]   --->   Operation 22 'xor' 'xor_ln1054' <Predicate = (ei_state_load == 1 & tmp_135 & tmp_last_V_32)> <Delay = 0.00> <Core = "LogicGate">   --->   Core 27 'LogicGate' <Latency = 0> <II = 1> <Delay = 0.48> <FuncUnit> <Opcode : 'and' 'or' 'xor'> <InPorts = 2> <OutPorts = 1>
ST_1 : Operation 23 [1/1] (0.48ns) (out node of the LUT)   --->   "%or_ln73 = or i1 %tmp_last_V_33, %xor_ln1054" [/home/paulrr2/Projects/ece527/babelsoc/fpga-network-stack/hls/rocev2/rocev2.cpp:73]   --->   Operation 23 'or' 'or_ln73' <Predicate = (ei_state_load == 1 & tmp_135 & tmp_last_V_32)> <Delay = 0.48> <Core = "LogicGate">   --->   Core 27 'LogicGate' <Latency = 0> <II = 1> <Delay = 0.48> <FuncUnit> <Opcode : 'and' 'or' 'xor'> <InPorts = 2> <OutPorts = 1>
ST_1 : Operation 24 [1/1] (0.49ns)   --->   "%select_ln73 = select i1 %tmp_136, i2 -2, i2 0" [/home/paulrr2/Projects/ece527/babelsoc/fpga-network-stack/hls/rocev2/rocev2.cpp:73]   --->   Operation 24 'select' 'select_ln73' <Predicate = (ei_state_load == 1 & tmp_135 & tmp_last_V_32)> <Delay = 0.49> <Core = "Sel">   --->   Core 26 'Sel' <Latency = 0> <II = 1> <Delay = 0.49> <FuncUnit> <Opcode : 'select'> <InPorts = 3> <OutPorts = 1>
ST_1 : Operation 25 [1/1] (0.92ns)   --->   "store i2 %select_ln73, i2* @ei_state, align 1" [/home/paulrr2/Projects/ece527/babelsoc/fpga-network-stack/hls/rocev2/rocev2.cpp:80]   --->   Operation 25 'store' <Predicate = (ei_state_load == 1 & tmp_135 & tmp_last_V_32)> <Delay = 0.92>
ST_1 : Operation 26 [1/1] (0.85ns)   --->   "br label %._crit_edge5.i" [/home/paulrr2/Projects/ece527/babelsoc/fpga-network-stack/hls/rocev2/rocev2.cpp:86]   --->   Operation 26 'br' <Predicate = (ei_state_load == 1 & tmp_135 & tmp_last_V_32)> <Delay = 0.85>
ST_1 : Operation 27 [1/1] (0.85ns)   --->   "store i64 %tmp_data_V_44, i64* @ei_prevWord_data_V, align 8" [/home/paulrr2/Projects/ece527/babelsoc/fpga-network-stack/hls/rocev2/../axi_utils.hpp:50->/home/paulrr2/Projects/ece527/babelsoc/fpga-network-stack/hls/rocev2/rocev2.cpp:88]   --->   Operation 27 'store' <Predicate = (ei_state_load == 1 & tmp_135)> <Delay = 0.85>
ST_1 : Operation 28 [1/1] (0.92ns)   --->   "store i8 %tmp_keep_V_36, i8* @ei_prevWord_keep_V, align 8" [/home/paulrr2/Projects/ece527/babelsoc/fpga-network-stack/hls/rocev2/../axi_utils.hpp:50->/home/paulrr2/Projects/ece527/babelsoc/fpga-network-stack/hls/rocev2/rocev2.cpp:88]   --->   Operation 28 'store' <Predicate = (ei_state_load == 1 & tmp_135)> <Delay = 0.92>
ST_1 : Operation 29 [1/1] (0.85ns)   --->   "br label %._crit_edge1.i" [/home/paulrr2/Projects/ece527/babelsoc/fpga-network-stack/hls/rocev2/rocev2.cpp:89]   --->   Operation 29 'br' <Predicate = (ei_state_load == 1 & tmp_135)> <Delay = 0.85>
ST_1 : Operation 30 [1/1] (0.00ns)   --->   "%tmp = call i1 @_ssdm_op_NbReadReq.axis.i64P.i8P.i1P(i64* %input_V_data_V, i8* %input_V_keep_V, i1* %input_V_last_V, i32 1)" [/home/paulrr2/Projects/ece527/babelsoc/fpga-network-stack/hls/rocev2/rocev2.cpp:56]   --->   Operation 30 'nbreadreq' 'tmp' <Predicate = (ei_state_load == 0)> <Delay = 0.00> <Core = "AXI4Stream">   --->   Core 5 'AXI4Stream' <Latency = 0> <II = 1> <Delay = 1.00> <Adapter> <Opcode : >
ST_1 : Operation 31 [1/1] (0.85ns)   --->   "br i1 %tmp, label %._crit_edge3.i, label %._crit_edge1.i" [/home/paulrr2/Projects/ece527/babelsoc/fpga-network-stack/hls/rocev2/rocev2.cpp:56]   --->   Operation 31 'br' <Predicate = (ei_state_load == 0)> <Delay = 0.85>
ST_1 : Operation 32 [1/1] (0.00ns)   --->   "%empty = call { i64, i8, i1 } @_ssdm_op_Read.axis.volatile.i64P.i8P.i1P(i64* %input_V_data_V, i8* %input_V_keep_V, i1* %input_V_last_V)" [/home/paulrr2/Projects/ece527/babelsoc/fpga-network-stack/hls/rocev2/rocev2.cpp:58]   --->   Operation 32 'read' 'empty' <Predicate = (ei_state_load == 0 & tmp)> <Delay = 0.00> <Core = "AXI4Stream">   --->   Core 5 'AXI4Stream' <Latency = 0> <II = 1> <Delay = 1.00> <Adapter> <Opcode : >
ST_1 : Operation 33 [1/1] (0.00ns)   --->   "%tmp_data_V = extractvalue { i64, i8, i1 } %empty, 0" [/home/paulrr2/Projects/ece527/babelsoc/fpga-network-stack/hls/rocev2/rocev2.cpp:58]   --->   Operation 33 'extractvalue' 'tmp_data_V' <Predicate = (ei_state_load == 0 & tmp)> <Delay = 0.00>
ST_1 : Operation 34 [1/1] (0.00ns)   --->   "%tmp_keep_V = extractvalue { i64, i8, i1 } %empty, 1" [/home/paulrr2/Projects/ece527/babelsoc/fpga-network-stack/hls/rocev2/rocev2.cpp:58]   --->   Operation 34 'extractvalue' 'tmp_keep_V' <Predicate = (ei_state_load == 0 & tmp)> <Delay = 0.00>
ST_1 : Operation 35 [1/1] (0.00ns)   --->   "%tmp_last_V = extractvalue { i64, i8, i1 } %empty, 2" [/home/paulrr2/Projects/ece527/babelsoc/fpga-network-stack/hls/rocev2/rocev2.cpp:58]   --->   Operation 35 'extractvalue' 'tmp_last_V' <Predicate = (ei_state_load == 0 & tmp)> <Delay = 0.00>
ST_1 : Operation 36 [1/1] (0.85ns)   --->   "store i64 %tmp_data_V, i64* @ei_prevWord_data_V, align 8" [/home/paulrr2/Projects/ece527/babelsoc/fpga-network-stack/hls/rocev2/../axi_utils.hpp:50->/home/paulrr2/Projects/ece527/babelsoc/fpga-network-stack/hls/rocev2/rocev2.cpp:59]   --->   Operation 36 'store' <Predicate = (ei_state_load == 0 & tmp)> <Delay = 0.85>
ST_1 : Operation 37 [1/1] (0.92ns)   --->   "store i8 %tmp_keep_V, i8* @ei_prevWord_keep_V, align 8" [/home/paulrr2/Projects/ece527/babelsoc/fpga-network-stack/hls/rocev2/../axi_utils.hpp:50->/home/paulrr2/Projects/ece527/babelsoc/fpga-network-stack/hls/rocev2/rocev2.cpp:59]   --->   Operation 37 'store' <Predicate = (ei_state_load == 0 & tmp)> <Delay = 0.92>
ST_1 : Operation 38 [1/1] (0.49ns)   --->   "%select_ln61 = select i1 %tmp_last_V, i2 -2, i2 1" [/home/paulrr2/Projects/ece527/babelsoc/fpga-network-stack/hls/rocev2/rocev2.cpp:61]   --->   Operation 38 'select' 'select_ln61' <Predicate = (ei_state_load == 0 & tmp)> <Delay = 0.49> <Core = "Sel">   --->   Core 26 'Sel' <Latency = 0> <II = 1> <Delay = 0.49> <FuncUnit> <Opcode : 'select'> <InPorts = 3> <OutPorts = 1>
ST_1 : Operation 39 [1/1] (0.92ns)   --->   "store i2 %select_ln61, i2* @ei_state, align 1" [/home/paulrr2/Projects/ece527/babelsoc/fpga-network-stack/hls/rocev2/rocev2.cpp:60]   --->   Operation 39 'store' <Predicate = (ei_state_load == 0 & tmp)> <Delay = 0.92>
ST_1 : Operation 40 [1/1] (0.85ns)   --->   "br label %._crit_edge1.i" [/home/paulrr2/Projects/ece527/babelsoc/fpga-network-stack/hls/rocev2/rocev2.cpp:65]   --->   Operation 40 'br' <Predicate = (ei_state_load == 0 & tmp)> <Delay = 0.85>

State 2 <SV = 1> <Delay = 2.39>
ST_2 : Operation 41 [1/1] (0.00ns)   --->   "call void (...)* @_ssdm_op_SpecInterface(i64* @rx_crc2ipFifo_V_data, [8 x i8]* @ap_fifo_str, i32 0, i32 0, [1 x i8]* @p_str, i32 0, i32 0, [1 x i8]* @p_str, [1 x i8]* @p_str, [1 x i8]* @p_str, i32 2, i32 2, i32 16, i32 16, [1 x i8]* @p_str, [1 x i8]* @p_str)"   --->   Operation 41 'specinterface' <Predicate = true> <Delay = 0.00>
ST_2 : Operation 42 [1/1] (0.00ns)   --->   "call void (...)* @_ssdm_op_SpecInterface(i8* @rx_crc2ipFifo_V_keep, [8 x i8]* @ap_fifo_str, i32 0, i32 0, [1 x i8]* @p_str, i32 0, i32 0, [1 x i8]* @p_str, [1 x i8]* @p_str, [1 x i8]* @p_str, i32 2, i32 2, i32 16, i32 16, [1 x i8]* @p_str, [1 x i8]* @p_str)"   --->   Operation 42 'specinterface' <Predicate = true> <Delay = 0.00>
ST_2 : Operation 43 [1/1] (0.00ns)   --->   "call void (...)* @_ssdm_op_SpecInterface(i1* @rx_crc2ipFifo_V_last, [8 x i8]* @ap_fifo_str, i32 0, i32 0, [1 x i8]* @p_str, i32 0, i32 0, [1 x i8]* @p_str, [1 x i8]* @p_str, [1 x i8]* @p_str, i32 2, i32 2, i32 16, i32 16, [1 x i8]* @p_str, [1 x i8]* @p_str)"   --->   Operation 43 'specinterface' <Predicate = true> <Delay = 0.00>
ST_2 : Operation 44 [1/1] (0.00ns)   --->   "call void (...)* @_ssdm_op_SpecInterface(i64* %input_V_data_V, i8* %input_V_keep_V, i1* %input_V_last_V, [5 x i8]* @p_str3, i32 1, i32 1, [5 x i8]* @p_str4, i32 0, i32 0, [1 x i8]* @p_str, [1 x i8]* @p_str, [1 x i8]* @p_str, i32 0, i32 0, i32 0, i32 0, [1 x i8]* @p_str, [1 x i8]* @p_str) nounwind"   --->   Operation 44 'specinterface' <Predicate = true> <Delay = 0.00>
ST_2 : Operation 45 [1/1] (0.00ns)   --->   "call void (...)* @_ssdm_op_SpecPipeline(i32 1, i32 1, i32 1, i32 0, [1 x i8]* @p_str) nounwind" [/home/paulrr2/Projects/ece527/babelsoc/fpga-network-stack/hls/rocev2/rocev2.cpp:45]   --->   Operation 45 'specpipeline' <Predicate = true> <Delay = 0.00>
ST_2 : Operation 46 [1/1] (0.00ns)   --->   "%tmp_keep_V_34 = phi i8 [ 15, %4 ], [ %tmp_keep_V_35, %3 ]"   --->   Operation 46 'phi' 'tmp_keep_V_34' <Predicate = (ei_state_load == 2)> <Delay = 0.00>
ST_2 : Operation 47 [1/1] (2.39ns)   --->   "call void @_ssdm_op_Write.ap_fifo.volatile.i64P.i8P.i1P(i64* @rx_crc2ipFifo_V_data, i8* @rx_crc2ipFifo_V_keep, i1* @rx_crc2ipFifo_V_last, i64 %tmp_data_V_43, i8 %tmp_keep_V_34, i1 %tmp_last_V_33)" [/home/paulrr2/Projects/ece527/babelsoc/fpga-network-stack/hls/rocev2/rocev2.cpp:160]   --->   Operation 47 'write' <Predicate = (ei_state_load == 2)> <Delay = 2.39> <Core = "FIFO">   --->   Core 32 'FIFO' <Latency = 0> <II = 1> <Delay = 2.39> <Storage> <Opcode : 'read' 'write' 'nbread' 'nbwrite'> <Ports = 0> <Width = 64> <Depth = 2> <FIFO>
ST_2 : Operation 48 [1/1] (0.00ns)   --->   "%tmp_last_V_34 = phi i1 [ %or_ln73, %._crit_edge6.i ], [ %tmp_last_V_33, %2 ]"   --->   Operation 48 'phi' 'tmp_last_V_34' <Predicate = (ei_state_load == 1 & tmp_135)> <Delay = 0.00>
ST_2 : Operation 49 [1/1] (2.39ns)   --->   "call void @_ssdm_op_Write.ap_fifo.volatile.i64P.i8P.i1P(i64* @rx_crc2ipFifo_V_data, i8* @rx_crc2ipFifo_V_keep, i1* @rx_crc2ipFifo_V_last, i64 %tmp_data_V_43, i8 %tmp_keep_V_35, i1 %tmp_last_V_34)" [/home/paulrr2/Projects/ece527/babelsoc/fpga-network-stack/hls/rocev2/rocev2.cpp:87]   --->   Operation 49 'write' <Predicate = (ei_state_load == 1 & tmp_135)> <Delay = 2.39> <Core = "FIFO">   --->   Core 32 'FIFO' <Latency = 0> <II = 1> <Delay = 2.39> <Storage> <Opcode : 'read' 'write' 'nbread' 'nbwrite'> <Ports = 0> <Width = 64> <Depth = 2> <FIFO>
ST_2 : Operation 50 [1/1] (0.00ns)   --->   "%ei_prevWord_last_V_f = phi i1 [ false, %entry ], [ false, %._crit_edge7.i ], [ true, %._crit_edge3.i ], [ false, %0 ], [ true, %._crit_edge5.i ], [ false, %1 ]"   --->   Operation 50 'phi' 'ei_prevWord_last_V_f' <Predicate = true> <Delay = 0.00>
ST_2 : Operation 51 [1/1] (0.00ns)   --->   "%ei_prevWord_last_V_n = phi i1 [ undef, %entry ], [ undef, %._crit_edge7.i ], [ %tmp_last_V, %._crit_edge3.i ], [ undef, %0 ], [ %tmp_last_V_32, %._crit_edge5.i ], [ undef, %1 ]"   --->   Operation 51 'phi' 'ei_prevWord_last_V_n' <Predicate = true> <Delay = 0.00>
ST_2 : Operation 52 [1/1] (0.00ns)   --->   "br i1 %ei_prevWord_last_V_f, label %mergeST.i, label %"extract_icrc<64>.exit""   --->   Operation 52 'br' <Predicate = true> <Delay = 0.00>
ST_2 : Operation 53 [1/1] (0.00ns)   --->   "store i1 %ei_prevWord_last_V_n, i1* @ei_prevWord_last_V, align 1" [/home/paulrr2/Projects/ece527/babelsoc/fpga-network-stack/hls/rocev2/../axi_utils.hpp:50->/home/paulrr2/Projects/ece527/babelsoc/fpga-network-stack/hls/rocev2/rocev2.cpp:59]   --->   Operation 53 'store' <Predicate = (ei_prevWord_last_V_f)> <Delay = 0.00>
ST_2 : Operation 54 [1/1] (0.00ns)   --->   "br label %"extract_icrc<64>.exit""   --->   Operation 54 'br' <Predicate = (ei_prevWord_last_V_f)> <Delay = 0.00>
ST_2 : Operation 55 [1/1] (0.00ns)   --->   "ret void"   --->   Operation 55 'ret' <Predicate = true> <Delay = 0.00>


============================================================
+ Verbose Summary: Timing violations
============================================================
Target clock period: 6.4ns, clock uncertainty: 0.8ns.

 <State 1>: 1.83ns
The critical path consists of the following:
	'icmp' operation ('icmp_ln93', /home/paulrr2/Projects/ece527/babelsoc/fpga-network-stack/hls/rocev2/rocev2.cpp:93) [26]  (0.861 ns)
	multiplexor before 'phi' operation ('__Val2__') with incoming values : ('__Val2__', /home/paulrr2/Projects/ece527/babelsoc/fpga-network-stack/hls/rocev2/rocev2.cpp:87) [32]  (0.85 ns)
	blocking operation 0.12 ns on control path)

 <State 2>: 2.39ns
The critical path consists of the following:
	'phi' operation ('__Val2__') with incoming values : ('__Val2__', /home/paulrr2/Projects/ece527/babelsoc/fpga-network-stack/hls/rocev2/rocev2.cpp:87) [32]  (0 ns)
	fifo write on port 'rx_crc2ipFifo_V_data' (/home/paulrr2/Projects/ece527/babelsoc/fpga-network-stack/hls/rocev2/rocev2.cpp:160) [33]  (2.39 ns)


============================================================
+ Verbose Summary: Binding
============================================================
N/A
* FSMD analyzer results:
  - Output states:
 - Input state : 
  - Chain level:
	State 1
	State 2


============================================================
+ Verbose Summary: Datapath Resource usage 
============================================================
N/A
