

================================================================
== Vivado HLS Report for 'generate_ibh_64_s'
================================================================
* Date:           Sat Dec 12 19:41:11 2020

* Version:        2019.2.1 (Build 2724168 on Thu Dec 05 05:19:09 MST 2019)
* Project:        rocev2_prj
* Solution:       solution1
* Product family: virtex7
* Target device:  xc7vx690t-ffg1761-2


================================================================
== Performance Estimates
================================================================
+ Timing: 
    * Summary: 
    +--------+---------+----------+------------+
    |  Clock |  Target | Estimated| Uncertainty|
    +--------+---------+----------+------------+
    |ap_clk  | 6.40 ns | 4.729 ns |   0.80 ns  |
    +--------+---------+----------+------------+

+ Latency: 
    * Summary: 
    +---------+---------+----------+----------+-----+-----+----------+
    |  Latency (cycles) |  Latency (absolute) |  Interval | Pipeline |
    |   min   |   max   |    min   |    max   | min | max |   Type   |
    +---------+---------+----------+----------+-----+-----+----------+
    |        1|        1| 6.400 ns | 6.400 ns |    1|    1| function |
    +---------+---------+----------+----------+-----+-----+----------+

    + Detail: 
        * Instance: 
        N/A

        * Loop: 
        N/A

============================================================
+ Verbose Summary: Synthesis Manager
============================================================
InlineROM: 1
ExposeGlobal: 0
============================================================
+ Verbose Summary: CDFG Model
============================================================
IsTopModel: 0
ResetActiveHigh: 1
IsCombinational: 2
IsDatapathOnly: 0
HasWiredReturn: 1
HasMFsm: 2
HasVarLatency: 0
IsPipeline: 1
IsRtlPipelined: 1
IsInstanceOverlapped: 0
IsDontTouch: 0
HasImplIP: 0
IsGatedGlobalClock: 0

+ Individual pipeline summary: 
  * Pipeline-0: initiation interval (II) = 1, depth = 2


============================================================
+ Verbose Summary: Schedule
============================================================
* Number of FSM states : 2
* Pipeline : 1
  Pipeline-0 : II = 1, D = 2, States = { 1 2 }
* Dataflow Pipeline: 0

* FSM state transitions: 
1 --> 2 
2 --> 

* FSM state operations: 

State 1 <SV = 0> <Delay = 4.72>
ST_1 : Operation 3 [1/1] (0.00ns)   --->   "%gi_state_1_load = load i1* @gi_state_1, align 1" [/home/paulrr2/Projects/ece527/babelsoc/fpga-network-stack/hls/rocev2/../ib_transport_protocol/ib_transport_protocol.cpp:927]   --->   Operation 3 'load' 'gi_state_1_load' <Predicate = true> <Delay = 0.00>
ST_1 : Operation 4 [1/1] (0.00ns)   --->   "%meta_op_code_7_load = load i5* @meta_op_code_7, align 1" [/home/paulrr2/Projects/ece527/babelsoc/fpga-network-stack/hls/rocev2/../ib_transport_protocol/ib_transport_protocol.cpp:937]   --->   Operation 4 'load' 'meta_op_code_7_load' <Predicate = true> <Delay = 0.00>
ST_1 : Operation 5 [1/1] (0.00ns)   --->   "br i1 %gi_state_1_load, label %6, label %0" [/home/paulrr2/Projects/ece527/babelsoc/fpga-network-stack/hls/rocev2/../ib_transport_protocol/ib_transport_protocol.cpp:927]   --->   Operation 5 'br' <Predicate = true> <Delay = 0.00>
ST_1 : Operation 6 [1/1] (0.00ns)   --->   "%tmp_15 = call i1 @_ssdm_op_NbReadReq.ap_fifo.i5P.i16P.i24P.i24P.i1P.i22P(i5* @tx_ibhMetaFifo_V_op_s, i16* @tx_ibhMetaFifo_V_par, i24* @tx_ibhMetaFifo_V_des, i24* @tx_ibhMetaFifo_V_psn, i1* @tx_ibhMetaFifo_V_val, i22* @tx_ibhMetaFifo_V_num, i32 1) nounwind" [/home/paulrr2/Projects/ece527/babelsoc/fpga-network-stack/hls/rocev2/../ib_transport_protocol/ib_transport_protocol.cpp:930]   --->   Operation 6 'nbreadreq' 'tmp_15' <Predicate = (!gi_state_1_load)> <Delay = 0.00> <Core = "FIFO">   --->   Core 32 'FIFO' <Latency = 0> <II = 1> <Delay = 2.39> <Storage> <Opcode : 'read' 'write' 'nbread' 'nbwrite'> <Ports = 0> <Width = 113> <Depth = 2> <FIFO>
ST_1 : Operation 7 [1/1] (0.00ns)   --->   "br i1 %tmp_15, label %1, label %._crit_edge3.i" [/home/paulrr2/Projects/ece527/babelsoc/fpga-network-stack/hls/rocev2/../ib_transport_protocol/ib_transport_protocol.cpp:930]   --->   Operation 7 'br' <Predicate = (!gi_state_1_load)> <Delay = 0.00>
ST_1 : Operation 8 [1/1] (0.00ns)   --->   "%tmp_16 = call i1 @_ssdm_op_NbReadReq.ap_fifo.i24P(i24* @tx_dstQpFifo_V_V, i32 1) nounwind" [/home/paulrr2/Projects/ece527/babelsoc/fpga-network-stack/hls/rocev2/../ib_transport_protocol/ib_transport_protocol.cpp:930]   --->   Operation 8 'nbreadreq' 'tmp_16' <Predicate = (!gi_state_1_load & tmp_15)> <Delay = 0.00> <Core = "FIFO">   --->   Core 32 'FIFO' <Latency = 0> <II = 1> <Delay = 2.39> <Storage> <Opcode : 'read' 'write' 'nbread' 'nbwrite'> <Ports = 0> <Width = 113> <Depth = 2> <FIFO>
ST_1 : Operation 9 [1/1] (0.00ns)   --->   "br i1 %tmp_16, label %2, label %._crit_edge3.i" [/home/paulrr2/Projects/ece527/babelsoc/fpga-network-stack/hls/rocev2/../ib_transport_protocol/ib_transport_protocol.cpp:930]   --->   Operation 9 'br' <Predicate = (!gi_state_1_load & tmp_15)> <Delay = 0.00>
ST_1 : Operation 10 [1/1] (2.39ns)   --->   "%empty = call { i5, i16, i24, i24, i1, i22 } @_ssdm_op_Read.ap_fifo.volatile.i5P.i16P.i24P.i24P.i1P.i22P(i5* @tx_ibhMetaFifo_V_op_s, i16* @tx_ibhMetaFifo_V_par, i24* @tx_ibhMetaFifo_V_des, i24* @tx_ibhMetaFifo_V_psn, i1* @tx_ibhMetaFifo_V_val, i22* @tx_ibhMetaFifo_V_num) nounwind" [/home/paulrr2/Projects/ece527/babelsoc/fpga-network-stack/hls/rocev2/../ib_transport_protocol/ib_transport_protocol.cpp:932]   --->   Operation 10 'read' 'empty' <Predicate = (!gi_state_1_load & tmp_15 & tmp_16)> <Delay = 2.39> <Core = "FIFO">   --->   Core 32 'FIFO' <Latency = 0> <II = 1> <Delay = 2.39> <Storage> <Opcode : 'read' 'write' 'nbread' 'nbwrite'> <Ports = 0> <Width = 113> <Depth = 2> <FIFO>
ST_1 : Operation 11 [1/1] (0.00ns)   --->   "%tmp_op_code = extractvalue { i5, i16, i24, i24, i1, i22 } %empty, 0" [/home/paulrr2/Projects/ece527/babelsoc/fpga-network-stack/hls/rocev2/../ib_transport_protocol/ib_transport_protocol.cpp:932]   --->   Operation 11 'extractvalue' 'tmp_op_code' <Predicate = (!gi_state_1_load & tmp_15 & tmp_16)> <Delay = 0.00>
ST_1 : Operation 12 [1/1] (0.00ns)   --->   "%tmp_dest_qp_V = extractvalue { i5, i16, i24, i24, i1, i22 } %empty, 2" [/home/paulrr2/Projects/ece527/babelsoc/fpga-network-stack/hls/rocev2/../ib_transport_protocol/ib_transport_protocol.cpp:932]   --->   Operation 12 'extractvalue' 'tmp_dest_qp_V' <Predicate = (!gi_state_1_load & tmp_15 & tmp_16)> <Delay = 0.00>
ST_1 : Operation 13 [1/1] (0.00ns)   --->   "%tmp_psn_V_8 = extractvalue { i5, i16, i24, i24, i1, i22 } %empty, 3" [/home/paulrr2/Projects/ece527/babelsoc/fpga-network-stack/hls/rocev2/../ib_transport_protocol/ib_transport_protocol.cpp:932]   --->   Operation 13 'extractvalue' 'tmp_psn_V_8' <Predicate = (!gi_state_1_load & tmp_15 & tmp_16)> <Delay = 0.00>
ST_1 : Operation 14 [1/1] (0.00ns)   --->   "%tmp_validPSN = extractvalue { i5, i16, i24, i24, i1, i22 } %empty, 4" [/home/paulrr2/Projects/ece527/babelsoc/fpga-network-stack/hls/rocev2/../ib_transport_protocol/ib_transport_protocol.cpp:932]   --->   Operation 14 'extractvalue' 'tmp_validPSN' <Predicate = (!gi_state_1_load & tmp_15 & tmp_16)> <Delay = 0.00>
ST_1 : Operation 15 [1/1] (0.00ns)   --->   "%tmp_numPkg_V = extractvalue { i5, i16, i24, i24, i1, i22 } %empty, 5" [/home/paulrr2/Projects/ece527/babelsoc/fpga-network-stack/hls/rocev2/../ib_transport_protocol/ib_transport_protocol.cpp:932]   --->   Operation 15 'extractvalue' 'tmp_numPkg_V' <Predicate = (!gi_state_1_load & tmp_15 & tmp_16)> <Delay = 0.00>
ST_1 : Operation 16 [1/1] (0.00ns)   --->   "store i5 %tmp_op_code, i5* @meta_op_code_7, align 4" [/home/paulrr2/Projects/ece527/babelsoc/fpga-network-stack/hls/rocev2/../ib_transport_protocol/ib_transport_protocol.hpp:380->/home/paulrr2/Projects/ece527/babelsoc/fpga-network-stack/hls/rocev2/../ib_transport_protocol/ib_transport_protocol.cpp:932]   --->   Operation 16 'store' <Predicate = (!gi_state_1_load & tmp_15 & tmp_16)> <Delay = 0.00>
ST_1 : Operation 17 [1/1] (0.00ns)   --->   "store i22 %tmp_numPkg_V, i22* @meta_numPkg_V_1, align 4" [/home/paulrr2/Projects/ece527/babelsoc/fpga-network-stack/hls/rocev2/../ib_transport_protocol/ib_transport_protocol.hpp:380->/home/paulrr2/Projects/ece527/babelsoc/fpga-network-stack/hls/rocev2/../ib_transport_protocol/ib_transport_protocol.cpp:932]   --->   Operation 17 'store' <Predicate = (!gi_state_1_load & tmp_15 & tmp_16)> <Delay = 0.00>
ST_1 : Operation 18 [1/1] (2.39ns)   --->   "%tmp_V = call i24 @_ssdm_op_Read.ap_fifo.volatile.i24P(i24* @tx_dstQpFifo_V_V) nounwind" [/home/paulrr2/Projects/ece527/babelsoc/fpga-network-stack/hls/rocev2/../ib_transport_protocol/ib_transport_protocol.cpp:933]   --->   Operation 18 'read' 'tmp_V' <Predicate = (!gi_state_1_load & tmp_15 & tmp_16)> <Delay = 2.39> <Core = "FIFO">   --->   Core 32 'FIFO' <Latency = 0> <II = 1> <Delay = 2.39> <Storage> <Opcode : 'read' 'write' 'nbread' 'nbwrite'> <Ports = 0> <Width = 113> <Depth = 2> <FIFO>
ST_1 : Operation 19 [1/1] (0.00ns)   --->   "%p_Val2_44 = load i96* @header_header_V, align 8" [/home/paulrr2/Projects/ece527/babelsoc/fpga-network-stack/hls/rocev2/../ib_transport_protocol/ib_transport_protocol.hpp:344->/home/paulrr2/Projects/ece527/babelsoc/fpga-network-stack/hls/rocev2/../ib_transport_protocol/ib_transport_protocol.cpp:937]   --->   Operation 19 'load' 'p_Val2_44' <Predicate = (!gi_state_1_load & tmp_15 & tmp_16)> <Delay = 0.00>
ST_1 : Operation 20 [1/1] (0.00ns)   --->   "%zext_ln240 = zext i5 %tmp_op_code to i8" [/home/paulrr2/Projects/ece527/babelsoc/fpga-network-stack/hls/rocev2/../ib_transport_protocol/ib_transport_protocol.hpp:344->/home/paulrr2/Projects/ece527/babelsoc/fpga-network-stack/hls/rocev2/../ib_transport_protocol/ib_transport_protocol.cpp:937]   --->   Operation 20 'zext' 'zext_ln240' <Predicate = (!gi_state_1_load & tmp_15 & tmp_16)> <Delay = 0.00>
ST_1 : Operation 21 [1/1] (0.00ns)   --->   "%p_Result_62 = call i96 @llvm.part.set.i96.i8(i96 %p_Val2_44, i8 %zext_ln240, i32 0, i32 7) nounwind" [/home/paulrr2/Projects/ece527/babelsoc/fpga-network-stack/hls/rocev2/../ib_transport_protocol/ib_transport_protocol.hpp:344->/home/paulrr2/Projects/ece527/babelsoc/fpga-network-stack/hls/rocev2/../ib_transport_protocol/ib_transport_protocol.cpp:937]   --->   Operation 21 'partset' 'p_Result_62' <Predicate = (!gi_state_1_load & tmp_15 & tmp_16)> <Delay = 0.00>
ST_1 : Operation 22 [1/1] (0.00ns)   --->   "%p_Result_63 = call i96 @llvm.part.set.i96.i16(i96 %p_Result_62, i16 -1, i32 16, i32 31) nounwind" [/home/paulrr2/Projects/ece527/babelsoc/fpga-network-stack/hls/rocev2/../ib_transport_protocol/ib_transport_protocol.hpp:352->/home/paulrr2/Projects/ece527/babelsoc/fpga-network-stack/hls/rocev2/../ib_transport_protocol/ib_transport_protocol.cpp:938]   --->   Operation 22 'partset' 'p_Result_63' <Predicate = (!gi_state_1_load & tmp_15 & tmp_16)> <Delay = 0.00>
ST_1 : Operation 23 [1/1] (0.00ns)   --->   "%p_Result_69_i_i_i = call i8 @_ssdm_op_PartSelect.i8.i24.i32.i32(i24 %tmp_psn_V_8, i32 16, i32 23) nounwind" [/home/paulrr2/Projects/ece527/babelsoc/fpga-network-stack/hls/rocev2/../ib_transport_protocol/../axi_utils.hpp:79->/home/paulrr2/Projects/ece527/babelsoc/fpga-network-stack/hls/rocev2/../ib_transport_protocol/ib_transport_protocol.hpp:360->/home/paulrr2/Projects/ece527/babelsoc/fpga-network-stack/hls/rocev2/../ib_transport_protocol/ib_transport_protocol.cpp:940]   --->   Operation 23 'partselect' 'p_Result_69_i_i_i' <Predicate = (!gi_state_1_load & tmp_15 & tmp_16)> <Delay = 0.00>
ST_1 : Operation 24 [1/1] (0.00ns)   --->   "%p_Result_69_1_i_i_s = call i8 @_ssdm_op_PartSelect.i8.i24.i32.i32(i24 %tmp_psn_V_8, i32 8, i32 15) nounwind" [/home/paulrr2/Projects/ece527/babelsoc/fpga-network-stack/hls/rocev2/../ib_transport_protocol/../axi_utils.hpp:79->/home/paulrr2/Projects/ece527/babelsoc/fpga-network-stack/hls/rocev2/../ib_transport_protocol/ib_transport_protocol.hpp:360->/home/paulrr2/Projects/ece527/babelsoc/fpga-network-stack/hls/rocev2/../ib_transport_protocol/ib_transport_protocol.cpp:940]   --->   Operation 24 'partselect' 'p_Result_69_1_i_i_s' <Predicate = (!gi_state_1_load & tmp_15 & tmp_16)> <Delay = 0.00>
ST_1 : Operation 25 [1/1] (0.00ns)   --->   "%trunc_ln647_14 = trunc i24 %tmp_psn_V_8 to i8" [/home/paulrr2/Projects/ece527/babelsoc/fpga-network-stack/hls/rocev2/../ib_transport_protocol/../axi_utils.hpp:79->/home/paulrr2/Projects/ece527/babelsoc/fpga-network-stack/hls/rocev2/../ib_transport_protocol/ib_transport_protocol.hpp:360->/home/paulrr2/Projects/ece527/babelsoc/fpga-network-stack/hls/rocev2/../ib_transport_protocol/ib_transport_protocol.cpp:940]   --->   Operation 25 'trunc' 'trunc_ln647_14' <Predicate = (!gi_state_1_load & tmp_15 & tmp_16)> <Delay = 0.00>
ST_1 : Operation 26 [1/1] (0.00ns)   --->   "%agg_result_V_0_2_i_i = call i24 @_ssdm_op_BitConcatenate.i24.i8.i8.i8(i8 %trunc_ln647_14, i8 %p_Result_69_1_i_i_s, i8 %p_Result_69_i_i_i) nounwind" [/home/paulrr2/Projects/ece527/babelsoc/fpga-network-stack/hls/rocev2/../ib_transport_protocol/../axi_utils.hpp:79->/home/paulrr2/Projects/ece527/babelsoc/fpga-network-stack/hls/rocev2/../ib_transport_protocol/ib_transport_protocol.hpp:360->/home/paulrr2/Projects/ece527/babelsoc/fpga-network-stack/hls/rocev2/../ib_transport_protocol/ib_transport_protocol.cpp:940]   --->   Operation 26 'bitconcatenate' 'agg_result_V_0_2_i_i' <Predicate = (!gi_state_1_load & tmp_15 & tmp_16)> <Delay = 0.00>
ST_1 : Operation 27 [1/1] (0.00ns)   --->   "%p_Result_64 = call i96 @llvm.part.set.i96.i24(i96 %p_Result_63, i24 %agg_result_V_0_2_i_i, i32 72, i32 95) nounwind" [/home/paulrr2/Projects/ece527/babelsoc/fpga-network-stack/hls/rocev2/../ib_transport_protocol/ib_transport_protocol.hpp:360->/home/paulrr2/Projects/ece527/babelsoc/fpga-network-stack/hls/rocev2/../ib_transport_protocol/ib_transport_protocol.cpp:940]   --->   Operation 27 'partset' 'p_Result_64' <Predicate = (!gi_state_1_load & tmp_15 & tmp_16)> <Delay = 0.00>
ST_1 : Operation 28 [1/1] (0.00ns)   --->   "%p_Result_69_i_i2 = call i8 @_ssdm_op_PartSelect.i8.i24.i32.i32(i24 %tmp_V, i32 16, i32 23) nounwind" [/home/paulrr2/Projects/ece527/babelsoc/fpga-network-stack/hls/rocev2/../ib_transport_protocol/../axi_utils.hpp:79->/home/paulrr2/Projects/ece527/babelsoc/fpga-network-stack/hls/rocev2/../ib_transport_protocol/ib_transport_protocol.hpp:368->/home/paulrr2/Projects/ece527/babelsoc/fpga-network-stack/hls/rocev2/../ib_transport_protocol/ib_transport_protocol.cpp:941]   --->   Operation 28 'partselect' 'p_Result_69_i_i2' <Predicate = (!gi_state_1_load & tmp_15 & tmp_16)> <Delay = 0.00>
ST_1 : Operation 29 [1/1] (0.00ns)   --->   "%p_Result_69_1_i_i1 = call i8 @_ssdm_op_PartSelect.i8.i24.i32.i32(i24 %tmp_V, i32 8, i32 15) nounwind" [/home/paulrr2/Projects/ece527/babelsoc/fpga-network-stack/hls/rocev2/../ib_transport_protocol/../axi_utils.hpp:79->/home/paulrr2/Projects/ece527/babelsoc/fpga-network-stack/hls/rocev2/../ib_transport_protocol/ib_transport_protocol.hpp:368->/home/paulrr2/Projects/ece527/babelsoc/fpga-network-stack/hls/rocev2/../ib_transport_protocol/ib_transport_protocol.cpp:941]   --->   Operation 29 'partselect' 'p_Result_69_1_i_i1' <Predicate = (!gi_state_1_load & tmp_15 & tmp_16)> <Delay = 0.00>
ST_1 : Operation 30 [1/1] (0.00ns)   --->   "%trunc_ln647_15 = trunc i24 %tmp_V to i8" [/home/paulrr2/Projects/ece527/babelsoc/fpga-network-stack/hls/rocev2/../ib_transport_protocol/../axi_utils.hpp:79->/home/paulrr2/Projects/ece527/babelsoc/fpga-network-stack/hls/rocev2/../ib_transport_protocol/ib_transport_protocol.hpp:368->/home/paulrr2/Projects/ece527/babelsoc/fpga-network-stack/hls/rocev2/../ib_transport_protocol/ib_transport_protocol.cpp:941]   --->   Operation 30 'trunc' 'trunc_ln647_15' <Predicate = (!gi_state_1_load & tmp_15 & tmp_16)> <Delay = 0.00>
ST_1 : Operation 31 [1/1] (0.00ns)   --->   "%agg_result_V_0_2_i_i_1 = call i24 @_ssdm_op_BitConcatenate.i24.i8.i8.i8(i8 %trunc_ln647_15, i8 %p_Result_69_1_i_i1, i8 %p_Result_69_i_i2) nounwind" [/home/paulrr2/Projects/ece527/babelsoc/fpga-network-stack/hls/rocev2/../ib_transport_protocol/../axi_utils.hpp:79->/home/paulrr2/Projects/ece527/babelsoc/fpga-network-stack/hls/rocev2/../ib_transport_protocol/ib_transport_protocol.hpp:368->/home/paulrr2/Projects/ece527/babelsoc/fpga-network-stack/hls/rocev2/../ib_transport_protocol/ib_transport_protocol.cpp:941]   --->   Operation 31 'bitconcatenate' 'agg_result_V_0_2_i_i_1' <Predicate = (!gi_state_1_load & tmp_15 & tmp_16)> <Delay = 0.00>
ST_1 : Operation 32 [1/1] (0.00ns)   --->   "%p_Result_65 = call i96 @llvm.part.set.i96.i24(i96 %p_Result_64, i24 %agg_result_V_0_2_i_i_1, i32 40, i32 63) nounwind" [/home/paulrr2/Projects/ece527/babelsoc/fpga-network-stack/hls/rocev2/../ib_transport_protocol/ib_transport_protocol.hpp:368->/home/paulrr2/Projects/ece527/babelsoc/fpga-network-stack/hls/rocev2/../ib_transport_protocol/ib_transport_protocol.cpp:941]   --->   Operation 32 'partset' 'p_Result_65' <Predicate = (!gi_state_1_load & tmp_15 & tmp_16)> <Delay = 0.00>
ST_1 : Operation 33 [1/1] (0.92ns)   --->   "store i96 %p_Result_65, i96* @header_header_V, align 8" [/home/paulrr2/Projects/ece527/babelsoc/fpga-network-stack/hls/rocev2/../ib_transport_protocol/ib_transport_protocol.hpp:368->/home/paulrr2/Projects/ece527/babelsoc/fpga-network-stack/hls/rocev2/../ib_transport_protocol/ib_transport_protocol.cpp:941]   --->   Operation 33 'store' <Predicate = (!gi_state_1_load & tmp_15 & tmp_16)> <Delay = 0.92>
ST_1 : Operation 34 [1/1] (0.00ns)   --->   "br i1 %tmp_validPSN, label %3, label %4" [/home/paulrr2/Projects/ece527/babelsoc/fpga-network-stack/hls/rocev2/../ib_transport_protocol/ib_transport_protocol.cpp:942]   --->   Operation 34 'br' <Predicate = (!gi_state_1_load & tmp_15 & tmp_16)> <Delay = 0.00>
ST_1 : Operation 35 [1/1] (0.85ns)   --->   "store i1 true, i1* @gi_state_1, align 1" [/home/paulrr2/Projects/ece527/babelsoc/fpga-network-stack/hls/rocev2/../ib_transport_protocol/ib_transport_protocol.cpp:950]   --->   Operation 35 'store' <Predicate = (!gi_state_1_load & tmp_15 & tmp_16 & !tmp_validPSN)> <Delay = 0.85>
ST_1 : Operation 36 [1/1] (0.00ns)   --->   "%tmp = call i1 @_ssdm_op_NbReadReq.ap_fifo.i123P(i123* @stateTable2txIbh_rsp_1, i32 1) nounwind" [/home/paulrr2/Projects/ece527/babelsoc/fpga-network-stack/hls/rocev2/../ib_transport_protocol/ib_transport_protocol.cpp:955]   --->   Operation 36 'nbreadreq' 'tmp' <Predicate = (gi_state_1_load)> <Delay = 0.00> <Core = "FIFO">   --->   Core 32 'FIFO' <Latency = 0> <II = 1> <Delay = 2.39> <Storage> <Opcode : 'read' 'write' 'nbread' 'nbwrite'> <Ports = 0> <Width = 113> <Depth = 2> <FIFO>
ST_1 : Operation 37 [1/1] (0.00ns)   --->   "br i1 %tmp, label %7, label %._crit_edge5.i" [/home/paulrr2/Projects/ece527/babelsoc/fpga-network-stack/hls/rocev2/../ib_transport_protocol/ib_transport_protocol.cpp:955]   --->   Operation 37 'br' <Predicate = (gi_state_1_load)> <Delay = 0.00>
ST_1 : Operation 38 [1/1] (2.39ns)   --->   "%tmp_2 = call i123 @_ssdm_op_Read.ap_fifo.volatile.i123P(i123* @stateTable2txIbh_rsp_1) nounwind" [/home/paulrr2/Projects/ece527/babelsoc/fpga-network-stack/hls/rocev2/../ib_transport_protocol/ib_transport_protocol.cpp:957]   --->   Operation 38 'read' 'tmp_2' <Predicate = (gi_state_1_load & tmp)> <Delay = 2.39> <Core = "FIFO">   --->   Core 32 'FIFO' <Latency = 0> <II = 1> <Delay = 2.39> <Storage> <Opcode : 'read' 'write' 'nbread' 'nbwrite'> <Ports = 0> <Width = 113> <Depth = 2> <FIFO>
ST_1 : Operation 39 [1/1] (0.00ns)   --->   "%trunc_ln321 = trunc i123 %tmp_2 to i24" [/home/paulrr2/Projects/ece527/babelsoc/fpga-network-stack/hls/rocev2/../ib_transport_protocol/state_table.hpp:35->/home/paulrr2/Projects/ece527/babelsoc/fpga-network-stack/hls/rocev2/../ib_transport_protocol/ib_transport_protocol.cpp:957]   --->   Operation 39 'trunc' 'trunc_ln321' <Predicate = (gi_state_1_load & tmp)> <Delay = 0.00>
ST_1 : Operation 40 [1/1] (0.00ns)   --->   "%p_Val2_42 = call i24 @_ssdm_op_PartSelect.i24.i123.i32.i32(i123 %tmp_2, i32 48, i32 71) nounwind" [/home/paulrr2/Projects/ece527/babelsoc/fpga-network-stack/hls/rocev2/../ib_transport_protocol/state_table.hpp:35->/home/paulrr2/Projects/ece527/babelsoc/fpga-network-stack/hls/rocev2/../ib_transport_protocol/ib_transport_protocol.cpp:957]   --->   Operation 40 'partselect' 'p_Val2_42' <Predicate = (gi_state_1_load & tmp)> <Delay = 0.00>
ST_1 : Operation 41 [1/1] (0.87ns)   --->   "%icmp_ln958 = icmp eq i5 %meta_op_code_7_load, -15" [/home/paulrr2/Projects/ece527/babelsoc/fpga-network-stack/hls/rocev2/../ib_transport_protocol/ib_transport_protocol.cpp:958]   --->   Operation 41 'icmp' 'icmp_ln958' <Predicate = (gi_state_1_load & tmp)> <Delay = 0.87> <Core = "Cmp">   --->   Core 25 'Cmp' <Latency = 0> <II = 1> <Delay = 0.87> <FuncUnit> <Opcode : 'icmp'> <InPorts = 2> <OutPorts = 1>
ST_1 : Operation 42 [1/1] (0.00ns)   --->   "br i1 %icmp_ln958, label %8, label %9" [/home/paulrr2/Projects/ece527/babelsoc/fpga-network-stack/hls/rocev2/../ib_transport_protocol/ib_transport_protocol.cpp:958]   --->   Operation 42 'br' <Predicate = (gi_state_1_load & tmp)> <Delay = 0.00>
ST_1 : Operation 43 [1/1] (0.00ns)   --->   "%p_Result_69_i_i1 = call i8 @_ssdm_op_PartSelect.i8.i123.i32.i32(i123 %tmp_2, i32 64, i32 71) nounwind" [/home/paulrr2/Projects/ece527/babelsoc/fpga-network-stack/hls/rocev2/../ib_transport_protocol/../axi_utils.hpp:79->/home/paulrr2/Projects/ece527/babelsoc/fpga-network-stack/hls/rocev2/../ib_transport_protocol/ib_transport_protocol.hpp:360->/home/paulrr2/Projects/ece527/babelsoc/fpga-network-stack/hls/rocev2/../ib_transport_protocol/ib_transport_protocol.cpp:964]   --->   Operation 43 'partselect' 'p_Result_69_i_i1' <Predicate = (gi_state_1_load & tmp & !icmp_ln958)> <Delay = 0.00>
ST_1 : Operation 44 [1/1] (0.00ns)   --->   "%p_Result_69_1_i_i1_2 = call i8 @_ssdm_op_PartSelect.i8.i123.i32.i32(i123 %tmp_2, i32 56, i32 63) nounwind" [/home/paulrr2/Projects/ece527/babelsoc/fpga-network-stack/hls/rocev2/../ib_transport_protocol/../axi_utils.hpp:79->/home/paulrr2/Projects/ece527/babelsoc/fpga-network-stack/hls/rocev2/../ib_transport_protocol/ib_transport_protocol.hpp:360->/home/paulrr2/Projects/ece527/babelsoc/fpga-network-stack/hls/rocev2/../ib_transport_protocol/ib_transport_protocol.cpp:964]   --->   Operation 44 'partselect' 'p_Result_69_1_i_i1_2' <Predicate = (gi_state_1_load & tmp & !icmp_ln958)> <Delay = 0.00>
ST_1 : Operation 45 [1/1] (0.00ns)   --->   "%p_Result_69_2_i_i1_2 = call i8 @_ssdm_op_PartSelect.i8.i123.i32.i32(i123 %tmp_2, i32 48, i32 55) nounwind" [/home/paulrr2/Projects/ece527/babelsoc/fpga-network-stack/hls/rocev2/../ib_transport_protocol/../axi_utils.hpp:79->/home/paulrr2/Projects/ece527/babelsoc/fpga-network-stack/hls/rocev2/../ib_transport_protocol/ib_transport_protocol.hpp:360->/home/paulrr2/Projects/ece527/babelsoc/fpga-network-stack/hls/rocev2/../ib_transport_protocol/ib_transport_protocol.cpp:964]   --->   Operation 45 'partselect' 'p_Result_69_2_i_i1_2' <Predicate = (gi_state_1_load & tmp & !icmp_ln958)> <Delay = 0.00>
ST_1 : Operation 46 [1/1] (0.00ns)   --->   "%p_Val2_43 = load i96* @header_header_V, align 8" [/home/paulrr2/Projects/ece527/babelsoc/fpga-network-stack/hls/rocev2/../ib_transport_protocol/ib_transport_protocol.hpp:360->/home/paulrr2/Projects/ece527/babelsoc/fpga-network-stack/hls/rocev2/../ib_transport_protocol/ib_transport_protocol.cpp:964]   --->   Operation 46 'load' 'p_Val2_43' <Predicate = (gi_state_1_load & tmp & !icmp_ln958)> <Delay = 0.00>
ST_1 : Operation 47 [1/1] (0.00ns)   --->   "%tmp_s = call i25 @_ssdm_op_BitConcatenate.i25.i8.i8.i8.i1(i8 %p_Result_69_2_i_i1_2, i8 %p_Result_69_1_i_i1_2, i8 %p_Result_69_i_i1, i1 true)" [/home/paulrr2/Projects/ece527/babelsoc/fpga-network-stack/hls/rocev2/../ib_transport_protocol/ib_transport_protocol.hpp:376->/home/paulrr2/Projects/ece527/babelsoc/fpga-network-stack/hls/rocev2/../ib_transport_protocol/ib_transport_protocol.cpp:965]   --->   Operation 47 'bitconcatenate' 'tmp_s' <Predicate = (gi_state_1_load & tmp & !icmp_ln958)> <Delay = 0.00>
ST_1 : Operation 48 [1/1] (0.00ns)   --->   "%p_Result_57 = call i96 @_ssdm_op_PartSet.i96.i96.i25.i32.i32(i96 %p_Val2_43, i25 %tmp_s, i32 71, i32 95)" [/home/paulrr2/Projects/ece527/babelsoc/fpga-network-stack/hls/rocev2/../ib_transport_protocol/ib_transport_protocol.hpp:376->/home/paulrr2/Projects/ece527/babelsoc/fpga-network-stack/hls/rocev2/../ib_transport_protocol/ib_transport_protocol.cpp:965]   --->   Operation 48 'partset' 'p_Result_57' <Predicate = (gi_state_1_load & tmp & !icmp_ln958)> <Delay = 0.00>
ST_1 : Operation 49 [1/1] (0.92ns)   --->   "store i96 %p_Result_57, i96* @header_header_V, align 8" [/home/paulrr2/Projects/ece527/babelsoc/fpga-network-stack/hls/rocev2/../ib_transport_protocol/ib_transport_protocol.hpp:376->/home/paulrr2/Projects/ece527/babelsoc/fpga-network-stack/hls/rocev2/../ib_transport_protocol/ib_transport_protocol.cpp:965]   --->   Operation 49 'store' <Predicate = (gi_state_1_load & tmp & !icmp_ln958)> <Delay = 0.92>
ST_1 : Operation 50 [1/1] (0.85ns)   --->   "br label %10"   --->   Operation 50 'br' <Predicate = (gi_state_1_load & tmp & !icmp_ln958)> <Delay = 0.85>
ST_1 : Operation 51 [1/1] (1.41ns)   --->   "%p_Val2_s = add i24 -1, %trunc_ln321" [/home/paulrr2/Projects/ece527/babelsoc/fpga-network-stack/hls/rocev2/../ib_transport_protocol/ib_transport_protocol.cpp:960]   --->   Operation 51 'add' 'p_Val2_s' <Predicate = (gi_state_1_load & tmp & icmp_ln958)> <Delay = 1.41> <Core = "AddSub">   --->   Core 14 'AddSub' <Latency = 0> <II = 1> <Delay = 1.41> <FuncUnit> <Opcode : 'add' 'sub'> <InPorts = 2> <OutPorts = 1>
ST_1 : Operation 52 [1/1] (0.00ns)   --->   "%p_Result_69_i_i = call i8 @_ssdm_op_PartSelect.i8.i24.i32.i32(i24 %p_Val2_s, i32 16, i32 23) nounwind" [/home/paulrr2/Projects/ece527/babelsoc/fpga-network-stack/hls/rocev2/../ib_transport_protocol/../axi_utils.hpp:79->/home/paulrr2/Projects/ece527/babelsoc/fpga-network-stack/hls/rocev2/../ib_transport_protocol/ib_transport_protocol.hpp:360->/home/paulrr2/Projects/ece527/babelsoc/fpga-network-stack/hls/rocev2/../ib_transport_protocol/ib_transport_protocol.cpp:960]   --->   Operation 52 'partselect' 'p_Result_69_i_i' <Predicate = (gi_state_1_load & tmp & icmp_ln958)> <Delay = 0.00>
ST_1 : Operation 53 [1/1] (0.00ns)   --->   "%p_Result_69_1_i_i1_1 = call i8 @_ssdm_op_PartSelect.i8.i24.i32.i32(i24 %p_Val2_s, i32 8, i32 15) nounwind" [/home/paulrr2/Projects/ece527/babelsoc/fpga-network-stack/hls/rocev2/../ib_transport_protocol/../axi_utils.hpp:79->/home/paulrr2/Projects/ece527/babelsoc/fpga-network-stack/hls/rocev2/../ib_transport_protocol/ib_transport_protocol.hpp:360->/home/paulrr2/Projects/ece527/babelsoc/fpga-network-stack/hls/rocev2/../ib_transport_protocol/ib_transport_protocol.cpp:960]   --->   Operation 53 'partselect' 'p_Result_69_1_i_i1_1' <Predicate = (gi_state_1_load & tmp & icmp_ln958)> <Delay = 0.00>
ST_1 : Operation 54 [1/1] (0.00ns)   --->   "%trunc_ln647 = trunc i24 %p_Val2_s to i8" [/home/paulrr2/Projects/ece527/babelsoc/fpga-network-stack/hls/rocev2/../ib_transport_protocol/../axi_utils.hpp:79->/home/paulrr2/Projects/ece527/babelsoc/fpga-network-stack/hls/rocev2/../ib_transport_protocol/ib_transport_protocol.hpp:360->/home/paulrr2/Projects/ece527/babelsoc/fpga-network-stack/hls/rocev2/../ib_transport_protocol/ib_transport_protocol.cpp:960]   --->   Operation 54 'trunc' 'trunc_ln647' <Predicate = (gi_state_1_load & tmp & icmp_ln958)> <Delay = 0.00>
ST_1 : Operation 55 [1/1] (0.00ns)   --->   "%agg_result_V_0_2_i_i_2 = call i24 @_ssdm_op_BitConcatenate.i24.i8.i8.i8(i8 %trunc_ln647, i8 %p_Result_69_1_i_i1_1, i8 %p_Result_69_i_i) nounwind" [/home/paulrr2/Projects/ece527/babelsoc/fpga-network-stack/hls/rocev2/../ib_transport_protocol/../axi_utils.hpp:79->/home/paulrr2/Projects/ece527/babelsoc/fpga-network-stack/hls/rocev2/../ib_transport_protocol/ib_transport_protocol.hpp:360->/home/paulrr2/Projects/ece527/babelsoc/fpga-network-stack/hls/rocev2/../ib_transport_protocol/ib_transport_protocol.cpp:960]   --->   Operation 55 'bitconcatenate' 'agg_result_V_0_2_i_i_2' <Predicate = (gi_state_1_load & tmp & icmp_ln958)> <Delay = 0.00>
ST_1 : Operation 56 [1/1] (0.00ns)   --->   "%p_Val2_41 = load i96* @header_header_V, align 8" [/home/paulrr2/Projects/ece527/babelsoc/fpga-network-stack/hls/rocev2/../ib_transport_protocol/ib_transport_protocol.hpp:360->/home/paulrr2/Projects/ece527/babelsoc/fpga-network-stack/hls/rocev2/../ib_transport_protocol/ib_transport_protocol.cpp:960]   --->   Operation 56 'load' 'p_Val2_41' <Predicate = (gi_state_1_load & tmp & icmp_ln958)> <Delay = 0.00>
ST_1 : Operation 57 [1/1] (0.00ns)   --->   "%p_Result_s = call i96 @llvm.part.set.i96.i24(i96 %p_Val2_41, i24 %agg_result_V_0_2_i_i_2, i32 72, i32 95) nounwind" [/home/paulrr2/Projects/ece527/babelsoc/fpga-network-stack/hls/rocev2/../ib_transport_protocol/ib_transport_protocol.hpp:360->/home/paulrr2/Projects/ece527/babelsoc/fpga-network-stack/hls/rocev2/../ib_transport_protocol/ib_transport_protocol.cpp:960]   --->   Operation 57 'partset' 'p_Result_s' <Predicate = (gi_state_1_load & tmp & icmp_ln958)> <Delay = 0.00>
ST_1 : Operation 58 [1/1] (0.92ns)   --->   "store i96 %p_Result_s, i96* @header_header_V, align 8" [/home/paulrr2/Projects/ece527/babelsoc/fpga-network-stack/hls/rocev2/../ib_transport_protocol/ib_transport_protocol.hpp:360->/home/paulrr2/Projects/ece527/babelsoc/fpga-network-stack/hls/rocev2/../ib_transport_protocol/ib_transport_protocol.cpp:960]   --->   Operation 58 'store' <Predicate = (gi_state_1_load & tmp & icmp_ln958)> <Delay = 0.92>
ST_1 : Operation 59 [1/1] (0.85ns)   --->   "br label %10" [/home/paulrr2/Projects/ece527/babelsoc/fpga-network-stack/hls/rocev2/../ib_transport_protocol/ib_transport_protocol.cpp:961]   --->   Operation 59 'br' <Predicate = (gi_state_1_load & tmp & icmp_ln958)> <Delay = 0.85>
ST_1 : Operation 60 [1/1] (0.85ns)   --->   "store i1 false, i1* @gi_state_1, align 1" [/home/paulrr2/Projects/ece527/babelsoc/fpga-network-stack/hls/rocev2/../ib_transport_protocol/ib_transport_protocol.cpp:976]   --->   Operation 60 'store' <Predicate = (gi_state_1_load & tmp)> <Delay = 0.85>

State 2 <SV = 1> <Delay = 3.80>
ST_2 : Operation 61 [1/1] (0.00ns)   --->   "call void (...)* @_ssdm_op_SpecInterface(i123* @stateTable2txIbh_rsp_1, [8 x i8]* @ap_fifo_str, i32 0, i32 0, [1 x i8]* @p_str, i32 0, i32 0, [1 x i8]* @p_str, [1 x i8]* @p_str, [1 x i8]* @p_str, i32 2, i32 2, i32 16, i32 16, [1 x i8]* @p_str, [1 x i8]* @p_str)"   --->   Operation 61 'specinterface' <Predicate = true> <Delay = 0.00>
ST_2 : Operation 62 [1/1] (0.00ns)   --->   "call void (...)* @_ssdm_op_SpecInterface(i41* @txIbh2stateTable_upd_1, [8 x i8]* @ap_fifo_str, i32 0, i32 0, [1 x i8]* @p_str, i32 0, i32 0, [1 x i8]* @p_str, [1 x i8]* @p_str, [1 x i8]* @p_str, i32 2, i32 2, i32 16, i32 16, [1 x i8]* @p_str, [1 x i8]* @p_str)"   --->   Operation 62 'specinterface' <Predicate = true> <Delay = 0.00>
ST_2 : Operation 63 [1/1] (0.00ns)   --->   "call void (...)* @_ssdm_op_SpecInterface(i24* @tx_dstQpFifo_V_V, [8 x i8]* @ap_fifo_str, i32 0, i32 0, [1 x i8]* @p_str, i32 0, i32 0, [1 x i8]* @p_str, [1 x i8]* @p_str, [1 x i8]* @p_str, i32 2, i32 2, i32 16, i32 16, [1 x i8]* @p_str, [1 x i8]* @p_str)"   --->   Operation 63 'specinterface' <Predicate = true> <Delay = 0.00>
ST_2 : Operation 64 [1/1] (0.00ns)   --->   "call void (...)* @_ssdm_op_SpecInterface(i113* @tx_ibhHeaderFifo_V, [8 x i8]* @ap_fifo_str, i32 0, i32 0, [1 x i8]* @p_str, i32 0, i32 0, [1 x i8]* @p_str, [1 x i8]* @p_str, [1 x i8]* @p_str, i32 2, i32 2, i32 16, i32 16, [1 x i8]* @p_str, [1 x i8]* @p_str)"   --->   Operation 64 'specinterface' <Predicate = true> <Delay = 0.00>
ST_2 : Operation 65 [1/1] (0.00ns)   --->   "call void (...)* @_ssdm_op_SpecInterface(i24* @tx_ibhMetaFifo_V_des, [8 x i8]* @ap_fifo_str, i32 0, i32 0, [1 x i8]* @p_str, i32 0, i32 0, [1 x i8]* @p_str, [1 x i8]* @p_str, [1 x i8]* @p_str, i32 2, i32 2, i32 16, i32 16, [1 x i8]* @p_str, [1 x i8]* @p_str)"   --->   Operation 65 'specinterface' <Predicate = true> <Delay = 0.00>
ST_2 : Operation 66 [1/1] (0.00ns)   --->   "call void (...)* @_ssdm_op_SpecInterface(i22* @tx_ibhMetaFifo_V_num, [8 x i8]* @ap_fifo_str, i32 0, i32 0, [1 x i8]* @p_str, i32 0, i32 0, [1 x i8]* @p_str, [1 x i8]* @p_str, [1 x i8]* @p_str, i32 2, i32 2, i32 16, i32 16, [1 x i8]* @p_str, [1 x i8]* @p_str)"   --->   Operation 66 'specinterface' <Predicate = true> <Delay = 0.00>
ST_2 : Operation 67 [1/1] (0.00ns)   --->   "call void (...)* @_ssdm_op_SpecInterface(i5* @tx_ibhMetaFifo_V_op_s, [8 x i8]* @ap_fifo_str, i32 0, i32 0, [1 x i8]* @p_str, i32 0, i32 0, [1 x i8]* @p_str, [1 x i8]* @p_str, [1 x i8]* @p_str, i32 2, i32 2, i32 16, i32 16, [1 x i8]* @p_str, [1 x i8]* @p_str)"   --->   Operation 67 'specinterface' <Predicate = true> <Delay = 0.00>
ST_2 : Operation 68 [1/1] (0.00ns)   --->   "call void (...)* @_ssdm_op_SpecInterface(i16* @tx_ibhMetaFifo_V_par, [8 x i8]* @ap_fifo_str, i32 0, i32 0, [1 x i8]* @p_str, i32 0, i32 0, [1 x i8]* @p_str, [1 x i8]* @p_str, [1 x i8]* @p_str, i32 2, i32 2, i32 16, i32 16, [1 x i8]* @p_str, [1 x i8]* @p_str)"   --->   Operation 68 'specinterface' <Predicate = true> <Delay = 0.00>
ST_2 : Operation 69 [1/1] (0.00ns)   --->   "call void (...)* @_ssdm_op_SpecInterface(i24* @tx_ibhMetaFifo_V_psn, [8 x i8]* @ap_fifo_str, i32 0, i32 0, [1 x i8]* @p_str, i32 0, i32 0, [1 x i8]* @p_str, [1 x i8]* @p_str, [1 x i8]* @p_str, i32 2, i32 2, i32 16, i32 16, [1 x i8]* @p_str, [1 x i8]* @p_str)"   --->   Operation 69 'specinterface' <Predicate = true> <Delay = 0.00>
ST_2 : Operation 70 [1/1] (0.00ns)   --->   "call void (...)* @_ssdm_op_SpecInterface(i1* @tx_ibhMetaFifo_V_val, [8 x i8]* @ap_fifo_str, i32 0, i32 0, [1 x i8]* @p_str, i32 0, i32 0, [1 x i8]* @p_str, [1 x i8]* @p_str, [1 x i8]* @p_str, i32 2, i32 2, i32 16, i32 16, [1 x i8]* @p_str, [1 x i8]* @p_str)"   --->   Operation 70 'specinterface' <Predicate = true> <Delay = 0.00>
ST_2 : Operation 71 [1/1] (0.00ns)   --->   "call void (...)* @_ssdm_op_SpecPipeline(i32 1, i32 1, i32 1, i32 0, [1 x i8]* @p_str91) nounwind" [/home/paulrr2/Projects/ece527/babelsoc/fpga-network-stack/hls/rocev2/../ib_transport_protocol/ib_transport_protocol.cpp:916]   --->   Operation 71 'specpipeline' <Predicate = true> <Delay = 0.00>
ST_2 : Operation 72 [1/1] (0.00ns)   --->   "%meta_dest_qp_V_3_loa = load i24* @meta_dest_qp_V_3, align 4" [/home/paulrr2/Projects/ece527/babelsoc/fpga-network-stack/hls/rocev2/../ib_transport_protocol/ib_transport_protocol.cpp:949]   --->   Operation 72 'load' 'meta_dest_qp_V_3_loa' <Predicate = true> <Delay = 0.00>
ST_2 : Operation 73 [1/1] (0.00ns)   --->   "store i24 %tmp_dest_qp_V, i24* @meta_dest_qp_V_3, align 4" [/home/paulrr2/Projects/ece527/babelsoc/fpga-network-stack/hls/rocev2/../ib_transport_protocol/ib_transport_protocol.hpp:380->/home/paulrr2/Projects/ece527/babelsoc/fpga-network-stack/hls/rocev2/../ib_transport_protocol/ib_transport_protocol.cpp:932]   --->   Operation 73 'store' <Predicate = (!gi_state_1_load & tmp_15 & tmp_16)> <Delay = 0.00>
ST_2 : Operation 74 [1/1] (0.00ns)   --->   "%tmp_qpn_V_20 = trunc i24 %tmp_dest_qp_V to i16" [/home/paulrr2/Projects/ece527/babelsoc/fpga-network-stack/hls/rocev2/../ib_transport_protocol/state_table.hpp:102->/home/paulrr2/Projects/ece527/babelsoc/fpga-network-stack/hls/rocev2/../ib_transport_protocol/state_table.hpp:102->/home/paulrr2/Projects/ece527/babelsoc/fpga-network-stack/hls/rocev2/../ib_transport_protocol/ib_transport_protocol.cpp:949]   --->   Operation 74 'trunc' 'tmp_qpn_V_20' <Predicate = (!gi_state_1_load & tmp_15 & tmp_16 & !tmp_validPSN)> <Delay = 0.00>
ST_2 : Operation 75 [1/1] (0.00ns)   --->   "%tmp_1 = call i41 @llvm.part.set.i41.i16(i41 undef, i16 %tmp_qpn_V_20, i32 0, i32 15) nounwind" [/home/paulrr2/Projects/ece527/babelsoc/fpga-network-stack/hls/rocev2/../ib_transport_protocol/ib_transport_protocol.cpp:949]   --->   Operation 75 'partset' 'tmp_1' <Predicate = (!gi_state_1_load & tmp_15 & tmp_16 & !tmp_validPSN)> <Delay = 0.00>
ST_2 : Operation 76 [1/1] (0.00ns)   --->   "%tmp_112 = call i41 @_ssdm_op_BitSet.i41.i41.i32.i1(i41 %tmp_1, i32 40, i1 false)" [/home/paulrr2/Projects/ece527/babelsoc/fpga-network-stack/hls/rocev2/../ib_transport_protocol/ib_transport_protocol.cpp:949]   --->   Operation 76 'bitset' 'tmp_112' <Predicate = (!gi_state_1_load & tmp_15 & tmp_16 & !tmp_validPSN)> <Delay = 0.00>
ST_2 : Operation 77 [1/1] (2.39ns)   --->   "call void @_ssdm_op_Write.ap_fifo.volatile.i41P(i41* @txIbh2stateTable_upd_1, i41 %tmp_112) nounwind" [/home/paulrr2/Projects/ece527/babelsoc/fpga-network-stack/hls/rocev2/../ib_transport_protocol/ib_transport_protocol.cpp:949]   --->   Operation 77 'write' <Predicate = (!gi_state_1_load & tmp_15 & tmp_16 & !tmp_validPSN)> <Delay = 2.39> <Core = "FIFO">   --->   Core 32 'FIFO' <Latency = 0> <II = 1> <Delay = 2.39> <Storage> <Opcode : 'read' 'write' 'nbread' 'nbwrite'> <Ports = 0> <Width = 113> <Depth = 2> <FIFO>
ST_2 : Operation 78 [1/1] (0.00ns)   --->   "br label %5"   --->   Operation 78 'br' <Predicate = (!gi_state_1_load & tmp_15 & tmp_16 & !tmp_validPSN)> <Delay = 0.00>
ST_2 : Operation 79 [1/1] (0.00ns)   --->   "%tmp108 = call i113 @_ssdm_op_BitConcatenate.i113.i96.i17(i96 %p_Result_65, i17 0) nounwind" [/home/paulrr2/Projects/ece527/babelsoc/fpga-network-stack/hls/rocev2/../ib_transport_protocol/ib_transport_protocol.cpp:944]   --->   Operation 79 'bitconcatenate' 'tmp108' <Predicate = (!gi_state_1_load & tmp_15 & tmp_16 & tmp_validPSN)> <Delay = 0.00>
ST_2 : Operation 80 [1/1] (2.39ns)   --->   "call void @_ssdm_op_Write.ap_fifo.volatile.i113P(i113* @tx_ibhHeaderFifo_V, i113 %tmp108) nounwind" [/home/paulrr2/Projects/ece527/babelsoc/fpga-network-stack/hls/rocev2/../ib_transport_protocol/ib_transport_protocol.cpp:944]   --->   Operation 80 'write' <Predicate = (!gi_state_1_load & tmp_15 & tmp_16 & tmp_validPSN)> <Delay = 2.39> <Core = "FIFO">   --->   Core 32 'FIFO' <Latency = 0> <II = 1> <Delay = 2.39> <Storage> <Opcode : 'read' 'write' 'nbread' 'nbwrite'> <Ports = 0> <Width = 113> <Depth = 2> <FIFO>
ST_2 : Operation 81 [1/1] (0.00ns)   --->   "br label %5" [/home/paulrr2/Projects/ece527/babelsoc/fpga-network-stack/hls/rocev2/../ib_transport_protocol/ib_transport_protocol.cpp:946]   --->   Operation 81 'br' <Predicate = (!gi_state_1_load & tmp_15 & tmp_16 & tmp_validPSN)> <Delay = 0.00>
ST_2 : Operation 82 [1/1] (0.00ns)   --->   "br label %._crit_edge3.i" [/home/paulrr2/Projects/ece527/babelsoc/fpga-network-stack/hls/rocev2/../ib_transport_protocol/ib_transport_protocol.cpp:952]   --->   Operation 82 'br' <Predicate = (!gi_state_1_load & tmp_15 & tmp_16)> <Delay = 0.00>
ST_2 : Operation 83 [1/1] (0.00ns)   --->   "br label %"generate_ibh<64>.exit"" [/home/paulrr2/Projects/ece527/babelsoc/fpga-network-stack/hls/rocev2/../ib_transport_protocol/ib_transport_protocol.cpp:953]   --->   Operation 83 'br' <Predicate = (!gi_state_1_load)> <Delay = 0.00>
ST_2 : Operation 84 [1/1] (0.00ns)   --->   "%meta_numPkg_V_1_load = load i22* @meta_numPkg_V_1, align 4" [/home/paulrr2/Projects/ece527/babelsoc/fpga-network-stack/hls/rocev2/../ib_transport_protocol/ib_transport_protocol.cpp:967]   --->   Operation 84 'load' 'meta_numPkg_V_1_load' <Predicate = (gi_state_1_load & tmp & !icmp_ln958)> <Delay = 0.00>
ST_2 : Operation 85 [1/1] (0.00ns)   --->   "%zext_ln209 = zext i22 %meta_numPkg_V_1_load to i24" [/home/paulrr2/Projects/ece527/babelsoc/fpga-network-stack/hls/rocev2/../ib_transport_protocol/ib_transport_protocol.cpp:967]   --->   Operation 85 'zext' 'zext_ln209' <Predicate = (gi_state_1_load & tmp & !icmp_ln958)> <Delay = 0.00>
ST_2 : Operation 86 [1/1] (1.41ns)   --->   "%nextPsn_V = add i24 %p_Val2_42, %zext_ln209" [/home/paulrr2/Projects/ece527/babelsoc/fpga-network-stack/hls/rocev2/../ib_transport_protocol/ib_transport_protocol.cpp:967]   --->   Operation 86 'add' 'nextPsn_V' <Predicate = (gi_state_1_load & tmp & !icmp_ln958)> <Delay = 1.41> <Core = "AddSub">   --->   Core 14 'AddSub' <Latency = 0> <II = 1> <Delay = 1.41> <FuncUnit> <Opcode : 'add' 'sub'> <InPorts = 2> <OutPorts = 1>
ST_2 : Operation 87 [1/1] (0.00ns)   --->   "%tmp_qpn_V = trunc i24 %meta_dest_qp_V_3_loa to i16" [/home/paulrr2/Projects/ece527/babelsoc/fpga-network-stack/hls/rocev2/../ib_transport_protocol/ib_transport_protocol.cpp:968]   --->   Operation 87 'trunc' 'tmp_qpn_V' <Predicate = (gi_state_1_load & tmp & !icmp_ln958)> <Delay = 0.00>
ST_2 : Operation 88 [1/1] (0.00ns)   --->   "%tmp_3 = call i41 @_ssdm_op_BitConcatenate.i41.i1.i24.i16(i1 true, i24 %nextPsn_V, i16 %tmp_qpn_V) nounwind" [/home/paulrr2/Projects/ece527/babelsoc/fpga-network-stack/hls/rocev2/../ib_transport_protocol/ib_transport_protocol.cpp:968]   --->   Operation 88 'bitconcatenate' 'tmp_3' <Predicate = (gi_state_1_load & tmp & !icmp_ln958)> <Delay = 0.00>
ST_2 : Operation 89 [1/1] (2.39ns)   --->   "call void @_ssdm_op_Write.ap_fifo.volatile.i41P(i41* @txIbh2stateTable_upd_1, i41 %tmp_3) nounwind" [/home/paulrr2/Projects/ece527/babelsoc/fpga-network-stack/hls/rocev2/../ib_transport_protocol/ib_transport_protocol.cpp:968]   --->   Operation 89 'write' <Predicate = (gi_state_1_load & tmp & !icmp_ln958)> <Delay = 2.39> <Core = "FIFO">   --->   Core 32 'FIFO' <Latency = 0> <II = 1> <Delay = 2.39> <Storage> <Opcode : 'read' 'write' 'nbread' 'nbwrite'> <Ports = 0> <Width = 113> <Depth = 2> <FIFO>
ST_2 : Operation 90 [1/1] (0.00ns)   --->   "%tmp_header_V = phi i96 [ %p_Result_57, %9 ], [ %p_Result_s, %8 ]"   --->   Operation 90 'phi' 'tmp_header_V' <Predicate = (gi_state_1_load & tmp)> <Delay = 0.00>
ST_2 : Operation 91 [1/1] (0.00ns)   --->   "%tmp_4 = call i113 @_ssdm_op_BitConcatenate.i113.i96.i17(i96 %tmp_header_V, i17 0) nounwind" [/home/paulrr2/Projects/ece527/babelsoc/fpga-network-stack/hls/rocev2/../ib_transport_protocol/ib_transport_protocol.cpp:975]   --->   Operation 91 'bitconcatenate' 'tmp_4' <Predicate = (gi_state_1_load & tmp)> <Delay = 0.00>
ST_2 : Operation 92 [1/1] (2.39ns)   --->   "call void @_ssdm_op_Write.ap_fifo.volatile.i113P(i113* @tx_ibhHeaderFifo_V, i113 %tmp_4) nounwind" [/home/paulrr2/Projects/ece527/babelsoc/fpga-network-stack/hls/rocev2/../ib_transport_protocol/ib_transport_protocol.cpp:975]   --->   Operation 92 'write' <Predicate = (gi_state_1_load & tmp)> <Delay = 2.39> <Core = "FIFO">   --->   Core 32 'FIFO' <Latency = 0> <II = 1> <Delay = 2.39> <Storage> <Opcode : 'read' 'write' 'nbread' 'nbwrite'> <Ports = 0> <Width = 113> <Depth = 2> <FIFO>
ST_2 : Operation 93 [1/1] (0.00ns)   --->   "br label %._crit_edge5.i" [/home/paulrr2/Projects/ece527/babelsoc/fpga-network-stack/hls/rocev2/../ib_transport_protocol/ib_transport_protocol.cpp:977]   --->   Operation 93 'br' <Predicate = (gi_state_1_load & tmp)> <Delay = 0.00>
ST_2 : Operation 94 [1/1] (0.00ns)   --->   "br label %"generate_ibh<64>.exit"" [/home/paulrr2/Projects/ece527/babelsoc/fpga-network-stack/hls/rocev2/../ib_transport_protocol/ib_transport_protocol.cpp:978]   --->   Operation 94 'br' <Predicate = (gi_state_1_load)> <Delay = 0.00>
ST_2 : Operation 95 [1/1] (0.00ns)   --->   "ret void"   --->   Operation 95 'ret' <Predicate = true> <Delay = 0.00>


============================================================
+ Verbose Summary: Timing violations
============================================================
Target clock period: 6.4ns, clock uncertainty: 0.8ns.

 <State 1>: 4.73ns
The critical path consists of the following:
	fifo read on port 'stateTable2txIbh_rsp_1' (/home/paulrr2/Projects/ece527/babelsoc/fpga-network-stack/hls/rocev2/../ib_transport_protocol/ib_transport_protocol.cpp:957) [92]  (2.39 ns)
	'add' operation ('w.V', /home/paulrr2/Projects/ece527/babelsoc/fpga-network-stack/hls/rocev2/../ib_transport_protocol/ib_transport_protocol.cpp:960) [113]  (1.41 ns)
	'store' operation ('store_ln360', /home/paulrr2/Projects/ece527/babelsoc/fpga-network-stack/hls/rocev2/../ib_transport_protocol/ib_transport_protocol.hpp:360->/home/paulrr2/Projects/ece527/babelsoc/fpga-network-stack/hls/rocev2/../ib_transport_protocol/ib_transport_protocol.cpp:960) of variable '__Result__', /home/paulrr2/Projects/ece527/babelsoc/fpga-network-stack/hls/rocev2/../ib_transport_protocol/ib_transport_protocol.hpp:360->/home/paulrr2/Projects/ece527/babelsoc/fpga-network-stack/hls/rocev2/../ib_transport_protocol/ib_transport_protocol.cpp:960 on static variable 'header_header_V' [120]  (0.926 ns)

 <State 2>: 3.8ns
The critical path consists of the following:
	'load' operation ('meta_numPkg_V_1_load', /home/paulrr2/Projects/ece527/babelsoc/fpga-network-stack/hls/rocev2/../ib_transport_protocol/ib_transport_protocol.cpp:967) on static variable 'meta_numPkg_V_1' [105]  (0 ns)
	'add' operation ('nextPsn.V', /home/paulrr2/Projects/ece527/babelsoc/fpga-network-stack/hls/rocev2/../ib_transport_protocol/ib_transport_protocol.cpp:967) [107]  (1.41 ns)
	fifo write on port 'txIbh2stateTable_upd_1' (/home/paulrr2/Projects/ece527/babelsoc/fpga-network-stack/hls/rocev2/../ib_transport_protocol/ib_transport_protocol.cpp:968) [110]  (2.39 ns)


============================================================
+ Verbose Summary: Binding
============================================================
N/A
* FSMD analyzer results:
  - Output states:
 - Input state : 
  - Chain level:
	State 1
	State 2


============================================================
+ Verbose Summary: Datapath Resource usage 
============================================================
N/A
