

================================================================
== Vivado HLS Report for 'generate_udp_64_s'
================================================================
* Date:           Sat Dec 12 19:40:59 2020

* Version:        2019.2.1 (Build 2724168 on Thu Dec 05 05:19:09 MST 2019)
* Project:        rocev2_prj
* Solution:       solution1
* Product family: virtex7
* Target device:  xc7vx690t-ffg1761-2


================================================================
== Performance Estimates
================================================================
+ Timing: 
    * Summary: 
    +--------+---------+----------+------------+
    |  Clock |  Target | Estimated| Uncertainty|
    +--------+---------+----------+------------+
    |ap_clk  | 6.40 ns | 6.807 ns |   0.80 ns  |
    +--------+---------+----------+------------+

+ Latency: 
    * Summary: 
    +---------+---------+-----------+-----------+-----+-----+----------+
    |  Latency (cycles) |   Latency (absolute)  |  Interval | Pipeline |
    |   min   |   max   |    min    |    max    | min | max |   Type   |
    +---------+---------+-----------+-----------+-----+-----+----------+
    |        2|        2| 13.615 ns | 13.615 ns |    1|    1| function |
    +---------+---------+-----------+-----------+-----+-----+----------+

    + Detail: 
        * Instance: 
        N/A

        * Loop: 
        N/A

============================================================
+ Verbose Summary: Synthesis Manager
============================================================
InlineROM: 1
ExposeGlobal: 0
============================================================
+ Verbose Summary: CDFG Model
============================================================
IsTopModel: 0
ResetActiveHigh: 1
IsCombinational: 2
IsDatapathOnly: 0
HasWiredReturn: 1
HasMFsm: 2
HasVarLatency: 0
IsPipeline: 1
IsRtlPipelined: 1
IsInstanceOverlapped: 0
IsDontTouch: 0
HasImplIP: 0
IsGatedGlobalClock: 0

+ Individual pipeline summary: 
  * Pipeline-0: initiation interval (II) = 1, depth = 3


============================================================
+ Verbose Summary: Schedule
============================================================
* Number of FSM states : 3
* Pipeline : 1
  Pipeline-0 : II = 1, D = 3, States = { 1 2 3 }
* Dataflow Pipeline: 0

* FSM state transitions: 
1 --> 2 
2 --> 3 
3 --> 

* FSM state operations: 

State 1 <SV = 0> <Delay = 6.80>
ST_1 : Operation 4 [1/1] (0.00ns)   --->   "%state_4_load = load i2* @state_4, align 1" [/home/paulrr2/Projects/ece527/babelsoc/fpga-network-stack/hls/rocev2/../udp/udp.cpp:96]   --->   Operation 4 'load' 'state_4_load' <Predicate = true> <Delay = 0.00>
ST_1 : Operation 5 [1/1] (0.00ns)   --->   "%header_idx_4_load = load i16* @header_idx_4, align 2" [/home/paulrr2/Projects/ece527/babelsoc/fpga-network-stack/hls/rocev2/../udp/udp.cpp:117]   --->   Operation 5 'load' 'header_idx_4_load' <Predicate = true> <Delay = 0.00>
ST_1 : Operation 6 [1/1] (0.87ns)   --->   "switch i2 %state_4_load, label %"generate_udp<64>.exit" [
    i2 0, label %0
    i2 1, label %2
    i2 -2, label %4
    i2 -1, label %5
  ]" [/home/paulrr2/Projects/ece527/babelsoc/fpga-network-stack/hls/rocev2/../udp/udp.cpp:96]   --->   Operation 6 'switch' <Predicate = true> <Delay = 0.87>
ST_1 : Operation 7 [1/1] (0.00ns)   --->   "%tmp_94 = call i1 @_ssdm_op_NbReadReq.ap_fifo.i64P.i8P.i1P(i64* @tx_shift2udpFifo_V_d, i8* @tx_shift2udpFifo_V_k, i1* @tx_shift2udpFifo_V_l, i32 1) nounwind" [/home/paulrr2/Projects/ece527/babelsoc/fpga-network-stack/hls/rocev2/../udp/udp.cpp:139]   --->   Operation 7 'nbreadreq' 'tmp_94' <Predicate = (state_4_load == 3)> <Delay = 0.00> <Core = "FIFO">   --->   Core 32 'FIFO' <Latency = 0> <II = 1> <Delay = 2.39> <Storage> <Opcode : 'read' 'write' 'nbread' 'nbwrite'> <Ports = 0> <Width = 16> <Depth = 2> <FIFO>
ST_1 : Operation 8 [1/1] (2.39ns)   --->   "%empty_412 = call { i64, i8, i1 } @_ssdm_op_Read.ap_fifo.volatile.i64P.i8P.i1P(i64* @tx_shift2udpFifo_V_d, i8* @tx_shift2udpFifo_V_k, i1* @tx_shift2udpFifo_V_l) nounwind" [/home/paulrr2/Projects/ece527/babelsoc/fpga-network-stack/hls/rocev2/../udp/udp.cpp:141]   --->   Operation 8 'read' 'empty_412' <Predicate = (state_4_load == 3 & tmp_94)> <Delay = 2.39> <Core = "FIFO">   --->   Core 32 'FIFO' <Latency = 0> <II = 1> <Delay = 2.39> <Storage> <Opcode : 'read' 'write' 'nbread' 'nbwrite'> <Ports = 0> <Width = 16> <Depth = 2> <FIFO>
ST_1 : Operation 9 [1/1] (0.00ns)   --->   "%tmp_data_V_34 = extractvalue { i64, i8, i1 } %empty_412, 0" [/home/paulrr2/Projects/ece527/babelsoc/fpga-network-stack/hls/rocev2/../udp/udp.cpp:141]   --->   Operation 9 'extractvalue' 'tmp_data_V_34' <Predicate = (state_4_load == 3 & tmp_94)> <Delay = 0.00>
ST_1 : Operation 10 [1/1] (0.00ns)   --->   "%tmp_keep_V_30 = extractvalue { i64, i8, i1 } %empty_412, 1" [/home/paulrr2/Projects/ece527/babelsoc/fpga-network-stack/hls/rocev2/../udp/udp.cpp:141]   --->   Operation 10 'extractvalue' 'tmp_keep_V_30' <Predicate = (state_4_load == 3 & tmp_94)> <Delay = 0.00>
ST_1 : Operation 11 [1/1] (0.00ns)   --->   "%tmp_last_V_28 = extractvalue { i64, i8, i1 } %empty_412, 2" [/home/paulrr2/Projects/ece527/babelsoc/fpga-network-stack/hls/rocev2/../udp/udp.cpp:141]   --->   Operation 11 'extractvalue' 'tmp_last_V_28' <Predicate = (state_4_load == 3 & tmp_94)> <Delay = 0.00>
ST_1 : Operation 12 [1/1] (1.00ns)   --->   "store i2 0, i2* @state_4, align 1" [/home/paulrr2/Projects/ece527/babelsoc/fpga-network-stack/hls/rocev2/../udp/udp.cpp:145]   --->   Operation 12 'store' <Predicate = (state_4_load == 3 & tmp_94 & tmp_last_V_28)> <Delay = 1.00>
ST_1 : Operation 13 [1/1] (0.00ns)   --->   "%tmp_93 = call i1 @_ssdm_op_NbReadReq.ap_fifo.i64P.i8P.i1P(i64* @tx_shift2udpFifo_V_d, i8* @tx_shift2udpFifo_V_k, i1* @tx_shift2udpFifo_V_l, i32 1) nounwind" [/home/paulrr2/Projects/ece527/babelsoc/fpga-network-stack/hls/rocev2/../udp/udp.cpp:126]   --->   Operation 13 'nbreadreq' 'tmp_93' <Predicate = (state_4_load == 2)> <Delay = 0.00> <Core = "FIFO">   --->   Core 32 'FIFO' <Latency = 0> <II = 1> <Delay = 2.39> <Storage> <Opcode : 'read' 'write' 'nbread' 'nbwrite'> <Ports = 0> <Width = 16> <Depth = 2> <FIFO>
ST_1 : Operation 14 [1/1] (2.39ns)   --->   "%empty_411 = call { i64, i8, i1 } @_ssdm_op_Read.ap_fifo.volatile.i64P.i8P.i1P(i64* @tx_shift2udpFifo_V_d, i8* @tx_shift2udpFifo_V_k, i1* @tx_shift2udpFifo_V_l) nounwind" [/home/paulrr2/Projects/ece527/babelsoc/fpga-network-stack/hls/rocev2/../udp/udp.cpp:128]   --->   Operation 14 'read' 'empty_411' <Predicate = (state_4_load == 2 & tmp_93)> <Delay = 2.39> <Core = "FIFO">   --->   Core 32 'FIFO' <Latency = 0> <II = 1> <Delay = 2.39> <Storage> <Opcode : 'read' 'write' 'nbread' 'nbwrite'> <Ports = 0> <Width = 16> <Depth = 2> <FIFO>
ST_1 : Operation 15 [1/1] (0.00ns)   --->   "%tmp_keep_V = extractvalue { i64, i8, i1 } %empty_411, 1" [/home/paulrr2/Projects/ece527/babelsoc/fpga-network-stack/hls/rocev2/../udp/udp.cpp:128]   --->   Operation 15 'extractvalue' 'tmp_keep_V' <Predicate = (state_4_load == 2 & tmp_93)> <Delay = 0.00>
ST_1 : Operation 16 [1/1] (0.00ns)   --->   "%tmp_last_V = extractvalue { i64, i8, i1 } %empty_411, 2" [/home/paulrr2/Projects/ece527/babelsoc/fpga-network-stack/hls/rocev2/../udp/udp.cpp:128]   --->   Operation 16 'extractvalue' 'tmp_last_V' <Predicate = (state_4_load == 2 & tmp_93)> <Delay = 0.00>
ST_1 : Operation 17 [1/1] (0.00ns)   --->   "%p_Val2_32 = load i64* @header_header_V_5, align 8" [/home/paulrr2/Projects/ece527/babelsoc/fpga-network-stack/hls/rocev2/../udp/udp.cpp:129]   --->   Operation 17 'load' 'p_Val2_32' <Predicate = (state_4_load == 2 & tmp_93)> <Delay = 0.00>
ST_1 : Operation 18 [1/1] (0.00ns)   --->   "%trunc_ln76_4 = trunc i16 %header_idx_4_load to i1" [/home/paulrr2/Projects/ece527/babelsoc/fpga-network-stack/hls/rocev2/../udp/../packet.hpp:76->/home/paulrr2/Projects/ece527/babelsoc/fpga-network-stack/hls/rocev2/../udp/udp.cpp:129]   --->   Operation 18 'trunc' 'trunc_ln76_4' <Predicate = (state_4_load == 2 & tmp_93)> <Delay = 0.00>
ST_1 : Operation 19 [1/1] (0.00ns)   --->   "%trunc_ln76_5 = trunc i16 %header_idx_4_load to i1" [/home/paulrr2/Projects/ece527/babelsoc/fpga-network-stack/hls/rocev2/../udp/../packet.hpp:76->/home/paulrr2/Projects/ece527/babelsoc/fpga-network-stack/hls/rocev2/../udp/udp.cpp:129]   --->   Operation 19 'trunc' 'trunc_ln76_5' <Predicate = (state_4_load == 2 & tmp_93)> <Delay = 0.00>
ST_1 : Operation 20 [1/1] (0.00ns)   --->   "%Lo_assign_3 = call i22 @_ssdm_op_BitConcatenate.i22.i16.i6(i16 %header_idx_4_load, i6 0)" [/home/paulrr2/Projects/ece527/babelsoc/fpga-network-stack/hls/rocev2/../udp/../packet.hpp:76->/home/paulrr2/Projects/ece527/babelsoc/fpga-network-stack/hls/rocev2/../udp/udp.cpp:129]   --->   Operation 20 'bitconcatenate' 'Lo_assign_3' <Predicate = (state_4_load == 2 & tmp_93)> <Delay = 0.00>
ST_1 : Operation 21 [1/1] (0.00ns)   --->   "%zext_ln76_2 = zext i22 %Lo_assign_3 to i23" [/home/paulrr2/Projects/ece527/babelsoc/fpga-network-stack/hls/rocev2/../udp/../packet.hpp:76->/home/paulrr2/Projects/ece527/babelsoc/fpga-network-stack/hls/rocev2/../udp/udp.cpp:129]   --->   Operation 21 'zext' 'zext_ln76_2' <Predicate = (state_4_load == 2 & tmp_93)> <Delay = 0.00>
ST_1 : Operation 22 [1/1] (1.38ns)   --->   "%add_ln76_2 = add i23 %zext_ln76_2, 64" [/home/paulrr2/Projects/ece527/babelsoc/fpga-network-stack/hls/rocev2/../udp/../packet.hpp:76->/home/paulrr2/Projects/ece527/babelsoc/fpga-network-stack/hls/rocev2/../udp/udp.cpp:129]   --->   Operation 22 'add' 'add_ln76_2' <Predicate = (state_4_load == 2 & tmp_93)> <Delay = 1.38> <Core = "AddSub">   --->   Core 14 'AddSub' <Latency = 0> <II = 1> <Delay = 1.27> <FuncUnit> <Opcode : 'add' 'sub'> <InPorts = 2> <OutPorts = 1>
ST_1 : Operation 23 [1/1] (1.21ns)   --->   "%icmp_ln76_2 = icmp ult i23 %add_ln76_2, 65" [/home/paulrr2/Projects/ece527/babelsoc/fpga-network-stack/hls/rocev2/../udp/../packet.hpp:76->/home/paulrr2/Projects/ece527/babelsoc/fpga-network-stack/hls/rocev2/../udp/udp.cpp:129]   --->   Operation 23 'icmp' 'icmp_ln76_2' <Predicate = (state_4_load == 2 & tmp_93)> <Delay = 1.21> <Core = "Cmp">   --->   Core 25 'Cmp' <Latency = 0> <II = 1> <Delay = 0.87> <FuncUnit> <Opcode : 'icmp'> <InPorts = 2> <OutPorts = 1>
ST_1 : Operation 24 [1/1] (0.00ns)   --->   "%or_ln78_2 = or i22 %Lo_assign_3, 63" [/home/paulrr2/Projects/ece527/babelsoc/fpga-network-stack/hls/rocev2/../udp/../packet.hpp:78->/home/paulrr2/Projects/ece527/babelsoc/fpga-network-stack/hls/rocev2/../udp/udp.cpp:129]   --->   Operation 24 'or' 'or_ln78_2' <Predicate = (state_4_load == 2 & tmp_93)> <Delay = 0.00>
ST_1 : Operation 25 [1/1] (1.21ns)   --->   "%icmp_ln647 = icmp ugt i22 %Lo_assign_3, %or_ln78_2" [/home/paulrr2/Projects/ece527/babelsoc/fpga-network-stack/hls/rocev2/../udp/../packet.hpp:78->/home/paulrr2/Projects/ece527/babelsoc/fpga-network-stack/hls/rocev2/../udp/udp.cpp:129]   --->   Operation 25 'icmp' 'icmp_ln647' <Predicate = (state_4_load == 2 & tmp_93)> <Delay = 1.21> <Core = "Cmp">   --->   Core 25 'Cmp' <Latency = 0> <II = 1> <Delay = 0.87> <FuncUnit> <Opcode : 'icmp'> <InPorts = 2> <OutPorts = 1>
ST_1 : Operation 26 [1/1] (0.00ns)   --->   "%tmp_95 = call i7 @_ssdm_op_BitConcatenate.i7.i1.i6(i1 %trunc_ln76_5, i6 0)" [/home/paulrr2/Projects/ece527/babelsoc/fpga-network-stack/hls/rocev2/../udp/../packet.hpp:78->/home/paulrr2/Projects/ece527/babelsoc/fpga-network-stack/hls/rocev2/../udp/udp.cpp:129]   --->   Operation 26 'bitconcatenate' 'tmp_95' <Predicate = (state_4_load == 2 & tmp_93)> <Delay = 0.00>
ST_1 : Operation 27 [1/1] (0.00ns)   --->   "%trunc_ln647_11 = trunc i22 %or_ln78_2 to i7" [/home/paulrr2/Projects/ece527/babelsoc/fpga-network-stack/hls/rocev2/../udp/../packet.hpp:78->/home/paulrr2/Projects/ece527/babelsoc/fpga-network-stack/hls/rocev2/../udp/udp.cpp:129]   --->   Operation 27 'trunc' 'trunc_ln647_11' <Predicate = (state_4_load == 2 & tmp_93)> <Delay = 0.00>
ST_1 : Operation 28 [1/1] (0.00ns) (grouped into LUT with out node lshr_ln647)   --->   "%tmp_96 = call i64 @llvm.part.select.i64(i64 %p_Val2_32, i32 63, i32 0)" [/home/paulrr2/Projects/ece527/babelsoc/fpga-network-stack/hls/rocev2/../udp/../packet.hpp:78->/home/paulrr2/Projects/ece527/babelsoc/fpga-network-stack/hls/rocev2/../udp/udp.cpp:129]   --->   Operation 28 'partselect' 'tmp_96' <Predicate = (state_4_load == 2 & tmp_93)> <Delay = 0.00>
ST_1 : Operation 29 [1/1] (1.27ns)   --->   "%sub_ln647 = sub i7 %tmp_95, %trunc_ln647_11" [/home/paulrr2/Projects/ece527/babelsoc/fpga-network-stack/hls/rocev2/../udp/../packet.hpp:78->/home/paulrr2/Projects/ece527/babelsoc/fpga-network-stack/hls/rocev2/../udp/udp.cpp:129]   --->   Operation 29 'sub' 'sub_ln647' <Predicate = (state_4_load == 2 & tmp_93)> <Delay = 1.27> <Core = "AddSub">   --->   Core 14 'AddSub' <Latency = 0> <II = 1> <Delay = 1.27> <FuncUnit> <Opcode : 'add' 'sub'> <InPorts = 2> <OutPorts = 1>
ST_1 : Operation 30 [1/1] (1.27ns)   --->   "%sub_ln647_14 = sub i7 63, %tmp_95" [/home/paulrr2/Projects/ece527/babelsoc/fpga-network-stack/hls/rocev2/../udp/../packet.hpp:78->/home/paulrr2/Projects/ece527/babelsoc/fpga-network-stack/hls/rocev2/../udp/udp.cpp:129]   --->   Operation 30 'sub' 'sub_ln647_14' <Predicate = (state_4_load == 2 & tmp_93)> <Delay = 1.27> <Core = "AddSub">   --->   Core 14 'AddSub' <Latency = 0> <II = 1> <Delay = 1.27> <FuncUnit> <Opcode : 'add' 'sub'> <InPorts = 2> <OutPorts = 1>
ST_1 : Operation 31 [1/1] (1.27ns)   --->   "%sub_ln647_15 = sub i7 %trunc_ln647_11, %tmp_95" [/home/paulrr2/Projects/ece527/babelsoc/fpga-network-stack/hls/rocev2/../udp/../packet.hpp:78->/home/paulrr2/Projects/ece527/babelsoc/fpga-network-stack/hls/rocev2/../udp/udp.cpp:129]   --->   Operation 31 'sub' 'sub_ln647_15' <Predicate = (state_4_load == 2 & tmp_93)> <Delay = 1.27> <Core = "AddSub">   --->   Core 14 'AddSub' <Latency = 0> <II = 1> <Delay = 1.27> <FuncUnit> <Opcode : 'add' 'sub'> <InPorts = 2> <OutPorts = 1>
ST_1 : Operation 32 [1/1] (0.00ns) (grouped into LUT with out node sub_ln647_16)   --->   "%select_ln647 = select i1 %icmp_ln647, i7 %sub_ln647, i7 %sub_ln647_15" [/home/paulrr2/Projects/ece527/babelsoc/fpga-network-stack/hls/rocev2/../udp/../packet.hpp:78->/home/paulrr2/Projects/ece527/babelsoc/fpga-network-stack/hls/rocev2/../udp/udp.cpp:129]   --->   Operation 32 'select' 'select_ln647' <Predicate = (state_4_load == 2 & tmp_93)> <Delay = 0.00> <Core = "Sel">   --->   Core 26 'Sel' <Latency = 0> <II = 1> <Delay = 0.62> <FuncUnit> <Opcode : 'select'> <InPorts = 3> <OutPorts = 1>
ST_1 : Operation 33 [1/1] (0.00ns) (grouped into LUT with out node lshr_ln647)   --->   "%select_ln647_12 = select i1 %icmp_ln647, i64 %tmp_96, i64 %p_Val2_32" [/home/paulrr2/Projects/ece527/babelsoc/fpga-network-stack/hls/rocev2/../udp/../packet.hpp:78->/home/paulrr2/Projects/ece527/babelsoc/fpga-network-stack/hls/rocev2/../udp/udp.cpp:129]   --->   Operation 33 'select' 'select_ln647_12' <Predicate = (state_4_load == 2 & tmp_93)> <Delay = 0.00> <Core = "Sel">   --->   Core 26 'Sel' <Latency = 0> <II = 1> <Delay = 0.62> <FuncUnit> <Opcode : 'select'> <InPorts = 3> <OutPorts = 1>
ST_1 : Operation 34 [1/1] (0.00ns) (grouped into LUT with out node lshr_ln647)   --->   "%select_ln647_13 = select i1 %icmp_ln647, i7 %sub_ln647_14, i7 %tmp_95" [/home/paulrr2/Projects/ece527/babelsoc/fpga-network-stack/hls/rocev2/../udp/../packet.hpp:78->/home/paulrr2/Projects/ece527/babelsoc/fpga-network-stack/hls/rocev2/../udp/udp.cpp:129]   --->   Operation 34 'select' 'select_ln647_13' <Predicate = (state_4_load == 2 & tmp_93)> <Delay = 0.00> <Core = "Sel">   --->   Core 26 'Sel' <Latency = 0> <II = 1> <Delay = 0.62> <FuncUnit> <Opcode : 'select'> <InPorts = 3> <OutPorts = 1>
ST_1 : Operation 35 [1/1] (1.27ns) (out node of the LUT)   --->   "%sub_ln647_16 = sub i7 63, %select_ln647" [/home/paulrr2/Projects/ece527/babelsoc/fpga-network-stack/hls/rocev2/../udp/../packet.hpp:78->/home/paulrr2/Projects/ece527/babelsoc/fpga-network-stack/hls/rocev2/../udp/udp.cpp:129]   --->   Operation 35 'sub' 'sub_ln647_16' <Predicate = (state_4_load == 2 & tmp_93)> <Delay = 1.27> <Core = "AddSub">   --->   Core 14 'AddSub' <Latency = 0> <II = 1> <Delay = 1.27> <FuncUnit> <Opcode : 'add' 'sub'> <InPorts = 2> <OutPorts = 1>
ST_1 : Operation 36 [1/1] (0.00ns) (grouped into LUT with out node lshr_ln647)   --->   "%zext_ln647 = zext i7 %select_ln647_13 to i64" [/home/paulrr2/Projects/ece527/babelsoc/fpga-network-stack/hls/rocev2/../udp/../packet.hpp:78->/home/paulrr2/Projects/ece527/babelsoc/fpga-network-stack/hls/rocev2/../udp/udp.cpp:129]   --->   Operation 36 'zext' 'zext_ln647' <Predicate = (state_4_load == 2 & tmp_93)> <Delay = 0.00>
ST_1 : Operation 37 [1/1] (2.35ns) (out node of the LUT)   --->   "%lshr_ln647 = lshr i64 %select_ln647_12, %zext_ln647" [/home/paulrr2/Projects/ece527/babelsoc/fpga-network-stack/hls/rocev2/../udp/../packet.hpp:78->/home/paulrr2/Projects/ece527/babelsoc/fpga-network-stack/hls/rocev2/../udp/udp.cpp:129]   --->   Operation 37 'lshr' 'lshr_ln647' <Predicate = (state_4_load == 2 & tmp_93)> <Delay = 2.35> <Core = "Shift">   --->   Core 28 'Shift' <Latency = 0> <II = 1> <Delay = 1.58> <FuncUnit> <Opcode : 'shl' 'lshr' 'ashr'> <InPorts = 2> <OutPorts = 1>
ST_1 : Operation 38 [1/1] (1.30ns)   --->   "%add_ln79_2 = add i16 %header_idx_4_load, 1" [/home/paulrr2/Projects/ece527/babelsoc/fpga-network-stack/hls/rocev2/../udp/../packet.hpp:79->/home/paulrr2/Projects/ece527/babelsoc/fpga-network-stack/hls/rocev2/../udp/udp.cpp:129]   --->   Operation 38 'add' 'add_ln79_2' <Predicate = (state_4_load == 2 & tmp_93)> <Delay = 1.30> <Core = "AddSub">   --->   Core 14 'AddSub' <Latency = 0> <II = 1> <Delay = 1.27> <FuncUnit> <Opcode : 'add' 'sub'> <InPorts = 2> <OutPorts = 1>
ST_1 : Operation 39 [1/1] (1.18ns)   --->   "%icmp_ln82_2 = icmp eq i16 %header_idx_4_load, 0" [/home/paulrr2/Projects/ece527/babelsoc/fpga-network-stack/hls/rocev2/../udp/../packet.hpp:82->/home/paulrr2/Projects/ece527/babelsoc/fpga-network-stack/hls/rocev2/../udp/udp.cpp:129]   --->   Operation 39 'icmp' 'icmp_ln82_2' <Predicate = (state_4_load == 2 & tmp_93)> <Delay = 1.18> <Core = "Cmp">   --->   Core 25 'Cmp' <Latency = 0> <II = 1> <Delay = 0.87> <FuncUnit> <Opcode : 'icmp'> <InPorts = 2> <OutPorts = 1>
ST_1 : Operation 40 [1/1] (0.00ns)   --->   "%zext_ln647_9 = zext i16 %header_idx_4_load to i26" [/home/paulrr2/Projects/ece527/babelsoc/fpga-network-stack/hls/rocev2/../udp/../packet.hpp:84->/home/paulrr2/Projects/ece527/babelsoc/fpga-network-stack/hls/rocev2/../udp/udp.cpp:129]   --->   Operation 40 'zext' 'zext_ln647_9' <Predicate = (state_4_load == 2 & tmp_93)> <Delay = 0.00>
ST_1 : Operation 41 [1/1] (1.18ns)   --->   "%icmp_ln647_4 = icmp ne i26 %zext_ln647_9, 0" [/home/paulrr2/Projects/ece527/babelsoc/fpga-network-stack/hls/rocev2/../udp/../packet.hpp:84->/home/paulrr2/Projects/ece527/babelsoc/fpga-network-stack/hls/rocev2/../udp/udp.cpp:129]   --->   Operation 41 'icmp' 'icmp_ln647_4' <Predicate = (state_4_load == 2 & tmp_93)> <Delay = 1.18> <Core = "Cmp">   --->   Core 25 'Cmp' <Latency = 0> <II = 1> <Delay = 0.87> <FuncUnit> <Opcode : 'icmp'> <InPorts = 2> <OutPorts = 1>
ST_1 : Operation 42 [1/1] (0.00ns)   --->   "%tmp_97 = call i7 @_ssdm_op_BitConcatenate.i7.i1.i6(i1 %trunc_ln76_4, i6 0)" [/home/paulrr2/Projects/ece527/babelsoc/fpga-network-stack/hls/rocev2/../udp/../packet.hpp:84->/home/paulrr2/Projects/ece527/babelsoc/fpga-network-stack/hls/rocev2/../udp/udp.cpp:129]   --->   Operation 42 'bitconcatenate' 'tmp_97' <Predicate = (state_4_load == 2 & tmp_93)> <Delay = 0.00>
ST_1 : Operation 43 [1/1] (0.00ns) (grouped into LUT with out node lshr_ln647_9)   --->   "%tmp_98 = call i64 @llvm.part.select.i64(i64 %p_Val2_32, i32 63, i32 0)" [/home/paulrr2/Projects/ece527/babelsoc/fpga-network-stack/hls/rocev2/../udp/../packet.hpp:84->/home/paulrr2/Projects/ece527/babelsoc/fpga-network-stack/hls/rocev2/../udp/udp.cpp:129]   --->   Operation 43 'partselect' 'tmp_98' <Predicate = (state_4_load == 2 & tmp_93)> <Delay = 0.00>
ST_1 : Operation 44 [1/1] (1.27ns)   --->   "%add_ln647 = add i7 %tmp_97, -63" [/home/paulrr2/Projects/ece527/babelsoc/fpga-network-stack/hls/rocev2/../udp/../packet.hpp:84->/home/paulrr2/Projects/ece527/babelsoc/fpga-network-stack/hls/rocev2/../udp/udp.cpp:129]   --->   Operation 44 'add' 'add_ln647' <Predicate = (state_4_load == 2 & tmp_93)> <Delay = 1.27> <Core = "AddSub">   --->   Core 14 'AddSub' <Latency = 0> <II = 1> <Delay = 1.27> <FuncUnit> <Opcode : 'add' 'sub'> <InPorts = 2> <OutPorts = 1>
ST_1 : Operation 45 [1/1] (1.27ns)   --->   "%sub_ln647_17 = sub i7 63, %tmp_97" [/home/paulrr2/Projects/ece527/babelsoc/fpga-network-stack/hls/rocev2/../udp/../packet.hpp:84->/home/paulrr2/Projects/ece527/babelsoc/fpga-network-stack/hls/rocev2/../udp/udp.cpp:129]   --->   Operation 45 'sub' 'sub_ln647_17' <Predicate = (state_4_load == 2 & tmp_93)> <Delay = 1.27> <Core = "AddSub">   --->   Core 14 'AddSub' <Latency = 0> <II = 1> <Delay = 1.27> <FuncUnit> <Opcode : 'add' 'sub'> <InPorts = 2> <OutPorts = 1>
ST_1 : Operation 46 [1/1] (1.27ns)   --->   "%sub_ln647_18 = sub i7 63, %tmp_97" [/home/paulrr2/Projects/ece527/babelsoc/fpga-network-stack/hls/rocev2/../udp/../packet.hpp:84->/home/paulrr2/Projects/ece527/babelsoc/fpga-network-stack/hls/rocev2/../udp/udp.cpp:129]   --->   Operation 46 'sub' 'sub_ln647_18' <Predicate = (state_4_load == 2 & tmp_93)> <Delay = 1.27> <Core = "AddSub">   --->   Core 14 'AddSub' <Latency = 0> <II = 1> <Delay = 1.27> <FuncUnit> <Opcode : 'add' 'sub'> <InPorts = 2> <OutPorts = 1>
ST_1 : Operation 47 [1/1] (0.00ns) (grouped into LUT with out node sub_ln647_19)   --->   "%select_ln647_14 = select i1 %icmp_ln647_4, i7 %add_ln647, i7 %sub_ln647_18" [/home/paulrr2/Projects/ece527/babelsoc/fpga-network-stack/hls/rocev2/../udp/../packet.hpp:84->/home/paulrr2/Projects/ece527/babelsoc/fpga-network-stack/hls/rocev2/../udp/udp.cpp:129]   --->   Operation 47 'select' 'select_ln647_14' <Predicate = (state_4_load == 2 & tmp_93)> <Delay = 0.00> <Core = "Sel">   --->   Core 26 'Sel' <Latency = 0> <II = 1> <Delay = 0.62> <FuncUnit> <Opcode : 'select'> <InPorts = 3> <OutPorts = 1>
ST_1 : Operation 48 [1/1] (0.00ns) (grouped into LUT with out node lshr_ln647_9)   --->   "%select_ln647_15 = select i1 %icmp_ln647_4, i64 %tmp_98, i64 %p_Val2_32" [/home/paulrr2/Projects/ece527/babelsoc/fpga-network-stack/hls/rocev2/../udp/../packet.hpp:84->/home/paulrr2/Projects/ece527/babelsoc/fpga-network-stack/hls/rocev2/../udp/udp.cpp:129]   --->   Operation 48 'select' 'select_ln647_15' <Predicate = (state_4_load == 2 & tmp_93)> <Delay = 0.00> <Core = "Sel">   --->   Core 26 'Sel' <Latency = 0> <II = 1> <Delay = 0.62> <FuncUnit> <Opcode : 'select'> <InPorts = 3> <OutPorts = 1>
ST_1 : Operation 49 [1/1] (0.00ns) (grouped into LUT with out node lshr_ln647_9)   --->   "%select_ln647_16 = select i1 %icmp_ln647_4, i7 %sub_ln647_17, i7 %tmp_97" [/home/paulrr2/Projects/ece527/babelsoc/fpga-network-stack/hls/rocev2/../udp/../packet.hpp:84->/home/paulrr2/Projects/ece527/babelsoc/fpga-network-stack/hls/rocev2/../udp/udp.cpp:129]   --->   Operation 49 'select' 'select_ln647_16' <Predicate = (state_4_load == 2 & tmp_93)> <Delay = 0.00> <Core = "Sel">   --->   Core 26 'Sel' <Latency = 0> <II = 1> <Delay = 0.62> <FuncUnit> <Opcode : 'select'> <InPorts = 3> <OutPorts = 1>
ST_1 : Operation 50 [1/1] (1.27ns) (out node of the LUT)   --->   "%sub_ln647_19 = sub i7 63, %select_ln647_14" [/home/paulrr2/Projects/ece527/babelsoc/fpga-network-stack/hls/rocev2/../udp/../packet.hpp:84->/home/paulrr2/Projects/ece527/babelsoc/fpga-network-stack/hls/rocev2/../udp/udp.cpp:129]   --->   Operation 50 'sub' 'sub_ln647_19' <Predicate = (state_4_load == 2 & tmp_93)> <Delay = 1.27> <Core = "AddSub">   --->   Core 14 'AddSub' <Latency = 0> <II = 1> <Delay = 1.27> <FuncUnit> <Opcode : 'add' 'sub'> <InPorts = 2> <OutPorts = 1>
ST_1 : Operation 51 [1/1] (0.00ns) (grouped into LUT with out node lshr_ln647_9)   --->   "%zext_ln647_10 = zext i7 %select_ln647_16 to i64" [/home/paulrr2/Projects/ece527/babelsoc/fpga-network-stack/hls/rocev2/../udp/../packet.hpp:84->/home/paulrr2/Projects/ece527/babelsoc/fpga-network-stack/hls/rocev2/../udp/udp.cpp:129]   --->   Operation 51 'zext' 'zext_ln647_10' <Predicate = (state_4_load == 2 & tmp_93)> <Delay = 0.00>
ST_1 : Operation 52 [1/1] (2.35ns) (out node of the LUT)   --->   "%lshr_ln647_9 = lshr i64 %select_ln647_15, %zext_ln647_10" [/home/paulrr2/Projects/ece527/babelsoc/fpga-network-stack/hls/rocev2/../udp/../packet.hpp:84->/home/paulrr2/Projects/ece527/babelsoc/fpga-network-stack/hls/rocev2/../udp/udp.cpp:129]   --->   Operation 52 'lshr' 'lshr_ln647_9' <Predicate = (state_4_load == 2 & tmp_93)> <Delay = 2.35> <Core = "Shift">   --->   Core 28 'Shift' <Latency = 0> <II = 1> <Delay = 1.58> <FuncUnit> <Opcode : 'shl' 'lshr' 'ashr'> <InPorts = 2> <OutPorts = 1>
ST_1 : Operation 53 [1/1] (0.00ns) (grouped into LUT with out node and_ln82_2)   --->   "%xor_ln76_2 = xor i1 %icmp_ln76_2, true" [/home/paulrr2/Projects/ece527/babelsoc/fpga-network-stack/hls/rocev2/../udp/../packet.hpp:76->/home/paulrr2/Projects/ece527/babelsoc/fpga-network-stack/hls/rocev2/../udp/udp.cpp:129]   --->   Operation 53 'xor' 'xor_ln76_2' <Predicate = (state_4_load == 2 & tmp_93)> <Delay = 0.00> <Core = "LogicGate">   --->   Core 27 'LogicGate' <Latency = 0> <II = 1> <Delay = 0.48> <FuncUnit> <Opcode : 'and' 'or' 'xor'> <InPorts = 2> <OutPorts = 1>
ST_1 : Operation 54 [1/1] (0.48ns) (out node of the LUT)   --->   "%and_ln82_2 = and i1 %icmp_ln82_2, %xor_ln76_2" [/home/paulrr2/Projects/ece527/babelsoc/fpga-network-stack/hls/rocev2/../udp/../packet.hpp:82->/home/paulrr2/Projects/ece527/babelsoc/fpga-network-stack/hls/rocev2/../udp/udp.cpp:129]   --->   Operation 54 'and' 'and_ln82_2' <Predicate = (state_4_load == 2 & tmp_93)> <Delay = 0.48> <Core = "LogicGate">   --->   Core 27 'LogicGate' <Latency = 0> <II = 1> <Delay = 0.48> <FuncUnit> <Opcode : 'and' 'or' 'xor'> <InPorts = 2> <OutPorts = 1>
ST_1 : Operation 55 [1/1] (0.00ns) (grouped into LUT with out node select_ln82_5)   --->   "%select_ln76_3 = select i1 %icmp_ln76_2, i16 %add_ln79_2, i16 %header_idx_4_load" [/home/paulrr2/Projects/ece527/babelsoc/fpga-network-stack/hls/rocev2/../udp/../packet.hpp:76->/home/paulrr2/Projects/ece527/babelsoc/fpga-network-stack/hls/rocev2/../udp/udp.cpp:129]   --->   Operation 55 'select' 'select_ln76_3' <Predicate = (state_4_load == 2 & tmp_93)> <Delay = 0.00> <Core = "Sel">   --->   Core 26 'Sel' <Latency = 0> <II = 1> <Delay = 0.62> <FuncUnit> <Opcode : 'select'> <InPorts = 3> <OutPorts = 1>
ST_1 : Operation 56 [1/1] (0.47ns) (out node of the LUT)   --->   "%select_ln82_5 = select i1 %and_ln82_2, i16 %add_ln79_2, i16 %select_ln76_3" [/home/paulrr2/Projects/ece527/babelsoc/fpga-network-stack/hls/rocev2/../udp/../packet.hpp:82->/home/paulrr2/Projects/ece527/babelsoc/fpga-network-stack/hls/rocev2/../udp/udp.cpp:129]   --->   Operation 56 'select' 'select_ln82_5' <Predicate = (state_4_load == 2 & tmp_93)> <Delay = 0.47> <Core = "Sel">   --->   Core 26 'Sel' <Latency = 0> <II = 1> <Delay = 0.62> <FuncUnit> <Opcode : 'select'> <InPorts = 3> <OutPorts = 1>
ST_1 : Operation 57 [1/1] (0.92ns)   --->   "store i16 %select_ln82_5, i16* @header_idx_4, align 2" [/home/paulrr2/Projects/ece527/babelsoc/fpga-network-stack/hls/rocev2/../udp/udp.cpp:129]   --->   Operation 57 'store' <Predicate = (state_4_load == 2 & tmp_93)> <Delay = 0.92>
ST_1 : Operation 58 [1/1] (0.00ns) (grouped into LUT with out node select_ln132)   --->   "%xor_ln132 = xor i1 %tmp_last_V, true" [/home/paulrr2/Projects/ece527/babelsoc/fpga-network-stack/hls/rocev2/../udp/udp.cpp:132]   --->   Operation 58 'xor' 'xor_ln132' <Predicate = (state_4_load == 2 & tmp_93)> <Delay = 0.00> <Core = "LogicGate">   --->   Core 27 'LogicGate' <Latency = 0> <II = 1> <Delay = 0.48> <FuncUnit> <Opcode : 'and' 'or' 'xor'> <InPorts = 2> <OutPorts = 1>
ST_1 : Operation 59 [1/1] (0.49ns) (out node of the LUT)   --->   "%select_ln132 = select i1 %xor_ln132, i2 -1, i2 0" [/home/paulrr2/Projects/ece527/babelsoc/fpga-network-stack/hls/rocev2/../udp/udp.cpp:132]   --->   Operation 59 'select' 'select_ln132' <Predicate = (state_4_load == 2 & tmp_93)> <Delay = 0.49> <Core = "Sel">   --->   Core 26 'Sel' <Latency = 0> <II = 1> <Delay = 0.62> <FuncUnit> <Opcode : 'select'> <InPorts = 3> <OutPorts = 1>
ST_1 : Operation 60 [1/1] (1.00ns)   --->   "store i2 %select_ln132, i2* @state_4, align 1" [/home/paulrr2/Projects/ece527/babelsoc/fpga-network-stack/hls/rocev2/../udp/udp.cpp:131]   --->   Operation 60 'store' <Predicate = (state_4_load == 2 & tmp_93)> <Delay = 1.00>
ST_1 : Operation 61 [1/1] (0.00ns)   --->   "%trunc_ln76 = trunc i16 %header_idx_4_load to i1" [/home/paulrr2/Projects/ece527/babelsoc/fpga-network-stack/hls/rocev2/../udp/../packet.hpp:76->/home/paulrr2/Projects/ece527/babelsoc/fpga-network-stack/hls/rocev2/../udp/udp.cpp:117]   --->   Operation 61 'trunc' 'trunc_ln76' <Predicate = (state_4_load == 1)> <Delay = 0.00>
ST_1 : Operation 62 [1/1] (0.00ns)   --->   "%Lo_assign = call i22 @_ssdm_op_BitConcatenate.i22.i16.i6(i16 %header_idx_4_load, i6 0)" [/home/paulrr2/Projects/ece527/babelsoc/fpga-network-stack/hls/rocev2/../udp/../packet.hpp:76->/home/paulrr2/Projects/ece527/babelsoc/fpga-network-stack/hls/rocev2/../udp/udp.cpp:117]   --->   Operation 62 'bitconcatenate' 'Lo_assign' <Predicate = (state_4_load == 1)> <Delay = 0.00>
ST_1 : Operation 63 [1/1] (0.00ns)   --->   "%zext_ln76 = zext i22 %Lo_assign to i23" [/home/paulrr2/Projects/ece527/babelsoc/fpga-network-stack/hls/rocev2/../udp/../packet.hpp:76->/home/paulrr2/Projects/ece527/babelsoc/fpga-network-stack/hls/rocev2/../udp/udp.cpp:117]   --->   Operation 63 'zext' 'zext_ln76' <Predicate = (state_4_load == 1)> <Delay = 0.00>
ST_1 : Operation 64 [1/1] (1.38ns)   --->   "%add_ln76 = add i23 %zext_ln76, 64" [/home/paulrr2/Projects/ece527/babelsoc/fpga-network-stack/hls/rocev2/../udp/../packet.hpp:76->/home/paulrr2/Projects/ece527/babelsoc/fpga-network-stack/hls/rocev2/../udp/udp.cpp:117]   --->   Operation 64 'add' 'add_ln76' <Predicate = (state_4_load == 1)> <Delay = 1.38> <Core = "AddSub">   --->   Core 14 'AddSub' <Latency = 0> <II = 1> <Delay = 1.27> <FuncUnit> <Opcode : 'add' 'sub'> <InPorts = 2> <OutPorts = 1>
ST_1 : Operation 65 [1/1] (1.21ns)   --->   "%icmp_ln76 = icmp ult i23 %add_ln76, 65" [/home/paulrr2/Projects/ece527/babelsoc/fpga-network-stack/hls/rocev2/../udp/../packet.hpp:76->/home/paulrr2/Projects/ece527/babelsoc/fpga-network-stack/hls/rocev2/../udp/udp.cpp:117]   --->   Operation 65 'icmp' 'icmp_ln76' <Predicate = (state_4_load == 1)> <Delay = 1.21> <Core = "Cmp">   --->   Core 25 'Cmp' <Latency = 0> <II = 1> <Delay = 0.87> <FuncUnit> <Opcode : 'icmp'> <InPorts = 2> <OutPorts = 1>
ST_1 : Operation 66 [1/1] (0.00ns) (grouped into LUT with out node select_ln82_4)   --->   "%or_ln78 = or i22 %Lo_assign, 63" [/home/paulrr2/Projects/ece527/babelsoc/fpga-network-stack/hls/rocev2/../udp/../packet.hpp:78->/home/paulrr2/Projects/ece527/babelsoc/fpga-network-stack/hls/rocev2/../udp/udp.cpp:117]   --->   Operation 66 'or' 'or_ln78' <Predicate = (state_4_load == 1)> <Delay = 0.00>
ST_1 : Operation 67 [1/1] (1.30ns)   --->   "%add_ln79 = add i16 %header_idx_4_load, 1" [/home/paulrr2/Projects/ece527/babelsoc/fpga-network-stack/hls/rocev2/../udp/../packet.hpp:79->/home/paulrr2/Projects/ece527/babelsoc/fpga-network-stack/hls/rocev2/../udp/udp.cpp:117]   --->   Operation 67 'add' 'add_ln79' <Predicate = (state_4_load == 1)> <Delay = 1.30> <Core = "AddSub">   --->   Core 14 'AddSub' <Latency = 0> <II = 1> <Delay = 1.27> <FuncUnit> <Opcode : 'add' 'sub'> <InPorts = 2> <OutPorts = 1>
ST_1 : Operation 68 [1/1] (0.00ns)   --->   "%shl_ln = call i22 @_ssdm_op_BitConcatenate.i22.i16.i6(i16 %add_ln79, i6 0)" [/home/paulrr2/Projects/ece527/babelsoc/fpga-network-stack/hls/rocev2/../udp/../packet.hpp:80->/home/paulrr2/Projects/ece527/babelsoc/fpga-network-stack/hls/rocev2/../udp/udp.cpp:117]   --->   Operation 68 'bitconcatenate' 'shl_ln' <Predicate = (state_4_load == 1)> <Delay = 0.00>
ST_1 : Operation 69 [1/1] (0.00ns)   --->   "%zext_ln80 = zext i22 %shl_ln to i23" [/home/paulrr2/Projects/ece527/babelsoc/fpga-network-stack/hls/rocev2/../udp/../packet.hpp:80->/home/paulrr2/Projects/ece527/babelsoc/fpga-network-stack/hls/rocev2/../udp/udp.cpp:117]   --->   Operation 69 'zext' 'zext_ln80' <Predicate = (state_4_load == 1)> <Delay = 0.00>
ST_1 : Operation 70 [1/1] (1.38ns)   --->   "%sub_ln80 = sub i23 64, %zext_ln80" [/home/paulrr2/Projects/ece527/babelsoc/fpga-network-stack/hls/rocev2/../udp/../packet.hpp:80->/home/paulrr2/Projects/ece527/babelsoc/fpga-network-stack/hls/rocev2/../udp/udp.cpp:117]   --->   Operation 70 'sub' 'sub_ln80' <Predicate = (state_4_load == 1)> <Delay = 1.38> <Core = "AddSub">   --->   Core 14 'AddSub' <Latency = 0> <II = 1> <Delay = 1.27> <FuncUnit> <Opcode : 'add' 'sub'> <InPorts = 2> <OutPorts = 1>
ST_1 : Operation 71 [1/1] (0.00ns) (grouped into LUT with out node icmp_ln887)   --->   "%tmp_88 = call i1 @_ssdm_op_BitSelect.i1.i23.i32(i23 %sub_ln80, i32 22)" [/home/paulrr2/Projects/ece527/babelsoc/fpga-network-stack/hls/rocev2/../udp/../packet.hpp:80->/home/paulrr2/Projects/ece527/babelsoc/fpga-network-stack/hls/rocev2/../udp/udp.cpp:117]   --->   Operation 71 'bitselect' 'tmp_88' <Predicate = (state_4_load == 1)> <Delay = 0.00>
ST_1 : Operation 72 [1/1] (1.39ns)   --->   "%sub_ln80_3 = sub i23 0, %sub_ln80" [/home/paulrr2/Projects/ece527/babelsoc/fpga-network-stack/hls/rocev2/../udp/../packet.hpp:80->/home/paulrr2/Projects/ece527/babelsoc/fpga-network-stack/hls/rocev2/../udp/udp.cpp:117]   --->   Operation 72 'sub' 'sub_ln80_3' <Predicate = (state_4_load == 1)> <Delay = 1.39> <Core = "AddSub">   --->   Core 14 'AddSub' <Latency = 0> <II = 1> <Delay = 1.27> <FuncUnit> <Opcode : 'add' 'sub'> <InPorts = 2> <OutPorts = 1>
ST_1 : Operation 73 [1/1] (0.00ns)   --->   "%trunc_ln80_3 = call i8 @_ssdm_op_PartSelect.i8.i23.i32.i32(i23 %sub_ln80_3, i32 3, i32 10)" [/home/paulrr2/Projects/ece527/babelsoc/fpga-network-stack/hls/rocev2/../udp/../packet.hpp:80->/home/paulrr2/Projects/ece527/babelsoc/fpga-network-stack/hls/rocev2/../udp/udp.cpp:117]   --->   Operation 73 'partselect' 'trunc_ln80_3' <Predicate = (state_4_load == 1)> <Delay = 0.00>
ST_1 : Operation 74 [1/1] (1.35ns)   --->   "%sub_ln80_4 = sub i8 0, %trunc_ln80_3" [/home/paulrr2/Projects/ece527/babelsoc/fpga-network-stack/hls/rocev2/../udp/../packet.hpp:80->/home/paulrr2/Projects/ece527/babelsoc/fpga-network-stack/hls/rocev2/../udp/udp.cpp:117]   --->   Operation 74 'sub' 'sub_ln80_4' <Predicate = (state_4_load == 1)> <Delay = 1.35> <Core = "AddSub">   --->   Core 14 'AddSub' <Latency = 0> <II = 1> <Delay = 1.27> <FuncUnit> <Opcode : 'add' 'sub'> <InPorts = 2> <OutPorts = 1>
ST_1 : Operation 75 [1/1] (1.18ns)   --->   "%icmp_ln82 = icmp eq i16 %header_idx_4_load, 0" [/home/paulrr2/Projects/ece527/babelsoc/fpga-network-stack/hls/rocev2/../udp/../packet.hpp:82->/home/paulrr2/Projects/ece527/babelsoc/fpga-network-stack/hls/rocev2/../udp/udp.cpp:117]   --->   Operation 75 'icmp' 'icmp_ln82' <Predicate = (state_4_load == 1)> <Delay = 1.18> <Core = "Cmp">   --->   Core 25 'Cmp' <Latency = 0> <II = 1> <Delay = 0.87> <FuncUnit> <Opcode : 'icmp'> <InPorts = 2> <OutPorts = 1>
ST_1 : Operation 76 [1/1] (0.48ns)   --->   "%xor_ln76 = xor i1 %icmp_ln76, true" [/home/paulrr2/Projects/ece527/babelsoc/fpga-network-stack/hls/rocev2/../udp/../packet.hpp:76->/home/paulrr2/Projects/ece527/babelsoc/fpga-network-stack/hls/rocev2/../udp/udp.cpp:117]   --->   Operation 76 'xor' 'xor_ln76' <Predicate = (state_4_load == 1)> <Delay = 0.48> <Core = "LogicGate">   --->   Core 27 'LogicGate' <Latency = 0> <II = 1> <Delay = 0.48> <FuncUnit> <Opcode : 'and' 'or' 'xor'> <InPorts = 2> <OutPorts = 1>
ST_1 : Operation 77 [1/1] (0.48ns)   --->   "%and_ln82 = and i1 %icmp_ln82, %xor_ln76" [/home/paulrr2/Projects/ece527/babelsoc/fpga-network-stack/hls/rocev2/../udp/../packet.hpp:82->/home/paulrr2/Projects/ece527/babelsoc/fpga-network-stack/hls/rocev2/../udp/udp.cpp:117]   --->   Operation 77 'and' 'and_ln82' <Predicate = (state_4_load == 1)> <Delay = 0.48> <Core = "LogicGate">   --->   Core 27 'LogicGate' <Latency = 0> <II = 1> <Delay = 0.48> <FuncUnit> <Opcode : 'and' 'or' 'xor'> <InPorts = 2> <OutPorts = 1>
ST_1 : Operation 78 [1/1] (0.00ns) (grouped into LUT with out node select_ln82)   --->   "%select_ln76 = select i1 %icmp_ln76, i16 %add_ln79, i16 %header_idx_4_load" [/home/paulrr2/Projects/ece527/babelsoc/fpga-network-stack/hls/rocev2/../udp/../packet.hpp:76->/home/paulrr2/Projects/ece527/babelsoc/fpga-network-stack/hls/rocev2/../udp/udp.cpp:117]   --->   Operation 78 'select' 'select_ln76' <Predicate = (state_4_load == 1)> <Delay = 0.00> <Core = "Sel">   --->   Core 26 'Sel' <Latency = 0> <II = 1> <Delay = 0.62> <FuncUnit> <Opcode : 'select'> <InPorts = 3> <OutPorts = 1>
ST_1 : Operation 79 [1/1] (0.47ns) (out node of the LUT)   --->   "%select_ln82 = select i1 %and_ln82, i16 %add_ln79, i16 %select_ln76" [/home/paulrr2/Projects/ece527/babelsoc/fpga-network-stack/hls/rocev2/../udp/../packet.hpp:82->/home/paulrr2/Projects/ece527/babelsoc/fpga-network-stack/hls/rocev2/../udp/udp.cpp:117]   --->   Operation 79 'select' 'select_ln82' <Predicate = (state_4_load == 1)> <Delay = 0.47> <Core = "Sel">   --->   Core 26 'Sel' <Latency = 0> <II = 1> <Delay = 0.62> <FuncUnit> <Opcode : 'select'> <InPorts = 3> <OutPorts = 1>
ST_1 : Operation 80 [1/1] (0.77ns) (out node of the LUT)   --->   "%select_ln82_4 = select i1 %and_ln82, i22 63, i22 %or_ln78" [/home/paulrr2/Projects/ece527/babelsoc/fpga-network-stack/hls/rocev2/../udp/../packet.hpp:82->/home/paulrr2/Projects/ece527/babelsoc/fpga-network-stack/hls/rocev2/../udp/udp.cpp:117]   --->   Operation 80 'select' 'select_ln82_4' <Predicate = (state_4_load == 1)> <Delay = 0.77> <Core = "Sel">   --->   Core 26 'Sel' <Latency = 0> <II = 1> <Delay = 0.62> <FuncUnit> <Opcode : 'select'> <InPorts = 3> <OutPorts = 1>
ST_1 : Operation 81 [1/1] (1.21ns)   --->   "%icmp_ln82_3 = icmp ugt i22 %Lo_assign, %select_ln82_4" [/home/paulrr2/Projects/ece527/babelsoc/fpga-network-stack/hls/rocev2/../udp/../packet.hpp:82->/home/paulrr2/Projects/ece527/babelsoc/fpga-network-stack/hls/rocev2/../udp/udp.cpp:117]   --->   Operation 81 'icmp' 'icmp_ln82_3' <Predicate = (state_4_load == 1)> <Delay = 1.21> <Core = "Cmp">   --->   Core 25 'Cmp' <Latency = 0> <II = 1> <Delay = 0.87> <FuncUnit> <Opcode : 'icmp'> <InPorts = 2> <OutPorts = 1>
ST_1 : Operation 82 [1/1] (0.00ns)   --->   "%trunc_ln82 = trunc i22 %select_ln82_4 to i7" [/home/paulrr2/Projects/ece527/babelsoc/fpga-network-stack/hls/rocev2/../udp/../packet.hpp:82->/home/paulrr2/Projects/ece527/babelsoc/fpga-network-stack/hls/rocev2/../udp/udp.cpp:117]   --->   Operation 82 'trunc' 'trunc_ln82' <Predicate = (state_4_load == 1)> <Delay = 0.00>
ST_1 : Operation 83 [1/1] (0.92ns)   --->   "store i16 %select_ln82, i16* @header_idx_4, align 2" [/home/paulrr2/Projects/ece527/babelsoc/fpga-network-stack/hls/rocev2/../udp/udp.cpp:117]   --->   Operation 83 'store' <Predicate = (state_4_load == 1)> <Delay = 0.92>
ST_1 : Operation 84 [1/1] (0.00ns) (grouped into LUT with out node icmp_ln887)   --->   "%tmp_91 = call i5 @_ssdm_op_PartSelect.i5.i8.i32.i32(i8 %sub_ln80_4, i32 3, i32 7)" [/home/paulrr2/Projects/ece527/babelsoc/fpga-network-stack/hls/rocev2/../udp/udp.cpp:117]   --->   Operation 84 'partselect' 'tmp_91' <Predicate = (state_4_load == 1)> <Delay = 0.00>
ST_1 : Operation 85 [1/1] (0.00ns) (grouped into LUT with out node icmp_ln887)   --->   "%tmp_92 = call i5 @_ssdm_op_PartSelect.i5.i23.i32.i32(i23 %sub_ln80, i32 6, i32 10)" [/home/paulrr2/Projects/ece527/babelsoc/fpga-network-stack/hls/rocev2/../udp/udp.cpp:117]   --->   Operation 85 'partselect' 'tmp_92' <Predicate = (state_4_load == 1)> <Delay = 0.00>
ST_1 : Operation 86 [1/1] (0.00ns) (grouped into LUT with out node icmp_ln887)   --->   "%select_ln80 = select i1 %tmp_88, i5 %tmp_91, i5 %tmp_92" [/home/paulrr2/Projects/ece527/babelsoc/fpga-network-stack/hls/rocev2/../udp/../packet.hpp:80->/home/paulrr2/Projects/ece527/babelsoc/fpga-network-stack/hls/rocev2/../udp/udp.cpp:117]   --->   Operation 86 'select' 'select_ln80' <Predicate = (state_4_load == 1)> <Delay = 0.00> <Core = "Sel">   --->   Core 26 'Sel' <Latency = 0> <II = 1> <Delay = 0.62> <FuncUnit> <Opcode : 'select'> <InPorts = 3> <OutPorts = 1>
ST_1 : Operation 87 [1/1] (0.87ns) (out node of the LUT)   --->   "%icmp_ln887 = icmp eq i5 %select_ln80, 0" [/home/paulrr2/Projects/ece527/babelsoc/fpga-network-stack/hls/rocev2/../udp/udp.cpp:117]   --->   Operation 87 'icmp' 'icmp_ln887' <Predicate = (state_4_load == 1)> <Delay = 0.87> <Core = "Cmp">   --->   Core 25 'Cmp' <Latency = 0> <II = 1> <Delay = 0.87> <FuncUnit> <Opcode : 'icmp'> <InPorts = 2> <OutPorts = 1>
ST_1 : Operation 88 [1/1] (0.48ns)   --->   "%or_ln887 = or i1 %icmp_ln887, %xor_ln76" [/home/paulrr2/Projects/ece527/babelsoc/fpga-network-stack/hls/rocev2/../udp/udp.cpp:117]   --->   Operation 88 'or' 'or_ln887' <Predicate = (state_4_load == 1)> <Delay = 0.48> <Core = "LogicGate">   --->   Core 27 'LogicGate' <Latency = 0> <II = 1> <Delay = 0.48> <FuncUnit> <Opcode : 'and' 'or' 'xor'> <InPorts = 2> <OutPorts = 1>
ST_1 : Operation 89 [1/1] (0.00ns)   --->   "br i1 %or_ln887, label %3, label %._crit_edge3.i" [/home/paulrr2/Projects/ece527/babelsoc/fpga-network-stack/hls/rocev2/../udp/udp.cpp:117]   --->   Operation 89 'br' <Predicate = (state_4_load == 1)> <Delay = 0.00>
ST_1 : Operation 90 [1/1] (1.00ns)   --->   "store i2 -2, i2* @state_4, align 1" [/home/paulrr2/Projects/ece527/babelsoc/fpga-network-stack/hls/rocev2/../udp/udp.cpp:119]   --->   Operation 90 'store' <Predicate = (state_4_load == 1 & or_ln887)> <Delay = 1.00>
ST_1 : Operation 91 [1/1] (0.00ns)   --->   "%tmp = call i1 @_ssdm_op_NbReadReq.ap_fifo.i16P.i16P.i16P.i1P(i16* @tx_udpMetaFifo_V_the, i16* @tx_udpMetaFifo_V_my_s, i16* @tx_udpMetaFifo_V_len, i1* @tx_udpMetaFifo_V_val, i32 1) nounwind" [/home/paulrr2/Projects/ece527/babelsoc/fpga-network-stack/hls/rocev2/../udp/udp.cpp:99]   --->   Operation 91 'nbreadreq' 'tmp' <Predicate = (state_4_load == 0)> <Delay = 0.00> <Core = "FIFO">   --->   Core 32 'FIFO' <Latency = 0> <II = 1> <Delay = 2.39> <Storage> <Opcode : 'read' 'write' 'nbread' 'nbwrite'> <Ports = 0> <Width = 16> <Depth = 2> <FIFO>
ST_1 : Operation 92 [1/1] (0.00ns)   --->   "br i1 %tmp, label %1, label %._crit_edge2.i" [/home/paulrr2/Projects/ece527/babelsoc/fpga-network-stack/hls/rocev2/../udp/udp.cpp:99]   --->   Operation 92 'br' <Predicate = (state_4_load == 0)> <Delay = 0.00>
ST_1 : Operation 93 [1/1] (2.39ns)   --->   "%empty = call { i16, i16, i16, i1 } @_ssdm_op_Read.ap_fifo.volatile.i16P.i16P.i16P.i1P(i16* @tx_udpMetaFifo_V_the, i16* @tx_udpMetaFifo_V_my_s, i16* @tx_udpMetaFifo_V_len, i1* @tx_udpMetaFifo_V_val) nounwind" [/home/paulrr2/Projects/ece527/babelsoc/fpga-network-stack/hls/rocev2/../udp/udp.cpp:101]   --->   Operation 93 'read' 'empty' <Predicate = (state_4_load == 0 & tmp)> <Delay = 2.39> <Core = "FIFO">   --->   Core 32 'FIFO' <Latency = 0> <II = 1> <Delay = 2.39> <Storage> <Opcode : 'read' 'write' 'nbread' 'nbwrite'> <Ports = 0> <Width = 16> <Depth = 2> <FIFO>
ST_1 : Operation 94 [1/1] (0.00ns)   --->   "%tmp_their_port_V = extractvalue { i16, i16, i16, i1 } %empty, 0" [/home/paulrr2/Projects/ece527/babelsoc/fpga-network-stack/hls/rocev2/../udp/udp.cpp:101]   --->   Operation 94 'extractvalue' 'tmp_their_port_V' <Predicate = (state_4_load == 0 & tmp)> <Delay = 0.00>
ST_1 : Operation 95 [1/1] (0.00ns)   --->   "%tmp_my_port_V = extractvalue { i16, i16, i16, i1 } %empty, 1" [/home/paulrr2/Projects/ece527/babelsoc/fpga-network-stack/hls/rocev2/../udp/udp.cpp:101]   --->   Operation 95 'extractvalue' 'tmp_my_port_V' <Predicate = (state_4_load == 0 & tmp)> <Delay = 0.00>
ST_1 : Operation 96 [1/1] (0.00ns)   --->   "%tmp_length_V = extractvalue { i16, i16, i16, i1 } %empty, 2" [/home/paulrr2/Projects/ece527/babelsoc/fpga-network-stack/hls/rocev2/../udp/udp.cpp:101]   --->   Operation 96 'extractvalue' 'tmp_length_V' <Predicate = (state_4_load == 0 & tmp)> <Delay = 0.00>
ST_1 : Operation 97 [1/1] (0.92ns)   --->   "store i16 0, i16* @header_idx_4, align 2" [/home/paulrr2/Projects/ece527/babelsoc/fpga-network-stack/hls/rocev2/../udp/udp.cpp:102]   --->   Operation 97 'store' <Predicate = (state_4_load == 0 & tmp)> <Delay = 0.92>
ST_1 : Operation 98 [1/1] (0.00ns)   --->   "%p_Result_71_i_i_i = call i8 @_ssdm_op_PartSelect.i8.i16.i32.i32(i16 %tmp_their_port_V, i32 8, i32 15) nounwind" [/home/paulrr2/Projects/ece527/babelsoc/fpga-network-stack/hls/rocev2/../udp/../axi_utils.hpp:79->/home/paulrr2/Projects/ece527/babelsoc/fpga-network-stack/hls/rocev2/../udp/udp.hpp:95->/home/paulrr2/Projects/ece527/babelsoc/fpga-network-stack/hls/rocev2/../udp/udp.cpp:103]   --->   Operation 98 'partselect' 'p_Result_71_i_i_i' <Predicate = (state_4_load == 0 & tmp)> <Delay = 0.00>
ST_1 : Operation 99 [1/1] (0.00ns)   --->   "%trunc_ln647 = trunc i16 %tmp_their_port_V to i8" [/home/paulrr2/Projects/ece527/babelsoc/fpga-network-stack/hls/rocev2/../udp/../axi_utils.hpp:79->/home/paulrr2/Projects/ece527/babelsoc/fpga-network-stack/hls/rocev2/../udp/udp.hpp:95->/home/paulrr2/Projects/ece527/babelsoc/fpga-network-stack/hls/rocev2/../udp/udp.cpp:103]   --->   Operation 99 'trunc' 'trunc_ln647' <Predicate = (state_4_load == 0 & tmp)> <Delay = 0.00>
ST_1 : Operation 100 [1/1] (0.00ns)   --->   "%agg_result_V_0_1_i_i = call i16 @_ssdm_op_BitConcatenate.i16.i8.i8(i8 %trunc_ln647, i8 %p_Result_71_i_i_i) nounwind" [/home/paulrr2/Projects/ece527/babelsoc/fpga-network-stack/hls/rocev2/../udp/../axi_utils.hpp:79->/home/paulrr2/Projects/ece527/babelsoc/fpga-network-stack/hls/rocev2/../udp/udp.hpp:95->/home/paulrr2/Projects/ece527/babelsoc/fpga-network-stack/hls/rocev2/../udp/udp.cpp:103]   --->   Operation 100 'bitconcatenate' 'agg_result_V_0_1_i_i' <Predicate = (state_4_load == 0 & tmp)> <Delay = 0.00>
ST_1 : Operation 101 [1/1] (0.00ns)   --->   "%p_Val2_27 = load i64* @header_header_V_5, align 8" [/home/paulrr2/Projects/ece527/babelsoc/fpga-network-stack/hls/rocev2/../udp/udp.hpp:95->/home/paulrr2/Projects/ece527/babelsoc/fpga-network-stack/hls/rocev2/../udp/udp.cpp:103]   --->   Operation 101 'load' 'p_Val2_27' <Predicate = (state_4_load == 0 & tmp)> <Delay = 0.00>
ST_1 : Operation 102 [1/1] (0.00ns)   --->   "%p_Result_38 = call i64 @llvm.part.set.i64.i16(i64 %p_Val2_27, i16 %agg_result_V_0_1_i_i, i32 16, i32 31) nounwind" [/home/paulrr2/Projects/ece527/babelsoc/fpga-network-stack/hls/rocev2/../udp/udp.hpp:95->/home/paulrr2/Projects/ece527/babelsoc/fpga-network-stack/hls/rocev2/../udp/udp.cpp:103]   --->   Operation 102 'partset' 'p_Result_38' <Predicate = (state_4_load == 0 & tmp)> <Delay = 0.00>
ST_1 : Operation 103 [1/1] (0.00ns)   --->   "%p_Result_71_i_i81_s = call i8 @_ssdm_op_PartSelect.i8.i16.i32.i32(i16 %tmp_my_port_V, i32 8, i32 15) nounwind" [/home/paulrr2/Projects/ece527/babelsoc/fpga-network-stack/hls/rocev2/../udp/../axi_utils.hpp:79->/home/paulrr2/Projects/ece527/babelsoc/fpga-network-stack/hls/rocev2/../udp/udp.hpp:87->/home/paulrr2/Projects/ece527/babelsoc/fpga-network-stack/hls/rocev2/../udp/udp.cpp:104]   --->   Operation 103 'partselect' 'p_Result_71_i_i81_s' <Predicate = (state_4_load == 0 & tmp)> <Delay = 0.00>
ST_1 : Operation 104 [1/1] (0.00ns)   --->   "%trunc_ln647_9 = trunc i16 %tmp_my_port_V to i8" [/home/paulrr2/Projects/ece527/babelsoc/fpga-network-stack/hls/rocev2/../udp/../axi_utils.hpp:79->/home/paulrr2/Projects/ece527/babelsoc/fpga-network-stack/hls/rocev2/../udp/udp.hpp:87->/home/paulrr2/Projects/ece527/babelsoc/fpga-network-stack/hls/rocev2/../udp/udp.cpp:104]   --->   Operation 104 'trunc' 'trunc_ln647_9' <Predicate = (state_4_load == 0 & tmp)> <Delay = 0.00>
ST_1 : Operation 105 [1/1] (0.00ns)   --->   "%agg_result_V_0_1_i_i_1 = call i16 @_ssdm_op_BitConcatenate.i16.i8.i8(i8 %trunc_ln647_9, i8 %p_Result_71_i_i81_s) nounwind" [/home/paulrr2/Projects/ece527/babelsoc/fpga-network-stack/hls/rocev2/../udp/../axi_utils.hpp:79->/home/paulrr2/Projects/ece527/babelsoc/fpga-network-stack/hls/rocev2/../udp/udp.hpp:87->/home/paulrr2/Projects/ece527/babelsoc/fpga-network-stack/hls/rocev2/../udp/udp.cpp:104]   --->   Operation 105 'bitconcatenate' 'agg_result_V_0_1_i_i_1' <Predicate = (state_4_load == 0 & tmp)> <Delay = 0.00>
ST_1 : Operation 106 [1/1] (0.00ns)   --->   "%p_Result_39 = call i64 @llvm.part.set.i64.i16(i64 %p_Result_38, i16 %agg_result_V_0_1_i_i_1, i32 0, i32 15) nounwind" [/home/paulrr2/Projects/ece527/babelsoc/fpga-network-stack/hls/rocev2/../udp/udp.hpp:87->/home/paulrr2/Projects/ece527/babelsoc/fpga-network-stack/hls/rocev2/../udp/udp.cpp:104]   --->   Operation 106 'partset' 'p_Result_39' <Predicate = (state_4_load == 0 & tmp)> <Delay = 0.00>
ST_1 : Operation 107 [1/1] (0.00ns)   --->   "%p_Result_71_i_i86_s = call i8 @_ssdm_op_PartSelect.i8.i16.i32.i32(i16 %tmp_length_V, i32 8, i32 15) nounwind" [/home/paulrr2/Projects/ece527/babelsoc/fpga-network-stack/hls/rocev2/../udp/../axi_utils.hpp:79->/home/paulrr2/Projects/ece527/babelsoc/fpga-network-stack/hls/rocev2/../udp/udp.hpp:103->/home/paulrr2/Projects/ece527/babelsoc/fpga-network-stack/hls/rocev2/../udp/udp.cpp:105]   --->   Operation 107 'partselect' 'p_Result_71_i_i86_s' <Predicate = (state_4_load == 0 & tmp)> <Delay = 0.00>
ST_1 : Operation 108 [1/1] (0.00ns)   --->   "%trunc_ln647_10 = trunc i16 %tmp_length_V to i8" [/home/paulrr2/Projects/ece527/babelsoc/fpga-network-stack/hls/rocev2/../udp/../axi_utils.hpp:79->/home/paulrr2/Projects/ece527/babelsoc/fpga-network-stack/hls/rocev2/../udp/udp.hpp:103->/home/paulrr2/Projects/ece527/babelsoc/fpga-network-stack/hls/rocev2/../udp/udp.cpp:105]   --->   Operation 108 'trunc' 'trunc_ln647_10' <Predicate = (state_4_load == 0 & tmp)> <Delay = 0.00>
ST_1 : Operation 109 [1/1] (0.00ns)   --->   "%agg_result_V_0_1_i_i_2 = call i16 @_ssdm_op_BitConcatenate.i16.i8.i8(i8 %trunc_ln647_10, i8 %p_Result_71_i_i86_s) nounwind" [/home/paulrr2/Projects/ece527/babelsoc/fpga-network-stack/hls/rocev2/../udp/../axi_utils.hpp:79->/home/paulrr2/Projects/ece527/babelsoc/fpga-network-stack/hls/rocev2/../udp/udp.hpp:103->/home/paulrr2/Projects/ece527/babelsoc/fpga-network-stack/hls/rocev2/../udp/udp.cpp:105]   --->   Operation 109 'bitconcatenate' 'agg_result_V_0_1_i_i_2' <Predicate = (state_4_load == 0 & tmp)> <Delay = 0.00>
ST_1 : Operation 110 [1/1] (0.00ns)   --->   "%p_Result_s = call i64 @llvm.part.set.i64.i16(i64 %p_Result_39, i16 %agg_result_V_0_1_i_i_2, i32 32, i32 47) nounwind" [/home/paulrr2/Projects/ece527/babelsoc/fpga-network-stack/hls/rocev2/../udp/udp.hpp:103->/home/paulrr2/Projects/ece527/babelsoc/fpga-network-stack/hls/rocev2/../udp/udp.cpp:105]   --->   Operation 110 'partset' 'p_Result_s' <Predicate = (state_4_load == 0 & tmp)> <Delay = 0.00>
ST_1 : Operation 111 [1/1] (0.00ns)   --->   "store i64 %p_Result_s, i64* @header_header_V_5, align 8" [/home/paulrr2/Projects/ece527/babelsoc/fpga-network-stack/hls/rocev2/../udp/udp.hpp:103->/home/paulrr2/Projects/ece527/babelsoc/fpga-network-stack/hls/rocev2/../udp/udp.cpp:105]   --->   Operation 111 'store' <Predicate = (state_4_load == 0 & tmp)> <Delay = 0.00>
ST_1 : Operation 112 [1/1] (1.00ns)   --->   "store i2 1, i2* @state_4, align 1" [/home/paulrr2/Projects/ece527/babelsoc/fpga-network-stack/hls/rocev2/../udp/udp.cpp:108]   --->   Operation 112 'store' <Predicate = (state_4_load == 0 & tmp)> <Delay = 1.00>

State 2 <SV = 1> <Delay = 3.62>
ST_2 : Operation 113 [1/1] (0.00ns)   --->   "br i1 %tmp_94, label %6, label %._crit_edge6.i" [/home/paulrr2/Projects/ece527/babelsoc/fpga-network-stack/hls/rocev2/../udp/udp.cpp:139]   --->   Operation 113 'br' <Predicate = (state_4_load == 3)> <Delay = 0.00>
ST_2 : Operation 114 [1/1] (0.00ns)   --->   "br i1 %tmp_93, label %._crit_edge5.i, label %._crit_edge4.i" [/home/paulrr2/Projects/ece527/babelsoc/fpga-network-stack/hls/rocev2/../udp/udp.cpp:126]   --->   Operation 114 'br' <Predicate = (state_4_load == 2)> <Delay = 0.00>
ST_2 : Operation 115 [1/1] (0.00ns)   --->   "%p_Val2_s = load i64* @header_header_V_5, align 8" [/home/paulrr2/Projects/ece527/babelsoc/fpga-network-stack/hls/rocev2/../udp/udp.cpp:117]   --->   Operation 115 'load' 'p_Val2_s' <Predicate = (state_4_load == 1)> <Delay = 0.00>
ST_2 : Operation 116 [1/1] (0.00ns)   --->   "%tmp_89 = call i7 @_ssdm_op_BitConcatenate.i7.i1.i6(i1 %trunc_ln76, i6 0)" [/home/paulrr2/Projects/ece527/babelsoc/fpga-network-stack/hls/rocev2/../udp/../packet.hpp:82->/home/paulrr2/Projects/ece527/babelsoc/fpga-network-stack/hls/rocev2/../udp/udp.cpp:117]   --->   Operation 116 'bitconcatenate' 'tmp_89' <Predicate = (state_4_load == 1)> <Delay = 0.00>
ST_2 : Operation 117 [1/1] (0.00ns) (grouped into LUT with out node lshr_ln82)   --->   "%tmp_90 = call i64 @llvm.part.select.i64(i64 %p_Val2_s, i32 63, i32 0)" [/home/paulrr2/Projects/ece527/babelsoc/fpga-network-stack/hls/rocev2/../udp/../packet.hpp:82->/home/paulrr2/Projects/ece527/babelsoc/fpga-network-stack/hls/rocev2/../udp/udp.cpp:117]   --->   Operation 117 'partselect' 'tmp_90' <Predicate = (state_4_load == 1 & icmp_ln82_3)> <Delay = 0.00>
ST_2 : Operation 118 [1/1] (1.27ns)   --->   "%sub_ln82 = sub i7 %tmp_89, %trunc_ln82" [/home/paulrr2/Projects/ece527/babelsoc/fpga-network-stack/hls/rocev2/../udp/../packet.hpp:82->/home/paulrr2/Projects/ece527/babelsoc/fpga-network-stack/hls/rocev2/../udp/udp.cpp:117]   --->   Operation 118 'sub' 'sub_ln82' <Predicate = (state_4_load == 1 & icmp_ln82_3)> <Delay = 1.27> <Core = "AddSub">   --->   Core 14 'AddSub' <Latency = 0> <II = 1> <Delay = 1.27> <FuncUnit> <Opcode : 'add' 'sub'> <InPorts = 2> <OutPorts = 1>
ST_2 : Operation 119 [1/1] (1.27ns)   --->   "%sub_ln82_1 = sub i7 63, %tmp_89" [/home/paulrr2/Projects/ece527/babelsoc/fpga-network-stack/hls/rocev2/../udp/../packet.hpp:82->/home/paulrr2/Projects/ece527/babelsoc/fpga-network-stack/hls/rocev2/../udp/udp.cpp:117]   --->   Operation 119 'sub' 'sub_ln82_1' <Predicate = (state_4_load == 1 & icmp_ln82_3)> <Delay = 1.27> <Core = "AddSub">   --->   Core 14 'AddSub' <Latency = 0> <II = 1> <Delay = 1.27> <FuncUnit> <Opcode : 'add' 'sub'> <InPorts = 2> <OutPorts = 1>
ST_2 : Operation 120 [1/1] (1.27ns)   --->   "%sub_ln82_2 = sub i7 %trunc_ln82, %tmp_89" [/home/paulrr2/Projects/ece527/babelsoc/fpga-network-stack/hls/rocev2/../udp/../packet.hpp:82->/home/paulrr2/Projects/ece527/babelsoc/fpga-network-stack/hls/rocev2/../udp/udp.cpp:117]   --->   Operation 120 'sub' 'sub_ln82_2' <Predicate = (state_4_load == 1 & !icmp_ln82_3)> <Delay = 1.27> <Core = "AddSub">   --->   Core 14 'AddSub' <Latency = 0> <II = 1> <Delay = 1.27> <FuncUnit> <Opcode : 'add' 'sub'> <InPorts = 2> <OutPorts = 1>
ST_2 : Operation 121 [1/1] (0.00ns) (grouped into LUT with out node sub_ln82_3)   --->   "%select_ln82_6 = select i1 %icmp_ln82_3, i7 %sub_ln82, i7 %sub_ln82_2" [/home/paulrr2/Projects/ece527/babelsoc/fpga-network-stack/hls/rocev2/../udp/../packet.hpp:82->/home/paulrr2/Projects/ece527/babelsoc/fpga-network-stack/hls/rocev2/../udp/udp.cpp:117]   --->   Operation 121 'select' 'select_ln82_6' <Predicate = (state_4_load == 1)> <Delay = 0.00> <Core = "Sel">   --->   Core 26 'Sel' <Latency = 0> <II = 1> <Delay = 0.62> <FuncUnit> <Opcode : 'select'> <InPorts = 3> <OutPorts = 1>
ST_2 : Operation 122 [1/1] (0.00ns) (grouped into LUT with out node lshr_ln82)   --->   "%select_ln82_7 = select i1 %icmp_ln82_3, i64 %tmp_90, i64 %p_Val2_s" [/home/paulrr2/Projects/ece527/babelsoc/fpga-network-stack/hls/rocev2/../udp/../packet.hpp:82->/home/paulrr2/Projects/ece527/babelsoc/fpga-network-stack/hls/rocev2/../udp/udp.cpp:117]   --->   Operation 122 'select' 'select_ln82_7' <Predicate = (state_4_load == 1)> <Delay = 0.00> <Core = "Sel">   --->   Core 26 'Sel' <Latency = 0> <II = 1> <Delay = 0.62> <FuncUnit> <Opcode : 'select'> <InPorts = 3> <OutPorts = 1>
ST_2 : Operation 123 [1/1] (0.00ns) (grouped into LUT with out node lshr_ln82)   --->   "%select_ln82_8 = select i1 %icmp_ln82_3, i7 %sub_ln82_1, i7 %tmp_89" [/home/paulrr2/Projects/ece527/babelsoc/fpga-network-stack/hls/rocev2/../udp/../packet.hpp:82->/home/paulrr2/Projects/ece527/babelsoc/fpga-network-stack/hls/rocev2/../udp/udp.cpp:117]   --->   Operation 123 'select' 'select_ln82_8' <Predicate = (state_4_load == 1)> <Delay = 0.00> <Core = "Sel">   --->   Core 26 'Sel' <Latency = 0> <II = 1> <Delay = 0.62> <FuncUnit> <Opcode : 'select'> <InPorts = 3> <OutPorts = 1>
ST_2 : Operation 124 [1/1] (1.27ns) (out node of the LUT)   --->   "%sub_ln82_3 = sub i7 63, %select_ln82_6" [/home/paulrr2/Projects/ece527/babelsoc/fpga-network-stack/hls/rocev2/../udp/../packet.hpp:82->/home/paulrr2/Projects/ece527/babelsoc/fpga-network-stack/hls/rocev2/../udp/udp.cpp:117]   --->   Operation 124 'sub' 'sub_ln82_3' <Predicate = (state_4_load == 1)> <Delay = 1.27> <Core = "AddSub">   --->   Core 14 'AddSub' <Latency = 0> <II = 1> <Delay = 1.27> <FuncUnit> <Opcode : 'add' 'sub'> <InPorts = 2> <OutPorts = 1>
ST_2 : Operation 125 [1/1] (0.00ns) (grouped into LUT with out node lshr_ln82)   --->   "%zext_ln82 = zext i7 %select_ln82_8 to i64" [/home/paulrr2/Projects/ece527/babelsoc/fpga-network-stack/hls/rocev2/../udp/../packet.hpp:82->/home/paulrr2/Projects/ece527/babelsoc/fpga-network-stack/hls/rocev2/../udp/udp.cpp:117]   --->   Operation 125 'zext' 'zext_ln82' <Predicate = (state_4_load == 1)> <Delay = 0.00>
ST_2 : Operation 126 [1/1] (2.35ns) (out node of the LUT)   --->   "%lshr_ln82 = lshr i64 %select_ln82_7, %zext_ln82" [/home/paulrr2/Projects/ece527/babelsoc/fpga-network-stack/hls/rocev2/../udp/../packet.hpp:82->/home/paulrr2/Projects/ece527/babelsoc/fpga-network-stack/hls/rocev2/../udp/udp.cpp:117]   --->   Operation 126 'lshr' 'lshr_ln82' <Predicate = (state_4_load == 1)> <Delay = 2.35> <Core = "Shift">   --->   Core 28 'Shift' <Latency = 0> <II = 1> <Delay = 1.58> <FuncUnit> <Opcode : 'shl' 'lshr' 'ashr'> <InPorts = 2> <OutPorts = 1>

State 3 <SV = 2> <Delay = 5.55>
ST_3 : Operation 127 [1/1] (0.00ns)   --->   "call void (...)* @_ssdm_op_SpecInterface(i64* @tx_shift2udpFifo_V_d, [8 x i8]* @ap_fifo_str, i32 0, i32 0, [1 x i8]* @p_str, i32 0, i32 0, [1 x i8]* @p_str, [1 x i8]* @p_str, [1 x i8]* @p_str, i32 2, i32 2, i32 16, i32 16, [1 x i8]* @p_str, [1 x i8]* @p_str)"   --->   Operation 127 'specinterface' <Predicate = true> <Delay = 0.00>
ST_3 : Operation 128 [1/1] (0.00ns)   --->   "call void (...)* @_ssdm_op_SpecInterface(i8* @tx_shift2udpFifo_V_k, [8 x i8]* @ap_fifo_str, i32 0, i32 0, [1 x i8]* @p_str, i32 0, i32 0, [1 x i8]* @p_str, [1 x i8]* @p_str, [1 x i8]* @p_str, i32 2, i32 2, i32 16, i32 16, [1 x i8]* @p_str, [1 x i8]* @p_str)"   --->   Operation 128 'specinterface' <Predicate = true> <Delay = 0.00>
ST_3 : Operation 129 [1/1] (0.00ns)   --->   "call void (...)* @_ssdm_op_SpecInterface(i1* @tx_shift2udpFifo_V_l, [8 x i8]* @ap_fifo_str, i32 0, i32 0, [1 x i8]* @p_str, i32 0, i32 0, [1 x i8]* @p_str, [1 x i8]* @p_str, [1 x i8]* @p_str, i32 2, i32 2, i32 16, i32 16, [1 x i8]* @p_str, [1 x i8]* @p_str)"   --->   Operation 129 'specinterface' <Predicate = true> <Delay = 0.00>
ST_3 : Operation 130 [1/1] (0.00ns)   --->   "call void (...)* @_ssdm_op_SpecInterface(i64* @tx_udp2ipFifo_V_data, [8 x i8]* @ap_fifo_str, i32 0, i32 0, [1 x i8]* @p_str, i32 0, i32 0, [1 x i8]* @p_str, [1 x i8]* @p_str, [1 x i8]* @p_str, i32 2, i32 2, i32 16, i32 16, [1 x i8]* @p_str, [1 x i8]* @p_str)"   --->   Operation 130 'specinterface' <Predicate = true> <Delay = 0.00>
ST_3 : Operation 131 [1/1] (0.00ns)   --->   "call void (...)* @_ssdm_op_SpecInterface(i8* @tx_udp2ipFifo_V_keep, [8 x i8]* @ap_fifo_str, i32 0, i32 0, [1 x i8]* @p_str, i32 0, i32 0, [1 x i8]* @p_str, [1 x i8]* @p_str, [1 x i8]* @p_str, i32 2, i32 2, i32 16, i32 16, [1 x i8]* @p_str, [1 x i8]* @p_str)"   --->   Operation 131 'specinterface' <Predicate = true> <Delay = 0.00>
ST_3 : Operation 132 [1/1] (0.00ns)   --->   "call void (...)* @_ssdm_op_SpecInterface(i1* @tx_udp2ipFifo_V_last, [8 x i8]* @ap_fifo_str, i32 0, i32 0, [1 x i8]* @p_str, i32 0, i32 0, [1 x i8]* @p_str, [1 x i8]* @p_str, [1 x i8]* @p_str, i32 2, i32 2, i32 16, i32 16, [1 x i8]* @p_str, [1 x i8]* @p_str)"   --->   Operation 132 'specinterface' <Predicate = true> <Delay = 0.00>
ST_3 : Operation 133 [1/1] (0.00ns)   --->   "call void (...)* @_ssdm_op_SpecInterface(i16* @tx_udpMetaFifo_V_len, [8 x i8]* @ap_fifo_str, i32 0, i32 0, [1 x i8]* @p_str, i32 0, i32 0, [1 x i8]* @p_str, [1 x i8]* @p_str, [1 x i8]* @p_str, i32 2, i32 2, i32 16, i32 16, [1 x i8]* @p_str, [1 x i8]* @p_str)"   --->   Operation 133 'specinterface' <Predicate = true> <Delay = 0.00>
ST_3 : Operation 134 [1/1] (0.00ns)   --->   "call void (...)* @_ssdm_op_SpecInterface(i16* @tx_udpMetaFifo_V_my_s, [8 x i8]* @ap_fifo_str, i32 0, i32 0, [1 x i8]* @p_str, i32 0, i32 0, [1 x i8]* @p_str, [1 x i8]* @p_str, [1 x i8]* @p_str, i32 2, i32 2, i32 16, i32 16, [1 x i8]* @p_str, [1 x i8]* @p_str)"   --->   Operation 134 'specinterface' <Predicate = true> <Delay = 0.00>
ST_3 : Operation 135 [1/1] (0.00ns)   --->   "call void (...)* @_ssdm_op_SpecInterface(i16* @tx_udpMetaFifo_V_the, [8 x i8]* @ap_fifo_str, i32 0, i32 0, [1 x i8]* @p_str, i32 0, i32 0, [1 x i8]* @p_str, [1 x i8]* @p_str, [1 x i8]* @p_str, i32 2, i32 2, i32 16, i32 16, [1 x i8]* @p_str, [1 x i8]* @p_str)"   --->   Operation 135 'specinterface' <Predicate = true> <Delay = 0.00>
ST_3 : Operation 136 [1/1] (0.00ns)   --->   "call void (...)* @_ssdm_op_SpecInterface(i1* @tx_udpMetaFifo_V_val, [8 x i8]* @ap_fifo_str, i32 0, i32 0, [1 x i8]* @p_str, i32 0, i32 0, [1 x i8]* @p_str, [1 x i8]* @p_str, [1 x i8]* @p_str, i32 2, i32 2, i32 16, i32 16, [1 x i8]* @p_str, [1 x i8]* @p_str)"   --->   Operation 136 'specinterface' <Predicate = true> <Delay = 0.00>
ST_3 : Operation 137 [1/1] (0.00ns)   --->   "call void (...)* @_ssdm_op_SpecPipeline(i32 1, i32 1, i32 1, i32 0, [1 x i8]* @p_str140) nounwind" [/home/paulrr2/Projects/ece527/babelsoc/fpga-network-stack/hls/rocev2/../udp/udp.cpp:87]   --->   Operation 137 'specpipeline' <Predicate = true> <Delay = 0.00>
ST_3 : Operation 138 [1/1] (2.39ns)   --->   "call void @_ssdm_op_Write.ap_fifo.volatile.i64P.i8P.i1P(i64* @tx_udp2ipFifo_V_data, i8* @tx_udp2ipFifo_V_keep, i1* @tx_udp2ipFifo_V_last, i64 %tmp_data_V_34, i8 %tmp_keep_V_30, i1 %tmp_last_V_28) nounwind" [/home/paulrr2/Projects/ece527/babelsoc/fpga-network-stack/hls/rocev2/../udp/udp.cpp:142]   --->   Operation 138 'write' <Predicate = (state_4_load == 3 & tmp_94)> <Delay = 2.39> <Core = "FIFO">   --->   Core 32 'FIFO' <Latency = 0> <II = 1> <Delay = 2.39> <Storage> <Opcode : 'read' 'write' 'nbread' 'nbwrite'> <Ports = 0> <Width = 16> <Depth = 2> <FIFO>
ST_3 : Operation 139 [1/1] (0.00ns)   --->   "br i1 %tmp_last_V_28, label %7, label %._crit_edge7.i" [/home/paulrr2/Projects/ece527/babelsoc/fpga-network-stack/hls/rocev2/../udp/udp.cpp:143]   --->   Operation 139 'br' <Predicate = (state_4_load == 3 & tmp_94)> <Delay = 0.00>
ST_3 : Operation 140 [1/1] (0.00ns)   --->   "br label %._crit_edge7.i" [/home/paulrr2/Projects/ece527/babelsoc/fpga-network-stack/hls/rocev2/../udp/udp.cpp:146]   --->   Operation 140 'br' <Predicate = (state_4_load == 3 & tmp_94 & tmp_last_V_28)> <Delay = 0.00>
ST_3 : Operation 141 [1/1] (0.00ns)   --->   "br label %._crit_edge6.i" [/home/paulrr2/Projects/ece527/babelsoc/fpga-network-stack/hls/rocev2/../udp/udp.cpp:147]   --->   Operation 141 'br' <Predicate = (state_4_load == 3 & tmp_94)> <Delay = 0.00>
ST_3 : Operation 142 [1/1] (0.00ns)   --->   "br label %"generate_udp<64>.exit"" [/home/paulrr2/Projects/ece527/babelsoc/fpga-network-stack/hls/rocev2/../udp/udp.cpp:148]   --->   Operation 142 'br' <Predicate = (state_4_load == 3)> <Delay = 0.00>
ST_3 : Operation 143 [1/1] (0.00ns) (grouped into LUT with out node ret_V_5)   --->   "%tmp_data_V = extractvalue { i64, i8, i1 } %empty_411, 0" [/home/paulrr2/Projects/ece527/babelsoc/fpga-network-stack/hls/rocev2/../udp/udp.cpp:128]   --->   Operation 143 'extractvalue' 'tmp_data_V' <Predicate = (state_4_load == 2 & tmp_93 & !icmp_ln76_2 & !and_ln82_2)> <Delay = 0.00>
ST_3 : Operation 144 [1/1] (0.00ns) (grouped into LUT with out node ret_V_5)   --->   "%zext_ln647_8 = zext i7 %sub_ln647_16 to i64" [/home/paulrr2/Projects/ece527/babelsoc/fpga-network-stack/hls/rocev2/../udp/../packet.hpp:78->/home/paulrr2/Projects/ece527/babelsoc/fpga-network-stack/hls/rocev2/../udp/udp.cpp:129]   --->   Operation 144 'zext' 'zext_ln647_8' <Predicate = (state_4_load == 2 & tmp_93 & icmp_ln76_2 & !and_ln82_2)> <Delay = 0.00>
ST_3 : Operation 145 [1/1] (0.00ns) (grouped into LUT with out node ret_V_5)   --->   "%lshr_ln647_8 = lshr i64 -1, %zext_ln647_8" [/home/paulrr2/Projects/ece527/babelsoc/fpga-network-stack/hls/rocev2/../udp/../packet.hpp:78->/home/paulrr2/Projects/ece527/babelsoc/fpga-network-stack/hls/rocev2/../udp/udp.cpp:129]   --->   Operation 145 'lshr' 'lshr_ln647_8' <Predicate = (state_4_load == 2 & tmp_93 & icmp_ln76_2 & !and_ln82_2)> <Delay = 0.00> <Core = "Shift">   --->   Core 28 'Shift' <Latency = 0> <II = 1> <Delay = 1.58> <FuncUnit> <Opcode : 'shl' 'lshr' 'ashr'> <InPorts = 2> <OutPorts = 1>
ST_3 : Operation 146 [1/1] (0.00ns) (grouped into LUT with out node ret_V_5)   --->   "%p_Result_40 = and i64 %lshr_ln647, %lshr_ln647_8" [/home/paulrr2/Projects/ece527/babelsoc/fpga-network-stack/hls/rocev2/../udp/../packet.hpp:78->/home/paulrr2/Projects/ece527/babelsoc/fpga-network-stack/hls/rocev2/../udp/udp.cpp:129]   --->   Operation 146 'and' 'p_Result_40' <Predicate = (state_4_load == 2 & tmp_93 & icmp_ln76_2 & !and_ln82_2)> <Delay = 0.00> <Core = "LogicGate">   --->   Core 27 'LogicGate' <Latency = 0> <II = 1> <Delay = 0.48> <FuncUnit> <Opcode : 'and' 'or' 'xor'> <InPorts = 2> <OutPorts = 1>
ST_3 : Operation 147 [1/1] (0.00ns) (grouped into LUT with out node ret_V)   --->   "%zext_ln647_11 = zext i7 %sub_ln647_19 to i64" [/home/paulrr2/Projects/ece527/babelsoc/fpga-network-stack/hls/rocev2/../udp/../packet.hpp:84->/home/paulrr2/Projects/ece527/babelsoc/fpga-network-stack/hls/rocev2/../udp/udp.cpp:129]   --->   Operation 147 'zext' 'zext_ln647_11' <Predicate = (state_4_load == 2 & tmp_93 & and_ln82_2)> <Delay = 0.00>
ST_3 : Operation 148 [1/1] (0.00ns) (grouped into LUT with out node ret_V)   --->   "%lshr_ln647_10 = lshr i64 -1, %zext_ln647_11" [/home/paulrr2/Projects/ece527/babelsoc/fpga-network-stack/hls/rocev2/../udp/../packet.hpp:84->/home/paulrr2/Projects/ece527/babelsoc/fpga-network-stack/hls/rocev2/../udp/udp.cpp:129]   --->   Operation 148 'lshr' 'lshr_ln647_10' <Predicate = (state_4_load == 2 & tmp_93 & and_ln82_2)> <Delay = 0.00> <Core = "Shift">   --->   Core 28 'Shift' <Latency = 0> <II = 1> <Delay = 1.58> <FuncUnit> <Opcode : 'shl' 'lshr' 'ashr'> <InPorts = 2> <OutPorts = 1>
ST_3 : Operation 149 [1/1] (0.00ns) (grouped into LUT with out node ret_V)   --->   "%p_Result_37 = and i64 %lshr_ln647_9, %lshr_ln647_10" [/home/paulrr2/Projects/ece527/babelsoc/fpga-network-stack/hls/rocev2/../udp/../packet.hpp:84->/home/paulrr2/Projects/ece527/babelsoc/fpga-network-stack/hls/rocev2/../udp/udp.cpp:129]   --->   Operation 149 'and' 'p_Result_37' <Predicate = (state_4_load == 2 & tmp_93 & and_ln82_2)> <Delay = 0.00> <Core = "LogicGate">   --->   Core 27 'LogicGate' <Latency = 0> <II = 1> <Delay = 0.48> <FuncUnit> <Opcode : 'and' 'or' 'xor'> <InPorts = 2> <OutPorts = 1>
ST_3 : Operation 150 [1/1] (1.58ns) (out node of the LUT)   --->   "%ret_V_5 = select i1 %icmp_ln76_2, i64 %p_Result_40, i64 %tmp_data_V" [/home/paulrr2/Projects/ece527/babelsoc/fpga-network-stack/hls/rocev2/../udp/../packet.hpp:76->/home/paulrr2/Projects/ece527/babelsoc/fpga-network-stack/hls/rocev2/../udp/udp.cpp:129]   --->   Operation 150 'select' 'ret_V_5' <Predicate = (state_4_load == 2 & tmp_93 & !and_ln82_2)> <Delay = 1.58> <Core = "Sel">   --->   Core 26 'Sel' <Latency = 0> <II = 1> <Delay = 0.62> <FuncUnit> <Opcode : 'select'> <InPorts = 3> <OutPorts = 1>
ST_3 : Operation 151 [1/1] (1.58ns) (out node of the LUT)   --->   "%ret_V = select i1 %and_ln82_2, i64 %p_Result_37, i64 %ret_V_5" [/home/paulrr2/Projects/ece527/babelsoc/fpga-network-stack/hls/rocev2/../udp/../packet.hpp:82->/home/paulrr2/Projects/ece527/babelsoc/fpga-network-stack/hls/rocev2/../udp/udp.cpp:129]   --->   Operation 151 'select' 'ret_V' <Predicate = (state_4_load == 2 & tmp_93)> <Delay = 1.58> <Core = "Sel">   --->   Core 26 'Sel' <Latency = 0> <II = 1> <Delay = 0.62> <FuncUnit> <Opcode : 'select'> <InPorts = 3> <OutPorts = 1>
ST_3 : Operation 152 [1/1] (2.39ns)   --->   "call void @_ssdm_op_Write.ap_fifo.volatile.i64P.i8P.i1P(i64* @tx_udp2ipFifo_V_data, i8* @tx_udp2ipFifo_V_keep, i1* @tx_udp2ipFifo_V_last, i64 %ret_V, i8 %tmp_keep_V, i1 %tmp_last_V) nounwind" [/home/paulrr2/Projects/ece527/babelsoc/fpga-network-stack/hls/rocev2/../udp/udp.cpp:130]   --->   Operation 152 'write' <Predicate = (state_4_load == 2 & tmp_93)> <Delay = 2.39> <Core = "FIFO">   --->   Core 32 'FIFO' <Latency = 0> <II = 1> <Delay = 2.39> <Storage> <Opcode : 'read' 'write' 'nbread' 'nbwrite'> <Ports = 0> <Width = 16> <Depth = 2> <FIFO>
ST_3 : Operation 153 [1/1] (0.00ns)   --->   "br label %._crit_edge4.i" [/home/paulrr2/Projects/ece527/babelsoc/fpga-network-stack/hls/rocev2/../udp/udp.cpp:136]   --->   Operation 153 'br' <Predicate = (state_4_load == 2 & tmp_93)> <Delay = 0.00>
ST_3 : Operation 154 [1/1] (0.00ns)   --->   "br label %"generate_udp<64>.exit"" [/home/paulrr2/Projects/ece527/babelsoc/fpga-network-stack/hls/rocev2/../udp/udp.cpp:137]   --->   Operation 154 'br' <Predicate = (state_4_load == 2)> <Delay = 0.00>
ST_3 : Operation 155 [1/1] (0.00ns) (grouped into LUT with out node ret_V_7)   --->   "%zext_ln82_1 = zext i7 %sub_ln82_3 to i64" [/home/paulrr2/Projects/ece527/babelsoc/fpga-network-stack/hls/rocev2/../udp/../packet.hpp:82->/home/paulrr2/Projects/ece527/babelsoc/fpga-network-stack/hls/rocev2/../udp/udp.cpp:117]   --->   Operation 155 'zext' 'zext_ln82_1' <Predicate = (state_4_load == 1)> <Delay = 0.00>
ST_3 : Operation 156 [1/1] (0.00ns) (grouped into LUT with out node ret_V_7)   --->   "%lshr_ln82_1 = lshr i64 -1, %zext_ln82_1" [/home/paulrr2/Projects/ece527/babelsoc/fpga-network-stack/hls/rocev2/../udp/../packet.hpp:82->/home/paulrr2/Projects/ece527/babelsoc/fpga-network-stack/hls/rocev2/../udp/udp.cpp:117]   --->   Operation 156 'lshr' 'lshr_ln82_1' <Predicate = (state_4_load == 1)> <Delay = 0.00> <Core = "Shift">   --->   Core 28 'Shift' <Latency = 0> <II = 1> <Delay = 1.58> <FuncUnit> <Opcode : 'shl' 'lshr' 'ashr'> <InPorts = 2> <OutPorts = 1>
ST_3 : Operation 157 [1/1] (1.58ns) (out node of the LUT)   --->   "%ret_V_7 = and i64 %lshr_ln82, %lshr_ln82_1" [/home/paulrr2/Projects/ece527/babelsoc/fpga-network-stack/hls/rocev2/../udp/../packet.hpp:82->/home/paulrr2/Projects/ece527/babelsoc/fpga-network-stack/hls/rocev2/../udp/udp.cpp:117]   --->   Operation 157 'and' 'ret_V_7' <Predicate = (state_4_load == 1)> <Delay = 1.58> <Core = "LogicGate">   --->   Core 27 'LogicGate' <Latency = 0> <II = 1> <Delay = 0.48> <FuncUnit> <Opcode : 'and' 'or' 'xor'> <InPorts = 2> <OutPorts = 1>
ST_3 : Operation 158 [1/1] (0.00ns)   --->   "br label %._crit_edge3.i" [/home/paulrr2/Projects/ece527/babelsoc/fpga-network-stack/hls/rocev2/../udp/udp.cpp:120]   --->   Operation 158 'br' <Predicate = (state_4_load == 1 & or_ln887)> <Delay = 0.00>
ST_3 : Operation 159 [1/1] (2.39ns)   --->   "call void @_ssdm_op_Write.ap_fifo.volatile.i64P.i8P.i1P(i64* @tx_udp2ipFifo_V_data, i8* @tx_udp2ipFifo_V_keep, i1* @tx_udp2ipFifo_V_last, i64 %ret_V_7, i8 -1, i1 false) nounwind" [/home/paulrr2/Projects/ece527/babelsoc/fpga-network-stack/hls/rocev2/../udp/udp.cpp:123]   --->   Operation 159 'write' <Predicate = (state_4_load == 1)> <Delay = 2.39> <Core = "FIFO">   --->   Core 32 'FIFO' <Latency = 0> <II = 1> <Delay = 2.39> <Storage> <Opcode : 'read' 'write' 'nbread' 'nbwrite'> <Ports = 0> <Width = 16> <Depth = 2> <FIFO>
ST_3 : Operation 160 [1/1] (0.00ns)   --->   "br label %"generate_udp<64>.exit"" [/home/paulrr2/Projects/ece527/babelsoc/fpga-network-stack/hls/rocev2/../udp/udp.cpp:124]   --->   Operation 160 'br' <Predicate = (state_4_load == 1)> <Delay = 0.00>
ST_3 : Operation 161 [1/1] (0.00ns)   --->   "br label %._crit_edge2.i" [/home/paulrr2/Projects/ece527/babelsoc/fpga-network-stack/hls/rocev2/../udp/udp.cpp:114]   --->   Operation 161 'br' <Predicate = (state_4_load == 0 & tmp)> <Delay = 0.00>
ST_3 : Operation 162 [1/1] (0.00ns)   --->   "br label %"generate_udp<64>.exit"" [/home/paulrr2/Projects/ece527/babelsoc/fpga-network-stack/hls/rocev2/../udp/udp.cpp:115]   --->   Operation 162 'br' <Predicate = (state_4_load == 0)> <Delay = 0.00>
ST_3 : Operation 163 [1/1] (0.00ns)   --->   "ret void"   --->   Operation 163 'ret' <Predicate = true> <Delay = 0.00>


============================================================
+ Verbose Summary: Timing violations
============================================================
Target clock period: 6.4ns, clock uncertainty: 0.8ns.

 <State 1>: 6.81ns
The critical path consists of the following:
	'load' operation ('packetHeader<64, 64>.idx', /home/paulrr2/Projects/ece527/babelsoc/fpga-network-stack/hls/rocev2/../udp/udp.cpp:117) on static variable 'header_idx_4' [32]  (0 ns)
	'add' operation ('add_ln79', /home/paulrr2/Projects/ece527/babelsoc/fpga-network-stack/hls/rocev2/../udp/../packet.hpp:79->/home/paulrr2/Projects/ece527/babelsoc/fpga-network-stack/hls/rocev2/../udp/udp.cpp:117) [123]  (1.31 ns)
	'sub' operation ('sub_ln80', /home/paulrr2/Projects/ece527/babelsoc/fpga-network-stack/hls/rocev2/../udp/../packet.hpp:80->/home/paulrr2/Projects/ece527/babelsoc/fpga-network-stack/hls/rocev2/../udp/udp.cpp:117) [126]  (1.39 ns)
	'sub' operation ('sub_ln80_3', /home/paulrr2/Projects/ece527/babelsoc/fpga-network-stack/hls/rocev2/../udp/../packet.hpp:80->/home/paulrr2/Projects/ece527/babelsoc/fpga-network-stack/hls/rocev2/../udp/udp.cpp:117) [128]  (1.4 ns)
	'sub' operation ('sub_ln80_4', /home/paulrr2/Projects/ece527/babelsoc/fpga-network-stack/hls/rocev2/../udp/../packet.hpp:80->/home/paulrr2/Projects/ece527/babelsoc/fpga-network-stack/hls/rocev2/../udp/udp.cpp:117) [130]  (1.36 ns)
	'select' operation ('select_ln80', /home/paulrr2/Projects/ece527/babelsoc/fpga-network-stack/hls/rocev2/../udp/../packet.hpp:80->/home/paulrr2/Projects/ece527/babelsoc/fpga-network-stack/hls/rocev2/../udp/udp.cpp:117) [156]  (0 ns)
	'icmp' operation ('icmp_ln887', /home/paulrr2/Projects/ece527/babelsoc/fpga-network-stack/hls/rocev2/../udp/udp.cpp:117) [157]  (0.871 ns)
	'or' operation ('or_ln887', /home/paulrr2/Projects/ece527/babelsoc/fpga-network-stack/hls/rocev2/../udp/udp.cpp:117) [158]  (0.485 ns)

 <State 2>: 3.63ns
The critical path consists of the following:
	'sub' operation ('sub_ln82_1', /home/paulrr2/Projects/ece527/babelsoc/fpga-network-stack/hls/rocev2/../udp/../packet.hpp:82->/home/paulrr2/Projects/ece527/babelsoc/fpga-network-stack/hls/rocev2/../udp/udp.cpp:117) [142]  (1.27 ns)
	'select' operation ('select_ln82_8', /home/paulrr2/Projects/ece527/babelsoc/fpga-network-stack/hls/rocev2/../udp/../packet.hpp:82->/home/paulrr2/Projects/ece527/babelsoc/fpga-network-stack/hls/rocev2/../udp/udp.cpp:117) [146]  (0 ns)
	'lshr' operation ('lshr_ln82', /home/paulrr2/Projects/ece527/babelsoc/fpga-network-stack/hls/rocev2/../udp/../packet.hpp:82->/home/paulrr2/Projects/ece527/babelsoc/fpga-network-stack/hls/rocev2/../udp/udp.cpp:117) [150]  (2.35 ns)

 <State 3>: 5.56ns
The critical path consists of the following:
	'select' operation ('ret.V', /home/paulrr2/Projects/ece527/babelsoc/fpga-network-stack/hls/rocev2/../udp/../packet.hpp:76->/home/paulrr2/Projects/ece527/babelsoc/fpga-network-stack/hls/rocev2/../udp/udp.cpp:129) [105]  (1.58 ns)
	'select' operation ('ret.V', /home/paulrr2/Projects/ece527/babelsoc/fpga-network-stack/hls/rocev2/../udp/../packet.hpp:82->/home/paulrr2/Projects/ece527/babelsoc/fpga-network-stack/hls/rocev2/../udp/udp.cpp:129) [106]  (1.58 ns)
	fifo write on port 'tx_udp2ipFifo_V_data' (/home/paulrr2/Projects/ece527/babelsoc/fpga-network-stack/hls/rocev2/../udp/udp.cpp:130) [108]  (2.39 ns)


============================================================
+ Verbose Summary: Binding
============================================================
N/A
* FSMD analyzer results:
  - Output states:
 - Input state : 
  - Chain level:
	State 1
	State 2
	State 3


============================================================
+ Verbose Summary: Datapath Resource usage 
============================================================
N/A
