

================================================================
== Vivado HLS Report for 'handle_read_requests'
================================================================
* Date:           Sat Dec 12 19:41:30 2020

* Version:        2019.2.1 (Build 2724168 on Thu Dec 05 05:19:09 MST 2019)
* Project:        rocev2_prj
* Solution:       solution1
* Product family: virtex7
* Target device:  xc7vx690t-ffg1761-2


================================================================
== Performance Estimates
================================================================
+ Timing: 
    * Summary: 
    +--------+---------+----------+------------+
    |  Clock |  Target | Estimated| Uncertainty|
    +--------+---------+----------+------------+
    |ap_clk  | 6.40 ns | 4.621 ns |   0.80 ns  |
    +--------+---------+----------+------------+

+ Latency: 
    * Summary: 
    +---------+---------+----------+----------+-----+-----+----------+
    |  Latency (cycles) |  Latency (absolute) |  Interval | Pipeline |
    |   min   |   max   |    min   |    max   | min | max |   Type   |
    +---------+---------+----------+----------+-----+-----+----------+
    |        1|        1| 6.400 ns | 6.400 ns |    1|    1| function |
    +---------+---------+----------+----------+-----+-----+----------+

    + Detail: 
        * Instance: 
        N/A

        * Loop: 
        N/A



================================================================
== Utilization Estimates
================================================================
* Summary: 
+-----------------+---------+-------+--------+--------+-----+
|       Name      | BRAM_18K| DSP48E|   FF   |   LUT  | URAM|
+-----------------+---------+-------+--------+--------+-----+
|DSP              |        -|      -|       -|       -|    -|
|Expression       |        -|      -|       0|     279|    -|
|FIFO             |        -|      -|       -|       -|    -|
|Instance         |        -|      -|       -|       -|    -|
|Memory           |        -|      -|       -|       -|    -|
|Multiplexer      |        -|      -|       -|     255|    -|
|Register         |        -|      -|     511|       -|    -|
+-----------------+---------+-------+--------+--------+-----+
|Total            |        0|      0|     511|     534|    0|
+-----------------+---------+-------+--------+--------+-----+
|Available        |     2940|   3600|  866400|  433200|    0|
+-----------------+---------+-------+--------+--------+-----+
|Utilization (%)  |        0|      0|   ~0   |   ~0   |    0|
+-----------------+---------+-------+--------+--------+-----+

+ Detail: 
    * Instance: 
    N/A

    * DSP48E: 
    N/A

    * Memory: 
    N/A

    * FIFO: 
    N/A

    * Expression: 
    +----------------------------------+----------+-------+---+----+------------+------------+
    |           Variable Name          | Operation| DSP48E| FF| LUT| Bitwidth P0| Bitwidth P1|
    +----------------------------------+----------+-------+---+----+------------+------------+
    |add_ln700_11_fu_330_p2            |     +    |      0|  0|  55|          48|          11|
    |add_ln700_fu_364_p2               |     +    |      0|  0|  55|          48|          11|
    |add_ln701_6_fu_336_p2             |     +    |      0|  0|  39|          32|          12|
    |add_ln701_fu_370_p2               |     +    |      0|  0|  39|          32|          12|
    |tmp_psn_V_fu_432_p2               |     +    |      0|  0|  31|          24|           1|
    |ap_condition_152                  |    and   |      0|  0|   2|           1|           1|
    |ap_condition_175                  |    and   |      0|  0|   2|           1|           1|
    |ap_condition_177                  |    and   |      0|  0|   2|           1|           1|
    |ap_condition_244                  |    and   |      0|  0|   2|           1|           1|
    |ap_condition_87                   |    and   |      0|  0|   2|           1|           1|
    |ap_predicate_op41_write_state2    |    and   |      0|  0|   2|           1|           1|
    |ap_predicate_op9_read_state1      |    and   |      0|  0|   2|           1|           1|
    |tmp_nbreadreq_fu_98_p3            |    and   |      0|  0|   2|           1|           0|
    |icmp_ln895_3_fu_324_p2            |   icmp   |      0|  0|  18|          32|          11|
    |icmp_ln895_fu_352_p2              |   icmp   |      0|  0|  18|          32|          11|
    |ap_block_pp0_stage0_01001         |    or    |      0|  0|   2|           1|           1|
    |ap_block_state1_pp0_stage0_iter0  |    or    |      0|  0|   2|           1|           1|
    |ap_block_state2_pp0_stage0_iter1  |    or    |      0|  0|   2|           1|           1|
    |ap_enable_pp0                     |    xor   |      0|  0|   2|           1|           2|
    +----------------------------------+----------+-------+---+----+------------+------------+
    |Total                             |          |      0|  0| 279|         260|          81|
    +----------------------------------+----------+-------+---+----+------------+------------+

    * Multiplexer: 
    +-----------------------------------------------------+----+-----------+-----+-----------+
    |                         Name                        | LUT| Input Size| Bits| Total Bits|
    +-----------------------------------------------------+----+-----------+-----+-----------+
    |ap_done                                              |   9|          2|    1|          2|
    |ap_phi_mux_request_dma_length_V_3_phi_fu_261_p6      |  15|          3|   32|         96|
    |ap_phi_mux_request_vaddr_V_flag_1_phi_fu_231_p6      |  15|          3|    1|          3|
    |ap_phi_mux_request_vaddr_V_new_2_phi_fu_246_p6       |  15|          3|   48|        144|
    |ap_phi_reg_pp0_iter1_request_dma_length_V_1_reg_135  |  15|          3|   32|         96|
    |ap_phi_reg_pp0_iter1_request_dma_length_V_2_reg_192  |   9|          2|   32|         64|
    |ap_phi_reg_pp0_iter1_request_vaddr_V_flag_1_reg_227  |   9|          2|    1|          2|
    |ap_phi_reg_pp0_iter1_request_vaddr_V_flag_reg_168    |  15|          3|    1|          3|
    |ap_phi_reg_pp0_iter1_request_vaddr_V_new_1_reg_181   |   9|          2|   48|         96|
    |ap_phi_reg_pp0_iter1_request_vaddr_V_new_s_reg_126   |  15|          3|   48|        144|
    |ap_phi_reg_pp0_iter1_tmp_length_V_5_reg_144          |  15|          3|   32|         96|
    |ap_phi_reg_pp0_iter1_tmp_length_V_reg_203            |  15|          3|   32|         96|
    |ap_phi_reg_pp0_iter1_tmp_op_code_4_reg_155           |  15|          3|    5|         15|
    |ap_phi_reg_pp0_iter1_tmp_op_code_reg_214             |  15|          3|    2|          6|
    |ap_sig_allocacmp_readLength_V                        |   9|          2|   32|         64|
    |ap_sig_allocacmp_request_vaddr_V_load                |   9|          2|   48|         96|
    |request_psn_V                                        |   9|          2|   24|         48|
    |rx_readEvenFifo_V_blk_n                              |   9|          2|    1|          2|
    |rx_readEvenFifo_V_din                                |  15|          3|  135|        405|
    |rx_readRequestFifo_V_blk_n                           |   9|          2|    1|          2|
    |rx_remoteMemCmd_V_blk_n                              |   9|          2|    1|          2|
    +-----------------------------------------------------+----+-----------+-----+-----------+
    |Total                                                | 255|         53|  557|       1482|
    +-----------------------------------------------------+----+-----------+-----+-----------+

    * Register: 
    +-----------------------------------------------------+----+----+-----+-----------+
    |                         Name                        | FF | LUT| Bits| Const Bits|
    +-----------------------------------------------------+----+----+-----+-----------+
    |ap_CS_fsm                                            |   1|   0|    1|          0|
    |ap_done_reg                                          |   1|   0|    1|          0|
    |ap_enable_reg_pp0_iter1                              |   1|   0|    1|          0|
    |ap_phi_reg_pp0_iter1_request_dma_length_V_1_reg_135  |  32|   0|   32|          0|
    |ap_phi_reg_pp0_iter1_request_dma_length_V_2_reg_192  |  32|   0|   32|          0|
    |ap_phi_reg_pp0_iter1_request_vaddr_V_flag_1_reg_227  |   1|   0|    1|          0|
    |ap_phi_reg_pp0_iter1_request_vaddr_V_flag_reg_168    |   1|   0|    1|          0|
    |ap_phi_reg_pp0_iter1_request_vaddr_V_new_1_reg_181   |  48|   0|   48|          0|
    |ap_phi_reg_pp0_iter1_request_vaddr_V_new_s_reg_126   |  48|   0|   48|          0|
    |ap_phi_reg_pp0_iter1_tmp_length_V_5_reg_144          |  32|   0|   32|          0|
    |ap_phi_reg_pp0_iter1_tmp_length_V_reg_203            |  32|   0|   32|          0|
    |ap_phi_reg_pp0_iter1_tmp_op_code_4_reg_155           |   5|   0|    5|          0|
    |ap_phi_reg_pp0_iter1_tmp_op_code_reg_214             |   2|   0|    2|          0|
    |hrr_fsmState                                         |   1|   0|    1|          0|
    |hrr_fsmState_load_reg_477                            |   1|   0|    1|          0|
    |readAddr_V_reg_495                                   |  48|   0|   48|          0|
    |readLength_V_2_reg_501                               |  32|   0|   32|          0|
    |request_dma_length_V                                 |  32|   0|   32|          0|
    |request_psn_V                                        |  24|   0|   24|          0|
    |request_qpn_V                                        |  24|   0|   24|          0|
    |request_vaddr_V                                      |  48|   0|   48|          0|
    |tmp_psn_V_6_reg_508                                  |  24|   0|   24|          0|
    |tmp_qpn_V_18_reg_527                                 |  16|   0|   16|          0|
    |tmp_qpn_V_19_reg_490                                 |  24|   0|   24|          0|
    |tmp_reg_486                                          |   1|   0|    1|          0|
    +-----------------------------------------------------+----+----+-----+-----------+
    |Total                                                | 511|   0|  511|          0|
    +-----------------------------------------------------+----+----+-----+-----------+



================================================================
== Interface
================================================================
* Summary: 
+------------------------------+-----+-----+------------+----------------------+--------------+
|           RTL Ports          | Dir | Bits|  Protocol  |     Source Object    |    C Type    |
+------------------------------+-----+-----+------------+----------------------+--------------+
|ap_clk                        |  in |    1| ap_ctrl_hs | handle_read_requests | return value |
|ap_rst                        |  in |    1| ap_ctrl_hs | handle_read_requests | return value |
|ap_start                      |  in |    1| ap_ctrl_hs | handle_read_requests | return value |
|ap_done                       | out |    1| ap_ctrl_hs | handle_read_requests | return value |
|ap_continue                   |  in |    1| ap_ctrl_hs | handle_read_requests | return value |
|ap_idle                       | out |    1| ap_ctrl_hs | handle_read_requests | return value |
|ap_ready                      | out |    1| ap_ctrl_hs | handle_read_requests | return value |
|rx_readRequestFifo_V_dout     |  in |  129|   ap_fifo  | rx_readRequestFifo_V |    pointer   |
|rx_readRequestFifo_V_empty_n  |  in |    1|   ap_fifo  | rx_readRequestFifo_V |    pointer   |
|rx_readRequestFifo_V_read     | out |    1|   ap_fifo  | rx_readRequestFifo_V |    pointer   |
|rx_remoteMemCmd_V_din         | out |  113|   ap_fifo  |   rx_remoteMemCmd_V  |    pointer   |
|rx_remoteMemCmd_V_full_n      |  in |    1|   ap_fifo  |   rx_remoteMemCmd_V  |    pointer   |
|rx_remoteMemCmd_V_write       | out |    1|   ap_fifo  |   rx_remoteMemCmd_V  |    pointer   |
|rx_readEvenFifo_V_din         | out |  135|   ap_fifo  |   rx_readEvenFifo_V  |    pointer   |
|rx_readEvenFifo_V_full_n      |  in |    1|   ap_fifo  |   rx_readEvenFifo_V  |    pointer   |
|rx_readEvenFifo_V_write       | out |    1|   ap_fifo  |   rx_readEvenFifo_V  |    pointer   |
+------------------------------+-----+-----+------------+----------------------+--------------+

============================================================
+ Verbose Summary: Synthesis Manager
============================================================
InlineROM: 1
ExposeGlobal: 0
============================================================
+ Verbose Summary: CDFG Model
============================================================
IsTopModel: 0
ResetActiveHigh: 1
IsCombinational: 2
IsDatapathOnly: 0
HasWiredReturn: 1
HasMFsm: 2
HasVarLatency: 0
IsPipeline: 1
IsRtlPipelined: 1
IsInstanceOverlapped: 0
IsDontTouch: 0
HasImplIP: 0
IsGatedGlobalClock: 0

+ Individual pipeline summary: 
  * Pipeline-0: initiation interval (II) = 1, depth = 2


============================================================
+ Verbose Summary: Schedule
============================================================
* Number of FSM states : 2
* Pipeline : 1
  Pipeline-0 : II = 1, D = 2, States = { 1 2 }
* Dataflow Pipeline: 0

* FSM state transitions: 
1 --> 2 
2 --> 

* FSM state operations: 

State 1 <SV = 0> <Delay = 4.62>
ST_1 : Operation 3 [1/1] (0.00ns)   --->   "%hrr_fsmState_load = load i1* @hrr_fsmState, align 1" [/home/paulrr2/Projects/ece527/babelsoc/fpga-network-stack/hls/rocev2/../ib_transport_protocol/ib_transport_protocol.cpp:853]   --->   Operation 3 'load' 'hrr_fsmState_load' <Predicate = true> <Delay = 0.00>
ST_1 : Operation 4 [1/1] (0.00ns)   --->   "%request_vaddr_V_load = load i48* @request_vaddr_V, align 8" [/home/paulrr2/Projects/ece527/babelsoc/fpga-network-stack/hls/rocev2/../ib_transport_protocol/ib_transport_protocol.cpp:881]   --->   Operation 4 'load' 'request_vaddr_V_load' <Predicate = true> <Delay = 0.00>
ST_1 : Operation 5 [1/1] (0.00ns)   --->   "%readLength_V = load i32* @request_dma_length_V, align 4" [/home/paulrr2/Projects/ece527/babelsoc/fpga-network-stack/hls/rocev2/../ib_transport_protocol/ib_transport_protocol.cpp:882]   --->   Operation 5 'load' 'readLength_V' <Predicate = true> <Delay = 0.00>
ST_1 : Operation 6 [1/1] (0.00ns)   --->   "br i1 %hrr_fsmState_load, label %3, label %0" [/home/paulrr2/Projects/ece527/babelsoc/fpga-network-stack/hls/rocev2/../ib_transport_protocol/ib_transport_protocol.cpp:853]   --->   Operation 6 'br' <Predicate = true> <Delay = 0.00>
ST_1 : Operation 7 [1/1] (0.00ns)   --->   "%tmp = call i1 @_ssdm_op_NbReadReq.ap_fifo.i129P(i129* @rx_readRequestFifo_V, i32 1) nounwind" [/home/paulrr2/Projects/ece527/babelsoc/fpga-network-stack/hls/rocev2/../ib_transport_protocol/ib_transport_protocol.cpp:856]   --->   Operation 7 'nbreadreq' 'tmp' <Predicate = (!hrr_fsmState_load)> <Delay = 0.00> <Core = "FIFO">   --->   Core 32 'FIFO' <Latency = 0> <II = 1> <Delay = 2.39> <Storage> <Opcode : 'read' 'write' 'nbread' 'nbwrite'> <Ports = 0> <Width = 64> <Depth = 2> <FIFO>
ST_1 : Operation 8 [1/1] (0.92ns)   --->   "br i1 %tmp, label %1, label %._crit_edge2.i" [/home/paulrr2/Projects/ece527/babelsoc/fpga-network-stack/hls/rocev2/../ib_transport_protocol/ib_transport_protocol.cpp:856]   --->   Operation 8 'br' <Predicate = (!hrr_fsmState_load)> <Delay = 0.92>
ST_1 : Operation 9 [1/1] (2.39ns)   --->   "%tmp80 = call i129 @_ssdm_op_Read.ap_fifo.volatile.i129P(i129* @rx_readRequestFifo_V) nounwind" [/home/paulrr2/Projects/ece527/babelsoc/fpga-network-stack/hls/rocev2/../ib_transport_protocol/ib_transport_protocol.cpp:858]   --->   Operation 9 'read' 'tmp80' <Predicate = (!hrr_fsmState_load & tmp)> <Delay = 2.39> <Core = "FIFO">   --->   Core 32 'FIFO' <Latency = 0> <II = 1> <Delay = 2.39> <Storage> <Opcode : 'read' 'write' 'nbread' 'nbwrite'> <Ports = 0> <Width = 64> <Depth = 2> <FIFO>
ST_1 : Operation 10 [1/1] (0.00ns)   --->   "%tmp_qpn_V_19 = trunc i129 %tmp80 to i24" [/home/paulrr2/Projects/ece527/babelsoc/fpga-network-stack/hls/rocev2/../ib_transport_protocol/ib_transport_protocol.hpp:127->/home/paulrr2/Projects/ece527/babelsoc/fpga-network-stack/hls/rocev2/../ib_transport_protocol/ib_transport_protocol.cpp:858]   --->   Operation 10 'trunc' 'tmp_qpn_V_19' <Predicate = (!hrr_fsmState_load & tmp)> <Delay = 0.00>
ST_1 : Operation 11 [1/1] (0.00ns)   --->   "store i24 %tmp_qpn_V_19, i24* @request_qpn_V, align 8" [/home/paulrr2/Projects/ece527/babelsoc/fpga-network-stack/hls/rocev2/../ib_transport_protocol/ib_transport_protocol.hpp:127->/home/paulrr2/Projects/ece527/babelsoc/fpga-network-stack/hls/rocev2/../ib_transport_protocol/ib_transport_protocol.cpp:858]   --->   Operation 11 'store' <Predicate = (!hrr_fsmState_load & tmp)> <Delay = 0.00>
ST_1 : Operation 12 [1/1] (0.00ns)   --->   "%readAddr_V = call i48 @_ssdm_op_PartSelect.i48.i129.i32.i32(i129 %tmp80, i32 24, i32 71) nounwind" [/home/paulrr2/Projects/ece527/babelsoc/fpga-network-stack/hls/rocev2/../ib_transport_protocol/ib_transport_protocol.hpp:127->/home/paulrr2/Projects/ece527/babelsoc/fpga-network-stack/hls/rocev2/../ib_transport_protocol/ib_transport_protocol.cpp:858]   --->   Operation 12 'partselect' 'readAddr_V' <Predicate = (!hrr_fsmState_load & tmp)> <Delay = 0.00>
ST_1 : Operation 13 [1/1] (0.00ns)   --->   "%readLength_V_2 = call i32 @_ssdm_op_PartSelect.i32.i129.i32.i32(i129 %tmp80, i32 72, i32 103) nounwind" [/home/paulrr2/Projects/ece527/babelsoc/fpga-network-stack/hls/rocev2/../ib_transport_protocol/ib_transport_protocol.hpp:127->/home/paulrr2/Projects/ece527/babelsoc/fpga-network-stack/hls/rocev2/../ib_transport_protocol/ib_transport_protocol.cpp:858]   --->   Operation 13 'partselect' 'readLength_V_2' <Predicate = (!hrr_fsmState_load & tmp)> <Delay = 0.00>
ST_1 : Operation 14 [1/1] (0.00ns)   --->   "%tmp_psn_V_6 = call i24 @_ssdm_op_PartSelect.i24.i129.i32.i32(i129 %tmp80, i32 104, i32 127) nounwind" [/home/paulrr2/Projects/ece527/babelsoc/fpga-network-stack/hls/rocev2/../ib_transport_protocol/ib_transport_protocol.hpp:127->/home/paulrr2/Projects/ece527/babelsoc/fpga-network-stack/hls/rocev2/../ib_transport_protocol/ib_transport_protocol.cpp:858]   --->   Operation 14 'partselect' 'tmp_psn_V_6' <Predicate = (!hrr_fsmState_load & tmp)> <Delay = 0.00>
ST_1 : Operation 15 [1/1] (1.26ns)   --->   "%icmp_ln895_3 = icmp ugt i32 %readLength_V_2, 1408" [/home/paulrr2/Projects/ece527/babelsoc/fpga-network-stack/hls/rocev2/../ib_transport_protocol/ib_transport_protocol.cpp:863]   --->   Operation 15 'icmp' 'icmp_ln895_3' <Predicate = (!hrr_fsmState_load & tmp)> <Delay = 1.26> <Core = "Cmp">   --->   Core 25 'Cmp' <Latency = 0> <II = 1> <Delay = 1.26> <FuncUnit> <Opcode : 'icmp'> <InPorts = 2> <OutPorts = 1>
ST_1 : Operation 16 [1/1] (0.85ns)   --->   "br i1 %icmp_ln895_3, label %2, label %._crit_edge4.i" [/home/paulrr2/Projects/ece527/babelsoc/fpga-network-stack/hls/rocev2/../ib_transport_protocol/ib_transport_protocol.cpp:863]   --->   Operation 16 'br' <Predicate = (!hrr_fsmState_load & tmp)> <Delay = 0.85>
ST_1 : Operation 17 [1/1] (1.59ns)   --->   "%add_ln700_11 = add i48 %readAddr_V, 1408" [/home/paulrr2/Projects/ece527/babelsoc/fpga-network-stack/hls/rocev2/../ib_transport_protocol/ib_transport_protocol.cpp:866]   --->   Operation 17 'add' 'add_ln700_11' <Predicate = (!hrr_fsmState_load & tmp & icmp_ln895_3)> <Delay = 1.59> <Core = "AddSub">   --->   Core 14 'AddSub' <Latency = 0> <II = 1> <Delay = 1.41> <FuncUnit> <Opcode : 'add' 'sub'> <InPorts = 2> <OutPorts = 1>
ST_1 : Operation 18 [1/1] (1.51ns)   --->   "%add_ln701_6 = add i32 %readLength_V_2, -1408" [/home/paulrr2/Projects/ece527/babelsoc/fpga-network-stack/hls/rocev2/../ib_transport_protocol/ib_transport_protocol.cpp:867]   --->   Operation 18 'add' 'add_ln701_6' <Predicate = (!hrr_fsmState_load & tmp & icmp_ln895_3)> <Delay = 1.51> <Core = "AddSub">   --->   Core 14 'AddSub' <Latency = 0> <II = 1> <Delay = 1.41> <FuncUnit> <Opcode : 'add' 'sub'> <InPorts = 2> <OutPorts = 1>
ST_1 : Operation 19 [1/1] (0.85ns)   --->   "store i1 true, i1* @hrr_fsmState, align 1" [/home/paulrr2/Projects/ece527/babelsoc/fpga-network-stack/hls/rocev2/../ib_transport_protocol/ib_transport_protocol.cpp:869]   --->   Operation 19 'store' <Predicate = (!hrr_fsmState_load & tmp & icmp_ln895_3)> <Delay = 0.85>
ST_1 : Operation 20 [1/1] (0.85ns)   --->   "br label %._crit_edge4.i" [/home/paulrr2/Projects/ece527/babelsoc/fpga-network-stack/hls/rocev2/../ib_transport_protocol/ib_transport_protocol.cpp:870]   --->   Operation 20 'br' <Predicate = (!hrr_fsmState_load & tmp & icmp_ln895_3)> <Delay = 0.85>
ST_1 : Operation 21 [1/1] (0.00ns)   --->   "%tmp_qpn_V_18 = trunc i129 %tmp80 to i16" [/home/paulrr2/Projects/ece527/babelsoc/fpga-network-stack/hls/rocev2/../ib_transport_protocol/ib_transport_protocol.cpp:872]   --->   Operation 21 'trunc' 'tmp_qpn_V_18' <Predicate = (!hrr_fsmState_load & tmp)> <Delay = 0.00>
ST_1 : Operation 22 [1/1] (1.26ns)   --->   "%icmp_ln895 = icmp ugt i32 %readLength_V, 1408" [/home/paulrr2/Projects/ece527/babelsoc/fpga-network-stack/hls/rocev2/../ib_transport_protocol/ib_transport_protocol.cpp:883]   --->   Operation 22 'icmp' 'icmp_ln895' <Predicate = (hrr_fsmState_load)> <Delay = 1.26> <Core = "Cmp">   --->   Core 25 'Cmp' <Latency = 0> <II = 1> <Delay = 1.26> <FuncUnit> <Opcode : 'icmp'> <InPorts = 2> <OutPorts = 1>
ST_1 : Operation 23 [1/1] (0.00ns)   --->   "br i1 %icmp_ln895, label %4, label %5" [/home/paulrr2/Projects/ece527/babelsoc/fpga-network-stack/hls/rocev2/../ib_transport_protocol/ib_transport_protocol.cpp:883]   --->   Operation 23 'br' <Predicate = (hrr_fsmState_load)> <Delay = 0.00>
ST_1 : Operation 24 [1/1] (0.85ns)   --->   "store i1 false, i1* @hrr_fsmState, align 1" [/home/paulrr2/Projects/ece527/babelsoc/fpga-network-stack/hls/rocev2/../ib_transport_protocol/ib_transport_protocol.cpp:893]   --->   Operation 24 'store' <Predicate = (hrr_fsmState_load & !icmp_ln895)> <Delay = 0.85>
ST_1 : Operation 25 [1/1] (0.85ns)   --->   "br label %6"   --->   Operation 25 'br' <Predicate = (hrr_fsmState_load & !icmp_ln895)> <Delay = 0.85>
ST_1 : Operation 26 [1/1] (1.59ns)   --->   "%add_ln700 = add i48 %request_vaddr_V_load, 1408" [/home/paulrr2/Projects/ece527/babelsoc/fpga-network-stack/hls/rocev2/../ib_transport_protocol/ib_transport_protocol.cpp:886]   --->   Operation 26 'add' 'add_ln700' <Predicate = (hrr_fsmState_load & icmp_ln895)> <Delay = 1.59> <Core = "AddSub">   --->   Core 14 'AddSub' <Latency = 0> <II = 1> <Delay = 1.41> <FuncUnit> <Opcode : 'add' 'sub'> <InPorts = 2> <OutPorts = 1>
ST_1 : Operation 27 [1/1] (1.51ns)   --->   "%add_ln701 = add i32 %readLength_V, -1408" [/home/paulrr2/Projects/ece527/babelsoc/fpga-network-stack/hls/rocev2/../ib_transport_protocol/ib_transport_protocol.cpp:887]   --->   Operation 27 'add' 'add_ln701' <Predicate = (hrr_fsmState_load & icmp_ln895)> <Delay = 1.51> <Core = "AddSub">   --->   Core 14 'AddSub' <Latency = 0> <II = 1> <Delay = 1.41> <FuncUnit> <Opcode : 'add' 'sub'> <InPorts = 2> <OutPorts = 1>
ST_1 : Operation 28 [1/1] (0.85ns)   --->   "br label %6" [/home/paulrr2/Projects/ece527/babelsoc/fpga-network-stack/hls/rocev2/../ib_transport_protocol/ib_transport_protocol.cpp:889]   --->   Operation 28 'br' <Predicate = (hrr_fsmState_load & icmp_ln895)> <Delay = 0.85>

State 2 <SV = 1> <Delay = 3.80>
ST_2 : Operation 29 [1/1] (0.00ns)   --->   "call void (...)* @_ssdm_op_SpecInterface(i135* @rx_readEvenFifo_V, [8 x i8]* @ap_fifo_str, i32 0, i32 0, [1 x i8]* @p_str, i32 0, i32 0, [1 x i8]* @p_str, [1 x i8]* @p_str, [1 x i8]* @p_str, i32 2, i32 2, i32 16, i32 16, [1 x i8]* @p_str, [1 x i8]* @p_str)"   --->   Operation 29 'specinterface' <Predicate = true> <Delay = 0.00>
ST_2 : Operation 30 [1/1] (0.00ns)   --->   "call void (...)* @_ssdm_op_SpecInterface(i129* @rx_readRequestFifo_V, [8 x i8]* @ap_fifo_str, i32 0, i32 0, [1 x i8]* @p_str, i32 0, i32 0, [1 x i8]* @p_str, [1 x i8]* @p_str, [1 x i8]* @p_str, i32 2, i32 2, i32 16, i32 16, [1 x i8]* @p_str, [1 x i8]* @p_str)"   --->   Operation 30 'specinterface' <Predicate = true> <Delay = 0.00>
ST_2 : Operation 31 [1/1] (0.00ns)   --->   "call void (...)* @_ssdm_op_SpecInterface(i113* @rx_remoteMemCmd_V, [8 x i8]* @ap_fifo_str, i32 0, i32 0, [1 x i8]* @p_str, i32 0, i32 0, [1 x i8]* @p_str, [1 x i8]* @p_str, [1 x i8]* @p_str, i32 2, i32 2, i32 16, i32 16, [1 x i8]* @p_str, [1 x i8]* @p_str)"   --->   Operation 31 'specinterface' <Predicate = true> <Delay = 0.00>
ST_2 : Operation 32 [1/1] (0.00ns)   --->   "call void (...)* @_ssdm_op_SpecPipeline(i32 1, i32 1, i32 1, i32 0, [1 x i8]* @p_str91) nounwind" [/home/paulrr2/Projects/ece527/babelsoc/fpga-network-stack/hls/rocev2/../ib_transport_protocol/ib_transport_protocol.cpp:842]   --->   Operation 32 'specpipeline' <Predicate = true> <Delay = 0.00>
ST_2 : Operation 33 [1/1] (0.85ns)   --->   "store i24 %tmp_psn_V_6, i24* @request_psn_V, align 4" [/home/paulrr2/Projects/ece527/babelsoc/fpga-network-stack/hls/rocev2/../ib_transport_protocol/ib_transport_protocol.hpp:127->/home/paulrr2/Projects/ece527/babelsoc/fpga-network-stack/hls/rocev2/../ib_transport_protocol/ib_transport_protocol.cpp:858]   --->   Operation 33 'store' <Predicate = (!hrr_fsmState_load & tmp)> <Delay = 0.85>
ST_2 : Operation 34 [1/1] (0.00ns)   --->   "%request_vaddr_V_new_s = phi i48 [ %add_ln700_11, %2 ], [ %readAddr_V, %1 ]"   --->   Operation 34 'phi' 'request_vaddr_V_new_s' <Predicate = (!hrr_fsmState_load & tmp)> <Delay = 0.00>
ST_2 : Operation 35 [1/1] (0.00ns)   --->   "%request_dma_length_V_1 = phi i32 [ %add_ln701_6, %2 ], [ %readLength_V_2, %1 ]"   --->   Operation 35 'phi' 'request_dma_length_V_1' <Predicate = (!hrr_fsmState_load & tmp)> <Delay = 0.00>
ST_2 : Operation 36 [1/1] (0.00ns)   --->   "%tmp_length_V_5 = phi i32 [ 1408, %2 ], [ %readLength_V_2, %1 ]"   --->   Operation 36 'phi' 'tmp_length_V_5' <Predicate = (!hrr_fsmState_load & tmp)> <Delay = 0.00>
ST_2 : Operation 37 [1/1] (0.00ns)   --->   "%tmp_op_code_4 = phi i5 [ 13, %2 ], [ -16, %1 ]"   --->   Operation 37 'phi' 'tmp_op_code_4' <Predicate = (!hrr_fsmState_load & tmp)> <Delay = 0.00>
ST_2 : Operation 38 [1/1] (0.00ns)   --->   "%tmp_addr_V = zext i48 %readAddr_V to i64" [/home/paulrr2/Projects/ece527/babelsoc/fpga-network-stack/hls/rocev2/../ib_transport_protocol/ib_transport_protocol.cpp:872]   --->   Operation 38 'zext' 'tmp_addr_V' <Predicate = (!hrr_fsmState_load & tmp)> <Delay = 0.00>
ST_2 : Operation 39 [1/1] (0.00ns)   --->   "%tmp_54_i = call i112 @_ssdm_op_BitConcatenate.i112.i32.i64.i16(i32 %readLength_V_2, i64 %tmp_addr_V, i16 %tmp_qpn_V_18) nounwind" [/home/paulrr2/Projects/ece527/babelsoc/fpga-network-stack/hls/rocev2/../ib_transport_protocol/ib_transport_protocol.cpp:872]   --->   Operation 39 'bitconcatenate' 'tmp_54_i' <Predicate = (!hrr_fsmState_load & tmp)> <Delay = 0.00>
ST_2 : Operation 40 [1/1] (0.00ns)   --->   "%tmp_1 = call i113 @_ssdm_op_PartSet.i113.i113.i112.i32.i32(i113 undef, i112 %tmp_54_i, i32 0, i32 111) nounwind" [/home/paulrr2/Projects/ece527/babelsoc/fpga-network-stack/hls/rocev2/../ib_transport_protocol/ib_transport_protocol.cpp:872]   --->   Operation 40 'partset' 'tmp_1' <Predicate = (!hrr_fsmState_load & tmp)> <Delay = 0.00>
ST_2 : Operation 41 [1/1] (2.39ns)   --->   "call void @_ssdm_op_Write.ap_fifo.volatile.i113P(i113* @rx_remoteMemCmd_V, i113 %tmp_1) nounwind" [/home/paulrr2/Projects/ece527/babelsoc/fpga-network-stack/hls/rocev2/../ib_transport_protocol/ib_transport_protocol.cpp:872]   --->   Operation 41 'write' <Predicate = (!hrr_fsmState_load & tmp)> <Delay = 2.39> <Core = "FIFO">   --->   Core 32 'FIFO' <Latency = 0> <II = 1> <Delay = 2.39> <Storage> <Opcode : 'read' 'write' 'nbread' 'nbwrite'> <Ports = 0> <Width = 64> <Depth = 2> <FIFO>
ST_2 : Operation 42 [1/1] (0.00ns)   --->   "%tmp_2 = call i135 @_ssdm_op_BitConcatenate.i135.i2.i24.i32.i48.i24.i5(i2 1, i24 %tmp_psn_V_6, i32 %tmp_length_V_5, i48 0, i24 %tmp_qpn_V_19, i5 %tmp_op_code_4) nounwind" [/home/paulrr2/Projects/ece527/babelsoc/fpga-network-stack/hls/rocev2/../ib_transport_protocol/ib_transport_protocol.cpp:877]   --->   Operation 42 'bitconcatenate' 'tmp_2' <Predicate = (!hrr_fsmState_load & tmp)> <Delay = 0.00>
ST_2 : Operation 43 [1/1] (2.39ns)   --->   "call void @_ssdm_op_Write.ap_fifo.volatile.i135P(i135* @rx_readEvenFifo_V, i135 %tmp_2) nounwind" [/home/paulrr2/Projects/ece527/babelsoc/fpga-network-stack/hls/rocev2/../ib_transport_protocol/ib_transport_protocol.cpp:877]   --->   Operation 43 'write' <Predicate = (!hrr_fsmState_load & tmp)> <Delay = 2.39> <Core = "FIFO">   --->   Core 32 'FIFO' <Latency = 0> <II = 1> <Delay = 2.39> <Storage> <Opcode : 'read' 'write' 'nbread' 'nbwrite'> <Ports = 0> <Width = 64> <Depth = 2> <FIFO>
ST_2 : Operation 44 [1/1] (0.92ns)   --->   "br label %._crit_edge2.i" [/home/paulrr2/Projects/ece527/babelsoc/fpga-network-stack/hls/rocev2/../ib_transport_protocol/ib_transport_protocol.cpp:878]   --->   Operation 44 'br' <Predicate = (!hrr_fsmState_load & tmp)> <Delay = 0.92>
ST_2 : Operation 45 [1/1] (0.00ns)   --->   "%request_vaddr_V_flag = phi i1 [ true, %4 ], [ false, %5 ]"   --->   Operation 45 'phi' 'request_vaddr_V_flag' <Predicate = (hrr_fsmState_load)> <Delay = 0.00>
ST_2 : Operation 46 [1/1] (0.00ns)   --->   "%request_vaddr_V_new_1 = phi i48 [ %add_ln700, %4 ], [ undef, %5 ]" [/home/paulrr2/Projects/ece527/babelsoc/fpga-network-stack/hls/rocev2/../ib_transport_protocol/ib_transport_protocol.cpp:886]   --->   Operation 46 'phi' 'request_vaddr_V_new_1' <Predicate = (hrr_fsmState_load)> <Delay = 0.00>
ST_2 : Operation 47 [1/1] (0.00ns)   --->   "%request_dma_length_V_2 = phi i32 [ %add_ln701, %4 ], [ undef, %5 ]" [/home/paulrr2/Projects/ece527/babelsoc/fpga-network-stack/hls/rocev2/../ib_transport_protocol/ib_transport_protocol.cpp:887]   --->   Operation 47 'phi' 'request_dma_length_V_2' <Predicate = (hrr_fsmState_load)> <Delay = 0.00>
ST_2 : Operation 48 [1/1] (0.00ns)   --->   "%tmp_length_V = phi i32 [ 1408, %4 ], [ %readLength_V, %5 ]"   --->   Operation 48 'phi' 'tmp_length_V' <Predicate = (hrr_fsmState_load)> <Delay = 0.00>
ST_2 : Operation 49 [1/1] (0.00ns)   --->   "%tmp_op_code = phi i2 [ -2, %4 ], [ -1, %5 ]"   --->   Operation 49 'phi' 'tmp_op_code' <Predicate = (hrr_fsmState_load)> <Delay = 0.00>
ST_2 : Operation 50 [1/1] (0.00ns)   --->   "%sext_ln738 = sext i2 %tmp_op_code to i4" [/home/paulrr2/Projects/ece527/babelsoc/fpga-network-stack/hls/rocev2/../ib_transport_protocol/ib_transport_protocol.cpp:896]   --->   Operation 50 'sext' 'sext_ln738' <Predicate = (hrr_fsmState_load)> <Delay = 0.00>
ST_2 : Operation 51 [1/1] (0.00ns)   --->   "%zext_ln738 = zext i4 %sext_ln738 to i5" [/home/paulrr2/Projects/ece527/babelsoc/fpga-network-stack/hls/rocev2/../ib_transport_protocol/ib_transport_protocol.cpp:896]   --->   Operation 51 'zext' 'zext_ln738' <Predicate = (hrr_fsmState_load)> <Delay = 0.00>
ST_2 : Operation 52 [1/1] (0.00ns)   --->   "%t_V = load i24* @request_psn_V, align 4" [/home/paulrr2/Projects/ece527/babelsoc/fpga-network-stack/hls/rocev2/../ib_transport_protocol/ib_transport_protocol.cpp:896]   --->   Operation 52 'load' 't_V' <Predicate = (hrr_fsmState_load)> <Delay = 0.00>
ST_2 : Operation 53 [1/1] (1.41ns)   --->   "%tmp_psn_V = add i24 %t_V, 1" [/home/paulrr2/Projects/ece527/babelsoc/fpga-network-stack/hls/rocev2/../ib_transport_protocol/ib_transport_protocol.cpp:896]   --->   Operation 53 'add' 'tmp_psn_V' <Predicate = (hrr_fsmState_load)> <Delay = 1.41> <Core = "AddSub">   --->   Core 14 'AddSub' <Latency = 0> <II = 1> <Delay = 1.41> <FuncUnit> <Opcode : 'add' 'sub'> <InPorts = 2> <OutPorts = 1>
ST_2 : Operation 54 [1/1] (0.85ns)   --->   "store i24 %tmp_psn_V, i24* @request_psn_V, align 4" [/home/paulrr2/Projects/ece527/babelsoc/fpga-network-stack/hls/rocev2/../ib_transport_protocol/ib_transport_protocol.cpp:896]   --->   Operation 54 'store' <Predicate = (hrr_fsmState_load)> <Delay = 0.85>
ST_2 : Operation 55 [1/1] (0.00ns)   --->   "%tmp_qpn_V = load i24* @request_qpn_V, align 8" [/home/paulrr2/Projects/ece527/babelsoc/fpga-network-stack/hls/rocev2/../ib_transport_protocol/ib_transport_protocol.cpp:897]   --->   Operation 55 'load' 'tmp_qpn_V' <Predicate = (hrr_fsmState_load)> <Delay = 0.00>
ST_2 : Operation 56 [1/1] (0.00ns)   --->   "%tmp_3 = call i135 @_ssdm_op_BitConcatenate.i135.i2.i24.i32.i48.i24.i5(i2 1, i24 %tmp_psn_V, i32 %tmp_length_V, i48 0, i24 %tmp_qpn_V, i5 %zext_ln738) nounwind" [/home/paulrr2/Projects/ece527/babelsoc/fpga-network-stack/hls/rocev2/../ib_transport_protocol/ib_transport_protocol.cpp:897]   --->   Operation 56 'bitconcatenate' 'tmp_3' <Predicate = (hrr_fsmState_load)> <Delay = 0.00>
ST_2 : Operation 57 [1/1] (2.39ns)   --->   "call void @_ssdm_op_Write.ap_fifo.volatile.i135P(i135* @rx_readEvenFifo_V, i135 %tmp_3) nounwind" [/home/paulrr2/Projects/ece527/babelsoc/fpga-network-stack/hls/rocev2/../ib_transport_protocol/ib_transport_protocol.cpp:897]   --->   Operation 57 'write' <Predicate = (hrr_fsmState_load)> <Delay = 2.39> <Core = "FIFO">   --->   Core 32 'FIFO' <Latency = 0> <II = 1> <Delay = 2.39> <Storage> <Opcode : 'read' 'write' 'nbread' 'nbwrite'> <Ports = 0> <Width = 64> <Depth = 2> <FIFO>
ST_2 : Operation 58 [1/1] (0.92ns)   --->   "br label %._crit_edge2.i" [/home/paulrr2/Projects/ece527/babelsoc/fpga-network-stack/hls/rocev2/../ib_transport_protocol/ib_transport_protocol.cpp:898]   --->   Operation 58 'br' <Predicate = (hrr_fsmState_load)> <Delay = 0.92>
ST_2 : Operation 59 [1/1] (0.00ns)   --->   "%request_vaddr_V_flag_1 = phi i1 [ %request_vaddr_V_flag, %6 ], [ true, %._crit_edge4.i ], [ false, %0 ]"   --->   Operation 59 'phi' 'request_vaddr_V_flag_1' <Predicate = true> <Delay = 0.00>
ST_2 : Operation 60 [1/1] (0.00ns)   --->   "%request_vaddr_V_new_2 = phi i48 [ %request_vaddr_V_new_1, %6 ], [ %request_vaddr_V_new_s, %._crit_edge4.i ], [ undef, %0 ]" [/home/paulrr2/Projects/ece527/babelsoc/fpga-network-stack/hls/rocev2/../ib_transport_protocol/ib_transport_protocol.cpp:886]   --->   Operation 60 'phi' 'request_vaddr_V_new_2' <Predicate = true> <Delay = 0.00>
ST_2 : Operation 61 [1/1] (0.00ns)   --->   "%request_dma_length_V_3 = phi i32 [ %request_dma_length_V_2, %6 ], [ %request_dma_length_V_1, %._crit_edge4.i ], [ undef, %0 ]" [/home/paulrr2/Projects/ece527/babelsoc/fpga-network-stack/hls/rocev2/../ib_transport_protocol/ib_transport_protocol.cpp:887]   --->   Operation 61 'phi' 'request_dma_length_V_3' <Predicate = true> <Delay = 0.00>
ST_2 : Operation 62 [1/1] (0.00ns)   --->   "br i1 %request_vaddr_V_flag_1, label %mergeST135.i, label %handle_read_requests.exit"   --->   Operation 62 'br' <Predicate = true> <Delay = 0.00>
ST_2 : Operation 63 [1/1] (0.00ns)   --->   "store i32 %request_dma_length_V_3, i32* @request_dma_length_V, align 4" [/home/paulrr2/Projects/ece527/babelsoc/fpga-network-stack/hls/rocev2/../ib_transport_protocol/ib_transport_protocol.hpp:127->/home/paulrr2/Projects/ece527/babelsoc/fpga-network-stack/hls/rocev2/../ib_transport_protocol/ib_transport_protocol.cpp:858]   --->   Operation 63 'store' <Predicate = (request_vaddr_V_flag_1)> <Delay = 0.00>
ST_2 : Operation 64 [1/1] (0.00ns)   --->   "store i48 %request_vaddr_V_new_2, i48* @request_vaddr_V, align 8" [/home/paulrr2/Projects/ece527/babelsoc/fpga-network-stack/hls/rocev2/../ib_transport_protocol/ib_transport_protocol.hpp:127->/home/paulrr2/Projects/ece527/babelsoc/fpga-network-stack/hls/rocev2/../ib_transport_protocol/ib_transport_protocol.cpp:858]   --->   Operation 64 'store' <Predicate = (request_vaddr_V_flag_1)> <Delay = 0.00>
ST_2 : Operation 65 [1/1] (0.00ns)   --->   "br label %handle_read_requests.exit"   --->   Operation 65 'br' <Predicate = (request_vaddr_V_flag_1)> <Delay = 0.00>
ST_2 : Operation 66 [1/1] (0.00ns)   --->   "ret void"   --->   Operation 66 'ret' <Predicate = true> <Delay = 0.00>


============================================================
+ Verbose Summary: Binding
============================================================
STG Binding: 
---------------- STG Properties BEGIN ----------------
- Is combinational: 0
- Is one-state seq: 0
- Is datapath-only: 0
- Is pipelined: 1
- Is top level: 0
Port [ Return ] is wired: 1; IO mode=ap_ctrl_hs:ce=0
Port [ hrr_fsmState]:  wired=0; compound=0; hidden=1; nouse=0; global=1; static=1; extern=0; dir=2; type=0; pingpong=0; private_global=1; linkage=7; visibility=0; IO mode=ap_ovld:ce=0
Port [ request_vaddr_V]:  wired=0; compound=0; hidden=1; nouse=0; global=1; static=1; extern=0; dir=2; type=0; pingpong=0; private_global=1; linkage=7; visibility=0; IO mode=ap_ovld:ce=0
Port [ request_dma_length_V]:  wired=0; compound=0; hidden=1; nouse=0; global=1; static=1; extern=0; dir=2; type=0; pingpong=0; private_global=1; linkage=7; visibility=0; IO mode=ap_ovld:ce=0
Port [ rx_readRequestFifo_V]:  wired=1; compound=1; hidden=0; nouse=0; global=1; static=1; extern=0; dir=0; type=3; pingpong=0; private_global=0; linkage=7; visibility=0; IO mode=ap_fifo:ce=0
Port [ request_qpn_V]:  wired=0; compound=0; hidden=1; nouse=0; global=1; static=1; extern=0; dir=2; type=0; pingpong=0; private_global=1; linkage=7; visibility=0; IO mode=ap_ovld:ce=0
Port [ request_psn_V]:  wired=0; compound=0; hidden=1; nouse=0; global=1; static=1; extern=0; dir=2; type=0; pingpong=0; private_global=1; linkage=7; visibility=0; IO mode=ap_ovld:ce=0
Port [ rx_remoteMemCmd_V]:  wired=1; compound=1; hidden=0; nouse=0; global=1; static=1; extern=0; dir=1; type=3; pingpong=0; private_global=0; linkage=7; visibility=0; IO mode=ap_fifo:ce=0
Port [ rx_readEvenFifo_V]:  wired=1; compound=1; hidden=0; nouse=0; global=1; static=1; extern=0; dir=1; type=3; pingpong=0; private_global=0; linkage=7; visibility=0; IO mode=ap_fifo:ce=0
---------------- STG Properties END ------------------

---------------- Datapath Model BEGIN ----------------

<LifeTime>
<method=bitvector/>
hrr_fsmState_load      (load          ) [ 011]
request_vaddr_V_load   (load          ) [ 000]
readLength_V           (load          ) [ 011]
br_ln853               (br            ) [ 000]
tmp                    (nbreadreq     ) [ 011]
br_ln856               (br            ) [ 011]
tmp80                  (read          ) [ 000]
tmp_qpn_V_19           (trunc         ) [ 011]
store_ln127            (store         ) [ 000]
readAddr_V             (partselect    ) [ 011]
readLength_V_2         (partselect    ) [ 011]
tmp_psn_V_6            (partselect    ) [ 011]
icmp_ln895_3           (icmp          ) [ 010]
br_ln863               (br            ) [ 011]
add_ln700_11           (add           ) [ 011]
add_ln701_6            (add           ) [ 011]
store_ln869            (store         ) [ 000]
br_ln870               (br            ) [ 011]
tmp_qpn_V_18           (trunc         ) [ 011]
icmp_ln895             (icmp          ) [ 010]
br_ln883               (br            ) [ 000]
store_ln893            (store         ) [ 000]
br_ln0                 (br            ) [ 011]
add_ln700              (add           ) [ 011]
add_ln701              (add           ) [ 011]
br_ln889               (br            ) [ 011]
specinterface_ln0      (specinterface ) [ 000]
specinterface_ln0      (specinterface ) [ 000]
specinterface_ln0      (specinterface ) [ 000]
specpipeline_ln842     (specpipeline  ) [ 000]
store_ln127            (store         ) [ 000]
request_vaddr_V_new_s  (phi           ) [ 011]
request_dma_length_V_1 (phi           ) [ 011]
tmp_length_V_5         (phi           ) [ 011]
tmp_op_code_4          (phi           ) [ 011]
tmp_addr_V             (zext          ) [ 000]
tmp_54_i               (bitconcatenate) [ 000]
tmp_1                  (partset       ) [ 000]
write_ln872            (write         ) [ 000]
tmp_2                  (bitconcatenate) [ 000]
write_ln877            (write         ) [ 000]
br_ln878               (br            ) [ 000]
request_vaddr_V_flag   (phi           ) [ 011]
request_vaddr_V_new_1  (phi           ) [ 011]
request_dma_length_V_2 (phi           ) [ 011]
tmp_length_V           (phi           ) [ 011]
tmp_op_code            (phi           ) [ 011]
sext_ln738             (sext          ) [ 000]
zext_ln738             (zext          ) [ 000]
t_V                    (load          ) [ 000]
tmp_psn_V              (add           ) [ 000]
store_ln896            (store         ) [ 000]
tmp_qpn_V              (load          ) [ 000]
tmp_3                  (bitconcatenate) [ 000]
write_ln897            (write         ) [ 000]
br_ln898               (br            ) [ 000]
request_vaddr_V_flag_1 (phi           ) [ 011]
request_vaddr_V_new_2  (phi           ) [ 011]
request_dma_length_V_3 (phi           ) [ 011]
br_ln0                 (br            ) [ 000]
store_ln127            (store         ) [ 000]
store_ln127            (store         ) [ 000]
br_ln0                 (br            ) [ 000]
ret_ln0                (ret           ) [ 000]
</LifeTime>

<model>

<comp_list>
<comp id="0" class="1000" name="hrr_fsmState">
<pin_list>
<pin id="1" dir="1" index="0" bw="1" slack="0"/>
</pin_list>
<bind>
<StgValue><ssdm name="hrr_fsmState"/></StgValue>
</bind>
</comp>

<comp id="2" class="1000" name="request_vaddr_V">
<pin_list>
<pin id="3" dir="1" index="0" bw="1" slack="0"/>
</pin_list>
<bind>
<StgValue><ssdm name="request_vaddr_V"/></StgValue>
</bind>
</comp>

<comp id="4" class="1000" name="request_dma_length_V">
<pin_list>
<pin id="5" dir="1" index="0" bw="1" slack="0"/>
</pin_list>
<bind>
<StgValue><ssdm name="request_dma_length_V"/></StgValue>
</bind>
</comp>

<comp id="6" class="1000" name="rx_readRequestFifo_V">
<pin_list>
<pin id="7" dir="1" index="0" bw="1" slack="0"/>
</pin_list>
<bind>
<StgValue><ssdm name="rx_readRequestFifo_V"/></StgValue>
</bind>
</comp>

<comp id="8" class="1000" name="request_qpn_V">
<pin_list>
<pin id="9" dir="1" index="0" bw="1" slack="0"/>
</pin_list>
<bind>
<StgValue><ssdm name="request_qpn_V"/></StgValue>
</bind>
</comp>

<comp id="10" class="1000" name="request_psn_V">
<pin_list>
<pin id="11" dir="1" index="0" bw="1" slack="0"/>
</pin_list>
<bind>
<StgValue><ssdm name="request_psn_V"/></StgValue>
</bind>
</comp>

<comp id="12" class="1000" name="rx_remoteMemCmd_V">
<pin_list>
<pin id="13" dir="1" index="0" bw="1" slack="0"/>
</pin_list>
<bind>
<StgValue><ssdm name="rx_remoteMemCmd_V"/></StgValue>
</bind>
</comp>

<comp id="14" class="1000" name="rx_readEvenFifo_V">
<pin_list>
<pin id="15" dir="1" index="0" bw="1" slack="0"/>
</pin_list>
<bind>
<StgValue><ssdm name="rx_readEvenFifo_V"/></StgValue>
</bind>
</comp>

<comp id="16" class="1001" name="const_16">
<pin_list>
<pin id="17" dir="1" index="0" bw="1" slack="0"/>
</pin_list>
<bind>
<StgValue><ssdm name="_ssdm_op_NbReadReq.ap_fifo.i129P"/></StgValue>
</bind>
</comp>

<comp id="18" class="1001" name="const_18">
<pin_list>
<pin id="19" dir="1" index="0" bw="1" slack="0"/>
</pin_list>
<bind>
<StgValue><ssdm name=""/></StgValue>
</bind>
</comp>

<comp id="20" class="1001" name="const_20">
<pin_list>
<pin id="21" dir="1" index="0" bw="1" slack="0"/>
</pin_list>
<bind>
<StgValue><ssdm name="_ssdm_op_Read.ap_fifo.volatile.i129P"/></StgValue>
</bind>
</comp>

<comp id="22" class="1001" name="const_22">
<pin_list>
<pin id="23" dir="1" index="0" bw="1" slack="0"/>
</pin_list>
<bind>
<StgValue><ssdm name="_ssdm_op_PartSelect.i48.i129.i32.i32"/></StgValue>
</bind>
</comp>

<comp id="24" class="1001" name="const_24">
<pin_list>
<pin id="25" dir="1" index="0" bw="1" slack="0"/>
</pin_list>
<bind>
<StgValue><ssdm name=""/></StgValue>
</bind>
</comp>

<comp id="26" class="1001" name="const_26">
<pin_list>
<pin id="27" dir="1" index="0" bw="1" slack="0"/>
</pin_list>
<bind>
<StgValue><ssdm name=""/></StgValue>
</bind>
</comp>

<comp id="28" class="1001" name="const_28">
<pin_list>
<pin id="29" dir="1" index="0" bw="1" slack="0"/>
</pin_list>
<bind>
<StgValue><ssdm name="_ssdm_op_PartSelect.i32.i129.i32.i32"/></StgValue>
</bind>
</comp>

<comp id="30" class="1001" name="const_30">
<pin_list>
<pin id="31" dir="1" index="0" bw="1" slack="0"/>
</pin_list>
<bind>
<StgValue><ssdm name=""/></StgValue>
</bind>
</comp>

<comp id="32" class="1001" name="const_32">
<pin_list>
<pin id="33" dir="1" index="0" bw="1" slack="0"/>
</pin_list>
<bind>
<StgValue><ssdm name=""/></StgValue>
</bind>
</comp>

<comp id="34" class="1001" name="const_34">
<pin_list>
<pin id="35" dir="1" index="0" bw="1" slack="0"/>
</pin_list>
<bind>
<StgValue><ssdm name="_ssdm_op_PartSelect.i24.i129.i32.i32"/></StgValue>
</bind>
</comp>

<comp id="36" class="1001" name="const_36">
<pin_list>
<pin id="37" dir="1" index="0" bw="1" slack="0"/>
</pin_list>
<bind>
<StgValue><ssdm name=""/></StgValue>
</bind>
</comp>

<comp id="38" class="1001" name="const_38">
<pin_list>
<pin id="39" dir="1" index="0" bw="1" slack="0"/>
</pin_list>
<bind>
<StgValue><ssdm name=""/></StgValue>
</bind>
</comp>

<comp id="40" class="1001" name="const_40">
<pin_list>
<pin id="41" dir="1" index="0" bw="1" slack="0"/>
</pin_list>
<bind>
<StgValue><ssdm name=""/></StgValue>
</bind>
</comp>

<comp id="42" class="1001" name="const_42">
<pin_list>
<pin id="43" dir="1" index="0" bw="1" slack="0"/>
</pin_list>
<bind>
<StgValue><ssdm name=""/></StgValue>
</bind>
</comp>

<comp id="44" class="1001" name="const_44">
<pin_list>
<pin id="45" dir="1" index="0" bw="1" slack="0"/>
</pin_list>
<bind>
<StgValue><ssdm name=""/></StgValue>
</bind>
</comp>

<comp id="46" class="1001" name="const_46">
<pin_list>
<pin id="47" dir="1" index="0" bw="1" slack="0"/>
</pin_list>
<bind>
<StgValue><ssdm name=""/></StgValue>
</bind>
</comp>

<comp id="48" class="1001" name="const_48">
<pin_list>
<pin id="49" dir="1" index="0" bw="1" slack="0"/>
</pin_list>
<bind>
<StgValue><ssdm name=""/></StgValue>
</bind>
</comp>

<comp id="50" class="1001" name="const_50">
<pin_list>
<pin id="51" dir="1" index="0" bw="1" slack="2147483647"/>
</pin_list>
<bind>
<StgValue><ssdm name="_ssdm_op_SpecInterface"/></StgValue>
</bind>
</comp>

<comp id="52" class="1001" name="const_52">
<pin_list>
<pin id="53" dir="1" index="0" bw="1" slack="2147483647"/>
</pin_list>
<bind>
<StgValue><ssdm name="ap_fifo_str"/></StgValue>
</bind>
</comp>

<comp id="54" class="1001" name="const_54">
<pin_list>
<pin id="55" dir="1" index="0" bw="1" slack="0"/>
</pin_list>
<bind>
<StgValue><ssdm name=""/></StgValue>
</bind>
</comp>

<comp id="56" class="1001" name="const_56">
<pin_list>
<pin id="57" dir="1" index="0" bw="1" slack="2147483647"/>
</pin_list>
<bind>
<StgValue><ssdm name="p_str"/></StgValue>
</bind>
</comp>

<comp id="58" class="1001" name="const_58">
<pin_list>
<pin id="59" dir="1" index="0" bw="1" slack="2147483647"/>
</pin_list>
<bind>
<StgValue><ssdm name=""/></StgValue>
</bind>
</comp>

<comp id="60" class="1001" name="const_60">
<pin_list>
<pin id="61" dir="1" index="0" bw="1" slack="2147483647"/>
</pin_list>
<bind>
<StgValue><ssdm name=""/></StgValue>
</bind>
</comp>

<comp id="62" class="1001" name="const_62">
<pin_list>
<pin id="63" dir="1" index="0" bw="1" slack="2147483647"/>
</pin_list>
<bind>
<StgValue><ssdm name="_ssdm_op_SpecPipeline"/></StgValue>
</bind>
</comp>

<comp id="64" class="1001" name="const_64">
<pin_list>
<pin id="65" dir="1" index="0" bw="1" slack="2147483647"/>
</pin_list>
<bind>
<StgValue><ssdm name="p_str91"/></StgValue>
</bind>
</comp>

<comp id="66" class="1001" name="const_66">
<pin_list>
<pin id="67" dir="1" index="0" bw="1" slack="1"/>
</pin_list>
<bind>
<StgValue><ssdm name=""/></StgValue>
</bind>
</comp>

<comp id="68" class="1001" name="const_68">
<pin_list>
<pin id="69" dir="1" index="0" bw="1" slack="1"/>
</pin_list>
<bind>
<StgValue><ssdm name=""/></StgValue>
</bind>
</comp>

<comp id="70" class="1001" name="const_70">
<pin_list>
<pin id="71" dir="1" index="0" bw="1" slack="0"/>
</pin_list>
<bind>
<StgValue><ssdm name="_ssdm_op_BitConcatenate.i112.i32.i64.i16"/></StgValue>
</bind>
</comp>

<comp id="72" class="1001" name="const_72">
<pin_list>
<pin id="73" dir="1" index="0" bw="1" slack="0"/>
</pin_list>
<bind>
<StgValue><ssdm name="_ssdm_op_PartSet.i113.i113.i112.i32.i32"/></StgValue>
</bind>
</comp>

<comp id="74" class="1001" name="const_74">
<pin_list>
<pin id="75" dir="1" index="0" bw="1" slack="0"/>
</pin_list>
<bind>
<StgValue><ssdm name=""/></StgValue>
</bind>
</comp>

<comp id="76" class="1001" name="const_76">
<pin_list>
<pin id="77" dir="1" index="0" bw="1" slack="0"/>
</pin_list>
<bind>
<StgValue><ssdm name=""/></StgValue>
</bind>
</comp>

<comp id="78" class="1001" name="const_78">
<pin_list>
<pin id="79" dir="1" index="0" bw="1" slack="0"/>
</pin_list>
<bind>
<StgValue><ssdm name="_ssdm_op_Write.ap_fifo.volatile.i113P"/></StgValue>
</bind>
</comp>

<comp id="80" class="1001" name="const_80">
<pin_list>
<pin id="81" dir="1" index="0" bw="1" slack="0"/>
</pin_list>
<bind>
<StgValue><ssdm name="_ssdm_op_BitConcatenate.i135.i2.i24.i32.i48.i24.i5"/></StgValue>
</bind>
</comp>

<comp id="82" class="1001" name="const_82">
<pin_list>
<pin id="83" dir="1" index="0" bw="1" slack="0"/>
</pin_list>
<bind>
<StgValue><ssdm name=""/></StgValue>
</bind>
</comp>

<comp id="84" class="1001" name="const_84">
<pin_list>
<pin id="85" dir="1" index="0" bw="1" slack="0"/>
</pin_list>
<bind>
<StgValue><ssdm name=""/></StgValue>
</bind>
</comp>

<comp id="86" class="1001" name="const_86">
<pin_list>
<pin id="87" dir="1" index="0" bw="1" slack="0"/>
</pin_list>
<bind>
<StgValue><ssdm name="_ssdm_op_Write.ap_fifo.volatile.i135P"/></StgValue>
</bind>
</comp>

<comp id="88" class="1001" name="const_88">
<pin_list>
<pin id="89" dir="1" index="0" bw="1" slack="1"/>
</pin_list>
<bind>
<StgValue><ssdm name=""/></StgValue>
</bind>
</comp>

<comp id="90" class="1001" name="const_90">
<pin_list>
<pin id="91" dir="1" index="0" bw="1" slack="1"/>
</pin_list>
<bind>
<StgValue><ssdm name=""/></StgValue>
</bind>
</comp>

<comp id="92" class="1001" name="const_92">
<pin_list>
<pin id="93" dir="1" index="0" bw="1" slack="1"/>
</pin_list>
<bind>
<StgValue><ssdm name=""/></StgValue>
</bind>
</comp>

<comp id="94" class="1001" name="const_94">
<pin_list>
<pin id="95" dir="1" index="0" bw="1" slack="1"/>
</pin_list>
<bind>
<StgValue><ssdm name=""/></StgValue>
</bind>
</comp>

<comp id="96" class="1001" name="const_96">
<pin_list>
<pin id="97" dir="1" index="0" bw="1" slack="0"/>
</pin_list>
<bind>
<StgValue><ssdm name=""/></StgValue>
</bind>
</comp>

<comp id="98" class="1004" name="tmp_nbreadreq_fu_98">
<pin_list>
<pin id="99" dir="0" index="0" bw="1" slack="0"/>
<pin id="100" dir="0" index="1" bw="129" slack="0"/>
<pin id="101" dir="0" index="2" bw="1" slack="0"/>
<pin id="102" dir="1" index="3" bw="1" slack="1"/>
</pin_list>
<bind>
<opcode="nbreadreq(1156) " fcode="nbreadreq"/>
<opset="tmp/1 "/>
</bind>
</comp>

<comp id="106" class="1004" name="tmp80_read_fu_106">
<pin_list>
<pin id="107" dir="0" index="0" bw="129" slack="0"/>
<pin id="108" dir="0" index="1" bw="129" slack="0"/>
<pin id="109" dir="1" index="2" bw="129" slack="0"/>
</pin_list>
<bind>
<opcode="read(1150) " fcode="read"/>
<opset="tmp80/1 "/>
</bind>
</comp>

<comp id="112" class="1004" name="write_ln872_write_fu_112">
<pin_list>
<pin id="113" dir="0" index="0" bw="0" slack="0"/>
<pin id="114" dir="0" index="1" bw="113" slack="0"/>
<pin id="115" dir="0" index="2" bw="113" slack="0"/>
<pin id="116" dir="1" index="3" bw="0" slack="2147483647"/>
</pin_list>
<bind>
<opcode="write(1151) " fcode="write"/>
<opset="write_ln872/2 "/>
</bind>
</comp>

<comp id="119" class="1004" name="grp_write_fu_119">
<pin_list>
<pin id="120" dir="0" index="0" bw="0" slack="0"/>
<pin id="121" dir="0" index="1" bw="135" slack="0"/>
<pin id="122" dir="0" index="2" bw="135" slack="0"/>
<pin id="123" dir="1" index="3" bw="0" slack="2147483647"/>
</pin_list>
<bind>
<opcode="write(1151) " fcode="write"/>
<opset="write_ln877/2 write_ln897/2 "/>
</bind>
</comp>

<comp id="126" class="1005" name="request_vaddr_V_new_s_reg_126">
<pin_list>
<pin id="127" dir="0" index="0" bw="48" slack="2147483647"/>
<pin id="128" dir="1" index="1" bw="48" slack="2147483647"/>
</pin_list>
<bind>
<opset="request_vaddr_V_new_s (phireg) "/>
</bind>
</comp>

<comp id="129" class="1004" name="request_vaddr_V_new_s_phi_fu_129">
<pin_list>
<pin id="130" dir="0" index="0" bw="48" slack="1"/>
<pin id="131" dir="0" index="1" bw="0" slack="2147483647"/>
<pin id="132" dir="0" index="2" bw="48" slack="1"/>
<pin id="133" dir="0" index="3" bw="0" slack="2147483647"/>
<pin id="134" dir="1" index="4" bw="48" slack="0"/>
</pin_list>
<bind>
<opcode="phi(47) " fcode="phi"/>
<opset="request_vaddr_V_new_s/2 "/>
</bind>
</comp>

<comp id="135" class="1005" name="request_dma_length_V_1_reg_135">
<pin_list>
<pin id="136" dir="0" index="0" bw="32" slack="2147483647"/>
<pin id="137" dir="1" index="1" bw="32" slack="2147483647"/>
</pin_list>
<bind>
<opset="request_dma_length_V_1 (phireg) "/>
</bind>
</comp>

<comp id="138" class="1004" name="request_dma_length_V_1_phi_fu_138">
<pin_list>
<pin id="139" dir="0" index="0" bw="32" slack="1"/>
<pin id="140" dir="0" index="1" bw="0" slack="2147483647"/>
<pin id="141" dir="0" index="2" bw="32" slack="1"/>
<pin id="142" dir="0" index="3" bw="0" slack="2147483647"/>
<pin id="143" dir="1" index="4" bw="32" slack="0"/>
</pin_list>
<bind>
<opcode="phi(47) " fcode="phi"/>
<opset="request_dma_length_V_1/2 "/>
</bind>
</comp>

<comp id="144" class="1005" name="tmp_length_V_5_reg_144">
<pin_list>
<pin id="145" dir="0" index="0" bw="32" slack="1"/>
<pin id="146" dir="1" index="1" bw="32" slack="1"/>
</pin_list>
<bind>
<opset="tmp_length_V_5 (phireg) "/>
</bind>
</comp>

<comp id="148" class="1004" name="tmp_length_V_5_phi_fu_148">
<pin_list>
<pin id="149" dir="0" index="0" bw="12" slack="1"/>
<pin id="150" dir="0" index="1" bw="0" slack="2147483647"/>
<pin id="151" dir="0" index="2" bw="32" slack="1"/>
<pin id="152" dir="0" index="3" bw="0" slack="2147483647"/>
<pin id="153" dir="1" index="4" bw="32" slack="0"/>
</pin_list>
<bind>
<opcode="phi(47) " fcode="phi"/>
<opset="tmp_length_V_5/2 "/>
</bind>
</comp>

<comp id="155" class="1005" name="tmp_op_code_4_reg_155">
<pin_list>
<pin id="156" dir="0" index="0" bw="5" slack="1"/>
<pin id="157" dir="1" index="1" bw="5" slack="1"/>
</pin_list>
<bind>
<opset="tmp_op_code_4 (phireg) "/>
</bind>
</comp>

<comp id="160" class="1004" name="tmp_op_code_4_phi_fu_160">
<pin_list>
<pin id="161" dir="0" index="0" bw="5" slack="1"/>
<pin id="162" dir="0" index="1" bw="0" slack="2147483647"/>
<pin id="163" dir="0" index="2" bw="5" slack="1"/>
<pin id="164" dir="0" index="3" bw="0" slack="2147483647"/>
<pin id="165" dir="1" index="4" bw="5" slack="0"/>
</pin_list>
<bind>
<opcode="phi(47) " fcode="phi"/>
<opset="tmp_op_code_4/2 "/>
</bind>
</comp>

<comp id="168" class="1005" name="request_vaddr_V_flag_reg_168">
<pin_list>
<pin id="169" dir="0" index="0" bw="1" slack="1"/>
<pin id="170" dir="1" index="1" bw="1" slack="1"/>
</pin_list>
<bind>
<opset="request_vaddr_V_flag (phireg) "/>
</bind>
</comp>

<comp id="173" class="1004" name="request_vaddr_V_flag_phi_fu_173">
<pin_list>
<pin id="174" dir="0" index="0" bw="1" slack="1"/>
<pin id="175" dir="0" index="1" bw="0" slack="2147483647"/>
<pin id="176" dir="0" index="2" bw="1" slack="1"/>
<pin id="177" dir="0" index="3" bw="0" slack="2147483647"/>
<pin id="178" dir="1" index="4" bw="1" slack="0"/>
</pin_list>
<bind>
<opcode="phi(47) " fcode="phi"/>
<opset="request_vaddr_V_flag/2 "/>
</bind>
</comp>

<comp id="181" class="1005" name="request_vaddr_V_new_1_reg_181">
<pin_list>
<pin id="182" dir="0" index="0" bw="48" slack="1"/>
<pin id="183" dir="1" index="1" bw="48" slack="1"/>
</pin_list>
<bind>
<opset="request_vaddr_V_new_1 (phireg) "/>
</bind>
</comp>

<comp id="185" class="1004" name="request_vaddr_V_new_1_phi_fu_185">
<pin_list>
<pin id="186" dir="0" index="0" bw="48" slack="1"/>
<pin id="187" dir="0" index="1" bw="0" slack="2147483647"/>
<pin id="188" dir="0" index="2" bw="1" slack="1"/>
<pin id="189" dir="0" index="3" bw="0" slack="2147483647"/>
<pin id="190" dir="1" index="4" bw="48" slack="0"/>
</pin_list>
<bind>
<opcode="phi(47) " fcode="phi"/>
<opset="request_vaddr_V_new_1/2 "/>
</bind>
</comp>

<comp id="192" class="1005" name="request_dma_length_V_2_reg_192">
<pin_list>
<pin id="193" dir="0" index="0" bw="32" slack="1"/>
<pin id="194" dir="1" index="1" bw="32" slack="1"/>
</pin_list>
<bind>
<opset="request_dma_length_V_2 (phireg) "/>
</bind>
</comp>

<comp id="196" class="1004" name="request_dma_length_V_2_phi_fu_196">
<pin_list>
<pin id="197" dir="0" index="0" bw="32" slack="1"/>
<pin id="198" dir="0" index="1" bw="0" slack="2147483647"/>
<pin id="199" dir="0" index="2" bw="1" slack="1"/>
<pin id="200" dir="0" index="3" bw="0" slack="2147483647"/>
<pin id="201" dir="1" index="4" bw="32" slack="0"/>
</pin_list>
<bind>
<opcode="phi(47) " fcode="phi"/>
<opset="request_dma_length_V_2/2 "/>
</bind>
</comp>

<comp id="203" class="1005" name="tmp_length_V_reg_203">
<pin_list>
<pin id="204" dir="0" index="0" bw="32" slack="1"/>
<pin id="205" dir="1" index="1" bw="32" slack="1"/>
</pin_list>
<bind>
<opset="tmp_length_V (phireg) "/>
</bind>
</comp>

<comp id="207" class="1004" name="tmp_length_V_phi_fu_207">
<pin_list>
<pin id="208" dir="0" index="0" bw="12" slack="1"/>
<pin id="209" dir="0" index="1" bw="0" slack="2147483647"/>
<pin id="210" dir="0" index="2" bw="32" slack="1"/>
<pin id="211" dir="0" index="3" bw="0" slack="2147483647"/>
<pin id="212" dir="1" index="4" bw="32" slack="0"/>
</pin_list>
<bind>
<opcode="phi(47) " fcode="phi"/>
<opset="tmp_length_V/2 "/>
</bind>
</comp>

<comp id="214" class="1005" name="tmp_op_code_reg_214">
<pin_list>
<pin id="215" dir="0" index="0" bw="2" slack="1"/>
<pin id="216" dir="1" index="1" bw="2" slack="1"/>
</pin_list>
<bind>
<opset="tmp_op_code (phireg) "/>
</bind>
</comp>

<comp id="219" class="1004" name="tmp_op_code_phi_fu_219">
<pin_list>
<pin id="220" dir="0" index="0" bw="2" slack="1"/>
<pin id="221" dir="0" index="1" bw="0" slack="2147483647"/>
<pin id="222" dir="0" index="2" bw="1" slack="1"/>
<pin id="223" dir="0" index="3" bw="0" slack="2147483647"/>
<pin id="224" dir="1" index="4" bw="2" slack="0"/>
</pin_list>
<bind>
<opcode="phi(47) " fcode="phi"/>
<opset="tmp_op_code/2 "/>
</bind>
</comp>

<comp id="227" class="1005" name="request_vaddr_V_flag_1_reg_227">
<pin_list>
<pin id="228" dir="0" index="0" bw="1" slack="1"/>
<pin id="229" dir="1" index="1" bw="1" slack="1"/>
</pin_list>
<bind>
<opset="request_vaddr_V_flag_1 (phireg) "/>
</bind>
</comp>

<comp id="231" class="1004" name="request_vaddr_V_flag_1_phi_fu_231">
<pin_list>
<pin id="232" dir="0" index="0" bw="1" slack="0"/>
<pin id="233" dir="0" index="1" bw="0" slack="2147483647"/>
<pin id="234" dir="0" index="2" bw="1" slack="0"/>
<pin id="235" dir="0" index="3" bw="0" slack="2147483647"/>
<pin id="236" dir="0" index="4" bw="1" slack="1"/>
<pin id="237" dir="0" index="5" bw="0" slack="2147483647"/>
<pin id="238" dir="1" index="6" bw="1" slack="2147483647"/>
</pin_list>
<bind>
<opcode="phi(47) " fcode="phi"/>
<opset="request_vaddr_V_flag_1/2 "/>
</bind>
</comp>

<comp id="242" class="1005" name="request_vaddr_V_new_2_reg_242">
<pin_list>
<pin id="243" dir="0" index="0" bw="48" slack="1"/>
<pin id="244" dir="1" index="1" bw="48" slack="1"/>
</pin_list>
<bind>
<opset="request_vaddr_V_new_2 (phireg) "/>
</bind>
</comp>

<comp id="246" class="1004" name="request_vaddr_V_new_2_phi_fu_246">
<pin_list>
<pin id="247" dir="0" index="0" bw="48" slack="0"/>
<pin id="248" dir="0" index="1" bw="0" slack="2147483647"/>
<pin id="249" dir="0" index="2" bw="48" slack="0"/>
<pin id="250" dir="0" index="3" bw="0" slack="2147483647"/>
<pin id="251" dir="0" index="4" bw="1" slack="1"/>
<pin id="252" dir="0" index="5" bw="0" slack="2147483647"/>
<pin id="253" dir="1" index="6" bw="48" slack="0"/>
</pin_list>
<bind>
<opcode="phi(47) " fcode="phi"/>
<opset="request_vaddr_V_new_2/2 "/>
</bind>
</comp>

<comp id="257" class="1005" name="request_dma_length_V_3_reg_257">
<pin_list>
<pin id="258" dir="0" index="0" bw="32" slack="1"/>
<pin id="259" dir="1" index="1" bw="32" slack="1"/>
</pin_list>
<bind>
<opset="request_dma_length_V_3 (phireg) "/>
</bind>
</comp>

<comp id="261" class="1004" name="request_dma_length_V_3_phi_fu_261">
<pin_list>
<pin id="262" dir="0" index="0" bw="32" slack="0"/>
<pin id="263" dir="0" index="1" bw="0" slack="2147483647"/>
<pin id="264" dir="0" index="2" bw="32" slack="0"/>
<pin id="265" dir="0" index="3" bw="0" slack="2147483647"/>
<pin id="266" dir="0" index="4" bw="1" slack="1"/>
<pin id="267" dir="0" index="5" bw="0" slack="2147483647"/>
<pin id="268" dir="1" index="6" bw="32" slack="0"/>
</pin_list>
<bind>
<opcode="phi(47) " fcode="phi"/>
<opset="request_dma_length_V_3/2 "/>
</bind>
</comp>

<comp id="272" class="1004" name="hrr_fsmState_load_load_fu_272">
<pin_list>
<pin id="273" dir="0" index="0" bw="1" slack="0"/>
<pin id="274" dir="1" index="1" bw="1" slack="1"/>
</pin_list>
<bind>
<opcode="load(27) " fcode="load"/>
<opset="hrr_fsmState_load/1 "/>
</bind>
</comp>

<comp id="276" class="1004" name="request_vaddr_V_load_load_fu_276">
<pin_list>
<pin id="277" dir="0" index="0" bw="48" slack="0"/>
<pin id="278" dir="1" index="1" bw="48" slack="0"/>
</pin_list>
<bind>
<opcode="load(27) " fcode="load"/>
<opset="request_vaddr_V_load/1 "/>
</bind>
</comp>

<comp id="280" class="1004" name="readLength_V_load_fu_280">
<pin_list>
<pin id="281" dir="0" index="0" bw="32" slack="0"/>
<pin id="282" dir="1" index="1" bw="32" slack="0"/>
</pin_list>
<bind>
<opcode="load(27) " fcode="load"/>
<opset="readLength_V/1 "/>
</bind>
</comp>

<comp id="284" class="1004" name="tmp_qpn_V_19_fu_284">
<pin_list>
<pin id="285" dir="0" index="0" bw="129" slack="0"/>
<pin id="286" dir="1" index="1" bw="24" slack="0"/>
</pin_list>
<bind>
<opcode="trunc(33) " fcode="trunc"/>
<opset="tmp_qpn_V_19/1 "/>
</bind>
</comp>

<comp id="288" class="1004" name="store_ln127_store_fu_288">
<pin_list>
<pin id="289" dir="0" index="0" bw="24" slack="0"/>
<pin id="290" dir="0" index="1" bw="24" slack="0"/>
<pin id="291" dir="1" index="2" bw="0" slack="2147483647"/>
</pin_list>
<bind>
<opcode="store(28) " fcode="store"/>
<opset="store_ln127/1 "/>
</bind>
</comp>

<comp id="294" class="1004" name="readAddr_V_fu_294">
<pin_list>
<pin id="295" dir="0" index="0" bw="48" slack="0"/>
<pin id="296" dir="0" index="1" bw="129" slack="0"/>
<pin id="297" dir="0" index="2" bw="6" slack="0"/>
<pin id="298" dir="0" index="3" bw="8" slack="0"/>
<pin id="299" dir="1" index="4" bw="48" slack="0"/>
</pin_list>
<bind>
<opcode="partselect(1002) " fcode="partselect"/>
<opset="readAddr_V/1 "/>
</bind>
</comp>

<comp id="304" class="1004" name="readLength_V_2_fu_304">
<pin_list>
<pin id="305" dir="0" index="0" bw="32" slack="0"/>
<pin id="306" dir="0" index="1" bw="129" slack="0"/>
<pin id="307" dir="0" index="2" bw="8" slack="0"/>
<pin id="308" dir="0" index="3" bw="8" slack="0"/>
<pin id="309" dir="1" index="4" bw="32" slack="0"/>
</pin_list>
<bind>
<opcode="partselect(1002) " fcode="partselect"/>
<opset="readLength_V_2/1 "/>
</bind>
</comp>

<comp id="314" class="1004" name="tmp_psn_V_6_fu_314">
<pin_list>
<pin id="315" dir="0" index="0" bw="24" slack="0"/>
<pin id="316" dir="0" index="1" bw="129" slack="0"/>
<pin id="317" dir="0" index="2" bw="8" slack="0"/>
<pin id="318" dir="0" index="3" bw="8" slack="0"/>
<pin id="319" dir="1" index="4" bw="24" slack="1"/>
</pin_list>
<bind>
<opcode="partselect(1002) " fcode="partselect"/>
<opset="tmp_psn_V_6/1 "/>
</bind>
</comp>

<comp id="324" class="1004" name="icmp_ln895_3_fu_324">
<pin_list>
<pin id="325" dir="0" index="0" bw="32" slack="0"/>
<pin id="326" dir="0" index="1" bw="32" slack="0"/>
<pin id="327" dir="1" index="2" bw="1" slack="2147483647"/>
</pin_list>
<bind>
<opcode="icmp(45) " fcode="icmp"/>
<opset="icmp_ln895_3/1 "/>
</bind>
</comp>

<comp id="330" class="1004" name="add_ln700_11_fu_330">
<pin_list>
<pin id="331" dir="0" index="0" bw="48" slack="0"/>
<pin id="332" dir="0" index="1" bw="12" slack="0"/>
<pin id="333" dir="1" index="2" bw="48" slack="1"/>
</pin_list>
<bind>
<opcode="add(8) " fcode="add"/>
<opset="add_ln700_11/1 "/>
</bind>
</comp>

<comp id="336" class="1004" name="add_ln701_6_fu_336">
<pin_list>
<pin id="337" dir="0" index="0" bw="32" slack="0"/>
<pin id="338" dir="0" index="1" bw="12" slack="0"/>
<pin id="339" dir="1" index="2" bw="32" slack="1"/>
</pin_list>
<bind>
<opcode="add(8) " fcode="add"/>
<opset="add_ln701_6/1 "/>
</bind>
</comp>

<comp id="342" class="1004" name="store_ln869_store_fu_342">
<pin_list>
<pin id="343" dir="0" index="0" bw="1" slack="0"/>
<pin id="344" dir="0" index="1" bw="1" slack="0"/>
<pin id="345" dir="1" index="2" bw="0" slack="2147483647"/>
</pin_list>
<bind>
<opcode="store(28) " fcode="store"/>
<opset="store_ln869/1 "/>
</bind>
</comp>

<comp id="348" class="1004" name="tmp_qpn_V_18_fu_348">
<pin_list>
<pin id="349" dir="0" index="0" bw="129" slack="0"/>
<pin id="350" dir="1" index="1" bw="16" slack="1"/>
</pin_list>
<bind>
<opcode="trunc(33) " fcode="trunc"/>
<opset="tmp_qpn_V_18/1 "/>
</bind>
</comp>

<comp id="352" class="1004" name="icmp_ln895_fu_352">
<pin_list>
<pin id="353" dir="0" index="0" bw="32" slack="0"/>
<pin id="354" dir="0" index="1" bw="32" slack="0"/>
<pin id="355" dir="1" index="2" bw="1" slack="2147483647"/>
</pin_list>
<bind>
<opcode="icmp(45) " fcode="icmp"/>
<opset="icmp_ln895/1 "/>
</bind>
</comp>

<comp id="358" class="1004" name="store_ln893_store_fu_358">
<pin_list>
<pin id="359" dir="0" index="0" bw="1" slack="0"/>
<pin id="360" dir="0" index="1" bw="1" slack="0"/>
<pin id="361" dir="1" index="2" bw="0" slack="2147483647"/>
</pin_list>
<bind>
<opcode="store(28) " fcode="store"/>
<opset="store_ln893/1 "/>
</bind>
</comp>

<comp id="364" class="1004" name="add_ln700_fu_364">
<pin_list>
<pin id="365" dir="0" index="0" bw="48" slack="0"/>
<pin id="366" dir="0" index="1" bw="12" slack="0"/>
<pin id="367" dir="1" index="2" bw="48" slack="1"/>
</pin_list>
<bind>
<opcode="add(8) " fcode="add"/>
<opset="add_ln700/1 "/>
</bind>
</comp>

<comp id="370" class="1004" name="add_ln701_fu_370">
<pin_list>
<pin id="371" dir="0" index="0" bw="32" slack="0"/>
<pin id="372" dir="0" index="1" bw="12" slack="0"/>
<pin id="373" dir="1" index="2" bw="32" slack="1"/>
</pin_list>
<bind>
<opcode="add(8) " fcode="add"/>
<opset="add_ln701/1 "/>
</bind>
</comp>

<comp id="376" class="1004" name="store_ln127_store_fu_376">
<pin_list>
<pin id="377" dir="0" index="0" bw="24" slack="1"/>
<pin id="378" dir="0" index="1" bw="24" slack="0"/>
<pin id="379" dir="1" index="2" bw="0" slack="2147483647"/>
</pin_list>
<bind>
<opcode="store(28) " fcode="store"/>
<opset="store_ln127/2 "/>
</bind>
</comp>

<comp id="381" class="1004" name="tmp_addr_V_fu_381">
<pin_list>
<pin id="382" dir="0" index="0" bw="48" slack="1"/>
<pin id="383" dir="1" index="1" bw="64" slack="0"/>
</pin_list>
<bind>
<opcode="zext(34) " fcode="zext"/>
<opset="tmp_addr_V/2 "/>
</bind>
</comp>

<comp id="384" class="1004" name="tmp_54_i_fu_384">
<pin_list>
<pin id="385" dir="0" index="0" bw="112" slack="0"/>
<pin id="386" dir="0" index="1" bw="32" slack="1"/>
<pin id="387" dir="0" index="2" bw="48" slack="0"/>
<pin id="388" dir="0" index="3" bw="16" slack="1"/>
<pin id="389" dir="1" index="4" bw="112" slack="0"/>
</pin_list>
<bind>
<opcode="bitconcatenate(1004) " fcode="bitconcatenate"/>
<opset="tmp_54_i/2 "/>
</bind>
</comp>

<comp id="392" class="1004" name="tmp_1_fu_392">
<pin_list>
<pin id="393" dir="0" index="0" bw="113" slack="0"/>
<pin id="394" dir="0" index="1" bw="1" slack="0"/>
<pin id="395" dir="0" index="2" bw="112" slack="0"/>
<pin id="396" dir="0" index="3" bw="1" slack="0"/>
<pin id="397" dir="0" index="4" bw="8" slack="0"/>
<pin id="398" dir="1" index="5" bw="113" slack="0"/>
</pin_list>
<bind>
<opcode="partset(1003) " fcode="partset"/>
<opset="tmp_1/2 "/>
</bind>
</comp>

<comp id="405" class="1004" name="tmp_2_fu_405">
<pin_list>
<pin id="406" dir="0" index="0" bw="135" slack="0"/>
<pin id="407" dir="0" index="1" bw="1" slack="0"/>
<pin id="408" dir="0" index="2" bw="24" slack="1"/>
<pin id="409" dir="0" index="3" bw="32" slack="0"/>
<pin id="410" dir="0" index="4" bw="1" slack="0"/>
<pin id="411" dir="0" index="5" bw="24" slack="1"/>
<pin id="412" dir="0" index="6" bw="5" slack="0"/>
<pin id="413" dir="1" index="7" bw="135" slack="0"/>
</pin_list>
<bind>
<opcode="bitconcatenate(1004) " fcode="bitconcatenate"/>
<opset="tmp_2/2 "/>
</bind>
</comp>

<comp id="420" class="1004" name="sext_ln738_fu_420">
<pin_list>
<pin id="421" dir="0" index="0" bw="2" slack="0"/>
<pin id="422" dir="1" index="1" bw="4" slack="0"/>
</pin_list>
<bind>
<opcode="sext(35) " fcode="sext"/>
<opset="sext_ln738/2 "/>
</bind>
</comp>

<comp id="424" class="1004" name="zext_ln738_fu_424">
<pin_list>
<pin id="425" dir="0" index="0" bw="2" slack="0"/>
<pin id="426" dir="1" index="1" bw="5" slack="0"/>
</pin_list>
<bind>
<opcode="zext(34) " fcode="zext"/>
<opset="zext_ln738/2 "/>
</bind>
</comp>

<comp id="428" class="1004" name="t_V_load_fu_428">
<pin_list>
<pin id="429" dir="0" index="0" bw="24" slack="0"/>
<pin id="430" dir="1" index="1" bw="24" slack="0"/>
</pin_list>
<bind>
<opcode="load(27) " fcode="load"/>
<opset="t_V/2 "/>
</bind>
</comp>

<comp id="432" class="1004" name="tmp_psn_V_fu_432">
<pin_list>
<pin id="433" dir="0" index="0" bw="24" slack="0"/>
<pin id="434" dir="0" index="1" bw="1" slack="0"/>
<pin id="435" dir="1" index="2" bw="24" slack="0"/>
</pin_list>
<bind>
<opcode="add(8) " fcode="add"/>
<opset="tmp_psn_V/2 "/>
</bind>
</comp>

<comp id="438" class="1004" name="store_ln896_store_fu_438">
<pin_list>
<pin id="439" dir="0" index="0" bw="24" slack="0"/>
<pin id="440" dir="0" index="1" bw="24" slack="0"/>
<pin id="441" dir="1" index="2" bw="0" slack="2147483647"/>
</pin_list>
<bind>
<opcode="store(28) " fcode="store"/>
<opset="store_ln896/2 "/>
</bind>
</comp>

<comp id="444" class="1004" name="tmp_qpn_V_load_fu_444">
<pin_list>
<pin id="445" dir="0" index="0" bw="24" slack="0"/>
<pin id="446" dir="1" index="1" bw="24" slack="0"/>
</pin_list>
<bind>
<opcode="load(27) " fcode="load"/>
<opset="tmp_qpn_V/2 "/>
</bind>
</comp>

<comp id="448" class="1004" name="tmp_3_fu_448">
<pin_list>
<pin id="449" dir="0" index="0" bw="135" slack="0"/>
<pin id="450" dir="0" index="1" bw="1" slack="0"/>
<pin id="451" dir="0" index="2" bw="24" slack="0"/>
<pin id="452" dir="0" index="3" bw="32" slack="0"/>
<pin id="453" dir="0" index="4" bw="1" slack="0"/>
<pin id="454" dir="0" index="5" bw="24" slack="0"/>
<pin id="455" dir="0" index="6" bw="4" slack="0"/>
<pin id="456" dir="1" index="7" bw="135" slack="0"/>
</pin_list>
<bind>
<opcode="bitconcatenate(1004) " fcode="bitconcatenate"/>
<opset="tmp_3/2 "/>
</bind>
</comp>

<comp id="465" class="1004" name="store_ln127_store_fu_465">
<pin_list>
<pin id="466" dir="0" index="0" bw="32" slack="0"/>
<pin id="467" dir="0" index="1" bw="32" slack="0"/>
<pin id="468" dir="1" index="2" bw="0" slack="2147483647"/>
</pin_list>
<bind>
<opcode="store(28) " fcode="store"/>
<opset="store_ln127/2 "/>
</bind>
</comp>

<comp id="471" class="1004" name="store_ln127_store_fu_471">
<pin_list>
<pin id="472" dir="0" index="0" bw="48" slack="0"/>
<pin id="473" dir="0" index="1" bw="48" slack="0"/>
<pin id="474" dir="1" index="2" bw="0" slack="2147483647"/>
</pin_list>
<bind>
<opcode="store(28) " fcode="store"/>
<opset="store_ln127/2 "/>
</bind>
</comp>

<comp id="477" class="1005" name="hrr_fsmState_load_reg_477">
<pin_list>
<pin id="478" dir="0" index="0" bw="1" slack="1"/>
<pin id="479" dir="1" index="1" bw="1" slack="2147483647"/>
</pin_list>
<bind>
<opset="hrr_fsmState_load "/>
</bind>
</comp>

<comp id="481" class="1005" name="readLength_V_reg_481">
<pin_list>
<pin id="482" dir="0" index="0" bw="32" slack="1"/>
<pin id="483" dir="1" index="1" bw="32" slack="1"/>
</pin_list>
<bind>
<opset="readLength_V "/>
</bind>
</comp>

<comp id="486" class="1005" name="tmp_reg_486">
<pin_list>
<pin id="487" dir="0" index="0" bw="1" slack="1"/>
<pin id="488" dir="1" index="1" bw="1" slack="2147483647"/>
</pin_list>
<bind>
<opset="tmp "/>
</bind>
</comp>

<comp id="490" class="1005" name="tmp_qpn_V_19_reg_490">
<pin_list>
<pin id="491" dir="0" index="0" bw="24" slack="1"/>
<pin id="492" dir="1" index="1" bw="24" slack="1"/>
</pin_list>
<bind>
<opset="tmp_qpn_V_19 "/>
</bind>
</comp>

<comp id="495" class="1005" name="readAddr_V_reg_495">
<pin_list>
<pin id="496" dir="0" index="0" bw="48" slack="1"/>
<pin id="497" dir="1" index="1" bw="48" slack="1"/>
</pin_list>
<bind>
<opset="readAddr_V "/>
</bind>
</comp>

<comp id="501" class="1005" name="readLength_V_2_reg_501">
<pin_list>
<pin id="502" dir="0" index="0" bw="32" slack="1"/>
<pin id="503" dir="1" index="1" bw="32" slack="1"/>
</pin_list>
<bind>
<opset="readLength_V_2 "/>
</bind>
</comp>

<comp id="508" class="1005" name="tmp_psn_V_6_reg_508">
<pin_list>
<pin id="509" dir="0" index="0" bw="24" slack="1"/>
<pin id="510" dir="1" index="1" bw="24" slack="1"/>
</pin_list>
<bind>
<opset="tmp_psn_V_6 "/>
</bind>
</comp>

<comp id="517" class="1005" name="add_ln700_11_reg_517">
<pin_list>
<pin id="518" dir="0" index="0" bw="48" slack="1"/>
<pin id="519" dir="1" index="1" bw="48" slack="1"/>
</pin_list>
<bind>
<opset="add_ln700_11 "/>
</bind>
</comp>

<comp id="522" class="1005" name="add_ln701_6_reg_522">
<pin_list>
<pin id="523" dir="0" index="0" bw="32" slack="1"/>
<pin id="524" dir="1" index="1" bw="32" slack="1"/>
</pin_list>
<bind>
<opset="add_ln701_6 "/>
</bind>
</comp>

<comp id="527" class="1005" name="tmp_qpn_V_18_reg_527">
<pin_list>
<pin id="528" dir="0" index="0" bw="16" slack="1"/>
<pin id="529" dir="1" index="1" bw="16" slack="1"/>
</pin_list>
<bind>
<opset="tmp_qpn_V_18 "/>
</bind>
</comp>

<comp id="535" class="1005" name="add_ln700_reg_535">
<pin_list>
<pin id="536" dir="0" index="0" bw="48" slack="1"/>
<pin id="537" dir="1" index="1" bw="48" slack="1"/>
</pin_list>
<bind>
<opset="add_ln700 "/>
</bind>
</comp>

<comp id="540" class="1005" name="add_ln701_reg_540">
<pin_list>
<pin id="541" dir="0" index="0" bw="32" slack="1"/>
<pin id="542" dir="1" index="1" bw="32" slack="1"/>
</pin_list>
<bind>
<opset="add_ln701 "/>
</bind>
</comp>

</comp_list>

<net_list>
<net id="103"><net_src comp="16" pin="0"/><net_sink comp="98" pin=0"/></net>

<net id="104"><net_src comp="6" pin="0"/><net_sink comp="98" pin=1"/></net>

<net id="105"><net_src comp="18" pin="0"/><net_sink comp="98" pin=2"/></net>

<net id="110"><net_src comp="20" pin="0"/><net_sink comp="106" pin=0"/></net>

<net id="111"><net_src comp="6" pin="0"/><net_sink comp="106" pin=1"/></net>

<net id="117"><net_src comp="78" pin="0"/><net_sink comp="112" pin=0"/></net>

<net id="118"><net_src comp="12" pin="0"/><net_sink comp="112" pin=1"/></net>

<net id="124"><net_src comp="86" pin="0"/><net_sink comp="119" pin=0"/></net>

<net id="125"><net_src comp="14" pin="0"/><net_sink comp="119" pin=1"/></net>

<net id="147"><net_src comp="40" pin="0"/><net_sink comp="144" pin=0"/></net>

<net id="154"><net_src comp="144" pin="1"/><net_sink comp="148" pin=0"/></net>

<net id="158"><net_src comp="66" pin="0"/><net_sink comp="155" pin=0"/></net>

<net id="159"><net_src comp="68" pin="0"/><net_sink comp="155" pin=0"/></net>

<net id="166"><net_src comp="155" pin="1"/><net_sink comp="160" pin=0"/></net>

<net id="167"><net_src comp="155" pin="1"/><net_sink comp="160" pin=2"/></net>

<net id="171"><net_src comp="46" pin="0"/><net_sink comp="168" pin=0"/></net>

<net id="172"><net_src comp="48" pin="0"/><net_sink comp="168" pin=0"/></net>

<net id="179"><net_src comp="168" pin="1"/><net_sink comp="173" pin=0"/></net>

<net id="180"><net_src comp="168" pin="1"/><net_sink comp="173" pin=2"/></net>

<net id="184"><net_src comp="88" pin="0"/><net_sink comp="181" pin=0"/></net>

<net id="191"><net_src comp="181" pin="1"/><net_sink comp="185" pin=2"/></net>

<net id="195"><net_src comp="90" pin="0"/><net_sink comp="192" pin=0"/></net>

<net id="202"><net_src comp="192" pin="1"/><net_sink comp="196" pin=2"/></net>

<net id="206"><net_src comp="40" pin="0"/><net_sink comp="203" pin=0"/></net>

<net id="213"><net_src comp="203" pin="1"/><net_sink comp="207" pin=0"/></net>

<net id="217"><net_src comp="92" pin="0"/><net_sink comp="214" pin=0"/></net>

<net id="218"><net_src comp="94" pin="0"/><net_sink comp="214" pin=0"/></net>

<net id="225"><net_src comp="214" pin="1"/><net_sink comp="219" pin=0"/></net>

<net id="226"><net_src comp="214" pin="1"/><net_sink comp="219" pin=2"/></net>

<net id="230"><net_src comp="48" pin="0"/><net_sink comp="227" pin=0"/></net>

<net id="239"><net_src comp="173" pin="4"/><net_sink comp="231" pin=0"/></net>

<net id="240"><net_src comp="46" pin="0"/><net_sink comp="231" pin=2"/></net>

<net id="241"><net_src comp="227" pin="1"/><net_sink comp="231" pin=4"/></net>

<net id="245"><net_src comp="88" pin="0"/><net_sink comp="242" pin=0"/></net>

<net id="254"><net_src comp="185" pin="4"/><net_sink comp="246" pin=0"/></net>

<net id="255"><net_src comp="129" pin="4"/><net_sink comp="246" pin=2"/></net>

<net id="256"><net_src comp="242" pin="1"/><net_sink comp="246" pin=4"/></net>

<net id="260"><net_src comp="90" pin="0"/><net_sink comp="257" pin=0"/></net>

<net id="269"><net_src comp="196" pin="4"/><net_sink comp="261" pin=0"/></net>

<net id="270"><net_src comp="138" pin="4"/><net_sink comp="261" pin=2"/></net>

<net id="271"><net_src comp="257" pin="1"/><net_sink comp="261" pin=4"/></net>

<net id="275"><net_src comp="0" pin="0"/><net_sink comp="272" pin=0"/></net>

<net id="279"><net_src comp="2" pin="0"/><net_sink comp="276" pin=0"/></net>

<net id="283"><net_src comp="4" pin="0"/><net_sink comp="280" pin=0"/></net>

<net id="287"><net_src comp="106" pin="2"/><net_sink comp="284" pin=0"/></net>

<net id="292"><net_src comp="284" pin="1"/><net_sink comp="288" pin=0"/></net>

<net id="293"><net_src comp="8" pin="0"/><net_sink comp="288" pin=1"/></net>

<net id="300"><net_src comp="22" pin="0"/><net_sink comp="294" pin=0"/></net>

<net id="301"><net_src comp="106" pin="2"/><net_sink comp="294" pin=1"/></net>

<net id="302"><net_src comp="24" pin="0"/><net_sink comp="294" pin=2"/></net>

<net id="303"><net_src comp="26" pin="0"/><net_sink comp="294" pin=3"/></net>

<net id="310"><net_src comp="28" pin="0"/><net_sink comp="304" pin=0"/></net>

<net id="311"><net_src comp="106" pin="2"/><net_sink comp="304" pin=1"/></net>

<net id="312"><net_src comp="30" pin="0"/><net_sink comp="304" pin=2"/></net>

<net id="313"><net_src comp="32" pin="0"/><net_sink comp="304" pin=3"/></net>

<net id="320"><net_src comp="34" pin="0"/><net_sink comp="314" pin=0"/></net>

<net id="321"><net_src comp="106" pin="2"/><net_sink comp="314" pin=1"/></net>

<net id="322"><net_src comp="36" pin="0"/><net_sink comp="314" pin=2"/></net>

<net id="323"><net_src comp="38" pin="0"/><net_sink comp="314" pin=3"/></net>

<net id="328"><net_src comp="304" pin="4"/><net_sink comp="324" pin=0"/></net>

<net id="329"><net_src comp="40" pin="0"/><net_sink comp="324" pin=1"/></net>

<net id="334"><net_src comp="294" pin="4"/><net_sink comp="330" pin=0"/></net>

<net id="335"><net_src comp="42" pin="0"/><net_sink comp="330" pin=1"/></net>

<net id="340"><net_src comp="304" pin="4"/><net_sink comp="336" pin=0"/></net>

<net id="341"><net_src comp="44" pin="0"/><net_sink comp="336" pin=1"/></net>

<net id="346"><net_src comp="46" pin="0"/><net_sink comp="342" pin=0"/></net>

<net id="347"><net_src comp="0" pin="0"/><net_sink comp="342" pin=1"/></net>

<net id="351"><net_src comp="106" pin="2"/><net_sink comp="348" pin=0"/></net>

<net id="356"><net_src comp="280" pin="1"/><net_sink comp="352" pin=0"/></net>

<net id="357"><net_src comp="40" pin="0"/><net_sink comp="352" pin=1"/></net>

<net id="362"><net_src comp="48" pin="0"/><net_sink comp="358" pin=0"/></net>

<net id="363"><net_src comp="0" pin="0"/><net_sink comp="358" pin=1"/></net>

<net id="368"><net_src comp="276" pin="1"/><net_sink comp="364" pin=0"/></net>

<net id="369"><net_src comp="42" pin="0"/><net_sink comp="364" pin=1"/></net>

<net id="374"><net_src comp="280" pin="1"/><net_sink comp="370" pin=0"/></net>

<net id="375"><net_src comp="44" pin="0"/><net_sink comp="370" pin=1"/></net>

<net id="380"><net_src comp="10" pin="0"/><net_sink comp="376" pin=1"/></net>

<net id="390"><net_src comp="70" pin="0"/><net_sink comp="384" pin=0"/></net>

<net id="391"><net_src comp="381" pin="1"/><net_sink comp="384" pin=2"/></net>

<net id="399"><net_src comp="72" pin="0"/><net_sink comp="392" pin=0"/></net>

<net id="400"><net_src comp="74" pin="0"/><net_sink comp="392" pin=1"/></net>

<net id="401"><net_src comp="384" pin="4"/><net_sink comp="392" pin=2"/></net>

<net id="402"><net_src comp="54" pin="0"/><net_sink comp="392" pin=3"/></net>

<net id="403"><net_src comp="76" pin="0"/><net_sink comp="392" pin=4"/></net>

<net id="404"><net_src comp="392" pin="5"/><net_sink comp="112" pin=2"/></net>

<net id="414"><net_src comp="80" pin="0"/><net_sink comp="405" pin=0"/></net>

<net id="415"><net_src comp="82" pin="0"/><net_sink comp="405" pin=1"/></net>

<net id="416"><net_src comp="148" pin="4"/><net_sink comp="405" pin=3"/></net>

<net id="417"><net_src comp="84" pin="0"/><net_sink comp="405" pin=4"/></net>

<net id="418"><net_src comp="160" pin="4"/><net_sink comp="405" pin=6"/></net>

<net id="419"><net_src comp="405" pin="7"/><net_sink comp="119" pin=2"/></net>

<net id="423"><net_src comp="219" pin="4"/><net_sink comp="420" pin=0"/></net>

<net id="427"><net_src comp="420" pin="1"/><net_sink comp="424" pin=0"/></net>

<net id="431"><net_src comp="10" pin="0"/><net_sink comp="428" pin=0"/></net>

<net id="436"><net_src comp="428" pin="1"/><net_sink comp="432" pin=0"/></net>

<net id="437"><net_src comp="96" pin="0"/><net_sink comp="432" pin=1"/></net>

<net id="442"><net_src comp="432" pin="2"/><net_sink comp="438" pin=0"/></net>

<net id="443"><net_src comp="10" pin="0"/><net_sink comp="438" pin=1"/></net>

<net id="447"><net_src comp="8" pin="0"/><net_sink comp="444" pin=0"/></net>

<net id="457"><net_src comp="80" pin="0"/><net_sink comp="448" pin=0"/></net>

<net id="458"><net_src comp="82" pin="0"/><net_sink comp="448" pin=1"/></net>

<net id="459"><net_src comp="432" pin="2"/><net_sink comp="448" pin=2"/></net>

<net id="460"><net_src comp="207" pin="4"/><net_sink comp="448" pin=3"/></net>

<net id="461"><net_src comp="84" pin="0"/><net_sink comp="448" pin=4"/></net>

<net id="462"><net_src comp="444" pin="1"/><net_sink comp="448" pin=5"/></net>

<net id="463"><net_src comp="424" pin="1"/><net_sink comp="448" pin=6"/></net>

<net id="464"><net_src comp="448" pin="7"/><net_sink comp="119" pin=2"/></net>

<net id="469"><net_src comp="261" pin="6"/><net_sink comp="465" pin=0"/></net>

<net id="470"><net_src comp="4" pin="0"/><net_sink comp="465" pin=1"/></net>

<net id="475"><net_src comp="246" pin="6"/><net_sink comp="471" pin=0"/></net>

<net id="476"><net_src comp="2" pin="0"/><net_sink comp="471" pin=1"/></net>

<net id="480"><net_src comp="272" pin="1"/><net_sink comp="477" pin=0"/></net>

<net id="484"><net_src comp="280" pin="1"/><net_sink comp="481" pin=0"/></net>

<net id="485"><net_src comp="481" pin="1"/><net_sink comp="207" pin=2"/></net>

<net id="489"><net_src comp="98" pin="3"/><net_sink comp="486" pin=0"/></net>

<net id="493"><net_src comp="284" pin="1"/><net_sink comp="490" pin=0"/></net>

<net id="494"><net_src comp="490" pin="1"/><net_sink comp="405" pin=5"/></net>

<net id="498"><net_src comp="294" pin="4"/><net_sink comp="495" pin=0"/></net>

<net id="499"><net_src comp="495" pin="1"/><net_sink comp="129" pin=2"/></net>

<net id="500"><net_src comp="495" pin="1"/><net_sink comp="381" pin=0"/></net>

<net id="504"><net_src comp="304" pin="4"/><net_sink comp="501" pin=0"/></net>

<net id="505"><net_src comp="501" pin="1"/><net_sink comp="138" pin=2"/></net>

<net id="506"><net_src comp="501" pin="1"/><net_sink comp="148" pin=2"/></net>

<net id="507"><net_src comp="501" pin="1"/><net_sink comp="384" pin=1"/></net>

<net id="511"><net_src comp="314" pin="4"/><net_sink comp="508" pin=0"/></net>

<net id="512"><net_src comp="508" pin="1"/><net_sink comp="376" pin=0"/></net>

<net id="513"><net_src comp="508" pin="1"/><net_sink comp="405" pin=2"/></net>

<net id="520"><net_src comp="330" pin="2"/><net_sink comp="517" pin=0"/></net>

<net id="521"><net_src comp="517" pin="1"/><net_sink comp="129" pin=0"/></net>

<net id="525"><net_src comp="336" pin="2"/><net_sink comp="522" pin=0"/></net>

<net id="526"><net_src comp="522" pin="1"/><net_sink comp="138" pin=0"/></net>

<net id="530"><net_src comp="348" pin="1"/><net_sink comp="527" pin=0"/></net>

<net id="531"><net_src comp="527" pin="1"/><net_sink comp="384" pin=3"/></net>

<net id="538"><net_src comp="364" pin="2"/><net_sink comp="535" pin=0"/></net>

<net id="539"><net_src comp="535" pin="1"/><net_sink comp="185" pin=0"/></net>

<net id="543"><net_src comp="370" pin="2"/><net_sink comp="540" pin=0"/></net>

<net id="544"><net_src comp="540" pin="1"/><net_sink comp="196" pin=0"/></net>

</net_list>

</model> 
---------------- Datapath Model END ------------------

* FSMD analyzer results:
  - Output states:
	Port: hrr_fsmState | {1 }
	Port: request_vaddr_V | {2 }
	Port: request_dma_length_V | {2 }
	Port: rx_readRequestFifo_V | {}
	Port: request_qpn_V | {1 }
	Port: request_psn_V | {2 }
	Port: rx_remoteMemCmd_V | {2 }
	Port: rx_readEvenFifo_V | {2 }
 - Input state : 
	Port: handle_read_requests : hrr_fsmState | {1 }
	Port: handle_read_requests : request_vaddr_V | {1 }
	Port: handle_read_requests : request_dma_length_V | {1 }
	Port: handle_read_requests : rx_readRequestFifo_V | {1 }
	Port: handle_read_requests : request_qpn_V | {2 }
	Port: handle_read_requests : request_psn_V | {2 }
	Port: handle_read_requests : rx_remoteMemCmd_V | {}
	Port: handle_read_requests : rx_readEvenFifo_V | {}
  - Chain level:
	State 1
		br_ln853 : 1
		store_ln127 : 1
		icmp_ln895_3 : 1
		br_ln863 : 2
		add_ln700_11 : 1
		add_ln701_6 : 1
		icmp_ln895 : 1
		br_ln883 : 2
		add_ln700 : 1
		add_ln701 : 1
	State 2
		tmp_54_i : 1
		tmp_1 : 2
		write_ln872 : 3
		tmp_2 : 1
		write_ln877 : 2
		sext_ln738 : 1
		zext_ln738 : 2
		tmp_psn_V : 1
		store_ln896 : 2
		tmp_3 : 3
		write_ln897 : 4
		request_vaddr_V_flag_1 : 1
		request_vaddr_V_new_2 : 1
		request_dma_length_V_3 : 1
		br_ln0 : 2
		store_ln127 : 2
		store_ln127 : 2


============================================================
+ Verbose Summary: Datapath Resource usage 
============================================================

* Functional unit list:
|----------|--------------------------|---------|---------|
| Operation|      Functional Unit     |    FF   |   LUT   |
|----------|--------------------------|---------|---------|
|          |    add_ln700_11_fu_330   |    0    |    55   |
|          |    add_ln701_6_fu_336    |    0    |    39   |
|    add   |     add_ln700_fu_364     |    0    |    55   |
|          |     add_ln701_fu_370     |    0    |    39   |
|          |     tmp_psn_V_fu_432     |    0    |    31   |
|----------|--------------------------|---------|---------|
|   icmp   |    icmp_ln895_3_fu_324   |    0    |    18   |
|          |     icmp_ln895_fu_352    |    0    |    18   |
|----------|--------------------------|---------|---------|
| nbreadreq|    tmp_nbreadreq_fu_98   |    0    |    0    |
|----------|--------------------------|---------|---------|
|   read   |     tmp80_read_fu_106    |    0    |    0    |
|----------|--------------------------|---------|---------|
|   write  | write_ln872_write_fu_112 |    0    |    0    |
|          |     grp_write_fu_119     |    0    |    0    |
|----------|--------------------------|---------|---------|
|   trunc  |    tmp_qpn_V_19_fu_284   |    0    |    0    |
|          |    tmp_qpn_V_18_fu_348   |    0    |    0    |
|----------|--------------------------|---------|---------|
|          |     readAddr_V_fu_294    |    0    |    0    |
|partselect|   readLength_V_2_fu_304  |    0    |    0    |
|          |    tmp_psn_V_6_fu_314    |    0    |    0    |
|----------|--------------------------|---------|---------|
|   zext   |     tmp_addr_V_fu_381    |    0    |    0    |
|          |     zext_ln738_fu_424    |    0    |    0    |
|----------|--------------------------|---------|---------|
|          |      tmp_54_i_fu_384     |    0    |    0    |
|bitconcatenate|       tmp_2_fu_405       |    0    |    0    |
|          |       tmp_3_fu_448       |    0    |    0    |
|----------|--------------------------|---------|---------|
|  partset |       tmp_1_fu_392       |    0    |    0    |
|----------|--------------------------|---------|---------|
|   sext   |     sext_ln738_fu_420    |    0    |    0    |
|----------|--------------------------|---------|---------|
|   Total  |                          |    0    |   255   |
|----------|--------------------------|---------|---------|

Memories:
N/A

* Register list:
+------------------------------+--------+
|                              |   FF   |
+------------------------------+--------+
|     add_ln700_11_reg_517     |   48   |
|       add_ln700_reg_535      |   48   |
|      add_ln701_6_reg_522     |   32   |
|       add_ln701_reg_540      |   32   |
|   hrr_fsmState_load_reg_477  |    1   |
|      readAddr_V_reg_495      |   48   |
|    readLength_V_2_reg_501    |   32   |
|     readLength_V_reg_481     |   32   |
|request_dma_length_V_1_reg_135|   32   |
|request_dma_length_V_2_reg_192|   32   |
|request_dma_length_V_3_reg_257|   32   |
|request_vaddr_V_flag_1_reg_227|    1   |
| request_vaddr_V_flag_reg_168 |    1   |
| request_vaddr_V_new_1_reg_181|   48   |
| request_vaddr_V_new_2_reg_242|   48   |
| request_vaddr_V_new_s_reg_126|   48   |
|    tmp_length_V_5_reg_144    |   32   |
|     tmp_length_V_reg_203     |   32   |
|     tmp_op_code_4_reg_155    |    5   |
|      tmp_op_code_reg_214     |    2   |
|      tmp_psn_V_6_reg_508     |   24   |
|     tmp_qpn_V_18_reg_527     |   16   |
|     tmp_qpn_V_19_reg_490     |   24   |
|          tmp_reg_486         |    1   |
+------------------------------+--------+
|             Total            |   651  |
+------------------------------+--------+

* Multiplexer (MUX) list: 
|------------------------------|------|------|------|--------||---------||---------|
|             Comp             |  Pin | Size |  BW  | S x BW ||  Delay  ||   LUT   |
|------------------------------|------|------|------|--------||---------||---------|
|       grp_write_fu_119       |  p2  |   2  |  135 |   270  ||    9    |
|     tmp_op_code_4_reg_155    |  p0  |   2  |   5  |   10   |
| request_vaddr_V_flag_reg_168 |  p0  |   2  |   1  |    2   |
|      tmp_op_code_reg_214     |  p0  |   2  |   2  |    4   |
|------------------------------|------|------|------|--------||---------||---------|
|             Total            |      |      |      |   286  ||   3.4   ||    9    |
|------------------------------|------|------|------|--------||---------||---------|



* Summary:
+-----------+--------+--------+--------+
|           |  Delay |   FF   |   LUT  |
+-----------+--------+--------+--------+
|  Function |    -   |    0   |   255  |
|   Memory  |    -   |    -   |    -   |
|Multiplexer|    3   |    -   |    9   |
|  Register |    -   |   651  |    -   |
+-----------+--------+--------+--------+
|   Total   |    3   |   651  |   264  |
+-----------+--------+--------+--------+
