

================================================================
== Vivado HLS Report for 'handle_read_requests'
================================================================
* Date:           Sat Dec 12 19:41:05 2020

* Version:        2019.2.1 (Build 2724168 on Thu Dec 05 05:19:09 MST 2019)
* Project:        rocev2_prj
* Solution:       solution1
* Product family: virtex7
* Target device:  xc7vx690t-ffg1761-2


================================================================
== Performance Estimates
================================================================
+ Timing: 
    * Summary: 
    +--------+---------+----------+------------+
    |  Clock |  Target | Estimated| Uncertainty|
    +--------+---------+----------+------------+
    |ap_clk  | 6.40 ns | 4.621 ns |   0.80 ns  |
    +--------+---------+----------+------------+

+ Latency: 
    * Summary: 
    +---------+---------+----------+----------+-----+-----+----------+
    |  Latency (cycles) |  Latency (absolute) |  Interval | Pipeline |
    |   min   |   max   |    min   |    max   | min | max |   Type   |
    +---------+---------+----------+----------+-----+-----+----------+
    |        1|        1| 6.400 ns | 6.400 ns |    1|    1| function |
    +---------+---------+----------+----------+-----+-----+----------+

    + Detail: 
        * Instance: 
        N/A

        * Loop: 
        N/A

============================================================
+ Verbose Summary: Synthesis Manager
============================================================
InlineROM: 1
ExposeGlobal: 0
============================================================
+ Verbose Summary: CDFG Model
============================================================
IsTopModel: 0
ResetActiveHigh: 1
IsCombinational: 2
IsDatapathOnly: 0
HasWiredReturn: 1
HasMFsm: 2
HasVarLatency: 0
IsPipeline: 1
IsRtlPipelined: 1
IsInstanceOverlapped: 0
IsDontTouch: 0
HasImplIP: 0
IsGatedGlobalClock: 0

+ Individual pipeline summary: 
  * Pipeline-0: initiation interval (II) = 1, depth = 2


============================================================
+ Verbose Summary: Schedule
============================================================
* Number of FSM states : 2
* Pipeline : 1
  Pipeline-0 : II = 1, D = 2, States = { 1 2 }
* Dataflow Pipeline: 0

* FSM state transitions: 
1 --> 2 
2 --> 

* FSM state operations: 

State 1 <SV = 0> <Delay = 4.62>
ST_1 : Operation 3 [1/1] (0.00ns)   --->   "%hrr_fsmState_load = load i1* @hrr_fsmState, align 1" [/home/paulrr2/Projects/ece527/babelsoc/fpga-network-stack/hls/rocev2/../ib_transport_protocol/ib_transport_protocol.cpp:853]   --->   Operation 3 'load' 'hrr_fsmState_load' <Predicate = true> <Delay = 0.00>
ST_1 : Operation 4 [1/1] (0.00ns)   --->   "%request_vaddr_V_load = load i48* @request_vaddr_V, align 8" [/home/paulrr2/Projects/ece527/babelsoc/fpga-network-stack/hls/rocev2/../ib_transport_protocol/ib_transport_protocol.cpp:881]   --->   Operation 4 'load' 'request_vaddr_V_load' <Predicate = true> <Delay = 0.00>
ST_1 : Operation 5 [1/1] (0.00ns)   --->   "%readLength_V = load i32* @request_dma_length_V, align 4" [/home/paulrr2/Projects/ece527/babelsoc/fpga-network-stack/hls/rocev2/../ib_transport_protocol/ib_transport_protocol.cpp:882]   --->   Operation 5 'load' 'readLength_V' <Predicate = true> <Delay = 0.00>
ST_1 : Operation 6 [1/1] (0.00ns)   --->   "br i1 %hrr_fsmState_load, label %3, label %0" [/home/paulrr2/Projects/ece527/babelsoc/fpga-network-stack/hls/rocev2/../ib_transport_protocol/ib_transport_protocol.cpp:853]   --->   Operation 6 'br' <Predicate = true> <Delay = 0.00>
ST_1 : Operation 7 [1/1] (0.00ns)   --->   "%tmp = call i1 @_ssdm_op_NbReadReq.ap_fifo.i129P(i129* @rx_readRequestFifo_V, i32 1) nounwind" [/home/paulrr2/Projects/ece527/babelsoc/fpga-network-stack/hls/rocev2/../ib_transport_protocol/ib_transport_protocol.cpp:856]   --->   Operation 7 'nbreadreq' 'tmp' <Predicate = (!hrr_fsmState_load)> <Delay = 0.00> <Core = "FIFO">   --->   Core 32 'FIFO' <Latency = 0> <II = 1> <Delay = 2.39> <Storage> <Opcode : 'read' 'write' 'nbread' 'nbwrite'> <Ports = 0> <Width = 135> <Depth = 2> <FIFO>
ST_1 : Operation 8 [1/1] (0.92ns)   --->   "br i1 %tmp, label %1, label %._crit_edge2.i" [/home/paulrr2/Projects/ece527/babelsoc/fpga-network-stack/hls/rocev2/../ib_transport_protocol/ib_transport_protocol.cpp:856]   --->   Operation 8 'br' <Predicate = (!hrr_fsmState_load)> <Delay = 0.92>
ST_1 : Operation 9 [1/1] (2.39ns)   --->   "%tmp80 = call i129 @_ssdm_op_Read.ap_fifo.volatile.i129P(i129* @rx_readRequestFifo_V) nounwind" [/home/paulrr2/Projects/ece527/babelsoc/fpga-network-stack/hls/rocev2/../ib_transport_protocol/ib_transport_protocol.cpp:858]   --->   Operation 9 'read' 'tmp80' <Predicate = (!hrr_fsmState_load & tmp)> <Delay = 2.39> <Core = "FIFO">   --->   Core 32 'FIFO' <Latency = 0> <II = 1> <Delay = 2.39> <Storage> <Opcode : 'read' 'write' 'nbread' 'nbwrite'> <Ports = 0> <Width = 135> <Depth = 2> <FIFO>
ST_1 : Operation 10 [1/1] (0.00ns)   --->   "%tmp_qpn_V_19 = trunc i129 %tmp80 to i24" [/home/paulrr2/Projects/ece527/babelsoc/fpga-network-stack/hls/rocev2/../ib_transport_protocol/ib_transport_protocol.hpp:127->/home/paulrr2/Projects/ece527/babelsoc/fpga-network-stack/hls/rocev2/../ib_transport_protocol/ib_transport_protocol.cpp:858]   --->   Operation 10 'trunc' 'tmp_qpn_V_19' <Predicate = (!hrr_fsmState_load & tmp)> <Delay = 0.00>
ST_1 : Operation 11 [1/1] (0.00ns)   --->   "store i24 %tmp_qpn_V_19, i24* @request_qpn_V, align 8" [/home/paulrr2/Projects/ece527/babelsoc/fpga-network-stack/hls/rocev2/../ib_transport_protocol/ib_transport_protocol.hpp:127->/home/paulrr2/Projects/ece527/babelsoc/fpga-network-stack/hls/rocev2/../ib_transport_protocol/ib_transport_protocol.cpp:858]   --->   Operation 11 'store' <Predicate = (!hrr_fsmState_load & tmp)> <Delay = 0.00>
ST_1 : Operation 12 [1/1] (0.00ns)   --->   "%readAddr_V = call i48 @_ssdm_op_PartSelect.i48.i129.i32.i32(i129 %tmp80, i32 24, i32 71) nounwind" [/home/paulrr2/Projects/ece527/babelsoc/fpga-network-stack/hls/rocev2/../ib_transport_protocol/ib_transport_protocol.hpp:127->/home/paulrr2/Projects/ece527/babelsoc/fpga-network-stack/hls/rocev2/../ib_transport_protocol/ib_transport_protocol.cpp:858]   --->   Operation 12 'partselect' 'readAddr_V' <Predicate = (!hrr_fsmState_load & tmp)> <Delay = 0.00>
ST_1 : Operation 13 [1/1] (0.00ns)   --->   "%readLength_V_2 = call i32 @_ssdm_op_PartSelect.i32.i129.i32.i32(i129 %tmp80, i32 72, i32 103) nounwind" [/home/paulrr2/Projects/ece527/babelsoc/fpga-network-stack/hls/rocev2/../ib_transport_protocol/ib_transport_protocol.hpp:127->/home/paulrr2/Projects/ece527/babelsoc/fpga-network-stack/hls/rocev2/../ib_transport_protocol/ib_transport_protocol.cpp:858]   --->   Operation 13 'partselect' 'readLength_V_2' <Predicate = (!hrr_fsmState_load & tmp)> <Delay = 0.00>
ST_1 : Operation 14 [1/1] (0.00ns)   --->   "%tmp_psn_V_6 = call i24 @_ssdm_op_PartSelect.i24.i129.i32.i32(i129 %tmp80, i32 104, i32 127) nounwind" [/home/paulrr2/Projects/ece527/babelsoc/fpga-network-stack/hls/rocev2/../ib_transport_protocol/ib_transport_protocol.hpp:127->/home/paulrr2/Projects/ece527/babelsoc/fpga-network-stack/hls/rocev2/../ib_transport_protocol/ib_transport_protocol.cpp:858]   --->   Operation 14 'partselect' 'tmp_psn_V_6' <Predicate = (!hrr_fsmState_load & tmp)> <Delay = 0.00>
ST_1 : Operation 15 [1/1] (1.26ns)   --->   "%icmp_ln895_3 = icmp ugt i32 %readLength_V_2, 1408" [/home/paulrr2/Projects/ece527/babelsoc/fpga-network-stack/hls/rocev2/../ib_transport_protocol/ib_transport_protocol.cpp:863]   --->   Operation 15 'icmp' 'icmp_ln895_3' <Predicate = (!hrr_fsmState_load & tmp)> <Delay = 1.26> <Core = "Cmp">   --->   Core 25 'Cmp' <Latency = 0> <II = 1> <Delay = 1.26> <FuncUnit> <Opcode : 'icmp'> <InPorts = 2> <OutPorts = 1>
ST_1 : Operation 16 [1/1] (0.85ns)   --->   "br i1 %icmp_ln895_3, label %2, label %._crit_edge4.i" [/home/paulrr2/Projects/ece527/babelsoc/fpga-network-stack/hls/rocev2/../ib_transport_protocol/ib_transport_protocol.cpp:863]   --->   Operation 16 'br' <Predicate = (!hrr_fsmState_load & tmp)> <Delay = 0.85>
ST_1 : Operation 17 [1/1] (1.59ns)   --->   "%add_ln700_11 = add i48 %readAddr_V, 1408" [/home/paulrr2/Projects/ece527/babelsoc/fpga-network-stack/hls/rocev2/../ib_transport_protocol/ib_transport_protocol.cpp:866]   --->   Operation 17 'add' 'add_ln700_11' <Predicate = (!hrr_fsmState_load & tmp & icmp_ln895_3)> <Delay = 1.59> <Core = "AddSub">   --->   Core 14 'AddSub' <Latency = 0> <II = 1> <Delay = 1.41> <FuncUnit> <Opcode : 'add' 'sub'> <InPorts = 2> <OutPorts = 1>
ST_1 : Operation 18 [1/1] (1.51ns)   --->   "%add_ln701_6 = add i32 %readLength_V_2, -1408" [/home/paulrr2/Projects/ece527/babelsoc/fpga-network-stack/hls/rocev2/../ib_transport_protocol/ib_transport_protocol.cpp:867]   --->   Operation 18 'add' 'add_ln701_6' <Predicate = (!hrr_fsmState_load & tmp & icmp_ln895_3)> <Delay = 1.51> <Core = "AddSub">   --->   Core 14 'AddSub' <Latency = 0> <II = 1> <Delay = 1.41> <FuncUnit> <Opcode : 'add' 'sub'> <InPorts = 2> <OutPorts = 1>
ST_1 : Operation 19 [1/1] (0.85ns)   --->   "store i1 true, i1* @hrr_fsmState, align 1" [/home/paulrr2/Projects/ece527/babelsoc/fpga-network-stack/hls/rocev2/../ib_transport_protocol/ib_transport_protocol.cpp:869]   --->   Operation 19 'store' <Predicate = (!hrr_fsmState_load & tmp & icmp_ln895_3)> <Delay = 0.85>
ST_1 : Operation 20 [1/1] (0.85ns)   --->   "br label %._crit_edge4.i" [/home/paulrr2/Projects/ece527/babelsoc/fpga-network-stack/hls/rocev2/../ib_transport_protocol/ib_transport_protocol.cpp:870]   --->   Operation 20 'br' <Predicate = (!hrr_fsmState_load & tmp & icmp_ln895_3)> <Delay = 0.85>
ST_1 : Operation 21 [1/1] (0.00ns)   --->   "%tmp_qpn_V_18 = trunc i129 %tmp80 to i16" [/home/paulrr2/Projects/ece527/babelsoc/fpga-network-stack/hls/rocev2/../ib_transport_protocol/ib_transport_protocol.cpp:872]   --->   Operation 21 'trunc' 'tmp_qpn_V_18' <Predicate = (!hrr_fsmState_load & tmp)> <Delay = 0.00>
ST_1 : Operation 22 [1/1] (1.26ns)   --->   "%icmp_ln895 = icmp ugt i32 %readLength_V, 1408" [/home/paulrr2/Projects/ece527/babelsoc/fpga-network-stack/hls/rocev2/../ib_transport_protocol/ib_transport_protocol.cpp:883]   --->   Operation 22 'icmp' 'icmp_ln895' <Predicate = (hrr_fsmState_load)> <Delay = 1.26> <Core = "Cmp">   --->   Core 25 'Cmp' <Latency = 0> <II = 1> <Delay = 1.26> <FuncUnit> <Opcode : 'icmp'> <InPorts = 2> <OutPorts = 1>
ST_1 : Operation 23 [1/1] (0.00ns)   --->   "br i1 %icmp_ln895, label %4, label %5" [/home/paulrr2/Projects/ece527/babelsoc/fpga-network-stack/hls/rocev2/../ib_transport_protocol/ib_transport_protocol.cpp:883]   --->   Operation 23 'br' <Predicate = (hrr_fsmState_load)> <Delay = 0.00>
ST_1 : Operation 24 [1/1] (0.85ns)   --->   "store i1 false, i1* @hrr_fsmState, align 1" [/home/paulrr2/Projects/ece527/babelsoc/fpga-network-stack/hls/rocev2/../ib_transport_protocol/ib_transport_protocol.cpp:893]   --->   Operation 24 'store' <Predicate = (hrr_fsmState_load & !icmp_ln895)> <Delay = 0.85>
ST_1 : Operation 25 [1/1] (0.85ns)   --->   "br label %6"   --->   Operation 25 'br' <Predicate = (hrr_fsmState_load & !icmp_ln895)> <Delay = 0.85>
ST_1 : Operation 26 [1/1] (1.59ns)   --->   "%add_ln700 = add i48 %request_vaddr_V_load, 1408" [/home/paulrr2/Projects/ece527/babelsoc/fpga-network-stack/hls/rocev2/../ib_transport_protocol/ib_transport_protocol.cpp:886]   --->   Operation 26 'add' 'add_ln700' <Predicate = (hrr_fsmState_load & icmp_ln895)> <Delay = 1.59> <Core = "AddSub">   --->   Core 14 'AddSub' <Latency = 0> <II = 1> <Delay = 1.41> <FuncUnit> <Opcode : 'add' 'sub'> <InPorts = 2> <OutPorts = 1>
ST_1 : Operation 27 [1/1] (1.51ns)   --->   "%add_ln701 = add i32 %readLength_V, -1408" [/home/paulrr2/Projects/ece527/babelsoc/fpga-network-stack/hls/rocev2/../ib_transport_protocol/ib_transport_protocol.cpp:887]   --->   Operation 27 'add' 'add_ln701' <Predicate = (hrr_fsmState_load & icmp_ln895)> <Delay = 1.51> <Core = "AddSub">   --->   Core 14 'AddSub' <Latency = 0> <II = 1> <Delay = 1.41> <FuncUnit> <Opcode : 'add' 'sub'> <InPorts = 2> <OutPorts = 1>
ST_1 : Operation 28 [1/1] (0.85ns)   --->   "br label %6" [/home/paulrr2/Projects/ece527/babelsoc/fpga-network-stack/hls/rocev2/../ib_transport_protocol/ib_transport_protocol.cpp:889]   --->   Operation 28 'br' <Predicate = (hrr_fsmState_load & icmp_ln895)> <Delay = 0.85>

State 2 <SV = 1> <Delay = 3.80>
ST_2 : Operation 29 [1/1] (0.00ns)   --->   "call void (...)* @_ssdm_op_SpecInterface(i135* @rx_readEvenFifo_V, [8 x i8]* @ap_fifo_str, i32 0, i32 0, [1 x i8]* @p_str, i32 0, i32 0, [1 x i8]* @p_str, [1 x i8]* @p_str, [1 x i8]* @p_str, i32 2, i32 2, i32 16, i32 16, [1 x i8]* @p_str, [1 x i8]* @p_str)"   --->   Operation 29 'specinterface' <Predicate = true> <Delay = 0.00>
ST_2 : Operation 30 [1/1] (0.00ns)   --->   "call void (...)* @_ssdm_op_SpecInterface(i129* @rx_readRequestFifo_V, [8 x i8]* @ap_fifo_str, i32 0, i32 0, [1 x i8]* @p_str, i32 0, i32 0, [1 x i8]* @p_str, [1 x i8]* @p_str, [1 x i8]* @p_str, i32 2, i32 2, i32 16, i32 16, [1 x i8]* @p_str, [1 x i8]* @p_str)"   --->   Operation 30 'specinterface' <Predicate = true> <Delay = 0.00>
ST_2 : Operation 31 [1/1] (0.00ns)   --->   "call void (...)* @_ssdm_op_SpecInterface(i113* @rx_remoteMemCmd_V, [8 x i8]* @ap_fifo_str, i32 0, i32 0, [1 x i8]* @p_str, i32 0, i32 0, [1 x i8]* @p_str, [1 x i8]* @p_str, [1 x i8]* @p_str, i32 2, i32 2, i32 16, i32 16, [1 x i8]* @p_str, [1 x i8]* @p_str)"   --->   Operation 31 'specinterface' <Predicate = true> <Delay = 0.00>
ST_2 : Operation 32 [1/1] (0.00ns)   --->   "call void (...)* @_ssdm_op_SpecPipeline(i32 1, i32 1, i32 1, i32 0, [1 x i8]* @p_str91) nounwind" [/home/paulrr2/Projects/ece527/babelsoc/fpga-network-stack/hls/rocev2/../ib_transport_protocol/ib_transport_protocol.cpp:842]   --->   Operation 32 'specpipeline' <Predicate = true> <Delay = 0.00>
ST_2 : Operation 33 [1/1] (0.85ns)   --->   "store i24 %tmp_psn_V_6, i24* @request_psn_V, align 4" [/home/paulrr2/Projects/ece527/babelsoc/fpga-network-stack/hls/rocev2/../ib_transport_protocol/ib_transport_protocol.hpp:127->/home/paulrr2/Projects/ece527/babelsoc/fpga-network-stack/hls/rocev2/../ib_transport_protocol/ib_transport_protocol.cpp:858]   --->   Operation 33 'store' <Predicate = (!hrr_fsmState_load & tmp)> <Delay = 0.85>
ST_2 : Operation 34 [1/1] (0.00ns)   --->   "%request_vaddr_V_new_s = phi i48 [ %add_ln700_11, %2 ], [ %readAddr_V, %1 ]"   --->   Operation 34 'phi' 'request_vaddr_V_new_s' <Predicate = (!hrr_fsmState_load & tmp)> <Delay = 0.00>
ST_2 : Operation 35 [1/1] (0.00ns)   --->   "%request_dma_length_V_1 = phi i32 [ %add_ln701_6, %2 ], [ %readLength_V_2, %1 ]"   --->   Operation 35 'phi' 'request_dma_length_V_1' <Predicate = (!hrr_fsmState_load & tmp)> <Delay = 0.00>
ST_2 : Operation 36 [1/1] (0.00ns)   --->   "%tmp_length_V_5 = phi i32 [ 1408, %2 ], [ %readLength_V_2, %1 ]"   --->   Operation 36 'phi' 'tmp_length_V_5' <Predicate = (!hrr_fsmState_load & tmp)> <Delay = 0.00>
ST_2 : Operation 37 [1/1] (0.00ns)   --->   "%tmp_op_code_4 = phi i5 [ 13, %2 ], [ -16, %1 ]"   --->   Operation 37 'phi' 'tmp_op_code_4' <Predicate = (!hrr_fsmState_load & tmp)> <Delay = 0.00>
ST_2 : Operation 38 [1/1] (0.00ns)   --->   "%tmp_addr_V = zext i48 %readAddr_V to i64" [/home/paulrr2/Projects/ece527/babelsoc/fpga-network-stack/hls/rocev2/../ib_transport_protocol/ib_transport_protocol.cpp:872]   --->   Operation 38 'zext' 'tmp_addr_V' <Predicate = (!hrr_fsmState_load & tmp)> <Delay = 0.00>
ST_2 : Operation 39 [1/1] (0.00ns)   --->   "%tmp_54_i = call i112 @_ssdm_op_BitConcatenate.i112.i32.i64.i16(i32 %readLength_V_2, i64 %tmp_addr_V, i16 %tmp_qpn_V_18) nounwind" [/home/paulrr2/Projects/ece527/babelsoc/fpga-network-stack/hls/rocev2/../ib_transport_protocol/ib_transport_protocol.cpp:872]   --->   Operation 39 'bitconcatenate' 'tmp_54_i' <Predicate = (!hrr_fsmState_load & tmp)> <Delay = 0.00>
ST_2 : Operation 40 [1/1] (0.00ns)   --->   "%tmp_1 = call i113 @_ssdm_op_PartSet.i113.i113.i112.i32.i32(i113 undef, i112 %tmp_54_i, i32 0, i32 111) nounwind" [/home/paulrr2/Projects/ece527/babelsoc/fpga-network-stack/hls/rocev2/../ib_transport_protocol/ib_transport_protocol.cpp:872]   --->   Operation 40 'partset' 'tmp_1' <Predicate = (!hrr_fsmState_load & tmp)> <Delay = 0.00>
ST_2 : Operation 41 [1/1] (2.39ns)   --->   "call void @_ssdm_op_Write.ap_fifo.volatile.i113P(i113* @rx_remoteMemCmd_V, i113 %tmp_1) nounwind" [/home/paulrr2/Projects/ece527/babelsoc/fpga-network-stack/hls/rocev2/../ib_transport_protocol/ib_transport_protocol.cpp:872]   --->   Operation 41 'write' <Predicate = (!hrr_fsmState_load & tmp)> <Delay = 2.39> <Core = "FIFO">   --->   Core 32 'FIFO' <Latency = 0> <II = 1> <Delay = 2.39> <Storage> <Opcode : 'read' 'write' 'nbread' 'nbwrite'> <Ports = 0> <Width = 135> <Depth = 2> <FIFO>
ST_2 : Operation 42 [1/1] (0.00ns)   --->   "%tmp_2 = call i135 @_ssdm_op_BitConcatenate.i135.i2.i24.i32.i48.i24.i5(i2 1, i24 %tmp_psn_V_6, i32 %tmp_length_V_5, i48 0, i24 %tmp_qpn_V_19, i5 %tmp_op_code_4) nounwind" [/home/paulrr2/Projects/ece527/babelsoc/fpga-network-stack/hls/rocev2/../ib_transport_protocol/ib_transport_protocol.cpp:877]   --->   Operation 42 'bitconcatenate' 'tmp_2' <Predicate = (!hrr_fsmState_load & tmp)> <Delay = 0.00>
ST_2 : Operation 43 [1/1] (2.39ns)   --->   "call void @_ssdm_op_Write.ap_fifo.volatile.i135P(i135* @rx_readEvenFifo_V, i135 %tmp_2) nounwind" [/home/paulrr2/Projects/ece527/babelsoc/fpga-network-stack/hls/rocev2/../ib_transport_protocol/ib_transport_protocol.cpp:877]   --->   Operation 43 'write' <Predicate = (!hrr_fsmState_load & tmp)> <Delay = 2.39> <Core = "FIFO">   --->   Core 32 'FIFO' <Latency = 0> <II = 1> <Delay = 2.39> <Storage> <Opcode : 'read' 'write' 'nbread' 'nbwrite'> <Ports = 0> <Width = 135> <Depth = 2> <FIFO>
ST_2 : Operation 44 [1/1] (0.92ns)   --->   "br label %._crit_edge2.i" [/home/paulrr2/Projects/ece527/babelsoc/fpga-network-stack/hls/rocev2/../ib_transport_protocol/ib_transport_protocol.cpp:878]   --->   Operation 44 'br' <Predicate = (!hrr_fsmState_load & tmp)> <Delay = 0.92>
ST_2 : Operation 45 [1/1] (0.00ns)   --->   "%request_vaddr_V_flag = phi i1 [ true, %4 ], [ false, %5 ]"   --->   Operation 45 'phi' 'request_vaddr_V_flag' <Predicate = (hrr_fsmState_load)> <Delay = 0.00>
ST_2 : Operation 46 [1/1] (0.00ns)   --->   "%request_vaddr_V_new_1 = phi i48 [ %add_ln700, %4 ], [ undef, %5 ]" [/home/paulrr2/Projects/ece527/babelsoc/fpga-network-stack/hls/rocev2/../ib_transport_protocol/ib_transport_protocol.cpp:886]   --->   Operation 46 'phi' 'request_vaddr_V_new_1' <Predicate = (hrr_fsmState_load)> <Delay = 0.00>
ST_2 : Operation 47 [1/1] (0.00ns)   --->   "%request_dma_length_V_2 = phi i32 [ %add_ln701, %4 ], [ undef, %5 ]" [/home/paulrr2/Projects/ece527/babelsoc/fpga-network-stack/hls/rocev2/../ib_transport_protocol/ib_transport_protocol.cpp:887]   --->   Operation 47 'phi' 'request_dma_length_V_2' <Predicate = (hrr_fsmState_load)> <Delay = 0.00>
ST_2 : Operation 48 [1/1] (0.00ns)   --->   "%tmp_length_V = phi i32 [ 1408, %4 ], [ %readLength_V, %5 ]"   --->   Operation 48 'phi' 'tmp_length_V' <Predicate = (hrr_fsmState_load)> <Delay = 0.00>
ST_2 : Operation 49 [1/1] (0.00ns)   --->   "%tmp_op_code = phi i2 [ -2, %4 ], [ -1, %5 ]"   --->   Operation 49 'phi' 'tmp_op_code' <Predicate = (hrr_fsmState_load)> <Delay = 0.00>
ST_2 : Operation 50 [1/1] (0.00ns)   --->   "%sext_ln738 = sext i2 %tmp_op_code to i4" [/home/paulrr2/Projects/ece527/babelsoc/fpga-network-stack/hls/rocev2/../ib_transport_protocol/ib_transport_protocol.cpp:896]   --->   Operation 50 'sext' 'sext_ln738' <Predicate = (hrr_fsmState_load)> <Delay = 0.00>
ST_2 : Operation 51 [1/1] (0.00ns)   --->   "%zext_ln738 = zext i4 %sext_ln738 to i5" [/home/paulrr2/Projects/ece527/babelsoc/fpga-network-stack/hls/rocev2/../ib_transport_protocol/ib_transport_protocol.cpp:896]   --->   Operation 51 'zext' 'zext_ln738' <Predicate = (hrr_fsmState_load)> <Delay = 0.00>
ST_2 : Operation 52 [1/1] (0.00ns)   --->   "%t_V = load i24* @request_psn_V, align 4" [/home/paulrr2/Projects/ece527/babelsoc/fpga-network-stack/hls/rocev2/../ib_transport_protocol/ib_transport_protocol.cpp:896]   --->   Operation 52 'load' 't_V' <Predicate = (hrr_fsmState_load)> <Delay = 0.00>
ST_2 : Operation 53 [1/1] (1.41ns)   --->   "%tmp_psn_V = add i24 %t_V, 1" [/home/paulrr2/Projects/ece527/babelsoc/fpga-network-stack/hls/rocev2/../ib_transport_protocol/ib_transport_protocol.cpp:896]   --->   Operation 53 'add' 'tmp_psn_V' <Predicate = (hrr_fsmState_load)> <Delay = 1.41> <Core = "AddSub">   --->   Core 14 'AddSub' <Latency = 0> <II = 1> <Delay = 1.41> <FuncUnit> <Opcode : 'add' 'sub'> <InPorts = 2> <OutPorts = 1>
ST_2 : Operation 54 [1/1] (0.85ns)   --->   "store i24 %tmp_psn_V, i24* @request_psn_V, align 4" [/home/paulrr2/Projects/ece527/babelsoc/fpga-network-stack/hls/rocev2/../ib_transport_protocol/ib_transport_protocol.cpp:896]   --->   Operation 54 'store' <Predicate = (hrr_fsmState_load)> <Delay = 0.85>
ST_2 : Operation 55 [1/1] (0.00ns)   --->   "%tmp_qpn_V = load i24* @request_qpn_V, align 8" [/home/paulrr2/Projects/ece527/babelsoc/fpga-network-stack/hls/rocev2/../ib_transport_protocol/ib_transport_protocol.cpp:897]   --->   Operation 55 'load' 'tmp_qpn_V' <Predicate = (hrr_fsmState_load)> <Delay = 0.00>
ST_2 : Operation 56 [1/1] (0.00ns)   --->   "%tmp_3 = call i135 @_ssdm_op_BitConcatenate.i135.i2.i24.i32.i48.i24.i5(i2 1, i24 %tmp_psn_V, i32 %tmp_length_V, i48 0, i24 %tmp_qpn_V, i5 %zext_ln738) nounwind" [/home/paulrr2/Projects/ece527/babelsoc/fpga-network-stack/hls/rocev2/../ib_transport_protocol/ib_transport_protocol.cpp:897]   --->   Operation 56 'bitconcatenate' 'tmp_3' <Predicate = (hrr_fsmState_load)> <Delay = 0.00>
ST_2 : Operation 57 [1/1] (2.39ns)   --->   "call void @_ssdm_op_Write.ap_fifo.volatile.i135P(i135* @rx_readEvenFifo_V, i135 %tmp_3) nounwind" [/home/paulrr2/Projects/ece527/babelsoc/fpga-network-stack/hls/rocev2/../ib_transport_protocol/ib_transport_protocol.cpp:897]   --->   Operation 57 'write' <Predicate = (hrr_fsmState_load)> <Delay = 2.39> <Core = "FIFO">   --->   Core 32 'FIFO' <Latency = 0> <II = 1> <Delay = 2.39> <Storage> <Opcode : 'read' 'write' 'nbread' 'nbwrite'> <Ports = 0> <Width = 135> <Depth = 2> <FIFO>
ST_2 : Operation 58 [1/1] (0.92ns)   --->   "br label %._crit_edge2.i" [/home/paulrr2/Projects/ece527/babelsoc/fpga-network-stack/hls/rocev2/../ib_transport_protocol/ib_transport_protocol.cpp:898]   --->   Operation 58 'br' <Predicate = (hrr_fsmState_load)> <Delay = 0.92>
ST_2 : Operation 59 [1/1] (0.00ns)   --->   "%request_vaddr_V_flag_1 = phi i1 [ %request_vaddr_V_flag, %6 ], [ true, %._crit_edge4.i ], [ false, %0 ]"   --->   Operation 59 'phi' 'request_vaddr_V_flag_1' <Predicate = true> <Delay = 0.00>
ST_2 : Operation 60 [1/1] (0.00ns)   --->   "%request_vaddr_V_new_2 = phi i48 [ %request_vaddr_V_new_1, %6 ], [ %request_vaddr_V_new_s, %._crit_edge4.i ], [ undef, %0 ]" [/home/paulrr2/Projects/ece527/babelsoc/fpga-network-stack/hls/rocev2/../ib_transport_protocol/ib_transport_protocol.cpp:886]   --->   Operation 60 'phi' 'request_vaddr_V_new_2' <Predicate = true> <Delay = 0.00>
ST_2 : Operation 61 [1/1] (0.00ns)   --->   "%request_dma_length_V_3 = phi i32 [ %request_dma_length_V_2, %6 ], [ %request_dma_length_V_1, %._crit_edge4.i ], [ undef, %0 ]" [/home/paulrr2/Projects/ece527/babelsoc/fpga-network-stack/hls/rocev2/../ib_transport_protocol/ib_transport_protocol.cpp:887]   --->   Operation 61 'phi' 'request_dma_length_V_3' <Predicate = true> <Delay = 0.00>
ST_2 : Operation 62 [1/1] (0.00ns)   --->   "br i1 %request_vaddr_V_flag_1, label %mergeST135.i, label %handle_read_requests.exit"   --->   Operation 62 'br' <Predicate = true> <Delay = 0.00>
ST_2 : Operation 63 [1/1] (0.00ns)   --->   "store i32 %request_dma_length_V_3, i32* @request_dma_length_V, align 4" [/home/paulrr2/Projects/ece527/babelsoc/fpga-network-stack/hls/rocev2/../ib_transport_protocol/ib_transport_protocol.hpp:127->/home/paulrr2/Projects/ece527/babelsoc/fpga-network-stack/hls/rocev2/../ib_transport_protocol/ib_transport_protocol.cpp:858]   --->   Operation 63 'store' <Predicate = (request_vaddr_V_flag_1)> <Delay = 0.00>
ST_2 : Operation 64 [1/1] (0.00ns)   --->   "store i48 %request_vaddr_V_new_2, i48* @request_vaddr_V, align 8" [/home/paulrr2/Projects/ece527/babelsoc/fpga-network-stack/hls/rocev2/../ib_transport_protocol/ib_transport_protocol.hpp:127->/home/paulrr2/Projects/ece527/babelsoc/fpga-network-stack/hls/rocev2/../ib_transport_protocol/ib_transport_protocol.cpp:858]   --->   Operation 64 'store' <Predicate = (request_vaddr_V_flag_1)> <Delay = 0.00>
ST_2 : Operation 65 [1/1] (0.00ns)   --->   "br label %handle_read_requests.exit"   --->   Operation 65 'br' <Predicate = (request_vaddr_V_flag_1)> <Delay = 0.00>
ST_2 : Operation 66 [1/1] (0.00ns)   --->   "ret void"   --->   Operation 66 'ret' <Predicate = true> <Delay = 0.00>


============================================================
+ Verbose Summary: Timing violations
============================================================
Target clock period: 6.4ns, clock uncertainty: 0.8ns.

 <State 1>: 4.62ns
The critical path consists of the following:
	fifo read on port 'rx_readRequestFifo_V' (/home/paulrr2/Projects/ece527/babelsoc/fpga-network-stack/hls/rocev2/../ib_transport_protocol/ib_transport_protocol.cpp:858) [28]  (2.39 ns)
	'icmp' operation ('icmp_ln895_3', /home/paulrr2/Projects/ece527/babelsoc/fpga-network-stack/hls/rocev2/../ib_transport_protocol/ib_transport_protocol.cpp:863) [35]  (1.26 ns)
	multiplexor before 'phi' operation ('readAddr.V') with incoming values : ('readAddr.V', /home/paulrr2/Projects/ece527/babelsoc/fpga-network-stack/hls/rocev2/../ib_transport_protocol/ib_transport_protocol.hpp:127->/home/paulrr2/Projects/ece527/babelsoc/fpga-network-stack/hls/rocev2/../ib_transport_protocol/ib_transport_protocol.cpp:858) ('add_ln700_11', /home/paulrr2/Projects/ece527/babelsoc/fpga-network-stack/hls/rocev2/../ib_transport_protocol/ib_transport_protocol.cpp:866) [43]  (0.85 ns)
	blocking operation 0.12 ns on control path)

 <State 2>: 3.8ns
The critical path consists of the following:
	'load' operation ('t.V', /home/paulrr2/Projects/ece527/babelsoc/fpga-network-stack/hls/rocev2/../ib_transport_protocol/ib_transport_protocol.cpp:896) on static variable 'request_psn_V' [73]  (0 ns)
	'add' operation ('tmp.psn.V', /home/paulrr2/Projects/ece527/babelsoc/fpga-network-stack/hls/rocev2/../ib_transport_protocol/ib_transport_protocol.cpp:896) [74]  (1.41 ns)
	fifo write on port 'rx_readEvenFifo_V' (/home/paulrr2/Projects/ece527/babelsoc/fpga-network-stack/hls/rocev2/../ib_transport_protocol/ib_transport_protocol.cpp:897) [78]  (2.39 ns)


============================================================
+ Verbose Summary: Binding
============================================================
N/A
* FSMD analyzer results:
  - Output states:
 - Input state : 
  - Chain level:
	State 1
	State 2


============================================================
+ Verbose Summary: Datapath Resource usage 
============================================================
N/A
