

================================================================
== Vivado HLS Report for 'ipUdpMetaHandler_64_s'
================================================================
* Date:           Sat Dec 12 19:41:03 2020

* Version:        2019.2.1 (Build 2724168 on Thu Dec 05 05:19:09 MST 2019)
* Project:        rocev2_prj
* Solution:       solution1
* Product family: virtex7
* Target device:  xc7vx690t-ffg1761-2


================================================================
== Performance Estimates
================================================================
+ Timing: 
    * Summary: 
    +--------+---------+----------+------------+
    |  Clock |  Target | Estimated| Uncertainty|
    +--------+---------+----------+------------+
    |ap_clk  | 6.40 ns | 2.391 ns |   0.80 ns  |
    +--------+---------+----------+------------+

+ Latency: 
    * Summary: 
    +---------+---------+----------+----------+-----+-----+----------+
    |  Latency (cycles) |  Latency (absolute) |  Interval | Pipeline |
    |   min   |   max   |    min   |    max   | min | max |   Type   |
    +---------+---------+----------+----------+-----+-----+----------+
    |        1|        1| 6.400 ns | 6.400 ns |    1|    1| function |
    +---------+---------+----------+----------+-----+-----+----------+

    + Detail: 
        * Instance: 
        N/A

        * Loop: 
        N/A

============================================================
+ Verbose Summary: Synthesis Manager
============================================================
InlineROM: 1
ExposeGlobal: 0
============================================================
+ Verbose Summary: CDFG Model
============================================================
IsTopModel: 0
ResetActiveHigh: 1
IsCombinational: 2
IsDatapathOnly: 0
HasWiredReturn: 1
HasMFsm: 2
HasVarLatency: 0
IsPipeline: 1
IsRtlPipelined: 1
IsInstanceOverlapped: 0
IsDontTouch: 0
HasImplIP: 0
IsGatedGlobalClock: 0

+ Individual pipeline summary: 
  * Pipeline-0: initiation interval (II) = 1, depth = 2


============================================================
+ Verbose Summary: Schedule
============================================================
* Number of FSM states : 2
* Pipeline : 1
  Pipeline-0 : II = 1, D = 2, States = { 1 2 }
* Dataflow Pipeline: 0

* FSM state transitions: 
1 --> 2 
2 --> 

* FSM state operations: 

State 1 <SV = 0> <Delay = 2.39>
ST_1 : Operation 3 [1/1] (0.00ns)   --->   "%tmp = call i1 @_ssdm_op_NbReadReq.ap_fifo.i128P.i16P.i16P.i16P(i128* @rx_ipUdpMetaFifo_V_t_1, i16* @rx_ipUdpMetaFifo_V_t, i16* @rx_ipUdpMetaFifo_V_m, i16* @rx_ipUdpMetaFifo_V_l, i32 1) nounwind" [/home/paulrr2/Projects/ece527/babelsoc/fpga-network-stack/hls/rocev2/../ib_transport_protocol/ib_transport_protocol.cpp:1827]   --->   Operation 3 'nbreadreq' 'tmp' <Predicate = true> <Delay = 0.00> <Core = "FIFO">   --->   Core 32 'FIFO' <Latency = 0> <II = 1> <Delay = 2.39> <Storage> <Opcode : 'read' 'write' 'nbread' 'nbwrite'> <Ports = 0> <Width = 241> <Depth = 2> <FIFO>
ST_1 : Operation 4 [1/1] (0.00ns)   --->   "br i1 %tmp, label %0, label %"ipUdpMetaHandler<64>.exit"" [/home/paulrr2/Projects/ece527/babelsoc/fpga-network-stack/hls/rocev2/../ib_transport_protocol/ib_transport_protocol.cpp:1827]   --->   Operation 4 'br' <Predicate = true> <Delay = 0.00>
ST_1 : Operation 5 [1/1] (0.00ns)   --->   "%tmp_83 = call i1 @_ssdm_op_NbReadReq.ap_fifo.i241P(i241* @rx_exh2drop_MetaFifo_1, i32 1) nounwind" [/home/paulrr2/Projects/ece527/babelsoc/fpga-network-stack/hls/rocev2/../ib_transport_protocol/ib_transport_protocol.cpp:1827]   --->   Operation 5 'nbreadreq' 'tmp_83' <Predicate = (tmp)> <Delay = 0.00> <Core = "FIFO">   --->   Core 32 'FIFO' <Latency = 0> <II = 1> <Delay = 2.39> <Storage> <Opcode : 'read' 'write' 'nbread' 'nbwrite'> <Ports = 0> <Width = 241> <Depth = 2> <FIFO>
ST_1 : Operation 6 [1/1] (0.00ns)   --->   "br i1 %tmp_83, label %1, label %"ipUdpMetaHandler<64>.exit"" [/home/paulrr2/Projects/ece527/babelsoc/fpga-network-stack/hls/rocev2/../ib_transport_protocol/ib_transport_protocol.cpp:1827]   --->   Operation 6 'br' <Predicate = (tmp)> <Delay = 0.00>
ST_1 : Operation 7 [1/1] (0.00ns)   --->   "%tmp_84 = call i1 @_ssdm_op_NbReadReq.ap_fifo.i2P(i2* @rx_ibhDropMetaFifo_V, i32 1) nounwind" [/home/paulrr2/Projects/ece527/babelsoc/fpga-network-stack/hls/rocev2/../ib_transport_protocol/ib_transport_protocol.cpp:1827]   --->   Operation 7 'nbreadreq' 'tmp_84' <Predicate = (tmp & tmp_83)> <Delay = 0.00> <Core = "FIFO">   --->   Core 32 'FIFO' <Latency = 0> <II = 1> <Delay = 2.39> <Storage> <Opcode : 'read' 'write' 'nbread' 'nbwrite'> <Ports = 0> <Width = 241> <Depth = 2> <FIFO>
ST_1 : Operation 8 [1/1] (0.00ns)   --->   "br i1 %tmp_84, label %2, label %"ipUdpMetaHandler<64>.exit"" [/home/paulrr2/Projects/ece527/babelsoc/fpga-network-stack/hls/rocev2/../ib_transport_protocol/ib_transport_protocol.cpp:1827]   --->   Operation 8 'br' <Predicate = (tmp & tmp_83)> <Delay = 0.00>
ST_1 : Operation 9 [1/1] (2.39ns)   --->   "%empty = call { i128, i16, i16, i16 } @_ssdm_op_Read.ap_fifo.volatile.i128P.i16P.i16P.i16P(i128* @rx_ipUdpMetaFifo_V_t_1, i16* @rx_ipUdpMetaFifo_V_t, i16* @rx_ipUdpMetaFifo_V_m, i16* @rx_ipUdpMetaFifo_V_l) nounwind" [/home/paulrr2/Projects/ece527/babelsoc/fpga-network-stack/hls/rocev2/../ib_transport_protocol/ib_transport_protocol.cpp:1829]   --->   Operation 9 'read' 'empty' <Predicate = (tmp & tmp_83 & tmp_84)> <Delay = 2.39> <Core = "FIFO">   --->   Core 32 'FIFO' <Latency = 0> <II = 1> <Delay = 2.39> <Storage> <Opcode : 'read' 'write' 'nbread' 'nbwrite'> <Ports = 0> <Width = 241> <Depth = 2> <FIFO>
ST_1 : Operation 10 [1/1] (0.00ns)   --->   "%tmp_length_V = extractvalue { i128, i16, i16, i16 } %empty, 3" [/home/paulrr2/Projects/ece527/babelsoc/fpga-network-stack/hls/rocev2/../ib_transport_protocol/ib_transport_protocol.cpp:1829]   --->   Operation 10 'extractvalue' 'tmp_length_V' <Predicate = (tmp & tmp_83 & tmp_84)> <Delay = 0.00>
ST_1 : Operation 11 [1/1] (2.39ns)   --->   "%tmp53 = call i241 @_ssdm_op_Read.ap_fifo.volatile.i241P(i241* @rx_exh2drop_MetaFifo_1) nounwind" [/home/paulrr2/Projects/ece527/babelsoc/fpga-network-stack/hls/rocev2/../ib_transport_protocol/ib_transport_protocol.cpp:1830]   --->   Operation 11 'read' 'tmp53' <Predicate = (tmp & tmp_83 & tmp_84)> <Delay = 2.39> <Core = "FIFO">   --->   Core 32 'FIFO' <Latency = 0> <II = 1> <Delay = 2.39> <Storage> <Opcode : 'read' 'write' 'nbread' 'nbwrite'> <Ports = 0> <Width = 241> <Depth = 2> <FIFO>
ST_1 : Operation 12 [1/1] (2.39ns)   --->   "%tmp_1 = call i2 @_ssdm_op_Read.ap_fifo.volatile.i2P(i2* @rx_ibhDropMetaFifo_V) nounwind" [/home/paulrr2/Projects/ece527/babelsoc/fpga-network-stack/hls/rocev2/../ib_transport_protocol/ib_transport_protocol.cpp:1831]   --->   Operation 12 'read' 'tmp_1' <Predicate = (tmp & tmp_83 & tmp_84)> <Delay = 2.39> <Core = "FIFO">   --->   Core 32 'FIFO' <Latency = 0> <II = 1> <Delay = 2.39> <Storage> <Opcode : 'read' 'write' 'nbread' 'nbwrite'> <Ports = 0> <Width = 241> <Depth = 2> <FIFO>
ST_1 : Operation 13 [1/1] (0.00ns)   --->   "%trunc_ln145 = trunc i2 %tmp_1 to i1" [/home/paulrr2/Projects/ece527/babelsoc/fpga-network-stack/hls/rocev2/../ib_transport_protocol/ib_transport_protocol.cpp:1831]   --->   Operation 13 'trunc' 'trunc_ln145' <Predicate = (tmp & tmp_83 & tmp_84)> <Delay = 0.00>
ST_1 : Operation 14 [1/1] (0.00ns)   --->   "%tmp_85 = call i1 @_ssdm_op_BitSelect.i1.i2.i32(i2 %tmp_1, i32 1)" [/home/paulrr2/Projects/ece527/babelsoc/fpga-network-stack/hls/rocev2/../ib_transport_protocol/ib_transport_protocol.cpp:1831]   --->   Operation 14 'bitselect' 'tmp_85' <Predicate = (tmp & tmp_83 & tmp_84)> <Delay = 0.00>
ST_1 : Operation 15 [1/1] (0.00ns)   --->   "br i1 %trunc_ln145, label %._crit_edge3.i, label %3" [/home/paulrr2/Projects/ece527/babelsoc/fpga-network-stack/hls/rocev2/../ib_transport_protocol/ib_transport_protocol.cpp:1832]   --->   Operation 15 'br' <Predicate = (tmp & tmp_83 & tmp_84)> <Delay = 0.00>
ST_1 : Operation 16 [1/1] (0.00ns)   --->   "br i1 %tmp_85, label %._crit_edge4.i, label %4" [/home/paulrr2/Projects/ece527/babelsoc/fpga-network-stack/hls/rocev2/../ib_transport_protocol/ib_transport_protocol.cpp:1834]   --->   Operation 16 'br' <Predicate = (tmp & tmp_83 & tmp_84 & !trunc_ln145)> <Delay = 0.00>

State 2 <SV = 1> <Delay = 2.39>
ST_2 : Operation 17 [1/1] (0.00ns)   --->   "call void (...)* @_ssdm_op_SpecInterface(i16* @exh_lengthFifo_V_V, [8 x i8]* @ap_fifo_str, i32 0, i32 0, [1 x i8]* @p_str, i32 0, i32 0, [1 x i8]* @p_str, [1 x i8]* @p_str, [1 x i8]* @p_str, i32 2, i32 2, i32 16, i32 16, [1 x i8]* @p_str, [1 x i8]* @p_str)"   --->   Operation 17 'specinterface' <Predicate = true> <Delay = 0.00>
ST_2 : Operation 18 [1/1] (0.00ns)   --->   "call void (...)* @_ssdm_op_SpecInterface(i241* @rx_drop2exhFsm_MetaF_1, [8 x i8]* @ap_fifo_str, i32 0, i32 0, [1 x i8]* @p_str, i32 0, i32 0, [1 x i8]* @p_str, [1 x i8]* @p_str, [1 x i8]* @p_str, i32 2, i32 2, i32 16, i32 16, [1 x i8]* @p_str, [1 x i8]* @p_str)"   --->   Operation 18 'specinterface' <Predicate = true> <Delay = 0.00>
ST_2 : Operation 19 [1/1] (0.00ns)   --->   "call void (...)* @_ssdm_op_SpecInterface(i241* @rx_exh2drop_MetaFifo_1, [8 x i8]* @ap_fifo_str, i32 0, i32 0, [1 x i8]* @p_str, i32 0, i32 0, [1 x i8]* @p_str, [1 x i8]* @p_str, [1 x i8]* @p_str, i32 2, i32 2, i32 16, i32 16, [1 x i8]* @p_str, [1 x i8]* @p_str)"   --->   Operation 19 'specinterface' <Predicate = true> <Delay = 0.00>
ST_2 : Operation 20 [1/1] (0.00ns)   --->   "call void (...)* @_ssdm_op_SpecInterface(i2* @rx_ibhDropMetaFifo_V, [8 x i8]* @ap_fifo_str, i32 0, i32 0, [1 x i8]* @p_str, i32 0, i32 0, [1 x i8]* @p_str, [1 x i8]* @p_str, [1 x i8]* @p_str, i32 2, i32 2, i32 16, i32 16, [1 x i8]* @p_str, [1 x i8]* @p_str)"   --->   Operation 20 'specinterface' <Predicate = true> <Delay = 0.00>
ST_2 : Operation 21 [1/1] (0.00ns)   --->   "call void (...)* @_ssdm_op_SpecInterface(i16* @rx_ipUdpMetaFifo_V_l, [8 x i8]* @ap_fifo_str, i32 0, i32 0, [1 x i8]* @p_str, i32 0, i32 0, [1 x i8]* @p_str, [1 x i8]* @p_str, [1 x i8]* @p_str, i32 2, i32 2, i32 16, i32 16, [1 x i8]* @p_str, [1 x i8]* @p_str)"   --->   Operation 21 'specinterface' <Predicate = true> <Delay = 0.00>
ST_2 : Operation 22 [1/1] (0.00ns)   --->   "call void (...)* @_ssdm_op_SpecInterface(i16* @rx_ipUdpMetaFifo_V_m, [8 x i8]* @ap_fifo_str, i32 0, i32 0, [1 x i8]* @p_str, i32 0, i32 0, [1 x i8]* @p_str, [1 x i8]* @p_str, [1 x i8]* @p_str, i32 2, i32 2, i32 16, i32 16, [1 x i8]* @p_str, [1 x i8]* @p_str)"   --->   Operation 22 'specinterface' <Predicate = true> <Delay = 0.00>
ST_2 : Operation 23 [1/1] (0.00ns)   --->   "call void (...)* @_ssdm_op_SpecInterface(i128* @rx_ipUdpMetaFifo_V_t_1, [8 x i8]* @ap_fifo_str, i32 0, i32 0, [1 x i8]* @p_str, i32 0, i32 0, [1 x i8]* @p_str, [1 x i8]* @p_str, [1 x i8]* @p_str, i32 2, i32 2, i32 16, i32 16, [1 x i8]* @p_str, [1 x i8]* @p_str)"   --->   Operation 23 'specinterface' <Predicate = true> <Delay = 0.00>
ST_2 : Operation 24 [1/1] (0.00ns)   --->   "call void (...)* @_ssdm_op_SpecInterface(i16* @rx_ipUdpMetaFifo_V_t, [8 x i8]* @ap_fifo_str, i32 0, i32 0, [1 x i8]* @p_str, i32 0, i32 0, [1 x i8]* @p_str, [1 x i8]* @p_str, [1 x i8]* @p_str, i32 2, i32 2, i32 16, i32 16, [1 x i8]* @p_str, [1 x i8]* @p_str)"   --->   Operation 24 'specinterface' <Predicate = true> <Delay = 0.00>
ST_2 : Operation 25 [1/1] (0.00ns)   --->   "call void (...)* @_ssdm_op_SpecPipeline(i32 1, i32 1, i32 1, i32 0, [1 x i8]* @p_str91) nounwind" [/home/paulrr2/Projects/ece527/babelsoc/fpga-network-stack/hls/rocev2/../ib_transport_protocol/ib_transport_protocol.cpp:1820]   --->   Operation 25 'specpipeline' <Predicate = true> <Delay = 0.00>
ST_2 : Operation 26 [1/1] (2.39ns)   --->   "call void @_ssdm_op_Write.ap_fifo.volatile.i16P(i16* @exh_lengthFifo_V_V, i16 %tmp_length_V) nounwind" [/home/paulrr2/Projects/ece527/babelsoc/fpga-network-stack/hls/rocev2/../ib_transport_protocol/ib_transport_protocol.cpp:1837]   --->   Operation 26 'write' <Predicate = (tmp & tmp_83 & tmp_84 & !trunc_ln145 & !tmp_85)> <Delay = 2.39> <Core = "FIFO">   --->   Core 32 'FIFO' <Latency = 0> <II = 1> <Delay = 2.39> <Storage> <Opcode : 'read' 'write' 'nbread' 'nbwrite'> <Ports = 0> <Width = 241> <Depth = 2> <FIFO>
ST_2 : Operation 27 [1/1] (2.39ns)   --->   "call void @_ssdm_op_Write.ap_fifo.volatile.i241P(i241* @rx_drop2exhFsm_MetaF_1, i241 %tmp53) nounwind" [/home/paulrr2/Projects/ece527/babelsoc/fpga-network-stack/hls/rocev2/../ib_transport_protocol/ib_transport_protocol.cpp:1838]   --->   Operation 27 'write' <Predicate = (tmp & tmp_83 & tmp_84 & !trunc_ln145 & !tmp_85)> <Delay = 2.39> <Core = "FIFO">   --->   Core 32 'FIFO' <Latency = 0> <II = 1> <Delay = 2.39> <Storage> <Opcode : 'read' 'write' 'nbread' 'nbwrite'> <Ports = 0> <Width = 241> <Depth = 2> <FIFO>
ST_2 : Operation 28 [1/1] (0.00ns)   --->   "br label %._crit_edge4.i" [/home/paulrr2/Projects/ece527/babelsoc/fpga-network-stack/hls/rocev2/../ib_transport_protocol/ib_transport_protocol.cpp:1840]   --->   Operation 28 'br' <Predicate = (tmp & tmp_83 & tmp_84 & !trunc_ln145 & !tmp_85)> <Delay = 0.00>
ST_2 : Operation 29 [1/1] (0.00ns)   --->   "br label %._crit_edge3.i" [/home/paulrr2/Projects/ece527/babelsoc/fpga-network-stack/hls/rocev2/../ib_transport_protocol/ib_transport_protocol.cpp:1842]   --->   Operation 29 'br' <Predicate = (tmp & tmp_83 & tmp_84 & !trunc_ln145)> <Delay = 0.00>
ST_2 : Operation 30 [1/1] (0.00ns)   --->   "br label %"ipUdpMetaHandler<64>.exit"" [/home/paulrr2/Projects/ece527/babelsoc/fpga-network-stack/hls/rocev2/../ib_transport_protocol/ib_transport_protocol.cpp:1843]   --->   Operation 30 'br' <Predicate = (tmp & tmp_83 & tmp_84)> <Delay = 0.00>
ST_2 : Operation 31 [1/1] (0.00ns)   --->   "ret void"   --->   Operation 31 'ret' <Predicate = true> <Delay = 0.00>


============================================================
+ Verbose Summary: Timing violations
============================================================
Target clock period: 6.4ns, clock uncertainty: 0.8ns.

 <State 1>: 2.39ns
The critical path consists of the following:
	fifo read on port 'rx_ipUdpMetaFifo_V_t_1' (/home/paulrr2/Projects/ece527/babelsoc/fpga-network-stack/hls/rocev2/../ib_transport_protocol/ib_transport_protocol.cpp:1829) [31]  (2.39 ns)

 <State 2>: 2.39ns
The critical path consists of the following:
	fifo write on port 'exh_lengthFifo_V_V' (/home/paulrr2/Projects/ece527/babelsoc/fpga-network-stack/hls/rocev2/../ib_transport_protocol/ib_transport_protocol.cpp:1837) [41]  (2.39 ns)


============================================================
+ Verbose Summary: Binding
============================================================
N/A
* FSMD analyzer results:
  - Output states:
 - Input state : 
  - Chain level:
	State 1
	State 2


============================================================
+ Verbose Summary: Datapath Resource usage 
============================================================
N/A
