

================================================================
== Vivado HLS Report for 'lshiftWordByOctet_1'
================================================================
* Date:           Sat Dec 12 19:41:25 2020

* Version:        2019.2.1 (Build 2724168 on Thu Dec 05 05:19:09 MST 2019)
* Project:        rocev2_prj
* Solution:       solution1
* Product family: virtex7
* Target device:  xc7vx690t-ffg1761-2


================================================================
== Performance Estimates
================================================================
+ Timing: 
    * Summary: 
    +--------+---------+----------+------------+
    |  Clock |  Target | Estimated| Uncertainty|
    +--------+---------+----------+------------+
    |ap_clk  | 6.40 ns | 2.391 ns |   0.80 ns  |
    +--------+---------+----------+------------+

+ Latency: 
    * Summary: 
    +---------+---------+----------+----------+-----+-----+----------+
    |  Latency (cycles) |  Latency (absolute) |  Interval | Pipeline |
    |   min   |   max   |    min   |    max   | min | max |   Type   |
    +---------+---------+----------+----------+-----+-----+----------+
    |        1|        1| 6.400 ns | 6.400 ns |    1|    1| function |
    +---------+---------+----------+----------+-----+-----+----------+

    + Detail: 
        * Instance: 
        N/A

        * Loop: 
        N/A



================================================================
== Utilization Estimates
================================================================
* Summary: 
+-----------------+---------+-------+--------+--------+-----+
|       Name      | BRAM_18K| DSP48E|   FF   |   LUT  | URAM|
+-----------------+---------+-------+--------+--------+-----+
|DSP              |        -|      -|       -|       -|    -|
|Expression       |        -|      -|       0|      12|    -|
|FIFO             |        -|      -|       -|       -|    -|
|Instance         |        -|      -|       -|       -|    -|
|Memory           |        -|      -|       -|       -|    -|
|Multiplexer      |        -|      -|       -|      63|    -|
|Register         |        -|      -|      77|       -|    -|
+-----------------+---------+-------+--------+--------+-----+
|Total            |        0|      0|      77|      75|    0|
+-----------------+---------+-------+--------+--------+-----+
|Available        |     2940|   3600|  866400|  433200|    0|
+-----------------+---------+-------+--------+--------+-----+
|Utilization (%)  |        0|      0|   ~0   |   ~0   |    0|
+-----------------+---------+-------+--------+--------+-----+

+ Detail: 
    * Instance: 
    N/A

    * DSP48E: 
    N/A

    * Memory: 
    N/A

    * FIFO: 
    N/A

    * Expression: 
    +----------------------------------+----------+-------+---+----+------------+------------+
    |           Variable Name          | Operation| DSP48E| FF| LUT| Bitwidth P0| Bitwidth P1|
    +----------------------------------+----------+-------+---+----+------------+------------+
    |ap_block_state2_pp0_stage0_iter1  |    and   |      0|  0|   2|           1|           1|
    |io_acc_block_signal_op16          |    and   |      0|  0|   2|           1|           1|
    |io_acc_block_signal_op5           |    and   |      0|  0|   2|           1|           1|
    |ap_block_pp0_stage0_01001         |    or    |      0|  0|   2|           1|           1|
    |ap_block_state1_pp0_stage0_iter0  |    or    |      0|  0|   2|           1|           1|
    |ap_enable_pp0                     |    xor   |      0|  0|   2|           1|           2|
    +----------------------------------+----------+-------+---+----+------------+------------+
    |Total                             |          |      0|  0|  12|           6|           7|
    +----------------------------------+----------+-------+---+----+------------+------------+

    * Multiplexer: 
    +----------------------------+----+-----------+-----+-----------+
    |            Name            | LUT| Input Size| Bits| Total Bits|
    +----------------------------+----+-----------+-----+-----------+
    |ap_done                     |   9|          2|    1|          2|
    |tx_ib2udpFifo_V_data_blk_n  |   9|          2|    1|          2|
    |tx_ib2udpFifo_V_keep_blk_n  |   9|          2|    1|          2|
    |tx_ib2udpFifo_V_last_blk_n  |   9|          2|    1|          2|
    |tx_shift2udpFifo_V_d_blk_n  |   9|          2|    1|          2|
    |tx_shift2udpFifo_V_k_blk_n  |   9|          2|    1|          2|
    |tx_shift2udpFifo_V_l_blk_n  |   9|          2|    1|          2|
    +----------------------------+----+-----------+-----+-----------+
    |Total                       |  63|         14|    7|         14|
    +----------------------------+----+-----------+-----+-----------+

    * Register: 
    +-------------------------+----+----+-----+-----------+
    |           Name          | FF | LUT| Bits| Const Bits|
    +-------------------------+----+----+-----+-----------+
    |ap_CS_fsm                |   1|   0|    1|          0|
    |ap_done_reg              |   1|   0|    1|          0|
    |ap_enable_reg_pp0_iter1  |   1|   0|    1|          0|
    |tmp_data_V_reg_87        |  64|   0|   64|          0|
    |tmp_keep_V_reg_92        |   8|   0|    8|          0|
    |tmp_last_V_reg_97        |   1|   0|    1|          0|
    |tmp_reg_83               |   1|   0|    1|          0|
    +-------------------------+----+----+-----+-----------+
    |Total                    |  77|   0|   77|          0|
    +-------------------------+----+----+-----+-----------+



================================================================
== Interface
================================================================
* Summary: 
+------------------------------+-----+-----+------------+----------------------+--------------+
|           RTL Ports          | Dir | Bits|  Protocol  |     Source Object    |    C Type    |
+------------------------------+-----+-----+------------+----------------------+--------------+
|ap_clk                        |  in |    1| ap_ctrl_hs |  lshiftWordByOctet.1 | return value |
|ap_rst                        |  in |    1| ap_ctrl_hs |  lshiftWordByOctet.1 | return value |
|ap_start                      |  in |    1| ap_ctrl_hs |  lshiftWordByOctet.1 | return value |
|ap_done                       | out |    1| ap_ctrl_hs |  lshiftWordByOctet.1 | return value |
|ap_continue                   |  in |    1| ap_ctrl_hs |  lshiftWordByOctet.1 | return value |
|ap_idle                       | out |    1| ap_ctrl_hs |  lshiftWordByOctet.1 | return value |
|ap_ready                      | out |    1| ap_ctrl_hs |  lshiftWordByOctet.1 | return value |
|tx_ib2udpFifo_V_data_dout     |  in |   64|   ap_fifo  | tx_ib2udpFifo_V_data |    pointer   |
|tx_ib2udpFifo_V_data_empty_n  |  in |    1|   ap_fifo  | tx_ib2udpFifo_V_data |    pointer   |
|tx_ib2udpFifo_V_data_read     | out |    1|   ap_fifo  | tx_ib2udpFifo_V_data |    pointer   |
|tx_ib2udpFifo_V_keep_dout     |  in |    8|   ap_fifo  | tx_ib2udpFifo_V_keep |    pointer   |
|tx_ib2udpFifo_V_keep_empty_n  |  in |    1|   ap_fifo  | tx_ib2udpFifo_V_keep |    pointer   |
|tx_ib2udpFifo_V_keep_read     | out |    1|   ap_fifo  | tx_ib2udpFifo_V_keep |    pointer   |
|tx_ib2udpFifo_V_last_dout     |  in |    1|   ap_fifo  | tx_ib2udpFifo_V_last |    pointer   |
|tx_ib2udpFifo_V_last_empty_n  |  in |    1|   ap_fifo  | tx_ib2udpFifo_V_last |    pointer   |
|tx_ib2udpFifo_V_last_read     | out |    1|   ap_fifo  | tx_ib2udpFifo_V_last |    pointer   |
|tx_shift2udpFifo_V_d_din      | out |   64|   ap_fifo  | tx_shift2udpFifo_V_d |    pointer   |
|tx_shift2udpFifo_V_d_full_n   |  in |    1|   ap_fifo  | tx_shift2udpFifo_V_d |    pointer   |
|tx_shift2udpFifo_V_d_write    | out |    1|   ap_fifo  | tx_shift2udpFifo_V_d |    pointer   |
|tx_shift2udpFifo_V_k_din      | out |    8|   ap_fifo  | tx_shift2udpFifo_V_k |    pointer   |
|tx_shift2udpFifo_V_k_full_n   |  in |    1|   ap_fifo  | tx_shift2udpFifo_V_k |    pointer   |
|tx_shift2udpFifo_V_k_write    | out |    1|   ap_fifo  | tx_shift2udpFifo_V_k |    pointer   |
|tx_shift2udpFifo_V_l_din      | out |    1|   ap_fifo  | tx_shift2udpFifo_V_l |    pointer   |
|tx_shift2udpFifo_V_l_full_n   |  in |    1|   ap_fifo  | tx_shift2udpFifo_V_l |    pointer   |
|tx_shift2udpFifo_V_l_write    | out |    1|   ap_fifo  | tx_shift2udpFifo_V_l |    pointer   |
+------------------------------+-----+-----+------------+----------------------+--------------+

============================================================
+ Verbose Summary: Synthesis Manager
============================================================
InlineROM: 1
ExposeGlobal: 0
============================================================
+ Verbose Summary: CDFG Model
============================================================
IsTopModel: 0
ResetActiveHigh: 1
IsCombinational: 2
IsDatapathOnly: 0
HasWiredReturn: 1
HasMFsm: 2
HasVarLatency: 0
IsPipeline: 1
IsRtlPipelined: 1
IsInstanceOverlapped: 0
IsDontTouch: 0
HasImplIP: 0
IsGatedGlobalClock: 0

+ Individual pipeline summary: 
  * Pipeline-0: initiation interval (II) = 1, depth = 2


============================================================
+ Verbose Summary: Schedule
============================================================
* Number of FSM states : 2
* Pipeline : 1
  Pipeline-0 : II = 1, D = 2, States = { 1 2 }
* Dataflow Pipeline: 0

* FSM state transitions: 
1 --> 2 
2 --> 

* FSM state operations: 

State 1 <SV = 0> <Delay = 2.39>
ST_1 : Operation 3 [1/1] (0.00ns)   --->   "%tmp = call i1 @_ssdm_op_NbReadReq.ap_fifo.i64P.i8P.i1P(i64* @tx_ib2udpFifo_V_data, i8* @tx_ib2udpFifo_V_keep, i1* @tx_ib2udpFifo_V_last, i32 1) nounwind" [/home/paulrr2/Projects/ece527/babelsoc/fpga-network-stack/hls/rocev2/../udp/../axi_utils.hpp:531]   --->   Operation 3 'nbreadreq' 'tmp' <Predicate = true> <Delay = 0.00> <Core = "FIFO">   --->   Core 32 'FIFO' <Latency = 0> <II = 1> <Delay = 2.39> <Storage> <Opcode : 'read' 'write' 'nbread' 'nbwrite'> <Ports = 0> <Width = 64> <Depth = 2> <FIFO>
ST_1 : Operation 4 [1/1] (0.00ns)   --->   "br i1 %tmp, label %0, label %"lshiftWordByOctet<64, 1>.exit"" [/home/paulrr2/Projects/ece527/babelsoc/fpga-network-stack/hls/rocev2/../udp/../axi_utils.hpp:531]   --->   Operation 4 'br' <Predicate = true> <Delay = 0.00>
ST_1 : Operation 5 [1/1] (2.39ns)   --->   "%empty = call { i64, i8, i1 } @_ssdm_op_Read.ap_fifo.volatile.i64P.i8P.i1P(i64* @tx_ib2udpFifo_V_data, i8* @tx_ib2udpFifo_V_keep, i1* @tx_ib2udpFifo_V_last) nounwind" [/home/paulrr2/Projects/ece527/babelsoc/fpga-network-stack/hls/rocev2/../udp/../axi_utils.hpp:533]   --->   Operation 5 'read' 'empty' <Predicate = (tmp)> <Delay = 2.39> <Core = "FIFO">   --->   Core 32 'FIFO' <Latency = 0> <II = 1> <Delay = 2.39> <Storage> <Opcode : 'read' 'write' 'nbread' 'nbwrite'> <Ports = 0> <Width = 64> <Depth = 2> <FIFO>
ST_1 : Operation 6 [1/1] (0.00ns)   --->   "%tmp_data_V = extractvalue { i64, i8, i1 } %empty, 0" [/home/paulrr2/Projects/ece527/babelsoc/fpga-network-stack/hls/rocev2/../udp/../axi_utils.hpp:533]   --->   Operation 6 'extractvalue' 'tmp_data_V' <Predicate = (tmp)> <Delay = 0.00>
ST_1 : Operation 7 [1/1] (0.00ns)   --->   "%tmp_keep_V = extractvalue { i64, i8, i1 } %empty, 1" [/home/paulrr2/Projects/ece527/babelsoc/fpga-network-stack/hls/rocev2/../udp/../axi_utils.hpp:533]   --->   Operation 7 'extractvalue' 'tmp_keep_V' <Predicate = (tmp)> <Delay = 0.00>
ST_1 : Operation 8 [1/1] (0.00ns)   --->   "%tmp_last_V = extractvalue { i64, i8, i1 } %empty, 2" [/home/paulrr2/Projects/ece527/babelsoc/fpga-network-stack/hls/rocev2/../udp/../axi_utils.hpp:533]   --->   Operation 8 'extractvalue' 'tmp_last_V' <Predicate = (tmp)> <Delay = 0.00>

State 2 <SV = 1> <Delay = 2.39>
ST_2 : Operation 9 [1/1] (0.00ns)   --->   "call void (...)* @_ssdm_op_SpecInterface(i64* @tx_ib2udpFifo_V_data, [8 x i8]* @ap_fifo_str, i32 0, i32 0, [1 x i8]* @p_str, i32 0, i32 0, [1 x i8]* @p_str, [1 x i8]* @p_str, [1 x i8]* @p_str, i32 2, i32 2, i32 16, i32 16, [1 x i8]* @p_str, [1 x i8]* @p_str)"   --->   Operation 9 'specinterface' <Predicate = true> <Delay = 0.00>
ST_2 : Operation 10 [1/1] (0.00ns)   --->   "call void (...)* @_ssdm_op_SpecInterface(i8* @tx_ib2udpFifo_V_keep, [8 x i8]* @ap_fifo_str, i32 0, i32 0, [1 x i8]* @p_str, i32 0, i32 0, [1 x i8]* @p_str, [1 x i8]* @p_str, [1 x i8]* @p_str, i32 2, i32 2, i32 16, i32 16, [1 x i8]* @p_str, [1 x i8]* @p_str)"   --->   Operation 10 'specinterface' <Predicate = true> <Delay = 0.00>
ST_2 : Operation 11 [1/1] (0.00ns)   --->   "call void (...)* @_ssdm_op_SpecInterface(i1* @tx_ib2udpFifo_V_last, [8 x i8]* @ap_fifo_str, i32 0, i32 0, [1 x i8]* @p_str, i32 0, i32 0, [1 x i8]* @p_str, [1 x i8]* @p_str, [1 x i8]* @p_str, i32 2, i32 2, i32 16, i32 16, [1 x i8]* @p_str, [1 x i8]* @p_str)"   --->   Operation 11 'specinterface' <Predicate = true> <Delay = 0.00>
ST_2 : Operation 12 [1/1] (0.00ns)   --->   "call void (...)* @_ssdm_op_SpecInterface(i64* @tx_shift2udpFifo_V_d, [8 x i8]* @ap_fifo_str, i32 0, i32 0, [1 x i8]* @p_str, i32 0, i32 0, [1 x i8]* @p_str, [1 x i8]* @p_str, [1 x i8]* @p_str, i32 2, i32 2, i32 16, i32 16, [1 x i8]* @p_str, [1 x i8]* @p_str)"   --->   Operation 12 'specinterface' <Predicate = true> <Delay = 0.00>
ST_2 : Operation 13 [1/1] (0.00ns)   --->   "call void (...)* @_ssdm_op_SpecInterface(i8* @tx_shift2udpFifo_V_k, [8 x i8]* @ap_fifo_str, i32 0, i32 0, [1 x i8]* @p_str, i32 0, i32 0, [1 x i8]* @p_str, [1 x i8]* @p_str, [1 x i8]* @p_str, i32 2, i32 2, i32 16, i32 16, [1 x i8]* @p_str, [1 x i8]* @p_str)"   --->   Operation 13 'specinterface' <Predicate = true> <Delay = 0.00>
ST_2 : Operation 14 [1/1] (0.00ns)   --->   "call void (...)* @_ssdm_op_SpecInterface(i1* @tx_shift2udpFifo_V_l, [8 x i8]* @ap_fifo_str, i32 0, i32 0, [1 x i8]* @p_str, i32 0, i32 0, [1 x i8]* @p_str, [1 x i8]* @p_str, [1 x i8]* @p_str, i32 2, i32 2, i32 16, i32 16, [1 x i8]* @p_str, [1 x i8]* @p_str)"   --->   Operation 14 'specinterface' <Predicate = true> <Delay = 0.00>
ST_2 : Operation 15 [1/1] (0.00ns)   --->   "call void (...)* @_ssdm_op_SpecPipeline(i32 1, i32 1, i32 1, i32 0, [1 x i8]* @p_str140) nounwind" [/home/paulrr2/Projects/ece527/babelsoc/fpga-network-stack/hls/rocev2/../udp/../axi_utils.hpp:511]   --->   Operation 15 'specpipeline' <Predicate = true> <Delay = 0.00>
ST_2 : Operation 16 [1/1] (2.39ns)   --->   "call void @_ssdm_op_Write.ap_fifo.volatile.i64P.i8P.i1P(i64* @tx_shift2udpFifo_V_d, i8* @tx_shift2udpFifo_V_k, i1* @tx_shift2udpFifo_V_l, i64 %tmp_data_V, i8 %tmp_keep_V, i1 %tmp_last_V) nounwind" [/home/paulrr2/Projects/ece527/babelsoc/fpga-network-stack/hls/rocev2/../udp/../axi_utils.hpp:537]   --->   Operation 16 'write' <Predicate = (tmp)> <Delay = 2.39> <Core = "FIFO">   --->   Core 32 'FIFO' <Latency = 0> <II = 1> <Delay = 2.39> <Storage> <Opcode : 'read' 'write' 'nbread' 'nbwrite'> <Ports = 0> <Width = 64> <Depth = 2> <FIFO>
ST_2 : Operation 17 [1/1] (0.00ns)   --->   "br label %"lshiftWordByOctet<64, 1>.exit"" [/home/paulrr2/Projects/ece527/babelsoc/fpga-network-stack/hls/rocev2/../udp/../axi_utils.hpp:571]   --->   Operation 17 'br' <Predicate = (tmp)> <Delay = 0.00>
ST_2 : Operation 18 [1/1] (0.00ns)   --->   "ret void"   --->   Operation 18 'ret' <Predicate = true> <Delay = 0.00>


============================================================
+ Verbose Summary: Binding
============================================================
STG Binding: 
---------------- STG Properties BEGIN ----------------
- Is combinational: 0
- Is one-state seq: 0
- Is datapath-only: 0
- Is pipelined: 1
- Is top level: 0
Port [ Return ] is wired: 1; IO mode=ap_ctrl_hs:ce=0
Port [ tx_ib2udpFifo_V_data]:  wired=1; compound=1; hidden=0; nouse=0; global=1; static=1; extern=0; dir=0; type=3; pingpong=0; private_global=0; linkage=7; visibility=0; IO mode=ap_fifo:ce=0
Port [ tx_ib2udpFifo_V_keep]:  wired=1; compound=1; hidden=0; nouse=0; global=1; static=1; extern=0; dir=0; type=3; pingpong=0; private_global=0; linkage=7; visibility=0; IO mode=ap_fifo:ce=0
Port [ tx_ib2udpFifo_V_last]:  wired=1; compound=1; hidden=0; nouse=0; global=1; static=1; extern=0; dir=0; type=3; pingpong=0; private_global=0; linkage=7; visibility=0; IO mode=ap_fifo:ce=0
Port [ tx_shift2udpFifo_V_d]:  wired=1; compound=1; hidden=0; nouse=0; global=1; static=1; extern=0; dir=1; type=3; pingpong=0; private_global=0; linkage=7; visibility=0; IO mode=ap_fifo:ce=0
Port [ tx_shift2udpFifo_V_k]:  wired=1; compound=1; hidden=0; nouse=0; global=1; static=1; extern=0; dir=1; type=3; pingpong=0; private_global=0; linkage=7; visibility=0; IO mode=ap_fifo:ce=0
Port [ tx_shift2udpFifo_V_l]:  wired=1; compound=1; hidden=0; nouse=0; global=1; static=1; extern=0; dir=1; type=3; pingpong=0; private_global=0; linkage=7; visibility=0; IO mode=ap_fifo:ce=0
---------------- STG Properties END ------------------

---------------- Datapath Model BEGIN ----------------

<LifeTime>
<method=bitvector/>
tmp                (nbreadreq    ) [ 011]
br_ln531           (br           ) [ 000]
empty              (read         ) [ 000]
tmp_data_V         (extractvalue ) [ 011]
tmp_keep_V         (extractvalue ) [ 011]
tmp_last_V         (extractvalue ) [ 011]
specinterface_ln0  (specinterface) [ 000]
specinterface_ln0  (specinterface) [ 000]
specinterface_ln0  (specinterface) [ 000]
specinterface_ln0  (specinterface) [ 000]
specinterface_ln0  (specinterface) [ 000]
specinterface_ln0  (specinterface) [ 000]
specpipeline_ln511 (specpipeline ) [ 000]
write_ln537        (write        ) [ 000]
br_ln571           (br           ) [ 000]
ret_ln0            (ret          ) [ 000]
</LifeTime>

<model>

<comp_list>
<comp id="0" class="1000" name="tx_ib2udpFifo_V_data">
<pin_list>
<pin id="1" dir="1" index="0" bw="1" slack="0"/>
</pin_list>
<bind>
<StgValue><ssdm name="tx_ib2udpFifo_V_data"/></StgValue>
</bind>
</comp>

<comp id="2" class="1000" name="tx_ib2udpFifo_V_keep">
<pin_list>
<pin id="3" dir="1" index="0" bw="1" slack="0"/>
</pin_list>
<bind>
<StgValue><ssdm name="tx_ib2udpFifo_V_keep"/></StgValue>
</bind>
</comp>

<comp id="4" class="1000" name="tx_ib2udpFifo_V_last">
<pin_list>
<pin id="5" dir="1" index="0" bw="1" slack="0"/>
</pin_list>
<bind>
<StgValue><ssdm name="tx_ib2udpFifo_V_last"/></StgValue>
</bind>
</comp>

<comp id="6" class="1000" name="tx_shift2udpFifo_V_d">
<pin_list>
<pin id="7" dir="1" index="0" bw="1" slack="0"/>
</pin_list>
<bind>
<StgValue><ssdm name="tx_shift2udpFifo_V_d"/></StgValue>
</bind>
</comp>

<comp id="8" class="1000" name="tx_shift2udpFifo_V_k">
<pin_list>
<pin id="9" dir="1" index="0" bw="1" slack="0"/>
</pin_list>
<bind>
<StgValue><ssdm name="tx_shift2udpFifo_V_k"/></StgValue>
</bind>
</comp>

<comp id="10" class="1000" name="tx_shift2udpFifo_V_l">
<pin_list>
<pin id="11" dir="1" index="0" bw="1" slack="0"/>
</pin_list>
<bind>
<StgValue><ssdm name="tx_shift2udpFifo_V_l"/></StgValue>
</bind>
</comp>

<comp id="12" class="1001" name="const_12">
<pin_list>
<pin id="13" dir="1" index="0" bw="1" slack="0"/>
</pin_list>
<bind>
<StgValue><ssdm name="_ssdm_op_NbReadReq.ap_fifo.i64P.i8P.i1P"/></StgValue>
</bind>
</comp>

<comp id="14" class="1001" name="const_14">
<pin_list>
<pin id="15" dir="1" index="0" bw="1" slack="0"/>
</pin_list>
<bind>
<StgValue><ssdm name=""/></StgValue>
</bind>
</comp>

<comp id="16" class="1001" name="const_16">
<pin_list>
<pin id="17" dir="1" index="0" bw="1" slack="0"/>
</pin_list>
<bind>
<StgValue><ssdm name="_ssdm_op_Read.ap_fifo.volatile.i64P.i8P.i1P"/></StgValue>
</bind>
</comp>

<comp id="18" class="1001" name="const_18">
<pin_list>
<pin id="19" dir="1" index="0" bw="1" slack="2147483647"/>
</pin_list>
<bind>
<StgValue><ssdm name="_ssdm_op_SpecInterface"/></StgValue>
</bind>
</comp>

<comp id="20" class="1001" name="const_20">
<pin_list>
<pin id="21" dir="1" index="0" bw="1" slack="2147483647"/>
</pin_list>
<bind>
<StgValue><ssdm name="ap_fifo_str"/></StgValue>
</bind>
</comp>

<comp id="22" class="1001" name="const_22">
<pin_list>
<pin id="23" dir="1" index="0" bw="1" slack="2147483647"/>
</pin_list>
<bind>
<StgValue><ssdm name=""/></StgValue>
</bind>
</comp>

<comp id="24" class="1001" name="const_24">
<pin_list>
<pin id="25" dir="1" index="0" bw="1" slack="2147483647"/>
</pin_list>
<bind>
<StgValue><ssdm name="p_str"/></StgValue>
</bind>
</comp>

<comp id="26" class="1001" name="const_26">
<pin_list>
<pin id="27" dir="1" index="0" bw="1" slack="2147483647"/>
</pin_list>
<bind>
<StgValue><ssdm name=""/></StgValue>
</bind>
</comp>

<comp id="28" class="1001" name="const_28">
<pin_list>
<pin id="29" dir="1" index="0" bw="1" slack="2147483647"/>
</pin_list>
<bind>
<StgValue><ssdm name=""/></StgValue>
</bind>
</comp>

<comp id="30" class="1001" name="const_30">
<pin_list>
<pin id="31" dir="1" index="0" bw="1" slack="2147483647"/>
</pin_list>
<bind>
<StgValue><ssdm name="_ssdm_op_SpecPipeline"/></StgValue>
</bind>
</comp>

<comp id="32" class="1001" name="const_32">
<pin_list>
<pin id="33" dir="1" index="0" bw="1" slack="2147483647"/>
</pin_list>
<bind>
<StgValue><ssdm name="p_str140"/></StgValue>
</bind>
</comp>

<comp id="34" class="1001" name="const_34">
<pin_list>
<pin id="35" dir="1" index="0" bw="1" slack="0"/>
</pin_list>
<bind>
<StgValue><ssdm name="_ssdm_op_Write.ap_fifo.volatile.i64P.i8P.i1P"/></StgValue>
</bind>
</comp>

<comp id="36" class="1004" name="tmp_nbreadreq_fu_36">
<pin_list>
<pin id="37" dir="0" index="0" bw="1" slack="0"/>
<pin id="38" dir="0" index="1" bw="64" slack="0"/>
<pin id="39" dir="0" index="2" bw="8" slack="0"/>
<pin id="40" dir="0" index="3" bw="1" slack="0"/>
<pin id="41" dir="0" index="4" bw="1" slack="0"/>
<pin id="42" dir="1" index="5" bw="1" slack="1"/>
</pin_list>
<bind>
<opcode="nbreadreq(1156) " fcode="nbreadreq"/>
<opset="tmp/1 "/>
</bind>
</comp>

<comp id="48" class="1004" name="empty_read_fu_48">
<pin_list>
<pin id="49" dir="0" index="0" bw="73" slack="0"/>
<pin id="50" dir="0" index="1" bw="64" slack="0"/>
<pin id="51" dir="0" index="2" bw="8" slack="0"/>
<pin id="52" dir="0" index="3" bw="1" slack="0"/>
<pin id="53" dir="1" index="4" bw="73" slack="0"/>
</pin_list>
<bind>
<opcode="read(1150) " fcode="read"/>
<opset="empty/1 "/>
</bind>
</comp>

<comp id="58" class="1004" name="write_ln537_write_fu_58">
<pin_list>
<pin id="59" dir="0" index="0" bw="0" slack="0"/>
<pin id="60" dir="0" index="1" bw="64" slack="0"/>
<pin id="61" dir="0" index="2" bw="8" slack="0"/>
<pin id="62" dir="0" index="3" bw="1" slack="0"/>
<pin id="63" dir="0" index="4" bw="64" slack="1"/>
<pin id="64" dir="0" index="5" bw="8" slack="1"/>
<pin id="65" dir="0" index="6" bw="1" slack="1"/>
<pin id="66" dir="1" index="7" bw="0" slack="2147483647"/>
</pin_list>
<bind>
<opcode="write(1151) " fcode="write"/>
<opset="write_ln537/2 "/>
</bind>
</comp>

<comp id="71" class="1004" name="tmp_data_V_fu_71">
<pin_list>
<pin id="72" dir="0" index="0" bw="73" slack="0"/>
<pin id="73" dir="1" index="1" bw="64" slack="1"/>
</pin_list>
<bind>
<opcode="extractvalue(56) " fcode="extractvalue"/>
<opset="tmp_data_V/1 "/>
</bind>
</comp>

<comp id="75" class="1004" name="tmp_keep_V_fu_75">
<pin_list>
<pin id="76" dir="0" index="0" bw="73" slack="0"/>
<pin id="77" dir="1" index="1" bw="8" slack="1"/>
</pin_list>
<bind>
<opcode="extractvalue(56) " fcode="extractvalue"/>
<opset="tmp_keep_V/1 "/>
</bind>
</comp>

<comp id="79" class="1004" name="tmp_last_V_fu_79">
<pin_list>
<pin id="80" dir="0" index="0" bw="73" slack="0"/>
<pin id="81" dir="1" index="1" bw="1" slack="1"/>
</pin_list>
<bind>
<opcode="extractvalue(56) " fcode="extractvalue"/>
<opset="tmp_last_V/1 "/>
</bind>
</comp>

<comp id="83" class="1005" name="tmp_reg_83">
<pin_list>
<pin id="84" dir="0" index="0" bw="1" slack="1"/>
<pin id="85" dir="1" index="1" bw="1" slack="2147483647"/>
</pin_list>
<bind>
<opset="tmp "/>
</bind>
</comp>

<comp id="87" class="1005" name="tmp_data_V_reg_87">
<pin_list>
<pin id="88" dir="0" index="0" bw="64" slack="1"/>
<pin id="89" dir="1" index="1" bw="64" slack="1"/>
</pin_list>
<bind>
<opset="tmp_data_V "/>
</bind>
</comp>

<comp id="92" class="1005" name="tmp_keep_V_reg_92">
<pin_list>
<pin id="93" dir="0" index="0" bw="8" slack="1"/>
<pin id="94" dir="1" index="1" bw="8" slack="1"/>
</pin_list>
<bind>
<opset="tmp_keep_V "/>
</bind>
</comp>

<comp id="97" class="1005" name="tmp_last_V_reg_97">
<pin_list>
<pin id="98" dir="0" index="0" bw="1" slack="1"/>
<pin id="99" dir="1" index="1" bw="1" slack="1"/>
</pin_list>
<bind>
<opset="tmp_last_V "/>
</bind>
</comp>

</comp_list>

<net_list>
<net id="43"><net_src comp="12" pin="0"/><net_sink comp="36" pin=0"/></net>

<net id="44"><net_src comp="0" pin="0"/><net_sink comp="36" pin=1"/></net>

<net id="45"><net_src comp="2" pin="0"/><net_sink comp="36" pin=2"/></net>

<net id="46"><net_src comp="4" pin="0"/><net_sink comp="36" pin=3"/></net>

<net id="47"><net_src comp="14" pin="0"/><net_sink comp="36" pin=4"/></net>

<net id="54"><net_src comp="16" pin="0"/><net_sink comp="48" pin=0"/></net>

<net id="55"><net_src comp="0" pin="0"/><net_sink comp="48" pin=1"/></net>

<net id="56"><net_src comp="2" pin="0"/><net_sink comp="48" pin=2"/></net>

<net id="57"><net_src comp="4" pin="0"/><net_sink comp="48" pin=3"/></net>

<net id="67"><net_src comp="34" pin="0"/><net_sink comp="58" pin=0"/></net>

<net id="68"><net_src comp="6" pin="0"/><net_sink comp="58" pin=1"/></net>

<net id="69"><net_src comp="8" pin="0"/><net_sink comp="58" pin=2"/></net>

<net id="70"><net_src comp="10" pin="0"/><net_sink comp="58" pin=3"/></net>

<net id="74"><net_src comp="48" pin="4"/><net_sink comp="71" pin=0"/></net>

<net id="78"><net_src comp="48" pin="4"/><net_sink comp="75" pin=0"/></net>

<net id="82"><net_src comp="48" pin="4"/><net_sink comp="79" pin=0"/></net>

<net id="86"><net_src comp="36" pin="5"/><net_sink comp="83" pin=0"/></net>

<net id="90"><net_src comp="71" pin="1"/><net_sink comp="87" pin=0"/></net>

<net id="91"><net_src comp="87" pin="1"/><net_sink comp="58" pin=4"/></net>

<net id="95"><net_src comp="75" pin="1"/><net_sink comp="92" pin=0"/></net>

<net id="96"><net_src comp="92" pin="1"/><net_sink comp="58" pin=5"/></net>

<net id="100"><net_src comp="79" pin="1"/><net_sink comp="97" pin=0"/></net>

<net id="101"><net_src comp="97" pin="1"/><net_sink comp="58" pin=6"/></net>

</net_list>

</model> 
---------------- Datapath Model END ------------------

* FSMD analyzer results:
  - Output states:
	Port: tx_ib2udpFifo_V_data | {}
	Port: tx_ib2udpFifo_V_keep | {}
	Port: tx_ib2udpFifo_V_last | {}
	Port: tx_shift2udpFifo_V_d | {2 }
	Port: tx_shift2udpFifo_V_k | {2 }
	Port: tx_shift2udpFifo_V_l | {2 }
 - Input state : 
	Port: lshiftWordByOctet.1 : tx_ib2udpFifo_V_data | {1 }
	Port: lshiftWordByOctet.1 : tx_ib2udpFifo_V_keep | {1 }
	Port: lshiftWordByOctet.1 : tx_ib2udpFifo_V_last | {1 }
	Port: lshiftWordByOctet.1 : tx_shift2udpFifo_V_d | {}
	Port: lshiftWordByOctet.1 : tx_shift2udpFifo_V_k | {}
	Port: lshiftWordByOctet.1 : tx_shift2udpFifo_V_l | {}
  - Chain level:
	State 1
	State 2


============================================================
+ Verbose Summary: Datapath Resource usage 
============================================================

* Functional unit list:
|----------|-------------------------|
| Operation|     Functional Unit     |
|----------|-------------------------|
| nbreadreq|   tmp_nbreadreq_fu_36   |
|----------|-------------------------|
|   read   |     empty_read_fu_48    |
|----------|-------------------------|
|   write  | write_ln537_write_fu_58 |
|----------|-------------------------|
|          |     tmp_data_V_fu_71    |
|extractvalue|     tmp_keep_V_fu_75    |
|          |     tmp_last_V_fu_79    |
|----------|-------------------------|
|   Total  |                         |
|----------|-------------------------|

Memories:
N/A

* Register list:
+-----------------+--------+
|                 |   FF   |
+-----------------+--------+
|tmp_data_V_reg_87|   64   |
|tmp_keep_V_reg_92|    8   |
|tmp_last_V_reg_97|    1   |
|    tmp_reg_83   |    1   |
+-----------------+--------+
|      Total      |   74   |
+-----------------+--------+

* Multiplexer (MUX) list: 
|--------|------|------|------|--------|
|  Comp  |  Pin | Size |  BW  | S x BW |
|--------|------|------|------|--------|
|  Total |      |      |      |    0   |
|--------|------|------|------|--------|



* Summary:
+-----------+--------+
|           |   FF   |
+-----------+--------+
|  Function |    -   |
|   Memory  |    -   |
|Multiplexer|    -   |
|  Register |   74   |
+-----------+--------+
|   Total   |   74   |
+-----------+--------+
