

================================================================
== Vivado HLS Report for 'mem_cmd_merger_64_s'
================================================================
* Date:           Sat Dec 12 19:41:13 2020

* Version:        2019.2.1 (Build 2724168 on Thu Dec 05 05:19:09 MST 2019)
* Project:        rocev2_prj
* Solution:       solution1
* Product family: virtex7
* Target device:  xc7vx690t-ffg1761-2


================================================================
== Performance Estimates
================================================================
+ Timing: 
    * Summary: 
    +--------+---------+----------+------------+
    |  Clock |  Target | Estimated| Uncertainty|
    +--------+---------+----------+------------+
    |ap_clk  | 6.40 ns | 4.762 ns |   0.80 ns  |
    +--------+---------+----------+------------+

+ Latency: 
    * Summary: 
    +---------+---------+-----------+-----------+-----+-----+----------+
    |  Latency (cycles) |   Latency (absolute)  |  Interval | Pipeline |
    |   min   |   max   |    min    |    max    | min | max |   Type   |
    +---------+---------+-----------+-----------+-----+-----+----------+
    |        3|        3| 19.200 ns | 19.200 ns |    1|    1| function |
    +---------+---------+-----------+-----------+-----+-----+----------+

    + Detail: 
        * Instance: 
        N/A

        * Loop: 
        N/A

============================================================
+ Verbose Summary: Synthesis Manager
============================================================
InlineROM: 1
ExposeGlobal: 0
============================================================
+ Verbose Summary: CDFG Model
============================================================
IsTopModel: 0
ResetActiveHigh: 1
IsCombinational: 2
IsDatapathOnly: 0
HasWiredReturn: 1
HasMFsm: 2
HasVarLatency: 0
IsPipeline: 1
IsRtlPipelined: 1
IsInstanceOverlapped: 0
IsDontTouch: 0
HasImplIP: 0
IsGatedGlobalClock: 0

+ Individual pipeline summary: 
  * Pipeline-0: initiation interval (II) = 1, depth = 4


============================================================
+ Verbose Summary: Schedule
============================================================
* Number of FSM states : 4
* Pipeline : 1
  Pipeline-0 : II = 1, D = 4, States = { 1 2 3 4 }
* Dataflow Pipeline: 0

* FSM state transitions: 
1 --> 2 
2 --> 3 
3 --> 4 
4 --> 

* FSM state operations: 

State 1 <SV = 0> <Delay = 3.90>
ST_1 : Operation 5 [1/1] (0.00ns)   --->   "%tmp = call i1 @_ssdm_op_NbReadReq.ap_fifo.i113P(i113* @rx_remoteMemCmd_V, i32 1)" [/home/paulrr2/Projects/ece527/babelsoc/fpga-network-stack/hls/rocev2/../ib_transport_protocol/ib_transport_protocol.cpp:1933]   --->   Operation 5 'nbreadreq' 'tmp' <Predicate = true> <Delay = 0.00> <Core = "FIFO">   --->   Core 32 'FIFO' <Latency = 0> <II = 1> <Delay = 2.39> <Storage> <Opcode : 'read' 'write' 'nbread' 'nbwrite'> <Ports = 0> <Width = 29> <Depth = 2> <FIFO>
ST_1 : Operation 6 [1/1] (0.00ns)   --->   "br i1 %tmp, label %0, label %1" [/home/paulrr2/Projects/ece527/babelsoc/fpga-network-stack/hls/rocev2/../ib_transport_protocol/ib_transport_protocol.cpp:1933]   --->   Operation 6 'br' <Predicate = true> <Delay = 0.00>
ST_1 : Operation 7 [1/1] (2.39ns)   --->   "%tmp37 = call i113 @_ssdm_op_Read.ap_fifo.volatile.i113P(i113* @rx_remoteMemCmd_V)" [/home/paulrr2/Projects/ece527/babelsoc/fpga-network-stack/hls/rocev2/../ib_transport_protocol/ib_transport_protocol.cpp:1935]   --->   Operation 7 'read' 'tmp37' <Predicate = (tmp)> <Delay = 2.39> <Core = "FIFO">   --->   Core 32 'FIFO' <Latency = 0> <II = 1> <Delay = 2.39> <Storage> <Opcode : 'read' 'write' 'nbread' 'nbwrite'> <Ports = 0> <Width = 29> <Depth = 2> <FIFO>
ST_1 : Operation 8 [1/1] (0.00ns)   --->   "%tmp_data_len_V = call i32 @_ssdm_op_PartSelect.i32.i113.i32.i32(i113 %tmp37, i32 80, i32 111)" [/home/paulrr2/Projects/ece527/babelsoc/fpga-network-stack/hls/rocev2/../ib_transport_protocol/ib_transport_protocol.hpp:668->/home/paulrr2/Projects/ece527/babelsoc/fpga-network-stack/hls/rocev2/../ib_transport_protocol/ib_transport_protocol.cpp:1935]   --->   Operation 8 'partselect' 'tmp_data_len_V' <Predicate = (tmp)> <Delay = 0.00>
ST_1 : Operation 9 [1/1] (0.00ns)   --->   "%tmp_dest_V = call i1 @_ssdm_op_BitSelect.i1.i113.i32(i113 %tmp37, i32 112)" [/home/paulrr2/Projects/ece527/babelsoc/fpga-network-stack/hls/rocev2/../ib_transport_protocol/ib_transport_protocol.hpp:668->/home/paulrr2/Projects/ece527/babelsoc/fpga-network-stack/hls/rocev2/../ib_transport_protocol/ib_transport_protocol.cpp:1935]   --->   Operation 9 'bitselect' 'tmp_dest_V' <Predicate = (tmp)> <Delay = 0.00>
ST_1 : Operation 10 [1/1] (0.00ns)   --->   "%tmp_data = call i96 @_ssdm_op_PartSelect.i96.i113.i32.i32(i113 %tmp37, i32 16, i32 111)" [/home/paulrr2/Projects/ece527/babelsoc/fpga-network-stack/hls/rocev2/../ib_transport_protocol/ib_transport_protocol.cpp:1936]   --->   Operation 10 'partselect' 'tmp_data' <Predicate = (tmp)> <Delay = 0.00>
ST_1 : Operation 11 [1/1] (1.51ns)   --->   "%add_ln1371 = add i32 %tmp_data_len_V, 7" [/home/paulrr2/Projects/ece527/babelsoc/fpga-network-stack/hls/rocev2/../ib_transport_protocol/ib_transport_protocol.cpp:1945]   --->   Operation 11 'add' 'add_ln1371' <Predicate = (tmp)> <Delay = 1.51> <Core = "AddSub">   --->   Core 14 'AddSub' <Latency = 0> <II = 1> <Delay = 1.51> <FuncUnit> <Opcode : 'add' 'sub'> <InPorts = 2> <OutPorts = 1>
ST_1 : Operation 12 [1/1] (0.00ns)   --->   "%tmp_words_V = call i29 @_ssdm_op_PartSelect.i29.i32.i32.i32(i32 %add_ln1371, i32 3, i32 31)" [/home/paulrr2/Projects/ece527/babelsoc/fpga-network-stack/hls/rocev2/../ib_transport_protocol/ib_transport_protocol.cpp:1945]   --->   Operation 12 'partselect' 'tmp_words_V' <Predicate = (tmp)> <Delay = 0.00>

State 2 <SV = 1> <Delay = 4.76>
ST_2 : Operation 13 [1/1] (0.00ns)   --->   "%tmp_80 = call i1 @_ssdm_op_NbReadReq.ap_fifo.i113P(i113* @tx_localMemCmdFifo_V, i32 1)" [/home/paulrr2/Projects/ece527/babelsoc/fpga-network-stack/hls/rocev2/../ib_transport_protocol/ib_transport_protocol.cpp:1948]   --->   Operation 13 'nbreadreq' 'tmp_80' <Predicate = (!tmp)> <Delay = 0.00> <Core = "FIFO">   --->   Core 32 'FIFO' <Latency = 0> <II = 1> <Delay = 2.39> <Storage> <Opcode : 'read' 'write' 'nbread' 'nbwrite'> <Ports = 0> <Width = 29> <Depth = 2> <FIFO>
ST_2 : Operation 14 [1/1] (0.00ns)   --->   "br i1 %tmp_80, label %2, label %._crit_edge.i" [/home/paulrr2/Projects/ece527/babelsoc/fpga-network-stack/hls/rocev2/../ib_transport_protocol/ib_transport_protocol.cpp:1948]   --->   Operation 14 'br' <Predicate = (!tmp)> <Delay = 0.00>
ST_2 : Operation 15 [1/1] (2.39ns)   --->   "%tmp_1 = call i113 @_ssdm_op_Read.ap_fifo.volatile.i113P(i113* @tx_localMemCmdFifo_V)" [/home/paulrr2/Projects/ece527/babelsoc/fpga-network-stack/hls/rocev2/../ib_transport_protocol/ib_transport_protocol.cpp:1950]   --->   Operation 15 'read' 'tmp_1' <Predicate = (!tmp & tmp_80)> <Delay = 2.39> <Core = "FIFO">   --->   Core 32 'FIFO' <Latency = 0> <II = 1> <Delay = 2.39> <Storage> <Opcode : 'read' 'write' 'nbread' 'nbwrite'> <Ports = 0> <Width = 29> <Depth = 2> <FIFO>
ST_2 : Operation 16 [1/1] (0.00ns)   --->   "%tmp_data_addr_V = call i64 @_ssdm_op_PartSelect.i64.i113.i32.i32(i113 %tmp_1, i32 16, i32 79)" [/home/paulrr2/Projects/ece527/babelsoc/fpga-network-stack/hls/rocev2/../ib_transport_protocol/ib_transport_protocol.hpp:668->/home/paulrr2/Projects/ece527/babelsoc/fpga-network-stack/hls/rocev2/../ib_transport_protocol/ib_transport_protocol.cpp:1950]   --->   Operation 16 'partselect' 'tmp_data_addr_V' <Predicate = (!tmp & tmp_80)> <Delay = 0.00>
ST_2 : Operation 17 [1/1] (0.00ns)   --->   "%tmp_data_len_V_5 = call i32 @_ssdm_op_PartSelect.i32.i113.i32.i32(i113 %tmp_1, i32 80, i32 111)" [/home/paulrr2/Projects/ece527/babelsoc/fpga-network-stack/hls/rocev2/../ib_transport_protocol/ib_transport_protocol.hpp:668->/home/paulrr2/Projects/ece527/babelsoc/fpga-network-stack/hls/rocev2/../ib_transport_protocol/ib_transport_protocol.cpp:1950]   --->   Operation 17 'partselect' 'tmp_data_len_V_5' <Predicate = (!tmp & tmp_80)> <Delay = 0.00>
ST_2 : Operation 18 [1/1] (0.00ns)   --->   "%tmp_dest_V_2 = call i1 @_ssdm_op_BitSelect.i1.i113.i32(i113 %tmp_1, i32 112)" [/home/paulrr2/Projects/ece527/babelsoc/fpga-network-stack/hls/rocev2/../ib_transport_protocol/ib_transport_protocol.hpp:668->/home/paulrr2/Projects/ece527/babelsoc/fpga-network-stack/hls/rocev2/../ib_transport_protocol/ib_transport_protocol.cpp:1950]   --->   Operation 18 'bitselect' 'tmp_dest_V_2' <Predicate = (!tmp & tmp_80)> <Delay = 0.00>
ST_2 : Operation 19 [1/1] (1.40ns)   --->   "%icmp_ln883 = icmp eq i64 %tmp_data_addr_V, 0" [/home/paulrr2/Projects/ece527/babelsoc/fpga-network-stack/hls/rocev2/../ib_transport_protocol/ib_transport_protocol.cpp:1952]   --->   Operation 19 'icmp' 'icmp_ln883' <Predicate = (!tmp & tmp_80)> <Delay = 1.40> <Core = "Cmp">   --->   Core 25 'Cmp' <Latency = 0> <II = 1> <Delay = 1.40> <FuncUnit> <Opcode : 'icmp'> <InPorts = 2> <OutPorts = 1>
ST_2 : Operation 20 [1/1] (0.00ns)   --->   "br i1 %icmp_ln883, label %4, label %3" [/home/paulrr2/Projects/ece527/babelsoc/fpga-network-stack/hls/rocev2/../ib_transport_protocol/ib_transport_protocol.cpp:1952]   --->   Operation 20 'br' <Predicate = (!tmp & tmp_80)> <Delay = 0.00>
ST_2 : Operation 21 [1/1] (0.00ns)   --->   "%tmp_data_1 = call i96 @_ssdm_op_PartSelect.i96.i113.i32.i32(i113 %tmp_1, i32 16, i32 111)" [/home/paulrr2/Projects/ece527/babelsoc/fpga-network-stack/hls/rocev2/../ib_transport_protocol/ib_transport_protocol.cpp:1954]   --->   Operation 21 'partselect' 'tmp_data_1' <Predicate = (!tmp & tmp_80 & !icmp_ln883)> <Delay = 0.00>

State 3 <SV = 2> <Delay = 3.90>
ST_3 : Operation 22 [2/2] (0.00ns)   --->   "call void @_ssdm_op_Write.axis.volatile.i96P.i1P(i96* %out_V_data, i1* %out_V_dest_V, i96 %tmp_data_1, i1 %tmp_dest_V_2)" [/home/paulrr2/Projects/ece527/babelsoc/fpga-network-stack/hls/rocev2/../ib_transport_protocol/ib_transport_protocol.cpp:1954]   --->   Operation 22 'write' <Predicate = (!tmp & tmp_80 & !icmp_ln883)> <Delay = 0.00> <Core = "AXI4Stream">   --->   Core 5 'AXI4Stream' <Latency = 0> <II = 1> <Delay = 1.00> <Adapter> <Opcode : >
ST_3 : Operation 23 [1/1] (1.51ns)   --->   "%add_ln1371_2 = add i32 %tmp_data_len_V_5, 7" [/home/paulrr2/Projects/ece527/babelsoc/fpga-network-stack/hls/rocev2/../ib_transport_protocol/ib_transport_protocol.cpp:1955]   --->   Operation 23 'add' 'add_ln1371_2' <Predicate = (!tmp & tmp_80 & !icmp_ln883)> <Delay = 1.51> <Core = "AddSub">   --->   Core 14 'AddSub' <Latency = 0> <II = 1> <Delay = 1.51> <FuncUnit> <Opcode : 'add' 'sub'> <InPorts = 2> <OutPorts = 1>
ST_3 : Operation 24 [1/1] (0.00ns)   --->   "%tmp_words_V_2 = call i29 @_ssdm_op_PartSelect.i29.i32.i32.i32(i32 %add_ln1371_2, i32 3, i32 31)" [/home/paulrr2/Projects/ece527/babelsoc/fpga-network-stack/hls/rocev2/../ib_transport_protocol/ib_transport_protocol.cpp:1955]   --->   Operation 24 'partselect' 'tmp_words_V_2' <Predicate = (!tmp & tmp_80 & !icmp_ln883)> <Delay = 0.00>
ST_3 : Operation 25 [1/1] (2.39ns)   --->   "call void @_ssdm_op_Write.ap_fifo.volatile.i1P.i1P.i29P(i1* @tx_pkgInfoFifo_V_typ, i1* @tx_pkgInfoFifo_V_sou, i29* @tx_pkgInfoFifo_V_wor, i1 true, i1 false, i29 %tmp_words_V_2)" [/home/paulrr2/Projects/ece527/babelsoc/fpga-network-stack/hls/rocev2/../ib_transport_protocol/ib_transport_protocol.cpp:1955]   --->   Operation 25 'write' <Predicate = (!tmp & tmp_80 & !icmp_ln883)> <Delay = 2.39> <Core = "FIFO">   --->   Core 32 'FIFO' <Latency = 0> <II = 1> <Delay = 2.39> <Storage> <Opcode : 'read' 'write' 'nbread' 'nbwrite'> <Ports = 0> <Width = 29> <Depth = 2> <FIFO>
ST_3 : Operation 26 [1/1] (1.51ns)   --->   "%add_ln1371_1 = add i32 %tmp_data_len_V_5, 7" [/home/paulrr2/Projects/ece527/babelsoc/fpga-network-stack/hls/rocev2/../ib_transport_protocol/ib_transport_protocol.cpp:1959]   --->   Operation 26 'add' 'add_ln1371_1' <Predicate = (!tmp & tmp_80 & icmp_ln883)> <Delay = 1.51> <Core = "AddSub">   --->   Core 14 'AddSub' <Latency = 0> <II = 1> <Delay = 1.51> <FuncUnit> <Opcode : 'add' 'sub'> <InPorts = 2> <OutPorts = 1>
ST_3 : Operation 27 [1/1] (0.00ns)   --->   "%tmp_words_V_1 = call i29 @_ssdm_op_PartSelect.i29.i32.i32.i32(i32 %add_ln1371_1, i32 3, i32 31)" [/home/paulrr2/Projects/ece527/babelsoc/fpga-network-stack/hls/rocev2/../ib_transport_protocol/ib_transport_protocol.cpp:1959]   --->   Operation 27 'partselect' 'tmp_words_V_1' <Predicate = (!tmp & tmp_80 & icmp_ln883)> <Delay = 0.00>
ST_3 : Operation 28 [1/1] (2.39ns)   --->   "call void @_ssdm_op_Write.ap_fifo.volatile.i1P.i1P.i29P(i1* @tx_pkgInfoFifo_V_typ, i1* @tx_pkgInfoFifo_V_sou, i29* @tx_pkgInfoFifo_V_wor, i1 true, i1 true, i29 %tmp_words_V_1)" [/home/paulrr2/Projects/ece527/babelsoc/fpga-network-stack/hls/rocev2/../ib_transport_protocol/ib_transport_protocol.cpp:1959]   --->   Operation 28 'write' <Predicate = (!tmp & tmp_80 & icmp_ln883)> <Delay = 2.39> <Core = "FIFO">   --->   Core 32 'FIFO' <Latency = 0> <II = 1> <Delay = 2.39> <Storage> <Opcode : 'read' 'write' 'nbread' 'nbwrite'> <Ports = 0> <Width = 29> <Depth = 2> <FIFO>
ST_3 : Operation 29 [2/2] (0.00ns)   --->   "call void @_ssdm_op_Write.axis.volatile.i96P.i1P(i96* %out_V_data, i1* %out_V_dest_V, i96 %tmp_data, i1 %tmp_dest_V)" [/home/paulrr2/Projects/ece527/babelsoc/fpga-network-stack/hls/rocev2/../ib_transport_protocol/ib_transport_protocol.cpp:1936]   --->   Operation 29 'write' <Predicate = (tmp)> <Delay = 0.00> <Core = "AXI4Stream">   --->   Core 5 'AXI4Stream' <Latency = 0> <II = 1> <Delay = 1.00> <Adapter> <Opcode : >
ST_3 : Operation 30 [1/1] (2.39ns)   --->   "call void @_ssdm_op_Write.ap_fifo.volatile.i1P.i1P.i29P(i1* @tx_pkgInfoFifo_V_typ, i1* @tx_pkgInfoFifo_V_sou, i29* @tx_pkgInfoFifo_V_wor, i1 false, i1 false, i29 %tmp_words_V)" [/home/paulrr2/Projects/ece527/babelsoc/fpga-network-stack/hls/rocev2/../ib_transport_protocol/ib_transport_protocol.cpp:1945]   --->   Operation 30 'write' <Predicate = (tmp)> <Delay = 2.39> <Core = "FIFO">   --->   Core 32 'FIFO' <Latency = 0> <II = 1> <Delay = 2.39> <Storage> <Opcode : 'read' 'write' 'nbread' 'nbwrite'> <Ports = 0> <Width = 29> <Depth = 2> <FIFO>

State 4 <SV = 3> <Delay = 0.00>
ST_4 : Operation 31 [1/1] (0.00ns)   --->   "call void (...)* @_ssdm_op_SpecInterface(i113* @rx_remoteMemCmd_V, [8 x i8]* @ap_fifo_str, i32 0, i32 0, [1 x i8]* @p_str, i32 0, i32 0, [1 x i8]* @p_str, [1 x i8]* @p_str, [1 x i8]* @p_str, i32 2, i32 2, i32 16, i32 16, [1 x i8]* @p_str, [1 x i8]* @p_str)"   --->   Operation 31 'specinterface' <Predicate = true> <Delay = 0.00>
ST_4 : Operation 32 [1/1] (0.00ns)   --->   "call void (...)* @_ssdm_op_SpecInterface(i113* @tx_localMemCmdFifo_V, [8 x i8]* @ap_fifo_str, i32 0, i32 0, [1 x i8]* @p_str, i32 0, i32 0, [1 x i8]* @p_str, [1 x i8]* @p_str, [1 x i8]* @p_str, i32 2, i32 2, i32 16, i32 16, [1 x i8]* @p_str, [1 x i8]* @p_str)"   --->   Operation 32 'specinterface' <Predicate = true> <Delay = 0.00>
ST_4 : Operation 33 [1/1] (0.00ns)   --->   "call void (...)* @_ssdm_op_SpecInterface(i1* @tx_pkgInfoFifo_V_sou, [8 x i8]* @ap_fifo_str, i32 0, i32 0, [1 x i8]* @p_str, i32 0, i32 0, [1 x i8]* @p_str, [1 x i8]* @p_str, [1 x i8]* @p_str, i32 2, i32 2, i32 16, i32 16, [1 x i8]* @p_str, [1 x i8]* @p_str)"   --->   Operation 33 'specinterface' <Predicate = true> <Delay = 0.00>
ST_4 : Operation 34 [1/1] (0.00ns)   --->   "call void (...)* @_ssdm_op_SpecInterface(i1* @tx_pkgInfoFifo_V_typ, [8 x i8]* @ap_fifo_str, i32 0, i32 0, [1 x i8]* @p_str, i32 0, i32 0, [1 x i8]* @p_str, [1 x i8]* @p_str, [1 x i8]* @p_str, i32 2, i32 2, i32 16, i32 16, [1 x i8]* @p_str, [1 x i8]* @p_str)"   --->   Operation 34 'specinterface' <Predicate = true> <Delay = 0.00>
ST_4 : Operation 35 [1/1] (0.00ns)   --->   "call void (...)* @_ssdm_op_SpecInterface(i29* @tx_pkgInfoFifo_V_wor, [8 x i8]* @ap_fifo_str, i32 0, i32 0, [1 x i8]* @p_str, i32 0, i32 0, [1 x i8]* @p_str, [1 x i8]* @p_str, [1 x i8]* @p_str, i32 2, i32 2, i32 16, i32 16, [1 x i8]* @p_str, [1 x i8]* @p_str)"   --->   Operation 35 'specinterface' <Predicate = true> <Delay = 0.00>
ST_4 : Operation 36 [1/1] (0.00ns)   --->   "call void (...)* @_ssdm_op_SpecInterface(i96* %out_V_data, i1* %out_V_dest_V, [5 x i8]* @p_str3, i32 1, i32 1, [5 x i8]* @p_str4, i32 0, i32 0, [1 x i8]* @p_str, [1 x i8]* @p_str, [1 x i8]* @p_str, i32 0, i32 0, i32 0, i32 0, [1 x i8]* @p_str, [1 x i8]* @p_str) nounwind"   --->   Operation 36 'specinterface' <Predicate = true> <Delay = 0.00>
ST_4 : Operation 37 [1/1] (0.00ns)   --->   "call void (...)* @_ssdm_op_SpecPipeline(i32 1, i32 1, i32 1, i32 0, [1 x i8]* @p_str91) nounwind" [/home/paulrr2/Projects/ece527/babelsoc/fpga-network-stack/hls/rocev2/../ib_transport_protocol/ib_transport_protocol.cpp:1929]   --->   Operation 37 'specpipeline' <Predicate = true> <Delay = 0.00>
ST_4 : Operation 38 [1/2] (0.00ns)   --->   "call void @_ssdm_op_Write.axis.volatile.i96P.i1P(i96* %out_V_data, i1* %out_V_dest_V, i96 %tmp_data_1, i1 %tmp_dest_V_2)" [/home/paulrr2/Projects/ece527/babelsoc/fpga-network-stack/hls/rocev2/../ib_transport_protocol/ib_transport_protocol.cpp:1954]   --->   Operation 38 'write' <Predicate = (!tmp & tmp_80 & !icmp_ln883)> <Delay = 0.00> <Core = "AXI4Stream">   --->   Core 5 'AXI4Stream' <Latency = 0> <II = 1> <Delay = 1.00> <Adapter> <Opcode : >
ST_4 : Operation 39 [1/1] (0.00ns)   --->   "br label %5" [/home/paulrr2/Projects/ece527/babelsoc/fpga-network-stack/hls/rocev2/../ib_transport_protocol/ib_transport_protocol.cpp:1956]   --->   Operation 39 'br' <Predicate = (!tmp & tmp_80 & !icmp_ln883)> <Delay = 0.00>
ST_4 : Operation 40 [1/1] (0.00ns)   --->   "br label %5"   --->   Operation 40 'br' <Predicate = (!tmp & tmp_80 & icmp_ln883)> <Delay = 0.00>
ST_4 : Operation 41 [1/1] (0.00ns)   --->   "br label %._crit_edge.i" [/home/paulrr2/Projects/ece527/babelsoc/fpga-network-stack/hls/rocev2/../ib_transport_protocol/ib_transport_protocol.cpp:1961]   --->   Operation 41 'br' <Predicate = (!tmp & tmp_80)> <Delay = 0.00>
ST_4 : Operation 42 [1/1] (0.00ns)   --->   "br label %"mem_cmd_merger<64>.exit""   --->   Operation 42 'br' <Predicate = (!tmp)> <Delay = 0.00>
ST_4 : Operation 43 [1/2] (0.00ns)   --->   "call void @_ssdm_op_Write.axis.volatile.i96P.i1P(i96* %out_V_data, i1* %out_V_dest_V, i96 %tmp_data, i1 %tmp_dest_V)" [/home/paulrr2/Projects/ece527/babelsoc/fpga-network-stack/hls/rocev2/../ib_transport_protocol/ib_transport_protocol.cpp:1936]   --->   Operation 43 'write' <Predicate = (tmp)> <Delay = 0.00> <Core = "AXI4Stream">   --->   Core 5 'AXI4Stream' <Latency = 0> <II = 1> <Delay = 1.00> <Adapter> <Opcode : >
ST_4 : Operation 44 [1/1] (0.00ns)   --->   "br label %"mem_cmd_merger<64>.exit"" [/home/paulrr2/Projects/ece527/babelsoc/fpga-network-stack/hls/rocev2/../ib_transport_protocol/ib_transport_protocol.cpp:1947]   --->   Operation 44 'br' <Predicate = (tmp)> <Delay = 0.00>
ST_4 : Operation 45 [1/1] (0.00ns)   --->   "ret void"   --->   Operation 45 'ret' <Predicate = true> <Delay = 0.00>


============================================================
+ Verbose Summary: Timing violations
============================================================
Target clock period: 6.4ns, clock uncertainty: 0.8ns.

 <State 1>: 3.91ns
The critical path consists of the following:
	fifo read on port 'rx_remoteMemCmd_V' (/home/paulrr2/Projects/ece527/babelsoc/fpga-network-stack/hls/rocev2/../ib_transport_protocol/ib_transport_protocol.cpp:1935) [47]  (2.39 ns)
	'add' operation ('add_ln1371', /home/paulrr2/Projects/ece527/babelsoc/fpga-network-stack/hls/rocev2/../ib_transport_protocol/ib_transport_protocol.cpp:1945) [52]  (1.51 ns)

 <State 2>: 4.76ns
The critical path consists of the following:
	fifo read on port 'tx_localMemCmdFifo_V' (/home/paulrr2/Projects/ece527/babelsoc/fpga-network-stack/hls/rocev2/../ib_transport_protocol/ib_transport_protocol.cpp:1950) [24]  (2.39 ns)
	'icmp' operation ('icmp_ln883', /home/paulrr2/Projects/ece527/babelsoc/fpga-network-stack/hls/rocev2/../ib_transport_protocol/ib_transport_protocol.cpp:1952) [28]  (1.4 ns)
	blocking operation 0.97 ns on control path)

 <State 3>: 3.91ns
The critical path consists of the following:
	'add' operation ('add_ln1371_2', /home/paulrr2/Projects/ece527/babelsoc/fpga-network-stack/hls/rocev2/../ib_transport_protocol/ib_transport_protocol.cpp:1955) [33]  (1.51 ns)
	fifo write on port 'tx_pkgInfoFifo_V_typ' (/home/paulrr2/Projects/ece527/babelsoc/fpga-network-stack/hls/rocev2/../ib_transport_protocol/ib_transport_protocol.cpp:1955) [35]  (2.39 ns)

 <State 4>: 0ns
The critical path consists of the following:


============================================================
+ Verbose Summary: Binding
============================================================
N/A
* FSMD analyzer results:
  - Output states:
 - Input state : 
  - Chain level:
	State 1
	State 2
	State 3
	State 4


============================================================
+ Verbose Summary: Datapath Resource usage 
============================================================
N/A
