

================================================================
== Vivado HLS Report for 'merge_rx_pkgs_64_s'
================================================================
* Date:           Sat Dec 12 19:41:31 2020

* Version:        2019.2.1 (Build 2724168 on Thu Dec 05 05:19:09 MST 2019)
* Project:        rocev2_prj
* Solution:       solution1
* Product family: virtex7
* Target device:  xc7vx690t-ffg1761-2


================================================================
== Performance Estimates
================================================================
+ Timing: 
    * Summary: 
    +--------+---------+----------+------------+
    |  Clock |  Target | Estimated| Uncertainty|
    +--------+---------+----------+------------+
    |ap_clk  | 6.40 ns | 4.215 ns |   0.80 ns  |
    +--------+---------+----------+------------+

+ Latency: 
    * Summary: 
    +---------+---------+-----------+-----------+-----+-----+----------+
    |  Latency (cycles) |   Latency (absolute)  |  Interval | Pipeline |
    |   min   |   max   |    min    |    max    | min | max |   Type   |
    +---------+---------+-----------+-----------+-----+-----+----------+
    |        2|        2| 12.800 ns | 12.800 ns |    1|    1| function |
    +---------+---------+-----------+-----------+-----+-----+----------+

    + Detail: 
        * Instance: 
        N/A

        * Loop: 
        N/A



================================================================
== Utilization Estimates
================================================================
* Summary: 
+-----------------+---------+-------+--------+--------+-----+
|       Name      | BRAM_18K| DSP48E|   FF   |   LUT  | URAM|
+-----------------+---------+-------+--------+--------+-----+
|DSP              |        -|      -|       -|       -|    -|
|Expression       |        -|      -|       0|      65|    -|
|FIFO             |        -|      -|       -|       -|    -|
|Instance         |        -|      -|       -|       -|    -|
|Memory           |        -|      -|       -|       -|    -|
|Multiplexer      |        -|      -|       -|     219|    -|
|Register         |        -|      -|     237|       -|    -|
+-----------------+---------+-------+--------+--------+-----+
|Total            |        0|      0|     237|     284|    0|
+-----------------+---------+-------+--------+--------+-----+
|Available        |     2940|   3600|  866400|  433200|    0|
+-----------------+---------+-------+--------+--------+-----+
|Utilization (%)  |        0|      0|   ~0   |   ~0   |    0|
+-----------------+---------+-------+--------+--------+-----+

+ Detail: 
    * Instance: 
    N/A

    * DSP48E: 
    N/A

    * Memory: 
    N/A

    * FIFO: 
    N/A

    * Expression: 
    +----------------------------------+----------+-------+---+----+------------+------------+
    |           Variable Name          | Operation| DSP48E| FF| LUT| Bitwidth P0| Bitwidth P1|
    +----------------------------------+----------+-------+---+----+------------+------------+
    |ap_condition_356                  |    and   |      0|  0|   2|           1|           1|
    |ap_predicate_op16_read_state1     |    and   |      0|  0|   2|           1|           1|
    |ap_predicate_op24_read_state1     |    and   |      0|  0|   2|           1|           1|
    |ap_predicate_op31_read_state1     |    and   |      0|  0|   2|           1|           1|
    |ap_predicate_op38_write_state2    |    and   |      0|  0|   2|           1|           1|
    |ap_predicate_op40_write_state2    |    and   |      0|  0|   2|           1|           1|
    |ap_predicate_op42_write_state2    |    and   |      0|  0|   2|           1|           1|
    |ap_predicate_op58_write_state3    |    and   |      0|  0|   2|           1|           1|
    |ap_predicate_op62_write_state3    |    and   |      0|  0|   2|           1|           1|
    |ap_predicate_op66_write_state3    |    and   |      0|  0|   2|           1|           1|
    |ap_predicate_op8_read_state1      |    and   |      0|  0|   2|           1|           1|
    |io_acc_block_signal_op16          |    and   |      0|  0|   2|           1|           1|
    |io_acc_block_signal_op24          |    and   |      0|  0|   2|           1|           1|
    |io_acc_block_signal_op8           |    and   |      0|  0|   2|           1|           1|
    |tmp_nbreadreq_fu_154_p3           |    and   |      0|  0|   2|           1|           0|
    |icmp_ln2004_fu_239_p2             |   icmp   |      0|  0|   8|           2|           1|
    |icmp_ln2008_fu_245_p2             |   icmp   |      0|  0|   8|           2|           1|
    |ap_block_pp0_stage0_01001         |    or    |      0|  0|   2|           1|           1|
    |ap_block_pp0_stage0_11001         |    or    |      0|  0|   2|           1|           1|
    |ap_block_state1_pp0_stage0_iter0  |    or    |      0|  0|   2|           1|           1|
    |ap_block_state2_io                |    or    |      0|  0|   2|           1|           1|
    |ap_block_state3_io                |    or    |      0|  0|   2|           1|           1|
    |or_ln2004_fu_259_p2               |    or    |      0|  0|   2|           1|           1|
    |select_ln2004_1_fu_265_p3         |  select  |      0|  0|   2|           1|           2|
    |select_ln2004_fu_251_p3           |  select  |      0|  0|   3|           1|           1|
    |ap_enable_pp0                     |    xor   |      0|  0|   2|           1|           2|
    +----------------------------------+----------+-------+---+----+------------+------------+
    |Total                             |          |      0|  0|  65|          28|          27|
    +----------------------------------+----------+-------+---+----+------------+------------+

    * Multiplexer: 
    +-----------------------------------+----+-----------+-----+-----------+
    |                Name               | LUT| Input Size| Bits| Total Bits|
    +-----------------------------------+----+-----------+-----+-----------+
    |ap_done                            |   9|          2|    1|          2|
    |m_axis_mem_write_data_TDATA_blk_n  |   9|          2|    1|          2|
    |m_axis_mem_write_data_TDATA_int    |  21|          4|   64|        256|
    |m_axis_mem_write_data_TDEST_int    |  21|          4|    1|          4|
    |m_axis_mem_write_data_TKEEP_int    |  21|          4|    8|         32|
    |m_axis_mem_write_data_TLAST_int    |  21|          4|    1|          4|
    |rx_aethSift2mergerFi_3_blk_n       |   9|          2|    1|          2|
    |rx_aethSift2mergerFi_5_blk_n       |   9|          2|    1|          2|
    |rx_aethSift2mergerFi_6_blk_n       |   9|          2|    1|          2|
    |rx_exhNoShiftFifo_V_1_blk_n        |   9|          2|    1|          2|
    |rx_exhNoShiftFifo_V_3_blk_n        |   9|          2|    1|          2|
    |rx_exhNoShiftFifo_V_4_blk_n        |   9|          2|    1|          2|
    |rx_exhNoShiftFifo_V_s_blk_n        |   9|          2|    1|          2|
    |rx_pkgShiftTypeFifo_s_8_blk_n      |   9|          2|    1|          2|
    |rx_rethSift2mergerFi_4_blk_n       |   9|          2|    1|          2|
    |rx_rethSift2mergerFi_6_blk_n       |   9|          2|    1|          2|
    |rx_rethSift2mergerFi_7_blk_n       |   9|          2|    1|          2|
    |rx_rethSift2mergerFi_8_blk_n       |   9|          2|    1|          2|
    |state_3                            |   9|          2|    2|          4|
    +-----------------------------------+----+-----------+-----+-----------+
    |Total                              | 219|         46|   90|        328|
    +-----------------------------------+----+-----------+-----+-----------+

    * Register: 
    +------------------------------------+----+----+-----+-----------+
    |                Name                | FF | LUT| Bits| Const Bits|
    +------------------------------------+----+----+-----+-----------+
    |ap_CS_fsm                           |   1|   0|    1|          0|
    |ap_done_reg                         |   1|   0|    1|          0|
    |ap_enable_reg_pp0_iter1             |   1|   0|    1|          0|
    |ap_enable_reg_pp0_iter2             |   1|   0|    1|          0|
    |state_3                             |   2|   0|    2|          0|
    |state_3_load_reg_279                |   2|   0|    2|          0|
    |state_3_load_reg_279_pp0_iter1_reg  |   2|   0|    2|          0|
    |tmp_72_reg_331                      |   1|   0|    1|          0|
    |tmp_72_reg_331_pp0_iter1_reg        |   1|   0|    1|          0|
    |tmp_73_reg_307                      |   1|   0|    1|          0|
    |tmp_73_reg_307_pp0_iter1_reg        |   1|   0|    1|          0|
    |tmp_74_reg_283                      |   1|   0|    1|          0|
    |tmp_74_reg_283_pp0_iter1_reg        |   1|   0|    1|          0|
    |tmp_data_V_22_reg_311               |  64|   0|   64|          0|
    |tmp_data_V_23_reg_287               |  64|   0|   64|          0|
    |tmp_data_V_reg_335                  |  64|   0|   64|          0|
    |tmp_dest_V_1_reg_302                |   1|   0|    1|          0|
    |tmp_dest_V_reg_326                  |   1|   0|    1|          0|
    |tmp_keep_V_20_reg_316               |   8|   0|    8|          0|
    |tmp_keep_V_21_reg_292               |   8|   0|    8|          0|
    |tmp_keep_V_reg_340                  |   8|   0|    8|          0|
    |tmp_last_V_21_reg_321               |   1|   0|    1|          0|
    |tmp_last_V_22_reg_297               |   1|   0|    1|          0|
    |tmp_last_V_reg_345                  |   1|   0|    1|          0|
    +------------------------------------+----+----+-----+-----------+
    |Total                               | 237|   0|  237|          0|
    +------------------------------------+----+----+-----+-----------+



================================================================
== Interface
================================================================
* Summary: 
+---------------------------------+-----+-----+------------+--------------------------------+--------------+
|            RTL Ports            | Dir | Bits|  Protocol  |          Source Object         |    C Type    |
+---------------------------------+-----+-----+------------+--------------------------------+--------------+
|ap_clk                           |  in |    1| ap_ctrl_hs |        merge_rx_pkgs<64>       | return value |
|ap_rst                           |  in |    1| ap_ctrl_hs |        merge_rx_pkgs<64>       | return value |
|ap_start                         |  in |    1| ap_ctrl_hs |        merge_rx_pkgs<64>       | return value |
|ap_done                          | out |    1| ap_ctrl_hs |        merge_rx_pkgs<64>       | return value |
|ap_continue                      |  in |    1| ap_ctrl_hs |        merge_rx_pkgs<64>       | return value |
|ap_idle                          | out |    1| ap_ctrl_hs |        merge_rx_pkgs<64>       | return value |
|ap_ready                         | out |    1| ap_ctrl_hs |        merge_rx_pkgs<64>       | return value |
|rx_exhNoShiftFifo_V_1_dout       |  in |   64|   ap_fifo  |      rx_exhNoShiftFifo_V_1     |    pointer   |
|rx_exhNoShiftFifo_V_1_empty_n    |  in |    1|   ap_fifo  |      rx_exhNoShiftFifo_V_1     |    pointer   |
|rx_exhNoShiftFifo_V_1_read       | out |    1|   ap_fifo  |      rx_exhNoShiftFifo_V_1     |    pointer   |
|rx_exhNoShiftFifo_V_4_dout       |  in |    8|   ap_fifo  |      rx_exhNoShiftFifo_V_4     |    pointer   |
|rx_exhNoShiftFifo_V_4_empty_n    |  in |    1|   ap_fifo  |      rx_exhNoShiftFifo_V_4     |    pointer   |
|rx_exhNoShiftFifo_V_4_read       | out |    1|   ap_fifo  |      rx_exhNoShiftFifo_V_4     |    pointer   |
|rx_exhNoShiftFifo_V_s_dout       |  in |    1|   ap_fifo  |      rx_exhNoShiftFifo_V_s     |    pointer   |
|rx_exhNoShiftFifo_V_s_empty_n    |  in |    1|   ap_fifo  |      rx_exhNoShiftFifo_V_s     |    pointer   |
|rx_exhNoShiftFifo_V_s_read       | out |    1|   ap_fifo  |      rx_exhNoShiftFifo_V_s     |    pointer   |
|rx_exhNoShiftFifo_V_3_dout       |  in |    1|   ap_fifo  |      rx_exhNoShiftFifo_V_3     |    pointer   |
|rx_exhNoShiftFifo_V_3_empty_n    |  in |    1|   ap_fifo  |      rx_exhNoShiftFifo_V_3     |    pointer   |
|rx_exhNoShiftFifo_V_3_read       | out |    1|   ap_fifo  |      rx_exhNoShiftFifo_V_3     |    pointer   |
|rx_rethSift2mergerFi_8_dout      |  in |   64|   ap_fifo  |     rx_rethSift2mergerFi_8     |    pointer   |
|rx_rethSift2mergerFi_8_empty_n   |  in |    1|   ap_fifo  |     rx_rethSift2mergerFi_8     |    pointer   |
|rx_rethSift2mergerFi_8_read      | out |    1|   ap_fifo  |     rx_rethSift2mergerFi_8     |    pointer   |
|rx_rethSift2mergerFi_6_dout      |  in |    8|   ap_fifo  |     rx_rethSift2mergerFi_6     |    pointer   |
|rx_rethSift2mergerFi_6_empty_n   |  in |    1|   ap_fifo  |     rx_rethSift2mergerFi_6     |    pointer   |
|rx_rethSift2mergerFi_6_read      | out |    1|   ap_fifo  |     rx_rethSift2mergerFi_6     |    pointer   |
|rx_rethSift2mergerFi_7_dout      |  in |    1|   ap_fifo  |     rx_rethSift2mergerFi_7     |    pointer   |
|rx_rethSift2mergerFi_7_empty_n   |  in |    1|   ap_fifo  |     rx_rethSift2mergerFi_7     |    pointer   |
|rx_rethSift2mergerFi_7_read      | out |    1|   ap_fifo  |     rx_rethSift2mergerFi_7     |    pointer   |
|rx_rethSift2mergerFi_4_dout      |  in |    1|   ap_fifo  |     rx_rethSift2mergerFi_4     |    pointer   |
|rx_rethSift2mergerFi_4_empty_n   |  in |    1|   ap_fifo  |     rx_rethSift2mergerFi_4     |    pointer   |
|rx_rethSift2mergerFi_4_read      | out |    1|   ap_fifo  |     rx_rethSift2mergerFi_4     |    pointer   |
|rx_aethSift2mergerFi_3_dout      |  in |   64|   ap_fifo  |     rx_aethSift2mergerFi_3     |    pointer   |
|rx_aethSift2mergerFi_3_empty_n   |  in |    1|   ap_fifo  |     rx_aethSift2mergerFi_3     |    pointer   |
|rx_aethSift2mergerFi_3_read      | out |    1|   ap_fifo  |     rx_aethSift2mergerFi_3     |    pointer   |
|rx_aethSift2mergerFi_5_dout      |  in |    8|   ap_fifo  |     rx_aethSift2mergerFi_5     |    pointer   |
|rx_aethSift2mergerFi_5_empty_n   |  in |    1|   ap_fifo  |     rx_aethSift2mergerFi_5     |    pointer   |
|rx_aethSift2mergerFi_5_read      | out |    1|   ap_fifo  |     rx_aethSift2mergerFi_5     |    pointer   |
|rx_aethSift2mergerFi_6_dout      |  in |    1|   ap_fifo  |     rx_aethSift2mergerFi_6     |    pointer   |
|rx_aethSift2mergerFi_6_empty_n   |  in |    1|   ap_fifo  |     rx_aethSift2mergerFi_6     |    pointer   |
|rx_aethSift2mergerFi_6_read      | out |    1|   ap_fifo  |     rx_aethSift2mergerFi_6     |    pointer   |
|rx_pkgShiftTypeFifo_s_8_dout     |  in |    2|   ap_fifo  |     rx_pkgShiftTypeFifo_s_8    |    pointer   |
|rx_pkgShiftTypeFifo_s_8_empty_n  |  in |    1|   ap_fifo  |     rx_pkgShiftTypeFifo_s_8    |    pointer   |
|rx_pkgShiftTypeFifo_s_8_read     | out |    1|   ap_fifo  |     rx_pkgShiftTypeFifo_s_8    |    pointer   |
|m_axis_mem_write_data_TREADY     |  in |    1|    axis    | m_axis_mem_write_data_V_dest_V |    pointer   |
|m_axis_mem_write_data_TVALID     | out |    1|    axis    | m_axis_mem_write_data_V_dest_V |    pointer   |
|m_axis_mem_write_data_TDEST      | out |    1|    axis    | m_axis_mem_write_data_V_dest_V |    pointer   |
|m_axis_mem_write_data_TDATA      | out |   64|    axis    | m_axis_mem_write_data_V_data_V |    pointer   |
|m_axis_mem_write_data_TKEEP      | out |    8|    axis    | m_axis_mem_write_data_V_keep_V |    pointer   |
|m_axis_mem_write_data_TLAST      | out |    1|    axis    | m_axis_mem_write_data_V_last_V |    pointer   |
+---------------------------------+-----+-----+------------+--------------------------------+--------------+

============================================================
+ Verbose Summary: Synthesis Manager
============================================================
InlineROM: 1
ExposeGlobal: 0
============================================================
+ Verbose Summary: CDFG Model
============================================================
IsTopModel: 0
ResetActiveHigh: 1
IsCombinational: 2
IsDatapathOnly: 0
HasWiredReturn: 1
HasMFsm: 2
HasVarLatency: 0
IsPipeline: 1
IsRtlPipelined: 1
IsInstanceOverlapped: 0
IsDontTouch: 0
HasImplIP: 0
IsGatedGlobalClock: 0

+ Individual pipeline summary: 
  * Pipeline-0: initiation interval (II) = 1, depth = 3


============================================================
+ Verbose Summary: Schedule
============================================================
* Number of FSM states : 3
* Pipeline : 1
  Pipeline-0 : II = 1, D = 3, States = { 1 2 3 }
* Dataflow Pipeline: 0

* FSM state transitions: 
1 --> 2 
2 --> 3 
3 --> 

* FSM state operations: 

State 1 <SV = 0> <Delay = 4.21>
ST_1 : Operation 4 [1/1] (0.00ns)   --->   "%state_3_load = load i2* @state_3, align 1" [/home/paulrr2/Projects/ece527/babelsoc/fpga-network-stack/hls/rocev2/../ib_transport_protocol/ib_transport_protocol.cpp:1998]   --->   Operation 4 'load' 'state_3_load' <Predicate = true> <Delay = 0.00>
ST_1 : Operation 5 [1/1] (0.87ns)   --->   "switch i2 %state_3_load, label %"merge_rx_pkgs<64>.exit" [
    i2 0, label %0
    i2 1, label %1
    i2 -2, label %4
    i2 -1, label %7
  ]" [/home/paulrr2/Projects/ece527/babelsoc/fpga-network-stack/hls/rocev2/../ib_transport_protocol/ib_transport_protocol.cpp:1998]   --->   Operation 5 'switch' <Predicate = true> <Delay = 0.87>
ST_1 : Operation 6 [1/1] (0.00ns)   --->   "%tmp_74 = call i1 @_ssdm_op_NbReadReq.ap_fifo.i64P.i8P.i1P.i1P(i64* @rx_exhNoShiftFifo_V_1, i8* @rx_exhNoShiftFifo_V_4, i1* @rx_exhNoShiftFifo_V_s, i1* @rx_exhNoShiftFifo_V_3, i32 1)" [/home/paulrr2/Projects/ece527/babelsoc/fpga-network-stack/hls/rocev2/../ib_transport_protocol/ib_transport_protocol.cpp:2043]   --->   Operation 6 'nbreadreq' 'tmp_74' <Predicate = (state_3_load == 3)> <Delay = 0.00> <Core = "FIFO">   --->   Core 32 'FIFO' <Latency = 0> <II = 1> <Delay = 2.39> <Storage> <Opcode : 'read' 'write' 'nbread' 'nbwrite'> <Ports = 0> <Width = 64> <Depth = 2> <FIFO>
ST_1 : Operation 7 [1/1] (0.00ns)   --->   "br i1 %tmp_74, label %8, label %._crit_edge7.i" [/home/paulrr2/Projects/ece527/babelsoc/fpga-network-stack/hls/rocev2/../ib_transport_protocol/ib_transport_protocol.cpp:2043]   --->   Operation 7 'br' <Predicate = (state_3_load == 3)> <Delay = 0.00>
ST_1 : Operation 8 [1/1] (2.39ns)   --->   "%empty_407 = call { i64, i8, i1, i1 } @_ssdm_op_Read.ap_fifo.volatile.i64P.i8P.i1P.i1P(i64* @rx_exhNoShiftFifo_V_1, i8* @rx_exhNoShiftFifo_V_4, i1* @rx_exhNoShiftFifo_V_s, i1* @rx_exhNoShiftFifo_V_3)" [/home/paulrr2/Projects/ece527/babelsoc/fpga-network-stack/hls/rocev2/../ib_transport_protocol/ib_transport_protocol.cpp:2046]   --->   Operation 8 'read' 'empty_407' <Predicate = (state_3_load == 3 & tmp_74)> <Delay = 2.39> <Core = "FIFO">   --->   Core 32 'FIFO' <Latency = 0> <II = 1> <Delay = 2.39> <Storage> <Opcode : 'read' 'write' 'nbread' 'nbwrite'> <Ports = 0> <Width = 64> <Depth = 2> <FIFO>
ST_1 : Operation 9 [1/1] (0.00ns)   --->   "%tmp_data_V_23 = extractvalue { i64, i8, i1, i1 } %empty_407, 0" [/home/paulrr2/Projects/ece527/babelsoc/fpga-network-stack/hls/rocev2/../ib_transport_protocol/ib_transport_protocol.cpp:2046]   --->   Operation 9 'extractvalue' 'tmp_data_V_23' <Predicate = (state_3_load == 3 & tmp_74)> <Delay = 0.00>
ST_1 : Operation 10 [1/1] (0.00ns)   --->   "%tmp_keep_V_21 = extractvalue { i64, i8, i1, i1 } %empty_407, 1" [/home/paulrr2/Projects/ece527/babelsoc/fpga-network-stack/hls/rocev2/../ib_transport_protocol/ib_transport_protocol.cpp:2046]   --->   Operation 10 'extractvalue' 'tmp_keep_V_21' <Predicate = (state_3_load == 3 & tmp_74)> <Delay = 0.00>
ST_1 : Operation 11 [1/1] (0.00ns)   --->   "%tmp_last_V_22 = extractvalue { i64, i8, i1, i1 } %empty_407, 2" [/home/paulrr2/Projects/ece527/babelsoc/fpga-network-stack/hls/rocev2/../ib_transport_protocol/ib_transport_protocol.cpp:2046]   --->   Operation 11 'extractvalue' 'tmp_last_V_22' <Predicate = (state_3_load == 3 & tmp_74)> <Delay = 0.00>
ST_1 : Operation 12 [1/1] (0.00ns)   --->   "%tmp_dest_V_1 = extractvalue { i64, i8, i1, i1 } %empty_407, 3" [/home/paulrr2/Projects/ece527/babelsoc/fpga-network-stack/hls/rocev2/../ib_transport_protocol/ib_transport_protocol.cpp:2046]   --->   Operation 12 'extractvalue' 'tmp_dest_V_1' <Predicate = (state_3_load == 3 & tmp_74)> <Delay = 0.00>
ST_1 : Operation 13 [1/1] (0.85ns)   --->   "store i2 0, i2* @state_3, align 1" [/home/paulrr2/Projects/ece527/babelsoc/fpga-network-stack/hls/rocev2/../ib_transport_protocol/ib_transport_protocol.cpp:2050]   --->   Operation 13 'store' <Predicate = (state_3_load == 3 & tmp_74 & tmp_last_V_22)> <Delay = 0.85>
ST_1 : Operation 14 [1/1] (0.00ns)   --->   "%tmp_73 = call i1 @_ssdm_op_NbReadReq.ap_fifo.i64P.i8P.i1P.i1P(i64* @rx_rethSift2mergerFi_8, i8* @rx_rethSift2mergerFi_6, i1* @rx_rethSift2mergerFi_7, i1* @rx_rethSift2mergerFi_4, i32 1)" [/home/paulrr2/Projects/ece527/babelsoc/fpga-network-stack/hls/rocev2/../ib_transport_protocol/ib_transport_protocol.cpp:2031]   --->   Operation 14 'nbreadreq' 'tmp_73' <Predicate = (state_3_load == 2)> <Delay = 0.00> <Core = "FIFO">   --->   Core 32 'FIFO' <Latency = 0> <II = 1> <Delay = 2.39> <Storage> <Opcode : 'read' 'write' 'nbread' 'nbwrite'> <Ports = 0> <Width = 64> <Depth = 2> <FIFO>
ST_1 : Operation 15 [1/1] (0.00ns)   --->   "br i1 %tmp_73, label %5, label %._crit_edge5.i" [/home/paulrr2/Projects/ece527/babelsoc/fpga-network-stack/hls/rocev2/../ib_transport_protocol/ib_transport_protocol.cpp:2031]   --->   Operation 15 'br' <Predicate = (state_3_load == 2)> <Delay = 0.00>
ST_1 : Operation 16 [1/1] (2.39ns)   --->   "%empty_406 = call { i64, i8, i1, i1 } @_ssdm_op_Read.ap_fifo.volatile.i64P.i8P.i1P.i1P(i64* @rx_rethSift2mergerFi_8, i8* @rx_rethSift2mergerFi_6, i1* @rx_rethSift2mergerFi_7, i1* @rx_rethSift2mergerFi_4)" [/home/paulrr2/Projects/ece527/babelsoc/fpga-network-stack/hls/rocev2/../ib_transport_protocol/ib_transport_protocol.cpp:2034]   --->   Operation 16 'read' 'empty_406' <Predicate = (state_3_load == 2 & tmp_73)> <Delay = 2.39> <Core = "FIFO">   --->   Core 32 'FIFO' <Latency = 0> <II = 1> <Delay = 2.39> <Storage> <Opcode : 'read' 'write' 'nbread' 'nbwrite'> <Ports = 0> <Width = 64> <Depth = 2> <FIFO>
ST_1 : Operation 17 [1/1] (0.00ns)   --->   "%tmp_data_V_22 = extractvalue { i64, i8, i1, i1 } %empty_406, 0" [/home/paulrr2/Projects/ece527/babelsoc/fpga-network-stack/hls/rocev2/../ib_transport_protocol/ib_transport_protocol.cpp:2034]   --->   Operation 17 'extractvalue' 'tmp_data_V_22' <Predicate = (state_3_load == 2 & tmp_73)> <Delay = 0.00>
ST_1 : Operation 18 [1/1] (0.00ns)   --->   "%tmp_keep_V_20 = extractvalue { i64, i8, i1, i1 } %empty_406, 1" [/home/paulrr2/Projects/ece527/babelsoc/fpga-network-stack/hls/rocev2/../ib_transport_protocol/ib_transport_protocol.cpp:2034]   --->   Operation 18 'extractvalue' 'tmp_keep_V_20' <Predicate = (state_3_load == 2 & tmp_73)> <Delay = 0.00>
ST_1 : Operation 19 [1/1] (0.00ns)   --->   "%tmp_last_V_21 = extractvalue { i64, i8, i1, i1 } %empty_406, 2" [/home/paulrr2/Projects/ece527/babelsoc/fpga-network-stack/hls/rocev2/../ib_transport_protocol/ib_transport_protocol.cpp:2034]   --->   Operation 19 'extractvalue' 'tmp_last_V_21' <Predicate = (state_3_load == 2 & tmp_73)> <Delay = 0.00>
ST_1 : Operation 20 [1/1] (0.00ns)   --->   "%tmp_dest_V = extractvalue { i64, i8, i1, i1 } %empty_406, 3" [/home/paulrr2/Projects/ece527/babelsoc/fpga-network-stack/hls/rocev2/../ib_transport_protocol/ib_transport_protocol.cpp:2034]   --->   Operation 20 'extractvalue' 'tmp_dest_V' <Predicate = (state_3_load == 2 & tmp_73)> <Delay = 0.00>
ST_1 : Operation 21 [1/1] (0.85ns)   --->   "store i2 0, i2* @state_3, align 1" [/home/paulrr2/Projects/ece527/babelsoc/fpga-network-stack/hls/rocev2/../ib_transport_protocol/ib_transport_protocol.cpp:2038]   --->   Operation 21 'store' <Predicate = (state_3_load == 2 & tmp_73 & tmp_last_V_21)> <Delay = 0.85>
ST_1 : Operation 22 [1/1] (0.00ns)   --->   "%tmp_72 = call i1 @_ssdm_op_NbReadReq.ap_fifo.i64P.i8P.i1P(i64* @rx_aethSift2mergerFi_3, i8* @rx_aethSift2mergerFi_5, i1* @rx_aethSift2mergerFi_6, i32 1)" [/home/paulrr2/Projects/ece527/babelsoc/fpga-network-stack/hls/rocev2/../ib_transport_protocol/ib_transport_protocol.cpp:2019]   --->   Operation 22 'nbreadreq' 'tmp_72' <Predicate = (state_3_load == 1)> <Delay = 0.00> <Core = "FIFO">   --->   Core 32 'FIFO' <Latency = 0> <II = 1> <Delay = 2.39> <Storage> <Opcode : 'read' 'write' 'nbread' 'nbwrite'> <Ports = 0> <Width = 64> <Depth = 2> <FIFO>
ST_1 : Operation 23 [1/1] (0.00ns)   --->   "br i1 %tmp_72, label %2, label %._crit_edge3.i" [/home/paulrr2/Projects/ece527/babelsoc/fpga-network-stack/hls/rocev2/../ib_transport_protocol/ib_transport_protocol.cpp:2019]   --->   Operation 23 'br' <Predicate = (state_3_load == 1)> <Delay = 0.00>
ST_1 : Operation 24 [1/1] (2.39ns)   --->   "%empty = call { i64, i8, i1 } @_ssdm_op_Read.ap_fifo.volatile.i64P.i8P.i1P(i64* @rx_aethSift2mergerFi_3, i8* @rx_aethSift2mergerFi_5, i1* @rx_aethSift2mergerFi_6)" [/home/paulrr2/Projects/ece527/babelsoc/fpga-network-stack/hls/rocev2/../ib_transport_protocol/ib_transport_protocol.cpp:2022]   --->   Operation 24 'read' 'empty' <Predicate = (state_3_load == 1 & tmp_72)> <Delay = 2.39> <Core = "FIFO">   --->   Core 32 'FIFO' <Latency = 0> <II = 1> <Delay = 2.39> <Storage> <Opcode : 'read' 'write' 'nbread' 'nbwrite'> <Ports = 0> <Width = 64> <Depth = 2> <FIFO>
ST_1 : Operation 25 [1/1] (0.00ns)   --->   "%tmp_data_V = extractvalue { i64, i8, i1 } %empty, 0" [/home/paulrr2/Projects/ece527/babelsoc/fpga-network-stack/hls/rocev2/../ib_transport_protocol/ib_transport_protocol.cpp:2022]   --->   Operation 25 'extractvalue' 'tmp_data_V' <Predicate = (state_3_load == 1 & tmp_72)> <Delay = 0.00>
ST_1 : Operation 26 [1/1] (0.00ns)   --->   "%tmp_keep_V = extractvalue { i64, i8, i1 } %empty, 1" [/home/paulrr2/Projects/ece527/babelsoc/fpga-network-stack/hls/rocev2/../ib_transport_protocol/ib_transport_protocol.cpp:2022]   --->   Operation 26 'extractvalue' 'tmp_keep_V' <Predicate = (state_3_load == 1 & tmp_72)> <Delay = 0.00>
ST_1 : Operation 27 [1/1] (0.00ns)   --->   "%tmp_last_V = extractvalue { i64, i8, i1 } %empty, 2" [/home/paulrr2/Projects/ece527/babelsoc/fpga-network-stack/hls/rocev2/../ib_transport_protocol/ib_transport_protocol.cpp:2022]   --->   Operation 27 'extractvalue' 'tmp_last_V' <Predicate = (state_3_load == 1 & tmp_72)> <Delay = 0.00>
ST_1 : Operation 28 [1/1] (0.85ns)   --->   "store i2 0, i2* @state_3, align 1" [/home/paulrr2/Projects/ece527/babelsoc/fpga-network-stack/hls/rocev2/../ib_transport_protocol/ib_transport_protocol.cpp:2026]   --->   Operation 28 'store' <Predicate = (state_3_load == 1 & tmp_72 & tmp_last_V)> <Delay = 0.85>
ST_1 : Operation 29 [1/1] (0.00ns)   --->   "%tmp = call i1 @_ssdm_op_NbReadReq.ap_fifo.i2P(i2* @rx_pkgShiftTypeFifo_s_8, i32 1)" [/home/paulrr2/Projects/ece527/babelsoc/fpga-network-stack/hls/rocev2/../ib_transport_protocol/ib_transport_protocol.cpp:2001]   --->   Operation 29 'nbreadreq' 'tmp' <Predicate = (state_3_load == 0)> <Delay = 0.00> <Core = "FIFO">   --->   Core 32 'FIFO' <Latency = 0> <II = 1> <Delay = 2.39> <Storage> <Opcode : 'read' 'write' 'nbread' 'nbwrite'> <Ports = 0> <Width = 64> <Depth = 2> <FIFO>
ST_1 : Operation 30 [1/1] (0.00ns)   --->   "br i1 %tmp, label %_ifconv, label %._crit_edge1.i" [/home/paulrr2/Projects/ece527/babelsoc/fpga-network-stack/hls/rocev2/../ib_transport_protocol/ib_transport_protocol.cpp:2001]   --->   Operation 30 'br' <Predicate = (state_3_load == 0)> <Delay = 0.00>
ST_1 : Operation 31 [1/1] (2.39ns)   --->   "%tmp_76 = call i2 @_ssdm_op_Read.ap_fifo.volatile.i2P(i2* @rx_pkgShiftTypeFifo_s_8)" [/home/paulrr2/Projects/ece527/babelsoc/fpga-network-stack/hls/rocev2/../ib_transport_protocol/ib_transport_protocol.cpp:2003]   --->   Operation 31 'read' 'tmp_76' <Predicate = (state_3_load == 0 & tmp)> <Delay = 2.39> <Core = "FIFO">   --->   Core 32 'FIFO' <Latency = 0> <II = 1> <Delay = 2.39> <Storage> <Opcode : 'read' 'write' 'nbread' 'nbwrite'> <Ports = 0> <Width = 64> <Depth = 2> <FIFO>
ST_1 : Operation 32 [1/1] (0.48ns)   --->   "%icmp_ln2004 = icmp eq i2 %tmp_76, 0" [/home/paulrr2/Projects/ece527/babelsoc/fpga-network-stack/hls/rocev2/../ib_transport_protocol/ib_transport_protocol.cpp:2004]   --->   Operation 32 'icmp' 'icmp_ln2004' <Predicate = (state_3_load == 0 & tmp)> <Delay = 0.48> <Core = "Cmp">   --->   Core 25 'Cmp' <Latency = 0> <II = 1> <Delay = 0.48> <FuncUnit> <Opcode : 'icmp'> <InPorts = 2> <OutPorts = 1>
ST_1 : Operation 33 [1/1] (0.48ns)   --->   "%icmp_ln2008 = icmp eq i2 %tmp_76, 1" [/home/paulrr2/Projects/ece527/babelsoc/fpga-network-stack/hls/rocev2/../ib_transport_protocol/ib_transport_protocol.cpp:2008]   --->   Operation 33 'icmp' 'icmp_ln2008' <Predicate = (state_3_load == 0 & tmp)> <Delay = 0.48> <Core = "Cmp">   --->   Core 25 'Cmp' <Latency = 0> <II = 1> <Delay = 0.48> <FuncUnit> <Opcode : 'icmp'> <InPorts = 2> <OutPorts = 1>
ST_1 : Operation 34 [1/1] (0.00ns) (grouped into LUT with out node select_ln2004_1)   --->   "%select_ln2004 = select i1 %icmp_ln2004, i2 1, i2 -2" [/home/paulrr2/Projects/ece527/babelsoc/fpga-network-stack/hls/rocev2/../ib_transport_protocol/ib_transport_protocol.cpp:2004]   --->   Operation 34 'select' 'select_ln2004' <Predicate = (state_3_load == 0 & tmp)> <Delay = 0.00> <Core = "Sel">   --->   Core 26 'Sel' <Latency = 0> <II = 1> <Delay = 0.51> <FuncUnit> <Opcode : 'select'> <InPorts = 3> <OutPorts = 1>
ST_1 : Operation 35 [1/1] (0.00ns) (grouped into LUT with out node select_ln2004_1)   --->   "%or_ln2004 = or i1 %icmp_ln2004, %icmp_ln2008" [/home/paulrr2/Projects/ece527/babelsoc/fpga-network-stack/hls/rocev2/../ib_transport_protocol/ib_transport_protocol.cpp:2004]   --->   Operation 35 'or' 'or_ln2004' <Predicate = (state_3_load == 0 & tmp)> <Delay = 0.00> <Core = "LogicGate">   --->   Core 27 'LogicGate' <Latency = 0> <II = 1> <Delay = 0.48> <FuncUnit> <Opcode : 'and' 'or' 'xor'> <InPorts = 2> <OutPorts = 1>
ST_1 : Operation 36 [1/1] (0.49ns) (out node of the LUT)   --->   "%select_ln2004_1 = select i1 %or_ln2004, i2 %select_ln2004, i2 -1" [/home/paulrr2/Projects/ece527/babelsoc/fpga-network-stack/hls/rocev2/../ib_transport_protocol/ib_transport_protocol.cpp:2004]   --->   Operation 36 'select' 'select_ln2004_1' <Predicate = (state_3_load == 0 & tmp)> <Delay = 0.49> <Core = "Sel">   --->   Core 26 'Sel' <Latency = 0> <II = 1> <Delay = 0.51> <FuncUnit> <Opcode : 'select'> <InPorts = 3> <OutPorts = 1>
ST_1 : Operation 37 [1/1] (0.85ns)   --->   "store i2 %select_ln2004_1, i2* @state_3, align 1" [/home/paulrr2/Projects/ece527/babelsoc/fpga-network-stack/hls/rocev2/../ib_transport_protocol/ib_transport_protocol.cpp:2006]   --->   Operation 37 'store' <Predicate = (state_3_load == 0 & tmp)> <Delay = 0.85>

State 2 <SV = 1> <Delay = 0.00>
ST_2 : Operation 38 [2/2] (0.00ns)   --->   "call void @_ssdm_op_Write.axis.volatile.i64P.i8P.i1P.i1P(i64* %m_axis_mem_write_data_V_data_V, i8* %m_axis_mem_write_data_V_keep_V, i1* %m_axis_mem_write_data_V_last_V, i1* %m_axis_mem_write_data_V_dest_V, i64 %tmp_data_V_23, i8 %tmp_keep_V_21, i1 %tmp_last_V_22, i1 %tmp_dest_V_1)" [/home/paulrr2/Projects/ece527/babelsoc/fpga-network-stack/hls/rocev2/../ib_transport_protocol/ib_transport_protocol.cpp:2047]   --->   Operation 38 'write' <Predicate = (state_3_load == 3 & tmp_74)> <Delay = 0.00> <Core = "AXI4Stream">   --->   Core 5 'AXI4Stream' <Latency = 0> <II = 1> <Delay = 1.00> <Adapter> <Opcode : >
ST_2 : Operation 39 [1/1] (0.00ns)   --->   "br i1 %tmp_last_V_22, label %9, label %._crit_edge8.i" [/home/paulrr2/Projects/ece527/babelsoc/fpga-network-stack/hls/rocev2/../ib_transport_protocol/ib_transport_protocol.cpp:2048]   --->   Operation 39 'br' <Predicate = (state_3_load == 3 & tmp_74)> <Delay = 0.00>
ST_2 : Operation 40 [2/2] (0.00ns)   --->   "call void @_ssdm_op_Write.axis.volatile.i64P.i8P.i1P.i1P(i64* %m_axis_mem_write_data_V_data_V, i8* %m_axis_mem_write_data_V_keep_V, i1* %m_axis_mem_write_data_V_last_V, i1* %m_axis_mem_write_data_V_dest_V, i64 %tmp_data_V_22, i8 %tmp_keep_V_20, i1 %tmp_last_V_21, i1 %tmp_dest_V)" [/home/paulrr2/Projects/ece527/babelsoc/fpga-network-stack/hls/rocev2/../ib_transport_protocol/ib_transport_protocol.cpp:2035]   --->   Operation 40 'write' <Predicate = (state_3_load == 2 & tmp_73)> <Delay = 0.00> <Core = "AXI4Stream">   --->   Core 5 'AXI4Stream' <Latency = 0> <II = 1> <Delay = 1.00> <Adapter> <Opcode : >
ST_2 : Operation 41 [1/1] (0.00ns)   --->   "br i1 %tmp_last_V_21, label %6, label %._crit_edge6.i" [/home/paulrr2/Projects/ece527/babelsoc/fpga-network-stack/hls/rocev2/../ib_transport_protocol/ib_transport_protocol.cpp:2036]   --->   Operation 41 'br' <Predicate = (state_3_load == 2 & tmp_73)> <Delay = 0.00>
ST_2 : Operation 42 [2/2] (0.00ns)   --->   "call void @_ssdm_op_Write.axis.volatile.i64P.i8P.i1P.i1P(i64* %m_axis_mem_write_data_V_data_V, i8* %m_axis_mem_write_data_V_keep_V, i1* %m_axis_mem_write_data_V_last_V, i1* %m_axis_mem_write_data_V_dest_V, i64 %tmp_data_V, i8 %tmp_keep_V, i1 %tmp_last_V, i1 false)" [/home/paulrr2/Projects/ece527/babelsoc/fpga-network-stack/hls/rocev2/../ib_transport_protocol/ib_transport_protocol.cpp:2023]   --->   Operation 42 'write' <Predicate = (state_3_load == 1 & tmp_72)> <Delay = 0.00> <Core = "AXI4Stream">   --->   Core 5 'AXI4Stream' <Latency = 0> <II = 1> <Delay = 1.00> <Adapter> <Opcode : >
ST_2 : Operation 43 [1/1] (0.00ns)   --->   "br i1 %tmp_last_V, label %3, label %._crit_edge4.i" [/home/paulrr2/Projects/ece527/babelsoc/fpga-network-stack/hls/rocev2/../ib_transport_protocol/ib_transport_protocol.cpp:2024]   --->   Operation 43 'br' <Predicate = (state_3_load == 1 & tmp_72)> <Delay = 0.00>

State 3 <SV = 2> <Delay = 0.00>
ST_3 : Operation 44 [1/1] (0.00ns)   --->   "call void (...)* @_ssdm_op_SpecInterface(i64* @rx_aethSift2mergerFi_3, [8 x i8]* @ap_fifo_str, i32 0, i32 0, [1 x i8]* @p_str, i32 0, i32 0, [1 x i8]* @p_str, [1 x i8]* @p_str, [1 x i8]* @p_str, i32 2, i32 2, i32 16, i32 16, [1 x i8]* @p_str, [1 x i8]* @p_str)"   --->   Operation 44 'specinterface' <Predicate = true> <Delay = 0.00>
ST_3 : Operation 45 [1/1] (0.00ns)   --->   "call void (...)* @_ssdm_op_SpecInterface(i8* @rx_aethSift2mergerFi_5, [8 x i8]* @ap_fifo_str, i32 0, i32 0, [1 x i8]* @p_str, i32 0, i32 0, [1 x i8]* @p_str, [1 x i8]* @p_str, [1 x i8]* @p_str, i32 2, i32 2, i32 16, i32 16, [1 x i8]* @p_str, [1 x i8]* @p_str)"   --->   Operation 45 'specinterface' <Predicate = true> <Delay = 0.00>
ST_3 : Operation 46 [1/1] (0.00ns)   --->   "call void (...)* @_ssdm_op_SpecInterface(i1* @rx_aethSift2mergerFi_6, [8 x i8]* @ap_fifo_str, i32 0, i32 0, [1 x i8]* @p_str, i32 0, i32 0, [1 x i8]* @p_str, [1 x i8]* @p_str, [1 x i8]* @p_str, i32 2, i32 2, i32 16, i32 16, [1 x i8]* @p_str, [1 x i8]* @p_str)"   --->   Operation 46 'specinterface' <Predicate = true> <Delay = 0.00>
ST_3 : Operation 47 [1/1] (0.00ns)   --->   "call void (...)* @_ssdm_op_SpecInterface(i64* @rx_exhNoShiftFifo_V_1, [8 x i8]* @ap_fifo_str, i32 0, i32 0, [1 x i8]* @p_str, i32 0, i32 0, [1 x i8]* @p_str, [1 x i8]* @p_str, [1 x i8]* @p_str, i32 2, i32 2, i32 16, i32 16, [1 x i8]* @p_str, [1 x i8]* @p_str)"   --->   Operation 47 'specinterface' <Predicate = true> <Delay = 0.00>
ST_3 : Operation 48 [1/1] (0.00ns)   --->   "call void (...)* @_ssdm_op_SpecInterface(i1* @rx_exhNoShiftFifo_V_3, [8 x i8]* @ap_fifo_str, i32 0, i32 0, [1 x i8]* @p_str, i32 0, i32 0, [1 x i8]* @p_str, [1 x i8]* @p_str, [1 x i8]* @p_str, i32 2, i32 2, i32 16, i32 16, [1 x i8]* @p_str, [1 x i8]* @p_str)"   --->   Operation 48 'specinterface' <Predicate = true> <Delay = 0.00>
ST_3 : Operation 49 [1/1] (0.00ns)   --->   "call void (...)* @_ssdm_op_SpecInterface(i8* @rx_exhNoShiftFifo_V_4, [8 x i8]* @ap_fifo_str, i32 0, i32 0, [1 x i8]* @p_str, i32 0, i32 0, [1 x i8]* @p_str, [1 x i8]* @p_str, [1 x i8]* @p_str, i32 2, i32 2, i32 16, i32 16, [1 x i8]* @p_str, [1 x i8]* @p_str)"   --->   Operation 49 'specinterface' <Predicate = true> <Delay = 0.00>
ST_3 : Operation 50 [1/1] (0.00ns)   --->   "call void (...)* @_ssdm_op_SpecInterface(i1* @rx_exhNoShiftFifo_V_s, [8 x i8]* @ap_fifo_str, i32 0, i32 0, [1 x i8]* @p_str, i32 0, i32 0, [1 x i8]* @p_str, [1 x i8]* @p_str, [1 x i8]* @p_str, i32 2, i32 2, i32 16, i32 16, [1 x i8]* @p_str, [1 x i8]* @p_str)"   --->   Operation 50 'specinterface' <Predicate = true> <Delay = 0.00>
ST_3 : Operation 51 [1/1] (0.00ns)   --->   "call void (...)* @_ssdm_op_SpecInterface(i2* @rx_pkgShiftTypeFifo_s_8, [8 x i8]* @ap_fifo_str, i32 0, i32 0, [1 x i8]* @p_str, i32 0, i32 0, [1 x i8]* @p_str, [1 x i8]* @p_str, [1 x i8]* @p_str, i32 2, i32 2, i32 16, i32 16, [1 x i8]* @p_str, [1 x i8]* @p_str)"   --->   Operation 51 'specinterface' <Predicate = true> <Delay = 0.00>
ST_3 : Operation 52 [1/1] (0.00ns)   --->   "call void (...)* @_ssdm_op_SpecInterface(i64* @rx_rethSift2mergerFi_8, [8 x i8]* @ap_fifo_str, i32 0, i32 0, [1 x i8]* @p_str, i32 0, i32 0, [1 x i8]* @p_str, [1 x i8]* @p_str, [1 x i8]* @p_str, i32 2, i32 2, i32 16, i32 16, [1 x i8]* @p_str, [1 x i8]* @p_str)"   --->   Operation 52 'specinterface' <Predicate = true> <Delay = 0.00>
ST_3 : Operation 53 [1/1] (0.00ns)   --->   "call void (...)* @_ssdm_op_SpecInterface(i1* @rx_rethSift2mergerFi_4, [8 x i8]* @ap_fifo_str, i32 0, i32 0, [1 x i8]* @p_str, i32 0, i32 0, [1 x i8]* @p_str, [1 x i8]* @p_str, [1 x i8]* @p_str, i32 2, i32 2, i32 16, i32 16, [1 x i8]* @p_str, [1 x i8]* @p_str)"   --->   Operation 53 'specinterface' <Predicate = true> <Delay = 0.00>
ST_3 : Operation 54 [1/1] (0.00ns)   --->   "call void (...)* @_ssdm_op_SpecInterface(i8* @rx_rethSift2mergerFi_6, [8 x i8]* @ap_fifo_str, i32 0, i32 0, [1 x i8]* @p_str, i32 0, i32 0, [1 x i8]* @p_str, [1 x i8]* @p_str, [1 x i8]* @p_str, i32 2, i32 2, i32 16, i32 16, [1 x i8]* @p_str, [1 x i8]* @p_str)"   --->   Operation 54 'specinterface' <Predicate = true> <Delay = 0.00>
ST_3 : Operation 55 [1/1] (0.00ns)   --->   "call void (...)* @_ssdm_op_SpecInterface(i1* @rx_rethSift2mergerFi_7, [8 x i8]* @ap_fifo_str, i32 0, i32 0, [1 x i8]* @p_str, i32 0, i32 0, [1 x i8]* @p_str, [1 x i8]* @p_str, [1 x i8]* @p_str, i32 2, i32 2, i32 16, i32 16, [1 x i8]* @p_str, [1 x i8]* @p_str)"   --->   Operation 55 'specinterface' <Predicate = true> <Delay = 0.00>
ST_3 : Operation 56 [1/1] (0.00ns)   --->   "call void (...)* @_ssdm_op_SpecInterface(i64* %m_axis_mem_write_data_V_data_V, i8* %m_axis_mem_write_data_V_keep_V, i1* %m_axis_mem_write_data_V_last_V, i1* %m_axis_mem_write_data_V_dest_V, [5 x i8]* @p_str3, i32 1, i32 1, [5 x i8]* @p_str4, i32 0, i32 0, [1 x i8]* @p_str, [1 x i8]* @p_str, [1 x i8]* @p_str, i32 0, i32 0, i32 0, i32 0, [1 x i8]* @p_str, [1 x i8]* @p_str) nounwind"   --->   Operation 56 'specinterface' <Predicate = true> <Delay = 0.00>
ST_3 : Operation 57 [1/1] (0.00ns)   --->   "call void (...)* @_ssdm_op_SpecPipeline(i32 1, i32 1, i32 1, i32 0, [1 x i8]* @p_str91) nounwind" [/home/paulrr2/Projects/ece527/babelsoc/fpga-network-stack/hls/rocev2/../ib_transport_protocol/ib_transport_protocol.cpp:1991]   --->   Operation 57 'specpipeline' <Predicate = true> <Delay = 0.00>
ST_3 : Operation 58 [1/2] (0.00ns)   --->   "call void @_ssdm_op_Write.axis.volatile.i64P.i8P.i1P.i1P(i64* %m_axis_mem_write_data_V_data_V, i8* %m_axis_mem_write_data_V_keep_V, i1* %m_axis_mem_write_data_V_last_V, i1* %m_axis_mem_write_data_V_dest_V, i64 %tmp_data_V_23, i8 %tmp_keep_V_21, i1 %tmp_last_V_22, i1 %tmp_dest_V_1)" [/home/paulrr2/Projects/ece527/babelsoc/fpga-network-stack/hls/rocev2/../ib_transport_protocol/ib_transport_protocol.cpp:2047]   --->   Operation 58 'write' <Predicate = (state_3_load == 3 & tmp_74)> <Delay = 0.00> <Core = "AXI4Stream">   --->   Core 5 'AXI4Stream' <Latency = 0> <II = 1> <Delay = 1.00> <Adapter> <Opcode : >
ST_3 : Operation 59 [1/1] (0.00ns)   --->   "br label %._crit_edge8.i" [/home/paulrr2/Projects/ece527/babelsoc/fpga-network-stack/hls/rocev2/../ib_transport_protocol/ib_transport_protocol.cpp:2051]   --->   Operation 59 'br' <Predicate = (state_3_load == 3 & tmp_74 & tmp_last_V_22)> <Delay = 0.00>
ST_3 : Operation 60 [1/1] (0.00ns)   --->   "br label %._crit_edge7.i" [/home/paulrr2/Projects/ece527/babelsoc/fpga-network-stack/hls/rocev2/../ib_transport_protocol/ib_transport_protocol.cpp:2052]   --->   Operation 60 'br' <Predicate = (state_3_load == 3 & tmp_74)> <Delay = 0.00>
ST_3 : Operation 61 [1/1] (0.00ns)   --->   "br label %"merge_rx_pkgs<64>.exit"" [/home/paulrr2/Projects/ece527/babelsoc/fpga-network-stack/hls/rocev2/../ib_transport_protocol/ib_transport_protocol.cpp:2053]   --->   Operation 61 'br' <Predicate = (state_3_load == 3)> <Delay = 0.00>
ST_3 : Operation 62 [1/2] (0.00ns)   --->   "call void @_ssdm_op_Write.axis.volatile.i64P.i8P.i1P.i1P(i64* %m_axis_mem_write_data_V_data_V, i8* %m_axis_mem_write_data_V_keep_V, i1* %m_axis_mem_write_data_V_last_V, i1* %m_axis_mem_write_data_V_dest_V, i64 %tmp_data_V_22, i8 %tmp_keep_V_20, i1 %tmp_last_V_21, i1 %tmp_dest_V)" [/home/paulrr2/Projects/ece527/babelsoc/fpga-network-stack/hls/rocev2/../ib_transport_protocol/ib_transport_protocol.cpp:2035]   --->   Operation 62 'write' <Predicate = (state_3_load == 2 & tmp_73)> <Delay = 0.00> <Core = "AXI4Stream">   --->   Core 5 'AXI4Stream' <Latency = 0> <II = 1> <Delay = 1.00> <Adapter> <Opcode : >
ST_3 : Operation 63 [1/1] (0.00ns)   --->   "br label %._crit_edge6.i" [/home/paulrr2/Projects/ece527/babelsoc/fpga-network-stack/hls/rocev2/../ib_transport_protocol/ib_transport_protocol.cpp:2039]   --->   Operation 63 'br' <Predicate = (state_3_load == 2 & tmp_73 & tmp_last_V_21)> <Delay = 0.00>
ST_3 : Operation 64 [1/1] (0.00ns)   --->   "br label %._crit_edge5.i" [/home/paulrr2/Projects/ece527/babelsoc/fpga-network-stack/hls/rocev2/../ib_transport_protocol/ib_transport_protocol.cpp:2040]   --->   Operation 64 'br' <Predicate = (state_3_load == 2 & tmp_73)> <Delay = 0.00>
ST_3 : Operation 65 [1/1] (0.00ns)   --->   "br label %"merge_rx_pkgs<64>.exit"" [/home/paulrr2/Projects/ece527/babelsoc/fpga-network-stack/hls/rocev2/../ib_transport_protocol/ib_transport_protocol.cpp:2041]   --->   Operation 65 'br' <Predicate = (state_3_load == 2)> <Delay = 0.00>
ST_3 : Operation 66 [1/2] (0.00ns)   --->   "call void @_ssdm_op_Write.axis.volatile.i64P.i8P.i1P.i1P(i64* %m_axis_mem_write_data_V_data_V, i8* %m_axis_mem_write_data_V_keep_V, i1* %m_axis_mem_write_data_V_last_V, i1* %m_axis_mem_write_data_V_dest_V, i64 %tmp_data_V, i8 %tmp_keep_V, i1 %tmp_last_V, i1 false)" [/home/paulrr2/Projects/ece527/babelsoc/fpga-network-stack/hls/rocev2/../ib_transport_protocol/ib_transport_protocol.cpp:2023]   --->   Operation 66 'write' <Predicate = (state_3_load == 1 & tmp_72)> <Delay = 0.00> <Core = "AXI4Stream">   --->   Core 5 'AXI4Stream' <Latency = 0> <II = 1> <Delay = 1.00> <Adapter> <Opcode : >
ST_3 : Operation 67 [1/1] (0.00ns)   --->   "br label %._crit_edge4.i" [/home/paulrr2/Projects/ece527/babelsoc/fpga-network-stack/hls/rocev2/../ib_transport_protocol/ib_transport_protocol.cpp:2027]   --->   Operation 67 'br' <Predicate = (state_3_load == 1 & tmp_72 & tmp_last_V)> <Delay = 0.00>
ST_3 : Operation 68 [1/1] (0.00ns)   --->   "br label %._crit_edge3.i" [/home/paulrr2/Projects/ece527/babelsoc/fpga-network-stack/hls/rocev2/../ib_transport_protocol/ib_transport_protocol.cpp:2028]   --->   Operation 68 'br' <Predicate = (state_3_load == 1 & tmp_72)> <Delay = 0.00>
ST_3 : Operation 69 [1/1] (0.00ns)   --->   "br label %"merge_rx_pkgs<64>.exit"" [/home/paulrr2/Projects/ece527/babelsoc/fpga-network-stack/hls/rocev2/../ib_transport_protocol/ib_transport_protocol.cpp:2029]   --->   Operation 69 'br' <Predicate = (state_3_load == 1)> <Delay = 0.00>
ST_3 : Operation 70 [1/1] (0.00ns)   --->   "br label %._crit_edge1.i" [/home/paulrr2/Projects/ece527/babelsoc/fpga-network-stack/hls/rocev2/../ib_transport_protocol/ib_transport_protocol.cpp:2016]   --->   Operation 70 'br' <Predicate = (state_3_load == 0 & tmp)> <Delay = 0.00>
ST_3 : Operation 71 [1/1] (0.00ns)   --->   "br label %"merge_rx_pkgs<64>.exit"" [/home/paulrr2/Projects/ece527/babelsoc/fpga-network-stack/hls/rocev2/../ib_transport_protocol/ib_transport_protocol.cpp:2017]   --->   Operation 71 'br' <Predicate = (state_3_load == 0)> <Delay = 0.00>
ST_3 : Operation 72 [1/1] (0.00ns)   --->   "ret void"   --->   Operation 72 'ret' <Predicate = true> <Delay = 0.00>


============================================================
+ Verbose Summary: Binding
============================================================
STG Binding: 
---------------- STG Properties BEGIN ----------------
- Is combinational: 0
- Is one-state seq: 0
- Is datapath-only: 0
- Is pipelined: 1
- Is top level: 0
Port [ Return ] is wired: 1; IO mode=ap_ctrl_hs:ce=0
Port [ m_axis_mem_write_data_V_data_V]:  wired=1; compound=1; hidden=0; nouse=0; global=0; static=0; extern=0; dir=1; type=0; pingpong=0; private_global=0; IO mode=axis:ce=0
Port [ m_axis_mem_write_data_V_keep_V]:  wired=1; compound=1; hidden=0; nouse=0; global=0; static=0; extern=0; dir=1; type=0; pingpong=0; private_global=0; IO mode=axis:ce=0
Port [ m_axis_mem_write_data_V_last_V]:  wired=1; compound=1; hidden=0; nouse=0; global=0; static=0; extern=0; dir=1; type=0; pingpong=0; private_global=0; IO mode=axis:ce=0
Port [ m_axis_mem_write_data_V_dest_V]:  wired=1; compound=1; hidden=0; nouse=0; global=0; static=0; extern=0; dir=1; type=0; pingpong=0; private_global=0; IO mode=axis:ce=0
Port [ state_3]:  wired=0; compound=0; hidden=1; nouse=0; global=1; static=1; extern=0; dir=2; type=0; pingpong=0; private_global=1; linkage=7; visibility=0; IO mode=ap_ovld:ce=0
Port [ rx_pkgShiftTypeFifo_s_8]:  wired=1; compound=1; hidden=0; nouse=0; global=1; static=1; extern=0; dir=0; type=3; pingpong=0; private_global=0; linkage=7; visibility=0; IO mode=ap_fifo:ce=0
Port [ rx_aethSift2mergerFi_3]:  wired=1; compound=1; hidden=0; nouse=0; global=1; static=1; extern=0; dir=0; type=3; pingpong=0; private_global=0; linkage=7; visibility=0; IO mode=ap_fifo:ce=0
Port [ rx_aethSift2mergerFi_5]:  wired=1; compound=1; hidden=0; nouse=0; global=1; static=1; extern=0; dir=0; type=3; pingpong=0; private_global=0; linkage=7; visibility=0; IO mode=ap_fifo:ce=0
Port [ rx_aethSift2mergerFi_6]:  wired=1; compound=1; hidden=0; nouse=0; global=1; static=1; extern=0; dir=0; type=3; pingpong=0; private_global=0; linkage=7; visibility=0; IO mode=ap_fifo:ce=0
Port [ rx_rethSift2mergerFi_8]:  wired=1; compound=1; hidden=0; nouse=0; global=1; static=1; extern=0; dir=0; type=3; pingpong=0; private_global=0; linkage=7; visibility=0; IO mode=ap_fifo:ce=0
Port [ rx_rethSift2mergerFi_6]:  wired=1; compound=1; hidden=0; nouse=0; global=1; static=1; extern=0; dir=0; type=3; pingpong=0; private_global=0; linkage=7; visibility=0; IO mode=ap_fifo:ce=0
Port [ rx_rethSift2mergerFi_7]:  wired=1; compound=1; hidden=0; nouse=0; global=1; static=1; extern=0; dir=0; type=3; pingpong=0; private_global=0; linkage=7; visibility=0; IO mode=ap_fifo:ce=0
Port [ rx_rethSift2mergerFi_4]:  wired=1; compound=1; hidden=0; nouse=0; global=1; static=1; extern=0; dir=0; type=3; pingpong=0; private_global=0; linkage=7; visibility=0; IO mode=ap_fifo:ce=0
Port [ rx_exhNoShiftFifo_V_1]:  wired=1; compound=1; hidden=0; nouse=0; global=1; static=1; extern=0; dir=0; type=3; pingpong=0; private_global=0; linkage=7; visibility=0; IO mode=ap_fifo:ce=0
Port [ rx_exhNoShiftFifo_V_4]:  wired=1; compound=1; hidden=0; nouse=0; global=1; static=1; extern=0; dir=0; type=3; pingpong=0; private_global=0; linkage=7; visibility=0; IO mode=ap_fifo:ce=0
Port [ rx_exhNoShiftFifo_V_s]:  wired=1; compound=1; hidden=0; nouse=0; global=1; static=1; extern=0; dir=0; type=3; pingpong=0; private_global=0; linkage=7; visibility=0; IO mode=ap_fifo:ce=0
Port [ rx_exhNoShiftFifo_V_3]:  wired=1; compound=1; hidden=0; nouse=0; global=1; static=1; extern=0; dir=0; type=3; pingpong=0; private_global=0; linkage=7; visibility=0; IO mode=ap_fifo:ce=0
---------------- STG Properties END ------------------

---------------- Datapath Model BEGIN ----------------

<LifeTime>
<method=bitvector/>
state_3_load        (load         ) [ 0111]
switch_ln1998       (switch       ) [ 0000]
tmp_74              (nbreadreq    ) [ 0111]
br_ln2043           (br           ) [ 0000]
empty_407           (read         ) [ 0000]
tmp_data_V_23       (extractvalue ) [ 0111]
tmp_keep_V_21       (extractvalue ) [ 0111]
tmp_last_V_22       (extractvalue ) [ 0111]
tmp_dest_V_1        (extractvalue ) [ 0111]
store_ln2050        (store        ) [ 0000]
tmp_73              (nbreadreq    ) [ 0111]
br_ln2031           (br           ) [ 0000]
empty_406           (read         ) [ 0000]
tmp_data_V_22       (extractvalue ) [ 0111]
tmp_keep_V_20       (extractvalue ) [ 0111]
tmp_last_V_21       (extractvalue ) [ 0111]
tmp_dest_V          (extractvalue ) [ 0111]
store_ln2038        (store        ) [ 0000]
tmp_72              (nbreadreq    ) [ 0111]
br_ln2019           (br           ) [ 0000]
empty               (read         ) [ 0000]
tmp_data_V          (extractvalue ) [ 0111]
tmp_keep_V          (extractvalue ) [ 0111]
tmp_last_V          (extractvalue ) [ 0111]
store_ln2026        (store        ) [ 0000]
tmp                 (nbreadreq    ) [ 0111]
br_ln2001           (br           ) [ 0000]
tmp_76              (read         ) [ 0000]
icmp_ln2004         (icmp         ) [ 0000]
icmp_ln2008         (icmp         ) [ 0000]
select_ln2004       (select       ) [ 0000]
or_ln2004           (or           ) [ 0000]
select_ln2004_1     (select       ) [ 0000]
store_ln2006        (store        ) [ 0000]
br_ln2048           (br           ) [ 0000]
br_ln2036           (br           ) [ 0000]
br_ln2024           (br           ) [ 0000]
specinterface_ln0   (specinterface) [ 0000]
specinterface_ln0   (specinterface) [ 0000]
specinterface_ln0   (specinterface) [ 0000]
specinterface_ln0   (specinterface) [ 0000]
specinterface_ln0   (specinterface) [ 0000]
specinterface_ln0   (specinterface) [ 0000]
specinterface_ln0   (specinterface) [ 0000]
specinterface_ln0   (specinterface) [ 0000]
specinterface_ln0   (specinterface) [ 0000]
specinterface_ln0   (specinterface) [ 0000]
specinterface_ln0   (specinterface) [ 0000]
specinterface_ln0   (specinterface) [ 0000]
specinterface_ln0   (specinterface) [ 0000]
specpipeline_ln1991 (specpipeline ) [ 0000]
write_ln2047        (write        ) [ 0000]
br_ln2051           (br           ) [ 0000]
br_ln2052           (br           ) [ 0000]
br_ln2053           (br           ) [ 0000]
write_ln2035        (write        ) [ 0000]
br_ln2039           (br           ) [ 0000]
br_ln2040           (br           ) [ 0000]
br_ln2041           (br           ) [ 0000]
write_ln2023        (write        ) [ 0000]
br_ln2027           (br           ) [ 0000]
br_ln2028           (br           ) [ 0000]
br_ln2029           (br           ) [ 0000]
br_ln2016           (br           ) [ 0000]
br_ln2017           (br           ) [ 0000]
ret_ln0             (ret          ) [ 0000]
</LifeTime>

<model>

<comp_list>
<comp id="0" class="1000" name="m_axis_mem_write_data_V_data_V">
<pin_list>
<pin id="1" dir="1" index="0" bw="1" slack="0"/>
</pin_list>
<bind>
<StgValue><ssdm name="m_axis_mem_write_data_V_data_V"/></StgValue>
</bind>
</comp>

<comp id="2" class="1000" name="m_axis_mem_write_data_V_keep_V">
<pin_list>
<pin id="3" dir="1" index="0" bw="1" slack="0"/>
</pin_list>
<bind>
<StgValue><ssdm name="m_axis_mem_write_data_V_keep_V"/></StgValue>
</bind>
</comp>

<comp id="4" class="1000" name="m_axis_mem_write_data_V_last_V">
<pin_list>
<pin id="5" dir="1" index="0" bw="1" slack="0"/>
</pin_list>
<bind>
<StgValue><ssdm name="m_axis_mem_write_data_V_last_V"/></StgValue>
</bind>
</comp>

<comp id="6" class="1000" name="m_axis_mem_write_data_V_dest_V">
<pin_list>
<pin id="7" dir="1" index="0" bw="1" slack="0"/>
</pin_list>
<bind>
<StgValue><ssdm name="m_axis_mem_write_data_V_dest_V"/></StgValue>
</bind>
</comp>

<comp id="8" class="1000" name="state_3">
<pin_list>
<pin id="9" dir="1" index="0" bw="1" slack="0"/>
</pin_list>
<bind>
<StgValue><ssdm name="state_3"/></StgValue>
</bind>
</comp>

<comp id="10" class="1000" name="rx_pkgShiftTypeFifo_s_8">
<pin_list>
<pin id="11" dir="1" index="0" bw="1" slack="0"/>
</pin_list>
<bind>
<StgValue><ssdm name="rx_pkgShiftTypeFifo_s_8"/></StgValue>
</bind>
</comp>

<comp id="12" class="1000" name="rx_aethSift2mergerFi_3">
<pin_list>
<pin id="13" dir="1" index="0" bw="1" slack="0"/>
</pin_list>
<bind>
<StgValue><ssdm name="rx_aethSift2mergerFi_3"/></StgValue>
</bind>
</comp>

<comp id="14" class="1000" name="rx_aethSift2mergerFi_5">
<pin_list>
<pin id="15" dir="1" index="0" bw="1" slack="0"/>
</pin_list>
<bind>
<StgValue><ssdm name="rx_aethSift2mergerFi_5"/></StgValue>
</bind>
</comp>

<comp id="16" class="1000" name="rx_aethSift2mergerFi_6">
<pin_list>
<pin id="17" dir="1" index="0" bw="1" slack="0"/>
</pin_list>
<bind>
<StgValue><ssdm name="rx_aethSift2mergerFi_6"/></StgValue>
</bind>
</comp>

<comp id="18" class="1000" name="rx_rethSift2mergerFi_8">
<pin_list>
<pin id="19" dir="1" index="0" bw="1" slack="0"/>
</pin_list>
<bind>
<StgValue><ssdm name="rx_rethSift2mergerFi_8"/></StgValue>
</bind>
</comp>

<comp id="20" class="1000" name="rx_rethSift2mergerFi_6">
<pin_list>
<pin id="21" dir="1" index="0" bw="1" slack="0"/>
</pin_list>
<bind>
<StgValue><ssdm name="rx_rethSift2mergerFi_6"/></StgValue>
</bind>
</comp>

<comp id="22" class="1000" name="rx_rethSift2mergerFi_7">
<pin_list>
<pin id="23" dir="1" index="0" bw="1" slack="0"/>
</pin_list>
<bind>
<StgValue><ssdm name="rx_rethSift2mergerFi_7"/></StgValue>
</bind>
</comp>

<comp id="24" class="1000" name="rx_rethSift2mergerFi_4">
<pin_list>
<pin id="25" dir="1" index="0" bw="1" slack="0"/>
</pin_list>
<bind>
<StgValue><ssdm name="rx_rethSift2mergerFi_4"/></StgValue>
</bind>
</comp>

<comp id="26" class="1000" name="rx_exhNoShiftFifo_V_1">
<pin_list>
<pin id="27" dir="1" index="0" bw="1" slack="0"/>
</pin_list>
<bind>
<StgValue><ssdm name="rx_exhNoShiftFifo_V_1"/></StgValue>
</bind>
</comp>

<comp id="28" class="1000" name="rx_exhNoShiftFifo_V_4">
<pin_list>
<pin id="29" dir="1" index="0" bw="1" slack="0"/>
</pin_list>
<bind>
<StgValue><ssdm name="rx_exhNoShiftFifo_V_4"/></StgValue>
</bind>
</comp>

<comp id="30" class="1000" name="rx_exhNoShiftFifo_V_s">
<pin_list>
<pin id="31" dir="1" index="0" bw="1" slack="0"/>
</pin_list>
<bind>
<StgValue><ssdm name="rx_exhNoShiftFifo_V_s"/></StgValue>
</bind>
</comp>

<comp id="32" class="1000" name="rx_exhNoShiftFifo_V_3">
<pin_list>
<pin id="33" dir="1" index="0" bw="1" slack="0"/>
</pin_list>
<bind>
<StgValue><ssdm name="rx_exhNoShiftFifo_V_3"/></StgValue>
</bind>
</comp>

<comp id="34" class="1001" name="const_34">
<pin_list>
<pin id="35" dir="1" index="0" bw="1" slack="0"/>
</pin_list>
<bind>
<StgValue><ssdm name=""/></StgValue>
</bind>
</comp>

<comp id="36" class="1001" name="const_36">
<pin_list>
<pin id="37" dir="1" index="0" bw="1" slack="0"/>
</pin_list>
<bind>
<StgValue><ssdm name=""/></StgValue>
</bind>
</comp>

<comp id="38" class="1001" name="const_38">
<pin_list>
<pin id="39" dir="1" index="0" bw="1" slack="0"/>
</pin_list>
<bind>
<StgValue><ssdm name=""/></StgValue>
</bind>
</comp>

<comp id="40" class="1001" name="const_40">
<pin_list>
<pin id="41" dir="1" index="0" bw="1" slack="0"/>
</pin_list>
<bind>
<StgValue><ssdm name=""/></StgValue>
</bind>
</comp>

<comp id="42" class="1001" name="const_42">
<pin_list>
<pin id="43" dir="1" index="0" bw="1" slack="0"/>
</pin_list>
<bind>
<StgValue><ssdm name="_ssdm_op_NbReadReq.ap_fifo.i64P.i8P.i1P.i1P"/></StgValue>
</bind>
</comp>

<comp id="44" class="1001" name="const_44">
<pin_list>
<pin id="45" dir="1" index="0" bw="1" slack="0"/>
</pin_list>
<bind>
<StgValue><ssdm name=""/></StgValue>
</bind>
</comp>

<comp id="46" class="1001" name="const_46">
<pin_list>
<pin id="47" dir="1" index="0" bw="1" slack="0"/>
</pin_list>
<bind>
<StgValue><ssdm name="_ssdm_op_Read.ap_fifo.volatile.i64P.i8P.i1P.i1P"/></StgValue>
</bind>
</comp>

<comp id="48" class="1001" name="const_48">
<pin_list>
<pin id="49" dir="1" index="0" bw="1" slack="0"/>
</pin_list>
<bind>
<StgValue><ssdm name="_ssdm_op_NbReadReq.ap_fifo.i64P.i8P.i1P"/></StgValue>
</bind>
</comp>

<comp id="50" class="1001" name="const_50">
<pin_list>
<pin id="51" dir="1" index="0" bw="1" slack="0"/>
</pin_list>
<bind>
<StgValue><ssdm name="_ssdm_op_Read.ap_fifo.volatile.i64P.i8P.i1P"/></StgValue>
</bind>
</comp>

<comp id="52" class="1001" name="const_52">
<pin_list>
<pin id="53" dir="1" index="0" bw="1" slack="0"/>
</pin_list>
<bind>
<StgValue><ssdm name="_ssdm_op_NbReadReq.ap_fifo.i2P"/></StgValue>
</bind>
</comp>

<comp id="54" class="1001" name="const_54">
<pin_list>
<pin id="55" dir="1" index="0" bw="1" slack="0"/>
</pin_list>
<bind>
<StgValue><ssdm name="_ssdm_op_Read.ap_fifo.volatile.i2P"/></StgValue>
</bind>
</comp>

<comp id="56" class="1001" name="const_56">
<pin_list>
<pin id="57" dir="1" index="0" bw="1" slack="0"/>
</pin_list>
<bind>
<StgValue><ssdm name="_ssdm_op_Write.axis.volatile.i64P.i8P.i1P.i1P"/></StgValue>
</bind>
</comp>

<comp id="58" class="1001" name="const_58">
<pin_list>
<pin id="59" dir="1" index="0" bw="1" slack="0"/>
</pin_list>
<bind>
<StgValue><ssdm name=""/></StgValue>
</bind>
</comp>

<comp id="60" class="1001" name="const_60">
<pin_list>
<pin id="61" dir="1" index="0" bw="1" slack="2147483647"/>
</pin_list>
<bind>
<StgValue><ssdm name="_ssdm_op_SpecInterface"/></StgValue>
</bind>
</comp>

<comp id="62" class="1001" name="const_62">
<pin_list>
<pin id="63" dir="1" index="0" bw="1" slack="2147483647"/>
</pin_list>
<bind>
<StgValue><ssdm name="ap_fifo_str"/></StgValue>
</bind>
</comp>

<comp id="64" class="1001" name="const_64">
<pin_list>
<pin id="65" dir="1" index="0" bw="1" slack="2147483647"/>
</pin_list>
<bind>
<StgValue><ssdm name=""/></StgValue>
</bind>
</comp>

<comp id="66" class="1001" name="const_66">
<pin_list>
<pin id="67" dir="1" index="0" bw="1" slack="2147483647"/>
</pin_list>
<bind>
<StgValue><ssdm name="p_str"/></StgValue>
</bind>
</comp>

<comp id="68" class="1001" name="const_68">
<pin_list>
<pin id="69" dir="1" index="0" bw="1" slack="2147483647"/>
</pin_list>
<bind>
<StgValue><ssdm name=""/></StgValue>
</bind>
</comp>

<comp id="70" class="1001" name="const_70">
<pin_list>
<pin id="71" dir="1" index="0" bw="1" slack="2147483647"/>
</pin_list>
<bind>
<StgValue><ssdm name=""/></StgValue>
</bind>
</comp>

<comp id="72" class="1001" name="const_72">
<pin_list>
<pin id="73" dir="1" index="0" bw="1" slack="2147483647"/>
</pin_list>
<bind>
<StgValue><ssdm name="p_str3"/></StgValue>
</bind>
</comp>

<comp id="74" class="1001" name="const_74">
<pin_list>
<pin id="75" dir="1" index="0" bw="1" slack="2147483647"/>
</pin_list>
<bind>
<StgValue><ssdm name="p_str4"/></StgValue>
</bind>
</comp>

<comp id="76" class="1001" name="const_76">
<pin_list>
<pin id="77" dir="1" index="0" bw="1" slack="2147483647"/>
</pin_list>
<bind>
<StgValue><ssdm name="_ssdm_op_SpecPipeline"/></StgValue>
</bind>
</comp>

<comp id="78" class="1001" name="const_78">
<pin_list>
<pin id="79" dir="1" index="0" bw="1" slack="2147483647"/>
</pin_list>
<bind>
<StgValue><ssdm name="p_str91"/></StgValue>
</bind>
</comp>

<comp id="80" class="1004" name="tmp_74_nbreadreq_fu_80">
<pin_list>
<pin id="81" dir="0" index="0" bw="1" slack="0"/>
<pin id="82" dir="0" index="1" bw="64" slack="0"/>
<pin id="83" dir="0" index="2" bw="8" slack="0"/>
<pin id="84" dir="0" index="3" bw="1" slack="0"/>
<pin id="85" dir="0" index="4" bw="1" slack="0"/>
<pin id="86" dir="0" index="5" bw="1" slack="0"/>
<pin id="87" dir="1" index="6" bw="1" slack="1"/>
</pin_list>
<bind>
<opcode="nbreadreq(1156) " fcode="nbreadreq"/>
<opset="tmp_74/1 "/>
</bind>
</comp>

<comp id="94" class="1004" name="empty_407_read_fu_94">
<pin_list>
<pin id="95" dir="0" index="0" bw="74" slack="0"/>
<pin id="96" dir="0" index="1" bw="64" slack="0"/>
<pin id="97" dir="0" index="2" bw="8" slack="0"/>
<pin id="98" dir="0" index="3" bw="1" slack="0"/>
<pin id="99" dir="0" index="4" bw="1" slack="0"/>
<pin id="100" dir="1" index="5" bw="74" slack="0"/>
</pin_list>
<bind>
<opcode="read(1150) " fcode="read"/>
<opset="empty_407/1 "/>
</bind>
</comp>

<comp id="106" class="1004" name="tmp_73_nbreadreq_fu_106">
<pin_list>
<pin id="107" dir="0" index="0" bw="1" slack="0"/>
<pin id="108" dir="0" index="1" bw="64" slack="0"/>
<pin id="109" dir="0" index="2" bw="8" slack="0"/>
<pin id="110" dir="0" index="3" bw="1" slack="0"/>
<pin id="111" dir="0" index="4" bw="1" slack="0"/>
<pin id="112" dir="0" index="5" bw="1" slack="0"/>
<pin id="113" dir="1" index="6" bw="1" slack="1"/>
</pin_list>
<bind>
<opcode="nbreadreq(1156) " fcode="nbreadreq"/>
<opset="tmp_73/1 "/>
</bind>
</comp>

<comp id="120" class="1004" name="empty_406_read_fu_120">
<pin_list>
<pin id="121" dir="0" index="0" bw="74" slack="0"/>
<pin id="122" dir="0" index="1" bw="64" slack="0"/>
<pin id="123" dir="0" index="2" bw="8" slack="0"/>
<pin id="124" dir="0" index="3" bw="1" slack="0"/>
<pin id="125" dir="0" index="4" bw="1" slack="0"/>
<pin id="126" dir="1" index="5" bw="74" slack="0"/>
</pin_list>
<bind>
<opcode="read(1150) " fcode="read"/>
<opset="empty_406/1 "/>
</bind>
</comp>

<comp id="132" class="1004" name="tmp_72_nbreadreq_fu_132">
<pin_list>
<pin id="133" dir="0" index="0" bw="1" slack="0"/>
<pin id="134" dir="0" index="1" bw="64" slack="0"/>
<pin id="135" dir="0" index="2" bw="8" slack="0"/>
<pin id="136" dir="0" index="3" bw="1" slack="0"/>
<pin id="137" dir="0" index="4" bw="1" slack="0"/>
<pin id="138" dir="1" index="5" bw="1" slack="1"/>
</pin_list>
<bind>
<opcode="nbreadreq(1156) " fcode="nbreadreq"/>
<opset="tmp_72/1 "/>
</bind>
</comp>

<comp id="144" class="1004" name="empty_read_fu_144">
<pin_list>
<pin id="145" dir="0" index="0" bw="73" slack="0"/>
<pin id="146" dir="0" index="1" bw="64" slack="0"/>
<pin id="147" dir="0" index="2" bw="8" slack="0"/>
<pin id="148" dir="0" index="3" bw="1" slack="0"/>
<pin id="149" dir="1" index="4" bw="73" slack="0"/>
</pin_list>
<bind>
<opcode="read(1150) " fcode="read"/>
<opset="empty/1 "/>
</bind>
</comp>

<comp id="154" class="1004" name="tmp_nbreadreq_fu_154">
<pin_list>
<pin id="155" dir="0" index="0" bw="1" slack="0"/>
<pin id="156" dir="0" index="1" bw="2" slack="0"/>
<pin id="157" dir="0" index="2" bw="1" slack="0"/>
<pin id="158" dir="1" index="3" bw="1" slack="2"/>
</pin_list>
<bind>
<opcode="nbreadreq(1156) " fcode="nbreadreq"/>
<opset="tmp/1 "/>
</bind>
</comp>

<comp id="162" class="1004" name="tmp_76_read_fu_162">
<pin_list>
<pin id="163" dir="0" index="0" bw="2" slack="0"/>
<pin id="164" dir="0" index="1" bw="2" slack="0"/>
<pin id="165" dir="1" index="2" bw="2" slack="0"/>
</pin_list>
<bind>
<opcode="read(1150) " fcode="read"/>
<opset="tmp_76/1 "/>
</bind>
</comp>

<comp id="168" class="1004" name="grp_write_fu_168">
<pin_list>
<pin id="169" dir="0" index="0" bw="0" slack="0"/>
<pin id="170" dir="0" index="1" bw="64" slack="0"/>
<pin id="171" dir="0" index="2" bw="8" slack="0"/>
<pin id="172" dir="0" index="3" bw="1" slack="0"/>
<pin id="173" dir="0" index="4" bw="1" slack="0"/>
<pin id="174" dir="0" index="5" bw="64" slack="1"/>
<pin id="175" dir="0" index="6" bw="8" slack="1"/>
<pin id="176" dir="0" index="7" bw="1" slack="1"/>
<pin id="177" dir="0" index="8" bw="1" slack="0"/>
<pin id="178" dir="1" index="9" bw="0" slack="2147483647"/>
</pin_list>
<bind>
<opcode="write(1151) " fcode="write"/>
<opset="write_ln2047/2 write_ln2035/2 write_ln2023/2 "/>
</bind>
</comp>

<comp id="185" class="1004" name="grp_store_fu_185">
<pin_list>
<pin id="186" dir="0" index="0" bw="1" slack="0"/>
<pin id="187" dir="0" index="1" bw="2" slack="0"/>
<pin id="188" dir="1" index="2" bw="0" slack="2147483647"/>
</pin_list>
<bind>
<opcode="store(28) " fcode="store"/>
<opset="store_ln2050/1 store_ln2038/1 store_ln2026/1 "/>
</bind>
</comp>

<comp id="191" class="1004" name="state_3_load_load_fu_191">
<pin_list>
<pin id="192" dir="0" index="0" bw="2" slack="0"/>
<pin id="193" dir="1" index="1" bw="2" slack="1"/>
</pin_list>
<bind>
<opcode="load(27) " fcode="load"/>
<opset="state_3_load/1 "/>
</bind>
</comp>

<comp id="195" class="1004" name="tmp_data_V_23_fu_195">
<pin_list>
<pin id="196" dir="0" index="0" bw="74" slack="0"/>
<pin id="197" dir="1" index="1" bw="64" slack="1"/>
</pin_list>
<bind>
<opcode="extractvalue(56) " fcode="extractvalue"/>
<opset="tmp_data_V_23/1 "/>
</bind>
</comp>

<comp id="199" class="1004" name="tmp_keep_V_21_fu_199">
<pin_list>
<pin id="200" dir="0" index="0" bw="74" slack="0"/>
<pin id="201" dir="1" index="1" bw="8" slack="1"/>
</pin_list>
<bind>
<opcode="extractvalue(56) " fcode="extractvalue"/>
<opset="tmp_keep_V_21/1 "/>
</bind>
</comp>

<comp id="203" class="1004" name="tmp_last_V_22_fu_203">
<pin_list>
<pin id="204" dir="0" index="0" bw="74" slack="0"/>
<pin id="205" dir="1" index="1" bw="1" slack="1"/>
</pin_list>
<bind>
<opcode="extractvalue(56) " fcode="extractvalue"/>
<opset="tmp_last_V_22/1 "/>
</bind>
</comp>

<comp id="207" class="1004" name="tmp_dest_V_1_fu_207">
<pin_list>
<pin id="208" dir="0" index="0" bw="74" slack="0"/>
<pin id="209" dir="1" index="1" bw="1" slack="1"/>
</pin_list>
<bind>
<opcode="extractvalue(56) " fcode="extractvalue"/>
<opset="tmp_dest_V_1/1 "/>
</bind>
</comp>

<comp id="211" class="1004" name="tmp_data_V_22_fu_211">
<pin_list>
<pin id="212" dir="0" index="0" bw="74" slack="0"/>
<pin id="213" dir="1" index="1" bw="64" slack="1"/>
</pin_list>
<bind>
<opcode="extractvalue(56) " fcode="extractvalue"/>
<opset="tmp_data_V_22/1 "/>
</bind>
</comp>

<comp id="215" class="1004" name="tmp_keep_V_20_fu_215">
<pin_list>
<pin id="216" dir="0" index="0" bw="74" slack="0"/>
<pin id="217" dir="1" index="1" bw="8" slack="1"/>
</pin_list>
<bind>
<opcode="extractvalue(56) " fcode="extractvalue"/>
<opset="tmp_keep_V_20/1 "/>
</bind>
</comp>

<comp id="219" class="1004" name="tmp_last_V_21_fu_219">
<pin_list>
<pin id="220" dir="0" index="0" bw="74" slack="0"/>
<pin id="221" dir="1" index="1" bw="1" slack="1"/>
</pin_list>
<bind>
<opcode="extractvalue(56) " fcode="extractvalue"/>
<opset="tmp_last_V_21/1 "/>
</bind>
</comp>

<comp id="223" class="1004" name="tmp_dest_V_fu_223">
<pin_list>
<pin id="224" dir="0" index="0" bw="74" slack="0"/>
<pin id="225" dir="1" index="1" bw="1" slack="1"/>
</pin_list>
<bind>
<opcode="extractvalue(56) " fcode="extractvalue"/>
<opset="tmp_dest_V/1 "/>
</bind>
</comp>

<comp id="227" class="1004" name="tmp_data_V_fu_227">
<pin_list>
<pin id="228" dir="0" index="0" bw="73" slack="0"/>
<pin id="229" dir="1" index="1" bw="64" slack="1"/>
</pin_list>
<bind>
<opcode="extractvalue(56) " fcode="extractvalue"/>
<opset="tmp_data_V/1 "/>
</bind>
</comp>

<comp id="231" class="1004" name="tmp_keep_V_fu_231">
<pin_list>
<pin id="232" dir="0" index="0" bw="73" slack="0"/>
<pin id="233" dir="1" index="1" bw="8" slack="1"/>
</pin_list>
<bind>
<opcode="extractvalue(56) " fcode="extractvalue"/>
<opset="tmp_keep_V/1 "/>
</bind>
</comp>

<comp id="235" class="1004" name="tmp_last_V_fu_235">
<pin_list>
<pin id="236" dir="0" index="0" bw="73" slack="0"/>
<pin id="237" dir="1" index="1" bw="1" slack="1"/>
</pin_list>
<bind>
<opcode="extractvalue(56) " fcode="extractvalue"/>
<opset="tmp_last_V/1 "/>
</bind>
</comp>

<comp id="239" class="1004" name="icmp_ln2004_fu_239">
<pin_list>
<pin id="240" dir="0" index="0" bw="2" slack="0"/>
<pin id="241" dir="0" index="1" bw="2" slack="0"/>
<pin id="242" dir="1" index="2" bw="1" slack="0"/>
</pin_list>
<bind>
<opcode="icmp(45) " fcode="icmp"/>
<opset="icmp_ln2004/1 "/>
</bind>
</comp>

<comp id="245" class="1004" name="icmp_ln2008_fu_245">
<pin_list>
<pin id="246" dir="0" index="0" bw="2" slack="0"/>
<pin id="247" dir="0" index="1" bw="2" slack="0"/>
<pin id="248" dir="1" index="2" bw="1" slack="0"/>
</pin_list>
<bind>
<opcode="icmp(45) " fcode="icmp"/>
<opset="icmp_ln2008/1 "/>
</bind>
</comp>

<comp id="251" class="1004" name="select_ln2004_fu_251">
<pin_list>
<pin id="252" dir="0" index="0" bw="1" slack="0"/>
<pin id="253" dir="0" index="1" bw="2" slack="0"/>
<pin id="254" dir="0" index="2" bw="2" slack="0"/>
<pin id="255" dir="1" index="3" bw="2" slack="0"/>
</pin_list>
<bind>
<opcode="select(49) " fcode="select"/>
<opset="select_ln2004/1 "/>
</bind>
</comp>

<comp id="259" class="1004" name="or_ln2004_fu_259">
<pin_list>
<pin id="260" dir="0" index="0" bw="1" slack="0"/>
<pin id="261" dir="0" index="1" bw="1" slack="0"/>
<pin id="262" dir="1" index="2" bw="1" slack="0"/>
</pin_list>
<bind>
<opcode="or(24) " fcode="or"/>
<opset="or_ln2004/1 "/>
</bind>
</comp>

<comp id="265" class="1004" name="select_ln2004_1_fu_265">
<pin_list>
<pin id="266" dir="0" index="0" bw="1" slack="0"/>
<pin id="267" dir="0" index="1" bw="2" slack="0"/>
<pin id="268" dir="0" index="2" bw="2" slack="0"/>
<pin id="269" dir="1" index="3" bw="2" slack="0"/>
</pin_list>
<bind>
<opcode="select(49) " fcode="select"/>
<opset="select_ln2004_1/1 "/>
</bind>
</comp>

<comp id="273" class="1004" name="store_ln2006_store_fu_273">
<pin_list>
<pin id="274" dir="0" index="0" bw="2" slack="0"/>
<pin id="275" dir="0" index="1" bw="2" slack="0"/>
<pin id="276" dir="1" index="2" bw="0" slack="2147483647"/>
</pin_list>
<bind>
<opcode="store(28) " fcode="store"/>
<opset="store_ln2006/1 "/>
</bind>
</comp>

<comp id="279" class="1005" name="state_3_load_reg_279">
<pin_list>
<pin id="280" dir="0" index="0" bw="2" slack="1"/>
<pin id="281" dir="1" index="1" bw="2" slack="2147483647"/>
</pin_list>
<bind>
<opset="state_3_load "/>
</bind>
</comp>

<comp id="283" class="1005" name="tmp_74_reg_283">
<pin_list>
<pin id="284" dir="0" index="0" bw="1" slack="1"/>
<pin id="285" dir="1" index="1" bw="1" slack="2147483647"/>
</pin_list>
<bind>
<opset="tmp_74 "/>
</bind>
</comp>

<comp id="287" class="1005" name="tmp_data_V_23_reg_287">
<pin_list>
<pin id="288" dir="0" index="0" bw="64" slack="1"/>
<pin id="289" dir="1" index="1" bw="64" slack="1"/>
</pin_list>
<bind>
<opset="tmp_data_V_23 "/>
</bind>
</comp>

<comp id="292" class="1005" name="tmp_keep_V_21_reg_292">
<pin_list>
<pin id="293" dir="0" index="0" bw="8" slack="1"/>
<pin id="294" dir="1" index="1" bw="8" slack="1"/>
</pin_list>
<bind>
<opset="tmp_keep_V_21 "/>
</bind>
</comp>

<comp id="297" class="1005" name="tmp_last_V_22_reg_297">
<pin_list>
<pin id="298" dir="0" index="0" bw="1" slack="1"/>
<pin id="299" dir="1" index="1" bw="1" slack="1"/>
</pin_list>
<bind>
<opset="tmp_last_V_22 "/>
</bind>
</comp>

<comp id="302" class="1005" name="tmp_dest_V_1_reg_302">
<pin_list>
<pin id="303" dir="0" index="0" bw="1" slack="1"/>
<pin id="304" dir="1" index="1" bw="1" slack="1"/>
</pin_list>
<bind>
<opset="tmp_dest_V_1 "/>
</bind>
</comp>

<comp id="307" class="1005" name="tmp_73_reg_307">
<pin_list>
<pin id="308" dir="0" index="0" bw="1" slack="1"/>
<pin id="309" dir="1" index="1" bw="1" slack="2147483647"/>
</pin_list>
<bind>
<opset="tmp_73 "/>
</bind>
</comp>

<comp id="311" class="1005" name="tmp_data_V_22_reg_311">
<pin_list>
<pin id="312" dir="0" index="0" bw="64" slack="1"/>
<pin id="313" dir="1" index="1" bw="64" slack="1"/>
</pin_list>
<bind>
<opset="tmp_data_V_22 "/>
</bind>
</comp>

<comp id="316" class="1005" name="tmp_keep_V_20_reg_316">
<pin_list>
<pin id="317" dir="0" index="0" bw="8" slack="1"/>
<pin id="318" dir="1" index="1" bw="8" slack="1"/>
</pin_list>
<bind>
<opset="tmp_keep_V_20 "/>
</bind>
</comp>

<comp id="321" class="1005" name="tmp_last_V_21_reg_321">
<pin_list>
<pin id="322" dir="0" index="0" bw="1" slack="1"/>
<pin id="323" dir="1" index="1" bw="1" slack="1"/>
</pin_list>
<bind>
<opset="tmp_last_V_21 "/>
</bind>
</comp>

<comp id="326" class="1005" name="tmp_dest_V_reg_326">
<pin_list>
<pin id="327" dir="0" index="0" bw="1" slack="1"/>
<pin id="328" dir="1" index="1" bw="1" slack="1"/>
</pin_list>
<bind>
<opset="tmp_dest_V "/>
</bind>
</comp>

<comp id="331" class="1005" name="tmp_72_reg_331">
<pin_list>
<pin id="332" dir="0" index="0" bw="1" slack="1"/>
<pin id="333" dir="1" index="1" bw="1" slack="2147483647"/>
</pin_list>
<bind>
<opset="tmp_72 "/>
</bind>
</comp>

<comp id="335" class="1005" name="tmp_data_V_reg_335">
<pin_list>
<pin id="336" dir="0" index="0" bw="64" slack="1"/>
<pin id="337" dir="1" index="1" bw="64" slack="1"/>
</pin_list>
<bind>
<opset="tmp_data_V "/>
</bind>
</comp>

<comp id="340" class="1005" name="tmp_keep_V_reg_340">
<pin_list>
<pin id="341" dir="0" index="0" bw="8" slack="1"/>
<pin id="342" dir="1" index="1" bw="8" slack="1"/>
</pin_list>
<bind>
<opset="tmp_keep_V "/>
</bind>
</comp>

<comp id="345" class="1005" name="tmp_last_V_reg_345">
<pin_list>
<pin id="346" dir="0" index="0" bw="1" slack="1"/>
<pin id="347" dir="1" index="1" bw="1" slack="1"/>
</pin_list>
<bind>
<opset="tmp_last_V "/>
</bind>
</comp>

<comp id="350" class="1005" name="tmp_reg_350">
<pin_list>
<pin id="351" dir="0" index="0" bw="1" slack="2"/>
<pin id="352" dir="1" index="1" bw="1" slack="2147483647"/>
</pin_list>
<bind>
<opset="tmp "/>
</bind>
</comp>

</comp_list>

<net_list>
<net id="88"><net_src comp="42" pin="0"/><net_sink comp="80" pin=0"/></net>

<net id="89"><net_src comp="26" pin="0"/><net_sink comp="80" pin=1"/></net>

<net id="90"><net_src comp="28" pin="0"/><net_sink comp="80" pin=2"/></net>

<net id="91"><net_src comp="30" pin="0"/><net_sink comp="80" pin=3"/></net>

<net id="92"><net_src comp="32" pin="0"/><net_sink comp="80" pin=4"/></net>

<net id="93"><net_src comp="44" pin="0"/><net_sink comp="80" pin=5"/></net>

<net id="101"><net_src comp="46" pin="0"/><net_sink comp="94" pin=0"/></net>

<net id="102"><net_src comp="26" pin="0"/><net_sink comp="94" pin=1"/></net>

<net id="103"><net_src comp="28" pin="0"/><net_sink comp="94" pin=2"/></net>

<net id="104"><net_src comp="30" pin="0"/><net_sink comp="94" pin=3"/></net>

<net id="105"><net_src comp="32" pin="0"/><net_sink comp="94" pin=4"/></net>

<net id="114"><net_src comp="42" pin="0"/><net_sink comp="106" pin=0"/></net>

<net id="115"><net_src comp="18" pin="0"/><net_sink comp="106" pin=1"/></net>

<net id="116"><net_src comp="20" pin="0"/><net_sink comp="106" pin=2"/></net>

<net id="117"><net_src comp="22" pin="0"/><net_sink comp="106" pin=3"/></net>

<net id="118"><net_src comp="24" pin="0"/><net_sink comp="106" pin=4"/></net>

<net id="119"><net_src comp="44" pin="0"/><net_sink comp="106" pin=5"/></net>

<net id="127"><net_src comp="46" pin="0"/><net_sink comp="120" pin=0"/></net>

<net id="128"><net_src comp="18" pin="0"/><net_sink comp="120" pin=1"/></net>

<net id="129"><net_src comp="20" pin="0"/><net_sink comp="120" pin=2"/></net>

<net id="130"><net_src comp="22" pin="0"/><net_sink comp="120" pin=3"/></net>

<net id="131"><net_src comp="24" pin="0"/><net_sink comp="120" pin=4"/></net>

<net id="139"><net_src comp="48" pin="0"/><net_sink comp="132" pin=0"/></net>

<net id="140"><net_src comp="12" pin="0"/><net_sink comp="132" pin=1"/></net>

<net id="141"><net_src comp="14" pin="0"/><net_sink comp="132" pin=2"/></net>

<net id="142"><net_src comp="16" pin="0"/><net_sink comp="132" pin=3"/></net>

<net id="143"><net_src comp="44" pin="0"/><net_sink comp="132" pin=4"/></net>

<net id="150"><net_src comp="50" pin="0"/><net_sink comp="144" pin=0"/></net>

<net id="151"><net_src comp="12" pin="0"/><net_sink comp="144" pin=1"/></net>

<net id="152"><net_src comp="14" pin="0"/><net_sink comp="144" pin=2"/></net>

<net id="153"><net_src comp="16" pin="0"/><net_sink comp="144" pin=3"/></net>

<net id="159"><net_src comp="52" pin="0"/><net_sink comp="154" pin=0"/></net>

<net id="160"><net_src comp="10" pin="0"/><net_sink comp="154" pin=1"/></net>

<net id="161"><net_src comp="44" pin="0"/><net_sink comp="154" pin=2"/></net>

<net id="166"><net_src comp="54" pin="0"/><net_sink comp="162" pin=0"/></net>

<net id="167"><net_src comp="10" pin="0"/><net_sink comp="162" pin=1"/></net>

<net id="179"><net_src comp="56" pin="0"/><net_sink comp="168" pin=0"/></net>

<net id="180"><net_src comp="0" pin="0"/><net_sink comp="168" pin=1"/></net>

<net id="181"><net_src comp="2" pin="0"/><net_sink comp="168" pin=2"/></net>

<net id="182"><net_src comp="4" pin="0"/><net_sink comp="168" pin=3"/></net>

<net id="183"><net_src comp="6" pin="0"/><net_sink comp="168" pin=4"/></net>

<net id="184"><net_src comp="58" pin="0"/><net_sink comp="168" pin=8"/></net>

<net id="189"><net_src comp="34" pin="0"/><net_sink comp="185" pin=0"/></net>

<net id="190"><net_src comp="8" pin="0"/><net_sink comp="185" pin=1"/></net>

<net id="194"><net_src comp="8" pin="0"/><net_sink comp="191" pin=0"/></net>

<net id="198"><net_src comp="94" pin="5"/><net_sink comp="195" pin=0"/></net>

<net id="202"><net_src comp="94" pin="5"/><net_sink comp="199" pin=0"/></net>

<net id="206"><net_src comp="94" pin="5"/><net_sink comp="203" pin=0"/></net>

<net id="210"><net_src comp="94" pin="5"/><net_sink comp="207" pin=0"/></net>

<net id="214"><net_src comp="120" pin="5"/><net_sink comp="211" pin=0"/></net>

<net id="218"><net_src comp="120" pin="5"/><net_sink comp="215" pin=0"/></net>

<net id="222"><net_src comp="120" pin="5"/><net_sink comp="219" pin=0"/></net>

<net id="226"><net_src comp="120" pin="5"/><net_sink comp="223" pin=0"/></net>

<net id="230"><net_src comp="144" pin="4"/><net_sink comp="227" pin=0"/></net>

<net id="234"><net_src comp="144" pin="4"/><net_sink comp="231" pin=0"/></net>

<net id="238"><net_src comp="144" pin="4"/><net_sink comp="235" pin=0"/></net>

<net id="243"><net_src comp="162" pin="2"/><net_sink comp="239" pin=0"/></net>

<net id="244"><net_src comp="34" pin="0"/><net_sink comp="239" pin=1"/></net>

<net id="249"><net_src comp="162" pin="2"/><net_sink comp="245" pin=0"/></net>

<net id="250"><net_src comp="36" pin="0"/><net_sink comp="245" pin=1"/></net>

<net id="256"><net_src comp="239" pin="2"/><net_sink comp="251" pin=0"/></net>

<net id="257"><net_src comp="36" pin="0"/><net_sink comp="251" pin=1"/></net>

<net id="258"><net_src comp="38" pin="0"/><net_sink comp="251" pin=2"/></net>

<net id="263"><net_src comp="239" pin="2"/><net_sink comp="259" pin=0"/></net>

<net id="264"><net_src comp="245" pin="2"/><net_sink comp="259" pin=1"/></net>

<net id="270"><net_src comp="259" pin="2"/><net_sink comp="265" pin=0"/></net>

<net id="271"><net_src comp="251" pin="3"/><net_sink comp="265" pin=1"/></net>

<net id="272"><net_src comp="40" pin="0"/><net_sink comp="265" pin=2"/></net>

<net id="277"><net_src comp="265" pin="3"/><net_sink comp="273" pin=0"/></net>

<net id="278"><net_src comp="8" pin="0"/><net_sink comp="273" pin=1"/></net>

<net id="282"><net_src comp="191" pin="1"/><net_sink comp="279" pin=0"/></net>

<net id="286"><net_src comp="80" pin="6"/><net_sink comp="283" pin=0"/></net>

<net id="290"><net_src comp="195" pin="1"/><net_sink comp="287" pin=0"/></net>

<net id="291"><net_src comp="287" pin="1"/><net_sink comp="168" pin=5"/></net>

<net id="295"><net_src comp="199" pin="1"/><net_sink comp="292" pin=0"/></net>

<net id="296"><net_src comp="292" pin="1"/><net_sink comp="168" pin=6"/></net>

<net id="300"><net_src comp="203" pin="1"/><net_sink comp="297" pin=0"/></net>

<net id="301"><net_src comp="297" pin="1"/><net_sink comp="168" pin=7"/></net>

<net id="305"><net_src comp="207" pin="1"/><net_sink comp="302" pin=0"/></net>

<net id="306"><net_src comp="302" pin="1"/><net_sink comp="168" pin=8"/></net>

<net id="310"><net_src comp="106" pin="6"/><net_sink comp="307" pin=0"/></net>

<net id="314"><net_src comp="211" pin="1"/><net_sink comp="311" pin=0"/></net>

<net id="315"><net_src comp="311" pin="1"/><net_sink comp="168" pin=5"/></net>

<net id="319"><net_src comp="215" pin="1"/><net_sink comp="316" pin=0"/></net>

<net id="320"><net_src comp="316" pin="1"/><net_sink comp="168" pin=6"/></net>

<net id="324"><net_src comp="219" pin="1"/><net_sink comp="321" pin=0"/></net>

<net id="325"><net_src comp="321" pin="1"/><net_sink comp="168" pin=7"/></net>

<net id="329"><net_src comp="223" pin="1"/><net_sink comp="326" pin=0"/></net>

<net id="330"><net_src comp="326" pin="1"/><net_sink comp="168" pin=8"/></net>

<net id="334"><net_src comp="132" pin="5"/><net_sink comp="331" pin=0"/></net>

<net id="338"><net_src comp="227" pin="1"/><net_sink comp="335" pin=0"/></net>

<net id="339"><net_src comp="335" pin="1"/><net_sink comp="168" pin=5"/></net>

<net id="343"><net_src comp="231" pin="1"/><net_sink comp="340" pin=0"/></net>

<net id="344"><net_src comp="340" pin="1"/><net_sink comp="168" pin=6"/></net>

<net id="348"><net_src comp="235" pin="1"/><net_sink comp="345" pin=0"/></net>

<net id="349"><net_src comp="345" pin="1"/><net_sink comp="168" pin=7"/></net>

<net id="353"><net_src comp="154" pin="3"/><net_sink comp="350" pin=0"/></net>

</net_list>

</model> 
---------------- Datapath Model END ------------------

* FSMD analyzer results:
  - Output states:
	Port: m_axis_mem_write_data_V_data_V | {3 }
	Port: m_axis_mem_write_data_V_keep_V | {3 }
	Port: m_axis_mem_write_data_V_last_V | {3 }
	Port: m_axis_mem_write_data_V_dest_V | {3 }
	Port: state_3 | {1 }
	Port: rx_pkgShiftTypeFifo_s_8 | {}
	Port: rx_aethSift2mergerFi_3 | {}
	Port: rx_aethSift2mergerFi_5 | {}
	Port: rx_aethSift2mergerFi_6 | {}
	Port: rx_rethSift2mergerFi_8 | {}
	Port: rx_rethSift2mergerFi_6 | {}
	Port: rx_rethSift2mergerFi_7 | {}
	Port: rx_rethSift2mergerFi_4 | {}
	Port: rx_exhNoShiftFifo_V_1 | {}
	Port: rx_exhNoShiftFifo_V_4 | {}
	Port: rx_exhNoShiftFifo_V_s | {}
	Port: rx_exhNoShiftFifo_V_3 | {}
 - Input state : 
	Port: merge_rx_pkgs<64> : m_axis_mem_write_data_V_data_V | {}
	Port: merge_rx_pkgs<64> : m_axis_mem_write_data_V_keep_V | {}
	Port: merge_rx_pkgs<64> : m_axis_mem_write_data_V_last_V | {}
	Port: merge_rx_pkgs<64> : m_axis_mem_write_data_V_dest_V | {}
	Port: merge_rx_pkgs<64> : state_3 | {1 }
	Port: merge_rx_pkgs<64> : rx_pkgShiftTypeFifo_s_8 | {1 }
	Port: merge_rx_pkgs<64> : rx_aethSift2mergerFi_3 | {1 }
	Port: merge_rx_pkgs<64> : rx_aethSift2mergerFi_5 | {1 }
	Port: merge_rx_pkgs<64> : rx_aethSift2mergerFi_6 | {1 }
	Port: merge_rx_pkgs<64> : rx_rethSift2mergerFi_8 | {1 }
	Port: merge_rx_pkgs<64> : rx_rethSift2mergerFi_6 | {1 }
	Port: merge_rx_pkgs<64> : rx_rethSift2mergerFi_7 | {1 }
	Port: merge_rx_pkgs<64> : rx_rethSift2mergerFi_4 | {1 }
	Port: merge_rx_pkgs<64> : rx_exhNoShiftFifo_V_1 | {1 }
	Port: merge_rx_pkgs<64> : rx_exhNoShiftFifo_V_4 | {1 }
	Port: merge_rx_pkgs<64> : rx_exhNoShiftFifo_V_s | {1 }
	Port: merge_rx_pkgs<64> : rx_exhNoShiftFifo_V_3 | {1 }
  - Chain level:
	State 1
		switch_ln1998 : 1
		select_ln2004 : 1
		or_ln2004 : 1
		select_ln2004_1 : 1
		store_ln2006 : 2
	State 2
	State 3


============================================================
+ Verbose Summary: Datapath Resource usage 
============================================================

* Functional unit list:
|----------|-------------------------|---------|---------|
| Operation|     Functional Unit     |    FF   |   LUT   |
|----------|-------------------------|---------|---------|
|   icmp   |    icmp_ln2004_fu_239   |    0    |    8    |
|          |    icmp_ln2008_fu_245   |    0    |    8    |
|----------|-------------------------|---------|---------|
|  select  |   select_ln2004_fu_251  |    0    |    2    |
|          |  select_ln2004_1_fu_265 |    0    |    2    |
|----------|-------------------------|---------|---------|
|    or    |     or_ln2004_fu_259    |    0    |    2    |
|----------|-------------------------|---------|---------|
|          |  tmp_74_nbreadreq_fu_80 |    0    |    0    |
| nbreadreq| tmp_73_nbreadreq_fu_106 |    0    |    0    |
|          | tmp_72_nbreadreq_fu_132 |    0    |    0    |
|          |   tmp_nbreadreq_fu_154  |    0    |    0    |
|----------|-------------------------|---------|---------|
|          |   empty_407_read_fu_94  |    0    |    0    |
|   read   |  empty_406_read_fu_120  |    0    |    0    |
|          |    empty_read_fu_144    |    0    |    0    |
|          |    tmp_76_read_fu_162   |    0    |    0    |
|----------|-------------------------|---------|---------|
|   write  |     grp_write_fu_168    |    0    |    0    |
|----------|-------------------------|---------|---------|
|          |   tmp_data_V_23_fu_195  |    0    |    0    |
|          |   tmp_keep_V_21_fu_199  |    0    |    0    |
|          |   tmp_last_V_22_fu_203  |    0    |    0    |
|          |   tmp_dest_V_1_fu_207   |    0    |    0    |
|          |   tmp_data_V_22_fu_211  |    0    |    0    |
|extractvalue|   tmp_keep_V_20_fu_215  |    0    |    0    |
|          |   tmp_last_V_21_fu_219  |    0    |    0    |
|          |    tmp_dest_V_fu_223    |    0    |    0    |
|          |    tmp_data_V_fu_227    |    0    |    0    |
|          |    tmp_keep_V_fu_231    |    0    |    0    |
|          |    tmp_last_V_fu_235    |    0    |    0    |
|----------|-------------------------|---------|---------|
|   Total  |                         |    0    |    22   |
|----------|-------------------------|---------|---------|

Memories:
N/A

* Register list:
+---------------------+--------+
|                     |   FF   |
+---------------------+--------+
| state_3_load_reg_279|    2   |
|    tmp_72_reg_331   |    1   |
|    tmp_73_reg_307   |    1   |
|    tmp_74_reg_283   |    1   |
|tmp_data_V_22_reg_311|   64   |
|tmp_data_V_23_reg_287|   64   |
|  tmp_data_V_reg_335 |   64   |
| tmp_dest_V_1_reg_302|    1   |
|  tmp_dest_V_reg_326 |    1   |
|tmp_keep_V_20_reg_316|    8   |
|tmp_keep_V_21_reg_292|    8   |
|  tmp_keep_V_reg_340 |    8   |
|tmp_last_V_21_reg_321|    1   |
|tmp_last_V_22_reg_297|    1   |
|  tmp_last_V_reg_345 |    1   |
|     tmp_reg_350     |    1   |
+---------------------+--------+
|        Total        |   227  |
+---------------------+--------+

* Multiplexer (MUX) list: 
|------------------|------|------|------|--------||---------||---------|
|       Comp       |  Pin | Size |  BW  | S x BW ||  Delay  ||   LUT   |
|------------------|------|------|------|--------||---------||---------|
| grp_write_fu_168 |  p5  |   3  |  64  |   192  ||    15   |
| grp_write_fu_168 |  p6  |   3  |   8  |   24   ||    15   |
| grp_write_fu_168 |  p7  |   3  |   1  |    3   ||    15   |
| grp_write_fu_168 |  p8  |   3  |   1  |    3   ||    15   |
|------------------|------|------|------|--------||---------||---------|
|       Total      |      |      |      |   222  ||  3.706  ||    60   |
|------------------|------|------|------|--------||---------||---------|



* Summary:
+-----------+--------+--------+--------+
|           |  Delay |   FF   |   LUT  |
+-----------+--------+--------+--------+
|  Function |    -   |    0   |   22   |
|   Memory  |    -   |    -   |    -   |
|Multiplexer|    3   |    -   |   60   |
|  Register |    -   |   227  |    -   |
+-----------+--------+--------+--------+
|   Total   |    3   |   227  |   82   |
+-----------+--------+--------+--------+
