

================================================================
== Vivado HLS Report for 'process_ipv4_64_s'
================================================================
* Date:           Sat Dec 12 19:40:56 2020

* Version:        2019.2.1 (Build 2724168 on Thu Dec 05 05:19:09 MST 2019)
* Project:        rocev2_prj
* Solution:       solution1
* Product family: virtex7
* Target device:  xc7vx690t-ffg1761-2


================================================================
== Performance Estimates
================================================================
+ Timing: 
    * Summary: 
    +--------+---------+----------+------------+
    |  Clock |  Target | Estimated| Uncertainty|
    +--------+---------+----------+------------+
    |ap_clk  | 6.40 ns | 4.586 ns |   0.80 ns  |
    +--------+---------+----------+------------+

+ Latency: 
    * Summary: 
    +---------+---------+-----------+-----------+-----+-----+----------+
    |  Latency (cycles) |   Latency (absolute)  |  Interval | Pipeline |
    |   min   |   max   |    min    |    max    | min | max |   Type   |
    +---------+---------+-----------+-----------+-----+-----+----------+
    |        2|        2| 12.800 ns | 12.800 ns |    1|    1| function |
    +---------+---------+-----------+-----------+-----+-----+----------+

    + Detail: 
        * Instance: 
        N/A

        * Loop: 
        N/A

============================================================
+ Verbose Summary: Synthesis Manager
============================================================
InlineROM: 1
ExposeGlobal: 0
============================================================
+ Verbose Summary: CDFG Model
============================================================
IsTopModel: 0
ResetActiveHigh: 1
IsCombinational: 2
IsDatapathOnly: 0
HasWiredReturn: 1
HasMFsm: 2
HasVarLatency: 0
IsPipeline: 1
IsRtlPipelined: 1
IsInstanceOverlapped: 0
IsDontTouch: 0
HasImplIP: 0
IsGatedGlobalClock: 0

+ Individual pipeline summary: 
  * Pipeline-0: initiation interval (II) = 1, depth = 3


============================================================
+ Verbose Summary: Schedule
============================================================
* Number of FSM states : 3
* Pipeline : 1
  Pipeline-0 : II = 1, D = 3, States = { 1 2 3 }
* Dataflow Pipeline: 0

* FSM state transitions: 
1 --> 2 
2 --> 3 
3 --> 

* FSM state operations: 

State 1 <SV = 0> <Delay = 4.58>
ST_1 : Operation 4 [1/1] (0.00ns)   --->   "%tmp = call i1 @_ssdm_op_NbReadReq.ap_fifo.i64P.i8P.i1P(i64* @rx_crc2ipFifo_V_data, i8* @rx_crc2ipFifo_V_keep, i1* @rx_crc2ipFifo_V_last, i32 1) nounwind" [/home/paulrr2/Projects/ece527/babelsoc/fpga-network-stack/hls/rocev2/../ipv4/ipv4.cpp:45]   --->   Operation 4 'nbreadreq' 'tmp' <Predicate = true> <Delay = 0.00> <Core = "FIFO">   --->   Core 32 'FIFO' <Latency = 0> <II = 1> <Delay = 2.39> <Storage> <Opcode : 'read' 'write' 'nbread' 'nbwrite'> <Ports = 0> <Width = 32> <Depth = 2> <FIFO>
ST_1 : Operation 5 [1/1] (0.00ns)   --->   "br i1 %tmp, label %0, label %"process_ipv4<64>.exit"" [/home/paulrr2/Projects/ece527/babelsoc/fpga-network-stack/hls/rocev2/../ipv4/ipv4.cpp:45]   --->   Operation 5 'br' <Predicate = true> <Delay = 0.00>
ST_1 : Operation 6 [1/1] (2.39ns)   --->   "%empty = call { i64, i8, i1 } @_ssdm_op_Read.ap_fifo.volatile.i64P.i8P.i1P(i64* @rx_crc2ipFifo_V_data, i8* @rx_crc2ipFifo_V_keep, i1* @rx_crc2ipFifo_V_last) nounwind" [/home/paulrr2/Projects/ece527/babelsoc/fpga-network-stack/hls/rocev2/../ipv4/ipv4.cpp:47]   --->   Operation 6 'read' 'empty' <Predicate = (tmp)> <Delay = 2.39> <Core = "FIFO">   --->   Core 32 'FIFO' <Latency = 0> <II = 1> <Delay = 2.39> <Storage> <Opcode : 'read' 'write' 'nbread' 'nbwrite'> <Ports = 0> <Width = 32> <Depth = 2> <FIFO>
ST_1 : Operation 7 [1/1] (0.00ns)   --->   "%tmp_data_V = extractvalue { i64, i8, i1 } %empty, 0" [/home/paulrr2/Projects/ece527/babelsoc/fpga-network-stack/hls/rocev2/../ipv4/ipv4.cpp:47]   --->   Operation 7 'extractvalue' 'tmp_data_V' <Predicate = (tmp)> <Delay = 0.00>
ST_1 : Operation 8 [1/1] (0.00ns)   --->   "%tmp_keep_V = extractvalue { i64, i8, i1 } %empty, 1" [/home/paulrr2/Projects/ece527/babelsoc/fpga-network-stack/hls/rocev2/../ipv4/ipv4.cpp:47]   --->   Operation 8 'extractvalue' 'tmp_keep_V' <Predicate = (tmp)> <Delay = 0.00>
ST_1 : Operation 9 [1/1] (0.00ns)   --->   "%tmp_last_V = extractvalue { i64, i8, i1 } %empty, 2" [/home/paulrr2/Projects/ece527/babelsoc/fpga-network-stack/hls/rocev2/../ipv4/ipv4.cpp:47]   --->   Operation 9 'extractvalue' 'tmp_last_V' <Predicate = (tmp)> <Delay = 0.00>
ST_1 : Operation 10 [1/1] (0.00ns)   --->   "%header_ready_load = load i1* @header_ready, align 1" [/home/paulrr2/Projects/ece527/babelsoc/fpga-network-stack/hls/rocev2/../ipv4/ipv4.cpp:48]   --->   Operation 10 'load' 'header_ready_load' <Predicate = (tmp)> <Delay = 0.00>
ST_1 : Operation 11 [1/1] (0.00ns)   --->   "%header_idx_3_load = load i16* @header_idx_3, align 2" [/home/paulrr2/Projects/ece527/babelsoc/fpga-network-stack/hls/rocev2/../ipv4/ipv4.cpp:48]   --->   Operation 11 'load' 'header_idx_3_load' <Predicate = (tmp)> <Delay = 0.00>
ST_1 : Operation 12 [1/1] (0.85ns)   --->   "br i1 %header_ready_load, label %parseWord.exit.i, label %_ifconv" [/home/paulrr2/Projects/ece527/babelsoc/fpga-network-stack/hls/rocev2/../ipv4/../packet.hpp:55->/home/paulrr2/Projects/ece527/babelsoc/fpga-network-stack/hls/rocev2/../ipv4/ipv4.cpp:48]   --->   Operation 12 'br' <Predicate = (tmp)> <Delay = 0.85>
ST_1 : Operation 13 [1/1] (0.00ns)   --->   "%Lo_assign = call i22 @_ssdm_op_BitConcatenate.i22.i16.i6(i16 %header_idx_3_load, i6 0)" [/home/paulrr2/Projects/ece527/babelsoc/fpga-network-stack/hls/rocev2/../ipv4/../packet.hpp:58->/home/paulrr2/Projects/ece527/babelsoc/fpga-network-stack/hls/rocev2/../ipv4/ipv4.cpp:48]   --->   Operation 13 'bitconcatenate' 'Lo_assign' <Predicate = (tmp & !header_ready_load)> <Delay = 0.00>
ST_1 : Operation 14 [1/1] (0.00ns)   --->   "%zext_ln58 = zext i22 %Lo_assign to i23" [/home/paulrr2/Projects/ece527/babelsoc/fpga-network-stack/hls/rocev2/../ipv4/../packet.hpp:58->/home/paulrr2/Projects/ece527/babelsoc/fpga-network-stack/hls/rocev2/../ipv4/ipv4.cpp:48]   --->   Operation 14 'zext' 'zext_ln58' <Predicate = (tmp & !header_ready_load)> <Delay = 0.00>
ST_1 : Operation 15 [1/1] (1.38ns)   --->   "%add_ln58 = add i23 %zext_ln58, 64" [/home/paulrr2/Projects/ece527/babelsoc/fpga-network-stack/hls/rocev2/../ipv4/../packet.hpp:58->/home/paulrr2/Projects/ece527/babelsoc/fpga-network-stack/hls/rocev2/../ipv4/ipv4.cpp:48]   --->   Operation 15 'add' 'add_ln58' <Predicate = (tmp & !header_ready_load)> <Delay = 1.38> <Core = "AddSub">   --->   Core 14 'AddSub' <Latency = 0> <II = 1> <Delay = 1.01> <FuncUnit> <Opcode : 'add' 'sub'> <InPorts = 2> <OutPorts = 1>
ST_1 : Operation 16 [1/1] (1.21ns)   --->   "%icmp_ln58 = icmp ult i23 %add_ln58, 160" [/home/paulrr2/Projects/ece527/babelsoc/fpga-network-stack/hls/rocev2/../ipv4/../packet.hpp:58->/home/paulrr2/Projects/ece527/babelsoc/fpga-network-stack/hls/rocev2/../ipv4/ipv4.cpp:48]   --->   Operation 16 'icmp' 'icmp_ln58' <Predicate = (tmp & !header_ready_load)> <Delay = 1.21> <Core = "Cmp">   --->   Core 25 'Cmp' <Latency = 0> <II = 1> <Delay = 1.21> <FuncUnit> <Opcode : 'icmp'> <InPorts = 2> <OutPorts = 1>
ST_1 : Operation 17 [1/1] (0.00ns) (grouped into LUT with out node select_ln58)   --->   "%or_ln60 = or i22 %Lo_assign, 63" [/home/paulrr2/Projects/ece527/babelsoc/fpga-network-stack/hls/rocev2/../ipv4/../packet.hpp:60->/home/paulrr2/Projects/ece527/babelsoc/fpga-network-stack/hls/rocev2/../ipv4/ipv4.cpp:48]   --->   Operation 17 'or' 'or_ln60' <Predicate = (tmp & !header_ready_load)> <Delay = 0.00>
ST_1 : Operation 18 [1/1] (0.77ns) (out node of the LUT)   --->   "%select_ln58 = select i1 %icmp_ln58, i22 %or_ln60, i22 159" [/home/paulrr2/Projects/ece527/babelsoc/fpga-network-stack/hls/rocev2/../ipv4/../packet.hpp:58->/home/paulrr2/Projects/ece527/babelsoc/fpga-network-stack/hls/rocev2/../ipv4/ipv4.cpp:48]   --->   Operation 18 'select' 'select_ln58' <Predicate = (tmp & !header_ready_load)> <Delay = 0.77> <Core = "Sel">   --->   Core 26 'Sel' <Latency = 0> <II = 1> <Delay = 0.58> <FuncUnit> <Opcode : 'select'> <InPorts = 3> <OutPorts = 1>
ST_1 : Operation 19 [1/1] (1.21ns)   --->   "%icmp_ln58_3 = icmp ugt i22 %Lo_assign, %select_ln58" [/home/paulrr2/Projects/ece527/babelsoc/fpga-network-stack/hls/rocev2/../ipv4/../packet.hpp:58->/home/paulrr2/Projects/ece527/babelsoc/fpga-network-stack/hls/rocev2/../ipv4/ipv4.cpp:48]   --->   Operation 19 'icmp' 'icmp_ln58_3' <Predicate = (tmp & !header_ready_load)> <Delay = 1.21> <Core = "Cmp">   --->   Core 25 'Cmp' <Latency = 0> <II = 1> <Delay = 1.21> <FuncUnit> <Opcode : 'icmp'> <InPorts = 2> <OutPorts = 1>
ST_1 : Operation 20 [1/1] (0.00ns)   --->   "%trunc_ln58_3 = trunc i22 %select_ln58 to i8" [/home/paulrr2/Projects/ece527/babelsoc/fpga-network-stack/hls/rocev2/../ipv4/../packet.hpp:58->/home/paulrr2/Projects/ece527/babelsoc/fpga-network-stack/hls/rocev2/../ipv4/ipv4.cpp:48]   --->   Operation 20 'trunc' 'trunc_ln58_3' <Predicate = (tmp & !header_ready_load)> <Delay = 0.00>
ST_1 : Operation 21 [1/1] (0.48ns)   --->   "%xor_ln58 = xor i1 %icmp_ln58, true" [/home/paulrr2/Projects/ece527/babelsoc/fpga-network-stack/hls/rocev2/../ipv4/../packet.hpp:58->/home/paulrr2/Projects/ece527/babelsoc/fpga-network-stack/hls/rocev2/../ipv4/ipv4.cpp:48]   --->   Operation 21 'xor' 'xor_ln58' <Predicate = (tmp & !header_ready_load)> <Delay = 0.48> <Core = "LogicGate">   --->   Core 27 'LogicGate' <Latency = 0> <II = 1> <Delay = 0.48> <FuncUnit> <Opcode : 'and' 'or' 'xor'> <InPorts = 2> <OutPorts = 1>
ST_1 : Operation 22 [1/1] (1.30ns)   --->   "%add_ln67 = add i16 %header_idx_3_load, 1" [/home/paulrr2/Projects/ece527/babelsoc/fpga-network-stack/hls/rocev2/../ipv4/../packet.hpp:67->/home/paulrr2/Projects/ece527/babelsoc/fpga-network-stack/hls/rocev2/../ipv4/ipv4.cpp:48]   --->   Operation 22 'add' 'add_ln67' <Predicate = (tmp & !header_ready_load)> <Delay = 1.30> <Core = "AddSub">   --->   Core 14 'AddSub' <Latency = 0> <II = 1> <Delay = 1.01> <FuncUnit> <Opcode : 'add' 'sub'> <InPorts = 2> <OutPorts = 1>
ST_1 : Operation 23 [1/1] (0.85ns)   --->   "br label %parseWord.exit.i" [/home/paulrr2/Projects/ece527/babelsoc/fpga-network-stack/hls/rocev2/../ipv4/../packet.hpp:73->/home/paulrr2/Projects/ece527/babelsoc/fpga-network-stack/hls/rocev2/../ipv4/ipv4.cpp:48]   --->   Operation 23 'br' <Predicate = (tmp & !header_ready_load)> <Delay = 0.85>

State 2 <SV = 1> <Delay = 4.47>
ST_2 : Operation 24 [1/1] (0.00ns)   --->   "%trunc_ln58 = trunc i16 %header_idx_3_load to i2" [/home/paulrr2/Projects/ece527/babelsoc/fpga-network-stack/hls/rocev2/../ipv4/../packet.hpp:58->/home/paulrr2/Projects/ece527/babelsoc/fpga-network-stack/hls/rocev2/../ipv4/ipv4.cpp:48]   --->   Operation 24 'trunc' 'trunc_ln58' <Predicate = (tmp & !header_ready_load)> <Delay = 0.00>
ST_2 : Operation 25 [1/1] (0.00ns)   --->   "%p_Val2_s = load i160* @header_header_V_6, align 16" [/home/paulrr2/Projects/ece527/babelsoc/fpga-network-stack/hls/rocev2/../ipv4/../packet.hpp:60->/home/paulrr2/Projects/ece527/babelsoc/fpga-network-stack/hls/rocev2/../ipv4/ipv4.cpp:48]   --->   Operation 25 'load' 'p_Val2_s' <Predicate = (tmp & !header_ready_load)> <Delay = 0.00>
ST_2 : Operation 26 [1/1] (0.00ns) (grouped into LUT with out node shl_ln58)   --->   "%tmp_V_4 = zext i64 %tmp_data_V to i160" [/home/paulrr2/Projects/ece527/babelsoc/fpga-network-stack/hls/rocev2/../ipv4/../packet.hpp:60->/home/paulrr2/Projects/ece527/babelsoc/fpga-network-stack/hls/rocev2/../ipv4/ipv4.cpp:48]   --->   Operation 26 'zext' 'tmp_V_4' <Predicate = (tmp & !header_ready_load)> <Delay = 0.00>
ST_2 : Operation 27 [1/1] (0.00ns)   --->   "%tmp_42 = call i8 @_ssdm_op_BitConcatenate.i8.i2.i6(i2 %trunc_ln58, i6 0)" [/home/paulrr2/Projects/ece527/babelsoc/fpga-network-stack/hls/rocev2/../ipv4/../packet.hpp:58->/home/paulrr2/Projects/ece527/babelsoc/fpga-network-stack/hls/rocev2/../ipv4/ipv4.cpp:48]   --->   Operation 27 'bitconcatenate' 'tmp_42' <Predicate = (tmp & !header_ready_load)> <Delay = 0.00>
ST_2 : Operation 28 [1/1] (1.35ns)   --->   "%sub_ln58 = sub i8 -97, %tmp_42" [/home/paulrr2/Projects/ece527/babelsoc/fpga-network-stack/hls/rocev2/../ipv4/../packet.hpp:58->/home/paulrr2/Projects/ece527/babelsoc/fpga-network-stack/hls/rocev2/../ipv4/ipv4.cpp:48]   --->   Operation 28 'sub' 'sub_ln58' <Predicate = (tmp & !header_ready_load & icmp_ln58_3)> <Delay = 1.35> <Core = "AddSub">   --->   Core 14 'AddSub' <Latency = 0> <II = 1> <Delay = 1.01> <FuncUnit> <Opcode : 'add' 'sub'> <InPorts = 2> <OutPorts = 1>
ST_2 : Operation 29 [1/1] (0.00ns) (grouped into LUT with out node sub_ln58_3)   --->   "%select_ln58_9 = select i1 %icmp_ln58_3, i8 %tmp_42, i8 %trunc_ln58_3" [/home/paulrr2/Projects/ece527/babelsoc/fpga-network-stack/hls/rocev2/../ipv4/../packet.hpp:58->/home/paulrr2/Projects/ece527/babelsoc/fpga-network-stack/hls/rocev2/../ipv4/ipv4.cpp:48]   --->   Operation 29 'select' 'select_ln58_9' <Predicate = (tmp & !header_ready_load)> <Delay = 0.00> <Core = "Sel">   --->   Core 26 'Sel' <Latency = 0> <II = 1> <Delay = 0.58> <FuncUnit> <Opcode : 'select'> <InPorts = 3> <OutPorts = 1>
ST_2 : Operation 30 [1/1] (0.00ns) (grouped into LUT with out node and_ln58)   --->   "%select_ln58_10 = select i1 %icmp_ln58_3, i8 %trunc_ln58_3, i8 %tmp_42" [/home/paulrr2/Projects/ece527/babelsoc/fpga-network-stack/hls/rocev2/../ipv4/../packet.hpp:58->/home/paulrr2/Projects/ece527/babelsoc/fpga-network-stack/hls/rocev2/../ipv4/ipv4.cpp:48]   --->   Operation 30 'select' 'select_ln58_10' <Predicate = (tmp & !header_ready_load)> <Delay = 0.00> <Core = "Sel">   --->   Core 26 'Sel' <Latency = 0> <II = 1> <Delay = 0.58> <FuncUnit> <Opcode : 'select'> <InPorts = 3> <OutPorts = 1>
ST_2 : Operation 31 [1/1] (0.00ns) (grouped into LUT with out node shl_ln58)   --->   "%select_ln58_11 = select i1 %icmp_ln58_3, i8 %sub_ln58, i8 %tmp_42" [/home/paulrr2/Projects/ece527/babelsoc/fpga-network-stack/hls/rocev2/../ipv4/../packet.hpp:58->/home/paulrr2/Projects/ece527/babelsoc/fpga-network-stack/hls/rocev2/../ipv4/ipv4.cpp:48]   --->   Operation 31 'select' 'select_ln58_11' <Predicate = (tmp & !header_ready_load)> <Delay = 0.00> <Core = "Sel">   --->   Core 26 'Sel' <Latency = 0> <II = 1> <Delay = 0.58> <FuncUnit> <Opcode : 'select'> <InPorts = 3> <OutPorts = 1>
ST_2 : Operation 32 [1/1] (1.35ns) (out node of the LUT)   --->   "%sub_ln58_3 = sub i8 -97, %select_ln58_9" [/home/paulrr2/Projects/ece527/babelsoc/fpga-network-stack/hls/rocev2/../ipv4/../packet.hpp:58->/home/paulrr2/Projects/ece527/babelsoc/fpga-network-stack/hls/rocev2/../ipv4/ipv4.cpp:48]   --->   Operation 32 'sub' 'sub_ln58_3' <Predicate = (tmp & !header_ready_load)> <Delay = 1.35> <Core = "AddSub">   --->   Core 14 'AddSub' <Latency = 0> <II = 1> <Delay = 1.01> <FuncUnit> <Opcode : 'add' 'sub'> <InPorts = 2> <OutPorts = 1>
ST_2 : Operation 33 [1/1] (0.00ns) (grouped into LUT with out node shl_ln58)   --->   "%zext_ln58_6 = zext i8 %select_ln58_11 to i160" [/home/paulrr2/Projects/ece527/babelsoc/fpga-network-stack/hls/rocev2/../ipv4/../packet.hpp:58->/home/paulrr2/Projects/ece527/babelsoc/fpga-network-stack/hls/rocev2/../ipv4/ipv4.cpp:48]   --->   Operation 33 'zext' 'zext_ln58_6' <Predicate = (tmp & !header_ready_load)> <Delay = 0.00>
ST_2 : Operation 34 [1/1] (0.00ns) (grouped into LUT with out node and_ln58)   --->   "%zext_ln58_7 = zext i8 %select_ln58_10 to i160" [/home/paulrr2/Projects/ece527/babelsoc/fpga-network-stack/hls/rocev2/../ipv4/../packet.hpp:58->/home/paulrr2/Projects/ece527/babelsoc/fpga-network-stack/hls/rocev2/../ipv4/ipv4.cpp:48]   --->   Operation 34 'zext' 'zext_ln58_7' <Predicate = (tmp & !header_ready_load)> <Delay = 0.00>
ST_2 : Operation 35 [1/1] (0.00ns) (grouped into LUT with out node and_ln58)   --->   "%zext_ln58_8 = zext i8 %sub_ln58_3 to i160" [/home/paulrr2/Projects/ece527/babelsoc/fpga-network-stack/hls/rocev2/../ipv4/../packet.hpp:58->/home/paulrr2/Projects/ece527/babelsoc/fpga-network-stack/hls/rocev2/../ipv4/ipv4.cpp:48]   --->   Operation 35 'zext' 'zext_ln58_8' <Predicate = (tmp & !header_ready_load)> <Delay = 0.00>
ST_2 : Operation 36 [1/1] (2.35ns) (out node of the LUT)   --->   "%shl_ln58 = shl i160 %tmp_V_4, %zext_ln58_6" [/home/paulrr2/Projects/ece527/babelsoc/fpga-network-stack/hls/rocev2/../ipv4/../packet.hpp:58->/home/paulrr2/Projects/ece527/babelsoc/fpga-network-stack/hls/rocev2/../ipv4/ipv4.cpp:48]   --->   Operation 36 'shl' 'shl_ln58' <Predicate = (tmp & !header_ready_load)> <Delay = 2.35> <Core = "Shift">   --->   Core 28 'Shift' <Latency = 0> <II = 1> <Delay = 1.62> <FuncUnit> <Opcode : 'shl' 'lshr' 'ashr'> <InPorts = 2> <OutPorts = 1>
ST_2 : Operation 37 [1/1] (0.00ns) (grouped into LUT with out node or_ln58)   --->   "%tmp_43 = call i160 @llvm.part.select.i160(i160 %shl_ln58, i32 159, i32 0)" [/home/paulrr2/Projects/ece527/babelsoc/fpga-network-stack/hls/rocev2/../ipv4/../packet.hpp:58->/home/paulrr2/Projects/ece527/babelsoc/fpga-network-stack/hls/rocev2/../ipv4/ipv4.cpp:48]   --->   Operation 37 'partselect' 'tmp_43' <Predicate = (tmp & !header_ready_load & icmp_ln58_3)> <Delay = 0.00>
ST_2 : Operation 38 [1/1] (0.00ns) (grouped into LUT with out node or_ln58)   --->   "%select_ln58_12 = select i1 %icmp_ln58_3, i160 %tmp_43, i160 %shl_ln58" [/home/paulrr2/Projects/ece527/babelsoc/fpga-network-stack/hls/rocev2/../ipv4/../packet.hpp:58->/home/paulrr2/Projects/ece527/babelsoc/fpga-network-stack/hls/rocev2/../ipv4/ipv4.cpp:48]   --->   Operation 38 'select' 'select_ln58_12' <Predicate = (tmp & !header_ready_load)> <Delay = 0.00> <Core = "Sel">   --->   Core 26 'Sel' <Latency = 0> <II = 1> <Delay = 0.58> <FuncUnit> <Opcode : 'select'> <InPorts = 3> <OutPorts = 1>
ST_2 : Operation 39 [1/1] (0.00ns) (grouped into LUT with out node and_ln58)   --->   "%shl_ln58_3 = shl i160 -1, %zext_ln58_7" [/home/paulrr2/Projects/ece527/babelsoc/fpga-network-stack/hls/rocev2/../ipv4/../packet.hpp:58->/home/paulrr2/Projects/ece527/babelsoc/fpga-network-stack/hls/rocev2/../ipv4/ipv4.cpp:48]   --->   Operation 39 'shl' 'shl_ln58_3' <Predicate = (tmp & !header_ready_load)> <Delay = 0.00> <Core = "Shift">   --->   Core 28 'Shift' <Latency = 0> <II = 1> <Delay = 1.62> <FuncUnit> <Opcode : 'shl' 'lshr' 'ashr'> <InPorts = 2> <OutPorts = 1>
ST_2 : Operation 40 [1/1] (0.00ns) (grouped into LUT with out node and_ln58)   --->   "%lshr_ln58 = lshr i160 -1, %zext_ln58_8" [/home/paulrr2/Projects/ece527/babelsoc/fpga-network-stack/hls/rocev2/../ipv4/../packet.hpp:58->/home/paulrr2/Projects/ece527/babelsoc/fpga-network-stack/hls/rocev2/../ipv4/ipv4.cpp:48]   --->   Operation 40 'lshr' 'lshr_ln58' <Predicate = (tmp & !header_ready_load)> <Delay = 0.00> <Core = "Shift">   --->   Core 28 'Shift' <Latency = 0> <II = 1> <Delay = 1.62> <FuncUnit> <Opcode : 'shl' 'lshr' 'ashr'> <InPorts = 2> <OutPorts = 1>
ST_2 : Operation 41 [1/1] (1.62ns) (out node of the LUT)   --->   "%and_ln58 = and i160 %shl_ln58_3, %lshr_ln58" [/home/paulrr2/Projects/ece527/babelsoc/fpga-network-stack/hls/rocev2/../ipv4/../packet.hpp:58->/home/paulrr2/Projects/ece527/babelsoc/fpga-network-stack/hls/rocev2/../ipv4/ipv4.cpp:48]   --->   Operation 41 'and' 'and_ln58' <Predicate = (tmp & !header_ready_load)> <Delay = 1.62> <Core = "LogicGate">   --->   Core 27 'LogicGate' <Latency = 0> <II = 1> <Delay = 0.48> <FuncUnit> <Opcode : 'and' 'or' 'xor'> <InPorts = 2> <OutPorts = 1>
ST_2 : Operation 42 [1/1] (0.00ns) (grouped into LUT with out node or_ln58)   --->   "%xor_ln58_2 = xor i160 %and_ln58, -1" [/home/paulrr2/Projects/ece527/babelsoc/fpga-network-stack/hls/rocev2/../ipv4/../packet.hpp:58->/home/paulrr2/Projects/ece527/babelsoc/fpga-network-stack/hls/rocev2/../ipv4/ipv4.cpp:48]   --->   Operation 42 'xor' 'xor_ln58_2' <Predicate = (tmp & !header_ready_load)> <Delay = 0.00> <Core = "LogicGate">   --->   Core 27 'LogicGate' <Latency = 0> <II = 1> <Delay = 0.48> <FuncUnit> <Opcode : 'and' 'or' 'xor'> <InPorts = 2> <OutPorts = 1>
ST_2 : Operation 43 [1/1] (0.00ns) (grouped into LUT with out node or_ln58)   --->   "%and_ln58_5 = and i160 %p_Val2_s, %xor_ln58_2" [/home/paulrr2/Projects/ece527/babelsoc/fpga-network-stack/hls/rocev2/../ipv4/../packet.hpp:58->/home/paulrr2/Projects/ece527/babelsoc/fpga-network-stack/hls/rocev2/../ipv4/ipv4.cpp:48]   --->   Operation 43 'and' 'and_ln58_5' <Predicate = (tmp & !header_ready_load)> <Delay = 0.00> <Core = "LogicGate">   --->   Core 27 'LogicGate' <Latency = 0> <II = 1> <Delay = 0.48> <FuncUnit> <Opcode : 'and' 'or' 'xor'> <InPorts = 2> <OutPorts = 1>
ST_2 : Operation 44 [1/1] (0.00ns) (grouped into LUT with out node or_ln58)   --->   "%and_ln58_6 = and i160 %select_ln58_12, %and_ln58" [/home/paulrr2/Projects/ece527/babelsoc/fpga-network-stack/hls/rocev2/../ipv4/../packet.hpp:58->/home/paulrr2/Projects/ece527/babelsoc/fpga-network-stack/hls/rocev2/../ipv4/ipv4.cpp:48]   --->   Operation 44 'and' 'and_ln58_6' <Predicate = (tmp & !header_ready_load)> <Delay = 0.00> <Core = "LogicGate">   --->   Core 27 'LogicGate' <Latency = 0> <II = 1> <Delay = 0.48> <FuncUnit> <Opcode : 'and' 'or' 'xor'> <InPorts = 2> <OutPorts = 1>
ST_2 : Operation 45 [1/1] (0.76ns) (out node of the LUT)   --->   "%or_ln58 = or i160 %and_ln58_5, %and_ln58_6" [/home/paulrr2/Projects/ece527/babelsoc/fpga-network-stack/hls/rocev2/../ipv4/../packet.hpp:58->/home/paulrr2/Projects/ece527/babelsoc/fpga-network-stack/hls/rocev2/../ipv4/ipv4.cpp:48]   --->   Operation 45 'or' 'or_ln58' <Predicate = (tmp & !header_ready_load)> <Delay = 0.76> <Core = "LogicGate">   --->   Core 27 'LogicGate' <Latency = 0> <II = 1> <Delay = 0.48> <FuncUnit> <Opcode : 'and' 'or' 'xor'> <InPorts = 2> <OutPorts = 1>
ST_2 : Operation 46 [1/1] (0.00ns)   --->   "store i160 %or_ln58, i160* @header_header_V_6, align 16" [/home/paulrr2/Projects/ece527/babelsoc/fpga-network-stack/hls/rocev2/../ipv4/../packet.hpp:60->/home/paulrr2/Projects/ece527/babelsoc/fpga-network-stack/hls/rocev2/../ipv4/ipv4.cpp:48]   --->   Operation 46 'store' <Predicate = (tmp & !header_ready_load)> <Delay = 0.00>
ST_2 : Operation 47 [1/1] (0.00ns)   --->   "%phi_ln73 = phi i16 [ %header_idx_3_load, %0 ], [ %add_ln67, %_ifconv ]" [/home/paulrr2/Projects/ece527/babelsoc/fpga-network-stack/hls/rocev2/../ipv4/../packet.hpp:73->/home/paulrr2/Projects/ece527/babelsoc/fpga-network-stack/hls/rocev2/../ipv4/ipv4.cpp:48]   --->   Operation 47 'phi' 'phi_ln73' <Predicate = (tmp & !tmp_last_V)> <Delay = 0.00>
ST_2 : Operation 48 [1/1] (0.00ns) (grouped into LUT with out node or_ln73)   --->   "%write_flag_1_i_i = phi i1 [ false, %0 ], [ %xor_ln58, %_ifconv ]" [/home/paulrr2/Projects/ece527/babelsoc/fpga-network-stack/hls/rocev2/../ipv4/../packet.hpp:58->/home/paulrr2/Projects/ece527/babelsoc/fpga-network-stack/hls/rocev2/../ipv4/ipv4.cpp:48]   --->   Operation 48 'phi' 'write_flag_1_i_i' <Predicate = (tmp)> <Delay = 0.00>
ST_2 : Operation 49 [1/1] (0.48ns) (out node of the LUT)   --->   "%or_ln73 = or i1 %header_ready_load, %write_flag_1_i_i" [/home/paulrr2/Projects/ece527/babelsoc/fpga-network-stack/hls/rocev2/../ipv4/../packet.hpp:73->/home/paulrr2/Projects/ece527/babelsoc/fpga-network-stack/hls/rocev2/../ipv4/ipv4.cpp:48]   --->   Operation 49 'or' 'or_ln73' <Predicate = (tmp)> <Delay = 0.48> <Core = "LogicGate">   --->   Core 27 'LogicGate' <Latency = 0> <II = 1> <Delay = 0.48> <FuncUnit> <Opcode : 'and' 'or' 'xor'> <InPorts = 2> <OutPorts = 1>
ST_2 : Operation 50 [1/1] (0.00ns)   --->   "%metaWritten_3_load = load i1* @metaWritten_3, align 1" [/home/paulrr2/Projects/ece527/babelsoc/fpga-network-stack/hls/rocev2/../ipv4/ipv4.cpp:53]   --->   Operation 50 'load' 'metaWritten_3_load' <Predicate = (tmp)> <Delay = 0.00>
ST_2 : Operation 51 [1/1] (0.85ns)   --->   "br i1 %or_ln73, label %1, label %._crit_edge3.i" [/home/paulrr2/Projects/ece527/babelsoc/fpga-network-stack/hls/rocev2/../ipv4/ipv4.cpp:50]   --->   Operation 51 'br' <Predicate = (tmp)> <Delay = 0.85>
ST_2 : Operation 52 [1/1] (0.85ns)   --->   "br i1 %metaWritten_3_load, label %._crit_edge3.i, label %2" [/home/paulrr2/Projects/ece527/babelsoc/fpga-network-stack/hls/rocev2/../ipv4/ipv4.cpp:53]   --->   Operation 52 'br' <Predicate = (tmp & or_ln73)> <Delay = 0.85>
ST_2 : Operation 53 [1/1] (0.85ns)   --->   "br label %._crit_edge3.i" [/home/paulrr2/Projects/ece527/babelsoc/fpga-network-stack/hls/rocev2/../ipv4/ipv4.cpp:59]   --->   Operation 53 'br' <Predicate = (tmp & or_ln73 & !metaWritten_3_load)> <Delay = 0.85>
ST_2 : Operation 54 [1/1] (0.48ns)   --->   "%xor_ln63 = xor i1 %tmp_last_V, true" [/home/paulrr2/Projects/ece527/babelsoc/fpga-network-stack/hls/rocev2/../ipv4/ipv4.cpp:63]   --->   Operation 54 'xor' 'xor_ln63' <Predicate = (tmp)> <Delay = 0.48> <Core = "LogicGate">   --->   Core 27 'LogicGate' <Latency = 0> <II = 1> <Delay = 0.48> <FuncUnit> <Opcode : 'and' 'or' 'xor'> <InPorts = 2> <OutPorts = 1>
ST_2 : Operation 55 [1/1] (0.48ns)   --->   "%and_ln63 = and i1 %or_ln73, %xor_ln63" [/home/paulrr2/Projects/ece527/babelsoc/fpga-network-stack/hls/rocev2/../ipv4/ipv4.cpp:63]   --->   Operation 55 'and' 'and_ln63' <Predicate = (tmp)> <Delay = 0.48> <Core = "LogicGate">   --->   Core 27 'LogicGate' <Latency = 0> <II = 1> <Delay = 0.48> <FuncUnit> <Opcode : 'and' 'or' 'xor'> <InPorts = 2> <OutPorts = 1>
ST_2 : Operation 56 [1/1] (0.47ns)   --->   "%select_ln63 = select i1 %tmp_last_V, i16 0, i16 %phi_ln73" [/home/paulrr2/Projects/ece527/babelsoc/fpga-network-stack/hls/rocev2/../ipv4/ipv4.cpp:63]   --->   Operation 56 'select' 'select_ln63' <Predicate = (tmp)> <Delay = 0.47> <Core = "Sel">   --->   Core 26 'Sel' <Latency = 0> <II = 1> <Delay = 0.58> <FuncUnit> <Opcode : 'select'> <InPorts = 3> <OutPorts = 1>
ST_2 : Operation 57 [1/1] (0.00ns)   --->   "store i16 %select_ln63, i16* @header_idx_3, align 2" [/home/paulrr2/Projects/ece527/babelsoc/fpga-network-stack/hls/rocev2/../ipv4/ipv4.cpp:48]   --->   Operation 57 'store' <Predicate = (tmp)> <Delay = 0.00>
ST_2 : Operation 58 [1/1] (0.00ns)   --->   "store i1 %and_ln63, i1* @header_ready, align 1" [/home/paulrr2/Projects/ece527/babelsoc/fpga-network-stack/hls/rocev2/../ipv4/ipv4.cpp:48]   --->   Operation 58 'store' <Predicate = (tmp)> <Delay = 0.00>

State 3 <SV = 2> <Delay = 3.40>
ST_3 : Operation 59 [1/1] (0.00ns)   --->   "call void (...)* @_ssdm_op_SpecInterface(i64* @rx_crc2ipFifo_V_data, [8 x i8]* @ap_fifo_str, i32 0, i32 0, [1 x i8]* @p_str, i32 0, i32 0, [1 x i8]* @p_str, [1 x i8]* @p_str, [1 x i8]* @p_str, i32 2, i32 2, i32 16, i32 16, [1 x i8]* @p_str, [1 x i8]* @p_str)"   --->   Operation 59 'specinterface' <Predicate = true> <Delay = 0.00>
ST_3 : Operation 60 [1/1] (0.00ns)   --->   "call void (...)* @_ssdm_op_SpecInterface(i8* @rx_crc2ipFifo_V_keep, [8 x i8]* @ap_fifo_str, i32 0, i32 0, [1 x i8]* @p_str, i32 0, i32 0, [1 x i8]* @p_str, [1 x i8]* @p_str, [1 x i8]* @p_str, i32 2, i32 2, i32 16, i32 16, [1 x i8]* @p_str, [1 x i8]* @p_str)"   --->   Operation 60 'specinterface' <Predicate = true> <Delay = 0.00>
ST_3 : Operation 61 [1/1] (0.00ns)   --->   "call void (...)* @_ssdm_op_SpecInterface(i1* @rx_crc2ipFifo_V_last, [8 x i8]* @ap_fifo_str, i32 0, i32 0, [1 x i8]* @p_str, i32 0, i32 0, [1 x i8]* @p_str, [1 x i8]* @p_str, [1 x i8]* @p_str, i32 2, i32 2, i32 16, i32 16, [1 x i8]* @p_str, [1 x i8]* @p_str)"   --->   Operation 61 'specinterface' <Predicate = true> <Delay = 0.00>
ST_3 : Operation 62 [1/1] (0.00ns)   --->   "call void (...)* @_ssdm_op_SpecInterface(i16* @rx_ip2udpMetaFifo_V_1, [8 x i8]* @ap_fifo_str, i32 0, i32 0, [1 x i8]* @p_str, i32 0, i32 0, [1 x i8]* @p_str, [1 x i8]* @p_str, [1 x i8]* @p_str, i32 2, i32 2, i32 16, i32 16, [1 x i8]* @p_str, [1 x i8]* @p_str)"   --->   Operation 62 'specinterface' <Predicate = true> <Delay = 0.00>
ST_3 : Operation 63 [1/1] (0.00ns)   --->   "call void (...)* @_ssdm_op_SpecInterface(i32* @rx_ip2udpMetaFifo_V_s, [8 x i8]* @ap_fifo_str, i32 0, i32 0, [1 x i8]* @p_str, i32 0, i32 0, [1 x i8]* @p_str, [1 x i8]* @p_str, [1 x i8]* @p_str, i32 2, i32 2, i32 16, i32 16, [1 x i8]* @p_str, [1 x i8]* @p_str)"   --->   Operation 63 'specinterface' <Predicate = true> <Delay = 0.00>
ST_3 : Operation 64 [1/1] (0.00ns)   --->   "call void (...)* @_ssdm_op_SpecInterface(i64* @rx_process2dropFifo_1_5, [8 x i8]* @ap_fifo_str, i32 0, i32 0, [1 x i8]* @p_str, i32 0, i32 0, [1 x i8]* @p_str, [1 x i8]* @p_str, [1 x i8]* @p_str, i32 2, i32 2, i32 16, i32 16, [1 x i8]* @p_str, [1 x i8]* @p_str)"   --->   Operation 64 'specinterface' <Predicate = true> <Delay = 0.00>
ST_3 : Operation 65 [1/1] (0.00ns)   --->   "call void (...)* @_ssdm_op_SpecInterface(i8* @rx_process2dropFifo_2_4, [8 x i8]* @ap_fifo_str, i32 0, i32 0, [1 x i8]* @p_str, i32 0, i32 0, [1 x i8]* @p_str, [1 x i8]* @p_str, [1 x i8]* @p_str, i32 2, i32 2, i32 16, i32 16, [1 x i8]* @p_str, [1 x i8]* @p_str)"   --->   Operation 65 'specinterface' <Predicate = true> <Delay = 0.00>
ST_3 : Operation 66 [1/1] (0.00ns)   --->   "call void (...)* @_ssdm_op_SpecInterface(i1* @rx_process2dropFifo_s_6, [8 x i8]* @ap_fifo_str, i32 0, i32 0, [1 x i8]* @p_str, i32 0, i32 0, [1 x i8]* @p_str, [1 x i8]* @p_str, [1 x i8]* @p_str, i32 2, i32 2, i32 16, i32 16, [1 x i8]* @p_str, [1 x i8]* @p_str)"   --->   Operation 66 'specinterface' <Predicate = true> <Delay = 0.00>
ST_3 : Operation 67 [1/1] (0.00ns)   --->   "call void (...)* @_ssdm_op_SpecInterface(i4* @rx_process2dropLengt_1, [8 x i8]* @ap_fifo_str, i32 0, i32 0, [1 x i8]* @p_str, i32 0, i32 0, [1 x i8]* @p_str, [1 x i8]* @p_str, [1 x i8]* @p_str, i32 2, i32 2, i32 16, i32 16, [1 x i8]* @p_str, [1 x i8]* @p_str)"   --->   Operation 67 'specinterface' <Predicate = true> <Delay = 0.00>
ST_3 : Operation 68 [1/1] (0.00ns)   --->   "call void (...)* @_ssdm_op_SpecPipeline(i32 1, i32 1, i32 1, i32 0, [1 x i8]* @p_str177) nounwind" [/home/paulrr2/Projects/ece527/babelsoc/fpga-network-stack/hls/rocev2/../ipv4/ipv4.cpp:37]   --->   Operation 68 'specpipeline' <Predicate = true> <Delay = 0.00>
ST_3 : Operation 69 [1/1] (0.00ns)   --->   "%headerWordsDropped_V_1 = load i4* @headerWordsDropped_V, align 1" [/home/paulrr2/Projects/ece527/babelsoc/fpga-network-stack/hls/rocev2/../ipv4/ipv4.cpp:56]   --->   Operation 69 'load' 'headerWordsDropped_V_1' <Predicate = (tmp)> <Delay = 0.00>
ST_3 : Operation 70 [1/1] (2.39ns)   --->   "call void @_ssdm_op_Write.ap_fifo.volatile.i64P.i8P.i1P(i64* @rx_process2dropFifo_1_5, i8* @rx_process2dropFifo_2_4, i1* @rx_process2dropFifo_s_6, i64 %tmp_data_V, i8 %tmp_keep_V, i1 %tmp_last_V) nounwind" [/home/paulrr2/Projects/ece527/babelsoc/fpga-network-stack/hls/rocev2/../ipv4/ipv4.cpp:52]   --->   Operation 70 'write' <Predicate = (tmp & or_ln73)> <Delay = 2.39> <Core = "FIFO">   --->   Core 32 'FIFO' <Latency = 0> <II = 1> <Delay = 2.39> <Storage> <Opcode : 'read' 'write' 'nbread' 'nbwrite'> <Ports = 0> <Width = 32> <Depth = 2> <FIFO>
ST_3 : Operation 71 [1/1] (0.00ns)   --->   "%p_Val2_14 = load i160* @header_header_V_6, align 16" [/home/paulrr2/Projects/ece527/babelsoc/fpga-network-stack/hls/rocev2/../ipv4/ipv4.hpp:383->/home/paulrr2/Projects/ece527/babelsoc/fpga-network-stack/hls/rocev2/../ipv4/ipv4.cpp:56]   --->   Operation 71 'load' 'p_Val2_14' <Predicate = (tmp & or_ln73 & !metaWritten_3_load)> <Delay = 0.00>
ST_3 : Operation 72 [1/1] (0.00ns)   --->   "%trunc_ln647 = trunc i160 %p_Val2_14 to i4" [/home/paulrr2/Projects/ece527/babelsoc/fpga-network-stack/hls/rocev2/../ipv4/ipv4.hpp:383->/home/paulrr2/Projects/ece527/babelsoc/fpga-network-stack/hls/rocev2/../ipv4/ipv4.cpp:56]   --->   Operation 72 'trunc' 'trunc_ln647' <Predicate = (tmp & or_ln73 & !metaWritten_3_load)> <Delay = 0.00>
ST_3 : Operation 73 [1/1] (1.01ns)   --->   "%tmp_V = sub i4 %trunc_ln647, %headerWordsDropped_V_1" [/home/paulrr2/Projects/ece527/babelsoc/fpga-network-stack/hls/rocev2/../ipv4/ipv4.cpp:56]   --->   Operation 73 'sub' 'tmp_V' <Predicate = (tmp & or_ln73 & !metaWritten_3_load)> <Delay = 1.01> <Core = "AddSub">   --->   Core 14 'AddSub' <Latency = 0> <II = 1> <Delay = 1.01> <FuncUnit> <Opcode : 'add' 'sub'> <InPorts = 2> <OutPorts = 1>
ST_3 : Operation 74 [1/1] (2.39ns)   --->   "call void @_ssdm_op_Write.ap_fifo.volatile.i4P(i4* @rx_process2dropLengt_1, i4 %tmp_V) nounwind" [/home/paulrr2/Projects/ece527/babelsoc/fpga-network-stack/hls/rocev2/../ipv4/ipv4.cpp:56]   --->   Operation 74 'write' <Predicate = (tmp & or_ln73 & !metaWritten_3_load)> <Delay = 2.39> <Core = "FIFO">   --->   Core 32 'FIFO' <Latency = 0> <II = 1> <Delay = 2.39> <Storage> <Opcode : 'read' 'write' 'nbread' 'nbwrite'> <Ports = 0> <Width = 32> <Depth = 2> <FIFO>
ST_3 : Operation 75 [1/1] (0.00ns)   --->   "%tmp_their_address_V = call i32 @_ssdm_op_PartSelect.i32.i160.i32.i32(i160 %p_Val2_14, i32 96, i32 127) nounwind" [/home/paulrr2/Projects/ece527/babelsoc/fpga-network-stack/hls/rocev2/../ipv4/ipv4.hpp:355->/home/paulrr2/Projects/ece527/babelsoc/fpga-network-stack/hls/rocev2/../ipv4/ipv4.cpp:57]   --->   Operation 75 'partselect' 'tmp_their_address_V' <Predicate = (tmp & or_ln73 & !metaWritten_3_load)> <Delay = 0.00>
ST_3 : Operation 76 [1/1] (0.00ns)   --->   "%p_Result_71_i_i_i = call i8 @_ssdm_op_PartSelect.i8.i160.i32.i32(i160 %p_Val2_14, i32 24, i32 31) nounwind" [/home/paulrr2/Projects/ece527/babelsoc/fpga-network-stack/hls/rocev2/../udp/../axi_utils.hpp:79->/home/paulrr2/Projects/ece527/babelsoc/fpga-network-stack/hls/rocev2/../ipv4/ipv4.hpp:371->/home/paulrr2/Projects/ece527/babelsoc/fpga-network-stack/hls/rocev2/../ipv4/ipv4.cpp:57]   --->   Operation 76 'partselect' 'p_Result_71_i_i_i' <Predicate = (tmp & or_ln73 & !metaWritten_3_load)> <Delay = 0.00>
ST_3 : Operation 77 [1/1] (0.00ns)   --->   "%p_Result_71_1_i_i_s = call i8 @_ssdm_op_PartSelect.i8.i160.i32.i32(i160 %p_Val2_14, i32 16, i32 23) nounwind" [/home/paulrr2/Projects/ece527/babelsoc/fpga-network-stack/hls/rocev2/../udp/../axi_utils.hpp:79->/home/paulrr2/Projects/ece527/babelsoc/fpga-network-stack/hls/rocev2/../ipv4/ipv4.hpp:371->/home/paulrr2/Projects/ece527/babelsoc/fpga-network-stack/hls/rocev2/../ipv4/ipv4.cpp:57]   --->   Operation 77 'partselect' 'p_Result_71_1_i_i_s' <Predicate = (tmp & or_ln73 & !metaWritten_3_load)> <Delay = 0.00>
ST_3 : Operation 78 [1/1] (0.00ns)   --->   "%tmp_length_V = call i16 @_ssdm_op_BitConcatenate.i16.i8.i8(i8 %p_Result_71_1_i_i_s, i8 %p_Result_71_i_i_i) nounwind" [/home/paulrr2/Projects/ece527/babelsoc/fpga-network-stack/hls/rocev2/../udp/../axi_utils.hpp:79->/home/paulrr2/Projects/ece527/babelsoc/fpga-network-stack/hls/rocev2/../ipv4/ipv4.hpp:371->/home/paulrr2/Projects/ece527/babelsoc/fpga-network-stack/hls/rocev2/../ipv4/ipv4.cpp:57]   --->   Operation 78 'bitconcatenate' 'tmp_length_V' <Predicate = (tmp & or_ln73 & !metaWritten_3_load)> <Delay = 0.00>
ST_3 : Operation 79 [1/1] (2.39ns)   --->   "call void @_ssdm_op_Write.ap_fifo.volatile.i32P.i16P(i32* @rx_ip2udpMetaFifo_V_s, i16* @rx_ip2udpMetaFifo_V_1, i32 %tmp_their_address_V, i16 %tmp_length_V) nounwind" [/home/paulrr2/Projects/ece527/babelsoc/fpga-network-stack/hls/rocev2/../ipv4/ipv4.cpp:57]   --->   Operation 79 'write' <Predicate = (tmp & or_ln73 & !metaWritten_3_load)> <Delay = 2.39> <Core = "FIFO">   --->   Core 32 'FIFO' <Latency = 0> <II = 1> <Delay = 2.39> <Storage> <Opcode : 'read' 'write' 'nbread' 'nbwrite'> <Ports = 0> <Width = 32> <Depth = 2> <FIFO>
ST_3 : Operation 80 [1/1] (0.00ns) (grouped into LUT with out node or_ln63)   --->   "%metaWritten_5_flag_1 = phi i1 [ false, %parseWord.exit.i ], [ false, %1 ], [ true, %2 ]"   --->   Operation 80 'phi' 'metaWritten_5_flag_1' <Predicate = (tmp)> <Delay = 0.00>
ST_3 : Operation 81 [1/1] (1.01ns)   --->   "%add_ln700 = add i4 %headerWordsDropped_V_1, 2" [/home/paulrr2/Projects/ece527/babelsoc/fpga-network-stack/hls/rocev2/../ipv4/ipv4.cpp:62]   --->   Operation 81 'add' 'add_ln700' <Predicate = (tmp & !tmp_last_V)> <Delay = 1.01> <Core = "AddSub">   --->   Core 14 'AddSub' <Latency = 0> <II = 1> <Delay = 1.01> <FuncUnit> <Opcode : 'add' 'sub'> <InPorts = 2> <OutPorts = 1>
ST_3 : Operation 82 [1/1] (0.48ns) (out node of the LUT)   --->   "%or_ln63 = or i1 %tmp_last_V, %metaWritten_5_flag_1" [/home/paulrr2/Projects/ece527/babelsoc/fpga-network-stack/hls/rocev2/../ipv4/ipv4.cpp:63]   --->   Operation 82 'or' 'or_ln63' <Predicate = (tmp)> <Delay = 0.48> <Core = "LogicGate">   --->   Core 27 'LogicGate' <Latency = 0> <II = 1> <Delay = 0.48> <FuncUnit> <Opcode : 'and' 'or' 'xor'> <InPorts = 2> <OutPorts = 1>
ST_3 : Operation 83 [1/1] (0.58ns)   --->   "%select_ln63_1 = select i1 %tmp_last_V, i4 0, i4 %add_ln700" [/home/paulrr2/Projects/ece527/babelsoc/fpga-network-stack/hls/rocev2/../ipv4/ipv4.cpp:63]   --->   Operation 83 'select' 'select_ln63_1' <Predicate = (tmp)> <Delay = 0.58> <Core = "Sel">   --->   Core 26 'Sel' <Latency = 0> <II = 1> <Delay = 0.58> <FuncUnit> <Opcode : 'select'> <InPorts = 3> <OutPorts = 1>
ST_3 : Operation 84 [1/1] (0.00ns)   --->   "store i4 %select_ln63_1, i4* @headerWordsDropped_V, align 1" [/home/paulrr2/Projects/ece527/babelsoc/fpga-network-stack/hls/rocev2/../ipv4/ipv4.cpp:62]   --->   Operation 84 'store' <Predicate = (tmp)> <Delay = 0.00>
ST_3 : Operation 85 [1/1] (0.00ns)   --->   "br i1 %or_ln63, label %mergeST57.i, label %._crit_edge5.new58.i" [/home/paulrr2/Projects/ece527/babelsoc/fpga-network-stack/hls/rocev2/../ipv4/ipv4.cpp:63]   --->   Operation 85 'br' <Predicate = (tmp)> <Delay = 0.00>
ST_3 : Operation 86 [1/1] (0.00ns)   --->   "store i1 %xor_ln63, i1* @metaWritten_3, align 1" [/home/paulrr2/Projects/ece527/babelsoc/fpga-network-stack/hls/rocev2/../ipv4/ipv4.cpp:58]   --->   Operation 86 'store' <Predicate = (tmp & or_ln63)> <Delay = 0.00>
ST_3 : Operation 87 [1/1] (0.00ns)   --->   "br label %._crit_edge5.new58.i"   --->   Operation 87 'br' <Predicate = (tmp & or_ln63)> <Delay = 0.00>
ST_3 : Operation 88 [1/1] (0.00ns)   --->   "br label %"process_ipv4<64>.exit"" [/home/paulrr2/Projects/ece527/babelsoc/fpga-network-stack/hls/rocev2/../ipv4/ipv4.cpp:69]   --->   Operation 88 'br' <Predicate = (tmp)> <Delay = 0.00>
ST_3 : Operation 89 [1/1] (0.00ns)   --->   "ret void"   --->   Operation 89 'ret' <Predicate = true> <Delay = 0.00>


============================================================
+ Verbose Summary: Timing violations
============================================================
Target clock period: 6.4ns, clock uncertainty: 0.8ns.

 <State 1>: 4.59ns
The critical path consists of the following:
	'load' operation ('packetHeader<64, 160>.idx', /home/paulrr2/Projects/ece527/babelsoc/fpga-network-stack/hls/rocev2/../ipv4/ipv4.cpp:48) on static variable 'header_idx_3' [40]  (0 ns)
	'add' operation ('add_ln58', /home/paulrr2/Projects/ece527/babelsoc/fpga-network-stack/hls/rocev2/../ipv4/../packet.hpp:58->/home/paulrr2/Projects/ece527/babelsoc/fpga-network-stack/hls/rocev2/../ipv4/ipv4.cpp:48) [46]  (1.39 ns)
	'icmp' operation ('icmp_ln58', /home/paulrr2/Projects/ece527/babelsoc/fpga-network-stack/hls/rocev2/../ipv4/../packet.hpp:58->/home/paulrr2/Projects/ece527/babelsoc/fpga-network-stack/hls/rocev2/../ipv4/ipv4.cpp:48) [47]  (1.22 ns)
	'select' operation ('select_ln58', /home/paulrr2/Projects/ece527/babelsoc/fpga-network-stack/hls/rocev2/../ipv4/../packet.hpp:58->/home/paulrr2/Projects/ece527/babelsoc/fpga-network-stack/hls/rocev2/../ipv4/ipv4.cpp:48) [51]  (0.773 ns)
	'icmp' operation ('icmp_ln58_3', /home/paulrr2/Projects/ece527/babelsoc/fpga-network-stack/hls/rocev2/../ipv4/../packet.hpp:58->/home/paulrr2/Projects/ece527/babelsoc/fpga-network-stack/hls/rocev2/../ipv4/ipv4.cpp:48) [52]  (1.21 ns)

 <State 2>: 4.47ns
The critical path consists of the following:
	'sub' operation ('sub_ln58', /home/paulrr2/Projects/ece527/babelsoc/fpga-network-stack/hls/rocev2/../ipv4/../packet.hpp:58->/home/paulrr2/Projects/ece527/babelsoc/fpga-network-stack/hls/rocev2/../ipv4/ipv4.cpp:48) [55]  (1.36 ns)
	'select' operation ('select_ln58_11', /home/paulrr2/Projects/ece527/babelsoc/fpga-network-stack/hls/rocev2/../ipv4/../packet.hpp:58->/home/paulrr2/Projects/ece527/babelsoc/fpga-network-stack/hls/rocev2/../ipv4/ipv4.cpp:48) [58]  (0 ns)
	'shl' operation ('shl_ln58', /home/paulrr2/Projects/ece527/babelsoc/fpga-network-stack/hls/rocev2/../ipv4/../packet.hpp:58->/home/paulrr2/Projects/ece527/babelsoc/fpga-network-stack/hls/rocev2/../ipv4/ipv4.cpp:48) [63]  (2.35 ns)
	'select' operation ('select_ln58_12', /home/paulrr2/Projects/ece527/babelsoc/fpga-network-stack/hls/rocev2/../ipv4/../packet.hpp:58->/home/paulrr2/Projects/ece527/babelsoc/fpga-network-stack/hls/rocev2/../ipv4/ipv4.cpp:48) [65]  (0 ns)
	'and' operation ('and_ln58_6', /home/paulrr2/Projects/ece527/babelsoc/fpga-network-stack/hls/rocev2/../ipv4/../packet.hpp:58->/home/paulrr2/Projects/ece527/babelsoc/fpga-network-stack/hls/rocev2/../ipv4/ipv4.cpp:48) [71]  (0 ns)
	'or' operation ('or_ln58', /home/paulrr2/Projects/ece527/babelsoc/fpga-network-stack/hls/rocev2/../ipv4/../packet.hpp:58->/home/paulrr2/Projects/ece527/babelsoc/fpga-network-stack/hls/rocev2/../ipv4/ipv4.cpp:48) [72]  (0.762 ns)

 <State 3>: 3.4ns
The critical path consists of the following:
	'load' operation ('headerWordsDropped_V_1', /home/paulrr2/Projects/ece527/babelsoc/fpga-network-stack/hls/rocev2/../ipv4/ipv4.cpp:56) on static variable 'headerWordsDropped_V' [82]  (0 ns)
	'sub' operation ('tmp.V', /home/paulrr2/Projects/ece527/babelsoc/fpga-network-stack/hls/rocev2/../ipv4/ipv4.cpp:56) [90]  (1.01 ns)
	fifo write on port 'rx_process2dropLengt_1' (/home/paulrr2/Projects/ece527/babelsoc/fpga-network-stack/hls/rocev2/../ipv4/ipv4.cpp:56) [91]  (2.39 ns)


============================================================
+ Verbose Summary: Binding
============================================================
N/A
* FSMD analyzer results:
  - Output states:
 - Input state : 
  - Chain level:
	State 1
	State 2
	State 3


============================================================
+ Verbose Summary: Datapath Resource usage 
============================================================
N/A
