

================================================================
== Vivado HLS Report for 'process_udp_64_1989'
================================================================
* Date:           Sat Dec 12 19:40:58 2020

* Version:        2019.2.1 (Build 2724168 on Thu Dec 05 05:19:09 MST 2019)
* Project:        rocev2_prj
* Solution:       solution1
* Product family: virtex7
* Target device:  xc7vx690t-ffg1761-2


================================================================
== Performance Estimates
================================================================
+ Timing: 
    * Summary: 
    +--------+---------+----------+------------+
    |  Clock |  Target | Estimated| Uncertainty|
    +--------+---------+----------+------------+
    |ap_clk  | 6.40 ns | 5.370 ns |   0.80 ns  |
    +--------+---------+----------+------------+

+ Latency: 
    * Summary: 
    +---------+---------+-----------+-----------+-----+-----+----------+
    |  Latency (cycles) |   Latency (absolute)  |  Interval | Pipeline |
    |   min   |   max   |    min    |    max    | min | max |   Type   |
    +---------+---------+-----------+-----------+-----+-----+----------+
    |        2|        2| 12.800 ns | 12.800 ns |    1|    1| function |
    +---------+---------+-----------+-----------+-----+-----+----------+

    + Detail: 
        * Instance: 
        N/A

        * Loop: 
        N/A

============================================================
+ Verbose Summary: Synthesis Manager
============================================================
InlineROM: 1
ExposeGlobal: 0
============================================================
+ Verbose Summary: CDFG Model
============================================================
IsTopModel: 0
ResetActiveHigh: 1
IsCombinational: 2
IsDatapathOnly: 0
HasWiredReturn: 1
HasMFsm: 2
HasVarLatency: 0
IsPipeline: 1
IsRtlPipelined: 1
IsInstanceOverlapped: 0
IsDontTouch: 0
HasImplIP: 0
IsGatedGlobalClock: 0

+ Individual pipeline summary: 
  * Pipeline-0: initiation interval (II) = 1, depth = 3


============================================================
+ Verbose Summary: Schedule
============================================================
* Number of FSM states : 3
* Pipeline : 1
  Pipeline-0 : II = 1, D = 3, States = { 1 2 3 }
* Dataflow Pipeline: 0

* FSM state transitions: 
1 --> 2 
2 --> 3 
3 --> 

* FSM state operations: 

State 1 <SV = 0> <Delay = 5.37>
ST_1 : Operation 4 [1/1] (0.00ns)   --->   "%tmp = call i1 @_ssdm_op_NbReadReq.ap_fifo.i64P.i8P.i1P(i64* @rx_ip2udpFifo_V_data, i8* @rx_ip2udpFifo_V_keep, i1* @rx_ip2udpFifo_V_last, i32 1)" [/home/paulrr2/Projects/ece527/babelsoc/fpga-network-stack/hls/rocev2/../udp/udp.cpp:43]   --->   Operation 4 'nbreadreq' 'tmp' <Predicate = true> <Delay = 0.00> <Core = "FIFO">   --->   Core 32 'FIFO' <Latency = 0> <II = 1> <Delay = 2.39> <Storage> <Opcode : 'read' 'write' 'nbread' 'nbwrite'> <Ports = 0> <Width = 49> <Depth = 2> <FIFO>
ST_1 : Operation 5 [1/1] (0.00ns)   --->   "br i1 %tmp, label %0, label %"process_udp<64>1989.exit"" [/home/paulrr2/Projects/ece527/babelsoc/fpga-network-stack/hls/rocev2/../udp/udp.cpp:43]   --->   Operation 5 'br' <Predicate = true> <Delay = 0.00>
ST_1 : Operation 6 [1/1] (2.39ns)   --->   "%empty = call { i64, i8, i1 } @_ssdm_op_Read.ap_fifo.volatile.i64P.i8P.i1P(i64* @rx_ip2udpFifo_V_data, i8* @rx_ip2udpFifo_V_keep, i1* @rx_ip2udpFifo_V_last)" [/home/paulrr2/Projects/ece527/babelsoc/fpga-network-stack/hls/rocev2/../udp/udp.cpp:45]   --->   Operation 6 'read' 'empty' <Predicate = (tmp)> <Delay = 2.39> <Core = "FIFO">   --->   Core 32 'FIFO' <Latency = 0> <II = 1> <Delay = 2.39> <Storage> <Opcode : 'read' 'write' 'nbread' 'nbwrite'> <Ports = 0> <Width = 49> <Depth = 2> <FIFO>
ST_1 : Operation 7 [1/1] (0.00ns)   --->   "%tmp_data_V = extractvalue { i64, i8, i1 } %empty, 0" [/home/paulrr2/Projects/ece527/babelsoc/fpga-network-stack/hls/rocev2/../udp/udp.cpp:45]   --->   Operation 7 'extractvalue' 'tmp_data_V' <Predicate = (tmp)> <Delay = 0.00>
ST_1 : Operation 8 [1/1] (0.00ns)   --->   "%tmp_keep_V = extractvalue { i64, i8, i1 } %empty, 1" [/home/paulrr2/Projects/ece527/babelsoc/fpga-network-stack/hls/rocev2/../udp/udp.cpp:45]   --->   Operation 8 'extractvalue' 'tmp_keep_V' <Predicate = (tmp)> <Delay = 0.00>
ST_1 : Operation 9 [1/1] (0.00ns)   --->   "%tmp_last_V = extractvalue { i64, i8, i1 } %empty, 2" [/home/paulrr2/Projects/ece527/babelsoc/fpga-network-stack/hls/rocev2/../udp/udp.cpp:45]   --->   Operation 9 'extractvalue' 'tmp_last_V' <Predicate = (tmp)> <Delay = 0.00>
ST_1 : Operation 10 [1/1] (0.00ns)   --->   "%pu_header_ready_load = load i1* @pu_header_ready, align 1" [/home/paulrr2/Projects/ece527/babelsoc/fpga-network-stack/hls/rocev2/../udp/udp.cpp:51]   --->   Operation 10 'load' 'pu_header_ready_load' <Predicate = (tmp)> <Delay = 0.00>
ST_1 : Operation 11 [1/1] (0.00ns)   --->   "%pu_header_idx_load = load i16* @pu_header_idx, align 2" [/home/paulrr2/Projects/ece527/babelsoc/fpga-network-stack/hls/rocev2/../udp/udp.cpp:51]   --->   Operation 11 'load' 'pu_header_idx_load' <Predicate = (tmp)> <Delay = 0.00>
ST_1 : Operation 12 [1/1] (0.85ns)   --->   "br i1 %pu_header_ready_load, label %parseWord.exit.i, label %1" [/home/paulrr2/Projects/ece527/babelsoc/fpga-network-stack/hls/rocev2/../udp/../packet.hpp:55->/home/paulrr2/Projects/ece527/babelsoc/fpga-network-stack/hls/rocev2/../udp/udp.cpp:51]   --->   Operation 12 'br' <Predicate = (tmp)> <Delay = 0.85>
ST_1 : Operation 13 [1/1] (0.00ns)   --->   "%trunc_ln64 = trunc i16 %pu_header_idx_load to i1" [/home/paulrr2/Projects/ece527/babelsoc/fpga-network-stack/hls/rocev2/../udp/../packet.hpp:64->/home/paulrr2/Projects/ece527/babelsoc/fpga-network-stack/hls/rocev2/../udp/udp.cpp:51]   --->   Operation 13 'trunc' 'trunc_ln64' <Predicate = (tmp & !pu_header_ready_load)> <Delay = 0.00>
ST_1 : Operation 14 [1/1] (0.00ns)   --->   "%p_Val2_s = load i64* @pu_header_header_V, align 8" [/home/paulrr2/Projects/ece527/babelsoc/fpga-network-stack/hls/rocev2/../udp/../packet.hpp:64->/home/paulrr2/Projects/ece527/babelsoc/fpga-network-stack/hls/rocev2/../udp/udp.cpp:51]   --->   Operation 14 'load' 'p_Val2_s' <Predicate = (tmp & !pu_header_ready_load)> <Delay = 0.00>
ST_1 : Operation 15 [1/1] (0.00ns)   --->   "%zext_ln414 = zext i16 %pu_header_idx_load to i26" [/home/paulrr2/Projects/ece527/babelsoc/fpga-network-stack/hls/rocev2/../udp/../packet.hpp:64->/home/paulrr2/Projects/ece527/babelsoc/fpga-network-stack/hls/rocev2/../udp/udp.cpp:51]   --->   Operation 15 'zext' 'zext_ln414' <Predicate = (tmp & !pu_header_ready_load)> <Delay = 0.00>
ST_1 : Operation 16 [1/1] (1.18ns)   --->   "%icmp_ln414 = icmp ne i26 %zext_ln414, 0" [/home/paulrr2/Projects/ece527/babelsoc/fpga-network-stack/hls/rocev2/../udp/../packet.hpp:64->/home/paulrr2/Projects/ece527/babelsoc/fpga-network-stack/hls/rocev2/../udp/udp.cpp:51]   --->   Operation 16 'icmp' 'icmp_ln414' <Predicate = (tmp & !pu_header_ready_load)> <Delay = 1.18> <Core = "Cmp">   --->   Core 25 'Cmp' <Latency = 0> <II = 1> <Delay = 1.18> <FuncUnit> <Opcode : 'icmp'> <InPorts = 2> <OutPorts = 1>
ST_1 : Operation 17 [1/1] (0.00ns)   --->   "%tmp_40 = call i7 @_ssdm_op_BitConcatenate.i7.i1.i6(i1 %trunc_ln64, i6 0)" [/home/paulrr2/Projects/ece527/babelsoc/fpga-network-stack/hls/rocev2/../udp/../packet.hpp:64->/home/paulrr2/Projects/ece527/babelsoc/fpga-network-stack/hls/rocev2/../udp/udp.cpp:51]   --->   Operation 17 'bitconcatenate' 'tmp_40' <Predicate = (tmp & !pu_header_ready_load)> <Delay = 0.00>
ST_1 : Operation 18 [1/1] (1.27ns)   --->   "%sub_ln414 = sub i7 63, %tmp_40" [/home/paulrr2/Projects/ece527/babelsoc/fpga-network-stack/hls/rocev2/../udp/../packet.hpp:64->/home/paulrr2/Projects/ece527/babelsoc/fpga-network-stack/hls/rocev2/../udp/udp.cpp:51]   --->   Operation 18 'sub' 'sub_ln414' <Predicate = (tmp & !pu_header_ready_load)> <Delay = 1.27> <Core = "AddSub">   --->   Core 14 'AddSub' <Latency = 0> <II = 1> <Delay = 1.30> <FuncUnit> <Opcode : 'add' 'sub'> <InPorts = 2> <OutPorts = 1>
ST_1 : Operation 19 [1/1] (0.00ns) (grouped into LUT with out node and_ln414)   --->   "%select_ln414 = select i1 %icmp_ln414, i7 63, i7 %tmp_40" [/home/paulrr2/Projects/ece527/babelsoc/fpga-network-stack/hls/rocev2/../udp/../packet.hpp:64->/home/paulrr2/Projects/ece527/babelsoc/fpga-network-stack/hls/rocev2/../udp/udp.cpp:51]   --->   Operation 19 'select' 'select_ln414' <Predicate = (tmp & !pu_header_ready_load)> <Delay = 0.00> <Core = "Sel">   --->   Core 26 'Sel' <Latency = 0> <II = 1> <Delay = 0.47> <FuncUnit> <Opcode : 'select'> <InPorts = 3> <OutPorts = 1>
ST_1 : Operation 20 [1/1] (0.00ns) (grouped into LUT with out node shl_ln414)   --->   "%select_ln414_4 = select i1 %icmp_ln414, i7 %sub_ln414, i7 %tmp_40" [/home/paulrr2/Projects/ece527/babelsoc/fpga-network-stack/hls/rocev2/../udp/../packet.hpp:64->/home/paulrr2/Projects/ece527/babelsoc/fpga-network-stack/hls/rocev2/../udp/udp.cpp:51]   --->   Operation 20 'select' 'select_ln414_4' <Predicate = (tmp & !pu_header_ready_load)> <Delay = 0.00> <Core = "Sel">   --->   Core 26 'Sel' <Latency = 0> <II = 1> <Delay = 0.47> <FuncUnit> <Opcode : 'select'> <InPorts = 3> <OutPorts = 1>
ST_1 : Operation 21 [1/1] (1.27ns)   --->   "%sub_ln414_1 = sub i7 63, %tmp_40" [/home/paulrr2/Projects/ece527/babelsoc/fpga-network-stack/hls/rocev2/../udp/../packet.hpp:64->/home/paulrr2/Projects/ece527/babelsoc/fpga-network-stack/hls/rocev2/../udp/udp.cpp:51]   --->   Operation 21 'sub' 'sub_ln414_1' <Predicate = (tmp & !pu_header_ready_load)> <Delay = 1.27> <Core = "AddSub">   --->   Core 14 'AddSub' <Latency = 0> <II = 1> <Delay = 1.30> <FuncUnit> <Opcode : 'add' 'sub'> <InPorts = 2> <OutPorts = 1>
ST_1 : Operation 22 [1/1] (0.00ns) (grouped into LUT with out node and_ln414)   --->   "%select_ln414_5 = select i1 %icmp_ln414, i7 %sub_ln414_1, i7 0" [/home/paulrr2/Projects/ece527/babelsoc/fpga-network-stack/hls/rocev2/../udp/../packet.hpp:64->/home/paulrr2/Projects/ece527/babelsoc/fpga-network-stack/hls/rocev2/../udp/udp.cpp:51]   --->   Operation 22 'select' 'select_ln414_5' <Predicate = (tmp & !pu_header_ready_load)> <Delay = 0.00> <Core = "Sel">   --->   Core 26 'Sel' <Latency = 0> <II = 1> <Delay = 0.47> <FuncUnit> <Opcode : 'select'> <InPorts = 3> <OutPorts = 1>
ST_1 : Operation 23 [1/1] (0.00ns) (grouped into LUT with out node shl_ln414)   --->   "%zext_ln414_1 = zext i7 %select_ln414_4 to i64" [/home/paulrr2/Projects/ece527/babelsoc/fpga-network-stack/hls/rocev2/../udp/../packet.hpp:64->/home/paulrr2/Projects/ece527/babelsoc/fpga-network-stack/hls/rocev2/../udp/udp.cpp:51]   --->   Operation 23 'zext' 'zext_ln414_1' <Predicate = (tmp & !pu_header_ready_load)> <Delay = 0.00>
ST_1 : Operation 24 [1/1] (0.00ns) (grouped into LUT with out node and_ln414)   --->   "%zext_ln414_2 = zext i7 %select_ln414 to i64" [/home/paulrr2/Projects/ece527/babelsoc/fpga-network-stack/hls/rocev2/../udp/../packet.hpp:64->/home/paulrr2/Projects/ece527/babelsoc/fpga-network-stack/hls/rocev2/../udp/udp.cpp:51]   --->   Operation 24 'zext' 'zext_ln414_2' <Predicate = (tmp & !pu_header_ready_load)> <Delay = 0.00>
ST_1 : Operation 25 [1/1] (0.00ns) (grouped into LUT with out node and_ln414)   --->   "%zext_ln414_3 = zext i7 %select_ln414_5 to i64" [/home/paulrr2/Projects/ece527/babelsoc/fpga-network-stack/hls/rocev2/../udp/../packet.hpp:64->/home/paulrr2/Projects/ece527/babelsoc/fpga-network-stack/hls/rocev2/../udp/udp.cpp:51]   --->   Operation 25 'zext' 'zext_ln414_3' <Predicate = (tmp & !pu_header_ready_load)> <Delay = 0.00>
ST_1 : Operation 26 [1/1] (2.35ns) (out node of the LUT)   --->   "%shl_ln414 = shl i64 %tmp_data_V, %zext_ln414_1" [/home/paulrr2/Projects/ece527/babelsoc/fpga-network-stack/hls/rocev2/../udp/../packet.hpp:64->/home/paulrr2/Projects/ece527/babelsoc/fpga-network-stack/hls/rocev2/../udp/udp.cpp:51]   --->   Operation 26 'shl' 'shl_ln414' <Predicate = (tmp & !pu_header_ready_load)> <Delay = 2.35> <Core = "Shift">   --->   Core 28 'Shift' <Latency = 0> <II = 1> <Delay = 1.58> <FuncUnit> <Opcode : 'shl' 'lshr' 'ashr'> <InPorts = 2> <OutPorts = 1>
ST_1 : Operation 27 [1/1] (0.00ns) (grouped into LUT with out node p_Result_s)   --->   "%tmp_41 = call i64 @llvm.part.select.i64(i64 %shl_ln414, i32 63, i32 0)" [/home/paulrr2/Projects/ece527/babelsoc/fpga-network-stack/hls/rocev2/../udp/../packet.hpp:64->/home/paulrr2/Projects/ece527/babelsoc/fpga-network-stack/hls/rocev2/../udp/udp.cpp:51]   --->   Operation 27 'partselect' 'tmp_41' <Predicate = (tmp & !pu_header_ready_load)> <Delay = 0.00>
ST_1 : Operation 28 [1/1] (0.00ns) (grouped into LUT with out node p_Result_s)   --->   "%select_ln414_6 = select i1 %icmp_ln414, i64 %tmp_41, i64 %shl_ln414" [/home/paulrr2/Projects/ece527/babelsoc/fpga-network-stack/hls/rocev2/../udp/../packet.hpp:64->/home/paulrr2/Projects/ece527/babelsoc/fpga-network-stack/hls/rocev2/../udp/udp.cpp:51]   --->   Operation 28 'select' 'select_ln414_6' <Predicate = (tmp & !pu_header_ready_load)> <Delay = 0.00> <Core = "Sel">   --->   Core 26 'Sel' <Latency = 0> <II = 1> <Delay = 0.47> <FuncUnit> <Opcode : 'select'> <InPorts = 3> <OutPorts = 1>
ST_1 : Operation 29 [1/1] (0.00ns) (grouped into LUT with out node and_ln414)   --->   "%shl_ln414_1 = shl i64 -1, %zext_ln414_2" [/home/paulrr2/Projects/ece527/babelsoc/fpga-network-stack/hls/rocev2/../udp/../packet.hpp:64->/home/paulrr2/Projects/ece527/babelsoc/fpga-network-stack/hls/rocev2/../udp/udp.cpp:51]   --->   Operation 29 'shl' 'shl_ln414_1' <Predicate = (tmp & !pu_header_ready_load)> <Delay = 0.00> <Core = "Shift">   --->   Core 28 'Shift' <Latency = 0> <II = 1> <Delay = 1.58> <FuncUnit> <Opcode : 'shl' 'lshr' 'ashr'> <InPorts = 2> <OutPorts = 1>
ST_1 : Operation 30 [1/1] (0.00ns) (grouped into LUT with out node and_ln414)   --->   "%lshr_ln414 = lshr i64 -1, %zext_ln414_3" [/home/paulrr2/Projects/ece527/babelsoc/fpga-network-stack/hls/rocev2/../udp/../packet.hpp:64->/home/paulrr2/Projects/ece527/babelsoc/fpga-network-stack/hls/rocev2/../udp/udp.cpp:51]   --->   Operation 30 'lshr' 'lshr_ln414' <Predicate = (tmp & !pu_header_ready_load)> <Delay = 0.00> <Core = "Shift">   --->   Core 28 'Shift' <Latency = 0> <II = 1> <Delay = 1.58> <FuncUnit> <Opcode : 'shl' 'lshr' 'ashr'> <InPorts = 2> <OutPorts = 1>
ST_1 : Operation 31 [1/1] (1.58ns) (out node of the LUT)   --->   "%and_ln414 = and i64 %shl_ln414_1, %lshr_ln414" [/home/paulrr2/Projects/ece527/babelsoc/fpga-network-stack/hls/rocev2/../udp/../packet.hpp:64->/home/paulrr2/Projects/ece527/babelsoc/fpga-network-stack/hls/rocev2/../udp/udp.cpp:51]   --->   Operation 31 'and' 'and_ln414' <Predicate = (tmp & !pu_header_ready_load)> <Delay = 1.58> <Core = "LogicGate">   --->   Core 27 'LogicGate' <Latency = 0> <II = 1> <Delay = 0.48> <FuncUnit> <Opcode : 'and' 'or' 'xor'> <InPorts = 2> <OutPorts = 1>
ST_1 : Operation 32 [1/1] (0.00ns) (grouped into LUT with out node p_Result_s)   --->   "%xor_ln414 = xor i64 %and_ln414, -1" [/home/paulrr2/Projects/ece527/babelsoc/fpga-network-stack/hls/rocev2/../udp/../packet.hpp:64->/home/paulrr2/Projects/ece527/babelsoc/fpga-network-stack/hls/rocev2/../udp/udp.cpp:51]   --->   Operation 32 'xor' 'xor_ln414' <Predicate = (tmp & !pu_header_ready_load)> <Delay = 0.00> <Core = "LogicGate">   --->   Core 27 'LogicGate' <Latency = 0> <II = 1> <Delay = 0.48> <FuncUnit> <Opcode : 'and' 'or' 'xor'> <InPorts = 2> <OutPorts = 1>
ST_1 : Operation 33 [1/1] (0.00ns) (grouped into LUT with out node p_Result_s)   --->   "%and_ln414_3 = and i64 %p_Val2_s, %xor_ln414" [/home/paulrr2/Projects/ece527/babelsoc/fpga-network-stack/hls/rocev2/../udp/../packet.hpp:64->/home/paulrr2/Projects/ece527/babelsoc/fpga-network-stack/hls/rocev2/../udp/udp.cpp:51]   --->   Operation 33 'and' 'and_ln414_3' <Predicate = (tmp & !pu_header_ready_load)> <Delay = 0.00> <Core = "LogicGate">   --->   Core 27 'LogicGate' <Latency = 0> <II = 1> <Delay = 0.48> <FuncUnit> <Opcode : 'and' 'or' 'xor'> <InPorts = 2> <OutPorts = 1>
ST_1 : Operation 34 [1/1] (0.00ns) (grouped into LUT with out node p_Result_s)   --->   "%and_ln414_4 = and i64 %select_ln414_6, %and_ln414" [/home/paulrr2/Projects/ece527/babelsoc/fpga-network-stack/hls/rocev2/../udp/../packet.hpp:64->/home/paulrr2/Projects/ece527/babelsoc/fpga-network-stack/hls/rocev2/../udp/udp.cpp:51]   --->   Operation 34 'and' 'and_ln414_4' <Predicate = (tmp & !pu_header_ready_load)> <Delay = 0.00> <Core = "LogicGate">   --->   Core 27 'LogicGate' <Latency = 0> <II = 1> <Delay = 0.48> <FuncUnit> <Opcode : 'and' 'or' 'xor'> <InPorts = 2> <OutPorts = 1>
ST_1 : Operation 35 [1/1] (0.62ns) (out node of the LUT)   --->   "%p_Result_s = or i64 %and_ln414_3, %and_ln414_4" [/home/paulrr2/Projects/ece527/babelsoc/fpga-network-stack/hls/rocev2/../udp/../packet.hpp:64->/home/paulrr2/Projects/ece527/babelsoc/fpga-network-stack/hls/rocev2/../udp/udp.cpp:51]   --->   Operation 35 'or' 'p_Result_s' <Predicate = (tmp & !pu_header_ready_load)> <Delay = 0.62> <Core = "LogicGate">   --->   Core 27 'LogicGate' <Latency = 0> <II = 1> <Delay = 0.48> <FuncUnit> <Opcode : 'and' 'or' 'xor'> <InPorts = 2> <OutPorts = 1>
ST_1 : Operation 36 [1/1] (0.00ns)   --->   "store i64 %p_Result_s, i64* @pu_header_header_V, align 8" [/home/paulrr2/Projects/ece527/babelsoc/fpga-network-stack/hls/rocev2/../udp/../packet.hpp:64->/home/paulrr2/Projects/ece527/babelsoc/fpga-network-stack/hls/rocev2/../udp/udp.cpp:51]   --->   Operation 36 'store' <Predicate = (tmp & !pu_header_ready_load)> <Delay = 0.00>
ST_1 : Operation 37 [1/1] (1.30ns)   --->   "%add_ln67 = add i16 %pu_header_idx_load, 1" [/home/paulrr2/Projects/ece527/babelsoc/fpga-network-stack/hls/rocev2/../udp/../packet.hpp:67->/home/paulrr2/Projects/ece527/babelsoc/fpga-network-stack/hls/rocev2/../udp/udp.cpp:51]   --->   Operation 37 'add' 'add_ln67' <Predicate = (tmp & !pu_header_ready_load)> <Delay = 1.30> <Core = "AddSub">   --->   Core 14 'AddSub' <Latency = 0> <II = 1> <Delay = 1.30> <FuncUnit> <Opcode : 'add' 'sub'> <InPorts = 2> <OutPorts = 1>
ST_1 : Operation 38 [1/1] (0.85ns)   --->   "br label %parseWord.exit.i" [/home/paulrr2/Projects/ece527/babelsoc/fpga-network-stack/hls/rocev2/../udp/../packet.hpp:73->/home/paulrr2/Projects/ece527/babelsoc/fpga-network-stack/hls/rocev2/../udp/udp.cpp:51]   --->   Operation 38 'br' <Predicate = (tmp & !pu_header_ready_load)> <Delay = 0.85>

State 2 <SV = 1> <Delay = 1.45>
ST_2 : Operation 39 [1/1] (0.00ns) (grouped into LUT with out node or_ln73_1)   --->   "%write_flag_0_i_i = phi i1 [ false, %0 ], [ true, %1 ]"   --->   Operation 39 'phi' 'write_flag_0_i_i' <Predicate = (tmp)> <Delay = 0.00>
ST_2 : Operation 40 [1/1] (0.00ns)   --->   "%packetHeader_idx_0_i = phi i16 [ %pu_header_idx_load, %0 ], [ %add_ln67, %1 ]" [/home/paulrr2/Projects/ece527/babelsoc/fpga-network-stack/hls/rocev2/../udp/udp.cpp:51]   --->   Operation 40 'phi' 'packetHeader_idx_0_i' <Predicate = (tmp & !tmp_last_V)> <Delay = 0.00>
ST_2 : Operation 41 [1/1] (0.48ns) (out node of the LUT)   --->   "%or_ln73_1 = or i1 %pu_header_ready_load, %write_flag_0_i_i" [/home/paulrr2/Projects/ece527/babelsoc/fpga-network-stack/hls/rocev2/../udp/../packet.hpp:73->/home/paulrr2/Projects/ece527/babelsoc/fpga-network-stack/hls/rocev2/../udp/udp.cpp:51]   --->   Operation 41 'or' 'or_ln73_1' <Predicate = (tmp)> <Delay = 0.48> <Core = "LogicGate">   --->   Core 27 'LogicGate' <Latency = 0> <II = 1> <Delay = 0.48> <FuncUnit> <Opcode : 'and' 'or' 'xor'> <InPorts = 2> <OutPorts = 1>
ST_2 : Operation 42 [1/1] (0.00ns)   --->   "%metaWritten_2_load = load i1* @metaWritten_2, align 1" [/home/paulrr2/Projects/ece527/babelsoc/fpga-network-stack/hls/rocev2/../udp/udp.cpp:53]   --->   Operation 42 'load' 'metaWritten_2_load' <Predicate = (tmp)> <Delay = 0.00>
ST_2 : Operation 43 [1/1] (0.00ns)   --->   "br i1 %metaWritten_2_load, label %2, label %._crit_edge2.i" [/home/paulrr2/Projects/ece527/babelsoc/fpga-network-stack/hls/rocev2/../udp/udp.cpp:53]   --->   Operation 43 'br' <Predicate = (tmp)> <Delay = 0.00>
ST_2 : Operation 44 [1/1] (0.00ns)   --->   "%p_Val2_12 = load i64* @pu_header_header_V, align 8" [/home/paulrr2/Projects/ece527/babelsoc/fpga-network-stack/hls/rocev2/../udp/udp.hpp:99->/home/paulrr2/Projects/ece527/babelsoc/fpga-network-stack/hls/rocev2/../udp/udp.cpp:53]   --->   Operation 44 'load' 'p_Val2_12' <Predicate = (tmp & metaWritten_2_load)> <Delay = 0.00>
ST_2 : Operation 45 [1/1] (0.00ns)   --->   "%p_Result_71_i_i_i = call i8 @_ssdm_op_PartSelect.i8.i64.i32.i32(i64 %p_Val2_12, i32 24, i32 31)" [/home/paulrr2/Projects/ece527/babelsoc/fpga-network-stack/hls/rocev2/../udp/../axi_utils.hpp:79->/home/paulrr2/Projects/ece527/babelsoc/fpga-network-stack/hls/rocev2/../udp/udp.hpp:99->/home/paulrr2/Projects/ece527/babelsoc/fpga-network-stack/hls/rocev2/../udp/udp.cpp:53]   --->   Operation 45 'partselect' 'p_Result_71_i_i_i' <Predicate = (tmp & metaWritten_2_load)> <Delay = 0.00>
ST_2 : Operation 46 [1/1] (0.00ns)   --->   "%p_Result_71_1_i_i_s = call i8 @_ssdm_op_PartSelect.i8.i64.i32.i32(i64 %p_Val2_12, i32 16, i32 23)" [/home/paulrr2/Projects/ece527/babelsoc/fpga-network-stack/hls/rocev2/../udp/../axi_utils.hpp:79->/home/paulrr2/Projects/ece527/babelsoc/fpga-network-stack/hls/rocev2/../udp/udp.hpp:99->/home/paulrr2/Projects/ece527/babelsoc/fpga-network-stack/hls/rocev2/../udp/udp.cpp:53]   --->   Operation 46 'partselect' 'p_Result_71_1_i_i_s' <Predicate = (tmp & metaWritten_2_load)> <Delay = 0.00>
ST_2 : Operation 47 [1/1] (0.00ns)   --->   "%agg_result_V_0_1_i_i = call i16 @_ssdm_op_BitConcatenate.i16.i8.i8(i8 %p_Result_71_1_i_i_s, i8 %p_Result_71_i_i_i)" [/home/paulrr2/Projects/ece527/babelsoc/fpga-network-stack/hls/rocev2/../udp/../axi_utils.hpp:79->/home/paulrr2/Projects/ece527/babelsoc/fpga-network-stack/hls/rocev2/../udp/udp.hpp:99->/home/paulrr2/Projects/ece527/babelsoc/fpga-network-stack/hls/rocev2/../udp/udp.cpp:53]   --->   Operation 47 'bitconcatenate' 'agg_result_V_0_1_i_i' <Predicate = (tmp & metaWritten_2_load)> <Delay = 0.00>
ST_2 : Operation 48 [1/1] (1.18ns)   --->   "%icmp_ln879 = icmp eq i16 %agg_result_V_0_1_i_i, 4791" [/home/paulrr2/Projects/ece527/babelsoc/fpga-network-stack/hls/rocev2/../udp/udp.cpp:53]   --->   Operation 48 'icmp' 'icmp_ln879' <Predicate = (tmp & metaWritten_2_load)> <Delay = 1.18> <Core = "Cmp">   --->   Core 25 'Cmp' <Latency = 0> <II = 1> <Delay = 1.18> <FuncUnit> <Opcode : 'icmp'> <InPorts = 2> <OutPorts = 1>
ST_2 : Operation 49 [1/1] (0.00ns)   --->   "br i1 %icmp_ln879, label %3, label %._crit_edge2.i" [/home/paulrr2/Projects/ece527/babelsoc/fpga-network-stack/hls/rocev2/../udp/udp.cpp:53]   --->   Operation 49 'br' <Predicate = (tmp & metaWritten_2_load)> <Delay = 0.00>
ST_2 : Operation 50 [1/1] (0.85ns)   --->   "br i1 %or_ln73_1, label %4, label %._crit_edge4.i" [/home/paulrr2/Projects/ece527/babelsoc/fpga-network-stack/hls/rocev2/../udp/udp.cpp:58]   --->   Operation 50 'br' <Predicate = (tmp)> <Delay = 0.85>
ST_2 : Operation 51 [1/1] (0.00ns)   --->   "%p_Val2_13 = load i64* @pu_header_header_V, align 8" [/home/paulrr2/Projects/ece527/babelsoc/fpga-network-stack/hls/rocev2/../udp/udp.hpp:99->/home/paulrr2/Projects/ece527/babelsoc/fpga-network-stack/hls/rocev2/../udp/udp.cpp:61]   --->   Operation 51 'load' 'p_Val2_13' <Predicate = (tmp & or_ln73_1)> <Delay = 0.00>
ST_2 : Operation 52 [1/1] (0.00ns)   --->   "%p_Result_71_i_i9_i = call i8 @_ssdm_op_PartSelect.i8.i64.i32.i32(i64 %p_Val2_13, i32 24, i32 31)" [/home/paulrr2/Projects/ece527/babelsoc/fpga-network-stack/hls/rocev2/../udp/../axi_utils.hpp:79->/home/paulrr2/Projects/ece527/babelsoc/fpga-network-stack/hls/rocev2/../udp/udp.hpp:99->/home/paulrr2/Projects/ece527/babelsoc/fpga-network-stack/hls/rocev2/../udp/udp.cpp:61]   --->   Operation 52 'partselect' 'p_Result_71_i_i9_i' <Predicate = (tmp & or_ln73_1)> <Delay = 0.00>
ST_2 : Operation 53 [1/1] (0.00ns)   --->   "%p_Result_71_1_i_i1 = call i8 @_ssdm_op_PartSelect.i8.i64.i32.i32(i64 %p_Val2_13, i32 16, i32 23)" [/home/paulrr2/Projects/ece527/babelsoc/fpga-network-stack/hls/rocev2/../udp/../axi_utils.hpp:79->/home/paulrr2/Projects/ece527/babelsoc/fpga-network-stack/hls/rocev2/../udp/udp.hpp:99->/home/paulrr2/Projects/ece527/babelsoc/fpga-network-stack/hls/rocev2/../udp/udp.cpp:61]   --->   Operation 53 'partselect' 'p_Result_71_1_i_i1' <Predicate = (tmp & or_ln73_1)> <Delay = 0.00>
ST_2 : Operation 54 [1/1] (0.85ns)   --->   "br i1 %metaWritten_2_load, label %._crit_edge4.i, label %5" [/home/paulrr2/Projects/ece527/babelsoc/fpga-network-stack/hls/rocev2/../udp/udp.cpp:66]   --->   Operation 54 'br' <Predicate = (tmp & or_ln73_1)> <Delay = 0.85>
ST_2 : Operation 55 [1/1] (0.00ns)   --->   "%p_Result_71_i_i14_s = call i8 @_ssdm_op_PartSelect.i8.i64.i32.i32(i64 %p_Val2_13, i32 8, i32 15)" [/home/paulrr2/Projects/ece527/babelsoc/fpga-network-stack/hls/rocev2/../udp/../axi_utils.hpp:79->/home/paulrr2/Projects/ece527/babelsoc/fpga-network-stack/hls/rocev2/../udp/udp.hpp:91->/home/paulrr2/Projects/ece527/babelsoc/fpga-network-stack/hls/rocev2/../udp/udp.cpp:69]   --->   Operation 55 'partselect' 'p_Result_71_i_i14_s' <Predicate = (tmp & !metaWritten_2_load & or_ln73_1)> <Delay = 0.00>
ST_2 : Operation 56 [1/1] (0.00ns)   --->   "%trunc_ln647 = trunc i64 %p_Val2_13 to i8" [/home/paulrr2/Projects/ece527/babelsoc/fpga-network-stack/hls/rocev2/../udp/../axi_utils.hpp:79->/home/paulrr2/Projects/ece527/babelsoc/fpga-network-stack/hls/rocev2/../udp/udp.hpp:91->/home/paulrr2/Projects/ece527/babelsoc/fpga-network-stack/hls/rocev2/../udp/udp.cpp:69]   --->   Operation 56 'trunc' 'trunc_ln647' <Predicate = (tmp & !metaWritten_2_load & or_ln73_1)> <Delay = 0.00>
ST_2 : Operation 57 [1/1] (0.00ns)   --->   "%p_Result_71_i_i19_s = call i8 @_ssdm_op_PartSelect.i8.i64.i32.i32(i64 %p_Val2_13, i32 40, i32 47)" [/home/paulrr2/Projects/ece527/babelsoc/fpga-network-stack/hls/rocev2/../udp/../axi_utils.hpp:79->/home/paulrr2/Projects/ece527/babelsoc/fpga-network-stack/hls/rocev2/../udp/udp.hpp:107->/home/paulrr2/Projects/ece527/babelsoc/fpga-network-stack/hls/rocev2/../udp/udp.cpp:69]   --->   Operation 57 'partselect' 'p_Result_71_i_i19_s' <Predicate = (tmp & !metaWritten_2_load & or_ln73_1)> <Delay = 0.00>
ST_2 : Operation 58 [1/1] (0.00ns)   --->   "%p_Result_71_1_i_i2 = call i8 @_ssdm_op_PartSelect.i8.i64.i32.i32(i64 %p_Val2_13, i32 32, i32 39)" [/home/paulrr2/Projects/ece527/babelsoc/fpga-network-stack/hls/rocev2/../udp/../axi_utils.hpp:79->/home/paulrr2/Projects/ece527/babelsoc/fpga-network-stack/hls/rocev2/../udp/udp.hpp:107->/home/paulrr2/Projects/ece527/babelsoc/fpga-network-stack/hls/rocev2/../udp/udp.cpp:69]   --->   Operation 58 'partselect' 'p_Result_71_1_i_i2' <Predicate = (tmp & !metaWritten_2_load & or_ln73_1)> <Delay = 0.00>
ST_2 : Operation 59 [1/1] (0.85ns)   --->   "br label %._crit_edge4.i" [/home/paulrr2/Projects/ece527/babelsoc/fpga-network-stack/hls/rocev2/../udp/udp.cpp:71]   --->   Operation 59 'br' <Predicate = (tmp & !metaWritten_2_load & or_ln73_1)> <Delay = 0.85>
ST_2 : Operation 60 [1/1] (0.48ns)   --->   "%xor_ln73 = xor i1 %tmp_last_V, true" [/home/paulrr2/Projects/ece527/babelsoc/fpga-network-stack/hls/rocev2/../udp/udp.cpp:73]   --->   Operation 60 'xor' 'xor_ln73' <Predicate = (tmp)> <Delay = 0.48> <Core = "LogicGate">   --->   Core 27 'LogicGate' <Latency = 0> <II = 1> <Delay = 0.48> <FuncUnit> <Opcode : 'and' 'or' 'xor'> <InPorts = 2> <OutPorts = 1>
ST_2 : Operation 61 [1/1] (0.48ns)   --->   "%and_ln73 = and i1 %or_ln73_1, %xor_ln73" [/home/paulrr2/Projects/ece527/babelsoc/fpga-network-stack/hls/rocev2/../udp/udp.cpp:73]   --->   Operation 61 'and' 'and_ln73' <Predicate = (tmp)> <Delay = 0.48> <Core = "LogicGate">   --->   Core 27 'LogicGate' <Latency = 0> <II = 1> <Delay = 0.48> <FuncUnit> <Opcode : 'and' 'or' 'xor'> <InPorts = 2> <OutPorts = 1>
ST_2 : Operation 62 [1/1] (0.47ns)   --->   "%select_ln73 = select i1 %tmp_last_V, i16 0, i16 %packetHeader_idx_0_i" [/home/paulrr2/Projects/ece527/babelsoc/fpga-network-stack/hls/rocev2/../udp/udp.cpp:73]   --->   Operation 62 'select' 'select_ln73' <Predicate = (tmp)> <Delay = 0.47> <Core = "Sel">   --->   Core 26 'Sel' <Latency = 0> <II = 1> <Delay = 0.47> <FuncUnit> <Opcode : 'select'> <InPorts = 3> <OutPorts = 1>
ST_2 : Operation 63 [1/1] (0.00ns)   --->   "store i16 %select_ln73, i16* @pu_header_idx, align 2" [/home/paulrr2/Projects/ece527/babelsoc/fpga-network-stack/hls/rocev2/../udp/udp.cpp:51]   --->   Operation 63 'store' <Predicate = (tmp)> <Delay = 0.00>
ST_2 : Operation 64 [1/1] (0.00ns)   --->   "store i1 %and_ln73, i1* @pu_header_ready, align 1" [/home/paulrr2/Projects/ece527/babelsoc/fpga-network-stack/hls/rocev2/../udp/udp.cpp:51]   --->   Operation 64 'store' <Predicate = (tmp)> <Delay = 0.00>

State 3 <SV = 2> <Delay = 3.57>
ST_3 : Operation 65 [1/1] (0.00ns)   --->   "call void (...)* @_ssdm_op_SpecInterface(i64* @rx_ip2udpFifo_V_data, [8 x i8]* @ap_fifo_str, i32 0, i32 0, [1 x i8]* @p_str, i32 0, i32 0, [1 x i8]* @p_str, [1 x i8]* @p_str, [1 x i8]* @p_str, i32 2, i32 2, i32 16, i32 16, [1 x i8]* @p_str, [1 x i8]* @p_str)"   --->   Operation 65 'specinterface' <Predicate = true> <Delay = 0.00>
ST_3 : Operation 66 [1/1] (0.00ns)   --->   "call void (...)* @_ssdm_op_SpecInterface(i8* @rx_ip2udpFifo_V_keep, [8 x i8]* @ap_fifo_str, i32 0, i32 0, [1 x i8]* @p_str, i32 0, i32 0, [1 x i8]* @p_str, [1 x i8]* @p_str, [1 x i8]* @p_str, i32 2, i32 2, i32 16, i32 16, [1 x i8]* @p_str, [1 x i8]* @p_str)"   --->   Operation 66 'specinterface' <Predicate = true> <Delay = 0.00>
ST_3 : Operation 67 [1/1] (0.00ns)   --->   "call void (...)* @_ssdm_op_SpecInterface(i1* @rx_ip2udpFifo_V_last, [8 x i8]* @ap_fifo_str, i32 0, i32 0, [1 x i8]* @p_str, i32 0, i32 0, [1 x i8]* @p_str, [1 x i8]* @p_str, [1 x i8]* @p_str, i32 2, i32 2, i32 16, i32 16, [1 x i8]* @p_str, [1 x i8]* @p_str)"   --->   Operation 67 'specinterface' <Predicate = true> <Delay = 0.00>
ST_3 : Operation 68 [1/1] (0.00ns)   --->   "call void (...)* @_ssdm_op_SpecInterface(i64* @rx_udp2shiftFifo_V_d, [8 x i8]* @ap_fifo_str, i32 0, i32 0, [1 x i8]* @p_str, i32 0, i32 0, [1 x i8]* @p_str, [1 x i8]* @p_str, [1 x i8]* @p_str, i32 2, i32 2, i32 16, i32 16, [1 x i8]* @p_str, [1 x i8]* @p_str)"   --->   Operation 68 'specinterface' <Predicate = true> <Delay = 0.00>
ST_3 : Operation 69 [1/1] (0.00ns)   --->   "call void (...)* @_ssdm_op_SpecInterface(i8* @rx_udp2shiftFifo_V_k, [8 x i8]* @ap_fifo_str, i32 0, i32 0, [1 x i8]* @p_str, i32 0, i32 0, [1 x i8]* @p_str, [1 x i8]* @p_str, [1 x i8]* @p_str, i32 2, i32 2, i32 16, i32 16, [1 x i8]* @p_str, [1 x i8]* @p_str)"   --->   Operation 69 'specinterface' <Predicate = true> <Delay = 0.00>
ST_3 : Operation 70 [1/1] (0.00ns)   --->   "call void (...)* @_ssdm_op_SpecInterface(i1* @rx_udp2shiftFifo_V_l, [8 x i8]* @ap_fifo_str, i32 0, i32 0, [1 x i8]* @p_str, i32 0, i32 0, [1 x i8]* @p_str, [1 x i8]* @p_str, [1 x i8]* @p_str, i32 2, i32 2, i32 16, i32 16, [1 x i8]* @p_str, [1 x i8]* @p_str)"   --->   Operation 70 'specinterface' <Predicate = true> <Delay = 0.00>
ST_3 : Operation 71 [1/1] (0.00ns)   --->   "call void (...)* @_ssdm_op_SpecInterface(i49* @rx_udpMetaFifo_V, [8 x i8]* @ap_fifo_str, i32 0, i32 0, [1 x i8]* @p_str, i32 0, i32 0, [1 x i8]* @p_str, [1 x i8]* @p_str, [1 x i8]* @p_str, i32 2, i32 2, i32 16, i32 16, [1 x i8]* @p_str, [1 x i8]* @p_str)"   --->   Operation 71 'specinterface' <Predicate = true> <Delay = 0.00>
ST_3 : Operation 72 [1/1] (0.00ns)   --->   "call void (...)* @_ssdm_op_SpecPipeline(i32 1, i32 1, i32 1, i32 0, [1 x i8]* @p_str140) nounwind" [/home/paulrr2/Projects/ece527/babelsoc/fpga-network-stack/hls/rocev2/../udp/udp.cpp:37]   --->   Operation 72 'specpipeline' <Predicate = true> <Delay = 0.00>
ST_3 : Operation 73 [1/1] (2.39ns)   --->   "call void @_ssdm_op_Write.ap_fifo.volatile.i64P.i8P.i1P(i64* @rx_udp2shiftFifo_V_d, i8* @rx_udp2shiftFifo_V_k, i1* @rx_udp2shiftFifo_V_l, i64 %tmp_data_V, i8 %tmp_keep_V, i1 %tmp_last_V)" [/home/paulrr2/Projects/ece527/babelsoc/fpga-network-stack/hls/rocev2/../udp/udp.cpp:55]   --->   Operation 73 'write' <Predicate = (tmp & metaWritten_2_load & icmp_ln879)> <Delay = 2.39> <Core = "FIFO">   --->   Core 32 'FIFO' <Latency = 0> <II = 1> <Delay = 2.39> <Storage> <Opcode : 'read' 'write' 'nbread' 'nbwrite'> <Ports = 0> <Width = 49> <Depth = 2> <FIFO>
ST_3 : Operation 74 [1/1] (0.00ns)   --->   "br label %._crit_edge2.i" [/home/paulrr2/Projects/ece527/babelsoc/fpga-network-stack/hls/rocev2/../udp/udp.cpp:56]   --->   Operation 74 'br' <Predicate = (tmp & metaWritten_2_load & icmp_ln879)> <Delay = 0.00>
ST_3 : Operation 75 [1/1] (0.00ns)   --->   "%dstPort_V = call i16 @_ssdm_op_BitConcatenate.i16.i8.i8(i8 %p_Result_71_1_i_i1, i8 %p_Result_71_i_i9_i)" [/home/paulrr2/Projects/ece527/babelsoc/fpga-network-stack/hls/rocev2/../udp/../axi_utils.hpp:79->/home/paulrr2/Projects/ece527/babelsoc/fpga-network-stack/hls/rocev2/../udp/udp.hpp:99->/home/paulrr2/Projects/ece527/babelsoc/fpga-network-stack/hls/rocev2/../udp/udp.cpp:61]   --->   Operation 75 'bitconcatenate' 'dstPort_V' <Predicate = (tmp & or_ln73_1)> <Delay = 0.00>
ST_3 : Operation 76 [1/1] (1.18ns)   --->   "%tmp_valid = icmp eq i16 %dstPort_V, 4791" [/home/paulrr2/Projects/ece527/babelsoc/fpga-network-stack/hls/rocev2/../udp/udp.cpp:69]   --->   Operation 76 'icmp' 'tmp_valid' <Predicate = (tmp & !metaWritten_2_load & or_ln73_1)> <Delay = 1.18> <Core = "Cmp">   --->   Core 25 'Cmp' <Latency = 0> <II = 1> <Delay = 1.18> <FuncUnit> <Opcode : 'icmp'> <InPorts = 2> <OutPorts = 1>
ST_3 : Operation 77 [1/1] (0.00ns)   --->   "%tmp_36 = call i49 @_ssdm_op_BitConcatenate.i49.i1.i8.i8.i8.i8.i8.i8(i1 %tmp_valid, i8 %p_Result_71_1_i_i2, i8 %p_Result_71_i_i19_s, i8 %p_Result_71_1_i_i1, i8 %p_Result_71_i_i9_i, i8 %trunc_ln647, i8 %p_Result_71_i_i14_s)" [/home/paulrr2/Projects/ece527/babelsoc/fpga-network-stack/hls/rocev2/../udp/udp.cpp:69]   --->   Operation 77 'bitconcatenate' 'tmp_36' <Predicate = (tmp & !metaWritten_2_load & or_ln73_1)> <Delay = 0.00>
ST_3 : Operation 78 [1/1] (2.39ns)   --->   "call void @_ssdm_op_Write.ap_fifo.volatile.i49P(i49* @rx_udpMetaFifo_V, i49 %tmp_36)" [/home/paulrr2/Projects/ece527/babelsoc/fpga-network-stack/hls/rocev2/../udp/udp.cpp:69]   --->   Operation 78 'write' <Predicate = (tmp & !metaWritten_2_load & or_ln73_1)> <Delay = 2.39> <Core = "FIFO">   --->   Core 32 'FIFO' <Latency = 0> <II = 1> <Delay = 2.39> <Storage> <Opcode : 'read' 'write' 'nbread' 'nbwrite'> <Ports = 0> <Width = 49> <Depth = 2> <FIFO>
ST_3 : Operation 79 [1/1] (0.00ns) (grouped into LUT with out node or_ln73)   --->   "%metaWritten_6_flag_1 = phi i1 [ false, %._crit_edge2.i ], [ false, %4 ], [ true, %5 ]"   --->   Operation 79 'phi' 'metaWritten_6_flag_1' <Predicate = (tmp)> <Delay = 0.00>
ST_3 : Operation 80 [1/1] (0.48ns) (out node of the LUT)   --->   "%or_ln73 = or i1 %tmp_last_V, %metaWritten_6_flag_1" [/home/paulrr2/Projects/ece527/babelsoc/fpga-network-stack/hls/rocev2/../udp/udp.cpp:73]   --->   Operation 80 'or' 'or_ln73' <Predicate = (tmp)> <Delay = 0.48> <Core = "LogicGate">   --->   Core 27 'LogicGate' <Latency = 0> <II = 1> <Delay = 0.48> <FuncUnit> <Opcode : 'and' 'or' 'xor'> <InPorts = 2> <OutPorts = 1>
ST_3 : Operation 81 [1/1] (0.00ns)   --->   "br i1 %or_ln73, label %mergeST3.i, label %._crit_edge6.new4.i" [/home/paulrr2/Projects/ece527/babelsoc/fpga-network-stack/hls/rocev2/../udp/udp.cpp:73]   --->   Operation 81 'br' <Predicate = (tmp)> <Delay = 0.00>
ST_3 : Operation 82 [1/1] (0.00ns)   --->   "store i1 %xor_ln73, i1* @metaWritten_2, align 1" [/home/paulrr2/Projects/ece527/babelsoc/fpga-network-stack/hls/rocev2/../udp/udp.cpp:70]   --->   Operation 82 'store' <Predicate = (tmp & or_ln73)> <Delay = 0.00>
ST_3 : Operation 83 [1/1] (0.00ns)   --->   "br label %._crit_edge6.new4.i"   --->   Operation 83 'br' <Predicate = (tmp & or_ln73)> <Delay = 0.00>
ST_3 : Operation 84 [1/1] (0.00ns)   --->   "br label %"process_udp<64>1989.exit"" [/home/paulrr2/Projects/ece527/babelsoc/fpga-network-stack/hls/rocev2/../udp/udp.cpp:78]   --->   Operation 84 'br' <Predicate = (tmp)> <Delay = 0.00>
ST_3 : Operation 85 [1/1] (0.00ns)   --->   "ret void"   --->   Operation 85 'ret' <Predicate = true> <Delay = 0.00>


============================================================
+ Verbose Summary: Timing violations
============================================================
Target clock period: 6.4ns, clock uncertainty: 0.8ns.

 <State 1>: 5.37ns
The critical path consists of the following:
	fifo read on port 'rx_ip2udpFifo_V_data' (/home/paulrr2/Projects/ece527/babelsoc/fpga-network-stack/hls/rocev2/../udp/udp.cpp:45) [28]  (2.39 ns)
	'shl' operation ('shl_ln414', /home/paulrr2/Projects/ece527/babelsoc/fpga-network-stack/hls/rocev2/../udp/../packet.hpp:64->/home/paulrr2/Projects/ece527/babelsoc/fpga-network-stack/hls/rocev2/../udp/udp.cpp:51) [49]  (2.35 ns)
	'select' operation ('select_ln414_6', /home/paulrr2/Projects/ece527/babelsoc/fpga-network-stack/hls/rocev2/../udp/../packet.hpp:64->/home/paulrr2/Projects/ece527/babelsoc/fpga-network-stack/hls/rocev2/../udp/udp.cpp:51) [51]  (0 ns)
	'and' operation ('and_ln414_4', /home/paulrr2/Projects/ece527/babelsoc/fpga-network-stack/hls/rocev2/../udp/../packet.hpp:64->/home/paulrr2/Projects/ece527/babelsoc/fpga-network-stack/hls/rocev2/../udp/udp.cpp:51) [57]  (0 ns)
	'or' operation ('__Result__', /home/paulrr2/Projects/ece527/babelsoc/fpga-network-stack/hls/rocev2/../udp/../packet.hpp:64->/home/paulrr2/Projects/ece527/babelsoc/fpga-network-stack/hls/rocev2/../udp/udp.cpp:51) [58]  (0.625 ns)

 <State 2>: 1.46ns
The critical path consists of the following:
	'or' operation ('packetHeader<64, 64>.ready', /home/paulrr2/Projects/ece527/babelsoc/fpga-network-stack/hls/rocev2/../udp/../packet.hpp:73->/home/paulrr2/Projects/ece527/babelsoc/fpga-network-stack/hls/rocev2/../udp/udp.cpp:51) [65]  (0.485 ns)
	multiplexor before 'phi' operation ('metaWritten_6_flag_1') [96]  (0.85 ns)
	blocking operation 0.12 ns on control path)

 <State 3>: 3.57ns
The critical path consists of the following:
	'icmp' operation ('valid', /home/paulrr2/Projects/ece527/babelsoc/fpga-network-stack/hls/rocev2/../udp/udp.cpp:69) [91]  (1.18 ns)
	fifo write on port 'rx_udpMetaFifo_V' (/home/paulrr2/Projects/ece527/babelsoc/fpga-network-stack/hls/rocev2/../udp/udp.cpp:69) [93]  (2.39 ns)


============================================================
+ Verbose Summary: Binding
============================================================
N/A
* FSMD analyzer results:
  - Output states:
 - Input state : 
  - Chain level:
	State 1
	State 2
	State 3


============================================================
+ Verbose Summary: Datapath Resource usage 
============================================================
N/A
