

================================================================
== Vivado HLS Report for 'rshiftWordByOctet_3'
================================================================
* Date:           Sat Dec 12 19:41:01 2020

* Version:        2019.2.1 (Build 2724168 on Thu Dec 05 05:19:09 MST 2019)
* Project:        rocev2_prj
* Solution:       solution1
* Product family: virtex7
* Target device:  xc7vx690t-ffg1761-2


================================================================
== Performance Estimates
================================================================
+ Timing: 
    * Summary: 
    +--------+---------+----------+------------+
    |  Clock |  Target | Estimated| Uncertainty|
    +--------+---------+----------+------------+
    |ap_clk  | 6.40 ns | 4.115 ns |   0.80 ns  |
    +--------+---------+----------+------------+

+ Latency: 
    * Summary: 
    +---------+---------+----------+----------+-----+-----+----------+
    |  Latency (cycles) |  Latency (absolute) |  Interval | Pipeline |
    |   min   |   max   |    min   |    max   | min | max |   Type   |
    +---------+---------+----------+----------+-----+-----+----------+
    |        1|        1| 6.400 ns | 6.400 ns |    1|    1| function |
    +---------+---------+----------+----------+-----+-----+----------+

    + Detail: 
        * Instance: 
        N/A

        * Loop: 
        N/A

============================================================
+ Verbose Summary: Synthesis Manager
============================================================
InlineROM: 1
ExposeGlobal: 0
============================================================
+ Verbose Summary: CDFG Model
============================================================
IsTopModel: 0
ResetActiveHigh: 1
IsCombinational: 2
IsDatapathOnly: 0
HasWiredReturn: 1
HasMFsm: 2
HasVarLatency: 0
IsPipeline: 1
IsRtlPipelined: 1
IsInstanceOverlapped: 0
IsDontTouch: 0
HasImplIP: 0
IsGatedGlobalClock: 0

+ Individual pipeline summary: 
  * Pipeline-0: initiation interval (II) = 1, depth = 2


============================================================
+ Verbose Summary: Schedule
============================================================
* Number of FSM states : 2
* Pipeline : 1
  Pipeline-0 : II = 1, D = 2, States = { 1 2 }
* Dataflow Pipeline: 0

* FSM state transitions: 
1 --> 2 
2 --> 

* FSM state operations: 

State 1 <SV = 0> <Delay = 4.11>
ST_1 : Operation 3 [1/1] (0.00ns)   --->   "%fsmState_1_load = load i1* @fsmState_1, align 1" [/home/paulrr2/Projects/ece527/babelsoc/fpga-network-stack/hls/rocev2/../ib_transport_protocol/../axi_utils.hpp:447]   --->   Operation 3 'load' 'fsmState_1_load' <Predicate = true> <Delay = 0.00>
ST_1 : Operation 4 [1/1] (0.00ns)   --->   "br i1 %fsmState_1_load, label %5, label %0" [/home/paulrr2/Projects/ece527/babelsoc/fpga-network-stack/hls/rocev2/../ib_transport_protocol/../axi_utils.hpp:447]   --->   Operation 4 'br' <Predicate = true> <Delay = 0.00>
ST_1 : Operation 5 [1/1] (0.00ns)   --->   "%tmp = call i1 @_ssdm_op_NbReadReq.ap_fifo.i64P.i8P.i1P(i64* @rx_ibh2shiftFifo_V_d, i8* @rx_ibh2shiftFifo_V_k, i1* @rx_ibh2shiftFifo_V_l, i32 1) nounwind" [/home/paulrr2/Projects/ece527/babelsoc/fpga-network-stack/hls/rocev2/../ib_transport_protocol/../axi_utils.hpp:450]   --->   Operation 5 'nbreadreq' 'tmp' <Predicate = (!fsmState_1_load)> <Delay = 0.00> <Core = "FIFO">   --->   Core 32 'FIFO' <Latency = 0> <II = 1> <Delay = 2.39> <Storage> <Opcode : 'read' 'write' 'nbread' 'nbwrite'> <Ports = 0> <Width = 64> <Depth = 2> <FIFO>
ST_1 : Operation 6 [1/1] (0.00ns)   --->   "br i1 %tmp, label %1, label %._crit_edge64.i" [/home/paulrr2/Projects/ece527/babelsoc/fpga-network-stack/hls/rocev2/../ib_transport_protocol/../axi_utils.hpp:450]   --->   Operation 6 'br' <Predicate = (!fsmState_1_load)> <Delay = 0.00>
ST_1 : Operation 7 [1/1] (2.39ns)   --->   "%empty = call { i64, i8, i1 } @_ssdm_op_Read.ap_fifo.volatile.i64P.i8P.i1P(i64* @rx_ibh2shiftFifo_V_d, i8* @rx_ibh2shiftFifo_V_k, i1* @rx_ibh2shiftFifo_V_l) nounwind" [/home/paulrr2/Projects/ece527/babelsoc/fpga-network-stack/hls/rocev2/../ib_transport_protocol/../axi_utils.hpp:452]   --->   Operation 7 'read' 'empty' <Predicate = (!fsmState_1_load & tmp)> <Delay = 2.39> <Core = "FIFO">   --->   Core 32 'FIFO' <Latency = 0> <II = 1> <Delay = 2.39> <Storage> <Opcode : 'read' 'write' 'nbread' 'nbwrite'> <Ports = 0> <Width = 64> <Depth = 2> <FIFO>
ST_1 : Operation 8 [1/1] (0.00ns)   --->   "%tmp_data_V_14 = extractvalue { i64, i8, i1 } %empty, 0" [/home/paulrr2/Projects/ece527/babelsoc/fpga-network-stack/hls/rocev2/../ib_transport_protocol/../axi_utils.hpp:452]   --->   Operation 8 'extractvalue' 'tmp_data_V_14' <Predicate = (!fsmState_1_load & tmp)> <Delay = 0.00>
ST_1 : Operation 9 [1/1] (0.00ns)   --->   "%tmp_keep_V_14 = extractvalue { i64, i8, i1 } %empty, 1" [/home/paulrr2/Projects/ece527/babelsoc/fpga-network-stack/hls/rocev2/../ib_transport_protocol/../axi_utils.hpp:452]   --->   Operation 9 'extractvalue' 'tmp_keep_V_14' <Predicate = (!fsmState_1_load & tmp)> <Delay = 0.00>
ST_1 : Operation 10 [1/1] (0.00ns)   --->   "%tmp_last_V = extractvalue { i64, i8, i1 } %empty, 2" [/home/paulrr2/Projects/ece527/babelsoc/fpga-network-stack/hls/rocev2/../ib_transport_protocol/../axi_utils.hpp:452]   --->   Operation 10 'extractvalue' 'tmp_last_V' <Predicate = (!fsmState_1_load & tmp)> <Delay = 0.00>
ST_1 : Operation 11 [1/1] (0.00ns)   --->   "%rs_firstWord_1_load = load i1* @rs_firstWord_1, align 1" [/home/paulrr2/Projects/ece527/babelsoc/fpga-network-stack/hls/rocev2/../ib_transport_protocol/../axi_utils.hpp:454]   --->   Operation 11 'load' 'rs_firstWord_1_load' <Predicate = (!fsmState_1_load & tmp)> <Delay = 0.00>
ST_1 : Operation 12 [1/1] (0.85ns)   --->   "br i1 %rs_firstWord_1_load, label %._crit_edge65.i, label %2" [/home/paulrr2/Projects/ece527/babelsoc/fpga-network-stack/hls/rocev2/../ib_transport_protocol/../axi_utils.hpp:454]   --->   Operation 12 'br' <Predicate = (!fsmState_1_load & tmp)> <Delay = 0.85>
ST_1 : Operation 13 [1/1] (0.00ns)   --->   "%p_Result_18_i = call i4 @_ssdm_op_PartSelect.i4.i8.i32.i32(i8 %tmp_keep_V_14, i32 4, i32 7) nounwind" [/home/paulrr2/Projects/ece527/babelsoc/fpga-network-stack/hls/rocev2/../ib_transport_protocol/../axi_utils.hpp:468]   --->   Operation 13 'partselect' 'p_Result_18_i' <Predicate = (!fsmState_1_load & tmp & !rs_firstWord_1_load)> <Delay = 0.00>
ST_1 : Operation 14 [1/1] (0.87ns)   --->   "%tmp_last_V_17 = icmp eq i4 %p_Result_18_i, 0" [/home/paulrr2/Projects/ece527/babelsoc/fpga-network-stack/hls/rocev2/../ib_transport_protocol/../axi_utils.hpp:468]   --->   Operation 14 'icmp' 'tmp_last_V_17' <Predicate = (!fsmState_1_load & tmp & !rs_firstWord_1_load)> <Delay = 0.87> <Core = "Cmp">   --->   Core 25 'Cmp' <Latency = 0> <II = 1> <Delay = 0.87> <FuncUnit> <Opcode : 'icmp'> <InPorts = 2> <OutPorts = 1>
ST_1 : Operation 15 [1/1] (0.85ns)   --->   "br label %._crit_edge65.i" [/home/paulrr2/Projects/ece527/babelsoc/fpga-network-stack/hls/rocev2/../ib_transport_protocol/../axi_utils.hpp:473]   --->   Operation 15 'br' <Predicate = (!fsmState_1_load & tmp & !rs_firstWord_1_load)> <Delay = 0.85>
ST_1 : Operation 16 [1/1] (0.00ns)   --->   "%p_0256_2_0_i = phi i1 [ %tmp_last_V_17, %2 ], [ false, %1 ]"   --->   Operation 16 'phi' 'p_0256_2_0_i' <Predicate = (!fsmState_1_load & tmp)> <Delay = 0.00>
ST_1 : Operation 17 [1/1] (0.85ns)   --->   "br i1 %tmp_last_V, label %3, label %mergeST.i" [/home/paulrr2/Projects/ece527/babelsoc/fpga-network-stack/hls/rocev2/../ib_transport_protocol/../axi_utils.hpp:477]   --->   Operation 17 'br' <Predicate = (!fsmState_1_load & tmp)> <Delay = 0.85>
ST_1 : Operation 18 [1/1] (0.00ns)   --->   "br i1 %p_0256_2_0_i, label %._crit_edge67.i, label %4" [/home/paulrr2/Projects/ece527/babelsoc/fpga-network-stack/hls/rocev2/../ib_transport_protocol/../axi_utils.hpp:481]   --->   Operation 18 'br' <Predicate = (!fsmState_1_load & tmp & tmp_last_V)> <Delay = 0.00>
ST_1 : Operation 19 [1/1] (0.85ns)   --->   "store i1 true, i1* @fsmState_1, align 1" [/home/paulrr2/Projects/ece527/babelsoc/fpga-network-stack/hls/rocev2/../ib_transport_protocol/../axi_utils.hpp:483]   --->   Operation 19 'store' <Predicate = (!fsmState_1_load & tmp & tmp_last_V & !p_0256_2_0_i)> <Delay = 0.85>
ST_1 : Operation 20 [1/1] (0.85ns)   --->   "br label %mergeST.i" [/home/paulrr2/Projects/ece527/babelsoc/fpga-network-stack/hls/rocev2/../ib_transport_protocol/../axi_utils.hpp:485]   --->   Operation 20 'br' <Predicate = (!fsmState_1_load & tmp & tmp_last_V)> <Delay = 0.85>
ST_1 : Operation 21 [1/1] (0.85ns)   --->   "store i1 false, i1* @fsmState_1, align 1" [/home/paulrr2/Projects/ece527/babelsoc/fpga-network-stack/hls/rocev2/../ib_transport_protocol/../axi_utils.hpp:499]   --->   Operation 21 'store' <Predicate = (fsmState_1_load)> <Delay = 0.85>

State 2 <SV = 1> <Delay = 2.39>
ST_2 : Operation 22 [1/1] (0.00ns)   --->   "call void (...)* @_ssdm_op_SpecInterface(i64* @rx_ibh2shiftFifo_V_d, [8 x i8]* @ap_fifo_str, i32 0, i32 0, [1 x i8]* @p_str, i32 0, i32 0, [1 x i8]* @p_str, [1 x i8]* @p_str, [1 x i8]* @p_str, i32 2, i32 2, i32 16, i32 16, [1 x i8]* @p_str, [1 x i8]* @p_str)"   --->   Operation 22 'specinterface' <Predicate = true> <Delay = 0.00>
ST_2 : Operation 23 [1/1] (0.00ns)   --->   "call void (...)* @_ssdm_op_SpecInterface(i8* @rx_ibh2shiftFifo_V_k, [8 x i8]* @ap_fifo_str, i32 0, i32 0, [1 x i8]* @p_str, i32 0, i32 0, [1 x i8]* @p_str, [1 x i8]* @p_str, [1 x i8]* @p_str, i32 2, i32 2, i32 16, i32 16, [1 x i8]* @p_str, [1 x i8]* @p_str)"   --->   Operation 23 'specinterface' <Predicate = true> <Delay = 0.00>
ST_2 : Operation 24 [1/1] (0.00ns)   --->   "call void (...)* @_ssdm_op_SpecInterface(i1* @rx_ibh2shiftFifo_V_l, [8 x i8]* @ap_fifo_str, i32 0, i32 0, [1 x i8]* @p_str, i32 0, i32 0, [1 x i8]* @p_str, [1 x i8]* @p_str, [1 x i8]* @p_str, i32 2, i32 2, i32 16, i32 16, [1 x i8]* @p_str, [1 x i8]* @p_str)"   --->   Operation 24 'specinterface' <Predicate = true> <Delay = 0.00>
ST_2 : Operation 25 [1/1] (0.00ns)   --->   "call void (...)* @_ssdm_op_SpecInterface(i64* @rx_shift2exhFifo_V_d, [8 x i8]* @ap_fifo_str, i32 0, i32 0, [1 x i8]* @p_str, i32 0, i32 0, [1 x i8]* @p_str, [1 x i8]* @p_str, [1 x i8]* @p_str, i32 2, i32 2, i32 16, i32 16, [1 x i8]* @p_str, [1 x i8]* @p_str)"   --->   Operation 25 'specinterface' <Predicate = true> <Delay = 0.00>
ST_2 : Operation 26 [1/1] (0.00ns)   --->   "call void (...)* @_ssdm_op_SpecInterface(i8* @rx_shift2exhFifo_V_k, [8 x i8]* @ap_fifo_str, i32 0, i32 0, [1 x i8]* @p_str, i32 0, i32 0, [1 x i8]* @p_str, [1 x i8]* @p_str, [1 x i8]* @p_str, i32 2, i32 2, i32 16, i32 16, [1 x i8]* @p_str, [1 x i8]* @p_str)"   --->   Operation 26 'specinterface' <Predicate = true> <Delay = 0.00>
ST_2 : Operation 27 [1/1] (0.00ns)   --->   "call void (...)* @_ssdm_op_SpecInterface(i1* @rx_shift2exhFifo_V_l, [8 x i8]* @ap_fifo_str, i32 0, i32 0, [1 x i8]* @p_str, i32 0, i32 0, [1 x i8]* @p_str, [1 x i8]* @p_str, [1 x i8]* @p_str, i32 2, i32 2, i32 16, i32 16, [1 x i8]* @p_str, [1 x i8]* @p_str)"   --->   Operation 27 'specinterface' <Predicate = true> <Delay = 0.00>
ST_2 : Operation 28 [1/1] (0.00ns)   --->   "call void (...)* @_ssdm_op_SpecPipeline(i32 1, i32 1, i32 1, i32 0, [1 x i8]* @p_str91) nounwind" [/home/paulrr2/Projects/ece527/babelsoc/fpga-network-stack/hls/rocev2/../ib_transport_protocol/../axi_utils.hpp:436]   --->   Operation 28 'specpipeline' <Predicate = true> <Delay = 0.00>
ST_2 : Operation 29 [1/1] (0.00ns)   --->   "%p_Val2_s = load i64* @prevWord_data_V_11, align 8" [/home/paulrr2/Projects/ece527/babelsoc/fpga-network-stack/hls/rocev2/../ib_transport_protocol/../axi_utils.hpp:462]   --->   Operation 29 'load' 'p_Val2_s' <Predicate = true> <Delay = 0.00>
ST_2 : Operation 30 [1/1] (0.00ns)   --->   "%p_Val2_6 = load i8* @prevWord_keep_V_5, align 1" [/home/paulrr2/Projects/ece527/babelsoc/fpga-network-stack/hls/rocev2/../ib_transport_protocol/../axi_utils.hpp:465]   --->   Operation 30 'load' 'p_Val2_6' <Predicate = true> <Delay = 0.00>
ST_2 : Operation 31 [1/1] (0.00ns)   --->   "%p_Result_i = call i32 @_ssdm_op_PartSelect.i32.i64.i32.i32(i64 %p_Val2_s, i32 32, i32 63) nounwind" [/home/paulrr2/Projects/ece527/babelsoc/fpga-network-stack/hls/rocev2/../ib_transport_protocol/../axi_utils.hpp:462]   --->   Operation 31 'partselect' 'p_Result_i' <Predicate = (!fsmState_1_load & tmp & !rs_firstWord_1_load)> <Delay = 0.00>
ST_2 : Operation 32 [1/1] (0.00ns)   --->   "%trunc_ln647 = trunc i64 %tmp_data_V_14 to i32" [/home/paulrr2/Projects/ece527/babelsoc/fpga-network-stack/hls/rocev2/../ib_transport_protocol/../axi_utils.hpp:463]   --->   Operation 32 'trunc' 'trunc_ln647' <Predicate = (!fsmState_1_load & tmp & !rs_firstWord_1_load)> <Delay = 0.00>
ST_2 : Operation 33 [1/1] (0.00ns)   --->   "%p_Result_s = call i64 @_ssdm_op_BitConcatenate.i64.i32.i32(i32 %trunc_ln647, i32 %p_Result_i) nounwind" [/home/paulrr2/Projects/ece527/babelsoc/fpga-network-stack/hls/rocev2/../ib_transport_protocol/../axi_utils.hpp:463]   --->   Operation 33 'bitconcatenate' 'p_Result_s' <Predicate = (!fsmState_1_load & tmp & !rs_firstWord_1_load)> <Delay = 0.00>
ST_2 : Operation 34 [1/1] (0.00ns)   --->   "%p_Result_15_i = call i4 @_ssdm_op_PartSelect.i4.i8.i32.i32(i8 %p_Val2_6, i32 4, i32 7) nounwind" [/home/paulrr2/Projects/ece527/babelsoc/fpga-network-stack/hls/rocev2/../ib_transport_protocol/../axi_utils.hpp:465]   --->   Operation 34 'partselect' 'p_Result_15_i' <Predicate = (!fsmState_1_load & tmp & !rs_firstWord_1_load)> <Delay = 0.00>
ST_2 : Operation 35 [1/1] (0.00ns)   --->   "%trunc_ln647_3 = trunc i8 %tmp_keep_V_14 to i4" [/home/paulrr2/Projects/ece527/babelsoc/fpga-network-stack/hls/rocev2/../ib_transport_protocol/../axi_utils.hpp:466]   --->   Operation 35 'trunc' 'trunc_ln647_3' <Predicate = (!fsmState_1_load & tmp & !rs_firstWord_1_load)> <Delay = 0.00>
ST_2 : Operation 36 [1/1] (0.00ns)   --->   "%p_Result_2 = call i8 @_ssdm_op_BitConcatenate.i8.i4.i4(i4 %trunc_ln647_3, i4 %p_Result_15_i) nounwind" [/home/paulrr2/Projects/ece527/babelsoc/fpga-network-stack/hls/rocev2/../ib_transport_protocol/../axi_utils.hpp:466]   --->   Operation 36 'bitconcatenate' 'p_Result_2' <Predicate = (!fsmState_1_load & tmp & !rs_firstWord_1_load)> <Delay = 0.00>
ST_2 : Operation 37 [1/1] (2.39ns)   --->   "call void @_ssdm_op_Write.ap_fifo.volatile.i64P.i8P.i1P(i64* @rx_shift2exhFifo_V_d, i8* @rx_shift2exhFifo_V_k, i1* @rx_shift2exhFifo_V_l, i64 %p_Result_s, i8 %p_Result_2, i1 %tmp_last_V_17) nounwind" [/home/paulrr2/Projects/ece527/babelsoc/fpga-network-stack/hls/rocev2/../ib_transport_protocol/../axi_utils.hpp:472]   --->   Operation 37 'write' <Predicate = (!fsmState_1_load & tmp & !rs_firstWord_1_load)> <Delay = 2.39> <Core = "FIFO">   --->   Core 32 'FIFO' <Latency = 0> <II = 1> <Delay = 2.39> <Storage> <Opcode : 'read' 'write' 'nbread' 'nbwrite'> <Ports = 0> <Width = 64> <Depth = 2> <FIFO>
ST_2 : Operation 38 [1/1] (0.00ns)   --->   "store i64 %tmp_data_V_14, i64* @prevWord_data_V_11, align 8" [/home/paulrr2/Projects/ece527/babelsoc/fpga-network-stack/hls/rocev2/../axi_utils.hpp:50->/home/paulrr2/Projects/ece527/babelsoc/fpga-network-stack/hls/rocev2/../ib_transport_protocol/../axi_utils.hpp:475]   --->   Operation 38 'store' <Predicate = (!fsmState_1_load & tmp)> <Delay = 0.00>
ST_2 : Operation 39 [1/1] (0.00ns)   --->   "store i8 %tmp_keep_V_14, i8* @prevWord_keep_V_5, align 8" [/home/paulrr2/Projects/ece527/babelsoc/fpga-network-stack/hls/rocev2/../axi_utils.hpp:50->/home/paulrr2/Projects/ece527/babelsoc/fpga-network-stack/hls/rocev2/../ib_transport_protocol/../axi_utils.hpp:475]   --->   Operation 39 'store' <Predicate = (!fsmState_1_load & tmp)> <Delay = 0.00>
ST_2 : Operation 40 [1/1] (0.00ns)   --->   "br label %._crit_edge67.i" [/home/paulrr2/Projects/ece527/babelsoc/fpga-network-stack/hls/rocev2/../ib_transport_protocol/../axi_utils.hpp:484]   --->   Operation 40 'br' <Predicate = (!fsmState_1_load & tmp & tmp_last_V & !p_0256_2_0_i)> <Delay = 0.00>
ST_2 : Operation 41 [1/1] (0.00ns)   --->   "%rs_firstWord_1_new_0 = phi i1 [ true, %._crit_edge67.i ], [ false, %._crit_edge65.i ]"   --->   Operation 41 'phi' 'rs_firstWord_1_new_0' <Predicate = (!fsmState_1_load & tmp)> <Delay = 0.00>
ST_2 : Operation 42 [1/1] (0.00ns)   --->   "store i1 %rs_firstWord_1_new_0, i1* @rs_firstWord_1, align 1" [/home/paulrr2/Projects/ece527/babelsoc/fpga-network-stack/hls/rocev2/../ib_transport_protocol/../axi_utils.hpp:476]   --->   Operation 42 'store' <Predicate = (!fsmState_1_load & tmp)> <Delay = 0.00>
ST_2 : Operation 43 [1/1] (0.00ns)   --->   "br label %._crit_edge64.i" [/home/paulrr2/Projects/ece527/babelsoc/fpga-network-stack/hls/rocev2/../ib_transport_protocol/../axi_utils.hpp:487]   --->   Operation 43 'br' <Predicate = (!fsmState_1_load & tmp)> <Delay = 0.00>
ST_2 : Operation 44 [1/1] (0.00ns)   --->   "br label %"rshiftWordByOctet<net_axis<64>, 64, 11>.exit"" [/home/paulrr2/Projects/ece527/babelsoc/fpga-network-stack/hls/rocev2/../ib_transport_protocol/../axi_utils.hpp:488]   --->   Operation 44 'br' <Predicate = (!fsmState_1_load)> <Delay = 0.00>
ST_2 : Operation 45 [1/1] (0.00ns)   --->   "%p_Result_i_211 = call i32 @_ssdm_op_PartSelect.i32.i64.i32.i32(i64 %p_Val2_s, i32 32, i32 63) nounwind" [/home/paulrr2/Projects/ece527/babelsoc/fpga-network-stack/hls/rocev2/../ib_transport_protocol/../axi_utils.hpp:490]   --->   Operation 45 'partselect' 'p_Result_i_211' <Predicate = (fsmState_1_load)> <Delay = 0.00>
ST_2 : Operation 46 [1/1] (0.00ns)   --->   "%p_Result_3 = call i64 @_ssdm_op_BitConcatenate.i64.i32.i32(i32 0, i32 %p_Result_i_211) nounwind" [/home/paulrr2/Projects/ece527/babelsoc/fpga-network-stack/hls/rocev2/../ib_transport_protocol/../axi_utils.hpp:491]   --->   Operation 46 'bitconcatenate' 'p_Result_3' <Predicate = (fsmState_1_load)> <Delay = 0.00>
ST_2 : Operation 47 [1/1] (0.00ns)   --->   "%p_Result_11_i = call i4 @_ssdm_op_PartSelect.i4.i8.i32.i32(i8 %p_Val2_6, i32 4, i32 7) nounwind" [/home/paulrr2/Projects/ece527/babelsoc/fpga-network-stack/hls/rocev2/../ib_transport_protocol/../axi_utils.hpp:492]   --->   Operation 47 'partselect' 'p_Result_11_i' <Predicate = (fsmState_1_load)> <Delay = 0.00>
ST_2 : Operation 48 [1/1] (0.00ns)   --->   "%p_Result_4 = call i8 @_ssdm_op_BitConcatenate.i8.i4.i4(i4 0, i4 %p_Result_11_i) nounwind" [/home/paulrr2/Projects/ece527/babelsoc/fpga-network-stack/hls/rocev2/../ib_transport_protocol/../axi_utils.hpp:493]   --->   Operation 48 'bitconcatenate' 'p_Result_4' <Predicate = (fsmState_1_load)> <Delay = 0.00>
ST_2 : Operation 49 [1/1] (2.39ns)   --->   "call void @_ssdm_op_Write.ap_fifo.volatile.i64P.i8P.i1P(i64* @rx_shift2exhFifo_V_d, i8* @rx_shift2exhFifo_V_k, i1* @rx_shift2exhFifo_V_l, i64 %p_Result_3, i8 %p_Result_4, i1 true) nounwind" [/home/paulrr2/Projects/ece527/babelsoc/fpga-network-stack/hls/rocev2/../ib_transport_protocol/../axi_utils.hpp:498]   --->   Operation 49 'write' <Predicate = (fsmState_1_load)> <Delay = 2.39> <Core = "FIFO">   --->   Core 32 'FIFO' <Latency = 0> <II = 1> <Delay = 2.39> <Storage> <Opcode : 'read' 'write' 'nbread' 'nbwrite'> <Ports = 0> <Width = 64> <Depth = 2> <FIFO>
ST_2 : Operation 50 [1/1] (0.00ns)   --->   "br label %"rshiftWordByOctet<net_axis<64>, 64, 11>.exit"" [/home/paulrr2/Projects/ece527/babelsoc/fpga-network-stack/hls/rocev2/../ib_transport_protocol/../axi_utils.hpp:500]   --->   Operation 50 'br' <Predicate = (fsmState_1_load)> <Delay = 0.00>
ST_2 : Operation 51 [1/1] (0.00ns)   --->   "ret void"   --->   Operation 51 'ret' <Predicate = true> <Delay = 0.00>


============================================================
+ Verbose Summary: Timing violations
============================================================
Target clock period: 6.4ns, clock uncertainty: 0.8ns.

 <State 1>: 4.12ns
The critical path consists of the following:
	fifo read on port 'rx_ibh2shiftFifo_V_d' (/home/paulrr2/Projects/ece527/babelsoc/fpga-network-stack/hls/rocev2/../ib_transport_protocol/../axi_utils.hpp:452) [30]  (2.39 ns)
	'icmp' operation ('val', /home/paulrr2/Projects/ece527/babelsoc/fpga-network-stack/hls/rocev2/../ib_transport_protocol/../axi_utils.hpp:468) [44]  (0.874 ns)
	multiplexor before 'phi' operation ('sendWord.last.V') with incoming values : ('val', /home/paulrr2/Projects/ece527/babelsoc/fpga-network-stack/hls/rocev2/../ib_transport_protocol/../axi_utils.hpp:468) [48]  (0.85 ns)
	'phi' operation ('sendWord.last.V') with incoming values : ('val', /home/paulrr2/Projects/ece527/babelsoc/fpga-network-stack/hls/rocev2/../ib_transport_protocol/../axi_utils.hpp:468) [48]  (0 ns)

 <State 2>: 2.39ns
The critical path consists of the following:
	'load' operation ('__Val2__', /home/paulrr2/Projects/ece527/babelsoc/fpga-network-stack/hls/rocev2/../ib_transport_protocol/../axi_utils.hpp:462) on static variable 'prevWord_data_V_11' [23]  (0 ns)
	fifo write on port 'rx_shift2exhFifo_V_d' (/home/paulrr2/Projects/ece527/babelsoc/fpga-network-stack/hls/rocev2/../ib_transport_protocol/../axi_utils.hpp:498) [70]  (2.39 ns)


============================================================
+ Verbose Summary: Binding
============================================================
N/A
* FSMD analyzer results:
  - Output states:
 - Input state : 
  - Chain level:
	State 1
	State 2


============================================================
+ Verbose Summary: Datapath Resource usage 
============================================================
N/A
