

================================================================
== Vivado HLS Report for 'rx_process_exh_64_s'
================================================================
* Date:           Sat Dec 12 19:41:01 2020

* Version:        2019.2.1 (Build 2724168 on Thu Dec 05 05:19:09 MST 2019)
* Project:        rocev2_prj
* Solution:       solution1
* Product family: virtex7
* Target device:  xc7vx690t-ffg1761-2


================================================================
== Performance Estimates
================================================================
+ Timing: 
    * Summary: 
    +--------+---------+----------+------------+
    |  Clock |  Target | Estimated| Uncertainty|
    +--------+---------+----------+------------+
    |ap_clk  | 6.40 ns | 6.679 ns |   0.80 ns  |
    +--------+---------+----------+------------+

+ Latency: 
    * Summary: 
    +---------+---------+-----------+-----------+-----+-----+----------+
    |  Latency (cycles) |   Latency (absolute)  |  Interval | Pipeline |
    |   min   |   max   |    min    |    max    | min | max |   Type   |
    +---------+---------+-----------+-----------+-----+-----+----------+
    |        4|        4| 26.717 ns | 26.717 ns |    1|    1| function |
    +---------+---------+-----------+-----------+-----+-----+----------+

    + Detail: 
        * Instance: 
        N/A

        * Loop: 
        N/A

============================================================
+ Verbose Summary: Synthesis Manager
============================================================
InlineROM: 1
ExposeGlobal: 0
============================================================
+ Verbose Summary: CDFG Model
============================================================
IsTopModel: 0
ResetActiveHigh: 1
IsCombinational: 2
IsDatapathOnly: 0
HasWiredReturn: 1
HasMFsm: 2
HasVarLatency: 0
IsPipeline: 1
IsRtlPipelined: 1
IsInstanceOverlapped: 0
IsDontTouch: 0
HasImplIP: 0
IsGatedGlobalClock: 0

+ Individual pipeline summary: 
  * Pipeline-0: initiation interval (II) = 1, depth = 5


============================================================
+ Verbose Summary: Schedule
============================================================
* Number of FSM states : 5
* Pipeline : 1
  Pipeline-0 : II = 1, D = 5, States = { 1 2 3 4 5 }
* Dataflow Pipeline: 0

* FSM state transitions: 
1 --> 2 
2 --> 3 
3 --> 4 
4 --> 5 
5 --> 

* FSM state operations: 

State 1 <SV = 0> <Delay = 6.67>
ST_1 : Operation 6 [1/1] (0.00ns)   --->   "%state_1_load = load i2* @state_1, align 1" [/home/paulrr2/Projects/ece527/babelsoc/fpga-network-stack/hls/rocev2/../ib_transport_protocol/ib_transport_protocol.cpp:99]   --->   Operation 6 'load' 'state_1_load' <Predicate = true> <Delay = 0.00>
ST_1 : Operation 7 [1/1] (0.00ns)   --->   "%opCode_load = load i5* @opCode, align 1" [/home/paulrr2/Projects/ece527/babelsoc/fpga-network-stack/hls/rocev2/../ib_transport_protocol/ib_transport_protocol.cpp:110]   --->   Operation 7 'load' 'opCode_load' <Predicate = true> <Delay = 0.00>
ST_1 : Operation 8 [1/1] (0.00ns)   --->   "%metaWritten_1_load = load i1* @metaWritten_1, align 1" [/home/paulrr2/Projects/ece527/babelsoc/fpga-network-stack/hls/rocev2/../ib_transport_protocol/ib_transport_protocol.cpp:138]   --->   Operation 8 'load' 'metaWritten_1_load' <Predicate = true> <Delay = 0.00>
ST_1 : Operation 9 [1/1] (0.87ns)   --->   "switch i2 %state_1_load, label %"rx_process_exh<64>.exit" [
    i2 0, label %0
    i2 1, label %1
    i2 -2, label %5
    i2 -1, label %12
  ]" [/home/paulrr2/Projects/ece527/babelsoc/fpga-network-stack/hls/rocev2/../ib_transport_protocol/ib_transport_protocol.cpp:99]   --->   Operation 9 'switch' <Predicate = true> <Delay = 0.87>
ST_1 : Operation 10 [1/1] (0.00ns)   --->   "%tmp_21 = call i1 @_ssdm_op_NbReadReq.ap_fifo.i64P.i8P.i1P(i64* @rx_shift2exhFifo_V_d, i8* @rx_shift2exhFifo_V_k, i1* @rx_shift2exhFifo_V_l, i32 1) nounwind" [/home/paulrr2/Projects/ece527/babelsoc/fpga-network-stack/hls/rocev2/../ib_transport_protocol/ib_transport_protocol.cpp:227]   --->   Operation 10 'nbreadreq' 'tmp_21' <Predicate = (state_1_load == 3)> <Delay = 0.00> <Core = "FIFO">   --->   Core 32 'FIFO' <Latency = 0> <II = 1> <Delay = 2.39> <Storage> <Opcode : 'read' 'write' 'nbread' 'nbwrite'> <Ports = 0> <Width = 5> <Depth = 2> <FIFO>
ST_1 : Operation 11 [1/1] (2.39ns)   --->   "%empty_189 = call { i64, i8, i1 } @_ssdm_op_Read.ap_fifo.volatile.i64P.i8P.i1P(i64* @rx_shift2exhFifo_V_d, i8* @rx_shift2exhFifo_V_k, i1* @rx_shift2exhFifo_V_l) nounwind" [/home/paulrr2/Projects/ece527/babelsoc/fpga-network-stack/hls/rocev2/../ib_transport_protocol/ib_transport_protocol.cpp:229]   --->   Operation 11 'read' 'empty_189' <Predicate = (state_1_load == 3 & tmp_21)> <Delay = 2.39> <Core = "FIFO">   --->   Core 32 'FIFO' <Latency = 0> <II = 1> <Delay = 2.39> <Storage> <Opcode : 'read' 'write' 'nbread' 'nbwrite'> <Ports = 0> <Width = 5> <Depth = 2> <FIFO>
ST_1 : Operation 12 [1/1] (0.00ns)   --->   "%tmp_data_V = extractvalue { i64, i8, i1 } %empty_189, 0" [/home/paulrr2/Projects/ece527/babelsoc/fpga-network-stack/hls/rocev2/../ib_transport_protocol/ib_transport_protocol.cpp:229]   --->   Operation 12 'extractvalue' 'tmp_data_V' <Predicate = (state_1_load == 3 & tmp_21)> <Delay = 0.00>
ST_1 : Operation 13 [1/1] (0.00ns)   --->   "%tmp_keep_V = extractvalue { i64, i8, i1 } %empty_189, 1" [/home/paulrr2/Projects/ece527/babelsoc/fpga-network-stack/hls/rocev2/../ib_transport_protocol/ib_transport_protocol.cpp:229]   --->   Operation 13 'extractvalue' 'tmp_keep_V' <Predicate = (state_1_load == 3 & tmp_21)> <Delay = 0.00>
ST_1 : Operation 14 [1/1] (0.00ns)   --->   "%tmp_last_V = extractvalue { i64, i8, i1 } %empty_189, 2" [/home/paulrr2/Projects/ece527/babelsoc/fpga-network-stack/hls/rocev2/../ib_transport_protocol/ib_transport_protocol.cpp:229]   --->   Operation 14 'extractvalue' 'tmp_last_V' <Predicate = (state_1_load == 3 & tmp_21)> <Delay = 0.00>
ST_1 : Operation 15 [1/1] (0.00ns)   --->   "br i1 %metaWritten_1_load, label %._crit_edge18.i, label %14" [/home/paulrr2/Projects/ece527/babelsoc/fpga-network-stack/hls/rocev2/../ib_transport_protocol/ib_transport_protocol.cpp:234]   --->   Operation 15 'br' <Predicate = (state_1_load == 3 & tmp_21)> <Delay = 0.00>
ST_1 : Operation 16 [1/1] (0.85ns)   --->   "store i1 true, i1* @metaWritten_1, align 1" [/home/paulrr2/Projects/ece527/babelsoc/fpga-network-stack/hls/rocev2/../ib_transport_protocol/ib_transport_protocol.cpp:238]   --->   Operation 16 'store' <Predicate = (state_1_load == 3 & tmp_21 & !metaWritten_1_load)> <Delay = 0.85>
ST_1 : Operation 17 [1/1] (0.85ns)   --->   "store i2 0, i2* @state_1, align 1" [/home/paulrr2/Projects/ece527/babelsoc/fpga-network-stack/hls/rocev2/../ib_transport_protocol/ib_transport_protocol.cpp:242]   --->   Operation 17 'store' <Predicate = (state_1_load == 3 & tmp_21 & tmp_last_V)> <Delay = 0.85>
ST_1 : Operation 18 [1/1] (0.00ns)   --->   "%tmp_20 = call i1 @_ssdm_op_NbReadReq.ap_fifo.i64P.i8P.i1P(i64* @rx_shift2exhFifo_V_d, i8* @rx_shift2exhFifo_V_k, i1* @rx_shift2exhFifo_V_l, i32 1) nounwind" [/home/paulrr2/Projects/ece527/babelsoc/fpga-network-stack/hls/rocev2/../ib_transport_protocol/ib_transport_protocol.cpp:153]   --->   Operation 18 'nbreadreq' 'tmp_20' <Predicate = (state_1_load == 2)> <Delay = 0.00> <Core = "FIFO">   --->   Core 32 'FIFO' <Latency = 0> <II = 1> <Delay = 2.39> <Storage> <Opcode : 'read' 'write' 'nbread' 'nbwrite'> <Ports = 0> <Width = 5> <Depth = 2> <FIFO>
ST_1 : Operation 19 [1/1] (2.39ns)   --->   "%empty_185 = call { i64, i8, i1 } @_ssdm_op_Read.ap_fifo.volatile.i64P.i8P.i1P(i64* @rx_shift2exhFifo_V_d, i8* @rx_shift2exhFifo_V_k, i1* @rx_shift2exhFifo_V_l) nounwind" [/home/paulrr2/Projects/ece527/babelsoc/fpga-network-stack/hls/rocev2/../ib_transport_protocol/ib_transport_protocol.cpp:155]   --->   Operation 19 'read' 'empty_185' <Predicate = (state_1_load == 2 & tmp_20)> <Delay = 2.39> <Core = "FIFO">   --->   Core 32 'FIFO' <Latency = 0> <II = 1> <Delay = 2.39> <Storage> <Opcode : 'read' 'write' 'nbread' 'nbwrite'> <Ports = 0> <Width = 5> <Depth = 2> <FIFO>
ST_1 : Operation 20 [1/1] (0.00ns)   --->   "%tmp_data_V_11 = extractvalue { i64, i8, i1 } %empty_185, 0" [/home/paulrr2/Projects/ece527/babelsoc/fpga-network-stack/hls/rocev2/../ib_transport_protocol/ib_transport_protocol.cpp:155]   --->   Operation 20 'extractvalue' 'tmp_data_V_11' <Predicate = (state_1_load == 2 & tmp_20)> <Delay = 0.00>
ST_1 : Operation 21 [1/1] (0.00ns)   --->   "%tmp_keep_V_11 = extractvalue { i64, i8, i1 } %empty_185, 1" [/home/paulrr2/Projects/ece527/babelsoc/fpga-network-stack/hls/rocev2/../ib_transport_protocol/ib_transport_protocol.cpp:155]   --->   Operation 21 'extractvalue' 'tmp_keep_V_11' <Predicate = (state_1_load == 2 & tmp_20)> <Delay = 0.00>
ST_1 : Operation 22 [1/1] (0.00ns)   --->   "%tmp_last_V_16 = extractvalue { i64, i8, i1 } %empty_185, 2" [/home/paulrr2/Projects/ece527/babelsoc/fpga-network-stack/hls/rocev2/../ib_transport_protocol/ib_transport_protocol.cpp:155]   --->   Operation 22 'extractvalue' 'tmp_last_V_16' <Predicate = (state_1_load == 2 & tmp_20)> <Delay = 0.00>
ST_1 : Operation 23 [1/1] (0.00ns)   --->   "%rdmaHeader_ready_loa = load i1* @rdmaHeader_ready, align 1" [/home/paulrr2/Projects/ece527/babelsoc/fpga-network-stack/hls/rocev2/../ib_transport_protocol/ib_transport_protocol.cpp:156]   --->   Operation 23 'load' 'rdmaHeader_ready_loa' <Predicate = (state_1_load == 2 & tmp_20)> <Delay = 0.00>
ST_1 : Operation 24 [1/1] (0.00ns)   --->   "%rdmaHeader_idx_load = load i16* @rdmaHeader_idx, align 2" [/home/paulrr2/Projects/ece527/babelsoc/fpga-network-stack/hls/rocev2/../ib_transport_protocol/ib_transport_protocol.cpp:156]   --->   Operation 24 'load' 'rdmaHeader_idx_load' <Predicate = (state_1_load == 2 & tmp_20)> <Delay = 0.00>
ST_1 : Operation 25 [1/1] (0.00ns)   --->   "%trunc_ln58 = trunc i16 %rdmaHeader_idx_load to i2" [/home/paulrr2/Projects/ece527/babelsoc/fpga-network-stack/hls/rocev2/../ib_transport_protocol/../packet.hpp:58->/home/paulrr2/Projects/ece527/babelsoc/fpga-network-stack/hls/rocev2/../ib_transport_protocol/ib_transport_protocol.cpp:156]   --->   Operation 25 'trunc' 'trunc_ln58' <Predicate = (state_1_load == 2 & tmp_20)> <Delay = 0.00>
ST_1 : Operation 26 [1/1] (0.00ns)   --->   "%Lo_assign_1 = call i22 @_ssdm_op_BitConcatenate.i22.i16.i6(i16 %rdmaHeader_idx_load, i6 0)" [/home/paulrr2/Projects/ece527/babelsoc/fpga-network-stack/hls/rocev2/../ib_transport_protocol/../packet.hpp:58->/home/paulrr2/Projects/ece527/babelsoc/fpga-network-stack/hls/rocev2/../ib_transport_protocol/ib_transport_protocol.cpp:156]   --->   Operation 26 'bitconcatenate' 'Lo_assign_1' <Predicate = (state_1_load == 2 & tmp_20)> <Delay = 0.00>
ST_1 : Operation 27 [1/1] (0.00ns)   --->   "%zext_ln58_2 = zext i22 %Lo_assign_1 to i23" [/home/paulrr2/Projects/ece527/babelsoc/fpga-network-stack/hls/rocev2/../ib_transport_protocol/../packet.hpp:58->/home/paulrr2/Projects/ece527/babelsoc/fpga-network-stack/hls/rocev2/../ib_transport_protocol/ib_transport_protocol.cpp:156]   --->   Operation 27 'zext' 'zext_ln58_2' <Predicate = (state_1_load == 2 & tmp_20)> <Delay = 0.00>
ST_1 : Operation 28 [1/1] (1.38ns)   --->   "%add_ln58 = add i23 %zext_ln58_2, 64" [/home/paulrr2/Projects/ece527/babelsoc/fpga-network-stack/hls/rocev2/../ib_transport_protocol/../packet.hpp:58->/home/paulrr2/Projects/ece527/babelsoc/fpga-network-stack/hls/rocev2/../ib_transport_protocol/ib_transport_protocol.cpp:156]   --->   Operation 28 'add' 'add_ln58' <Predicate = (state_1_load == 2 & tmp_20)> <Delay = 1.38> <Core = "AddSub">   --->   Core 14 'AddSub' <Latency = 0> <II = 1> <Delay = 1.30> <FuncUnit> <Opcode : 'add' 'sub'> <InPorts = 2> <OutPorts = 1>
ST_1 : Operation 29 [1/1] (0.00ns)   --->   "%tmp_25 = call i16 @_ssdm_op_PartSelect.i16.i23.i32.i32(i23 %add_ln58, i32 7, i32 22)" [/home/paulrr2/Projects/ece527/babelsoc/fpga-network-stack/hls/rocev2/../ib_transport_protocol/../packet.hpp:58->/home/paulrr2/Projects/ece527/babelsoc/fpga-network-stack/hls/rocev2/../ib_transport_protocol/ib_transport_protocol.cpp:156]   --->   Operation 29 'partselect' 'tmp_25' <Predicate = (state_1_load == 2 & tmp_20)> <Delay = 0.00>
ST_1 : Operation 30 [1/1] (1.18ns)   --->   "%icmp_ln58 = icmp eq i16 %tmp_25, 0" [/home/paulrr2/Projects/ece527/babelsoc/fpga-network-stack/hls/rocev2/../ib_transport_protocol/../packet.hpp:58->/home/paulrr2/Projects/ece527/babelsoc/fpga-network-stack/hls/rocev2/../ib_transport_protocol/ib_transport_protocol.cpp:156]   --->   Operation 30 'icmp' 'icmp_ln58' <Predicate = (state_1_load == 2 & tmp_20)> <Delay = 1.18> <Core = "Cmp">   --->   Core 25 'Cmp' <Latency = 0> <II = 1> <Delay = 0.48> <FuncUnit> <Opcode : 'icmp'> <InPorts = 2> <OutPorts = 1>
ST_1 : Operation 31 [1/1] (0.00ns) (grouped into LUT with out node select_ln58)   --->   "%or_ln60 = or i22 %Lo_assign_1, 63" [/home/paulrr2/Projects/ece527/babelsoc/fpga-network-stack/hls/rocev2/../ib_transport_protocol/../packet.hpp:60->/home/paulrr2/Projects/ece527/babelsoc/fpga-network-stack/hls/rocev2/../ib_transport_protocol/ib_transport_protocol.cpp:156]   --->   Operation 31 'or' 'or_ln60' <Predicate = (state_1_load == 2 & tmp_20)> <Delay = 0.00>
ST_1 : Operation 32 [1/1] (0.77ns) (out node of the LUT)   --->   "%select_ln58 = select i1 %icmp_ln58, i22 %or_ln60, i22 127" [/home/paulrr2/Projects/ece527/babelsoc/fpga-network-stack/hls/rocev2/../ib_transport_protocol/../packet.hpp:58->/home/paulrr2/Projects/ece527/babelsoc/fpga-network-stack/hls/rocev2/../ib_transport_protocol/ib_transport_protocol.cpp:156]   --->   Operation 32 'select' 'select_ln58' <Predicate = (state_1_load == 2 & tmp_20)> <Delay = 0.77> <Core = "Sel">   --->   Core 26 'Sel' <Latency = 0> <II = 1> <Delay = 0.49> <FuncUnit> <Opcode : 'select'> <InPorts = 3> <OutPorts = 1>
ST_1 : Operation 33 [1/1] (1.21ns)   --->   "%icmp_ln58_2 = icmp ugt i22 %Lo_assign_1, %select_ln58" [/home/paulrr2/Projects/ece527/babelsoc/fpga-network-stack/hls/rocev2/../ib_transport_protocol/../packet.hpp:58->/home/paulrr2/Projects/ece527/babelsoc/fpga-network-stack/hls/rocev2/../ib_transport_protocol/ib_transport_protocol.cpp:156]   --->   Operation 33 'icmp' 'icmp_ln58_2' <Predicate = (state_1_load == 2 & tmp_20)> <Delay = 1.21> <Core = "Cmp">   --->   Core 25 'Cmp' <Latency = 0> <II = 1> <Delay = 0.48> <FuncUnit> <Opcode : 'icmp'> <InPorts = 2> <OutPorts = 1>
ST_1 : Operation 34 [1/1] (0.00ns)   --->   "%trunc_ln58_2 = trunc i22 %select_ln58 to i8" [/home/paulrr2/Projects/ece527/babelsoc/fpga-network-stack/hls/rocev2/../ib_transport_protocol/../packet.hpp:58->/home/paulrr2/Projects/ece527/babelsoc/fpga-network-stack/hls/rocev2/../ib_transport_protocol/ib_transport_protocol.cpp:156]   --->   Operation 34 'trunc' 'trunc_ln58_2' <Predicate = (state_1_load == 2 & tmp_20)> <Delay = 0.00>
ST_1 : Operation 35 [1/1] (1.30ns)   --->   "%add_ln67_1 = add i16 %rdmaHeader_idx_load, 1" [/home/paulrr2/Projects/ece527/babelsoc/fpga-network-stack/hls/rocev2/../ib_transport_protocol/../packet.hpp:67->/home/paulrr2/Projects/ece527/babelsoc/fpga-network-stack/hls/rocev2/../ib_transport_protocol/ib_transport_protocol.cpp:156]   --->   Operation 35 'add' 'add_ln67_1' <Predicate = (state_1_load == 2 & tmp_20)> <Delay = 1.30> <Core = "AddSub">   --->   Core 14 'AddSub' <Latency = 0> <II = 1> <Delay = 1.30> <FuncUnit> <Opcode : 'add' 'sub'> <InPorts = 2> <OutPorts = 1>
ST_1 : Operation 36 [1/1] (0.47ns)   --->   "%select_ln156 = select i1 %rdmaHeader_ready_loa, i16 %rdmaHeader_idx_load, i16 %add_ln67_1" [/home/paulrr2/Projects/ece527/babelsoc/fpga-network-stack/hls/rocev2/../ib_transport_protocol/ib_transport_protocol.cpp:156]   --->   Operation 36 'select' 'select_ln156' <Predicate = (state_1_load == 2 & tmp_20)> <Delay = 0.47> <Core = "Sel">   --->   Core 26 'Sel' <Latency = 0> <II = 1> <Delay = 0.49> <FuncUnit> <Opcode : 'select'> <InPorts = 3> <OutPorts = 1>
ST_1 : Operation 37 [1/1] (0.00ns) (grouped into LUT with out node or_ln73)   --->   "%xor_ln73 = xor i1 %icmp_ln58, true" [/home/paulrr2/Projects/ece527/babelsoc/fpga-network-stack/hls/rocev2/../ib_transport_protocol/../packet.hpp:73->/home/paulrr2/Projects/ece527/babelsoc/fpga-network-stack/hls/rocev2/../ib_transport_protocol/ib_transport_protocol.cpp:156]   --->   Operation 37 'xor' 'xor_ln73' <Predicate = (state_1_load == 2 & tmp_20)> <Delay = 0.00> <Core = "LogicGate">   --->   Core 27 'LogicGate' <Latency = 0> <II = 1> <Delay = 0.48> <FuncUnit> <Opcode : 'and' 'or' 'xor'> <InPorts = 2> <OutPorts = 1>
ST_1 : Operation 38 [1/1] (0.48ns) (out node of the LUT)   --->   "%or_ln73 = or i1 %rdmaHeader_ready_loa, %xor_ln73" [/home/paulrr2/Projects/ece527/babelsoc/fpga-network-stack/hls/rocev2/../ib_transport_protocol/../packet.hpp:73->/home/paulrr2/Projects/ece527/babelsoc/fpga-network-stack/hls/rocev2/../ib_transport_protocol/ib_transport_protocol.cpp:156]   --->   Operation 38 'or' 'or_ln73' <Predicate = (state_1_load == 2 & tmp_20)> <Delay = 0.48> <Core = "LogicGate">   --->   Core 27 'LogicGate' <Latency = 0> <II = 1> <Delay = 0.48> <FuncUnit> <Opcode : 'and' 'or' 'xor'> <InPorts = 2> <OutPorts = 1>
ST_1 : Operation 39 [1/1] (0.00ns)   --->   "br i1 %metaWritten_1_load, label %6, label %._crit_edge11.i" [/home/paulrr2/Projects/ece527/babelsoc/fpga-network-stack/hls/rocev2/../ib_transport_protocol/ib_transport_protocol.cpp:158]   --->   Operation 39 'br' <Predicate = (state_1_load == 2 & tmp_20)> <Delay = 0.00>
ST_1 : Operation 40 [1/1] (0.00ns)   --->   "br i1 %metaWritten_1_load, label %._crit_edge13.i, label %8" [/home/paulrr2/Projects/ece527/babelsoc/fpga-network-stack/hls/rocev2/../ib_transport_protocol/ib_transport_protocol.cpp:165]   --->   Operation 40 'br' <Predicate = (state_1_load == 2 & tmp_20 & or_ln73)> <Delay = 0.00>
ST_1 : Operation 41 [1/1] (0.87ns)   --->   "%empty_186 = icmp eq i5 %opCode_load, -3" [/home/paulrr2/Projects/ece527/babelsoc/fpga-network-stack/hls/rocev2/../ib_transport_protocol/ib_transport_protocol.cpp:110]   --->   Operation 41 'icmp' 'empty_186' <Predicate = (state_1_load == 2 & !metaWritten_1_load & tmp_20 & or_ln73)> <Delay = 0.87> <Core = "Cmp">   --->   Core 25 'Cmp' <Latency = 0> <II = 1> <Delay = 0.48> <FuncUnit> <Opcode : 'icmp'> <InPorts = 2> <OutPorts = 1>
ST_1 : Operation 42 [1/1] (0.87ns)   --->   "%empty_187 = icmp eq i5 %opCode_load, 12" [/home/paulrr2/Projects/ece527/babelsoc/fpga-network-stack/hls/rocev2/../ib_transport_protocol/ib_transport_protocol.cpp:110]   --->   Operation 42 'icmp' 'empty_187' <Predicate = (state_1_load == 2 & !metaWritten_1_load & tmp_20 & or_ln73)> <Delay = 0.87> <Core = "Cmp">   --->   Core 25 'Cmp' <Latency = 0> <II = 1> <Delay = 0.48> <FuncUnit> <Opcode : 'icmp'> <InPorts = 2> <OutPorts = 1>
ST_1 : Operation 43 [1/1] (0.48ns)   --->   "%empty_188 = or i1 %empty_187, %empty_186" [/home/paulrr2/Projects/ece527/babelsoc/fpga-network-stack/hls/rocev2/../ib_transport_protocol/ib_transport_protocol.cpp:110]   --->   Operation 43 'or' 'empty_188' <Predicate = (state_1_load == 2 & !metaWritten_1_load & tmp_20 & or_ln73)> <Delay = 0.48> <Core = "LogicGate">   --->   Core 27 'LogicGate' <Latency = 0> <II = 1> <Delay = 0.48> <FuncUnit> <Opcode : 'and' 'or' 'xor'> <InPorts = 2> <OutPorts = 1>
ST_1 : Operation 44 [1/1] (0.00ns)   --->   "br i1 %empty_188, label %._crit_edge15.i, label %9" [/home/paulrr2/Projects/ece527/babelsoc/fpga-network-stack/hls/rocev2/../ib_transport_protocol/ib_transport_protocol.cpp:110]   --->   Operation 44 'br' <Predicate = (state_1_load == 2 & !metaWritten_1_load & tmp_20 & or_ln73)> <Delay = 0.00>
ST_1 : Operation 45 [1/1] (0.85ns)   --->   "store i1 true, i1* @metaWritten_1, align 1" [/home/paulrr2/Projects/ece527/babelsoc/fpga-network-stack/hls/rocev2/../ib_transport_protocol/ib_transport_protocol.cpp:176]   --->   Operation 45 'store' <Predicate = (state_1_load == 2 & !metaWritten_1_load & tmp_20 & or_ln73)> <Delay = 0.85>
ST_1 : Operation 46 [1/1] (1.71ns)   --->   "%tmp_i204_i = call i1 @_ssdm_op_Mux.ap_auto.32i1.i5(i1 false, i1 false, i1 false, i1 false, i1 false, i1 false, i1 true, i1 true, i1 true, i1 false, i1 true, i1 false, i1 false, i1 false, i1 false, i1 false, i1 false, i1 false, i1 false, i1 false, i1 false, i1 false, i1 false, i1 false, i1 true, i1 true, i1 true, i1 true, i1 false, i1 false, i1 false, i1 false, i5 %opCode_load) nounwind" [/home/paulrr2/Projects/ece527/babelsoc/fpga-network-stack/hls/rocev2/../ib_transport_protocol/ib_transport_protocol.cpp:110]   --->   Operation 46 'mux' 'tmp_i204_i' <Predicate = (state_1_load == 2 & tmp_20 & or_ln73)> <Delay = 1.71> <Core = "MuxnS">   --->   Core 31 'MuxnS' <Latency = 0> <II = 1> <Delay = 1.71> <FuncUnit> <Opcode : 'mux'> <InPorts = 2> <OutPorts = 1>
ST_1 : Operation 47 [1/1] (0.85ns)   --->   "br i1 %tmp_last_V_16, label %11, label %mergeST190.i" [/home/paulrr2/Projects/ece527/babelsoc/fpga-network-stack/hls/rocev2/../ib_transport_protocol/ib_transport_protocol.cpp:183]   --->   Operation 47 'br' <Predicate = (state_1_load == 2 & tmp_20)> <Delay = 0.85>
ST_1 : Operation 48 [1/1] (0.85ns)   --->   "store i2 0, i2* @state_1, align 1" [/home/paulrr2/Projects/ece527/babelsoc/fpga-network-stack/hls/rocev2/../ib_transport_protocol/ib_transport_protocol.cpp:186]   --->   Operation 48 'store' <Predicate = (state_1_load == 2 & tmp_20 & tmp_last_V_16)> <Delay = 0.85>
ST_1 : Operation 49 [1/1] (0.85ns)   --->   "br label %mergeST190.i" [/home/paulrr2/Projects/ece527/babelsoc/fpga-network-stack/hls/rocev2/../ib_transport_protocol/ib_transport_protocol.cpp:187]   --->   Operation 49 'br' <Predicate = (state_1_load == 2 & tmp_20 & tmp_last_V_16)> <Delay = 0.85>
ST_1 : Operation 50 [1/1] (0.00ns)   --->   "%tmp_19 = call i1 @_ssdm_op_NbReadReq.ap_fifo.i64P.i8P.i1P(i64* @rx_shift2exhFifo_V_d, i8* @rx_shift2exhFifo_V_k, i1* @rx_shift2exhFifo_V_l, i32 1) nounwind" [/home/paulrr2/Projects/ece527/babelsoc/fpga-network-stack/hls/rocev2/../ib_transport_protocol/ib_transport_protocol.cpp:127]   --->   Operation 50 'nbreadreq' 'tmp_19' <Predicate = (state_1_load == 1)> <Delay = 0.00> <Core = "FIFO">   --->   Core 32 'FIFO' <Latency = 0> <II = 1> <Delay = 2.39> <Storage> <Opcode : 'read' 'write' 'nbread' 'nbwrite'> <Ports = 0> <Width = 5> <Depth = 2> <FIFO>
ST_1 : Operation 51 [1/1] (2.39ns)   --->   "%empty_184 = call { i64, i8, i1 } @_ssdm_op_Read.ap_fifo.volatile.i64P.i8P.i1P(i64* @rx_shift2exhFifo_V_d, i8* @rx_shift2exhFifo_V_k, i1* @rx_shift2exhFifo_V_l) nounwind" [/home/paulrr2/Projects/ece527/babelsoc/fpga-network-stack/hls/rocev2/../ib_transport_protocol/ib_transport_protocol.cpp:129]   --->   Operation 51 'read' 'empty_184' <Predicate = (state_1_load == 1 & tmp_19)> <Delay = 2.39> <Core = "FIFO">   --->   Core 32 'FIFO' <Latency = 0> <II = 1> <Delay = 2.39> <Storage> <Opcode : 'read' 'write' 'nbread' 'nbwrite'> <Ports = 0> <Width = 5> <Depth = 2> <FIFO>
ST_1 : Operation 52 [1/1] (0.00ns)   --->   "%tmp_data_V_10 = extractvalue { i64, i8, i1 } %empty_184, 0" [/home/paulrr2/Projects/ece527/babelsoc/fpga-network-stack/hls/rocev2/../ib_transport_protocol/ib_transport_protocol.cpp:129]   --->   Operation 52 'extractvalue' 'tmp_data_V_10' <Predicate = (state_1_load == 1 & tmp_19)> <Delay = 0.00>
ST_1 : Operation 53 [1/1] (0.00ns)   --->   "%tmp_keep_V_10 = extractvalue { i64, i8, i1 } %empty_184, 1" [/home/paulrr2/Projects/ece527/babelsoc/fpga-network-stack/hls/rocev2/../ib_transport_protocol/ib_transport_protocol.cpp:129]   --->   Operation 53 'extractvalue' 'tmp_keep_V_10' <Predicate = (state_1_load == 1 & tmp_19)> <Delay = 0.00>
ST_1 : Operation 54 [1/1] (0.00ns)   --->   "%tmp_last_V_15 = extractvalue { i64, i8, i1 } %empty_184, 2" [/home/paulrr2/Projects/ece527/babelsoc/fpga-network-stack/hls/rocev2/../ib_transport_protocol/ib_transport_protocol.cpp:129]   --->   Operation 54 'extractvalue' 'tmp_last_V_15' <Predicate = (state_1_load == 1 & tmp_19)> <Delay = 0.00>
ST_1 : Operation 55 [1/1] (0.00ns)   --->   "%ackHeader_ready_load = load i1* @ackHeader_ready, align 1" [/home/paulrr2/Projects/ece527/babelsoc/fpga-network-stack/hls/rocev2/../ib_transport_protocol/ib_transport_protocol.cpp:130]   --->   Operation 55 'load' 'ackHeader_ready_load' <Predicate = (state_1_load == 1 & tmp_19)> <Delay = 0.00>
ST_1 : Operation 56 [1/1] (0.00ns)   --->   "%ackHeader_idx_load = load i16* @ackHeader_idx, align 2" [/home/paulrr2/Projects/ece527/babelsoc/fpga-network-stack/hls/rocev2/../ib_transport_protocol/ib_transport_protocol.cpp:130]   --->   Operation 56 'load' 'ackHeader_idx_load' <Predicate = (state_1_load == 1 & tmp_19)> <Delay = 0.00>
ST_1 : Operation 57 [1/1] (0.00ns)   --->   "%p_Val2_s = load i32* @ackHeader_header_V, align 4" [/home/paulrr2/Projects/ece527/babelsoc/fpga-network-stack/hls/rocev2/../ib_transport_protocol/ib_transport_protocol.cpp:130]   --->   Operation 57 'load' 'p_Val2_s' <Predicate = (state_1_load == 1 & tmp_19)> <Delay = 0.00>
ST_1 : Operation 58 [1/1] (0.00ns)   --->   "%tmp_V = trunc i64 %tmp_data_V_10 to i32" [/home/paulrr2/Projects/ece527/babelsoc/fpga-network-stack/hls/rocev2/../ib_transport_protocol/../packet.hpp:64->/home/paulrr2/Projects/ece527/babelsoc/fpga-network-stack/hls/rocev2/../ib_transport_protocol/ib_transport_protocol.cpp:130]   --->   Operation 58 'trunc' 'tmp_V' <Predicate = (state_1_load == 1 & tmp_19)> <Delay = 0.00>
ST_1 : Operation 59 [1/1] (0.00ns)   --->   "%tmp_23 = call i17 @_ssdm_op_BitConcatenate.i17.i16.i1(i16 %ackHeader_idx_load, i1 false)" [/home/paulrr2/Projects/ece527/babelsoc/fpga-network-stack/hls/rocev2/../ib_transport_protocol/../packet.hpp:64->/home/paulrr2/Projects/ece527/babelsoc/fpga-network-stack/hls/rocev2/../ib_transport_protocol/ib_transport_protocol.cpp:130]   --->   Operation 59 'bitconcatenate' 'tmp_23' <Predicate = (state_1_load == 1 & tmp_19)> <Delay = 0.00>
ST_1 : Operation 60 [1/1] (0.00ns)   --->   "%zext_ln414 = zext i17 %tmp_23 to i27" [/home/paulrr2/Projects/ece527/babelsoc/fpga-network-stack/hls/rocev2/../ib_transport_protocol/../packet.hpp:64->/home/paulrr2/Projects/ece527/babelsoc/fpga-network-stack/hls/rocev2/../ib_transport_protocol/ib_transport_protocol.cpp:130]   --->   Operation 60 'zext' 'zext_ln414' <Predicate = (state_1_load == 1 & tmp_19)> <Delay = 0.00>
ST_1 : Operation 61 [1/1] (1.18ns)   --->   "%icmp_ln414 = icmp ne i27 %zext_ln414, 0" [/home/paulrr2/Projects/ece527/babelsoc/fpga-network-stack/hls/rocev2/../ib_transport_protocol/../packet.hpp:64->/home/paulrr2/Projects/ece527/babelsoc/fpga-network-stack/hls/rocev2/../ib_transport_protocol/ib_transport_protocol.cpp:130]   --->   Operation 61 'icmp' 'icmp_ln414' <Predicate = (state_1_load == 1 & tmp_19)> <Delay = 1.18> <Core = "Cmp">   --->   Core 25 'Cmp' <Latency = 0> <II = 1> <Delay = 0.48> <FuncUnit> <Opcode : 'icmp'> <InPorts = 2> <OutPorts = 1>
ST_1 : Operation 62 [1/1] (0.00ns) (grouped into LUT with out node and_ln414_2)   --->   "%trunc_ln414 = trunc i64 %tmp_data_V_10 to i1" [/home/paulrr2/Projects/ece527/babelsoc/fpga-network-stack/hls/rocev2/../ib_transport_protocol/../packet.hpp:64->/home/paulrr2/Projects/ece527/babelsoc/fpga-network-stack/hls/rocev2/../ib_transport_protocol/ib_transport_protocol.cpp:130]   --->   Operation 62 'trunc' 'trunc_ln414' <Predicate = (state_1_load == 1 & tmp_19)> <Delay = 0.00>
ST_1 : Operation 63 [1/1] (0.00ns) (grouped into LUT with out node and_ln414_2)   --->   "%st = call i32 @_ssdm_op_BitConcatenate.i32.i1.i31(i1 %trunc_ln414, i31 0)" [/home/paulrr2/Projects/ece527/babelsoc/fpga-network-stack/hls/rocev2/../ib_transport_protocol/../packet.hpp:64->/home/paulrr2/Projects/ece527/babelsoc/fpga-network-stack/hls/rocev2/../ib_transport_protocol/ib_transport_protocol.cpp:130]   --->   Operation 63 'bitconcatenate' 'st' <Predicate = (state_1_load == 1 & tmp_19)> <Delay = 0.00>
ST_1 : Operation 64 [1/1] (0.00ns) (grouped into LUT with out node and_ln414_2)   --->   "%select_ln414 = select i1 %icmp_ln414, i32 %st, i32 %tmp_V" [/home/paulrr2/Projects/ece527/babelsoc/fpga-network-stack/hls/rocev2/../ib_transport_protocol/../packet.hpp:64->/home/paulrr2/Projects/ece527/babelsoc/fpga-network-stack/hls/rocev2/../ib_transport_protocol/ib_transport_protocol.cpp:130]   --->   Operation 64 'select' 'select_ln414' <Predicate = (state_1_load == 1 & tmp_19)> <Delay = 0.00> <Core = "Sel">   --->   Core 26 'Sel' <Latency = 0> <II = 1> <Delay = 0.49> <FuncUnit> <Opcode : 'select'> <InPorts = 3> <OutPorts = 1>
ST_1 : Operation 65 [1/1] (0.00ns) (grouped into LUT with out node and_ln414_2)   --->   "%tmp_24 = call i32 @llvm.part.select.i32(i32 %select_ln414, i32 31, i32 0)" [/home/paulrr2/Projects/ece527/babelsoc/fpga-network-stack/hls/rocev2/../ib_transport_protocol/../packet.hpp:64->/home/paulrr2/Projects/ece527/babelsoc/fpga-network-stack/hls/rocev2/../ib_transport_protocol/ib_transport_protocol.cpp:130]   --->   Operation 65 'partselect' 'tmp_24' <Predicate = (state_1_load == 1 & tmp_19)> <Delay = 0.00>
ST_1 : Operation 66 [1/1] (0.00ns) (grouped into LUT with out node and_ln414_2)   --->   "%select_ln414_1 = select i1 %icmp_ln414, i32 %tmp_24, i32 %tmp_V" [/home/paulrr2/Projects/ece527/babelsoc/fpga-network-stack/hls/rocev2/../ib_transport_protocol/../packet.hpp:64->/home/paulrr2/Projects/ece527/babelsoc/fpga-network-stack/hls/rocev2/../ib_transport_protocol/ib_transport_protocol.cpp:130]   --->   Operation 66 'select' 'select_ln414_1' <Predicate = (state_1_load == 1 & tmp_19)> <Delay = 0.00> <Core = "Sel">   --->   Core 26 'Sel' <Latency = 0> <II = 1> <Delay = 0.49> <FuncUnit> <Opcode : 'select'> <InPorts = 3> <OutPorts = 1>
ST_1 : Operation 67 [1/1] (0.00ns) (grouped into LUT with out node and_ln414)   --->   "%select_ln414_2 = select i1 %icmp_ln414, i32 -2147483648, i32 -1" [/home/paulrr2/Projects/ece527/babelsoc/fpga-network-stack/hls/rocev2/../ib_transport_protocol/../packet.hpp:64->/home/paulrr2/Projects/ece527/babelsoc/fpga-network-stack/hls/rocev2/../ib_transport_protocol/ib_transport_protocol.cpp:130]   --->   Operation 67 'select' 'select_ln414_2' <Predicate = (state_1_load == 1 & tmp_19)> <Delay = 0.00> <Core = "Sel">   --->   Core 26 'Sel' <Latency = 0> <II = 1> <Delay = 0.49> <FuncUnit> <Opcode : 'select'> <InPorts = 3> <OutPorts = 1>
ST_1 : Operation 68 [1/1] (0.00ns) (grouped into LUT with out node and_ln414)   --->   "%select_ln414_3 = select i1 %icmp_ln414, i32 1, i32 -1" [/home/paulrr2/Projects/ece527/babelsoc/fpga-network-stack/hls/rocev2/../ib_transport_protocol/../packet.hpp:64->/home/paulrr2/Projects/ece527/babelsoc/fpga-network-stack/hls/rocev2/../ib_transport_protocol/ib_transport_protocol.cpp:130]   --->   Operation 68 'select' 'select_ln414_3' <Predicate = (state_1_load == 1 & tmp_19)> <Delay = 0.00> <Core = "Sel">   --->   Core 26 'Sel' <Latency = 0> <II = 1> <Delay = 0.49> <FuncUnit> <Opcode : 'select'> <InPorts = 3> <OutPorts = 1>
ST_1 : Operation 69 [1/1] (0.87ns) (out node of the LUT)   --->   "%and_ln414 = and i32 %select_ln414_2, %select_ln414_3" [/home/paulrr2/Projects/ece527/babelsoc/fpga-network-stack/hls/rocev2/../ib_transport_protocol/../packet.hpp:64->/home/paulrr2/Projects/ece527/babelsoc/fpga-network-stack/hls/rocev2/../ib_transport_protocol/ib_transport_protocol.cpp:130]   --->   Operation 69 'and' 'and_ln414' <Predicate = (state_1_load == 1 & tmp_19)> <Delay = 0.87> <Core = "LogicGate">   --->   Core 27 'LogicGate' <Latency = 0> <II = 1> <Delay = 0.48> <FuncUnit> <Opcode : 'and' 'or' 'xor'> <InPorts = 2> <OutPorts = 1>
ST_1 : Operation 70 [1/1] (0.00ns) (grouped into LUT with out node p_Val2_4)   --->   "%xor_ln414 = xor i32 %and_ln414, -1" [/home/paulrr2/Projects/ece527/babelsoc/fpga-network-stack/hls/rocev2/../ib_transport_protocol/../packet.hpp:64->/home/paulrr2/Projects/ece527/babelsoc/fpga-network-stack/hls/rocev2/../ib_transport_protocol/ib_transport_protocol.cpp:130]   --->   Operation 70 'xor' 'xor_ln414' <Predicate = (state_1_load == 1 & tmp_19)> <Delay = 0.00> <Core = "LogicGate">   --->   Core 27 'LogicGate' <Latency = 0> <II = 1> <Delay = 0.48> <FuncUnit> <Opcode : 'and' 'or' 'xor'> <InPorts = 2> <OutPorts = 1>
ST_1 : Operation 71 [1/1] (0.00ns) (grouped into LUT with out node p_Val2_4)   --->   "%and_ln414_1 = and i32 %p_Val2_s, %xor_ln414" [/home/paulrr2/Projects/ece527/babelsoc/fpga-network-stack/hls/rocev2/../ib_transport_protocol/../packet.hpp:64->/home/paulrr2/Projects/ece527/babelsoc/fpga-network-stack/hls/rocev2/../ib_transport_protocol/ib_transport_protocol.cpp:130]   --->   Operation 71 'and' 'and_ln414_1' <Predicate = (state_1_load == 1 & tmp_19)> <Delay = 0.00> <Core = "LogicGate">   --->   Core 27 'LogicGate' <Latency = 0> <II = 1> <Delay = 0.48> <FuncUnit> <Opcode : 'and' 'or' 'xor'> <InPorts = 2> <OutPorts = 1>
ST_1 : Operation 72 [1/1] (0.87ns) (out node of the LUT)   --->   "%and_ln414_2 = and i32 %select_ln414_1, %and_ln414" [/home/paulrr2/Projects/ece527/babelsoc/fpga-network-stack/hls/rocev2/../ib_transport_protocol/../packet.hpp:64->/home/paulrr2/Projects/ece527/babelsoc/fpga-network-stack/hls/rocev2/../ib_transport_protocol/ib_transport_protocol.cpp:130]   --->   Operation 72 'and' 'and_ln414_2' <Predicate = (state_1_load == 1 & tmp_19)> <Delay = 0.87> <Core = "LogicGate">   --->   Core 27 'LogicGate' <Latency = 0> <II = 1> <Delay = 0.48> <FuncUnit> <Opcode : 'and' 'or' 'xor'> <InPorts = 2> <OutPorts = 1>
ST_1 : Operation 73 [1/1] (0.00ns) (grouped into LUT with out node p_Val2_4)   --->   "%p_Result_s = or i32 %and_ln414_1, %and_ln414_2" [/home/paulrr2/Projects/ece527/babelsoc/fpga-network-stack/hls/rocev2/../ib_transport_protocol/../packet.hpp:64->/home/paulrr2/Projects/ece527/babelsoc/fpga-network-stack/hls/rocev2/../ib_transport_protocol/ib_transport_protocol.cpp:130]   --->   Operation 73 'or' 'p_Result_s' <Predicate = (state_1_load == 1 & tmp_19)> <Delay = 0.00> <Core = "LogicGate">   --->   Core 27 'LogicGate' <Latency = 0> <II = 1> <Delay = 0.48> <FuncUnit> <Opcode : 'and' 'or' 'xor'> <InPorts = 2> <OutPorts = 1>
ST_1 : Operation 74 [1/1] (1.30ns)   --->   "%add_ln67 = add i16 1, %ackHeader_idx_load" [/home/paulrr2/Projects/ece527/babelsoc/fpga-network-stack/hls/rocev2/../ib_transport_protocol/../packet.hpp:67->/home/paulrr2/Projects/ece527/babelsoc/fpga-network-stack/hls/rocev2/../ib_transport_protocol/ib_transport_protocol.cpp:130]   --->   Operation 74 'add' 'add_ln67' <Predicate = (state_1_load == 1 & tmp_19)> <Delay = 1.30> <Core = "AddSub">   --->   Core 14 'AddSub' <Latency = 0> <II = 1> <Delay = 1.30> <FuncUnit> <Opcode : 'add' 'sub'> <InPorts = 2> <OutPorts = 1>
ST_1 : Operation 75 [1/1] (0.47ns)   --->   "%select_ln130 = select i1 %ackHeader_ready_load, i16 %ackHeader_idx_load, i16 %add_ln67" [/home/paulrr2/Projects/ece527/babelsoc/fpga-network-stack/hls/rocev2/../ib_transport_protocol/ib_transport_protocol.cpp:130]   --->   Operation 75 'select' 'select_ln130' <Predicate = (state_1_load == 1 & tmp_19)> <Delay = 0.47> <Core = "Sel">   --->   Core 26 'Sel' <Latency = 0> <II = 1> <Delay = 0.49> <FuncUnit> <Opcode : 'select'> <InPorts = 3> <OutPorts = 1>
ST_1 : Operation 76 [1/1] (0.87ns) (out node of the LUT)   --->   "%p_Val2_4 = select i1 %ackHeader_ready_load, i32 %p_Val2_s, i32 %p_Result_s" [/home/paulrr2/Projects/ece527/babelsoc/fpga-network-stack/hls/rocev2/../ib_transport_protocol/ib_transport_protocol.cpp:130]   --->   Operation 76 'select' 'p_Val2_4' <Predicate = (state_1_load == 1 & tmp_19)> <Delay = 0.87> <Core = "Sel">   --->   Core 26 'Sel' <Latency = 0> <II = 1> <Delay = 0.49> <FuncUnit> <Opcode : 'select'> <InPorts = 3> <OutPorts = 1>
ST_1 : Operation 77 [1/1] (0.00ns)   --->   "store i32 %p_Val2_4, i32* @ackHeader_header_V, align 4" [/home/paulrr2/Projects/ece527/babelsoc/fpga-network-stack/hls/rocev2/../ib_transport_protocol/ib_transport_protocol.cpp:130]   --->   Operation 77 'store' <Predicate = (state_1_load == 1 & tmp_19)> <Delay = 0.00>
ST_1 : Operation 78 [1/1] (0.87ns)   --->   "%icmp_ln134 = icmp eq i5 %opCode_load, -15" [/home/paulrr2/Projects/ece527/babelsoc/fpga-network-stack/hls/rocev2/../ib_transport_protocol/ib_transport_protocol.cpp:134]   --->   Operation 78 'icmp' 'icmp_ln134' <Predicate = (state_1_load == 1 & tmp_19)> <Delay = 0.87> <Core = "Cmp">   --->   Core 25 'Cmp' <Latency = 0> <II = 1> <Delay = 0.48> <FuncUnit> <Opcode : 'icmp'> <InPorts = 2> <OutPorts = 1>
ST_1 : Operation 79 [1/1] (0.00ns)   --->   "br i1 %icmp_ln134, label %._crit_edge7.i, label %2" [/home/paulrr2/Projects/ece527/babelsoc/fpga-network-stack/hls/rocev2/../ib_transport_protocol/ib_transport_protocol.cpp:134]   --->   Operation 79 'br' <Predicate = (state_1_load == 1 & tmp_19)> <Delay = 0.00>
ST_1 : Operation 80 [1/1] (0.00ns)   --->   "br i1 %metaWritten_1_load, label %._crit_edge6.i, label %3" [/home/paulrr2/Projects/ece527/babelsoc/fpga-network-stack/hls/rocev2/../ib_transport_protocol/ib_transport_protocol.cpp:138]   --->   Operation 80 'br' <Predicate = (state_1_load == 1 & tmp_19)> <Delay = 0.00>
ST_1 : Operation 81 [1/1] (0.85ns)   --->   "store i1 true, i1* @metaWritten_1, align 1" [/home/paulrr2/Projects/ece527/babelsoc/fpga-network-stack/hls/rocev2/../ib_transport_protocol/ib_transport_protocol.cpp:142]   --->   Operation 81 'store' <Predicate = (state_1_load == 1 & !metaWritten_1_load & tmp_19)> <Delay = 0.85>
ST_1 : Operation 82 [1/1] (0.85ns)   --->   "br i1 %tmp_last_V_15, label %4, label %mergeST187.i" [/home/paulrr2/Projects/ece527/babelsoc/fpga-network-stack/hls/rocev2/../ib_transport_protocol/ib_transport_protocol.cpp:145]   --->   Operation 82 'br' <Predicate = (state_1_load == 1 & tmp_19)> <Delay = 0.85>
ST_1 : Operation 83 [1/1] (0.85ns)   --->   "store i2 0, i2* @state_1, align 1" [/home/paulrr2/Projects/ece527/babelsoc/fpga-network-stack/hls/rocev2/../ib_transport_protocol/ib_transport_protocol.cpp:148]   --->   Operation 83 'store' <Predicate = (state_1_load == 1 & tmp_19 & tmp_last_V_15)> <Delay = 0.85>
ST_1 : Operation 84 [1/1] (0.85ns)   --->   "br label %mergeST187.i" [/home/paulrr2/Projects/ece527/babelsoc/fpga-network-stack/hls/rocev2/../ib_transport_protocol/ib_transport_protocol.cpp:149]   --->   Operation 84 'br' <Predicate = (state_1_load == 1 & tmp_19 & tmp_last_V_15)> <Delay = 0.85>
ST_1 : Operation 85 [1/1] (0.00ns)   --->   "%tmp = call i1 @_ssdm_op_NbReadReq.ap_fifo.i5P(i5* @rx_ibh2exh_MetaFifo_s_10, i32 1) nounwind" [/home/paulrr2/Projects/ece527/babelsoc/fpga-network-stack/hls/rocev2/../ib_transport_protocol/ib_transport_protocol.cpp:102]   --->   Operation 85 'nbreadreq' 'tmp' <Predicate = (state_1_load == 0)> <Delay = 0.00> <Core = "FIFO">   --->   Core 32 'FIFO' <Latency = 0> <II = 1> <Delay = 2.39> <Storage> <Opcode : 'read' 'write' 'nbread' 'nbwrite'> <Ports = 0> <Width = 5> <Depth = 2> <FIFO>
ST_1 : Operation 86 [1/1] (0.00ns)   --->   "br i1 %tmp, label %_ifconv, label %._crit_edge3.i" [/home/paulrr2/Projects/ece527/babelsoc/fpga-network-stack/hls/rocev2/../ib_transport_protocol/ib_transport_protocol.cpp:102]   --->   Operation 86 'br' <Predicate = (state_1_load == 0)> <Delay = 0.00>
ST_1 : Operation 87 [1/1] (2.39ns)   --->   "%tmp_22 = call i5 @_ssdm_op_Read.ap_fifo.volatile.i5P(i5* @rx_ibh2exh_MetaFifo_s_10) nounwind" [/home/paulrr2/Projects/ece527/babelsoc/fpga-network-stack/hls/rocev2/../ib_transport_protocol/ib_transport_protocol.cpp:104]   --->   Operation 87 'read' 'tmp_22' <Predicate = (state_1_load == 0 & tmp)> <Delay = 2.39> <Core = "FIFO">   --->   Core 32 'FIFO' <Latency = 0> <II = 1> <Delay = 2.39> <Storage> <Opcode : 'read' 'write' 'nbread' 'nbwrite'> <Ports = 0> <Width = 5> <Depth = 2> <FIFO>
ST_1 : Operation 88 [1/1] (0.00ns)   --->   "store i5 %tmp_22, i5* @opCode, align 1" [/home/paulrr2/Projects/ece527/babelsoc/fpga-network-stack/hls/rocev2/../ib_transport_protocol/ib_transport_protocol.cpp:104]   --->   Operation 88 'store' <Predicate = (state_1_load == 0 & tmp)> <Delay = 0.00>
ST_1 : Operation 89 [1/1] (0.85ns)   --->   "store i1 false, i1* @metaWritten_1, align 1" [/home/paulrr2/Projects/ece527/babelsoc/fpga-network-stack/hls/rocev2/../ib_transport_protocol/ib_transport_protocol.cpp:105]   --->   Operation 89 'store' <Predicate = (state_1_load == 0 & tmp)> <Delay = 0.85>
ST_1 : Operation 90 [1/1] (1.71ns)   --->   "%tmp_i_i = call i1 @_ssdm_op_Mux.ap_auto.32i1.i5(i1 false, i1 false, i1 false, i1 false, i1 false, i1 false, i1 false, i1 false, i1 false, i1 false, i1 false, i1 false, i1 false, i1 true, i1 false, i1 true, i1 true, i1 true, i1 false, i1 false, i1 false, i1 false, i1 false, i1 false, i1 false, i1 false, i1 false, i1 false, i1 false, i1 false, i1 false, i1 false, i5 %tmp_22) nounwind" [/home/paulrr2/Projects/ece527/babelsoc/fpga-network-stack/hls/rocev2/../ib_transport_protocol/ib_transport_protocol.cpp:104]   --->   Operation 90 'mux' 'tmp_i_i' <Predicate = (state_1_load == 0 & tmp)> <Delay = 1.71> <Core = "MuxnS">   --->   Core 31 'MuxnS' <Latency = 0> <II = 1> <Delay = 1.71> <FuncUnit> <Opcode : 'mux'> <InPorts = 2> <OutPorts = 1>
ST_1 : Operation 91 [1/1] (0.00ns) (grouped into LUT with out node storemerge92_i)   --->   "%tmp_i192_i = call i1 @_ssdm_op_Mux.ap_auto.32i1.i5(i1 false, i1 false, i1 false, i1 false, i1 false, i1 false, i1 true, i1 false, i1 false, i1 false, i1 true, i1 false, i1 true, i1 false, i1 false, i1 false, i1 false, i1 false, i1 false, i1 false, i1 false, i1 false, i1 false, i1 false, i1 true, i1 true, i1 false, i1 false, i1 false, i1 true, i1 false, i1 false, i5 %tmp_22) nounwind" [/home/paulrr2/Projects/ece527/babelsoc/fpga-network-stack/hls/rocev2/../ib_transport_protocol/ib_transport_protocol.cpp:104]   --->   Operation 91 'mux' 'tmp_i192_i' <Predicate = (state_1_load == 0 & tmp)> <Delay = 0.00> <Core = "MuxnS">   --->   Core 31 'MuxnS' <Latency = 0> <II = 1> <Delay = 1.71> <FuncUnit> <Opcode : 'mux'> <InPorts = 2> <OutPorts = 1>
ST_1 : Operation 92 [1/1] (0.00ns) (grouped into LUT with out node storemerge92_i)   --->   "%select_ln110 = select i1 %tmp_i_i, i2 1, i2 -2" [/home/paulrr2/Projects/ece527/babelsoc/fpga-network-stack/hls/rocev2/../ib_transport_protocol/ib_transport_protocol.cpp:104]   --->   Operation 92 'select' 'select_ln110' <Predicate = (state_1_load == 0 & tmp)> <Delay = 0.00> <Core = "Sel">   --->   Core 26 'Sel' <Latency = 0> <II = 1> <Delay = 0.49> <FuncUnit> <Opcode : 'select'> <InPorts = 3> <OutPorts = 1>
ST_1 : Operation 93 [1/1] (0.00ns) (grouped into LUT with out node storemerge92_i)   --->   "%empty = or i1 %tmp_i_i, %tmp_i192_i" [/home/paulrr2/Projects/ece527/babelsoc/fpga-network-stack/hls/rocev2/../ib_transport_protocol/ib_transport_protocol.cpp:104]   --->   Operation 93 'or' 'empty' <Predicate = (state_1_load == 0 & tmp)> <Delay = 0.00> <Core = "LogicGate">   --->   Core 27 'LogicGate' <Latency = 0> <II = 1> <Delay = 0.48> <FuncUnit> <Opcode : 'and' 'or' 'xor'> <InPorts = 2> <OutPorts = 1>
ST_1 : Operation 94 [1/1] (1.71ns) (out node of the LUT)   --->   "%storemerge92_i = select i1 %empty, i2 %select_ln110, i2 -1" [/home/paulrr2/Projects/ece527/babelsoc/fpga-network-stack/hls/rocev2/../ib_transport_protocol/ib_transport_protocol.cpp:104]   --->   Operation 94 'select' 'storemerge92_i' <Predicate = (state_1_load == 0 & tmp)> <Delay = 1.71> <Core = "Sel">   --->   Core 26 'Sel' <Latency = 0> <II = 1> <Delay = 0.49> <FuncUnit> <Opcode : 'select'> <InPorts = 3> <OutPorts = 1>
ST_1 : Operation 95 [1/1] (0.85ns)   --->   "store i2 %storemerge92_i, i2* @state_1, align 1" [/home/paulrr2/Projects/ece527/babelsoc/fpga-network-stack/hls/rocev2/../ib_transport_protocol/ib_transport_protocol.cpp:108]   --->   Operation 95 'store' <Predicate = (state_1_load == 0 & tmp)> <Delay = 0.85>

State 2 <SV = 1> <Delay = 2.39>
ST_2 : Operation 96 [1/1] (0.00ns)   --->   "br i1 %tmp_21, label %13, label %._crit_edge17.i" [/home/paulrr2/Projects/ece527/babelsoc/fpga-network-stack/hls/rocev2/../ib_transport_protocol/ib_transport_protocol.cpp:227]   --->   Operation 96 'br' <Predicate = (state_1_load == 3)> <Delay = 0.00>
ST_2 : Operation 97 [1/1] (2.39ns)   --->   "call void @_ssdm_op_Write.ap_fifo.volatile.i64P.i8P.i1P(i64* @rx_exh2dropFifo_V_da, i8* @rx_exh2dropFifo_V_ke, i1* @rx_exh2dropFifo_V_la, i64 %tmp_data_V, i8 %tmp_keep_V, i1 %tmp_last_V) nounwind" [/home/paulrr2/Projects/ece527/babelsoc/fpga-network-stack/hls/rocev2/../ib_transport_protocol/ib_transport_protocol.cpp:233]   --->   Operation 97 'write' <Predicate = (state_1_load == 3 & tmp_21)> <Delay = 2.39> <Core = "FIFO">   --->   Core 32 'FIFO' <Latency = 0> <II = 1> <Delay = 2.39> <Storage> <Opcode : 'read' 'write' 'nbread' 'nbwrite'> <Ports = 0> <Width = 5> <Depth = 2> <FIFO>
ST_2 : Operation 98 [1/1] (0.00ns)   --->   "br i1 %tmp_last_V, label %15, label %._crit_edge19.i" [/home/paulrr2/Projects/ece527/babelsoc/fpga-network-stack/hls/rocev2/../ib_transport_protocol/ib_transport_protocol.cpp:240]   --->   Operation 98 'br' <Predicate = (state_1_load == 3 & tmp_21)> <Delay = 0.00>
ST_2 : Operation 99 [1/1] (0.00ns)   --->   "br i1 %tmp_20, label %_ifconv2, label %._crit_edge10.i" [/home/paulrr2/Projects/ece527/babelsoc/fpga-network-stack/hls/rocev2/../ib_transport_protocol/ib_transport_protocol.cpp:153]   --->   Operation 99 'br' <Predicate = (state_1_load == 2)> <Delay = 0.00>
ST_2 : Operation 100 [1/1] (0.00ns)   --->   "%tmp_26 = call i8 @_ssdm_op_BitConcatenate.i8.i2.i6(i2 %trunc_ln58, i6 0)" [/home/paulrr2/Projects/ece527/babelsoc/fpga-network-stack/hls/rocev2/../ib_transport_protocol/../packet.hpp:58->/home/paulrr2/Projects/ece527/babelsoc/fpga-network-stack/hls/rocev2/../ib_transport_protocol/ib_transport_protocol.cpp:156]   --->   Operation 100 'bitconcatenate' 'tmp_26' <Predicate = (state_1_load == 2 & tmp_20 & !rdmaHeader_ready_loa)> <Delay = 0.00>
ST_2 : Operation 101 [1/1] (1.35ns)   --->   "%sub_ln58 = sub i8 127, %tmp_26" [/home/paulrr2/Projects/ece527/babelsoc/fpga-network-stack/hls/rocev2/../ib_transport_protocol/../packet.hpp:58->/home/paulrr2/Projects/ece527/babelsoc/fpga-network-stack/hls/rocev2/../ib_transport_protocol/ib_transport_protocol.cpp:156]   --->   Operation 101 'sub' 'sub_ln58' <Predicate = (state_1_load == 2 & tmp_20 & icmp_ln58_2 & !rdmaHeader_ready_loa)> <Delay = 1.35> <Core = "AddSub">   --->   Core 14 'AddSub' <Latency = 0> <II = 1> <Delay = 1.30> <FuncUnit> <Opcode : 'add' 'sub'> <InPorts = 2> <OutPorts = 1>
ST_2 : Operation 102 [1/1] (0.00ns) (grouped into LUT with out node sub_ln58_2)   --->   "%select_ln58_5 = select i1 %icmp_ln58_2, i8 %tmp_26, i8 %trunc_ln58_2" [/home/paulrr2/Projects/ece527/babelsoc/fpga-network-stack/hls/rocev2/../ib_transport_protocol/../packet.hpp:58->/home/paulrr2/Projects/ece527/babelsoc/fpga-network-stack/hls/rocev2/../ib_transport_protocol/ib_transport_protocol.cpp:156]   --->   Operation 102 'select' 'select_ln58_5' <Predicate = (state_1_load == 2 & tmp_20 & !rdmaHeader_ready_loa)> <Delay = 0.00> <Core = "Sel">   --->   Core 26 'Sel' <Latency = 0> <II = 1> <Delay = 0.49> <FuncUnit> <Opcode : 'select'> <InPorts = 3> <OutPorts = 1>
ST_2 : Operation 103 [1/1] (1.35ns) (out node of the LUT)   --->   "%sub_ln58_2 = sub i8 127, %select_ln58_5" [/home/paulrr2/Projects/ece527/babelsoc/fpga-network-stack/hls/rocev2/../ib_transport_protocol/../packet.hpp:58->/home/paulrr2/Projects/ece527/babelsoc/fpga-network-stack/hls/rocev2/../ib_transport_protocol/ib_transport_protocol.cpp:156]   --->   Operation 103 'sub' 'sub_ln58_2' <Predicate = (state_1_load == 2 & tmp_20 & !rdmaHeader_ready_loa)> <Delay = 1.35> <Core = "AddSub">   --->   Core 14 'AddSub' <Latency = 0> <II = 1> <Delay = 1.30> <FuncUnit> <Opcode : 'add' 'sub'> <InPorts = 2> <OutPorts = 1>
ST_2 : Operation 104 [1/1] (2.39ns)   --->   "call void @_ssdm_op_Write.ap_fifo.volatile.i64P.i8P.i1P(i64* @rx_exh2dropFifo_V_da, i8* @rx_exh2dropFifo_V_ke, i1* @rx_exh2dropFifo_V_la, i64 %tmp_data_V_11, i8 %tmp_keep_V_11, i1 %tmp_last_V_16) nounwind" [/home/paulrr2/Projects/ece527/babelsoc/fpga-network-stack/hls/rocev2/../ib_transport_protocol/ib_transport_protocol.cpp:160]   --->   Operation 104 'write' <Predicate = (state_1_load == 2 & metaWritten_1_load & tmp_20)> <Delay = 2.39> <Core = "FIFO">   --->   Core 32 'FIFO' <Latency = 0> <II = 1> <Delay = 2.39> <Storage> <Opcode : 'read' 'write' 'nbread' 'nbwrite'> <Ports = 0> <Width = 5> <Depth = 2> <FIFO>
ST_2 : Operation 105 [1/1] (0.00ns)   --->   "br i1 %or_ln73, label %7, label %._crit_edge12.i" [/home/paulrr2/Projects/ece527/babelsoc/fpga-network-stack/hls/rocev2/../ib_transport_protocol/ib_transport_protocol.cpp:163]   --->   Operation 105 'br' <Predicate = (state_1_load == 2 & tmp_20)> <Delay = 0.00>
ST_2 : Operation 106 [1/1] (0.00ns)   --->   "%rdmaHeader_ready_1_n = phi i1 [ false, %11 ], [ %or_ln73, %._crit_edge12.i ]" [/home/paulrr2/Projects/ece527/babelsoc/fpga-network-stack/hls/rocev2/../ib_transport_protocol/../packet.hpp:73->/home/paulrr2/Projects/ece527/babelsoc/fpga-network-stack/hls/rocev2/../ib_transport_protocol/ib_transport_protocol.cpp:156]   --->   Operation 106 'phi' 'rdmaHeader_ready_1_n' <Predicate = (state_1_load == 2 & tmp_20)> <Delay = 0.00>
ST_2 : Operation 107 [1/1] (0.00ns)   --->   "%rdmaHeader_idx_new_0 = phi i16 [ 0, %11 ], [ %select_ln156, %._crit_edge12.i ]" [/home/paulrr2/Projects/ece527/babelsoc/fpga-network-stack/hls/rocev2/../ib_transport_protocol/ib_transport_protocol.cpp:156]   --->   Operation 107 'phi' 'rdmaHeader_idx_new_0' <Predicate = (state_1_load == 2 & tmp_20)> <Delay = 0.00>
ST_2 : Operation 108 [1/1] (0.00ns)   --->   "store i16 %rdmaHeader_idx_new_0, i16* @rdmaHeader_idx, align 2" [/home/paulrr2/Projects/ece527/babelsoc/fpga-network-stack/hls/rocev2/../ib_transport_protocol/ib_transport_protocol.cpp:156]   --->   Operation 108 'store' <Predicate = (state_1_load == 2 & tmp_20)> <Delay = 0.00>
ST_2 : Operation 109 [1/1] (0.00ns)   --->   "store i1 %rdmaHeader_ready_1_n, i1* @rdmaHeader_ready, align 1" [/home/paulrr2/Projects/ece527/babelsoc/fpga-network-stack/hls/rocev2/../ib_transport_protocol/ib_transport_protocol.cpp:156]   --->   Operation 109 'store' <Predicate = (state_1_load == 2 & tmp_20)> <Delay = 0.00>
ST_2 : Operation 110 [1/1] (0.00ns)   --->   "br i1 %tmp_19, label %_ifconv1, label %._crit_edge5.i" [/home/paulrr2/Projects/ece527/babelsoc/fpga-network-stack/hls/rocev2/../ib_transport_protocol/ib_transport_protocol.cpp:127]   --->   Operation 110 'br' <Predicate = (state_1_load == 1)> <Delay = 0.00>
ST_2 : Operation 111 [1/1] (2.39ns)   --->   "call void @_ssdm_op_Write.ap_fifo.volatile.i64P.i8P.i1P(i64* @rx_exh2dropFifo_V_da, i8* @rx_exh2dropFifo_V_ke, i1* @rx_exh2dropFifo_V_la, i64 %tmp_data_V_10, i8 %tmp_keep_V_10, i1 %tmp_last_V_15) nounwind" [/home/paulrr2/Projects/ece527/babelsoc/fpga-network-stack/hls/rocev2/../ib_transport_protocol/ib_transport_protocol.cpp:136]   --->   Operation 111 'write' <Predicate = (state_1_load == 1 & tmp_19 & !icmp_ln134)> <Delay = 2.39> <Core = "FIFO">   --->   Core 32 'FIFO' <Latency = 0> <II = 1> <Delay = 2.39> <Storage> <Opcode : 'read' 'write' 'nbread' 'nbwrite'> <Ports = 0> <Width = 5> <Depth = 2> <FIFO>
ST_2 : Operation 112 [1/1] (0.00ns)   --->   "%ackHeader_ready_1_ne = phi i1 [ false, %4 ], [ true, %._crit_edge6.i ]"   --->   Operation 112 'phi' 'ackHeader_ready_1_ne' <Predicate = (state_1_load == 1 & tmp_19)> <Delay = 0.00>
ST_2 : Operation 113 [1/1] (0.00ns)   --->   "%ackHeader_idx_new_0_s = phi i16 [ 0, %4 ], [ %select_ln130, %._crit_edge6.i ]" [/home/paulrr2/Projects/ece527/babelsoc/fpga-network-stack/hls/rocev2/../ib_transport_protocol/ib_transport_protocol.cpp:130]   --->   Operation 113 'phi' 'ackHeader_idx_new_0_s' <Predicate = (state_1_load == 1 & tmp_19)> <Delay = 0.00>
ST_2 : Operation 114 [1/1] (0.00ns)   --->   "store i16 %ackHeader_idx_new_0_s, i16* @ackHeader_idx, align 2" [/home/paulrr2/Projects/ece527/babelsoc/fpga-network-stack/hls/rocev2/../ib_transport_protocol/ib_transport_protocol.cpp:130]   --->   Operation 114 'store' <Predicate = (state_1_load == 1 & tmp_19)> <Delay = 0.00>
ST_2 : Operation 115 [1/1] (0.00ns)   --->   "store i1 %ackHeader_ready_1_ne, i1* @ackHeader_ready, align 1" [/home/paulrr2/Projects/ece527/babelsoc/fpga-network-stack/hls/rocev2/../ib_transport_protocol/ib_transport_protocol.cpp:130]   --->   Operation 115 'store' <Predicate = (state_1_load == 1 & tmp_19)> <Delay = 0.00>

State 3 <SV = 2> <Delay = 5.21>
ST_3 : Operation 116 [1/1] (0.00ns)   --->   "%p_Val2_3 = load i128* @rdmaHeader_header_V, align 8" [/home/paulrr2/Projects/ece527/babelsoc/fpga-network-stack/hls/rocev2/../ib_transport_protocol/ib_transport_protocol.cpp:156]   --->   Operation 116 'load' 'p_Val2_3' <Predicate = (state_1_load == 2 & tmp_20)> <Delay = 0.00>
ST_3 : Operation 117 [1/1] (0.00ns) (grouped into LUT with out node shl_ln58)   --->   "%tmp_V_2 = zext i64 %tmp_data_V_11 to i128" [/home/paulrr2/Projects/ece527/babelsoc/fpga-network-stack/hls/rocev2/../ib_transport_protocol/../packet.hpp:60->/home/paulrr2/Projects/ece527/babelsoc/fpga-network-stack/hls/rocev2/../ib_transport_protocol/ib_transport_protocol.cpp:156]   --->   Operation 117 'zext' 'tmp_V_2' <Predicate = (state_1_load == 2 & tmp_20 & !rdmaHeader_ready_loa)> <Delay = 0.00>
ST_3 : Operation 118 [1/1] (0.00ns) (grouped into LUT with out node and_ln58)   --->   "%select_ln58_6 = select i1 %icmp_ln58_2, i8 %trunc_ln58_2, i8 %tmp_26" [/home/paulrr2/Projects/ece527/babelsoc/fpga-network-stack/hls/rocev2/../ib_transport_protocol/../packet.hpp:58->/home/paulrr2/Projects/ece527/babelsoc/fpga-network-stack/hls/rocev2/../ib_transport_protocol/ib_transport_protocol.cpp:156]   --->   Operation 118 'select' 'select_ln58_6' <Predicate = (state_1_load == 2 & tmp_20 & !rdmaHeader_ready_loa)> <Delay = 0.00> <Core = "Sel">   --->   Core 26 'Sel' <Latency = 0> <II = 1> <Delay = 0.49> <FuncUnit> <Opcode : 'select'> <InPorts = 3> <OutPorts = 1>
ST_3 : Operation 119 [1/1] (0.00ns) (grouped into LUT with out node shl_ln58)   --->   "%select_ln58_7 = select i1 %icmp_ln58_2, i8 %sub_ln58, i8 %tmp_26" [/home/paulrr2/Projects/ece527/babelsoc/fpga-network-stack/hls/rocev2/../ib_transport_protocol/../packet.hpp:58->/home/paulrr2/Projects/ece527/babelsoc/fpga-network-stack/hls/rocev2/../ib_transport_protocol/ib_transport_protocol.cpp:156]   --->   Operation 119 'select' 'select_ln58_7' <Predicate = (state_1_load == 2 & tmp_20 & !rdmaHeader_ready_loa)> <Delay = 0.00> <Core = "Sel">   --->   Core 26 'Sel' <Latency = 0> <II = 1> <Delay = 0.49> <FuncUnit> <Opcode : 'select'> <InPorts = 3> <OutPorts = 1>
ST_3 : Operation 120 [1/1] (0.00ns) (grouped into LUT with out node shl_ln58)   --->   "%zext_ln58 = zext i8 %select_ln58_7 to i128" [/home/paulrr2/Projects/ece527/babelsoc/fpga-network-stack/hls/rocev2/../ib_transport_protocol/../packet.hpp:58->/home/paulrr2/Projects/ece527/babelsoc/fpga-network-stack/hls/rocev2/../ib_transport_protocol/ib_transport_protocol.cpp:156]   --->   Operation 120 'zext' 'zext_ln58' <Predicate = (state_1_load == 2 & tmp_20 & !rdmaHeader_ready_loa)> <Delay = 0.00>
ST_3 : Operation 121 [1/1] (0.00ns) (grouped into LUT with out node and_ln58)   --->   "%zext_ln58_4 = zext i8 %select_ln58_6 to i128" [/home/paulrr2/Projects/ece527/babelsoc/fpga-network-stack/hls/rocev2/../ib_transport_protocol/../packet.hpp:58->/home/paulrr2/Projects/ece527/babelsoc/fpga-network-stack/hls/rocev2/../ib_transport_protocol/ib_transport_protocol.cpp:156]   --->   Operation 121 'zext' 'zext_ln58_4' <Predicate = (state_1_load == 2 & tmp_20 & !rdmaHeader_ready_loa)> <Delay = 0.00>
ST_3 : Operation 122 [1/1] (0.00ns) (grouped into LUT with out node and_ln58)   --->   "%zext_ln58_5 = zext i8 %sub_ln58_2 to i128" [/home/paulrr2/Projects/ece527/babelsoc/fpga-network-stack/hls/rocev2/../ib_transport_protocol/../packet.hpp:58->/home/paulrr2/Projects/ece527/babelsoc/fpga-network-stack/hls/rocev2/../ib_transport_protocol/ib_transport_protocol.cpp:156]   --->   Operation 122 'zext' 'zext_ln58_5' <Predicate = (state_1_load == 2 & tmp_20 & !rdmaHeader_ready_loa)> <Delay = 0.00>
ST_3 : Operation 123 [1/1] (2.35ns) (out node of the LUT)   --->   "%shl_ln58 = shl i128 %tmp_V_2, %zext_ln58" [/home/paulrr2/Projects/ece527/babelsoc/fpga-network-stack/hls/rocev2/../ib_transport_protocol/../packet.hpp:58->/home/paulrr2/Projects/ece527/babelsoc/fpga-network-stack/hls/rocev2/../ib_transport_protocol/ib_transport_protocol.cpp:156]   --->   Operation 123 'shl' 'shl_ln58' <Predicate = (state_1_load == 2 & tmp_20 & !rdmaHeader_ready_loa)> <Delay = 2.35> <Core = "Shift">   --->   Core 28 'Shift' <Latency = 0> <II = 1> <Delay = 1.62> <FuncUnit> <Opcode : 'shl' 'lshr' 'ashr'> <InPorts = 2> <OutPorts = 1>
ST_3 : Operation 124 [1/1] (0.00ns) (grouped into LUT with out node or_ln58)   --->   "%tmp_27 = call i128 @llvm.part.select.i128(i128 %shl_ln58, i32 127, i32 0)" [/home/paulrr2/Projects/ece527/babelsoc/fpga-network-stack/hls/rocev2/../ib_transport_protocol/../packet.hpp:58->/home/paulrr2/Projects/ece527/babelsoc/fpga-network-stack/hls/rocev2/../ib_transport_protocol/ib_transport_protocol.cpp:156]   --->   Operation 124 'partselect' 'tmp_27' <Predicate = (state_1_load == 2 & tmp_20 & icmp_ln58_2 & !rdmaHeader_ready_loa)> <Delay = 0.00>
ST_3 : Operation 125 [1/1] (0.00ns) (grouped into LUT with out node or_ln58)   --->   "%select_ln58_8 = select i1 %icmp_ln58_2, i128 %tmp_27, i128 %shl_ln58" [/home/paulrr2/Projects/ece527/babelsoc/fpga-network-stack/hls/rocev2/../ib_transport_protocol/../packet.hpp:58->/home/paulrr2/Projects/ece527/babelsoc/fpga-network-stack/hls/rocev2/../ib_transport_protocol/ib_transport_protocol.cpp:156]   --->   Operation 125 'select' 'select_ln58_8' <Predicate = (state_1_load == 2 & tmp_20 & !rdmaHeader_ready_loa)> <Delay = 0.00> <Core = "Sel">   --->   Core 26 'Sel' <Latency = 0> <II = 1> <Delay = 0.49> <FuncUnit> <Opcode : 'select'> <InPorts = 3> <OutPorts = 1>
ST_3 : Operation 126 [1/1] (0.00ns) (grouped into LUT with out node and_ln58)   --->   "%shl_ln58_2 = shl i128 -1, %zext_ln58_4" [/home/paulrr2/Projects/ece527/babelsoc/fpga-network-stack/hls/rocev2/../ib_transport_protocol/../packet.hpp:58->/home/paulrr2/Projects/ece527/babelsoc/fpga-network-stack/hls/rocev2/../ib_transport_protocol/ib_transport_protocol.cpp:156]   --->   Operation 126 'shl' 'shl_ln58_2' <Predicate = (state_1_load == 2 & tmp_20 & !rdmaHeader_ready_loa)> <Delay = 0.00> <Core = "Shift">   --->   Core 28 'Shift' <Latency = 0> <II = 1> <Delay = 1.62> <FuncUnit> <Opcode : 'shl' 'lshr' 'ashr'> <InPorts = 2> <OutPorts = 1>
ST_3 : Operation 127 [1/1] (0.00ns) (grouped into LUT with out node and_ln58)   --->   "%lshr_ln58 = lshr i128 -1, %zext_ln58_5" [/home/paulrr2/Projects/ece527/babelsoc/fpga-network-stack/hls/rocev2/../ib_transport_protocol/../packet.hpp:58->/home/paulrr2/Projects/ece527/babelsoc/fpga-network-stack/hls/rocev2/../ib_transport_protocol/ib_transport_protocol.cpp:156]   --->   Operation 127 'lshr' 'lshr_ln58' <Predicate = (state_1_load == 2 & tmp_20 & !rdmaHeader_ready_loa)> <Delay = 0.00> <Core = "Shift">   --->   Core 28 'Shift' <Latency = 0> <II = 1> <Delay = 1.62> <FuncUnit> <Opcode : 'shl' 'lshr' 'ashr'> <InPorts = 2> <OutPorts = 1>
ST_3 : Operation 128 [1/1] (1.62ns) (out node of the LUT)   --->   "%and_ln58 = and i128 %shl_ln58_2, %lshr_ln58" [/home/paulrr2/Projects/ece527/babelsoc/fpga-network-stack/hls/rocev2/../ib_transport_protocol/../packet.hpp:58->/home/paulrr2/Projects/ece527/babelsoc/fpga-network-stack/hls/rocev2/../ib_transport_protocol/ib_transport_protocol.cpp:156]   --->   Operation 128 'and' 'and_ln58' <Predicate = (state_1_load == 2 & tmp_20 & !rdmaHeader_ready_loa)> <Delay = 1.62> <Core = "LogicGate">   --->   Core 27 'LogicGate' <Latency = 0> <II = 1> <Delay = 0.48> <FuncUnit> <Opcode : 'and' 'or' 'xor'> <InPorts = 2> <OutPorts = 1>
ST_3 : Operation 129 [1/1] (0.00ns) (grouped into LUT with out node or_ln58)   --->   "%xor_ln58 = xor i128 %and_ln58, -1" [/home/paulrr2/Projects/ece527/babelsoc/fpga-network-stack/hls/rocev2/../ib_transport_protocol/../packet.hpp:58->/home/paulrr2/Projects/ece527/babelsoc/fpga-network-stack/hls/rocev2/../ib_transport_protocol/ib_transport_protocol.cpp:156]   --->   Operation 129 'xor' 'xor_ln58' <Predicate = (state_1_load == 2 & tmp_20 & !rdmaHeader_ready_loa)> <Delay = 0.00> <Core = "LogicGate">   --->   Core 27 'LogicGate' <Latency = 0> <II = 1> <Delay = 0.48> <FuncUnit> <Opcode : 'and' 'or' 'xor'> <InPorts = 2> <OutPorts = 1>
ST_3 : Operation 130 [1/1] (0.00ns) (grouped into LUT with out node or_ln58)   --->   "%and_ln58_3 = and i128 %p_Val2_3, %xor_ln58" [/home/paulrr2/Projects/ece527/babelsoc/fpga-network-stack/hls/rocev2/../ib_transport_protocol/../packet.hpp:58->/home/paulrr2/Projects/ece527/babelsoc/fpga-network-stack/hls/rocev2/../ib_transport_protocol/ib_transport_protocol.cpp:156]   --->   Operation 130 'and' 'and_ln58_3' <Predicate = (state_1_load == 2 & tmp_20 & !rdmaHeader_ready_loa)> <Delay = 0.00> <Core = "LogicGate">   --->   Core 27 'LogicGate' <Latency = 0> <II = 1> <Delay = 0.48> <FuncUnit> <Opcode : 'and' 'or' 'xor'> <InPorts = 2> <OutPorts = 1>
ST_3 : Operation 131 [1/1] (0.00ns) (grouped into LUT with out node or_ln58)   --->   "%and_ln58_4 = and i128 %select_ln58_8, %and_ln58" [/home/paulrr2/Projects/ece527/babelsoc/fpga-network-stack/hls/rocev2/../ib_transport_protocol/../packet.hpp:58->/home/paulrr2/Projects/ece527/babelsoc/fpga-network-stack/hls/rocev2/../ib_transport_protocol/ib_transport_protocol.cpp:156]   --->   Operation 131 'and' 'and_ln58_4' <Predicate = (state_1_load == 2 & tmp_20 & !rdmaHeader_ready_loa)> <Delay = 0.00> <Core = "LogicGate">   --->   Core 27 'LogicGate' <Latency = 0> <II = 1> <Delay = 0.48> <FuncUnit> <Opcode : 'and' 'or' 'xor'> <InPorts = 2> <OutPorts = 1>
ST_3 : Operation 132 [1/1] (0.67ns) (out node of the LUT)   --->   "%or_ln58 = or i128 %and_ln58_3, %and_ln58_4" [/home/paulrr2/Projects/ece527/babelsoc/fpga-network-stack/hls/rocev2/../ib_transport_protocol/../packet.hpp:58->/home/paulrr2/Projects/ece527/babelsoc/fpga-network-stack/hls/rocev2/../ib_transport_protocol/ib_transport_protocol.cpp:156]   --->   Operation 132 'or' 'or_ln58' <Predicate = (state_1_load == 2 & tmp_20 & !rdmaHeader_ready_loa)> <Delay = 0.67> <Core = "LogicGate">   --->   Core 27 'LogicGate' <Latency = 0> <II = 1> <Delay = 0.48> <FuncUnit> <Opcode : 'and' 'or' 'xor'> <InPorts = 2> <OutPorts = 1>
ST_3 : Operation 133 [1/1] (0.67ns) (out node of the LUT)   --->   "%p_Val2_5 = select i1 %rdmaHeader_ready_loa, i128 %p_Val2_3, i128 %or_ln58" [/home/paulrr2/Projects/ece527/babelsoc/fpga-network-stack/hls/rocev2/../ib_transport_protocol/ib_transport_protocol.cpp:156]   --->   Operation 133 'select' 'p_Val2_5' <Predicate = (state_1_load == 2 & tmp_20)> <Delay = 0.67> <Core = "Sel">   --->   Core 26 'Sel' <Latency = 0> <II = 1> <Delay = 0.49> <FuncUnit> <Opcode : 'select'> <InPorts = 3> <OutPorts = 1>
ST_3 : Operation 134 [1/1] (0.00ns)   --->   "store i128 %p_Val2_5, i128* @rdmaHeader_header_V, align 8" [/home/paulrr2/Projects/ece527/babelsoc/fpga-network-stack/hls/rocev2/../ib_transport_protocol/ib_transport_protocol.cpp:156]   --->   Operation 134 'store' <Predicate = (state_1_load == 2 & tmp_20)> <Delay = 0.00>
ST_3 : Operation 135 [1/1] (0.00ns)   --->   "%p_Result_67_i_i_i = call i8 @_ssdm_op_PartSelect.i8.i128.i32.i32(i128 %p_Val2_5, i32 120, i32 127) nounwind" [/home/paulrr2/Projects/ece527/babelsoc/fpga-network-stack/hls/rocev2/../ib_transport_protocol/../axi_utils.hpp:79->/home/paulrr2/Projects/ece527/babelsoc/fpga-network-stack/hls/rocev2/../ib_transport_protocol/ib_transport_protocol.hpp:470->/home/paulrr2/Projects/ece527/babelsoc/fpga-network-stack/hls/rocev2/../ib_transport_protocol/ib_transport_protocol.cpp:169]   --->   Operation 135 'partselect' 'p_Result_67_i_i_i' <Predicate = (state_1_load == 2 & !metaWritten_1_load & tmp_20 & or_ln73 & empty_188)> <Delay = 0.00>
ST_3 : Operation 136 [1/1] (0.00ns)   --->   "%p_Result_67_1_i_i_s = call i8 @_ssdm_op_PartSelect.i8.i128.i32.i32(i128 %p_Val2_5, i32 112, i32 119) nounwind" [/home/paulrr2/Projects/ece527/babelsoc/fpga-network-stack/hls/rocev2/../ib_transport_protocol/../axi_utils.hpp:79->/home/paulrr2/Projects/ece527/babelsoc/fpga-network-stack/hls/rocev2/../ib_transport_protocol/ib_transport_protocol.hpp:470->/home/paulrr2/Projects/ece527/babelsoc/fpga-network-stack/hls/rocev2/../ib_transport_protocol/ib_transport_protocol.cpp:169]   --->   Operation 136 'partselect' 'p_Result_67_1_i_i_s' <Predicate = (state_1_load == 2 & !metaWritten_1_load & tmp_20 & or_ln73 & empty_188)> <Delay = 0.00>
ST_3 : Operation 137 [1/1] (0.00ns)   --->   "%p_Result_67_2_i_i_s = call i8 @_ssdm_op_PartSelect.i8.i128.i32.i32(i128 %p_Val2_5, i32 104, i32 111) nounwind" [/home/paulrr2/Projects/ece527/babelsoc/fpga-network-stack/hls/rocev2/../ib_transport_protocol/../axi_utils.hpp:79->/home/paulrr2/Projects/ece527/babelsoc/fpga-network-stack/hls/rocev2/../ib_transport_protocol/ib_transport_protocol.hpp:470->/home/paulrr2/Projects/ece527/babelsoc/fpga-network-stack/hls/rocev2/../ib_transport_protocol/ib_transport_protocol.cpp:169]   --->   Operation 137 'partselect' 'p_Result_67_2_i_i_s' <Predicate = (state_1_load == 2 & !metaWritten_1_load & tmp_20 & or_ln73 & empty_188)> <Delay = 0.00>
ST_3 : Operation 138 [1/1] (0.00ns)   --->   "%p_Result_67_3_i_i_s = call i8 @_ssdm_op_PartSelect.i8.i128.i32.i32(i128 %p_Val2_5, i32 96, i32 103) nounwind" [/home/paulrr2/Projects/ece527/babelsoc/fpga-network-stack/hls/rocev2/../ib_transport_protocol/../axi_utils.hpp:79->/home/paulrr2/Projects/ece527/babelsoc/fpga-network-stack/hls/rocev2/../ib_transport_protocol/ib_transport_protocol.hpp:470->/home/paulrr2/Projects/ece527/babelsoc/fpga-network-stack/hls/rocev2/../ib_transport_protocol/ib_transport_protocol.cpp:169]   --->   Operation 138 'partselect' 'p_Result_67_3_i_i_s' <Predicate = (state_1_load == 2 & !metaWritten_1_load & tmp_20 & or_ln73 & empty_188)> <Delay = 0.00>
ST_3 : Operation 139 [1/1] (0.00ns)   --->   "%agg_result_V_0_3_i_i = call i32 @_ssdm_op_BitConcatenate.i32.i8.i8.i8.i8(i8 %p_Result_67_3_i_i_s, i8 %p_Result_67_2_i_i_s, i8 %p_Result_67_1_i_i_s, i8 %p_Result_67_i_i_i) nounwind" [/home/paulrr2/Projects/ece527/babelsoc/fpga-network-stack/hls/rocev2/../ib_transport_protocol/../axi_utils.hpp:79->/home/paulrr2/Projects/ece527/babelsoc/fpga-network-stack/hls/rocev2/../ib_transport_protocol/ib_transport_protocol.hpp:470->/home/paulrr2/Projects/ece527/babelsoc/fpga-network-stack/hls/rocev2/../ib_transport_protocol/ib_transport_protocol.cpp:169]   --->   Operation 139 'bitconcatenate' 'agg_result_V_0_3_i_i' <Predicate = (state_1_load == 2 & !metaWritten_1_load & tmp_20 & or_ln73 & empty_188)> <Delay = 0.00>
ST_3 : Operation 140 [1/1] (0.00ns)   --->   "%zext_ln215 = zext i32 %agg_result_V_0_3_i_i to i33" [/home/paulrr2/Projects/ece527/babelsoc/fpga-network-stack/hls/rocev2/../ib_transport_protocol/ib_transport_protocol.cpp:169]   --->   Operation 140 'zext' 'zext_ln215' <Predicate = (state_1_load == 2 & !metaWritten_1_load & tmp_20 & or_ln73 & empty_188)> <Delay = 0.00>
ST_3 : Operation 141 [1/1] (1.51ns)   --->   "%ret_V = add i33 %zext_ln215, 1407" [/home/paulrr2/Projects/ece527/babelsoc/fpga-network-stack/hls/rocev2/../ib_transport_protocol/ib_transport_protocol.cpp:169]   --->   Operation 141 'add' 'ret_V' <Predicate = (state_1_load == 2 & !metaWritten_1_load & tmp_20 & or_ln73 & empty_188)> <Delay = 1.51> <Core = "AddSub">   --->   Core 14 'AddSub' <Latency = 0> <II = 1> <Delay = 1.30> <FuncUnit> <Opcode : 'add' 'sub'> <InPorts = 2> <OutPorts = 1>

State 4 <SV = 3> <Delay = 5.54>
ST_4 : Operation 142 [1/1] (0.00ns)   --->   "%zext_ln1371 = zext i33 %ret_V to i66" [/home/paulrr2/Projects/ece527/babelsoc/fpga-network-stack/hls/rocev2/../ib_transport_protocol/ib_transport_protocol.cpp:169]   --->   Operation 142 'zext' 'zext_ln1371' <Predicate = (state_1_load == 2 & !metaWritten_1_load & tmp_20 & or_ln73 & empty_188)> <Delay = 0.00>
ST_4 : Operation 143 [1/1] (5.54ns)   --->   "%mul_ln1371 = mul i66 %zext_ln1371, 12494450316" [/home/paulrr2/Projects/ece527/babelsoc/fpga-network-stack/hls/rocev2/../ib_transport_protocol/ib_transport_protocol.cpp:169]   --->   Operation 143 'mul' 'mul_ln1371' <Predicate = (state_1_load == 2 & !metaWritten_1_load & tmp_20 & or_ln73 & empty_188)> <Delay = 5.54> <Core = "Mul">   --->   Core 16 'Mul' <Latency = 0> <II = 1> <Delay = 5.54> <FuncUnit> <Opcode : 'mul'> <InPorts = 2> <OutPorts = 1>
ST_4 : Operation 144 [1/1] (0.00ns)   --->   "%tmp_numPkg_V = call i22 @_ssdm_op_PartSelect.i22.i66.i32.i32(i66 %mul_ln1371, i32 44, i32 65)" [/home/paulrr2/Projects/ece527/babelsoc/fpga-network-stack/hls/rocev2/../ib_transport_protocol/ib_transport_protocol.cpp:169]   --->   Operation 144 'partselect' 'tmp_numPkg_V' <Predicate = (state_1_load == 2 & !metaWritten_1_load & tmp_20 & or_ln73 & empty_188)> <Delay = 0.00>

State 5 <SV = 4> <Delay = 2.87>
ST_5 : Operation 145 [1/1] (0.00ns)   --->   "call void (...)* @_ssdm_op_SpecInterface(i64* @rx_exh2dropFifo_V_da, [8 x i8]* @ap_fifo_str, i32 0, i32 0, [1 x i8]* @p_str, i32 0, i32 0, [1 x i8]* @p_str, [1 x i8]* @p_str, [1 x i8]* @p_str, i32 2, i32 2, i32 16, i32 16, [1 x i8]* @p_str, [1 x i8]* @p_str)"   --->   Operation 145 'specinterface' <Predicate = true> <Delay = 0.00>
ST_5 : Operation 146 [1/1] (0.00ns)   --->   "call void (...)* @_ssdm_op_SpecInterface(i8* @rx_exh2dropFifo_V_ke, [8 x i8]* @ap_fifo_str, i32 0, i32 0, [1 x i8]* @p_str, i32 0, i32 0, [1 x i8]* @p_str, [1 x i8]* @p_str, [1 x i8]* @p_str, i32 2, i32 2, i32 16, i32 16, [1 x i8]* @p_str, [1 x i8]* @p_str)"   --->   Operation 146 'specinterface' <Predicate = true> <Delay = 0.00>
ST_5 : Operation 147 [1/1] (0.00ns)   --->   "call void (...)* @_ssdm_op_SpecInterface(i1* @rx_exh2dropFifo_V_la, [8 x i8]* @ap_fifo_str, i32 0, i32 0, [1 x i8]* @p_str, i32 0, i32 0, [1 x i8]* @p_str, [1 x i8]* @p_str, [1 x i8]* @p_str, i32 2, i32 2, i32 16, i32 16, [1 x i8]* @p_str, [1 x i8]* @p_str)"   --->   Operation 147 'specinterface' <Predicate = true> <Delay = 0.00>
ST_5 : Operation 148 [1/1] (0.00ns)   --->   "call void (...)* @_ssdm_op_SpecInterface(i241* @rx_exh2drop_MetaFifo_1, [8 x i8]* @ap_fifo_str, i32 0, i32 0, [1 x i8]* @p_str, i32 0, i32 0, [1 x i8]* @p_str, [1 x i8]* @p_str, [1 x i8]* @p_str, i32 2, i32 2, i32 16, i32 16, [1 x i8]* @p_str, [1 x i8]* @p_str)"   --->   Operation 148 'specinterface' <Predicate = true> <Delay = 0.00>
ST_5 : Operation 149 [1/1] (0.00ns)   --->   "call void (...)* @_ssdm_op_SpecInterface(i23* @rx_exhMetaFifo_V, [8 x i8]* @ap_fifo_str, i32 0, i32 0, [1 x i8]* @p_str, i32 0, i32 0, [1 x i8]* @p_str, [1 x i8]* @p_str, [1 x i8]* @p_str, i32 2, i32 2, i32 16, i32 16, [1 x i8]* @p_str, [1 x i8]* @p_str)"   --->   Operation 149 'specinterface' <Predicate = true> <Delay = 0.00>
ST_5 : Operation 150 [1/1] (0.00ns)   --->   "call void (...)* @_ssdm_op_SpecInterface(i5* @rx_ibh2exh_MetaFifo_s_10, [8 x i8]* @ap_fifo_str, i32 0, i32 0, [1 x i8]* @p_str, i32 0, i32 0, [1 x i8]* @p_str, [1 x i8]* @p_str, [1 x i8]* @p_str, i32 2, i32 2, i32 16, i32 16, [1 x i8]* @p_str, [1 x i8]* @p_str)"   --->   Operation 150 'specinterface' <Predicate = true> <Delay = 0.00>
ST_5 : Operation 151 [1/1] (0.00ns)   --->   "call void (...)* @_ssdm_op_SpecInterface(i64* @rx_shift2exhFifo_V_d, [8 x i8]* @ap_fifo_str, i32 0, i32 0, [1 x i8]* @p_str, i32 0, i32 0, [1 x i8]* @p_str, [1 x i8]* @p_str, [1 x i8]* @p_str, i32 2, i32 2, i32 16, i32 16, [1 x i8]* @p_str, [1 x i8]* @p_str)"   --->   Operation 151 'specinterface' <Predicate = true> <Delay = 0.00>
ST_5 : Operation 152 [1/1] (0.00ns)   --->   "call void (...)* @_ssdm_op_SpecInterface(i8* @rx_shift2exhFifo_V_k, [8 x i8]* @ap_fifo_str, i32 0, i32 0, [1 x i8]* @p_str, i32 0, i32 0, [1 x i8]* @p_str, [1 x i8]* @p_str, [1 x i8]* @p_str, i32 2, i32 2, i32 16, i32 16, [1 x i8]* @p_str, [1 x i8]* @p_str)"   --->   Operation 152 'specinterface' <Predicate = true> <Delay = 0.00>
ST_5 : Operation 153 [1/1] (0.00ns)   --->   "call void (...)* @_ssdm_op_SpecInterface(i1* @rx_shift2exhFifo_V_l, [8 x i8]* @ap_fifo_str, i32 0, i32 0, [1 x i8]* @p_str, i32 0, i32 0, [1 x i8]* @p_str, [1 x i8]* @p_str, [1 x i8]* @p_str, i32 2, i32 2, i32 16, i32 16, [1 x i8]* @p_str, [1 x i8]* @p_str)"   --->   Operation 153 'specinterface' <Predicate = true> <Delay = 0.00>
ST_5 : Operation 154 [1/1] (0.00ns)   --->   "call void (...)* @_ssdm_op_SpecPipeline(i32 1, i32 1, i32 1, i32 0, [1 x i8]* @p_str91) nounwind" [/home/paulrr2/Projects/ece527/babelsoc/fpga-network-stack/hls/rocev2/../ib_transport_protocol/ib_transport_protocol.cpp:87]   --->   Operation 154 'specpipeline' <Predicate = true> <Delay = 0.00>
ST_5 : Operation 155 [1/1] (2.39ns)   --->   "call void @_ssdm_op_Write.ap_fifo.volatile.i23P(i23* @rx_exhMetaFifo_V, i23 2) nounwind" [/home/paulrr2/Projects/ece527/babelsoc/fpga-network-stack/hls/rocev2/../ib_transport_protocol/ib_transport_protocol.cpp:236]   --->   Operation 155 'write' <Predicate = (state_1_load == 3 & tmp_21 & !metaWritten_1_load)> <Delay = 2.39> <Core = "FIFO">   --->   Core 32 'FIFO' <Latency = 0> <II = 1> <Delay = 2.39> <Storage> <Opcode : 'read' 'write' 'nbread' 'nbwrite'> <Ports = 0> <Width = 5> <Depth = 2> <FIFO>
ST_5 : Operation 156 [1/1] (2.39ns)   --->   "call void @_ssdm_op_Write.ap_fifo.volatile.i241P(i241* @rx_exh2drop_MetaFifo_1, i241 0) nounwind" [/home/paulrr2/Projects/ece527/babelsoc/fpga-network-stack/hls/rocev2/../ib_transport_protocol/ib_transport_protocol.cpp:237]   --->   Operation 156 'write' <Predicate = (state_1_load == 3 & tmp_21 & !metaWritten_1_load)> <Delay = 2.39> <Core = "FIFO">   --->   Core 32 'FIFO' <Latency = 0> <II = 1> <Delay = 2.39> <Storage> <Opcode : 'read' 'write' 'nbread' 'nbwrite'> <Ports = 0> <Width = 5> <Depth = 2> <FIFO>
ST_5 : Operation 157 [1/1] (0.00ns)   --->   "br label %._crit_edge18.i" [/home/paulrr2/Projects/ece527/babelsoc/fpga-network-stack/hls/rocev2/../ib_transport_protocol/ib_transport_protocol.cpp:239]   --->   Operation 157 'br' <Predicate = (state_1_load == 3 & tmp_21 & !metaWritten_1_load)> <Delay = 0.00>
ST_5 : Operation 158 [1/1] (0.00ns)   --->   "br label %._crit_edge19.i" [/home/paulrr2/Projects/ece527/babelsoc/fpga-network-stack/hls/rocev2/../ib_transport_protocol/ib_transport_protocol.cpp:243]   --->   Operation 158 'br' <Predicate = (state_1_load == 3 & tmp_21 & tmp_last_V)> <Delay = 0.00>
ST_5 : Operation 159 [1/1] (0.00ns)   --->   "br label %._crit_edge17.i" [/home/paulrr2/Projects/ece527/babelsoc/fpga-network-stack/hls/rocev2/../ib_transport_protocol/ib_transport_protocol.cpp:244]   --->   Operation 159 'br' <Predicate = (state_1_load == 3 & tmp_21)> <Delay = 0.00>
ST_5 : Operation 160 [1/1] (0.00ns)   --->   "br label %"rx_process_exh<64>.exit"" [/home/paulrr2/Projects/ece527/babelsoc/fpga-network-stack/hls/rocev2/../ib_transport_protocol/ib_transport_protocol.cpp:245]   --->   Operation 160 'br' <Predicate = (state_1_load == 3)> <Delay = 0.00>
ST_5 : Operation 161 [1/1] (0.00ns)   --->   "br label %._crit_edge11.i" [/home/paulrr2/Projects/ece527/babelsoc/fpga-network-stack/hls/rocev2/../ib_transport_protocol/ib_transport_protocol.cpp:161]   --->   Operation 161 'br' <Predicate = (state_1_load == 2 & metaWritten_1_load & tmp_20)> <Delay = 0.00>
ST_5 : Operation 162 [1/1] (2.39ns)   --->   "call void @_ssdm_op_Write.ap_fifo.volatile.i23P(i23* @rx_exhMetaFifo_V, i23 2) nounwind" [/home/paulrr2/Projects/ece527/babelsoc/fpga-network-stack/hls/rocev2/../ib_transport_protocol/ib_transport_protocol.cpp:173]   --->   Operation 162 'write' <Predicate = (state_1_load == 2 & !metaWritten_1_load & tmp_20 & or_ln73 & !empty_188)> <Delay = 2.39> <Core = "FIFO">   --->   Core 32 'FIFO' <Latency = 0> <II = 1> <Delay = 2.39> <Storage> <Opcode : 'read' 'write' 'nbread' 'nbwrite'> <Ports = 0> <Width = 5> <Depth = 2> <FIFO>
ST_5 : Operation 163 [1/1] (0.00ns)   --->   "br label %10"   --->   Operation 163 'br' <Predicate = (state_1_load == 2 & !metaWritten_1_load & tmp_20 & or_ln73 & !empty_188)> <Delay = 0.00>
ST_5 : Operation 164 [1/1] (0.00ns)   --->   "%tmp_2150 = call i23 @_ssdm_op_BitConcatenate.i23.i22.i1(i22 %tmp_numPkg_V, i1 false) nounwind" [/home/paulrr2/Projects/ece527/babelsoc/fpga-network-stack/hls/rocev2/../ib_transport_protocol/ib_transport_protocol.cpp:169]   --->   Operation 164 'bitconcatenate' 'tmp_2150' <Predicate = (state_1_load == 2 & !metaWritten_1_load & tmp_20 & or_ln73 & empty_188)> <Delay = 0.00>
ST_5 : Operation 165 [1/1] (2.39ns)   --->   "call void @_ssdm_op_Write.ap_fifo.volatile.i23P(i23* @rx_exhMetaFifo_V, i23 %tmp_2150) nounwind" [/home/paulrr2/Projects/ece527/babelsoc/fpga-network-stack/hls/rocev2/../ib_transport_protocol/ib_transport_protocol.cpp:169]   --->   Operation 165 'write' <Predicate = (state_1_load == 2 & !metaWritten_1_load & tmp_20 & or_ln73 & empty_188)> <Delay = 2.39> <Core = "FIFO">   --->   Core 32 'FIFO' <Latency = 0> <II = 1> <Delay = 2.39> <Storage> <Opcode : 'read' 'write' 'nbread' 'nbwrite'> <Ports = 0> <Width = 5> <Depth = 2> <FIFO>
ST_5 : Operation 166 [1/1] (0.00ns)   --->   "br label %10" [/home/paulrr2/Projects/ece527/babelsoc/fpga-network-stack/hls/rocev2/../ib_transport_protocol/ib_transport_protocol.cpp:170]   --->   Operation 166 'br' <Predicate = (state_1_load == 2 & !metaWritten_1_load & tmp_20 & or_ln73 & empty_188)> <Delay = 0.00>
ST_5 : Operation 167 [1/1] (0.00ns)   --->   "%tmp_16_i = call i145 @_ssdm_op_BitConcatenate.i145.i128.i17(i128 %p_Val2_5, i17 0) nounwind" [/home/paulrr2/Projects/ece527/babelsoc/fpga-network-stack/hls/rocev2/../ib_transport_protocol/ib_transport_protocol.cpp:175]   --->   Operation 167 'bitconcatenate' 'tmp_16_i' <Predicate = (state_1_load == 2 & !metaWritten_1_load & tmp_20 & or_ln73)> <Delay = 0.00>
ST_5 : Operation 168 [1/1] (0.00ns)   --->   "%tmp_4134 = zext i145 %tmp_16_i to i241" [/home/paulrr2/Projects/ece527/babelsoc/fpga-network-stack/hls/rocev2/../ib_transport_protocol/ib_transport_protocol.cpp:175]   --->   Operation 168 'zext' 'tmp_4134' <Predicate = (state_1_load == 2 & !metaWritten_1_load & tmp_20 & or_ln73)> <Delay = 0.00>
ST_5 : Operation 169 [1/1] (2.39ns)   --->   "call void @_ssdm_op_Write.ap_fifo.volatile.i241P(i241* @rx_exh2drop_MetaFifo_1, i241 %tmp_4134) nounwind" [/home/paulrr2/Projects/ece527/babelsoc/fpga-network-stack/hls/rocev2/../ib_transport_protocol/ib_transport_protocol.cpp:175]   --->   Operation 169 'write' <Predicate = (state_1_load == 2 & !metaWritten_1_load & tmp_20 & or_ln73)> <Delay = 2.39> <Core = "FIFO">   --->   Core 32 'FIFO' <Latency = 0> <II = 1> <Delay = 2.39> <Storage> <Opcode : 'read' 'write' 'nbread' 'nbwrite'> <Ports = 0> <Width = 5> <Depth = 2> <FIFO>
ST_5 : Operation 170 [1/1] (0.00ns)   --->   "br label %._crit_edge13.i" [/home/paulrr2/Projects/ece527/babelsoc/fpga-network-stack/hls/rocev2/../ib_transport_protocol/ib_transport_protocol.cpp:177]   --->   Operation 170 'br' <Predicate = (state_1_load == 2 & !metaWritten_1_load & tmp_20 & or_ln73)> <Delay = 0.00>
ST_5 : Operation 171 [1/1] (0.00ns)   --->   "br label %._crit_edge12.i" [/home/paulrr2/Projects/ece527/babelsoc/fpga-network-stack/hls/rocev2/../ib_transport_protocol/ib_transport_protocol.cpp:182]   --->   Operation 171 'br' <Predicate = (state_1_load == 2 & tmp_20 & or_ln73)> <Delay = 0.00>
ST_5 : Operation 172 [1/1] (0.00ns)   --->   "br label %._crit_edge10.i" [/home/paulrr2/Projects/ece527/babelsoc/fpga-network-stack/hls/rocev2/../ib_transport_protocol/ib_transport_protocol.cpp:188]   --->   Operation 172 'br' <Predicate = (state_1_load == 2 & tmp_20)> <Delay = 0.00>
ST_5 : Operation 173 [1/1] (0.00ns)   --->   "br label %"rx_process_exh<64>.exit"" [/home/paulrr2/Projects/ece527/babelsoc/fpga-network-stack/hls/rocev2/../ib_transport_protocol/ib_transport_protocol.cpp:189]   --->   Operation 173 'br' <Predicate = (state_1_load == 2)> <Delay = 0.00>
ST_5 : Operation 174 [1/1] (0.00ns)   --->   "br label %._crit_edge7.i" [/home/paulrr2/Projects/ece527/babelsoc/fpga-network-stack/hls/rocev2/../ib_transport_protocol/ib_transport_protocol.cpp:137]   --->   Operation 174 'br' <Predicate = (state_1_load == 1 & tmp_19 & !icmp_ln134)> <Delay = 0.00>
ST_5 : Operation 175 [1/1] (0.00ns)   --->   "%p_Result_i193_i = call i2 @_ssdm_op_PartSelect.i2.i32.i32.i32(i32 %p_Val2_4, i32 5, i32 6) nounwind" [/home/paulrr2/Projects/ece527/babelsoc/fpga-network-stack/hls/rocev2/../ib_transport_protocol/ib_transport_protocol.hpp:506->/home/paulrr2/Projects/ece527/babelsoc/fpga-network-stack/hls/rocev2/../ib_transport_protocol/ib_transport_protocol.cpp:140]   --->   Operation 175 'partselect' 'p_Result_i193_i' <Predicate = (state_1_load == 1 & !metaWritten_1_load & tmp_19)> <Delay = 0.00>
ST_5 : Operation 176 [1/1] (0.48ns)   --->   "%tmp_isNak = icmp eq i2 %p_Result_i193_i, -1" [/home/paulrr2/Projects/ece527/babelsoc/fpga-network-stack/hls/rocev2/../ib_transport_protocol/ib_transport_protocol.hpp:506->/home/paulrr2/Projects/ece527/babelsoc/fpga-network-stack/hls/rocev2/../ib_transport_protocol/ib_transport_protocol.cpp:140]   --->   Operation 176 'icmp' 'tmp_isNak' <Predicate = (state_1_load == 1 & !metaWritten_1_load & tmp_19)> <Delay = 0.48> <Core = "Cmp">   --->   Core 25 'Cmp' <Latency = 0> <II = 1> <Delay = 0.48> <FuncUnit> <Opcode : 'icmp'> <InPorts = 2> <OutPorts = 1>
ST_5 : Operation 177 [1/1] (0.00ns)   --->   "%tmp164 = call i23 @_ssdm_op_BitConcatenate.i23.i22.i1(i22 1, i1 %tmp_isNak) nounwind" [/home/paulrr2/Projects/ece527/babelsoc/fpga-network-stack/hls/rocev2/../ib_transport_protocol/ib_transport_protocol.cpp:140]   --->   Operation 177 'bitconcatenate' 'tmp164' <Predicate = (state_1_load == 1 & !metaWritten_1_load & tmp_19)> <Delay = 0.00>
ST_5 : Operation 178 [1/1] (2.39ns)   --->   "call void @_ssdm_op_Write.ap_fifo.volatile.i23P(i23* @rx_exhMetaFifo_V, i23 %tmp164) nounwind" [/home/paulrr2/Projects/ece527/babelsoc/fpga-network-stack/hls/rocev2/../ib_transport_protocol/ib_transport_protocol.cpp:140]   --->   Operation 178 'write' <Predicate = (state_1_load == 1 & !metaWritten_1_load & tmp_19)> <Delay = 2.39> <Core = "FIFO">   --->   Core 32 'FIFO' <Latency = 0> <II = 1> <Delay = 2.39> <Storage> <Opcode : 'read' 'write' 'nbread' 'nbwrite'> <Ports = 0> <Width = 5> <Depth = 2> <FIFO>
ST_5 : Operation 179 [1/1] (0.00ns)   --->   "%tmp_15_i = call i49 @_ssdm_op_BitConcatenate.i49.i32.i17(i32 %p_Val2_4, i17 0) nounwind" [/home/paulrr2/Projects/ece527/babelsoc/fpga-network-stack/hls/rocev2/../ib_transport_protocol/ib_transport_protocol.cpp:141]   --->   Operation 179 'bitconcatenate' 'tmp_15_i' <Predicate = (state_1_load == 1 & !metaWritten_1_load & tmp_19)> <Delay = 0.00>
ST_5 : Operation 180 [1/1] (0.00ns)   --->   "%tmp_1 = zext i49 %tmp_15_i to i241" [/home/paulrr2/Projects/ece527/babelsoc/fpga-network-stack/hls/rocev2/../ib_transport_protocol/ib_transport_protocol.cpp:141]   --->   Operation 180 'zext' 'tmp_1' <Predicate = (state_1_load == 1 & !metaWritten_1_load & tmp_19)> <Delay = 0.00>
ST_5 : Operation 181 [1/1] (2.39ns)   --->   "call void @_ssdm_op_Write.ap_fifo.volatile.i241P(i241* @rx_exh2drop_MetaFifo_1, i241 %tmp_1) nounwind" [/home/paulrr2/Projects/ece527/babelsoc/fpga-network-stack/hls/rocev2/../ib_transport_protocol/ib_transport_protocol.cpp:141]   --->   Operation 181 'write' <Predicate = (state_1_load == 1 & !metaWritten_1_load & tmp_19)> <Delay = 2.39> <Core = "FIFO">   --->   Core 32 'FIFO' <Latency = 0> <II = 1> <Delay = 2.39> <Storage> <Opcode : 'read' 'write' 'nbread' 'nbwrite'> <Ports = 0> <Width = 5> <Depth = 2> <FIFO>
ST_5 : Operation 182 [1/1] (0.00ns)   --->   "br label %._crit_edge6.i" [/home/paulrr2/Projects/ece527/babelsoc/fpga-network-stack/hls/rocev2/../ib_transport_protocol/ib_transport_protocol.cpp:143]   --->   Operation 182 'br' <Predicate = (state_1_load == 1 & !metaWritten_1_load & tmp_19)> <Delay = 0.00>
ST_5 : Operation 183 [1/1] (0.00ns)   --->   "br label %._crit_edge5.i" [/home/paulrr2/Projects/ece527/babelsoc/fpga-network-stack/hls/rocev2/../ib_transport_protocol/ib_transport_protocol.cpp:150]   --->   Operation 183 'br' <Predicate = (state_1_load == 1 & tmp_19)> <Delay = 0.00>
ST_5 : Operation 184 [1/1] (0.00ns)   --->   "br label %"rx_process_exh<64>.exit"" [/home/paulrr2/Projects/ece527/babelsoc/fpga-network-stack/hls/rocev2/../ib_transport_protocol/ib_transport_protocol.cpp:151]   --->   Operation 184 'br' <Predicate = (state_1_load == 1)> <Delay = 0.00>
ST_5 : Operation 185 [1/1] (0.00ns)   --->   "br label %._crit_edge3.i" [/home/paulrr2/Projects/ece527/babelsoc/fpga-network-stack/hls/rocev2/../ib_transport_protocol/ib_transport_protocol.cpp:124]   --->   Operation 185 'br' <Predicate = (state_1_load == 0 & tmp)> <Delay = 0.00>
ST_5 : Operation 186 [1/1] (0.00ns)   --->   "br label %"rx_process_exh<64>.exit"" [/home/paulrr2/Projects/ece527/babelsoc/fpga-network-stack/hls/rocev2/../ib_transport_protocol/ib_transport_protocol.cpp:125]   --->   Operation 186 'br' <Predicate = (state_1_load == 0)> <Delay = 0.00>
ST_5 : Operation 187 [1/1] (0.00ns)   --->   "ret void"   --->   Operation 187 'ret' <Predicate = true> <Delay = 0.00>


============================================================
+ Verbose Summary: Timing violations
============================================================
Target clock period: 6.4ns, clock uncertainty: 0.8ns.

 <State 1>: 6.68ns
The critical path consists of the following:
	fifo read on port 'rx_ibh2exh_MetaFifo_s_10' (/home/paulrr2/Projects/ece527/babelsoc/fpga-network-stack/hls/rocev2/../ib_transport_protocol/ib_transport_protocol.cpp:104) [231]  (2.39 ns)
	'mux' operation ('tmp_i_i', /home/paulrr2/Projects/ece527/babelsoc/fpga-network-stack/hls/rocev2/../ib_transport_protocol/ib_transport_protocol.cpp:104) [234]  (1.72 ns)
	'select' operation ('select_ln110', /home/paulrr2/Projects/ece527/babelsoc/fpga-network-stack/hls/rocev2/../ib_transport_protocol/ib_transport_protocol.cpp:104) [236]  (0 ns)
	'select' operation ('storemerge92_i', /home/paulrr2/Projects/ece527/babelsoc/fpga-network-stack/hls/rocev2/../ib_transport_protocol/ib_transport_protocol.cpp:104) [238]  (1.72 ns)
	'store' operation ('store_ln108', /home/paulrr2/Projects/ece527/babelsoc/fpga-network-stack/hls/rocev2/../ib_transport_protocol/ib_transport_protocol.cpp:108) of variable 'storemerge92_i', /home/paulrr2/Projects/ece527/babelsoc/fpga-network-stack/hls/rocev2/../ib_transport_protocol/ib_transport_protocol.cpp:104 on static variable 'state_1' [239]  (0.85 ns)

 <State 2>: 2.39ns
The critical path consists of the following:
	fifo write on port 'rx_exh2dropFifo_V_da' (/home/paulrr2/Projects/ece527/babelsoc/fpga-network-stack/hls/rocev2/../ib_transport_protocol/ib_transport_protocol.cpp:233) [51]  (2.39 ns)

 <State 3>: 5.22ns
The critical path consists of the following:
	'shl' operation ('shl_ln58', /home/paulrr2/Projects/ece527/babelsoc/fpga-network-stack/hls/rocev2/../ib_transport_protocol/../packet.hpp:58->/home/paulrr2/Projects/ece527/babelsoc/fpga-network-stack/hls/rocev2/../ib_transport_protocol/ib_transport_protocol.cpp:156) [98]  (2.35 ns)
	'select' operation ('select_ln58_8', /home/paulrr2/Projects/ece527/babelsoc/fpga-network-stack/hls/rocev2/../ib_transport_protocol/../packet.hpp:58->/home/paulrr2/Projects/ece527/babelsoc/fpga-network-stack/hls/rocev2/../ib_transport_protocol/ib_transport_protocol.cpp:156) [100]  (0 ns)
	'and' operation ('and_ln58_4', /home/paulrr2/Projects/ece527/babelsoc/fpga-network-stack/hls/rocev2/../ib_transport_protocol/../packet.hpp:58->/home/paulrr2/Projects/ece527/babelsoc/fpga-network-stack/hls/rocev2/../ib_transport_protocol/ib_transport_protocol.cpp:156) [106]  (0 ns)
	'or' operation ('or_ln58', /home/paulrr2/Projects/ece527/babelsoc/fpga-network-stack/hls/rocev2/../ib_transport_protocol/../packet.hpp:58->/home/paulrr2/Projects/ece527/babelsoc/fpga-network-stack/hls/rocev2/../ib_transport_protocol/ib_transport_protocol.cpp:156) [107]  (0.674 ns)
	'select' operation ('packetHeader<64, 128>.header.V', /home/paulrr2/Projects/ece527/babelsoc/fpga-network-stack/hls/rocev2/../ib_transport_protocol/ib_transport_protocol.cpp:156) [110]  (0.674 ns)
	'add' operation ('ret.V', /home/paulrr2/Projects/ece527/babelsoc/fpga-network-stack/hls/rocev2/../ib_transport_protocol/ib_transport_protocol.cpp:169) [137]  (1.51 ns)

 <State 4>: 5.55ns
The critical path consists of the following:
	'mul' operation ('mul_ln1371', /home/paulrr2/Projects/ece527/babelsoc/fpga-network-stack/hls/rocev2/../ib_transport_protocol/ib_transport_protocol.cpp:169) [139]  (5.55 ns)

 <State 5>: 2.87ns
The critical path consists of the following:
	'icmp' operation ('isNak', /home/paulrr2/Projects/ece527/babelsoc/fpga-network-stack/hls/rocev2/../ib_transport_protocol/ib_transport_protocol.hpp:506->/home/paulrr2/Projects/ece527/babelsoc/fpga-network-stack/hls/rocev2/../ib_transport_protocol/ib_transport_protocol.cpp:140) [206]  (0.48 ns)
	fifo write on port 'rx_exhMetaFifo_V' (/home/paulrr2/Projects/ece527/babelsoc/fpga-network-stack/hls/rocev2/../ib_transport_protocol/ib_transport_protocol.cpp:140) [208]  (2.39 ns)


============================================================
+ Verbose Summary: Binding
============================================================
N/A
* FSMD analyzer results:
  - Output states:
 - Input state : 
  - Chain level:
	State 1
	State 2
	State 3
	State 4
	State 5


============================================================
+ Verbose Summary: Datapath Resource usage 
============================================================
N/A
