

================================================================
== Vivado HLS Report for 'tx_pkg_arbiter_64_s'
================================================================
* Date:           Sat Dec 12 19:41:07 2020

* Version:        2019.2.1 (Build 2724168 on Thu Dec 05 05:19:09 MST 2019)
* Project:        rocev2_prj
* Solution:       solution1
* Product family: virtex7
* Target device:  xc7vx690t-ffg1761-2


================================================================
== Performance Estimates
================================================================
+ Timing: 
    * Summary: 
    +--------+---------+----------+------------+
    |  Clock |  Target | Estimated| Uncertainty|
    +--------+---------+----------+------------+
    |ap_clk  | 6.40 ns | 3.716 ns |   0.80 ns  |
    +--------+---------+----------+------------+

+ Latency: 
    * Summary: 
    +---------+---------+----------+----------+-----+-----+----------+
    |  Latency (cycles) |  Latency (absolute) |  Interval | Pipeline |
    |   min   |   max   |    min   |    max   | min | max |   Type   |
    +---------+---------+----------+----------+-----+-----+----------+
    |        1|        1| 6.400 ns | 6.400 ns |    1|    1| function |
    +---------+---------+----------+----------+-----+-----+----------+

    + Detail: 
        * Instance: 
        N/A

        * Loop: 
        N/A

============================================================
+ Verbose Summary: Synthesis Manager
============================================================
InlineROM: 1
ExposeGlobal: 0
============================================================
+ Verbose Summary: CDFG Model
============================================================
IsTopModel: 0
ResetActiveHigh: 1
IsCombinational: 2
IsDatapathOnly: 0
HasWiredReturn: 1
HasMFsm: 2
HasVarLatency: 0
IsPipeline: 1
IsRtlPipelined: 1
IsInstanceOverlapped: 0
IsDontTouch: 0
HasImplIP: 0
IsGatedGlobalClock: 0

+ Individual pipeline summary: 
  * Pipeline-0: initiation interval (II) = 1, depth = 2


============================================================
+ Verbose Summary: Schedule
============================================================
* Number of FSM states : 2
* Pipeline : 1
  Pipeline-0 : II = 1, D = 2, States = { 1 2 }
* Dataflow Pipeline: 0

* FSM state transitions: 
1 --> 2 
2 --> 

* FSM state operations: 

State 1 <SV = 0> <Delay = 3.71>
ST_1 : Operation 3 [1/1] (0.00ns)   --->   "%state_load = load i3* @state, align 1" [/home/paulrr2/Projects/ece527/babelsoc/fpga-network-stack/hls/rocev2/../ib_transport_protocol/ib_transport_protocol.cpp:2074]   --->   Operation 3 'load' 'state_load' <Predicate = true> <Delay = 0.00>
ST_1 : Operation 4 [1/1] (0.00ns)   --->   "%info_type_load = load i1* @info_type, align 1" [/home/paulrr2/Projects/ece527/babelsoc/fpga-network-stack/hls/rocev2/../ib_transport_protocol/ib_transport_protocol.cpp:2207]   --->   Operation 4 'load' 'info_type_load' <Predicate = true> <Delay = 0.00>
ST_1 : Operation 5 [1/1] (0.00ns)   --->   "%info_words_V_load = load i29* @info_words_V, align 4" [/home/paulrr2/Projects/ece527/babelsoc/fpga-network-stack/hls/rocev2/../ib_transport_protocol/ib_transport_protocol.cpp:2118]   --->   Operation 5 'load' 'info_words_V_load' <Predicate = true> <Delay = 0.00>
ST_1 : Operation 6 [1/1] (0.00ns)   --->   "%t_V = load i8* @wordCounter_V, align 1" [/home/paulrr2/Projects/ece527/babelsoc/fpga-network-stack/hls/rocev2/../ib_transport_protocol/ib_transport_protocol.cpp:2109]   --->   Operation 6 'load' 't_V' <Predicate = true> <Delay = 0.00>
ST_1 : Operation 7 [1/1] (1.20ns)   --->   "switch i3 %state_load, label %._crit_edge2.i [
    i3 0, label %0
    i3 -4, label %4
    i3 -3, label %5
    i3 1, label %6
    i3 2, label %7
    i3 3, label %9
    i3 -2, label %10
  ]" [/home/paulrr2/Projects/ece527/babelsoc/fpga-network-stack/hls/rocev2/../ib_transport_protocol/ib_transport_protocol.cpp:2074]   --->   Operation 7 'switch' <Predicate = true> <Delay = 1.20>
ST_1 : Operation 8 [1/1] (0.00ns)   --->   "%tmp_6 = call i1 @_ssdm_op_NbReadReq.axis.i64P.i8P.i1P(i64* %s_axis_tx_data_V_data_V, i8* %s_axis_tx_data_V_keep_V, i1* %s_axis_tx_data_V_last_V, i32 1)" [/home/paulrr2/Projects/ece527/babelsoc/fpga-network-stack/hls/rocev2/../ib_transport_protocol/ib_transport_protocol.cpp:2216]   --->   Operation 8 'nbreadreq' 'tmp_6' <Predicate = (state_load == 6)> <Delay = 0.00> <Core = "AXI4Stream">   --->   Core 5 'AXI4Stream' <Latency = 0> <II = 1> <Delay = 1.00> <Adapter> <Opcode : >
ST_1 : Operation 9 [1/1] (1.20ns)   --->   "br i1 %tmp_6, label %._crit_edge24.i, label %._crit_edge2.i" [/home/paulrr2/Projects/ece527/babelsoc/fpga-network-stack/hls/rocev2/../ib_transport_protocol/ib_transport_protocol.cpp:2216]   --->   Operation 9 'br' <Predicate = (state_load == 6)> <Delay = 1.20>
ST_1 : Operation 10 [1/1] (0.00ns)   --->   "%empty_183 = call { i64, i8, i1 } @_ssdm_op_Read.axis.volatile.i64P.i8P.i1P(i64* %s_axis_tx_data_V_data_V, i8* %s_axis_tx_data_V_keep_V, i1* %s_axis_tx_data_V_last_V)" [/home/paulrr2/Projects/ece527/babelsoc/fpga-network-stack/hls/rocev2/../ib_transport_protocol/ib_transport_protocol.cpp:2218]   --->   Operation 10 'read' 'empty_183' <Predicate = (state_load == 6 & tmp_6)> <Delay = 0.00> <Core = "AXI4Stream">   --->   Core 5 'AXI4Stream' <Latency = 0> <II = 1> <Delay = 1.00> <Adapter> <Opcode : >
ST_1 : Operation 11 [1/1] (0.00ns)   --->   "%tmp_data_V_9 = extractvalue { i64, i8, i1 } %empty_183, 0" [/home/paulrr2/Projects/ece527/babelsoc/fpga-network-stack/hls/rocev2/../ib_transport_protocol/ib_transport_protocol.cpp:2218]   --->   Operation 11 'extractvalue' 'tmp_data_V_9' <Predicate = (state_load == 6 & tmp_6)> <Delay = 0.00>
ST_1 : Operation 12 [1/1] (0.00ns)   --->   "%tmp_keep_V_9 = extractvalue { i64, i8, i1 } %empty_183, 1" [/home/paulrr2/Projects/ece527/babelsoc/fpga-network-stack/hls/rocev2/../ib_transport_protocol/ib_transport_protocol.cpp:2218]   --->   Operation 12 'extractvalue' 'tmp_keep_V_9' <Predicate = (state_load == 6 & tmp_6)> <Delay = 0.00>
ST_1 : Operation 13 [1/1] (0.00ns)   --->   "%tmp_last_V_14 = extractvalue { i64, i8, i1 } %empty_183, 2" [/home/paulrr2/Projects/ece527/babelsoc/fpga-network-stack/hls/rocev2/../ib_transport_protocol/ib_transport_protocol.cpp:2218]   --->   Operation 13 'extractvalue' 'tmp_last_V_14' <Predicate = (state_load == 6 & tmp_6)> <Delay = 0.00>
ST_1 : Operation 14 [1/1] (1.35ns)   --->   "%add_ln700_5 = add i8 %t_V, 1" [/home/paulrr2/Projects/ece527/babelsoc/fpga-network-stack/hls/rocev2/../ib_transport_protocol/ib_transport_protocol.cpp:2219]   --->   Operation 14 'add' 'add_ln700_5' <Predicate = (state_load == 6 & tmp_6)> <Delay = 1.35> <Core = "AddSub">   --->   Core 14 'AddSub' <Latency = 0> <II = 1> <Delay = 1.47> <FuncUnit> <Opcode : 'add' 'sub'> <InPorts = 2> <OutPorts = 1>
ST_1 : Operation 15 [1/1] (0.86ns)   --->   "%icmp_ln879_5 = icmp eq i8 %add_ln700_5, -80" [/home/paulrr2/Projects/ece527/babelsoc/fpga-network-stack/hls/rocev2/../ib_transport_protocol/ib_transport_protocol.cpp:2224]   --->   Operation 15 'icmp' 'icmp_ln879_5' <Predicate = (state_load == 6 & tmp_6)> <Delay = 0.86> <Core = "Cmp">   --->   Core 25 'Cmp' <Latency = 0> <II = 1> <Delay = 1.24> <FuncUnit> <Opcode : 'icmp'> <InPorts = 2> <OutPorts = 1>
ST_1 : Operation 16 [1/1] (0.85ns)   --->   "br i1 %icmp_ln879_5, label %._crit_edge26.i, label %._crit_edge25.i" [/home/paulrr2/Projects/ece527/babelsoc/fpga-network-stack/hls/rocev2/../ib_transport_protocol/ib_transport_protocol.cpp:2224]   --->   Operation 16 'br' <Predicate = (state_load == 6 & tmp_6)> <Delay = 0.85>
ST_1 : Operation 17 [1/1] (1.47ns)   --->   "%add_ln701_4 = add i29 %info_words_V_load, -176" [/home/paulrr2/Projects/ece527/babelsoc/fpga-network-stack/hls/rocev2/../ib_transport_protocol/ib_transport_protocol.cpp:2228]   --->   Operation 17 'add' 'add_ln701_4' <Predicate = (state_load == 6 & tmp_6 & icmp_ln879_5)> <Delay = 1.47> <Core = "AddSub">   --->   Core 14 'AddSub' <Latency = 0> <II = 1> <Delay = 1.47> <FuncUnit> <Opcode : 'add' 'sub'> <InPorts = 2> <OutPorts = 1>
ST_1 : Operation 18 [1/1] (1.15ns)   --->   "store i29 %add_ln701_4, i29* @info_words_V, align 4" [/home/paulrr2/Projects/ece527/babelsoc/fpga-network-stack/hls/rocev2/../ib_transport_protocol/ib_transport_protocol.cpp:2228]   --->   Operation 18 'store' <Predicate = (state_load == 6 & tmp_6 & icmp_ln879_5)> <Delay = 1.15>
ST_1 : Operation 19 [1/1] (0.00ns) (grouped into LUT with out node and_ln2229)   --->   "%xor_ln2229 = xor i1 %info_type_load, true" [/home/paulrr2/Projects/ece527/babelsoc/fpga-network-stack/hls/rocev2/../ib_transport_protocol/ib_transport_protocol.cpp:2229]   --->   Operation 19 'xor' 'xor_ln2229' <Predicate = (state_load == 6 & tmp_6 & icmp_ln879_5)> <Delay = 0.00> <Core = "LogicGate">   --->   Core 27 'LogicGate' <Latency = 0> <II = 1> <Delay = 0.48> <FuncUnit> <Opcode : 'and' 'or' 'xor'> <InPorts = 2> <OutPorts = 1>
ST_1 : Operation 20 [1/1] (1.24ns)   --->   "%icmp_ln899_1 = icmp ult i29 %add_ln701_4, 177" [/home/paulrr2/Projects/ece527/babelsoc/fpga-network-stack/hls/rocev2/../ib_transport_protocol/ib_transport_protocol.cpp:2229]   --->   Operation 20 'icmp' 'icmp_ln899_1' <Predicate = (state_load == 6 & tmp_6 & icmp_ln879_5)> <Delay = 1.24> <Core = "Cmp">   --->   Core 25 'Cmp' <Latency = 0> <II = 1> <Delay = 1.24> <FuncUnit> <Opcode : 'icmp'> <InPorts = 2> <OutPorts = 1>
ST_1 : Operation 21 [1/1] (0.48ns) (out node of the LUT)   --->   "%and_ln2229 = and i1 %icmp_ln899_1, %xor_ln2229" [/home/paulrr2/Projects/ece527/babelsoc/fpga-network-stack/hls/rocev2/../ib_transport_protocol/ib_transport_protocol.cpp:2229]   --->   Operation 21 'and' 'and_ln2229' <Predicate = (state_load == 6 & tmp_6 & icmp_ln879_5)> <Delay = 0.48> <Core = "LogicGate">   --->   Core 27 'LogicGate' <Latency = 0> <II = 1> <Delay = 0.48> <FuncUnit> <Opcode : 'and' 'or' 'xor'> <InPorts = 2> <OutPorts = 1>
ST_1 : Operation 22 [1/1] (0.48ns)   --->   "%or_ln2229 = or i1 %tmp_last_V_14, %and_ln2229" [/home/paulrr2/Projects/ece527/babelsoc/fpga-network-stack/hls/rocev2/../ib_transport_protocol/ib_transport_protocol.cpp:2229]   --->   Operation 22 'or' 'or_ln2229' <Predicate = (state_load == 6 & tmp_6 & icmp_ln879_5)> <Delay = 0.48> <Core = "LogicGate">   --->   Core 27 'LogicGate' <Latency = 0> <II = 1> <Delay = 0.48> <FuncUnit> <Opcode : 'and' 'or' 'xor'> <InPorts = 2> <OutPorts = 1>
ST_1 : Operation 23 [1/1] (0.51ns)   --->   "%select_ln2229 = select i1 %and_ln2229, i3 -4, i3 0" [/home/paulrr2/Projects/ece527/babelsoc/fpga-network-stack/hls/rocev2/../ib_transport_protocol/ib_transport_protocol.cpp:2229]   --->   Operation 23 'select' 'select_ln2229' <Predicate = (state_load == 6 & tmp_6 & icmp_ln879_5)> <Delay = 0.51> <Core = "Sel">   --->   Core 26 'Sel' <Latency = 0> <II = 1> <Delay = 0.51> <FuncUnit> <Opcode : 'select'> <InPorts = 3> <OutPorts = 1>
ST_1 : Operation 24 [1/1] (0.85ns)   --->   "br label %._crit_edge25.i" [/home/paulrr2/Projects/ece527/babelsoc/fpga-network-stack/hls/rocev2/../ib_transport_protocol/ib_transport_protocol.cpp:2233]   --->   Operation 24 'br' <Predicate = (state_load == 6 & tmp_6 & icmp_ln879_5)> <Delay = 0.85>
ST_1 : Operation 25 [1/1] (0.00ns)   --->   "%tmp_5 = call i1 @_ssdm_op_NbReadReq.axis.i64P.i8P.i1P(i64* %s_axis_mem_read_data_V_data_V, i8* %s_axis_mem_read_data_V_keep_V, i1* %s_axis_mem_read_data_V_last_V, i32 1)" [/home/paulrr2/Projects/ece527/babelsoc/fpga-network-stack/hls/rocev2/../ib_transport_protocol/ib_transport_protocol.cpp:2194]   --->   Operation 25 'nbreadreq' 'tmp_5' <Predicate = (state_load == 3)> <Delay = 0.00> <Core = "AXI4Stream">   --->   Core 5 'AXI4Stream' <Latency = 0> <II = 1> <Delay = 1.00> <Adapter> <Opcode : >
ST_1 : Operation 26 [1/1] (1.20ns)   --->   "br i1 %tmp_5, label %._crit_edge19.i, label %._crit_edge2.i" [/home/paulrr2/Projects/ece527/babelsoc/fpga-network-stack/hls/rocev2/../ib_transport_protocol/ib_transport_protocol.cpp:2194]   --->   Operation 26 'br' <Predicate = (state_load == 3)> <Delay = 1.20>
ST_1 : Operation 27 [1/1] (0.00ns)   --->   "%empty_182 = call { i64, i8, i1 } @_ssdm_op_Read.axis.volatile.i64P.i8P.i1P(i64* %s_axis_mem_read_data_V_data_V, i8* %s_axis_mem_read_data_V_keep_V, i1* %s_axis_mem_read_data_V_last_V)" [/home/paulrr2/Projects/ece527/babelsoc/fpga-network-stack/hls/rocev2/../ib_transport_protocol/ib_transport_protocol.cpp:2196]   --->   Operation 27 'read' 'empty_182' <Predicate = (state_load == 3 & tmp_5)> <Delay = 0.00> <Core = "AXI4Stream">   --->   Core 5 'AXI4Stream' <Latency = 0> <II = 1> <Delay = 1.00> <Adapter> <Opcode : >
ST_1 : Operation 28 [1/1] (0.00ns)   --->   "%tmp_data_V_8 = extractvalue { i64, i8, i1 } %empty_182, 0" [/home/paulrr2/Projects/ece527/babelsoc/fpga-network-stack/hls/rocev2/../ib_transport_protocol/ib_transport_protocol.cpp:2196]   --->   Operation 28 'extractvalue' 'tmp_data_V_8' <Predicate = (state_load == 3 & tmp_5)> <Delay = 0.00>
ST_1 : Operation 29 [1/1] (0.00ns)   --->   "%tmp_keep_V_8 = extractvalue { i64, i8, i1 } %empty_182, 1" [/home/paulrr2/Projects/ece527/babelsoc/fpga-network-stack/hls/rocev2/../ib_transport_protocol/ib_transport_protocol.cpp:2196]   --->   Operation 29 'extractvalue' 'tmp_keep_V_8' <Predicate = (state_load == 3 & tmp_5)> <Delay = 0.00>
ST_1 : Operation 30 [1/1] (0.00ns)   --->   "%tmp_last_V_13 = extractvalue { i64, i8, i1 } %empty_182, 2" [/home/paulrr2/Projects/ece527/babelsoc/fpga-network-stack/hls/rocev2/../ib_transport_protocol/ib_transport_protocol.cpp:2196]   --->   Operation 30 'extractvalue' 'tmp_last_V_13' <Predicate = (state_load == 3 & tmp_5)> <Delay = 0.00>
ST_1 : Operation 31 [1/1] (1.35ns)   --->   "%add_ln700_4 = add i8 %t_V, 1" [/home/paulrr2/Projects/ece527/babelsoc/fpga-network-stack/hls/rocev2/../ib_transport_protocol/ib_transport_protocol.cpp:2197]   --->   Operation 31 'add' 'add_ln700_4' <Predicate = (state_load == 3 & tmp_5)> <Delay = 1.35> <Core = "AddSub">   --->   Core 14 'AddSub' <Latency = 0> <II = 1> <Delay = 1.47> <FuncUnit> <Opcode : 'add' 'sub'> <InPorts = 2> <OutPorts = 1>
ST_1 : Operation 32 [1/1] (0.86ns)   --->   "%icmp_ln879_4 = icmp eq i8 %add_ln700_4, -80" [/home/paulrr2/Projects/ece527/babelsoc/fpga-network-stack/hls/rocev2/../ib_transport_protocol/ib_transport_protocol.cpp:2202]   --->   Operation 32 'icmp' 'icmp_ln879_4' <Predicate = (state_load == 3 & tmp_5)> <Delay = 0.86> <Core = "Cmp">   --->   Core 25 'Cmp' <Latency = 0> <II = 1> <Delay = 1.24> <FuncUnit> <Opcode : 'icmp'> <InPorts = 2> <OutPorts = 1>
ST_1 : Operation 33 [1/1] (0.85ns)   --->   "br i1 %icmp_ln879_4, label %._crit_edge21.i, label %._crit_edge20.i" [/home/paulrr2/Projects/ece527/babelsoc/fpga-network-stack/hls/rocev2/../ib_transport_protocol/ib_transport_protocol.cpp:2202]   --->   Operation 33 'br' <Predicate = (state_load == 3 & tmp_5)> <Delay = 0.85>
ST_1 : Operation 34 [1/1] (1.47ns)   --->   "%add_ln701_3 = add i29 %info_words_V_load, -176" [/home/paulrr2/Projects/ece527/babelsoc/fpga-network-stack/hls/rocev2/../ib_transport_protocol/ib_transport_protocol.cpp:2206]   --->   Operation 34 'add' 'add_ln701_3' <Predicate = (state_load == 3 & tmp_5 & icmp_ln879_4)> <Delay = 1.47> <Core = "AddSub">   --->   Core 14 'AddSub' <Latency = 0> <II = 1> <Delay = 1.47> <FuncUnit> <Opcode : 'add' 'sub'> <InPorts = 2> <OutPorts = 1>
ST_1 : Operation 35 [1/1] (1.15ns)   --->   "store i29 %add_ln701_3, i29* @info_words_V, align 4" [/home/paulrr2/Projects/ece527/babelsoc/fpga-network-stack/hls/rocev2/../ib_transport_protocol/ib_transport_protocol.cpp:2206]   --->   Operation 35 'store' <Predicate = (state_load == 3 & tmp_5 & icmp_ln879_4)> <Delay = 1.15>
ST_1 : Operation 36 [1/1] (0.00ns) (grouped into LUT with out node and_ln2207)   --->   "%xor_ln2207 = xor i1 %info_type_load, true" [/home/paulrr2/Projects/ece527/babelsoc/fpga-network-stack/hls/rocev2/../ib_transport_protocol/ib_transport_protocol.cpp:2207]   --->   Operation 36 'xor' 'xor_ln2207' <Predicate = (state_load == 3 & tmp_5 & icmp_ln879_4)> <Delay = 0.00> <Core = "LogicGate">   --->   Core 27 'LogicGate' <Latency = 0> <II = 1> <Delay = 0.48> <FuncUnit> <Opcode : 'and' 'or' 'xor'> <InPorts = 2> <OutPorts = 1>
ST_1 : Operation 37 [1/1] (1.24ns)   --->   "%icmp_ln899 = icmp ult i29 %add_ln701_3, 177" [/home/paulrr2/Projects/ece527/babelsoc/fpga-network-stack/hls/rocev2/../ib_transport_protocol/ib_transport_protocol.cpp:2207]   --->   Operation 37 'icmp' 'icmp_ln899' <Predicate = (state_load == 3 & tmp_5 & icmp_ln879_4)> <Delay = 1.24> <Core = "Cmp">   --->   Core 25 'Cmp' <Latency = 0> <II = 1> <Delay = 1.24> <FuncUnit> <Opcode : 'icmp'> <InPorts = 2> <OutPorts = 1>
ST_1 : Operation 38 [1/1] (0.48ns) (out node of the LUT)   --->   "%and_ln2207 = and i1 %icmp_ln899, %xor_ln2207" [/home/paulrr2/Projects/ece527/babelsoc/fpga-network-stack/hls/rocev2/../ib_transport_protocol/ib_transport_protocol.cpp:2207]   --->   Operation 38 'and' 'and_ln2207' <Predicate = (state_load == 3 & tmp_5 & icmp_ln879_4)> <Delay = 0.48> <Core = "LogicGate">   --->   Core 27 'LogicGate' <Latency = 0> <II = 1> <Delay = 0.48> <FuncUnit> <Opcode : 'and' 'or' 'xor'> <InPorts = 2> <OutPorts = 1>
ST_1 : Operation 39 [1/1] (0.48ns)   --->   "%or_ln2207 = or i1 %tmp_last_V_13, %and_ln2207" [/home/paulrr2/Projects/ece527/babelsoc/fpga-network-stack/hls/rocev2/../ib_transport_protocol/ib_transport_protocol.cpp:2207]   --->   Operation 39 'or' 'or_ln2207' <Predicate = (state_load == 3 & tmp_5 & icmp_ln879_4)> <Delay = 0.48> <Core = "LogicGate">   --->   Core 27 'LogicGate' <Latency = 0> <II = 1> <Delay = 0.48> <FuncUnit> <Opcode : 'and' 'or' 'xor'> <InPorts = 2> <OutPorts = 1>
ST_1 : Operation 40 [1/1] (0.85ns)   --->   "br label %._crit_edge20.i" [/home/paulrr2/Projects/ece527/babelsoc/fpga-network-stack/hls/rocev2/../ib_transport_protocol/ib_transport_protocol.cpp:2211]   --->   Operation 40 'br' <Predicate = (state_load == 3 & tmp_5 & icmp_ln879_4)> <Delay = 0.85>
ST_1 : Operation 41 [1/1] (0.00ns)   --->   "%tmp_4 = call i1 @_ssdm_op_NbReadReq.axis.i64P.i8P.i1P(i64* %s_axis_mem_read_data_V_data_V, i8* %s_axis_mem_read_data_V_keep_V, i1* %s_axis_mem_read_data_V_last_V, i32 1)" [/home/paulrr2/Projects/ece527/babelsoc/fpga-network-stack/hls/rocev2/../ib_transport_protocol/ib_transport_protocol.cpp:2170]   --->   Operation 41 'nbreadreq' 'tmp_4' <Predicate = (state_load == 2)> <Delay = 0.00> <Core = "AXI4Stream">   --->   Core 5 'AXI4Stream' <Latency = 0> <II = 1> <Delay = 1.00> <Adapter> <Opcode : >
ST_1 : Operation 42 [1/1] (1.20ns)   --->   "br i1 %tmp_4, label %._crit_edge16.i, label %._crit_edge2.i" [/home/paulrr2/Projects/ece527/babelsoc/fpga-network-stack/hls/rocev2/../ib_transport_protocol/ib_transport_protocol.cpp:2170]   --->   Operation 42 'br' <Predicate = (state_load == 2)> <Delay = 1.20>
ST_1 : Operation 43 [1/1] (0.00ns)   --->   "%empty_181 = call { i64, i8, i1 } @_ssdm_op_Read.axis.volatile.i64P.i8P.i1P(i64* %s_axis_mem_read_data_V_data_V, i8* %s_axis_mem_read_data_V_keep_V, i1* %s_axis_mem_read_data_V_last_V)" [/home/paulrr2/Projects/ece527/babelsoc/fpga-network-stack/hls/rocev2/../ib_transport_protocol/ib_transport_protocol.cpp:2172]   --->   Operation 43 'read' 'empty_181' <Predicate = (state_load == 2 & tmp_4)> <Delay = 0.00> <Core = "AXI4Stream">   --->   Core 5 'AXI4Stream' <Latency = 0> <II = 1> <Delay = 1.00> <Adapter> <Opcode : >
ST_1 : Operation 44 [1/1] (0.00ns)   --->   "%tmp_data_V_7 = extractvalue { i64, i8, i1 } %empty_181, 0" [/home/paulrr2/Projects/ece527/babelsoc/fpga-network-stack/hls/rocev2/../ib_transport_protocol/ib_transport_protocol.cpp:2172]   --->   Operation 44 'extractvalue' 'tmp_data_V_7' <Predicate = (state_load == 2 & tmp_4)> <Delay = 0.00>
ST_1 : Operation 45 [1/1] (0.00ns)   --->   "%tmp_keep_V_7 = extractvalue { i64, i8, i1 } %empty_181, 1" [/home/paulrr2/Projects/ece527/babelsoc/fpga-network-stack/hls/rocev2/../ib_transport_protocol/ib_transport_protocol.cpp:2172]   --->   Operation 45 'extractvalue' 'tmp_keep_V_7' <Predicate = (state_load == 2 & tmp_4)> <Delay = 0.00>
ST_1 : Operation 46 [1/1] (0.00ns)   --->   "%tmp_last_V_12 = extractvalue { i64, i8, i1 } %empty_181, 2" [/home/paulrr2/Projects/ece527/babelsoc/fpga-network-stack/hls/rocev2/../ib_transport_protocol/ib_transport_protocol.cpp:2172]   --->   Operation 46 'extractvalue' 'tmp_last_V_12' <Predicate = (state_load == 2 & tmp_4)> <Delay = 0.00>
ST_1 : Operation 47 [1/1] (1.35ns)   --->   "%add_ln700_3 = add i8 %t_V, 1" [/home/paulrr2/Projects/ece527/babelsoc/fpga-network-stack/hls/rocev2/../ib_transport_protocol/ib_transport_protocol.cpp:2178]   --->   Operation 47 'add' 'add_ln700_3' <Predicate = (state_load == 2 & tmp_4)> <Delay = 1.35> <Core = "AddSub">   --->   Core 14 'AddSub' <Latency = 0> <II = 1> <Delay = 1.47> <FuncUnit> <Opcode : 'add' 'sub'> <InPorts = 2> <OutPorts = 1>
ST_1 : Operation 48 [1/1] (0.86ns)   --->   "%icmp_ln879_3 = icmp eq i8 %add_ln700_3, -80" [/home/paulrr2/Projects/ece527/babelsoc/fpga-network-stack/hls/rocev2/../ib_transport_protocol/ib_transport_protocol.cpp:2183]   --->   Operation 48 'icmp' 'icmp_ln879_3' <Predicate = (state_load == 2 & tmp_4)> <Delay = 0.86> <Core = "Cmp">   --->   Core 25 'Cmp' <Latency = 0> <II = 1> <Delay = 1.24> <FuncUnit> <Opcode : 'icmp'> <InPorts = 2> <OutPorts = 1>
ST_1 : Operation 49 [1/1] (0.85ns)   --->   "br i1 %icmp_ln879_3, label %8, label %._crit_edge17.i" [/home/paulrr2/Projects/ece527/babelsoc/fpga-network-stack/hls/rocev2/../ib_transport_protocol/ib_transport_protocol.cpp:2183]   --->   Operation 49 'br' <Predicate = (state_load == 2 & tmp_4)> <Delay = 0.85>
ST_1 : Operation 50 [1/1] (1.47ns)   --->   "%add_ln701_2 = add i29 %info_words_V_load, -176" [/home/paulrr2/Projects/ece527/babelsoc/fpga-network-stack/hls/rocev2/../ib_transport_protocol/ib_transport_protocol.cpp:2187]   --->   Operation 50 'add' 'add_ln701_2' <Predicate = (state_load == 2 & tmp_4 & icmp_ln879_3)> <Delay = 1.47> <Core = "AddSub">   --->   Core 14 'AddSub' <Latency = 0> <II = 1> <Delay = 1.47> <FuncUnit> <Opcode : 'add' 'sub'> <InPorts = 2> <OutPorts = 1>
ST_1 : Operation 51 [1/1] (1.15ns)   --->   "store i29 %add_ln701_2, i29* @info_words_V, align 4" [/home/paulrr2/Projects/ece527/babelsoc/fpga-network-stack/hls/rocev2/../ib_transport_protocol/ib_transport_protocol.cpp:2187]   --->   Operation 51 'store' <Predicate = (state_load == 2 & tmp_4 & icmp_ln879_3)> <Delay = 1.15>
ST_1 : Operation 52 [1/1] (0.85ns)   --->   "br label %._crit_edge17.i" [/home/paulrr2/Projects/ece527/babelsoc/fpga-network-stack/hls/rocev2/../ib_transport_protocol/ib_transport_protocol.cpp:2189]   --->   Operation 52 'br' <Predicate = (state_load == 2 & tmp_4 & icmp_ln879_3)> <Delay = 0.85>
ST_1 : Operation 53 [1/1] (0.00ns)   --->   "%tmp_3 = call i1 @_ssdm_op_NbReadReq.axis.i64P.i8P.i1P(i64* %s_axis_mem_read_data_V_data_V, i8* %s_axis_mem_read_data_V_keep_V, i1* %s_axis_mem_read_data_V_last_V, i32 1)" [/home/paulrr2/Projects/ece527/babelsoc/fpga-network-stack/hls/rocev2/../ib_transport_protocol/ib_transport_protocol.cpp:2147]   --->   Operation 53 'nbreadreq' 'tmp_3' <Predicate = (state_load == 1)> <Delay = 0.00> <Core = "AXI4Stream">   --->   Core 5 'AXI4Stream' <Latency = 0> <II = 1> <Delay = 1.00> <Adapter> <Opcode : >
ST_1 : Operation 54 [1/1] (1.20ns)   --->   "br i1 %tmp_3, label %._crit_edge12.i, label %._crit_edge2.i" [/home/paulrr2/Projects/ece527/babelsoc/fpga-network-stack/hls/rocev2/../ib_transport_protocol/ib_transport_protocol.cpp:2147]   --->   Operation 54 'br' <Predicate = (state_load == 1)> <Delay = 1.20>
ST_1 : Operation 55 [1/1] (0.00ns)   --->   "%empty_180 = call { i64, i8, i1 } @_ssdm_op_Read.axis.volatile.i64P.i8P.i1P(i64* %s_axis_mem_read_data_V_data_V, i8* %s_axis_mem_read_data_V_keep_V, i1* %s_axis_mem_read_data_V_last_V)" [/home/paulrr2/Projects/ece527/babelsoc/fpga-network-stack/hls/rocev2/../ib_transport_protocol/ib_transport_protocol.cpp:2149]   --->   Operation 55 'read' 'empty_180' <Predicate = (state_load == 1 & tmp_3)> <Delay = 0.00> <Core = "AXI4Stream">   --->   Core 5 'AXI4Stream' <Latency = 0> <II = 1> <Delay = 1.00> <Adapter> <Opcode : >
ST_1 : Operation 56 [1/1] (0.00ns)   --->   "%tmp_data_V_6 = extractvalue { i64, i8, i1 } %empty_180, 0" [/home/paulrr2/Projects/ece527/babelsoc/fpga-network-stack/hls/rocev2/../ib_transport_protocol/ib_transport_protocol.cpp:2149]   --->   Operation 56 'extractvalue' 'tmp_data_V_6' <Predicate = (state_load == 1 & tmp_3)> <Delay = 0.00>
ST_1 : Operation 57 [1/1] (0.00ns)   --->   "%tmp_keep_V_6 = extractvalue { i64, i8, i1 } %empty_180, 1" [/home/paulrr2/Projects/ece527/babelsoc/fpga-network-stack/hls/rocev2/../ib_transport_protocol/ib_transport_protocol.cpp:2149]   --->   Operation 57 'extractvalue' 'tmp_keep_V_6' <Predicate = (state_load == 1 & tmp_3)> <Delay = 0.00>
ST_1 : Operation 58 [1/1] (0.00ns)   --->   "%tmp_last_V = extractvalue { i64, i8, i1 } %empty_180, 2" [/home/paulrr2/Projects/ece527/babelsoc/fpga-network-stack/hls/rocev2/../ib_transport_protocol/ib_transport_protocol.cpp:2149]   --->   Operation 58 'extractvalue' 'tmp_last_V' <Predicate = (state_load == 1 & tmp_3)> <Delay = 0.00>
ST_1 : Operation 59 [1/1] (1.35ns)   --->   "%add_ln700_2 = add i8 %t_V, 1" [/home/paulrr2/Projects/ece527/babelsoc/fpga-network-stack/hls/rocev2/../ib_transport_protocol/ib_transport_protocol.cpp:2150]   --->   Operation 59 'add' 'add_ln700_2' <Predicate = (state_load == 1 & tmp_3)> <Delay = 1.35> <Core = "AddSub">   --->   Core 14 'AddSub' <Latency = 0> <II = 1> <Delay = 1.47> <FuncUnit> <Opcode : 'add' 'sub'> <InPorts = 2> <OutPorts = 1>
ST_1 : Operation 60 [1/1] (0.86ns)   --->   "%icmp_ln879_2 = icmp eq i8 %add_ln700_2, -80" [/home/paulrr2/Projects/ece527/babelsoc/fpga-network-stack/hls/rocev2/../ib_transport_protocol/ib_transport_protocol.cpp:2155]   --->   Operation 60 'icmp' 'icmp_ln879_2' <Predicate = (state_load == 1 & tmp_3)> <Delay = 0.86> <Core = "Cmp">   --->   Core 25 'Cmp' <Latency = 0> <II = 1> <Delay = 1.24> <FuncUnit> <Opcode : 'icmp'> <InPorts = 2> <OutPorts = 1>
ST_1 : Operation 61 [1/1] (0.85ns)   --->   "br i1 %icmp_ln879_2, label %._crit_edge14.i, label %._crit_edge13.i" [/home/paulrr2/Projects/ece527/babelsoc/fpga-network-stack/hls/rocev2/../ib_transport_protocol/ib_transport_protocol.cpp:2155]   --->   Operation 61 'br' <Predicate = (state_load == 1 & tmp_3)> <Delay = 0.85>
ST_1 : Operation 62 [1/1] (1.47ns)   --->   "%add_ln701_1 = add i29 %info_words_V_load, -176" [/home/paulrr2/Projects/ece527/babelsoc/fpga-network-stack/hls/rocev2/../ib_transport_protocol/ib_transport_protocol.cpp:2159]   --->   Operation 62 'add' 'add_ln701_1' <Predicate = (state_load == 1 & tmp_3 & icmp_ln879_2)> <Delay = 1.47> <Core = "AddSub">   --->   Core 14 'AddSub' <Latency = 0> <II = 1> <Delay = 1.47> <FuncUnit> <Opcode : 'add' 'sub'> <InPorts = 2> <OutPorts = 1>
ST_1 : Operation 63 [1/1] (1.15ns)   --->   "store i29 %add_ln701_1, i29* @info_words_V, align 4" [/home/paulrr2/Projects/ece527/babelsoc/fpga-network-stack/hls/rocev2/../ib_transport_protocol/ib_transport_protocol.cpp:2159]   --->   Operation 63 'store' <Predicate = (state_load == 1 & tmp_3 & icmp_ln879_2)> <Delay = 1.15>
ST_1 : Operation 64 [1/1] (1.24ns)   --->   "%icmp_ln895_1 = icmp ugt i29 %add_ln701_1, 176" [/home/paulrr2/Projects/ece527/babelsoc/fpga-network-stack/hls/rocev2/../ib_transport_protocol/ib_transport_protocol.cpp:2161]   --->   Operation 64 'icmp' 'icmp_ln895_1' <Predicate = (state_load == 1 & tmp_3 & icmp_ln879_2)> <Delay = 1.24> <Core = "Cmp">   --->   Core 25 'Cmp' <Latency = 0> <II = 1> <Delay = 1.24> <FuncUnit> <Opcode : 'icmp'> <InPorts = 2> <OutPorts = 1>
ST_1 : Operation 65 [1/1] (0.48ns)   --->   "%or_ln2161 = or i1 %tmp_last_V, %icmp_ln895_1" [/home/paulrr2/Projects/ece527/babelsoc/fpga-network-stack/hls/rocev2/../ib_transport_protocol/ib_transport_protocol.cpp:2161]   --->   Operation 65 'or' 'or_ln2161' <Predicate = (state_load == 1 & tmp_3 & icmp_ln879_2)> <Delay = 0.48> <Core = "LogicGate">   --->   Core 27 'LogicGate' <Latency = 0> <II = 1> <Delay = 0.48> <FuncUnit> <Opcode : 'and' 'or' 'xor'> <InPorts = 2> <OutPorts = 1>
ST_1 : Operation 66 [1/1] (0.51ns)   --->   "%select_ln2165 = select i1 %icmp_ln895_1, i3 3, i3 0" [/home/paulrr2/Projects/ece527/babelsoc/fpga-network-stack/hls/rocev2/../ib_transport_protocol/ib_transport_protocol.cpp:2165]   --->   Operation 66 'select' 'select_ln2165' <Predicate = (state_load == 1 & tmp_3 & icmp_ln879_2)> <Delay = 0.51> <Core = "Sel">   --->   Core 26 'Sel' <Latency = 0> <II = 1> <Delay = 0.51> <FuncUnit> <Opcode : 'select'> <InPorts = 3> <OutPorts = 1>
ST_1 : Operation 67 [1/1] (0.85ns)   --->   "br label %._crit_edge13.i" [/home/paulrr2/Projects/ece527/babelsoc/fpga-network-stack/hls/rocev2/../ib_transport_protocol/ib_transport_protocol.cpp:2165]   --->   Operation 67 'br' <Predicate = (state_load == 1 & tmp_3 & icmp_ln879_2)> <Delay = 0.85>
ST_1 : Operation 68 [1/1] (0.00ns)   --->   "%tmp_2 = call i1 @_ssdm_op_NbReadReq.axis.i64P.i8P.i1P(i64* %s_axis_tx_data_V_data_V, i8* %s_axis_tx_data_V_keep_V, i1* %s_axis_tx_data_V_last_V, i32 1)" [/home/paulrr2/Projects/ece527/babelsoc/fpga-network-stack/hls/rocev2/../ib_transport_protocol/ib_transport_protocol.cpp:2129]   --->   Operation 68 'nbreadreq' 'tmp_2' <Predicate = (state_load == 5)> <Delay = 0.00> <Core = "AXI4Stream">   --->   Core 5 'AXI4Stream' <Latency = 0> <II = 1> <Delay = 1.00> <Adapter> <Opcode : >
ST_1 : Operation 69 [1/1] (1.20ns)   --->   "br i1 %tmp_2, label %._crit_edge9.i, label %._crit_edge2.i" [/home/paulrr2/Projects/ece527/babelsoc/fpga-network-stack/hls/rocev2/../ib_transport_protocol/ib_transport_protocol.cpp:2129]   --->   Operation 69 'br' <Predicate = (state_load == 5)> <Delay = 1.20>
ST_1 : Operation 70 [1/1] (0.00ns)   --->   "%empty_179 = call { i64, i8, i1 } @_ssdm_op_Read.axis.volatile.i64P.i8P.i1P(i64* %s_axis_tx_data_V_data_V, i8* %s_axis_tx_data_V_keep_V, i1* %s_axis_tx_data_V_last_V)" [/home/paulrr2/Projects/ece527/babelsoc/fpga-network-stack/hls/rocev2/../ib_transport_protocol/ib_transport_protocol.cpp:2131]   --->   Operation 70 'read' 'empty_179' <Predicate = (state_load == 5 & tmp_2)> <Delay = 0.00> <Core = "AXI4Stream">   --->   Core 5 'AXI4Stream' <Latency = 0> <II = 1> <Delay = 1.00> <Adapter> <Opcode : >
ST_1 : Operation 71 [1/1] (0.00ns)   --->   "%tmp_data_V = extractvalue { i64, i8, i1 } %empty_179, 0" [/home/paulrr2/Projects/ece527/babelsoc/fpga-network-stack/hls/rocev2/../ib_transport_protocol/ib_transport_protocol.cpp:2131]   --->   Operation 71 'extractvalue' 'tmp_data_V' <Predicate = (state_load == 5 & tmp_2)> <Delay = 0.00>
ST_1 : Operation 72 [1/1] (0.00ns)   --->   "%tmp_keep_V = extractvalue { i64, i8, i1 } %empty_179, 1" [/home/paulrr2/Projects/ece527/babelsoc/fpga-network-stack/hls/rocev2/../ib_transport_protocol/ib_transport_protocol.cpp:2131]   --->   Operation 72 'extractvalue' 'tmp_keep_V' <Predicate = (state_load == 5 & tmp_2)> <Delay = 0.00>
ST_1 : Operation 73 [1/1] (0.00ns)   --->   "%tmp_last_V_11 = extractvalue { i64, i8, i1 } %empty_179, 2" [/home/paulrr2/Projects/ece527/babelsoc/fpga-network-stack/hls/rocev2/../ib_transport_protocol/ib_transport_protocol.cpp:2131]   --->   Operation 73 'extractvalue' 'tmp_last_V_11' <Predicate = (state_load == 5 & tmp_2)> <Delay = 0.00>
ST_1 : Operation 74 [1/1] (1.35ns)   --->   "%add_ln700_1 = add i8 %t_V, 1" [/home/paulrr2/Projects/ece527/babelsoc/fpga-network-stack/hls/rocev2/../ib_transport_protocol/ib_transport_protocol.cpp:2132]   --->   Operation 74 'add' 'add_ln700_1' <Predicate = (state_load == 5 & tmp_2)> <Delay = 1.35> <Core = "AddSub">   --->   Core 14 'AddSub' <Latency = 0> <II = 1> <Delay = 1.47> <FuncUnit> <Opcode : 'add' 'sub'> <InPorts = 2> <OutPorts = 1>
ST_1 : Operation 75 [1/1] (0.86ns)   --->   "%icmp_ln879_1 = icmp eq i8 %add_ln700_1, -80" [/home/paulrr2/Projects/ece527/babelsoc/fpga-network-stack/hls/rocev2/../ib_transport_protocol/ib_transport_protocol.cpp:2137]   --->   Operation 75 'icmp' 'icmp_ln879_1' <Predicate = (state_load == 5 & tmp_2)> <Delay = 0.86> <Core = "Cmp">   --->   Core 25 'Cmp' <Latency = 0> <II = 1> <Delay = 1.24> <FuncUnit> <Opcode : 'icmp'> <InPorts = 2> <OutPorts = 1>
ST_1 : Operation 76 [1/1] (0.37ns)   --->   "%select_ln2137 = select i1 %icmp_ln879_1, i8 0, i8 %add_ln700_1" [/home/paulrr2/Projects/ece527/babelsoc/fpga-network-stack/hls/rocev2/../ib_transport_protocol/ib_transport_protocol.cpp:2137]   --->   Operation 76 'select' 'select_ln2137' <Predicate = (state_load == 5 & tmp_2)> <Delay = 0.37> <Core = "Sel">   --->   Core 26 'Sel' <Latency = 0> <II = 1> <Delay = 0.51> <FuncUnit> <Opcode : 'select'> <InPorts = 3> <OutPorts = 1>
ST_1 : Operation 77 [1/1] (1.20ns)   --->   "br label %._crit_edge2.i" [/home/paulrr2/Projects/ece527/babelsoc/fpga-network-stack/hls/rocev2/../ib_transport_protocol/ib_transport_protocol.cpp:2144]   --->   Operation 77 'br' <Predicate = (state_load == 5 & tmp_2)> <Delay = 1.20>
ST_1 : Operation 78 [1/1] (0.00ns)   --->   "%tmp_1 = call i1 @_ssdm_op_NbReadReq.axis.i64P.i8P.i1P(i64* %s_axis_tx_data_V_data_V, i8* %s_axis_tx_data_V_keep_V, i1* %s_axis_tx_data_V_last_V, i32 1)" [/home/paulrr2/Projects/ece527/babelsoc/fpga-network-stack/hls/rocev2/../ib_transport_protocol/ib_transport_protocol.cpp:2106]   --->   Operation 78 'nbreadreq' 'tmp_1' <Predicate = (state_load == 4)> <Delay = 0.00> <Core = "AXI4Stream">   --->   Core 5 'AXI4Stream' <Latency = 0> <II = 1> <Delay = 1.00> <Adapter> <Opcode : >
ST_1 : Operation 79 [1/1] (1.20ns)   --->   "br i1 %tmp_1, label %._crit_edge5.i, label %._crit_edge2.i" [/home/paulrr2/Projects/ece527/babelsoc/fpga-network-stack/hls/rocev2/../ib_transport_protocol/ib_transport_protocol.cpp:2106]   --->   Operation 79 'br' <Predicate = (state_load == 4)> <Delay = 1.20>
ST_1 : Operation 80 [1/1] (0.00ns)   --->   "%empty_178 = call { i64, i8, i1 } @_ssdm_op_Read.axis.volatile.i64P.i8P.i1P(i64* %s_axis_tx_data_V_data_V, i8* %s_axis_tx_data_V_keep_V, i1* %s_axis_tx_data_V_last_V)" [/home/paulrr2/Projects/ece527/babelsoc/fpga-network-stack/hls/rocev2/../ib_transport_protocol/ib_transport_protocol.cpp:2108]   --->   Operation 80 'read' 'empty_178' <Predicate = (state_load == 4 & tmp_1)> <Delay = 0.00> <Core = "AXI4Stream">   --->   Core 5 'AXI4Stream' <Latency = 0> <II = 1> <Delay = 1.00> <Adapter> <Opcode : >
ST_1 : Operation 81 [1/1] (0.00ns)   --->   "%tmp_data_V_5 = extractvalue { i64, i8, i1 } %empty_178, 0" [/home/paulrr2/Projects/ece527/babelsoc/fpga-network-stack/hls/rocev2/../ib_transport_protocol/ib_transport_protocol.cpp:2108]   --->   Operation 81 'extractvalue' 'tmp_data_V_5' <Predicate = (state_load == 4 & tmp_1)> <Delay = 0.00>
ST_1 : Operation 82 [1/1] (0.00ns)   --->   "%tmp_keep_V_5 = extractvalue { i64, i8, i1 } %empty_178, 1" [/home/paulrr2/Projects/ece527/babelsoc/fpga-network-stack/hls/rocev2/../ib_transport_protocol/ib_transport_protocol.cpp:2108]   --->   Operation 82 'extractvalue' 'tmp_keep_V_5' <Predicate = (state_load == 4 & tmp_1)> <Delay = 0.00>
ST_1 : Operation 83 [1/1] (0.00ns)   --->   "%tmp_last_V_10 = extractvalue { i64, i8, i1 } %empty_178, 2" [/home/paulrr2/Projects/ece527/babelsoc/fpga-network-stack/hls/rocev2/../ib_transport_protocol/ib_transport_protocol.cpp:2108]   --->   Operation 83 'extractvalue' 'tmp_last_V_10' <Predicate = (state_load == 4 & tmp_1)> <Delay = 0.00>
ST_1 : Operation 84 [1/1] (1.35ns)   --->   "%add_ln700 = add i8 %t_V, 1" [/home/paulrr2/Projects/ece527/babelsoc/fpga-network-stack/hls/rocev2/../ib_transport_protocol/ib_transport_protocol.cpp:2109]   --->   Operation 84 'add' 'add_ln700' <Predicate = (state_load == 4 & tmp_1)> <Delay = 1.35> <Core = "AddSub">   --->   Core 14 'AddSub' <Latency = 0> <II = 1> <Delay = 1.47> <FuncUnit> <Opcode : 'add' 'sub'> <InPorts = 2> <OutPorts = 1>
ST_1 : Operation 85 [1/1] (0.86ns)   --->   "%icmp_ln879 = icmp eq i8 %add_ln700, -80" [/home/paulrr2/Projects/ece527/babelsoc/fpga-network-stack/hls/rocev2/../ib_transport_protocol/ib_transport_protocol.cpp:2114]   --->   Operation 85 'icmp' 'icmp_ln879' <Predicate = (state_load == 4 & tmp_1)> <Delay = 0.86> <Core = "Cmp">   --->   Core 25 'Cmp' <Latency = 0> <II = 1> <Delay = 1.24> <FuncUnit> <Opcode : 'icmp'> <InPorts = 2> <OutPorts = 1>
ST_1 : Operation 86 [1/1] (0.85ns)   --->   "br i1 %icmp_ln879, label %._crit_edge7.i, label %._crit_edge6.i" [/home/paulrr2/Projects/ece527/babelsoc/fpga-network-stack/hls/rocev2/../ib_transport_protocol/ib_transport_protocol.cpp:2114]   --->   Operation 86 'br' <Predicate = (state_load == 4 & tmp_1)> <Delay = 0.85>
ST_1 : Operation 87 [1/1] (1.47ns)   --->   "%add_ln701 = add i29 %info_words_V_load, -176" [/home/paulrr2/Projects/ece527/babelsoc/fpga-network-stack/hls/rocev2/../ib_transport_protocol/ib_transport_protocol.cpp:2118]   --->   Operation 87 'add' 'add_ln701' <Predicate = (state_load == 4 & tmp_1 & icmp_ln879)> <Delay = 1.47> <Core = "AddSub">   --->   Core 14 'AddSub' <Latency = 0> <II = 1> <Delay = 1.47> <FuncUnit> <Opcode : 'add' 'sub'> <InPorts = 2> <OutPorts = 1>
ST_1 : Operation 88 [1/1] (1.15ns)   --->   "store i29 %add_ln701, i29* @info_words_V, align 4" [/home/paulrr2/Projects/ece527/babelsoc/fpga-network-stack/hls/rocev2/../ib_transport_protocol/ib_transport_protocol.cpp:2118]   --->   Operation 88 'store' <Predicate = (state_load == 4 & tmp_1 & icmp_ln879)> <Delay = 1.15>
ST_1 : Operation 89 [1/1] (1.24ns)   --->   "%icmp_ln895 = icmp ugt i29 %add_ln701, 176" [/home/paulrr2/Projects/ece527/babelsoc/fpga-network-stack/hls/rocev2/../ib_transport_protocol/ib_transport_protocol.cpp:2120]   --->   Operation 89 'icmp' 'icmp_ln895' <Predicate = (state_load == 4 & tmp_1 & icmp_ln879)> <Delay = 1.24> <Core = "Cmp">   --->   Core 25 'Cmp' <Latency = 0> <II = 1> <Delay = 1.24> <FuncUnit> <Opcode : 'icmp'> <InPorts = 2> <OutPorts = 1>
ST_1 : Operation 90 [1/1] (0.48ns)   --->   "%or_ln2120 = or i1 %tmp_last_V_10, %icmp_ln895" [/home/paulrr2/Projects/ece527/babelsoc/fpga-network-stack/hls/rocev2/../ib_transport_protocol/ib_transport_protocol.cpp:2120]   --->   Operation 90 'or' 'or_ln2120' <Predicate = (state_load == 4 & tmp_1 & icmp_ln879)> <Delay = 0.48> <Core = "LogicGate">   --->   Core 27 'LogicGate' <Latency = 0> <II = 1> <Delay = 0.48> <FuncUnit> <Opcode : 'and' 'or' 'xor'> <InPorts = 2> <OutPorts = 1>
ST_1 : Operation 91 [1/1] (0.49ns)   --->   "%select_ln2120 = select i1 %icmp_ln895, i2 -2, i2 0" [/home/paulrr2/Projects/ece527/babelsoc/fpga-network-stack/hls/rocev2/../ib_transport_protocol/ib_transport_protocol.cpp:2120]   --->   Operation 91 'select' 'select_ln2120' <Predicate = (state_load == 4 & tmp_1 & icmp_ln879)> <Delay = 0.49> <Core = "Sel">   --->   Core 26 'Sel' <Latency = 0> <II = 1> <Delay = 0.51> <FuncUnit> <Opcode : 'select'> <InPorts = 3> <OutPorts = 1>
ST_1 : Operation 92 [1/1] (0.85ns)   --->   "br label %._crit_edge6.i" [/home/paulrr2/Projects/ece527/babelsoc/fpga-network-stack/hls/rocev2/../ib_transport_protocol/ib_transport_protocol.cpp:2124]   --->   Operation 92 'br' <Predicate = (state_load == 4 & tmp_1 & icmp_ln879)> <Delay = 0.85>
ST_1 : Operation 93 [1/1] (0.00ns)   --->   "%tmp = call i1 @_ssdm_op_NbReadReq.ap_fifo.i1P.i1P.i29P(i1* @tx_pkgInfoFifo_V_typ, i1* @tx_pkgInfoFifo_V_sou, i29* @tx_pkgInfoFifo_V_wor, i32 1)" [/home/paulrr2/Projects/ece527/babelsoc/fpga-network-stack/hls/rocev2/../ib_transport_protocol/ib_transport_protocol.cpp:2077]   --->   Operation 93 'nbreadreq' 'tmp' <Predicate = (state_load == 0)> <Delay = 0.00> <Core = "FIFO">   --->   Core 32 'FIFO' <Latency = 0> <II = 1> <Delay = 2.39> <Storage> <Opcode : 'read' 'write' 'nbread' 'nbwrite'> <Ports = 0> <Width = 29> <Depth = 2> <FIFO>
ST_1 : Operation 94 [1/1] (1.20ns)   --->   "br i1 %tmp, label %1, label %._crit_edge2.i" [/home/paulrr2/Projects/ece527/babelsoc/fpga-network-stack/hls/rocev2/../ib_transport_protocol/ib_transport_protocol.cpp:2077]   --->   Operation 94 'br' <Predicate = (state_load == 0)> <Delay = 1.20>
ST_1 : Operation 95 [1/1] (2.39ns)   --->   "%empty = call { i1, i1, i29 } @_ssdm_op_Read.ap_fifo.volatile.i1P.i1P.i29P(i1* @tx_pkgInfoFifo_V_typ, i1* @tx_pkgInfoFifo_V_sou, i29* @tx_pkgInfoFifo_V_wor)" [/home/paulrr2/Projects/ece527/babelsoc/fpga-network-stack/hls/rocev2/../ib_transport_protocol/ib_transport_protocol.cpp:2079]   --->   Operation 95 'read' 'empty' <Predicate = (state_load == 0 & tmp)> <Delay = 2.39> <Core = "FIFO">   --->   Core 32 'FIFO' <Latency = 0> <II = 1> <Delay = 2.39> <Storage> <Opcode : 'read' 'write' 'nbread' 'nbwrite'> <Ports = 0> <Width = 29> <Depth = 2> <FIFO>
ST_1 : Operation 96 [1/1] (0.00ns)   --->   "%tmp_type = extractvalue { i1, i1, i29 } %empty, 0" [/home/paulrr2/Projects/ece527/babelsoc/fpga-network-stack/hls/rocev2/../ib_transport_protocol/ib_transport_protocol.cpp:2079]   --->   Operation 96 'extractvalue' 'tmp_type' <Predicate = (state_load == 0 & tmp)> <Delay = 0.00>
ST_1 : Operation 97 [1/1] (0.00ns)   --->   "%tmp_source = extractvalue { i1, i1, i29 } %empty, 1" [/home/paulrr2/Projects/ece527/babelsoc/fpga-network-stack/hls/rocev2/../ib_transport_protocol/ib_transport_protocol.cpp:2079]   --->   Operation 97 'extractvalue' 'tmp_source' <Predicate = (state_load == 0 & tmp)> <Delay = 0.00>
ST_1 : Operation 98 [1/1] (0.00ns)   --->   "%tmp_words_V = extractvalue { i1, i1, i29 } %empty, 2" [/home/paulrr2/Projects/ece527/babelsoc/fpga-network-stack/hls/rocev2/../ib_transport_protocol/ib_transport_protocol.cpp:2079]   --->   Operation 98 'extractvalue' 'tmp_words_V' <Predicate = (state_load == 0 & tmp)> <Delay = 0.00>
ST_1 : Operation 99 [1/1] (0.00ns)   --->   "store i1 %tmp_type, i1* @info_type, align 4" [/home/paulrr2/Projects/ece527/babelsoc/fpga-network-stack/hls/rocev2/../ib_transport_protocol/ib_transport_protocol.hpp:98->/home/paulrr2/Projects/ece527/babelsoc/fpga-network-stack/hls/rocev2/../ib_transport_protocol/ib_transport_protocol.cpp:2079]   --->   Operation 99 'store' <Predicate = (state_load == 0 & tmp)> <Delay = 0.00>
ST_1 : Operation 100 [1/1] (1.15ns)   --->   "store i29 %tmp_words_V, i29* @info_words_V, align 4" [/home/paulrr2/Projects/ece527/babelsoc/fpga-network-stack/hls/rocev2/../ib_transport_protocol/ib_transport_protocol.hpp:98->/home/paulrr2/Projects/ece527/babelsoc/fpga-network-stack/hls/rocev2/../ib_transport_protocol/ib_transport_protocol.cpp:2079]   --->   Operation 100 'store' <Predicate = (state_load == 0 & tmp)> <Delay = 1.15>
ST_1 : Operation 101 [1/1] (0.00ns)   --->   "br i1 %tmp_source, label %3, label %2" [/home/paulrr2/Projects/ece527/babelsoc/fpga-network-stack/hls/rocev2/../ib_transport_protocol/ib_transport_protocol.cpp:2081]   --->   Operation 101 'br' <Predicate = (state_load == 0 & tmp)> <Delay = 0.00>
ST_1 : Operation 102 [1/1] (0.51ns)   --->   "%select_ln2083 = select i1 %tmp_type, i3 2, i3 1" [/home/paulrr2/Projects/ece527/babelsoc/fpga-network-stack/hls/rocev2/../ib_transport_protocol/ib_transport_protocol.cpp:2083]   --->   Operation 102 'select' 'select_ln2083' <Predicate = (state_load == 0 & tmp & !tmp_source)> <Delay = 0.51> <Core = "Sel">   --->   Core 26 'Sel' <Latency = 0> <II = 1> <Delay = 0.51> <FuncUnit> <Opcode : 'select'> <InPorts = 3> <OutPorts = 1>
ST_1 : Operation 103 [1/1] (1.20ns)   --->   "br label %._crit_edge2.i" [/home/paulrr2/Projects/ece527/babelsoc/fpga-network-stack/hls/rocev2/../ib_transport_protocol/ib_transport_protocol.cpp:2091]   --->   Operation 103 'br' <Predicate = (state_load == 0 & tmp & !tmp_source)> <Delay = 1.20>
ST_1 : Operation 104 [1/1] (0.51ns)   --->   "%select_ln2094 = select i1 %tmp_type, i3 -3, i3 -4" [/home/paulrr2/Projects/ece527/babelsoc/fpga-network-stack/hls/rocev2/../ib_transport_protocol/ib_transport_protocol.cpp:2094]   --->   Operation 104 'select' 'select_ln2094' <Predicate = (state_load == 0 & tmp & tmp_source)> <Delay = 0.51> <Core = "Sel">   --->   Core 26 'Sel' <Latency = 0> <II = 1> <Delay = 0.51> <FuncUnit> <Opcode : 'select'> <InPorts = 3> <OutPorts = 1>
ST_1 : Operation 105 [1/1] (1.20ns)   --->   "br label %._crit_edge2.i"   --->   Operation 105 'br' <Predicate = (state_load == 0 & tmp & tmp_source)> <Delay = 1.20>

State 2 <SV = 1> <Delay = 2.87>
ST_2 : Operation 106 [1/1] (0.00ns)   --->   "call void (...)* @_ssdm_op_SpecInterface(i1* @tx_pkgInfoFifo_V_sou, [8 x i8]* @ap_fifo_str, i32 0, i32 0, [1 x i8]* @p_str, i32 0, i32 0, [1 x i8]* @p_str, [1 x i8]* @p_str, [1 x i8]* @p_str, i32 2, i32 2, i32 16, i32 16, [1 x i8]* @p_str, [1 x i8]* @p_str)"   --->   Operation 106 'specinterface' <Predicate = true> <Delay = 0.00>
ST_2 : Operation 107 [1/1] (0.00ns)   --->   "call void (...)* @_ssdm_op_SpecInterface(i1* @tx_pkgInfoFifo_V_typ, [8 x i8]* @ap_fifo_str, i32 0, i32 0, [1 x i8]* @p_str, i32 0, i32 0, [1 x i8]* @p_str, [1 x i8]* @p_str, [1 x i8]* @p_str, i32 2, i32 2, i32 16, i32 16, [1 x i8]* @p_str, [1 x i8]* @p_str)"   --->   Operation 107 'specinterface' <Predicate = true> <Delay = 0.00>
ST_2 : Operation 108 [1/1] (0.00ns)   --->   "call void (...)* @_ssdm_op_SpecInterface(i29* @tx_pkgInfoFifo_V_wor, [8 x i8]* @ap_fifo_str, i32 0, i32 0, [1 x i8]* @p_str, i32 0, i32 0, [1 x i8]* @p_str, [1 x i8]* @p_str, [1 x i8]* @p_str, i32 2, i32 2, i32 16, i32 16, [1 x i8]* @p_str, [1 x i8]* @p_str)"   --->   Operation 108 'specinterface' <Predicate = true> <Delay = 0.00>
ST_2 : Operation 109 [1/1] (0.00ns)   --->   "call void (...)* @_ssdm_op_SpecInterface(i64* @tx_rawPayFifo_V_data, [8 x i8]* @ap_fifo_str, i32 0, i32 0, [1 x i8]* @p_str, i32 0, i32 0, [1 x i8]* @p_str, [1 x i8]* @p_str, [1 x i8]* @p_str, i32 2, i32 2, i32 16, i32 16, [1 x i8]* @p_str, [1 x i8]* @p_str)"   --->   Operation 109 'specinterface' <Predicate = true> <Delay = 0.00>
ST_2 : Operation 110 [1/1] (0.00ns)   --->   "call void (...)* @_ssdm_op_SpecInterface(i8* @tx_rawPayFifo_V_keep, [8 x i8]* @ap_fifo_str, i32 0, i32 0, [1 x i8]* @p_str, i32 0, i32 0, [1 x i8]* @p_str, [1 x i8]* @p_str, [1 x i8]* @p_str, i32 2, i32 2, i32 16, i32 16, [1 x i8]* @p_str, [1 x i8]* @p_str)"   --->   Operation 110 'specinterface' <Predicate = true> <Delay = 0.00>
ST_2 : Operation 111 [1/1] (0.00ns)   --->   "call void (...)* @_ssdm_op_SpecInterface(i1* @tx_rawPayFifo_V_last, [8 x i8]* @ap_fifo_str, i32 0, i32 0, [1 x i8]* @p_str, i32 0, i32 0, [1 x i8]* @p_str, [1 x i8]* @p_str, [1 x i8]* @p_str, i32 2, i32 2, i32 16, i32 16, [1 x i8]* @p_str, [1 x i8]* @p_str)"   --->   Operation 111 'specinterface' <Predicate = true> <Delay = 0.00>
ST_2 : Operation 112 [1/1] (0.00ns)   --->   "call void (...)* @_ssdm_op_SpecInterface(i64* @tx_rethMerge2rethShi_3, [8 x i8]* @ap_fifo_str, i32 0, i32 0, [1 x i8]* @p_str, i32 0, i32 0, [1 x i8]* @p_str, [1 x i8]* @p_str, [1 x i8]* @p_str, i32 2, i32 2, i32 16, i32 16, [1 x i8]* @p_str, [1 x i8]* @p_str)"   --->   Operation 112 'specinterface' <Predicate = true> <Delay = 0.00>
ST_2 : Operation 113 [1/1] (0.00ns)   --->   "call void (...)* @_ssdm_op_SpecInterface(i8* @tx_rethMerge2rethShi_5, [8 x i8]* @ap_fifo_str, i32 0, i32 0, [1 x i8]* @p_str, i32 0, i32 0, [1 x i8]* @p_str, [1 x i8]* @p_str, [1 x i8]* @p_str, i32 2, i32 2, i32 16, i32 16, [1 x i8]* @p_str, [1 x i8]* @p_str)"   --->   Operation 113 'specinterface' <Predicate = true> <Delay = 0.00>
ST_2 : Operation 114 [1/1] (0.00ns)   --->   "call void (...)* @_ssdm_op_SpecInterface(i1* @tx_rethMerge2rethShi_6, [8 x i8]* @ap_fifo_str, i32 0, i32 0, [1 x i8]* @p_str, i32 0, i32 0, [1 x i8]* @p_str, [1 x i8]* @p_str, [1 x i8]* @p_str, i32 2, i32 2, i32 16, i32 16, [1 x i8]* @p_str, [1 x i8]* @p_str)"   --->   Operation 114 'specinterface' <Predicate = true> <Delay = 0.00>
ST_2 : Operation 115 [1/1] (0.00ns)   --->   "call void (...)* @_ssdm_op_SpecInterface(i64* @tx_split2aethShift_V_1, [8 x i8]* @ap_fifo_str, i32 0, i32 0, [1 x i8]* @p_str, i32 0, i32 0, [1 x i8]* @p_str, [1 x i8]* @p_str, [1 x i8]* @p_str, i32 2, i32 2, i32 16, i32 16, [1 x i8]* @p_str, [1 x i8]* @p_str)"   --->   Operation 115 'specinterface' <Predicate = true> <Delay = 0.00>
ST_2 : Operation 116 [1/1] (0.00ns)   --->   "call void (...)* @_ssdm_op_SpecInterface(i8* @tx_split2aethShift_V_2, [8 x i8]* @ap_fifo_str, i32 0, i32 0, [1 x i8]* @p_str, i32 0, i32 0, [1 x i8]* @p_str, [1 x i8]* @p_str, [1 x i8]* @p_str, i32 2, i32 2, i32 16, i32 16, [1 x i8]* @p_str, [1 x i8]* @p_str)"   --->   Operation 116 'specinterface' <Predicate = true> <Delay = 0.00>
ST_2 : Operation 117 [1/1] (0.00ns)   --->   "call void (...)* @_ssdm_op_SpecInterface(i1* @tx_split2aethShift_V, [8 x i8]* @ap_fifo_str, i32 0, i32 0, [1 x i8]* @p_str, i32 0, i32 0, [1 x i8]* @p_str, [1 x i8]* @p_str, [1 x i8]* @p_str, i32 2, i32 2, i32 16, i32 16, [1 x i8]* @p_str, [1 x i8]* @p_str)"   --->   Operation 117 'specinterface' <Predicate = true> <Delay = 0.00>
ST_2 : Operation 118 [1/1] (0.00ns)   --->   "call void (...)* @_ssdm_op_SpecInterface(i64* %s_axis_mem_read_data_V_data_V, i8* %s_axis_mem_read_data_V_keep_V, i1* %s_axis_mem_read_data_V_last_V, [5 x i8]* @p_str3, i32 1, i32 1, [5 x i8]* @p_str4, i32 0, i32 0, [1 x i8]* @p_str, [1 x i8]* @p_str, [1 x i8]* @p_str, i32 0, i32 0, i32 0, i32 0, [1 x i8]* @p_str, [1 x i8]* @p_str) nounwind"   --->   Operation 118 'specinterface' <Predicate = true> <Delay = 0.00>
ST_2 : Operation 119 [1/1] (0.00ns)   --->   "call void (...)* @_ssdm_op_SpecInterface(i64* %s_axis_tx_data_V_data_V, i8* %s_axis_tx_data_V_keep_V, i1* %s_axis_tx_data_V_last_V, [5 x i8]* @p_str3, i32 1, i32 1, [5 x i8]* @p_str4, i32 0, i32 0, [1 x i8]* @p_str, [1 x i8]* @p_str, [1 x i8]* @p_str, i32 0, i32 0, i32 0, i32 0, [1 x i8]* @p_str, [1 x i8]* @p_str) nounwind"   --->   Operation 119 'specinterface' <Predicate = true> <Delay = 0.00>
ST_2 : Operation 120 [1/1] (0.00ns)   --->   "call void (...)* @_ssdm_op_SpecPipeline(i32 1, i32 1, i32 1, i32 0, [1 x i8]* @p_str91) nounwind" [/home/paulrr2/Projects/ece527/babelsoc/fpga-network-stack/hls/rocev2/../ib_transport_protocol/ib_transport_protocol.cpp:2065]   --->   Operation 120 'specpipeline' <Predicate = true> <Delay = 0.00>
ST_2 : Operation 121 [1/1] (0.00ns)   --->   "%state_flag_20_i = phi i1 [ %or_ln2229, %._crit_edge26.i ], [ %tmp_last_V_14, %._crit_edge24.i ]"   --->   Operation 121 'phi' 'state_flag_20_i' <Predicate = (state_load == 6 & tmp_6)> <Delay = 0.00>
ST_2 : Operation 122 [1/1] (0.00ns)   --->   "%state_new_20_i = phi i3 [ %select_ln2229, %._crit_edge26.i ], [ 0, %._crit_edge24.i ]" [/home/paulrr2/Projects/ece527/babelsoc/fpga-network-stack/hls/rocev2/../ib_transport_protocol/ib_transport_protocol.cpp:2229]   --->   Operation 122 'phi' 'state_new_20_i' <Predicate = (state_load == 6 & tmp_6)> <Delay = 0.00>
ST_2 : Operation 123 [1/1] (0.00ns)   --->   "%wordCounter_V_new_11 = phi i8 [ 0, %._crit_edge26.i ], [ %add_ln700_5, %._crit_edge24.i ]" [/home/paulrr2/Projects/ece527/babelsoc/fpga-network-stack/hls/rocev2/../ib_transport_protocol/ib_transport_protocol.cpp:2219]   --->   Operation 123 'phi' 'wordCounter_V_new_11' <Predicate = (state_load == 6 & tmp_6)> <Delay = 0.00>
ST_2 : Operation 124 [1/1] (0.00ns)   --->   "%tmp_last_V_9 = phi i1 [ true, %._crit_edge26.i ], [ %tmp_last_V_14, %._crit_edge24.i ]"   --->   Operation 124 'phi' 'tmp_last_V_9' <Predicate = (state_load == 6 & tmp_6)> <Delay = 0.00>
ST_2 : Operation 125 [1/1] (2.39ns)   --->   "call void @_ssdm_op_Write.ap_fifo.volatile.i64P.i8P.i1P(i64* @tx_rawPayFifo_V_data, i8* @tx_rawPayFifo_V_keep, i1* @tx_rawPayFifo_V_last, i64 %tmp_data_V_9, i8 %tmp_keep_V_9, i1 %tmp_last_V_9)" [/home/paulrr2/Projects/ece527/babelsoc/fpga-network-stack/hls/rocev2/../ib_transport_protocol/ib_transport_protocol.cpp:2234]   --->   Operation 125 'write' <Predicate = (state_load == 6 & tmp_6)> <Delay = 2.39> <Core = "FIFO">   --->   Core 32 'FIFO' <Latency = 0> <II = 1> <Delay = 2.39> <Storage> <Opcode : 'read' 'write' 'nbread' 'nbwrite'> <Ports = 0> <Width = 29> <Depth = 2> <FIFO>
ST_2 : Operation 126 [1/1] (1.20ns)   --->   "br label %._crit_edge2.i" [/home/paulrr2/Projects/ece527/babelsoc/fpga-network-stack/hls/rocev2/../ib_transport_protocol/ib_transport_protocol.cpp:2235]   --->   Operation 126 'br' <Predicate = (state_load == 6 & tmp_6)> <Delay = 1.20>
ST_2 : Operation 127 [1/1] (0.00ns)   --->   "%state_flag_16_i = phi i1 [ %or_ln2207, %._crit_edge21.i ], [ %tmp_last_V_13, %._crit_edge19.i ]"   --->   Operation 127 'phi' 'state_flag_16_i' <Predicate = (state_load == 3 & tmp_5)> <Delay = 0.00>
ST_2 : Operation 128 [1/1] (0.00ns)   --->   "%state_new_16_i = phi i1 [ %and_ln2207, %._crit_edge21.i ], [ false, %._crit_edge19.i ]" [/home/paulrr2/Projects/ece527/babelsoc/fpga-network-stack/hls/rocev2/../ib_transport_protocol/ib_transport_protocol.cpp:2207]   --->   Operation 128 'phi' 'state_new_16_i' <Predicate = (state_load == 3 & tmp_5)> <Delay = 0.00>
ST_2 : Operation 129 [1/1] (0.00ns)   --->   "%wordCounter_V_new_9_s = phi i8 [ 0, %._crit_edge21.i ], [ %add_ln700_4, %._crit_edge19.i ]" [/home/paulrr2/Projects/ece527/babelsoc/fpga-network-stack/hls/rocev2/../ib_transport_protocol/ib_transport_protocol.cpp:2197]   --->   Operation 129 'phi' 'wordCounter_V_new_9_s' <Predicate = (state_load == 3 & tmp_5)> <Delay = 0.00>
ST_2 : Operation 130 [1/1] (0.00ns)   --->   "%tmp_last_V_8 = phi i1 [ true, %._crit_edge21.i ], [ %tmp_last_V_13, %._crit_edge19.i ]"   --->   Operation 130 'phi' 'tmp_last_V_8' <Predicate = (state_load == 3 & tmp_5)> <Delay = 0.00>
ST_2 : Operation 131 [1/1] (0.00ns)   --->   "%zext_ln176 = zext i1 %state_new_16_i to i3" [/home/paulrr2/Projects/ece527/babelsoc/fpga-network-stack/hls/rocev2/../ib_transport_protocol/ib_transport_protocol.cpp:2212]   --->   Operation 131 'zext' 'zext_ln176' <Predicate = (state_load == 3 & tmp_5)> <Delay = 0.00>
ST_2 : Operation 132 [1/1] (2.39ns)   --->   "call void @_ssdm_op_Write.ap_fifo.volatile.i64P.i8P.i1P(i64* @tx_rawPayFifo_V_data, i8* @tx_rawPayFifo_V_keep, i1* @tx_rawPayFifo_V_last, i64 %tmp_data_V_8, i8 %tmp_keep_V_8, i1 %tmp_last_V_8)" [/home/paulrr2/Projects/ece527/babelsoc/fpga-network-stack/hls/rocev2/../ib_transport_protocol/ib_transport_protocol.cpp:2212]   --->   Operation 132 'write' <Predicate = (state_load == 3 & tmp_5)> <Delay = 2.39> <Core = "FIFO">   --->   Core 32 'FIFO' <Latency = 0> <II = 1> <Delay = 2.39> <Storage> <Opcode : 'read' 'write' 'nbread' 'nbwrite'> <Ports = 0> <Width = 29> <Depth = 2> <FIFO>
ST_2 : Operation 133 [1/1] (1.20ns)   --->   "br label %._crit_edge2.i" [/home/paulrr2/Projects/ece527/babelsoc/fpga-network-stack/hls/rocev2/../ib_transport_protocol/ib_transport_protocol.cpp:2213]   --->   Operation 133 'br' <Predicate = (state_load == 3 & tmp_5)> <Delay = 1.20>
ST_2 : Operation 134 [1/1] (0.00ns)   --->   "%tmp_last_V_7 = phi i1 [ true, %8 ], [ %tmp_last_V_12, %._crit_edge16.i ]"   --->   Operation 134 'phi' 'tmp_last_V_7' <Predicate = (state_load == 2 & tmp_4)> <Delay = 0.00>
ST_2 : Operation 135 [1/1] (0.00ns)   --->   "%phi_ln176_1 = phi i3 [ 3, %8 ], [ 0, %._crit_edge16.i ]" [/home/paulrr2/Projects/ece527/babelsoc/fpga-network-stack/hls/rocev2/../ib_transport_protocol/ib_transport_protocol.cpp:2190]   --->   Operation 135 'phi' 'phi_ln176_1' <Predicate = (state_load == 2 & tmp_4)> <Delay = 0.00>
ST_2 : Operation 136 [1/1] (0.00ns)   --->   "%wordCounter_V_new_7_s = phi i8 [ 0, %8 ], [ %add_ln700_3, %._crit_edge16.i ]" [/home/paulrr2/Projects/ece527/babelsoc/fpga-network-stack/hls/rocev2/../ib_transport_protocol/ib_transport_protocol.cpp:2178]   --->   Operation 136 'phi' 'wordCounter_V_new_7_s' <Predicate = (state_load == 2 & tmp_4)> <Delay = 0.00>
ST_2 : Operation 137 [1/1] (2.39ns)   --->   "call void @_ssdm_op_Write.ap_fifo.volatile.i64P.i8P.i1P(i64* @tx_rethMerge2rethShi_3, i8* @tx_rethMerge2rethShi_5, i1* @tx_rethMerge2rethShi_6, i64 %tmp_data_V_7, i8 %tmp_keep_V_7, i1 %tmp_last_V_7)" [/home/paulrr2/Projects/ece527/babelsoc/fpga-network-stack/hls/rocev2/../ib_transport_protocol/ib_transport_protocol.cpp:2190]   --->   Operation 137 'write' <Predicate = (state_load == 2 & tmp_4)> <Delay = 2.39> <Core = "FIFO">   --->   Core 32 'FIFO' <Latency = 0> <II = 1> <Delay = 2.39> <Storage> <Opcode : 'read' 'write' 'nbread' 'nbwrite'> <Ports = 0> <Width = 29> <Depth = 2> <FIFO>
ST_2 : Operation 138 [1/1] (1.20ns)   --->   "br label %._crit_edge2.i" [/home/paulrr2/Projects/ece527/babelsoc/fpga-network-stack/hls/rocev2/../ib_transport_protocol/ib_transport_protocol.cpp:2191]   --->   Operation 138 'br' <Predicate = (state_load == 2 & tmp_4)> <Delay = 1.20>
ST_2 : Operation 139 [1/1] (0.00ns)   --->   "%state_flag_9_i = phi i1 [ %or_ln2161, %._crit_edge14.i ], [ %tmp_last_V, %._crit_edge12.i ]"   --->   Operation 139 'phi' 'state_flag_9_i' <Predicate = (state_load == 1 & tmp_3)> <Delay = 0.00>
ST_2 : Operation 140 [1/1] (0.00ns)   --->   "%phi_ln176 = phi i3 [ %select_ln2165, %._crit_edge14.i ], [ 0, %._crit_edge12.i ]" [/home/paulrr2/Projects/ece527/babelsoc/fpga-network-stack/hls/rocev2/../ib_transport_protocol/ib_transport_protocol.cpp:2166]   --->   Operation 140 'phi' 'phi_ln176' <Predicate = (state_load == 1 & tmp_3)> <Delay = 0.00>
ST_2 : Operation 141 [1/1] (0.00ns)   --->   "%wordCounter_V_new_5_s = phi i8 [ 0, %._crit_edge14.i ], [ %add_ln700_2, %._crit_edge12.i ]" [/home/paulrr2/Projects/ece527/babelsoc/fpga-network-stack/hls/rocev2/../ib_transport_protocol/ib_transport_protocol.cpp:2150]   --->   Operation 141 'phi' 'wordCounter_V_new_5_s' <Predicate = (state_load == 1 & tmp_3)> <Delay = 0.00>
ST_2 : Operation 142 [1/1] (0.00ns)   --->   "%tmp_last_V_6 = phi i1 [ true, %._crit_edge14.i ], [ %tmp_last_V, %._crit_edge12.i ]"   --->   Operation 142 'phi' 'tmp_last_V_6' <Predicate = (state_load == 1 & tmp_3)> <Delay = 0.00>
ST_2 : Operation 143 [1/1] (2.39ns)   --->   "call void @_ssdm_op_Write.ap_fifo.volatile.i64P.i8P.i1P(i64* @tx_split2aethShift_V_1, i8* @tx_split2aethShift_V_2, i1* @tx_split2aethShift_V, i64 %tmp_data_V_6, i8 %tmp_keep_V_6, i1 %tmp_last_V_6)" [/home/paulrr2/Projects/ece527/babelsoc/fpga-network-stack/hls/rocev2/../ib_transport_protocol/ib_transport_protocol.cpp:2166]   --->   Operation 143 'write' <Predicate = (state_load == 1 & tmp_3)> <Delay = 2.39> <Core = "FIFO">   --->   Core 32 'FIFO' <Latency = 0> <II = 1> <Delay = 2.39> <Storage> <Opcode : 'read' 'write' 'nbread' 'nbwrite'> <Ports = 0> <Width = 29> <Depth = 2> <FIFO>
ST_2 : Operation 144 [1/1] (1.20ns)   --->   "br label %._crit_edge2.i" [/home/paulrr2/Projects/ece527/babelsoc/fpga-network-stack/hls/rocev2/../ib_transport_protocol/ib_transport_protocol.cpp:2167]   --->   Operation 144 'br' <Predicate = (state_load == 1 & tmp_3)> <Delay = 1.20>
ST_2 : Operation 145 [1/1] (0.48ns)   --->   "%currWord_last_V = or i1 %tmp_last_V_11, %icmp_ln879_1" [/home/paulrr2/Projects/ece527/babelsoc/fpga-network-stack/hls/rocev2/../ib_transport_protocol/ib_transport_protocol.cpp:2137]   --->   Operation 145 'or' 'currWord_last_V' <Predicate = (state_load == 5 & tmp_2)> <Delay = 0.48> <Core = "LogicGate">   --->   Core 27 'LogicGate' <Latency = 0> <II = 1> <Delay = 0.48> <FuncUnit> <Opcode : 'and' 'or' 'xor'> <InPorts = 2> <OutPorts = 1>
ST_2 : Operation 146 [1/1] (2.39ns)   --->   "call void @_ssdm_op_Write.ap_fifo.volatile.i64P.i8P.i1P(i64* @tx_rethMerge2rethShi_3, i8* @tx_rethMerge2rethShi_5, i1* @tx_rethMerge2rethShi_6, i64 %tmp_data_V, i8 %tmp_keep_V, i1 %currWord_last_V)" [/home/paulrr2/Projects/ece527/babelsoc/fpga-network-stack/hls/rocev2/../ib_transport_protocol/ib_transport_protocol.cpp:2142]   --->   Operation 146 'write' <Predicate = (state_load == 5 & tmp_2)> <Delay = 2.39> <Core = "FIFO">   --->   Core 32 'FIFO' <Latency = 0> <II = 1> <Delay = 2.39> <Storage> <Opcode : 'read' 'write' 'nbread' 'nbwrite'> <Ports = 0> <Width = 29> <Depth = 2> <FIFO>
ST_2 : Operation 147 [1/1] (0.00ns)   --->   "%state_flag_3_i = phi i1 [ %or_ln2120, %._crit_edge7.i ], [ %tmp_last_V_10, %._crit_edge5.i ]"   --->   Operation 147 'phi' 'state_flag_3_i' <Predicate = (state_load == 4 & tmp_1)> <Delay = 0.00>
ST_2 : Operation 148 [1/1] (0.00ns)   --->   "%state_new_3_i = phi i2 [ %select_ln2120, %._crit_edge7.i ], [ 0, %._crit_edge5.i ]" [/home/paulrr2/Projects/ece527/babelsoc/fpga-network-stack/hls/rocev2/../ib_transport_protocol/ib_transport_protocol.cpp:2120]   --->   Operation 148 'phi' 'state_new_3_i' <Predicate = (state_load == 4 & tmp_1)> <Delay = 0.00>
ST_2 : Operation 149 [1/1] (0.00ns)   --->   "%wordCounter_V_new_1_s = phi i8 [ 0, %._crit_edge7.i ], [ %add_ln700, %._crit_edge5.i ]" [/home/paulrr2/Projects/ece527/babelsoc/fpga-network-stack/hls/rocev2/../ib_transport_protocol/ib_transport_protocol.cpp:2109]   --->   Operation 149 'phi' 'wordCounter_V_new_1_s' <Predicate = (state_load == 4 & tmp_1)> <Delay = 0.00>
ST_2 : Operation 150 [1/1] (0.00ns)   --->   "%tmp_last_V_5 = phi i1 [ true, %._crit_edge7.i ], [ %tmp_last_V_10, %._crit_edge5.i ]"   --->   Operation 150 'phi' 'tmp_last_V_5' <Predicate = (state_load == 4 & tmp_1)> <Delay = 0.00>
ST_2 : Operation 151 [1/1] (0.00ns)   --->   "%sext_ln176 = sext i2 %state_new_3_i to i3" [/home/paulrr2/Projects/ece527/babelsoc/fpga-network-stack/hls/rocev2/../ib_transport_protocol/ib_transport_protocol.cpp:2125]   --->   Operation 151 'sext' 'sext_ln176' <Predicate = (state_load == 4 & tmp_1)> <Delay = 0.00>
ST_2 : Operation 152 [1/1] (2.39ns)   --->   "call void @_ssdm_op_Write.ap_fifo.volatile.i64P.i8P.i1P(i64* @tx_split2aethShift_V_1, i8* @tx_split2aethShift_V_2, i1* @tx_split2aethShift_V, i64 %tmp_data_V_5, i8 %tmp_keep_V_5, i1 %tmp_last_V_5)" [/home/paulrr2/Projects/ece527/babelsoc/fpga-network-stack/hls/rocev2/../ib_transport_protocol/ib_transport_protocol.cpp:2125]   --->   Operation 152 'write' <Predicate = (state_load == 4 & tmp_1)> <Delay = 2.39> <Core = "FIFO">   --->   Core 32 'FIFO' <Latency = 0> <II = 1> <Delay = 2.39> <Storage> <Opcode : 'read' 'write' 'nbread' 'nbwrite'> <Ports = 0> <Width = 29> <Depth = 2> <FIFO>
ST_2 : Operation 153 [1/1] (1.20ns)   --->   "br label %._crit_edge2.i" [/home/paulrr2/Projects/ece527/babelsoc/fpga-network-stack/hls/rocev2/../ib_transport_protocol/ib_transport_protocol.cpp:2126]   --->   Operation 153 'br' <Predicate = (state_load == 4 & tmp_1)> <Delay = 1.20>
ST_2 : Operation 154 [1/1] (0.00ns)   --->   "%state_flag_22_i = phi i1 [ false, %entry ], [ false, %0 ], [ true, %3 ], [ true, %2 ], [ %state_flag_3_i, %._crit_edge6.i ], [ false, %4 ], [ %tmp_last_V_11, %._crit_edge9.i ], [ false, %5 ], [ %state_flag_9_i, %._crit_edge13.i ], [ false, %6 ], [ %tmp_last_V_7, %._crit_edge17.i ], [ false, %7 ], [ %state_flag_16_i, %._crit_edge20.i ], [ false, %9 ], [ %state_flag_20_i, %._crit_edge25.i ], [ false, %10 ]"   --->   Operation 154 'phi' 'state_flag_22_i' <Predicate = true> <Delay = 0.00>
ST_2 : Operation 155 [1/1] (0.00ns)   --->   "%state_new_22_i = phi i3 [ undef, %entry ], [ undef, %0 ], [ %select_ln2094, %3 ], [ %select_ln2083, %2 ], [ %sext_ln176, %._crit_edge6.i ], [ undef, %4 ], [ 0, %._crit_edge9.i ], [ 0, %5 ], [ %phi_ln176, %._crit_edge13.i ], [ undef, %6 ], [ %phi_ln176_1, %._crit_edge17.i ], [ undef, %7 ], [ %zext_ln176, %._crit_edge20.i ], [ undef, %9 ], [ %state_new_20_i, %._crit_edge25.i ], [ undef, %10 ]" [/home/paulrr2/Projects/ece527/babelsoc/fpga-network-stack/hls/rocev2/../ib_transport_protocol/ib_transport_protocol.cpp:2094]   --->   Operation 155 'phi' 'state_new_22_i' <Predicate = true> <Delay = 0.00>
ST_2 : Operation 156 [1/1] (0.00ns)   --->   "%wordCounter_V_flag_1 = phi i1 [ false, %entry ], [ false, %0 ], [ true, %3 ], [ true, %2 ], [ true, %._crit_edge6.i ], [ false, %4 ], [ true, %._crit_edge9.i ], [ false, %5 ], [ true, %._crit_edge13.i ], [ false, %6 ], [ true, %._crit_edge17.i ], [ false, %7 ], [ true, %._crit_edge20.i ], [ false, %9 ], [ true, %._crit_edge25.i ], [ false, %10 ]"   --->   Operation 156 'phi' 'wordCounter_V_flag_1' <Predicate = true> <Delay = 0.00>
ST_2 : Operation 157 [1/1] (0.00ns)   --->   "%wordCounter_V_new_13 = phi i8 [ undef, %entry ], [ 0, %0 ], [ 0, %3 ], [ 0, %2 ], [ %wordCounter_V_new_1_s, %._crit_edge6.i ], [ undef, %4 ], [ %select_ln2137, %._crit_edge9.i ], [ undef, %5 ], [ %wordCounter_V_new_5_s, %._crit_edge13.i ], [ undef, %6 ], [ %wordCounter_V_new_7_s, %._crit_edge17.i ], [ undef, %7 ], [ %wordCounter_V_new_9_s, %._crit_edge20.i ], [ undef, %9 ], [ %wordCounter_V_new_11, %._crit_edge25.i ], [ undef, %10 ]" [/home/paulrr2/Projects/ece527/babelsoc/fpga-network-stack/hls/rocev2/../ib_transport_protocol/ib_transport_protocol.cpp:2109]   --->   Operation 157 'phi' 'wordCounter_V_new_13' <Predicate = true> <Delay = 0.00>
ST_2 : Operation 158 [1/1] (0.00ns)   --->   "br i1 %wordCounter_V_flag_1, label %mergeST2.i, label %._crit_edge2.new3.i"   --->   Operation 158 'br' <Predicate = true> <Delay = 0.00>
ST_2 : Operation 159 [1/1] (0.00ns)   --->   "store i8 %wordCounter_V_new_13, i8* @wordCounter_V, align 1" [/home/paulrr2/Projects/ece527/babelsoc/fpga-network-stack/hls/rocev2/../ib_transport_protocol/ib_transport_protocol.cpp:2080]   --->   Operation 159 'store' <Predicate = (wordCounter_V_flag_1)> <Delay = 0.00>
ST_2 : Operation 160 [1/1] (0.00ns)   --->   "br label %._crit_edge2.new3.i"   --->   Operation 160 'br' <Predicate = (wordCounter_V_flag_1)> <Delay = 0.00>
ST_2 : Operation 161 [1/1] (0.00ns)   --->   "br i1 %state_flag_22_i, label %mergeST.i, label %"tx_pkg_arbiter<64>.exit"" [/home/paulrr2/Projects/ece527/babelsoc/fpga-network-stack/hls/rocev2/../ib_transport_protocol/ib_transport_protocol.cpp:2120]   --->   Operation 161 'br' <Predicate = true> <Delay = 0.00>
ST_2 : Operation 162 [1/1] (0.00ns)   --->   "store i3 %state_new_22_i, i3* @state, align 1" [/home/paulrr2/Projects/ece527/babelsoc/fpga-network-stack/hls/rocev2/../ib_transport_protocol/ib_transport_protocol.cpp:2096]   --->   Operation 162 'store' <Predicate = (state_flag_22_i)> <Delay = 0.00>
ST_2 : Operation 163 [1/1] (0.00ns)   --->   "br label %"tx_pkg_arbiter<64>.exit""   --->   Operation 163 'br' <Predicate = (state_flag_22_i)> <Delay = 0.00>
ST_2 : Operation 164 [1/1] (0.00ns)   --->   "ret void"   --->   Operation 164 'ret' <Predicate = true> <Delay = 0.00>


============================================================
+ Verbose Summary: Timing violations
============================================================
Target clock period: 6.4ns, clock uncertainty: 0.8ns.

 <State 1>: 3.72ns
The critical path consists of the following:
	'load' operation ('info_words_V_load', /home/paulrr2/Projects/ece527/babelsoc/fpga-network-stack/hls/rocev2/../ib_transport_protocol/ib_transport_protocol.cpp:2118) on static variable 'info_words_V' [45]  (0 ns)
	'add' operation ('add_ln701_4', /home/paulrr2/Projects/ece527/babelsoc/fpga-network-stack/hls/rocev2/../ib_transport_protocol/ib_transport_protocol.cpp:2228) [60]  (1.48 ns)
	'icmp' operation ('icmp_ln899_1', /home/paulrr2/Projects/ece527/babelsoc/fpga-network-stack/hls/rocev2/../ib_transport_protocol/ib_transport_protocol.cpp:2229) [63]  (1.25 ns)
	'and' operation ('and_ln2229', /home/paulrr2/Projects/ece527/babelsoc/fpga-network-stack/hls/rocev2/../ib_transport_protocol/ib_transport_protocol.cpp:2229) [64]  (0.485 ns)
	'select' operation ('select_ln2229', /home/paulrr2/Projects/ece527/babelsoc/fpga-network-stack/hls/rocev2/../ib_transport_protocol/ib_transport_protocol.cpp:2229) [66]  (0.51 ns)

 <State 2>: 2.88ns
The critical path consists of the following:
	'or' operation ('currWord.last.V', /home/paulrr2/Projects/ece527/babelsoc/fpga-network-stack/hls/rocev2/../ib_transport_protocol/ib_transport_protocol.cpp:2137) [159]  (0.485 ns)
	fifo write on port 'tx_rethMerge2rethShi_3' (/home/paulrr2/Projects/ece527/babelsoc/fpga-network-stack/hls/rocev2/../ib_transport_protocol/ib_transport_protocol.cpp:2142) [160]  (2.39 ns)


============================================================
+ Verbose Summary: Binding
============================================================
N/A
* FSMD analyzer results:
  - Output states:
 - Input state : 
  - Chain level:
	State 1
	State 2


============================================================
+ Verbose Summary: Datapath Resource usage 
============================================================
N/A
