

================================================================
== Vivado HLS Report for 'dhcp_fsm'
================================================================
* Date:           Sat Dec 12 19:23:48 2020

* Version:        2019.2.1 (Build 2724168 on Thu Dec 05 05:19:09 MST 2019)
* Project:        dhcp_client_prj
* Solution:       solution1
* Product family: zynq
* Target device:  xc7z020-clg400-1


================================================================
== Performance Estimates
================================================================
+ Timing: 
    * Summary: 
    +--------+---------+----------+------------+
    |  Clock |  Target | Estimated| Uncertainty|
    +--------+---------+----------+------------+
    |ap_clk  | 6.40 ns | 7.980 ns |   0.80 ns  |
    +--------+---------+----------+------------+

+ Latency: 
    * Summary: 
    +---------+---------+----------+----------+-----+-----+----------+
    |  Latency (cycles) |  Latency (absolute) |  Interval | Pipeline |
    |   min   |   max   |    min   |    max   | min | max |   Type   |
    +---------+---------+----------+----------+-----+-----+----------+
    |        1|        1| 7.980 ns | 7.980 ns |    1|    1| function |
    +---------+---------+----------+----------+-----+-----+----------+

    + Detail: 
        * Instance: 
        N/A

        * Loop: 
        N/A



================================================================
== Utilization Estimates
================================================================
* Summary: 
+-----------------+---------+-------+--------+-------+-----+
|       Name      | BRAM_18K| DSP48E|   FF   |  LUT  | URAM|
+-----------------+---------+-------+--------+-------+-----+
|DSP              |        -|      -|       -|      -|    -|
|Expression       |        -|      -|       0|    234|    -|
|FIFO             |        -|      -|       -|      -|    -|
|Instance         |        -|      -|       -|      -|    -|
|Memory           |        -|      -|       -|      -|    -|
|Multiplexer      |        -|      -|       -|    144|    -|
|Register         |        -|      -|     304|      -|    -|
+-----------------+---------+-------+--------+-------+-----+
|Total            |        0|      0|     304|    378|    0|
+-----------------+---------+-------+--------+-------+-----+
|Available        |      280|    220|  106400|  53200|    0|
+-----------------+---------+-------+--------+-------+-----+
|Utilization (%)  |        0|      0|   ~0   |   ~0  |    0|
+-----------------+---------+-------+--------+-------+-----+

+ Detail: 
    * Instance: 
    N/A

    * DSP48E: 
    N/A

    * Memory: 
    N/A

    * FIFO: 
    N/A

    * Expression: 
    +----------------------------------+----------+-------+---+----+------------+------------+
    |           Variable Name          | Operation| DSP48E| FF| LUT| Bitwidth P0| Bitwidth P1|
    +----------------------------------+----------+-------+---+----+------------+------------+
    |add_ln700_fu_383_p2               |     +    |      0|  0|  39|          32|           1|
    |grp_fu_213_p2                     |     +    |      0|  0|  39|          32|           2|
    |ap_condition_187                  |    and   |      0|  0|   2|           1|           1|
    |ap_condition_200                  |    and   |      0|  0|   2|           1|           1|
    |ap_condition_322                  |    and   |      0|  0|   2|           1|           1|
    |ap_predicate_op11_read_state1     |    and   |      0|  0|   2|           1|           1|
    |ap_predicate_op21_read_state1     |    and   |      0|  0|   2|           1|           1|
    |ap_predicate_op38_read_state1     |    and   |      0|  0|   2|           1|           1|
    |ap_predicate_op66_read_state1     |    and   |      0|  0|   2|           1|           1|
    |ap_predicate_op91_write_state2    |    and   |      0|  0|   2|           1|           1|
    |ap_predicate_op96_write_state2    |    and   |      0|  0|   2|           1|           1|
    |grp_nbreadreq_fu_112_p3           |    and   |      0|  0|   2|           1|           0|
    |tmp_nbreadreq_fu_126_p3           |    and   |      0|  0|   2|           1|           0|
    |grp_fu_208_p2                     |   icmp   |      0|  0|  18|          32|           1|
    |icmp_ln879_10_fu_306_p2           |   icmp   |      0|  0|  11|           8|           2|
    |icmp_ln879_11_fu_274_p2           |   icmp   |      0|  0|  11|           8|           3|
    |icmp_ln879_6_fu_300_p2            |   icmp   |      0|  0|  18|          32|          32|
    |icmp_ln879_8_fu_268_p2            |   icmp   |      0|  0|  18|          32|          32|
    |icmp_ln879_9_fu_203_p2            |   icmp   |      0|  0|  18|          32|           1|
    |ap_block_pp0_stage0_01001         |    or    |      0|  0|   2|           1|           1|
    |ap_block_state1_pp0_stage0_iter0  |    or    |      0|  0|   2|           1|           1|
    |ap_block_state2_pp0_stage0_iter1  |    or    |      0|  0|   2|           1|           1|
    |ap_enable_pp0                     |    xor   |      0|  0|   2|           1|           2|
    |xor_ln214_fu_334_p2               |    xor   |      0|  0|  32|          32|          32|
    +----------------------------------+----------+-------+---+----+------------+------------+
    |Total                             |          |      0|  0| 234|         255|         120|
    +----------------------------------+----------+-------+---+----+------------+------------+

    * Multiplexer: 
    +------------------------------------------+----+-----------+-----+-----------+
    |                   Name                   | LUT| Input Size| Bits| Total Bits|
    +------------------------------------------+----+-----------+-----+-----------+
    |ap_done                                   |   9|          2|    1|          2|
    |ap_phi_mux_storemerge220_i_phi_fu_168_p4  |  15|          3|    2|          6|
    |ap_phi_mux_storemerge_i_phi_fu_157_p4     |  15|          3|    3|          9|
    |ap_phi_reg_pp0_iter1_t_V_1_reg_176        |  15|          3|   32|         96|
    |ap_sig_allocacmp_tmp_identifier_V         |   9|          2|   32|         64|
    |dhcp_replyMetaFifo_V_blk_n                |   9|          2|    1|          2|
    |dhcp_requestMetaFifo_1_blk_n              |   9|          2|    1|          2|
    |dhcp_requestMetaFifo_1_din                |  15|          3|   72|        216|
    |myIpAddress_V                             |   9|          2|   32|         64|
    |portOpen_V_V_blk_n                        |   9|          2|    1|          2|
    |state                                     |  21|          4|    3|         12|
    |time_V                                    |   9|          2|   32|         64|
    +------------------------------------------+----+-----------+-----+-----------+
    |Total                                     | 144|         30|  212|        539|
    +------------------------------------------+----+-----------+-----+-----------+

    * Register: 
    +------------------------------------+----+----+-----+-----------+
    |                Name                | FF | LUT| Bits| Const Bits|
    +------------------------------------+----+----+-----+-----------+
    |IpAddressBuffer_V                   |  32|   0|   32|          0|
    |ap_CS_fsm                           |   1|   0|    1|          0|
    |ap_done_reg                         |   1|   0|    1|          0|
    |ap_enable_reg_pp0_iter1             |   1|   0|    1|          0|
    |ap_phi_reg_pp0_iter1_t_V_1_reg_176  |  32|   0|   32|          0|
    |icmp_ln879_10_reg_463               |   1|   0|    1|          0|
    |icmp_ln879_11_reg_441               |   1|   0|    1|          0|
    |icmp_ln879_6_reg_459                |   1|   0|    1|          0|
    |icmp_ln879_8_reg_437                |   1|   0|    1|          0|
    |icmp_ln879_reg_467                  |   1|   0|    1|          0|
    |myIdentity_V                        |  32|   0|   32|          0|
    |myIdentity_V_load_reg_420           |  32|   0|   32|          0|
    |myIpAddress_V                       |  32|   0|   32|          0|
    |randomValue_V                       |  32|   0|   32|          0|
    |state                               |   3|   0|    3|          0|
    |state_load_reg_395                  |   3|   0|    3|          0|
    |time_V                              |  32|   0|   32|          0|
    |tmp_4_reg_445                       |   1|   0|    1|          0|
    |tmp_5_reg_429                       |   1|   0|    1|          0|
    |tmp_identifier_V_reg_408            |  32|   0|   32|          0|
    |tmp_requestedIpAddre_reg_453        |  32|   0|   32|          0|
    +------------------------------------+----+----+-----+-----------+
    |Total                               | 304|   0|  304|          0|
    +------------------------------------+----+----+-----+-----------+



================================================================
== Interface
================================================================
* Summary: 
+-------------------------------+-----+-----+------------+------------------------+--------------+
|           RTL Ports           | Dir | Bits|  Protocol  |      Source Object     |    C Type    |
+-------------------------------+-----+-----+------------+------------------------+--------------+
|ap_clk                         |  in |    1| ap_ctrl_hs |        dhcp_fsm        | return value |
|ap_rst                         |  in |    1| ap_ctrl_hs |        dhcp_fsm        | return value |
|ap_start                       |  in |    1| ap_ctrl_hs |        dhcp_fsm        | return value |
|ap_done                        | out |    1| ap_ctrl_hs |        dhcp_fsm        | return value |
|ap_continue                    |  in |    1| ap_ctrl_hs |        dhcp_fsm        | return value |
|ap_idle                        | out |    1| ap_ctrl_hs |        dhcp_fsm        | return value |
|ap_ready                       | out |    1| ap_ctrl_hs |        dhcp_fsm        | return value |
|dhcp_replyMetaFifo_V_dout      |  in |  104|   ap_fifo  |  dhcp_replyMetaFifo_V  |    pointer   |
|dhcp_replyMetaFifo_V_empty_n   |  in |    1|   ap_fifo  |  dhcp_replyMetaFifo_V  |    pointer   |
|dhcp_replyMetaFifo_V_read      | out |    1|   ap_fifo  |  dhcp_replyMetaFifo_V  |    pointer   |
|portOpen_V_V_dout              |  in |    1|   ap_fifo  |      portOpen_V_V      |    pointer   |
|portOpen_V_V_empty_n           |  in |    1|   ap_fifo  |      portOpen_V_V      |    pointer   |
|portOpen_V_V_read              | out |    1|   ap_fifo  |      portOpen_V_V      |    pointer   |
|dhcp_requestMetaFifo_1_din     | out |   72|   ap_fifo  | dhcp_requestMetaFifo_1 |    pointer   |
|dhcp_requestMetaFifo_1_full_n  |  in |    1|   ap_fifo  | dhcp_requestMetaFifo_1 |    pointer   |
|dhcp_requestMetaFifo_1_write   | out |    1|   ap_fifo  | dhcp_requestMetaFifo_1 |    pointer   |
|ipAddressOut_V                 | out |   32|   ap_vld   |     ipAddressOut_V     |    pointer   |
|ipAddressOut_V_ap_vld          | out |    1|   ap_vld   |     ipAddressOut_V     |    pointer   |
|dhcpEnable_V                   |  in |    1|  ap_stable |      dhcpEnable_V      |    pointer   |
|inputIpAddress_V               |  in |   32|  ap_stable |    inputIpAddress_V    |    pointer   |
+-------------------------------+-----+-----+------------+------------------------+--------------+

============================================================
+ Verbose Summary: Synthesis Manager
============================================================
InlineROM: 1
ExposeGlobal: 0
============================================================
+ Verbose Summary: CDFG Model
============================================================
IsTopModel: 0
ResetActiveHigh: 1
IsCombinational: 2
IsDatapathOnly: 0
HasWiredReturn: 1
HasMFsm: 2
HasVarLatency: 0
IsPipeline: 1
IsRtlPipelined: 1
IsInstanceOverlapped: 0
IsDontTouch: 0
HasImplIP: 0
IsGatedGlobalClock: 0

+ Individual pipeline summary: 
  * Pipeline-0: initiation interval (II) = 1, depth = 2


============================================================
+ Verbose Summary: Schedule
============================================================
* Number of FSM states : 2
* Pipeline : 1
  Pipeline-0 : II = 1, D = 2, States = { 1 2 }
* Dataflow Pipeline: 0

* FSM state transitions: 
1 --> 2 
2 --> 

* FSM state operations: 

State 1 <SV = 0> <Delay = 7.98>
ST_1 : Operation 3 [1/1] (0.00ns)   --->   "%state_load = load i3* @state, align 1" [/home/paulrr2/Projects/ece527/babelsoc/fpga-network-stack/hls/dhcp_client/dhcp_client.cpp:260]   --->   Operation 3 'load' 'state_load' <Predicate = true> <Delay = 0.00>
ST_1 : Operation 4 [1/1] (0.00ns)   --->   "%inputIpAddress_V_rea = call i32 @_ssdm_op_Read.ap_auto.i32P(i32* %inputIpAddress_V)" [/home/paulrr2/Projects/ece527/babelsoc/fpga-network-stack/hls/dhcp_client/dhcp_client.cpp:262]   --->   Operation 4 'read' 'inputIpAddress_V_rea' <Predicate = true> <Delay = 0.00>
ST_1 : Operation 5 [1/1] (0.00ns)   --->   "%dhcpEnable_V_read = call i1 @_ssdm_op_Read.ap_auto.i1P(i1* %dhcpEnable_V)" [/home/paulrr2/Projects/ece527/babelsoc/fpga-network-stack/hls/dhcp_client/dhcp_client.cpp:270]   --->   Operation 5 'read' 'dhcpEnable_V_read' <Predicate = true> <Delay = 0.00>
ST_1 : Operation 6 [1/1] (0.00ns)   --->   "%t_V = load i32* @time_V, align 4" [/home/paulrr2/Projects/ece527/babelsoc/fpga-network-stack/hls/dhcp_client/dhcp_client.cpp:271]   --->   Operation 6 'load' 't_V' <Predicate = true> <Delay = 0.00>
ST_1 : Operation 7 [1/1] (0.00ns)   --->   "%tmp_identifier_V = load i32* @randomValue_V, align 4" [/home/paulrr2/Projects/ece527/babelsoc/fpga-network-stack/hls/dhcp_client/dhcp_client.cpp:272]   --->   Operation 7 'load' 'tmp_identifier_V' <Predicate = true> <Delay = 0.00>
ST_1 : Operation 8 [1/1] (0.00ns)   --->   "%myIdentity_V_load = load i32* @myIdentity_V, align 4" [/home/paulrr2/Projects/ece527/babelsoc/fpga-network-stack/hls/dhcp_client/dhcp_client.cpp:285]   --->   Operation 8 'load' 'myIdentity_V_load' <Predicate = true> <Delay = 0.00>
ST_1 : Operation 9 [1/1] (1.76ns)   --->   "switch i3 %state_load, label %dhcp_fsm.exit [
    i3 0, label %0
    i3 1, label %2
    i3 2, label %6
    i3 3, label %15
    i3 -4, label %24
  ]" [/home/paulrr2/Projects/ece527/babelsoc/fpga-network-stack/hls/dhcp_client/dhcp_client.cpp:260]   --->   Operation 9 'switch' <Predicate = true> <Delay = 1.76>
ST_1 : Operation 10 [1/1] (0.00ns)   --->   "%tmp_6 = call i1 @_ssdm_op_NbReadReq.ap_fifo.i104P(i104* @dhcp_replyMetaFifo_V, i32 1)" [/home/paulrr2/Projects/ece527/babelsoc/fpga-network-stack/hls/dhcp_client/dhcp_client.cpp:325]   --->   Operation 10 'nbreadreq' 'tmp_6' <Predicate = (state_load == 4)> <Delay = 0.00> <Core = "FIFO">   --->   Core 32 'FIFO' <Latency = 0> <II = 1> <Delay = 3.63> <Storage> <Opcode : 'read' 'write' 'nbread' 'nbwrite'> <Ports = 0> <Width = 72> <Depth = 2> <FIFO>
ST_1 : Operation 11 [1/1] (2.80ns)   --->   "%tmp_459_0 = call i104 @_ssdm_op_Read.ap_fifo.volatile.i104P(i104* @dhcp_replyMetaFifo_V)" [/home/paulrr2/Projects/ece527/babelsoc/fpga-network-stack/hls/dhcp_client/dhcp_client.cpp:326]   --->   Operation 11 'read' 'tmp_459_0' <Predicate = (state_load == 4 & tmp_6)> <Delay = 2.80> <Core = "FIFO">   --->   Core 32 'FIFO' <Latency = 0> <II = 1> <Delay = 3.63> <Storage> <Opcode : 'read' 'write' 'nbread' 'nbwrite'> <Ports = 0> <Width = 72> <Depth = 2> <FIFO>
ST_1 : Operation 12 [1/1] (0.00ns)   --->   "br i1 %dhcpEnable_V_read, label %._crit_edge13.i, label %26" [/home/paulrr2/Projects/ece527/babelsoc/fpga-network-stack/hls/dhcp_client/dhcp_client.cpp:327]   --->   Operation 12 'br' <Predicate = (state_load == 4)> <Delay = 0.00>
ST_1 : Operation 13 [1/1] (1.86ns)   --->   "store i3 1, i3* @state, align 1" [/home/paulrr2/Projects/ece527/babelsoc/fpga-network-stack/hls/dhcp_client/dhcp_client.cpp:328]   --->   Operation 13 'store' <Predicate = (state_load == 4 & !dhcpEnable_V_read)> <Delay = 1.86>
ST_1 : Operation 14 [1/1] (1.76ns)   --->   "br label %dhcp_fsm.exit" [/home/paulrr2/Projects/ece527/babelsoc/fpga-network-stack/hls/dhcp_client/dhcp_client.cpp:329]   --->   Operation 14 'br' <Predicate = (state_load == 4)> <Delay = 1.76>
ST_1 : Operation 15 [1/1] (0.00ns)   --->   "%tmp_5 = call i1 @_ssdm_op_NbReadReq.ap_fifo.i104P(i104* @dhcp_replyMetaFifo_V, i32 1)" [/home/paulrr2/Projects/ece527/babelsoc/fpga-network-stack/hls/dhcp_client/dhcp_client.cpp:304]   --->   Operation 15 'nbreadreq' 'tmp_5' <Predicate = (state_load == 3)> <Delay = 0.00> <Core = "FIFO">   --->   Core 32 'FIFO' <Latency = 0> <II = 1> <Delay = 3.63> <Storage> <Opcode : 'read' 'write' 'nbread' 'nbwrite'> <Ports = 0> <Width = 72> <Depth = 2> <FIFO>
ST_1 : Operation 16 [1/1] (2.47ns)   --->   "%icmp_ln879_9 = icmp eq i32 %t_V, 0" [/home/paulrr2/Projects/ece527/babelsoc/fpga-network-stack/hls/dhcp_client/dhcp_client.cpp:317]   --->   Operation 16 'icmp' 'icmp_ln879_9' <Predicate = (state_load == 3 & !tmp_5)> <Delay = 2.47> <Core = "Cmp">   --->   Core 25 'Cmp' <Latency = 0> <II = 1> <Delay = 2.47> <FuncUnit> <Opcode : 'icmp'> <InPorts = 2> <OutPorts = 1>
ST_1 : Operation 17 [1/1] (0.00ns)   --->   "br i1 %icmp_ln879_9, label %20, label %21" [/home/paulrr2/Projects/ece527/babelsoc/fpga-network-stack/hls/dhcp_client/dhcp_client.cpp:317]   --->   Operation 17 'br' <Predicate = (state_load == 3 & !tmp_5)> <Delay = 0.00>
ST_1 : Operation 18 [1/1] (2.55ns)   --->   "%add_ln701_2 = add i32 %t_V, -1" [/home/paulrr2/Projects/ece527/babelsoc/fpga-network-stack/hls/dhcp_client/dhcp_client.cpp:320]   --->   Operation 18 'add' 'add_ln701_2' <Predicate = (state_load == 3 & !tmp_5 & !icmp_ln879_9)> <Delay = 2.55> <Core = "AddSub">   --->   Core 14 'AddSub' <Latency = 0> <II = 1> <Delay = 2.55> <FuncUnit> <Opcode : 'add' 'sub'> <InPorts = 2> <OutPorts = 1>
ST_1 : Operation 19 [1/1] (1.86ns)   --->   "store i32 %add_ln701_2, i32* @time_V, align 4" [/home/paulrr2/Projects/ece527/babelsoc/fpga-network-stack/hls/dhcp_client/dhcp_client.cpp:320]   --->   Operation 19 'store' <Predicate = (state_load == 3 & !tmp_5 & !icmp_ln879_9)> <Delay = 1.86>
ST_1 : Operation 20 [1/1] (1.86ns)   --->   "store i3 1, i3* @state, align 1" [/home/paulrr2/Projects/ece527/babelsoc/fpga-network-stack/hls/dhcp_client/dhcp_client.cpp:318]   --->   Operation 20 'store' <Predicate = (state_load == 3 & !tmp_5 & icmp_ln879_9)> <Delay = 1.86>
ST_1 : Operation 21 [1/1] (2.80ns)   --->   "%tmp_3 = call i104 @_ssdm_op_Read.ap_fifo.volatile.i104P(i104* @dhcp_replyMetaFifo_V)" [/home/paulrr2/Projects/ece527/babelsoc/fpga-network-stack/hls/dhcp_client/dhcp_client.cpp:305]   --->   Operation 21 'read' 'tmp_3' <Predicate = (state_load == 3 & tmp_5)> <Delay = 2.80> <Core = "FIFO">   --->   Core 32 'FIFO' <Latency = 0> <II = 1> <Delay = 3.63> <Storage> <Opcode : 'read' 'write' 'nbread' 'nbwrite'> <Ports = 0> <Width = 72> <Depth = 2> <FIFO>
ST_1 : Operation 22 [1/1] (0.00ns)   --->   "%trunc_ln321_1 = trunc i104 %tmp_3 to i32" [/home/paulrr2/Projects/ece527/babelsoc/fpga-network-stack/hls/dhcp_client/dhcp_client.hpp:35->/home/paulrr2/Projects/ece527/babelsoc/fpga-network-stack/hls/dhcp_client/dhcp_client.cpp:305]   --->   Operation 22 'trunc' 'trunc_ln321_1' <Predicate = (state_load == 3 & tmp_5)> <Delay = 0.00>
ST_1 : Operation 23 [1/1] (0.00ns)   --->   "%tmp_type_V_1_load_ne = call i8 @_ssdm_op_PartSelect.i8.i104.i32.i32(i104 %tmp_3, i32 96, i32 103)" [/home/paulrr2/Projects/ece527/babelsoc/fpga-network-stack/hls/dhcp_client/dhcp_client.hpp:35->/home/paulrr2/Projects/ece527/babelsoc/fpga-network-stack/hls/dhcp_client/dhcp_client.cpp:305]   --->   Operation 23 'partselect' 'tmp_type_V_1_load_ne' <Predicate = (state_load == 3 & tmp_5)> <Delay = 0.00>
ST_1 : Operation 24 [1/1] (2.47ns)   --->   "%icmp_ln879_8 = icmp eq i32 %trunc_ln321_1, %myIdentity_V_load" [/home/paulrr2/Projects/ece527/babelsoc/fpga-network-stack/hls/dhcp_client/dhcp_client.cpp:306]   --->   Operation 24 'icmp' 'icmp_ln879_8' <Predicate = (state_load == 3 & tmp_5)> <Delay = 2.47> <Core = "Cmp">   --->   Core 25 'Cmp' <Latency = 0> <II = 1> <Delay = 2.47> <FuncUnit> <Opcode : 'icmp'> <InPorts = 2> <OutPorts = 1>
ST_1 : Operation 25 [1/1] (0.00ns)   --->   "br i1 %icmp_ln879_8, label %17, label %._crit_edge10.i" [/home/paulrr2/Projects/ece527/babelsoc/fpga-network-stack/hls/dhcp_client/dhcp_client.cpp:306]   --->   Operation 25 'br' <Predicate = (state_load == 3 & tmp_5)> <Delay = 0.00>
ST_1 : Operation 26 [1/1] (1.55ns)   --->   "%icmp_ln879_11 = icmp eq i8 %tmp_type_V_1_load_ne, 5" [/home/paulrr2/Projects/ece527/babelsoc/fpga-network-stack/hls/dhcp_client/dhcp_client.cpp:307]   --->   Operation 26 'icmp' 'icmp_ln879_11' <Predicate = (state_load == 3 & tmp_5 & icmp_ln879_8)> <Delay = 1.55> <Core = "Cmp">   --->   Core 25 'Cmp' <Latency = 0> <II = 1> <Delay = 2.47> <FuncUnit> <Opcode : 'icmp'> <InPorts = 2> <OutPorts = 1>
ST_1 : Operation 27 [1/1] (1.76ns)   --->   "br i1 %icmp_ln879_11, label %18, label %._crit_edge11.i" [/home/paulrr2/Projects/ece527/babelsoc/fpga-network-stack/hls/dhcp_client/dhcp_client.cpp:307]   --->   Operation 27 'br' <Predicate = (state_load == 3 & tmp_5 & icmp_ln879_8)> <Delay = 1.76>
ST_1 : Operation 28 [1/1] (1.76ns)   --->   "br label %._crit_edge11.i" [/home/paulrr2/Projects/ece527/babelsoc/fpga-network-stack/hls/dhcp_client/dhcp_client.cpp:310]   --->   Operation 28 'br' <Predicate = (state_load == 3 & tmp_5 & icmp_ln879_8 & icmp_ln879_11)> <Delay = 1.76>
ST_1 : Operation 29 [1/1] (0.00ns)   --->   "%storemerge_i = phi i3 [ -4, %18 ], [ 1, %17 ]"   --->   Operation 29 'phi' 'storemerge_i' <Predicate = (state_load == 3 & tmp_5 & icmp_ln879_8)> <Delay = 0.00>
ST_1 : Operation 30 [1/1] (1.86ns)   --->   "store i3 %storemerge_i, i3* @state, align 1" [/home/paulrr2/Projects/ece527/babelsoc/fpga-network-stack/hls/dhcp_client/dhcp_client.cpp:309]   --->   Operation 30 'store' <Predicate = (state_load == 3 & tmp_5 & icmp_ln879_8)> <Delay = 1.86>
ST_1 : Operation 31 [1/1] (1.76ns)   --->   "br label %dhcp_fsm.exit" [/home/paulrr2/Projects/ece527/babelsoc/fpga-network-stack/hls/dhcp_client/dhcp_client.cpp:322]   --->   Operation 31 'br' <Predicate = (state_load == 3)> <Delay = 1.76>
ST_1 : Operation 32 [1/1] (0.00ns)   --->   "%tmp_4 = call i1 @_ssdm_op_NbReadReq.ap_fifo.i104P(i104* @dhcp_replyMetaFifo_V, i32 1)" [/home/paulrr2/Projects/ece527/babelsoc/fpga-network-stack/hls/dhcp_client/dhcp_client.cpp:283]   --->   Operation 32 'nbreadreq' 'tmp_4' <Predicate = (state_load == 2)> <Delay = 0.00> <Core = "FIFO">   --->   Core 32 'FIFO' <Latency = 0> <II = 1> <Delay = 3.63> <Storage> <Opcode : 'read' 'write' 'nbread' 'nbwrite'> <Ports = 0> <Width = 72> <Depth = 2> <FIFO>
ST_1 : Operation 33 [1/1] (2.47ns)   --->   "%icmp_ln879_7 = icmp eq i32 %t_V, 0" [/home/paulrr2/Projects/ece527/babelsoc/fpga-network-stack/hls/dhcp_client/dhcp_client.cpp:297]   --->   Operation 33 'icmp' 'icmp_ln879_7' <Predicate = (state_load == 2 & !tmp_4)> <Delay = 2.47> <Core = "Cmp">   --->   Core 25 'Cmp' <Latency = 0> <II = 1> <Delay = 2.47> <FuncUnit> <Opcode : 'icmp'> <InPorts = 2> <OutPorts = 1>
ST_1 : Operation 34 [1/1] (0.00ns)   --->   "br i1 %icmp_ln879_7, label %11, label %12" [/home/paulrr2/Projects/ece527/babelsoc/fpga-network-stack/hls/dhcp_client/dhcp_client.cpp:297]   --->   Operation 34 'br' <Predicate = (state_load == 2 & !tmp_4)> <Delay = 0.00>
ST_1 : Operation 35 [1/1] (2.55ns)   --->   "%add_ln701_1 = add i32 %t_V, -1" [/home/paulrr2/Projects/ece527/babelsoc/fpga-network-stack/hls/dhcp_client/dhcp_client.cpp:300]   --->   Operation 35 'add' 'add_ln701_1' <Predicate = (state_load == 2 & !tmp_4 & !icmp_ln879_7)> <Delay = 2.55> <Core = "AddSub">   --->   Core 14 'AddSub' <Latency = 0> <II = 1> <Delay = 2.55> <FuncUnit> <Opcode : 'add' 'sub'> <InPorts = 2> <OutPorts = 1>
ST_1 : Operation 36 [1/1] (1.86ns)   --->   "store i32 %add_ln701_1, i32* @time_V, align 4" [/home/paulrr2/Projects/ece527/babelsoc/fpga-network-stack/hls/dhcp_client/dhcp_client.cpp:300]   --->   Operation 36 'store' <Predicate = (state_load == 2 & !tmp_4 & !icmp_ln879_7)> <Delay = 1.86>
ST_1 : Operation 37 [1/1] (1.86ns)   --->   "store i3 1, i3* @state, align 1" [/home/paulrr2/Projects/ece527/babelsoc/fpga-network-stack/hls/dhcp_client/dhcp_client.cpp:298]   --->   Operation 37 'store' <Predicate = (state_load == 2 & !tmp_4 & icmp_ln879_7)> <Delay = 1.86>
ST_1 : Operation 38 [1/1] (2.80ns)   --->   "%tmp_1 = call i104 @_ssdm_op_Read.ap_fifo.volatile.i104P(i104* @dhcp_replyMetaFifo_V)" [/home/paulrr2/Projects/ece527/babelsoc/fpga-network-stack/hls/dhcp_client/dhcp_client.cpp:284]   --->   Operation 38 'read' 'tmp_1' <Predicate = (state_load == 2 & tmp_4)> <Delay = 2.80> <Core = "FIFO">   --->   Core 32 'FIFO' <Latency = 0> <II = 1> <Delay = 3.63> <Storage> <Opcode : 'read' 'write' 'nbread' 'nbwrite'> <Ports = 0> <Width = 72> <Depth = 2> <FIFO>
ST_1 : Operation 39 [1/1] (0.00ns)   --->   "%tmp_identifier_V_1 = trunc i104 %tmp_1 to i32" [/home/paulrr2/Projects/ece527/babelsoc/fpga-network-stack/hls/dhcp_client/dhcp_client.hpp:35->/home/paulrr2/Projects/ece527/babelsoc/fpga-network-stack/hls/dhcp_client/dhcp_client.cpp:284]   --->   Operation 39 'trunc' 'tmp_identifier_V_1' <Predicate = (state_load == 2 & tmp_4)> <Delay = 0.00>
ST_1 : Operation 40 [1/1] (0.00ns)   --->   "%tmp_requestedIpAddre = call i32 @_ssdm_op_PartSelect.i32.i104.i32.i32(i104 %tmp_1, i32 32, i32 63)" [/home/paulrr2/Projects/ece527/babelsoc/fpga-network-stack/hls/dhcp_client/dhcp_client.hpp:35->/home/paulrr2/Projects/ece527/babelsoc/fpga-network-stack/hls/dhcp_client/dhcp_client.cpp:284]   --->   Operation 40 'partselect' 'tmp_requestedIpAddre' <Predicate = (state_load == 2 & tmp_4)> <Delay = 0.00>
ST_1 : Operation 41 [1/1] (0.00ns)   --->   "%tmp_type_V_load_new_s = call i8 @_ssdm_op_PartSelect.i8.i104.i32.i32(i104 %tmp_1, i32 96, i32 103)" [/home/paulrr2/Projects/ece527/babelsoc/fpga-network-stack/hls/dhcp_client/dhcp_client.hpp:35->/home/paulrr2/Projects/ece527/babelsoc/fpga-network-stack/hls/dhcp_client/dhcp_client.cpp:284]   --->   Operation 41 'partselect' 'tmp_type_V_load_new_s' <Predicate = (state_load == 2 & tmp_4)> <Delay = 0.00>
ST_1 : Operation 42 [1/1] (2.47ns)   --->   "%icmp_ln879_6 = icmp eq i32 %tmp_identifier_V_1, %myIdentity_V_load" [/home/paulrr2/Projects/ece527/babelsoc/fpga-network-stack/hls/dhcp_client/dhcp_client.cpp:285]   --->   Operation 42 'icmp' 'icmp_ln879_6' <Predicate = (state_load == 2 & tmp_4)> <Delay = 2.47> <Core = "Cmp">   --->   Core 25 'Cmp' <Latency = 0> <II = 1> <Delay = 2.47> <FuncUnit> <Opcode : 'icmp'> <InPorts = 2> <OutPorts = 1>
ST_1 : Operation 43 [1/1] (0.00ns)   --->   "br i1 %icmp_ln879_6, label %8, label %._crit_edge8.i" [/home/paulrr2/Projects/ece527/babelsoc/fpga-network-stack/hls/dhcp_client/dhcp_client.cpp:285]   --->   Operation 43 'br' <Predicate = (state_load == 2 & tmp_4)> <Delay = 0.00>
ST_1 : Operation 44 [1/1] (1.55ns)   --->   "%icmp_ln879_10 = icmp eq i8 %tmp_type_V_load_new_s, 2" [/home/paulrr2/Projects/ece527/babelsoc/fpga-network-stack/hls/dhcp_client/dhcp_client.cpp:286]   --->   Operation 44 'icmp' 'icmp_ln879_10' <Predicate = (state_load == 2 & tmp_4 & icmp_ln879_6)> <Delay = 1.55> <Core = "Cmp">   --->   Core 25 'Cmp' <Latency = 0> <II = 1> <Delay = 2.47> <FuncUnit> <Opcode : 'icmp'> <InPorts = 2> <OutPorts = 1>
ST_1 : Operation 45 [1/1] (1.76ns)   --->   "br i1 %icmp_ln879_10, label %9, label %._crit_edge9.i" [/home/paulrr2/Projects/ece527/babelsoc/fpga-network-stack/hls/dhcp_client/dhcp_client.cpp:286]   --->   Operation 45 'br' <Predicate = (state_load == 2 & tmp_4 & icmp_ln879_6)> <Delay = 1.76>
ST_1 : Operation 46 [1/1] (1.86ns)   --->   "store i32 750750750, i32* @time_V, align 4" [/home/paulrr2/Projects/ece527/babelsoc/fpga-network-stack/hls/dhcp_client/dhcp_client.cpp:289]   --->   Operation 46 'store' <Predicate = (state_load == 2 & tmp_4 & icmp_ln879_6 & icmp_ln879_10)> <Delay = 1.86>
ST_1 : Operation 47 [1/1] (1.76ns)   --->   "br label %._crit_edge9.i" [/home/paulrr2/Projects/ece527/babelsoc/fpga-network-stack/hls/dhcp_client/dhcp_client.cpp:291]   --->   Operation 47 'br' <Predicate = (state_load == 2 & tmp_4 & icmp_ln879_6 & icmp_ln879_10)> <Delay = 1.76>
ST_1 : Operation 48 [1/1] (0.00ns)   --->   "%storemerge220_i = phi i2 [ -1, %9 ], [ 1, %8 ]"   --->   Operation 48 'phi' 'storemerge220_i' <Predicate = (state_load == 2 & tmp_4 & icmp_ln879_6)> <Delay = 0.00>
ST_1 : Operation 49 [1/1] (0.00ns)   --->   "%zext_ln290 = zext i2 %storemerge220_i to i3" [/home/paulrr2/Projects/ece527/babelsoc/fpga-network-stack/hls/dhcp_client/dhcp_client.cpp:290]   --->   Operation 49 'zext' 'zext_ln290' <Predicate = (state_load == 2 & tmp_4 & icmp_ln879_6)> <Delay = 0.00>
ST_1 : Operation 50 [1/1] (1.86ns)   --->   "store i3 %zext_ln290, i3* @state, align 1" [/home/paulrr2/Projects/ece527/babelsoc/fpga-network-stack/hls/dhcp_client/dhcp_client.cpp:290]   --->   Operation 50 'store' <Predicate = (state_load == 2 & tmp_4 & icmp_ln879_6)> <Delay = 1.86>
ST_1 : Operation 51 [1/1] (1.76ns)   --->   "br label %dhcp_fsm.exit" [/home/paulrr2/Projects/ece527/babelsoc/fpga-network-stack/hls/dhcp_client/dhcp_client.cpp:302]   --->   Operation 51 'br' <Predicate = (state_load == 2)> <Delay = 1.76>
ST_1 : Operation 52 [1/1] (1.76ns)   --->   "br i1 %dhcpEnable_V_read, label %3, label %dhcp_fsm.exit" [/home/paulrr2/Projects/ece527/babelsoc/fpga-network-stack/hls/dhcp_client/dhcp_client.cpp:270]   --->   Operation 52 'br' <Predicate = (state_load == 1)> <Delay = 1.76>
ST_1 : Operation 53 [1/1] (2.47ns)   --->   "%icmp_ln879 = icmp eq i32 %t_V, 0" [/home/paulrr2/Projects/ece527/babelsoc/fpga-network-stack/hls/dhcp_client/dhcp_client.cpp:271]   --->   Operation 53 'icmp' 'icmp_ln879' <Predicate = (state_load == 1 & dhcpEnable_V_read)> <Delay = 2.47> <Core = "Cmp">   --->   Core 25 'Cmp' <Latency = 0> <II = 1> <Delay = 2.47> <FuncUnit> <Opcode : 'icmp'> <InPorts = 2> <OutPorts = 1>
ST_1 : Operation 54 [1/1] (0.00ns)   --->   "br i1 %icmp_ln879, label %4, label %5" [/home/paulrr2/Projects/ece527/babelsoc/fpga-network-stack/hls/dhcp_client/dhcp_client.cpp:271]   --->   Operation 54 'br' <Predicate = (state_load == 1 & dhcpEnable_V_read)> <Delay = 0.00>
ST_1 : Operation 55 [1/1] (2.55ns)   --->   "%add_ln701 = add i32 %t_V, -1" [/home/paulrr2/Projects/ece527/babelsoc/fpga-network-stack/hls/dhcp_client/dhcp_client.cpp:279]   --->   Operation 55 'add' 'add_ln701' <Predicate = (state_load == 1 & dhcpEnable_V_read & !icmp_ln879)> <Delay = 2.55> <Core = "AddSub">   --->   Core 14 'AddSub' <Latency = 0> <II = 1> <Delay = 2.55> <FuncUnit> <Opcode : 'add' 'sub'> <InPorts = 2> <OutPorts = 1>
ST_1 : Operation 56 [1/1] (1.86ns)   --->   "store i32 %add_ln701, i32* @time_V, align 4" [/home/paulrr2/Projects/ece527/babelsoc/fpga-network-stack/hls/dhcp_client/dhcp_client.cpp:279]   --->   Operation 56 'store' <Predicate = (state_load == 1 & dhcpEnable_V_read & !icmp_ln879)> <Delay = 1.86>
ST_1 : Operation 57 [1/1] (1.76ns)   --->   "br label %dhcp_fsm.exit"   --->   Operation 57 'br' <Predicate = (state_load == 1 & dhcpEnable_V_read & !icmp_ln879)> <Delay = 1.76>
ST_1 : Operation 58 [1/1] (0.00ns)   --->   "store i32 %tmp_identifier_V, i32* @myIdentity_V, align 4" [/home/paulrr2/Projects/ece527/babelsoc/fpga-network-stack/hls/dhcp_client/dhcp_client.cpp:272]   --->   Operation 58 'store' <Predicate = (state_load == 1 & dhcpEnable_V_read & icmp_ln879)> <Delay = 0.00>
ST_1 : Operation 59 [1/1] (0.00ns) (grouped into LUT with out node xor_ln214)   --->   "%shl_ln214 = shl i32 %tmp_identifier_V, 3" [/home/paulrr2/Projects/ece527/babelsoc/fpga-network-stack/hls/dhcp_client/dhcp_client.cpp:274]   --->   Operation 59 'shl' 'shl_ln214' <Predicate = (state_load == 1 & dhcpEnable_V_read & icmp_ln879)> <Delay = 0.00>
ST_1 : Operation 60 [1/1] (0.99ns) (out node of the LUT)   --->   "%xor_ln214 = xor i32 %tmp_identifier_V, %shl_ln214" [/home/paulrr2/Projects/ece527/babelsoc/fpga-network-stack/hls/dhcp_client/dhcp_client.cpp:274]   --->   Operation 60 'xor' 'xor_ln214' <Predicate = (state_load == 1 & dhcpEnable_V_read & icmp_ln879)> <Delay = 0.99> <Core = "LogicGate">   --->   Core 27 'LogicGate' <Latency = 0> <II = 1> <Delay = 0.99> <FuncUnit> <Opcode : 'and' 'or' 'xor'> <InPorts = 2> <OutPorts = 1>
ST_1 : Operation 61 [1/1] (1.86ns)   --->   "store i32 750750750, i32* @time_V, align 4" [/home/paulrr2/Projects/ece527/babelsoc/fpga-network-stack/hls/dhcp_client/dhcp_client.cpp:275]   --->   Operation 61 'store' <Predicate = (state_load == 1 & dhcpEnable_V_read & icmp_ln879)> <Delay = 1.86>
ST_1 : Operation 62 [1/1] (1.86ns)   --->   "store i3 2, i3* @state, align 1" [/home/paulrr2/Projects/ece527/babelsoc/fpga-network-stack/hls/dhcp_client/dhcp_client.cpp:276]   --->   Operation 62 'store' <Predicate = (state_load == 1 & dhcpEnable_V_read & icmp_ln879)> <Delay = 1.86>
ST_1 : Operation 63 [1/1] (1.76ns)   --->   "br label %dhcp_fsm.exit" [/home/paulrr2/Projects/ece527/babelsoc/fpga-network-stack/hls/dhcp_client/dhcp_client.cpp:277]   --->   Operation 63 'br' <Predicate = (state_load == 1 & dhcpEnable_V_read & icmp_ln879)> <Delay = 1.76>
ST_1 : Operation 64 [1/1] (0.00ns)   --->   "%tmp = call i1 @_ssdm_op_NbReadReq.ap_fifo.i1P(i1* @portOpen_V_V, i32 1)" [/home/paulrr2/Projects/ece527/babelsoc/fpga-network-stack/hls/dhcp_client/dhcp_client.cpp:263]   --->   Operation 64 'nbreadreq' 'tmp' <Predicate = (state_load == 0)> <Delay = 0.00> <Core = "FIFO">   --->   Core 32 'FIFO' <Latency = 0> <II = 1> <Delay = 3.63> <Storage> <Opcode : 'read' 'write' 'nbread' 'nbwrite'> <Ports = 0> <Width = 72> <Depth = 2> <FIFO>
ST_1 : Operation 65 [1/1] (0.00ns)   --->   "br i1 %tmp, label %1, label %._crit_edge6.i" [/home/paulrr2/Projects/ece527/babelsoc/fpga-network-stack/hls/dhcp_client/dhcp_client.cpp:263]   --->   Operation 65 'br' <Predicate = (state_load == 0)> <Delay = 0.00>
ST_1 : Operation 66 [1/1] (2.80ns)   --->   "%tmp_V_0 = call i1 @_ssdm_op_Read.ap_fifo.volatile.i1P(i1* @portOpen_V_V)" [/home/paulrr2/Projects/ece527/babelsoc/fpga-network-stack/hls/dhcp_client/dhcp_client.cpp:264]   --->   Operation 66 'read' 'tmp_V_0' <Predicate = (state_load == 0 & tmp)> <Delay = 2.80> <Core = "FIFO">   --->   Core 32 'FIFO' <Latency = 0> <II = 1> <Delay = 3.63> <Storage> <Opcode : 'read' 'write' 'nbread' 'nbwrite'> <Ports = 0> <Width = 72> <Depth = 2> <FIFO>
ST_1 : Operation 67 [1/1] (1.86ns)   --->   "store i3 1, i3* @state, align 1" [/home/paulrr2/Projects/ece527/babelsoc/fpga-network-stack/hls/dhcp_client/dhcp_client.cpp:265]   --->   Operation 67 'store' <Predicate = (state_load == 0 & tmp)> <Delay = 1.86>
ST_1 : Operation 68 [1/1] (1.76ns)   --->   "br label %dhcp_fsm.exit" [/home/paulrr2/Projects/ece527/babelsoc/fpga-network-stack/hls/dhcp_client/dhcp_client.cpp:267]   --->   Operation 68 'br' <Predicate = (state_load == 0)> <Delay = 1.76>

State 2 <SV = 1> <Delay = 2.80>
ST_2 : Operation 69 [1/1] (0.00ns)   --->   "call void (...)* @_ssdm_op_SpecInterface(i104* @dhcp_replyMetaFifo_V, [8 x i8]* @ap_fifo_str, i32 0, i32 0, [1 x i8]* @p_str, i32 0, i32 0, [1 x i8]* @p_str, [1 x i8]* @p_str, [1 x i8]* @p_str, i32 2, i32 2, i32 16, i32 16, [1 x i8]* @p_str, [1 x i8]* @p_str)"   --->   Operation 69 'specinterface' <Predicate = true> <Delay = 0.00>
ST_2 : Operation 70 [1/1] (0.00ns)   --->   "call void (...)* @_ssdm_op_SpecInterface(i72* @dhcp_requestMetaFifo_1, [8 x i8]* @ap_fifo_str, i32 0, i32 0, [1 x i8]* @p_str, i32 0, i32 0, [1 x i8]* @p_str, [1 x i8]* @p_str, [1 x i8]* @p_str, i32 2, i32 2, i32 16, i32 16, [1 x i8]* @p_str, [1 x i8]* @p_str)"   --->   Operation 70 'specinterface' <Predicate = true> <Delay = 0.00>
ST_2 : Operation 71 [1/1] (0.00ns)   --->   "call void (...)* @_ssdm_op_SpecInterface(i1* @portOpen_V_V, [8 x i8]* @ap_fifo_str, i32 0, i32 0, [1 x i8]* @p_str, i32 0, i32 0, [1 x i8]* @p_str, [1 x i8]* @p_str, [1 x i8]* @p_str, i32 2, i32 2, i32 16, i32 16, [1 x i8]* @p_str, [1 x i8]* @p_str)"   --->   Operation 71 'specinterface' <Predicate = true> <Delay = 0.00>
ST_2 : Operation 72 [1/1] (0.00ns)   --->   "call void (...)* @_ssdm_op_SpecPipeline(i32 1, i32 1, i32 1, i32 0, [1 x i8]* @p_str) nounwind" [/home/paulrr2/Projects/ece527/babelsoc/fpga-network-stack/hls/dhcp_client/dhcp_client.cpp:246]   --->   Operation 72 'specpipeline' <Predicate = true> <Delay = 0.00>
ST_2 : Operation 73 [1/1] (0.00ns)   --->   "%myIpAddress_V_load = load i32* @myIpAddress_V, align 4" [/home/paulrr2/Projects/ece527/babelsoc/fpga-network-stack/hls/dhcp_client/dhcp_client.cpp:258]   --->   Operation 73 'load' 'myIpAddress_V_load' <Predicate = true> <Delay = 0.00>
ST_2 : Operation 74 [1/1] (0.00ns)   --->   "%IpAddressBuffer_V_lo = load i32* @IpAddressBuffer_V, align 4" [/home/paulrr2/Projects/ece527/babelsoc/fpga-network-stack/hls/dhcp_client/dhcp_client.cpp:308]   --->   Operation 74 'load' 'IpAddressBuffer_V_lo' <Predicate = true> <Delay = 0.00>
ST_2 : Operation 75 [1/1] (0.00ns)   --->   "br i1 %tmp_6, label %25, label %._crit_edge12.i" [/home/paulrr2/Projects/ece527/babelsoc/fpga-network-stack/hls/dhcp_client/dhcp_client.cpp:325]   --->   Operation 75 'br' <Predicate = (state_load == 4)> <Delay = 0.00>
ST_2 : Operation 76 [1/1] (0.00ns)   --->   "br label %._crit_edge12.i" [/home/paulrr2/Projects/ece527/babelsoc/fpga-network-stack/hls/dhcp_client/dhcp_client.cpp:326]   --->   Operation 76 'br' <Predicate = (state_load == 4 & tmp_6)> <Delay = 0.00>
ST_2 : Operation 77 [1/1] (0.00ns)   --->   "br label %._crit_edge13.i" [/home/paulrr2/Projects/ece527/babelsoc/fpga-network-stack/hls/dhcp_client/dhcp_client.cpp:328]   --->   Operation 77 'br' <Predicate = (state_load == 4 & !dhcpEnable_V_read)> <Delay = 0.00>
ST_2 : Operation 78 [1/1] (0.00ns)   --->   "br i1 %tmp_5, label %16, label %19" [/home/paulrr2/Projects/ece527/babelsoc/fpga-network-stack/hls/dhcp_client/dhcp_client.cpp:304]   --->   Operation 78 'br' <Predicate = (state_load == 3)> <Delay = 0.00>
ST_2 : Operation 79 [1/1] (0.00ns)   --->   "br label %22"   --->   Operation 79 'br' <Predicate = (state_load == 3 & !tmp_5 & !icmp_ln879_9)> <Delay = 0.00>
ST_2 : Operation 80 [1/1] (0.00ns)   --->   "br label %22" [/home/paulrr2/Projects/ece527/babelsoc/fpga-network-stack/hls/dhcp_client/dhcp_client.cpp:318]   --->   Operation 80 'br' <Predicate = (state_load == 3 & !tmp_5 & icmp_ln879_9)> <Delay = 0.00>
ST_2 : Operation 81 [1/1] (0.00ns)   --->   "br label %23"   --->   Operation 81 'br' <Predicate = (state_load == 3 & !tmp_5)> <Delay = 0.00>
ST_2 : Operation 82 [1/1] (1.76ns)   --->   "store i32 %IpAddressBuffer_V_lo, i32* @myIpAddress_V, align 4" [/home/paulrr2/Projects/ece527/babelsoc/fpga-network-stack/hls/dhcp_client/dhcp_client.cpp:308]   --->   Operation 82 'store' <Predicate = (state_load == 3 & tmp_5 & icmp_ln879_8 & icmp_ln879_11)> <Delay = 1.76>
ST_2 : Operation 83 [1/1] (0.00ns)   --->   "br label %._crit_edge10.i" [/home/paulrr2/Projects/ece527/babelsoc/fpga-network-stack/hls/dhcp_client/dhcp_client.cpp:313]   --->   Operation 83 'br' <Predicate = (state_load == 3 & tmp_5 & icmp_ln879_8)> <Delay = 0.00>
ST_2 : Operation 84 [1/1] (0.00ns)   --->   "br label %23" [/home/paulrr2/Projects/ece527/babelsoc/fpga-network-stack/hls/dhcp_client/dhcp_client.cpp:315]   --->   Operation 84 'br' <Predicate = (state_load == 3 & tmp_5)> <Delay = 0.00>
ST_2 : Operation 85 [1/1] (0.00ns)   --->   "br i1 %tmp_4, label %7, label %10" [/home/paulrr2/Projects/ece527/babelsoc/fpga-network-stack/hls/dhcp_client/dhcp_client.cpp:283]   --->   Operation 85 'br' <Predicate = (state_load == 2)> <Delay = 0.00>
ST_2 : Operation 86 [1/1] (0.00ns)   --->   "br label %13"   --->   Operation 86 'br' <Predicate = (state_load == 2 & !tmp_4 & !icmp_ln879_7)> <Delay = 0.00>
ST_2 : Operation 87 [1/1] (0.00ns)   --->   "br label %13" [/home/paulrr2/Projects/ece527/babelsoc/fpga-network-stack/hls/dhcp_client/dhcp_client.cpp:298]   --->   Operation 87 'br' <Predicate = (state_load == 2 & !tmp_4 & icmp_ln879_7)> <Delay = 0.00>
ST_2 : Operation 88 [1/1] (0.00ns)   --->   "br label %14"   --->   Operation 88 'br' <Predicate = (state_load == 2 & !tmp_4)> <Delay = 0.00>
ST_2 : Operation 89 [1/1] (0.00ns)   --->   "store i32 %tmp_requestedIpAddre, i32* @IpAddressBuffer_V, align 4" [/home/paulrr2/Projects/ece527/babelsoc/fpga-network-stack/hls/dhcp_client/dhcp_client.cpp:287]   --->   Operation 89 'store' <Predicate = (state_load == 2 & tmp_4 & icmp_ln879_6 & icmp_ln879_10)> <Delay = 0.00>
ST_2 : Operation 90 [1/1] (0.00ns)   --->   "%tmp_2 = call i72 @_ssdm_op_BitConcatenate.i72.i32.i8.i32(i32 %tmp_requestedIpAddre, i8 3, i32 %myIdentity_V_load)" [/home/paulrr2/Projects/ece527/babelsoc/fpga-network-stack/hls/dhcp_client/dhcp_client.cpp:288]   --->   Operation 90 'bitconcatenate' 'tmp_2' <Predicate = (state_load == 2 & tmp_4 & icmp_ln879_6 & icmp_ln879_10)> <Delay = 0.00>
ST_2 : Operation 91 [1/1] (2.80ns)   --->   "call void @_ssdm_op_Write.ap_fifo.volatile.i72P(i72* @dhcp_requestMetaFifo_1, i72 %tmp_2)" [/home/paulrr2/Projects/ece527/babelsoc/fpga-network-stack/hls/dhcp_client/dhcp_client.cpp:288]   --->   Operation 91 'write' <Predicate = (state_load == 2 & tmp_4 & icmp_ln879_6 & icmp_ln879_10)> <Delay = 2.80> <Core = "FIFO">   --->   Core 32 'FIFO' <Latency = 0> <II = 1> <Delay = 3.63> <Storage> <Opcode : 'read' 'write' 'nbread' 'nbwrite'> <Ports = 0> <Width = 72> <Depth = 2> <FIFO>
ST_2 : Operation 92 [1/1] (0.00ns)   --->   "br label %._crit_edge8.i" [/home/paulrr2/Projects/ece527/babelsoc/fpga-network-stack/hls/dhcp_client/dhcp_client.cpp:294]   --->   Operation 92 'br' <Predicate = (state_load == 2 & tmp_4 & icmp_ln879_6)> <Delay = 0.00>
ST_2 : Operation 93 [1/1] (0.00ns)   --->   "br label %14" [/home/paulrr2/Projects/ece527/babelsoc/fpga-network-stack/hls/dhcp_client/dhcp_client.cpp:295]   --->   Operation 93 'br' <Predicate = (state_load == 2 & tmp_4)> <Delay = 0.00>
ST_2 : Operation 94 [1/1] (1.76ns)   --->   "store i32 %inputIpAddress_V_rea, i32* @myIpAddress_V, align 4" [/home/paulrr2/Projects/ece527/babelsoc/fpga-network-stack/hls/dhcp_client/dhcp_client.cpp:269]   --->   Operation 94 'store' <Predicate = (state_load == 1)> <Delay = 1.76>
ST_2 : Operation 95 [1/1] (0.00ns)   --->   "%tmp22 = call i72 @_ssdm_op_BitConcatenate.i72.i40.i32(i40 1, i32 %tmp_identifier_V)" [/home/paulrr2/Projects/ece527/babelsoc/fpga-network-stack/hls/dhcp_client/dhcp_client.cpp:273]   --->   Operation 95 'bitconcatenate' 'tmp22' <Predicate = (state_load == 1 & dhcpEnable_V_read & icmp_ln879)> <Delay = 0.00>
ST_2 : Operation 96 [1/1] (2.80ns)   --->   "call void @_ssdm_op_Write.ap_fifo.volatile.i72P(i72* @dhcp_requestMetaFifo_1, i72 %tmp22)" [/home/paulrr2/Projects/ece527/babelsoc/fpga-network-stack/hls/dhcp_client/dhcp_client.cpp:273]   --->   Operation 96 'write' <Predicate = (state_load == 1 & dhcpEnable_V_read & icmp_ln879)> <Delay = 2.80> <Core = "FIFO">   --->   Core 32 'FIFO' <Latency = 0> <II = 1> <Delay = 3.63> <Storage> <Opcode : 'read' 'write' 'nbread' 'nbwrite'> <Ports = 0> <Width = 72> <Depth = 2> <FIFO>
ST_2 : Operation 97 [1/1] (1.76ns)   --->   "store i32 %inputIpAddress_V_rea, i32* @myIpAddress_V, align 4" [/home/paulrr2/Projects/ece527/babelsoc/fpga-network-stack/hls/dhcp_client/dhcp_client.cpp:262]   --->   Operation 97 'store' <Predicate = (state_load == 0)> <Delay = 1.76>
ST_2 : Operation 98 [1/1] (0.00ns)   --->   "br label %._crit_edge6.i" [/home/paulrr2/Projects/ece527/babelsoc/fpga-network-stack/hls/dhcp_client/dhcp_client.cpp:266]   --->   Operation 98 'br' <Predicate = (state_load == 0 & tmp)> <Delay = 0.00>
ST_2 : Operation 99 [1/1] (0.00ns)   --->   "%t_V_1 = phi i32 [ %tmp_identifier_V, %entry ], [ %tmp_identifier_V, %._crit_edge13.i ], [ %tmp_identifier_V, %23 ], [ %tmp_identifier_V, %14 ], [ %tmp_identifier_V, %._crit_edge6.i ], [ %tmp_identifier_V, %2 ], [ %xor_ln214, %4 ], [ %tmp_identifier_V, %5 ]"   --->   Operation 99 'phi' 't_V_1' <Predicate = true> <Delay = 0.00>
ST_2 : Operation 100 [1/1] (2.55ns)   --->   "%add_ln700 = add i32 %t_V_1, 1" [/home/paulrr2/Projects/ece527/babelsoc/fpga-network-stack/hls/dhcp_client/dhcp_client.cpp:331]   --->   Operation 100 'add' 'add_ln700' <Predicate = true> <Delay = 2.55> <Core = "AddSub">   --->   Core 14 'AddSub' <Latency = 0> <II = 1> <Delay = 2.55> <FuncUnit> <Opcode : 'add' 'sub'> <InPorts = 2> <OutPorts = 1>
ST_2 : Operation 101 [1/1] (0.00ns)   --->   "store i32 %add_ln700, i32* @randomValue_V, align 4" [/home/paulrr2/Projects/ece527/babelsoc/fpga-network-stack/hls/dhcp_client/dhcp_client.cpp:274]   --->   Operation 101 'store' <Predicate = true> <Delay = 0.00>
ST_2 : Operation 102 [1/1] (0.00ns)   --->   "call void @_ssdm_op_Write.ap_auto.i32P(i32* %ipAddressOut_V, i32 %myIpAddress_V_load)" [/home/paulrr2/Projects/ece527/babelsoc/fpga-network-stack/hls/dhcp_client/dhcp_client.cpp:258]   --->   Operation 102 'write' <Predicate = true> <Delay = 0.00>
ST_2 : Operation 103 [1/1] (0.00ns)   --->   "ret void"   --->   Operation 103 'ret' <Predicate = true> <Delay = 0.00>


============================================================
+ Verbose Summary: Binding
============================================================
STG Binding: 
---------------- STG Properties BEGIN ----------------
- Is combinational: 0
- Is one-state seq: 0
- Is datapath-only: 0
- Is pipelined: 1
- Is top level: 0
Port [ Return ] is wired: 1; IO mode=ap_ctrl_hs:ce=0
Port [ ipAddressOut_V]:  wired=1; compound=0; hidden=0; nouse=0; global=0; static=0; extern=0; dir=1; type=0; pingpong=0; private_global=0; IO mode=ap_vld:ce=0
Port [ dhcpEnable_V]:  wired=1; compound=0; hidden=0; nouse=0; global=0; static=0; extern=0; dir=0; type=0; pingpong=0; private_global=0; IO mode=ap_stable:ce=0
Port [ inputIpAddress_V]:  wired=1; compound=0; hidden=0; nouse=0; global=0; static=0; extern=0; dir=0; type=0; pingpong=0; private_global=0; IO mode=ap_stable:ce=0
Port [ myIpAddress_V]:  wired=0; compound=0; hidden=1; nouse=0; global=1; static=1; extern=0; dir=2; type=0; pingpong=0; private_global=1; linkage=7; visibility=0; IO mode=ap_ovld:ce=0
Port [ state]:  wired=0; compound=0; hidden=1; nouse=0; global=1; static=1; extern=0; dir=2; type=0; pingpong=0; private_global=1; linkage=7; visibility=0; IO mode=ap_ovld:ce=0
Port [ time_V]:  wired=0; compound=0; hidden=1; nouse=0; global=1; static=1; extern=0; dir=2; type=0; pingpong=0; private_global=1; linkage=7; visibility=0; IO mode=ap_ovld:ce=0
Port [ randomValue_V]:  wired=0; compound=0; hidden=1; nouse=0; global=1; static=1; extern=0; dir=2; type=0; pingpong=0; private_global=1; linkage=7; visibility=0; IO mode=ap_ovld:ce=0
Port [ myIdentity_V]:  wired=0; compound=0; hidden=1; nouse=0; global=1; static=1; extern=0; dir=2; type=0; pingpong=0; private_global=1; linkage=7; visibility=0; IO mode=ap_ovld:ce=0
Port [ IpAddressBuffer_V]:  wired=0; compound=0; hidden=1; nouse=0; global=1; static=1; extern=0; dir=2; type=0; pingpong=0; private_global=1; linkage=7; visibility=0; IO mode=ap_ovld:ce=0
Port [ portOpen_V_V]:  wired=1; compound=1; hidden=0; nouse=0; global=1; static=1; extern=0; dir=0; type=3; pingpong=0; private_global=0; linkage=7; visibility=0; IO mode=ap_fifo:ce=0
Port [ dhcp_requestMetaFifo_1]:  wired=1; compound=1; hidden=0; nouse=0; global=1; static=1; extern=0; dir=1; type=3; pingpong=0; private_global=0; linkage=7; visibility=0; IO mode=ap_fifo:ce=0
Port [ dhcp_replyMetaFifo_V]:  wired=1; compound=1; hidden=0; nouse=0; global=1; static=1; extern=0; dir=0; type=3; pingpong=0; private_global=0; linkage=7; visibility=0; IO mode=ap_fifo:ce=0
---------------- STG Properties END ------------------

---------------- Datapath Model BEGIN ----------------

<LifeTime>
<method=bitvector/>
state_load            (load          ) [ 011]
inputIpAddress_V_rea  (read          ) [ 011]
dhcpEnable_V_read     (read          ) [ 011]
t_V                   (load          ) [ 000]
tmp_identifier_V      (load          ) [ 011]
myIdentity_V_load     (load          ) [ 011]
switch_ln260          (switch        ) [ 011]
tmp_6                 (nbreadreq     ) [ 011]
tmp_459_0             (read          ) [ 000]
br_ln327              (br            ) [ 000]
store_ln328           (store         ) [ 000]
br_ln329              (br            ) [ 011]
tmp_5                 (nbreadreq     ) [ 011]
icmp_ln879_9          (icmp          ) [ 011]
br_ln317              (br            ) [ 000]
add_ln701_2           (add           ) [ 000]
store_ln320           (store         ) [ 000]
store_ln318           (store         ) [ 000]
tmp_3                 (read          ) [ 000]
trunc_ln321_1         (trunc         ) [ 000]
tmp_type_V_1_load_ne  (partselect    ) [ 000]
icmp_ln879_8          (icmp          ) [ 011]
br_ln306              (br            ) [ 000]
icmp_ln879_11         (icmp          ) [ 011]
br_ln307              (br            ) [ 000]
br_ln310              (br            ) [ 000]
storemerge_i          (phi           ) [ 000]
store_ln309           (store         ) [ 000]
br_ln322              (br            ) [ 011]
tmp_4                 (nbreadreq     ) [ 011]
icmp_ln879_7          (icmp          ) [ 011]
br_ln297              (br            ) [ 000]
add_ln701_1           (add           ) [ 000]
store_ln300           (store         ) [ 000]
store_ln298           (store         ) [ 000]
tmp_1                 (read          ) [ 000]
tmp_identifier_V_1    (trunc         ) [ 000]
tmp_requestedIpAddre  (partselect    ) [ 011]
tmp_type_V_load_new_s (partselect    ) [ 000]
icmp_ln879_6          (icmp          ) [ 011]
br_ln285              (br            ) [ 000]
icmp_ln879_10         (icmp          ) [ 011]
br_ln286              (br            ) [ 000]
store_ln289           (store         ) [ 000]
br_ln291              (br            ) [ 000]
storemerge220_i       (phi           ) [ 000]
zext_ln290            (zext          ) [ 000]
store_ln290           (store         ) [ 000]
br_ln302              (br            ) [ 011]
br_ln270              (br            ) [ 011]
icmp_ln879            (icmp          ) [ 011]
br_ln271              (br            ) [ 000]
add_ln701             (add           ) [ 000]
store_ln279           (store         ) [ 000]
br_ln0                (br            ) [ 011]
store_ln272           (store         ) [ 000]
shl_ln214             (shl           ) [ 000]
xor_ln214             (xor           ) [ 011]
store_ln275           (store         ) [ 000]
store_ln276           (store         ) [ 000]
br_ln277              (br            ) [ 011]
tmp                   (nbreadreq     ) [ 011]
br_ln263              (br            ) [ 000]
tmp_V_0               (read          ) [ 000]
store_ln265           (store         ) [ 000]
br_ln267              (br            ) [ 011]
specinterface_ln0     (specinterface ) [ 000]
specinterface_ln0     (specinterface ) [ 000]
specinterface_ln0     (specinterface ) [ 000]
specpipeline_ln246    (specpipeline  ) [ 000]
myIpAddress_V_load    (load          ) [ 000]
IpAddressBuffer_V_lo  (load          ) [ 000]
br_ln325              (br            ) [ 000]
br_ln326              (br            ) [ 000]
br_ln328              (br            ) [ 000]
br_ln304              (br            ) [ 000]
br_ln0                (br            ) [ 000]
br_ln318              (br            ) [ 000]
br_ln0                (br            ) [ 000]
store_ln308           (store         ) [ 000]
br_ln313              (br            ) [ 000]
br_ln315              (br            ) [ 000]
br_ln283              (br            ) [ 000]
br_ln0                (br            ) [ 000]
br_ln298              (br            ) [ 000]
br_ln0                (br            ) [ 000]
store_ln287           (store         ) [ 000]
tmp_2                 (bitconcatenate) [ 000]
write_ln288           (write         ) [ 000]
br_ln294              (br            ) [ 000]
br_ln295              (br            ) [ 000]
store_ln269           (store         ) [ 000]
tmp22                 (bitconcatenate) [ 000]
write_ln273           (write         ) [ 000]
store_ln262           (store         ) [ 000]
br_ln266              (br            ) [ 000]
t_V_1                 (phi           ) [ 011]
add_ln700             (add           ) [ 000]
store_ln274           (store         ) [ 000]
write_ln258           (write         ) [ 000]
ret_ln0               (ret           ) [ 000]
</LifeTime>

<model>

<comp_list>
<comp id="0" class="1000" name="ipAddressOut_V">
<pin_list>
<pin id="1" dir="1" index="0" bw="1" slack="0"/>
</pin_list>
<bind>
<StgValue><ssdm name="ipAddressOut_V"/></StgValue>
</bind>
</comp>

<comp id="2" class="1000" name="dhcpEnable_V">
<pin_list>
<pin id="3" dir="1" index="0" bw="1" slack="0"/>
</pin_list>
<bind>
<StgValue><ssdm name="dhcpEnable_V"/></StgValue>
</bind>
</comp>

<comp id="4" class="1000" name="inputIpAddress_V">
<pin_list>
<pin id="5" dir="1" index="0" bw="1" slack="0"/>
</pin_list>
<bind>
<StgValue><ssdm name="inputIpAddress_V"/></StgValue>
</bind>
</comp>

<comp id="6" class="1000" name="myIpAddress_V">
<pin_list>
<pin id="7" dir="1" index="0" bw="1" slack="0"/>
</pin_list>
<bind>
<StgValue><ssdm name="myIpAddress_V"/></StgValue>
</bind>
</comp>

<comp id="8" class="1000" name="state">
<pin_list>
<pin id="9" dir="1" index="0" bw="1" slack="0"/>
</pin_list>
<bind>
<StgValue><ssdm name="state"/></StgValue>
</bind>
</comp>

<comp id="10" class="1000" name="time_V">
<pin_list>
<pin id="11" dir="1" index="0" bw="1" slack="0"/>
</pin_list>
<bind>
<StgValue><ssdm name="time_V"/></StgValue>
</bind>
</comp>

<comp id="12" class="1000" name="randomValue_V">
<pin_list>
<pin id="13" dir="1" index="0" bw="1" slack="0"/>
</pin_list>
<bind>
<StgValue><ssdm name="randomValue_V"/></StgValue>
</bind>
</comp>

<comp id="14" class="1000" name="myIdentity_V">
<pin_list>
<pin id="15" dir="1" index="0" bw="1" slack="0"/>
</pin_list>
<bind>
<StgValue><ssdm name="myIdentity_V"/></StgValue>
</bind>
</comp>

<comp id="16" class="1000" name="IpAddressBuffer_V">
<pin_list>
<pin id="17" dir="1" index="0" bw="1" slack="0"/>
</pin_list>
<bind>
<StgValue><ssdm name="IpAddressBuffer_V"/></StgValue>
</bind>
</comp>

<comp id="18" class="1000" name="portOpen_V_V">
<pin_list>
<pin id="19" dir="1" index="0" bw="1" slack="0"/>
</pin_list>
<bind>
<StgValue><ssdm name="portOpen_V_V"/></StgValue>
</bind>
</comp>

<comp id="20" class="1000" name="dhcp_requestMetaFifo_1">
<pin_list>
<pin id="21" dir="1" index="0" bw="1" slack="0"/>
</pin_list>
<bind>
<StgValue><ssdm name="dhcp_requestMetaFifo_1"/></StgValue>
</bind>
</comp>

<comp id="22" class="1000" name="dhcp_replyMetaFifo_V">
<pin_list>
<pin id="23" dir="1" index="0" bw="1" slack="0"/>
</pin_list>
<bind>
<StgValue><ssdm name="dhcp_replyMetaFifo_V"/></StgValue>
</bind>
</comp>

<comp id="24" class="1001" name="const_24">
<pin_list>
<pin id="25" dir="1" index="0" bw="1" slack="0"/>
</pin_list>
<bind>
<StgValue><ssdm name="_ssdm_op_Read.ap_auto.i32P"/></StgValue>
</bind>
</comp>

<comp id="26" class="1001" name="const_26">
<pin_list>
<pin id="27" dir="1" index="0" bw="1" slack="0"/>
</pin_list>
<bind>
<StgValue><ssdm name="_ssdm_op_Read.ap_auto.i1P"/></StgValue>
</bind>
</comp>

<comp id="28" class="1001" name="const_28">
<pin_list>
<pin id="29" dir="1" index="0" bw="1" slack="2147483647"/>
</pin_list>
<bind>
<StgValue><ssdm name=""/></StgValue>
</bind>
</comp>

<comp id="30" class="1001" name="const_30">
<pin_list>
<pin id="31" dir="1" index="0" bw="1" slack="0"/>
</pin_list>
<bind>
<StgValue><ssdm name=""/></StgValue>
</bind>
</comp>

<comp id="32" class="1001" name="const_32">
<pin_list>
<pin id="33" dir="1" index="0" bw="1" slack="0"/>
</pin_list>
<bind>
<StgValue><ssdm name=""/></StgValue>
</bind>
</comp>

<comp id="34" class="1001" name="const_34">
<pin_list>
<pin id="35" dir="1" index="0" bw="1" slack="2147483647"/>
</pin_list>
<bind>
<StgValue><ssdm name=""/></StgValue>
</bind>
</comp>

<comp id="36" class="1001" name="const_36">
<pin_list>
<pin id="37" dir="1" index="0" bw="1" slack="0"/>
</pin_list>
<bind>
<StgValue><ssdm name=""/></StgValue>
</bind>
</comp>

<comp id="38" class="1001" name="const_38">
<pin_list>
<pin id="39" dir="1" index="0" bw="1" slack="0"/>
</pin_list>
<bind>
<StgValue><ssdm name="_ssdm_op_NbReadReq.ap_fifo.i104P"/></StgValue>
</bind>
</comp>

<comp id="40" class="1001" name="const_40">
<pin_list>
<pin id="41" dir="1" index="0" bw="1" slack="0"/>
</pin_list>
<bind>
<StgValue><ssdm name=""/></StgValue>
</bind>
</comp>

<comp id="42" class="1001" name="const_42">
<pin_list>
<pin id="43" dir="1" index="0" bw="1" slack="0"/>
</pin_list>
<bind>
<StgValue><ssdm name="_ssdm_op_Read.ap_fifo.volatile.i104P"/></StgValue>
</bind>
</comp>

<comp id="44" class="1001" name="const_44">
<pin_list>
<pin id="45" dir="1" index="0" bw="1" slack="0"/>
</pin_list>
<bind>
<StgValue><ssdm name=""/></StgValue>
</bind>
</comp>

<comp id="46" class="1001" name="const_46">
<pin_list>
<pin id="47" dir="1" index="0" bw="1" slack="0"/>
</pin_list>
<bind>
<StgValue><ssdm name=""/></StgValue>
</bind>
</comp>

<comp id="48" class="1001" name="const_48">
<pin_list>
<pin id="49" dir="1" index="0" bw="1" slack="0"/>
</pin_list>
<bind>
<StgValue><ssdm name="_ssdm_op_PartSelect.i8.i104.i32.i32"/></StgValue>
</bind>
</comp>

<comp id="50" class="1001" name="const_50">
<pin_list>
<pin id="51" dir="1" index="0" bw="1" slack="0"/>
</pin_list>
<bind>
<StgValue><ssdm name=""/></StgValue>
</bind>
</comp>

<comp id="52" class="1001" name="const_52">
<pin_list>
<pin id="53" dir="1" index="0" bw="1" slack="0"/>
</pin_list>
<bind>
<StgValue><ssdm name=""/></StgValue>
</bind>
</comp>

<comp id="54" class="1001" name="const_54">
<pin_list>
<pin id="55" dir="1" index="0" bw="1" slack="0"/>
</pin_list>
<bind>
<StgValue><ssdm name=""/></StgValue>
</bind>
</comp>

<comp id="56" class="1001" name="const_56">
<pin_list>
<pin id="57" dir="1" index="0" bw="1" slack="0"/>
</pin_list>
<bind>
<StgValue><ssdm name="_ssdm_op_PartSelect.i32.i104.i32.i32"/></StgValue>
</bind>
</comp>

<comp id="58" class="1001" name="const_58">
<pin_list>
<pin id="59" dir="1" index="0" bw="1" slack="0"/>
</pin_list>
<bind>
<StgValue><ssdm name=""/></StgValue>
</bind>
</comp>

<comp id="60" class="1001" name="const_60">
<pin_list>
<pin id="61" dir="1" index="0" bw="1" slack="0"/>
</pin_list>
<bind>
<StgValue><ssdm name=""/></StgValue>
</bind>
</comp>

<comp id="62" class="1001" name="const_62">
<pin_list>
<pin id="63" dir="1" index="0" bw="1" slack="0"/>
</pin_list>
<bind>
<StgValue><ssdm name=""/></StgValue>
</bind>
</comp>

<comp id="64" class="1001" name="const_64">
<pin_list>
<pin id="65" dir="1" index="0" bw="1" slack="0"/>
</pin_list>
<bind>
<StgValue><ssdm name=""/></StgValue>
</bind>
</comp>

<comp id="66" class="1001" name="const_66">
<pin_list>
<pin id="67" dir="1" index="0" bw="1" slack="0"/>
</pin_list>
<bind>
<StgValue><ssdm name=""/></StgValue>
</bind>
</comp>

<comp id="68" class="1001" name="const_68">
<pin_list>
<pin id="69" dir="1" index="0" bw="1" slack="0"/>
</pin_list>
<bind>
<StgValue><ssdm name=""/></StgValue>
</bind>
</comp>

<comp id="70" class="1001" name="const_70">
<pin_list>
<pin id="71" dir="1" index="0" bw="1" slack="0"/>
</pin_list>
<bind>
<StgValue><ssdm name=""/></StgValue>
</bind>
</comp>

<comp id="72" class="1001" name="const_72">
<pin_list>
<pin id="73" dir="1" index="0" bw="1" slack="0"/>
</pin_list>
<bind>
<StgValue><ssdm name="_ssdm_op_NbReadReq.ap_fifo.i1P"/></StgValue>
</bind>
</comp>

<comp id="74" class="1001" name="const_74">
<pin_list>
<pin id="75" dir="1" index="0" bw="1" slack="0"/>
</pin_list>
<bind>
<StgValue><ssdm name="_ssdm_op_Read.ap_fifo.volatile.i1P"/></StgValue>
</bind>
</comp>

<comp id="76" class="1001" name="const_76">
<pin_list>
<pin id="77" dir="1" index="0" bw="1" slack="2147483647"/>
</pin_list>
<bind>
<StgValue><ssdm name="_ssdm_op_SpecInterface"/></StgValue>
</bind>
</comp>

<comp id="78" class="1001" name="const_78">
<pin_list>
<pin id="79" dir="1" index="0" bw="1" slack="2147483647"/>
</pin_list>
<bind>
<StgValue><ssdm name="ap_fifo_str"/></StgValue>
</bind>
</comp>

<comp id="80" class="1001" name="const_80">
<pin_list>
<pin id="81" dir="1" index="0" bw="1" slack="2147483647"/>
</pin_list>
<bind>
<StgValue><ssdm name="p_str"/></StgValue>
</bind>
</comp>

<comp id="82" class="1001" name="const_82">
<pin_list>
<pin id="83" dir="1" index="0" bw="1" slack="2147483647"/>
</pin_list>
<bind>
<StgValue><ssdm name=""/></StgValue>
</bind>
</comp>

<comp id="84" class="1001" name="const_84">
<pin_list>
<pin id="85" dir="1" index="0" bw="1" slack="2147483647"/>
</pin_list>
<bind>
<StgValue><ssdm name=""/></StgValue>
</bind>
</comp>

<comp id="86" class="1001" name="const_86">
<pin_list>
<pin id="87" dir="1" index="0" bw="1" slack="2147483647"/>
</pin_list>
<bind>
<StgValue><ssdm name="_ssdm_op_SpecPipeline"/></StgValue>
</bind>
</comp>

<comp id="88" class="1001" name="const_88">
<pin_list>
<pin id="89" dir="1" index="0" bw="1" slack="0"/>
</pin_list>
<bind>
<StgValue><ssdm name="_ssdm_op_BitConcatenate.i72.i32.i8.i32"/></StgValue>
</bind>
</comp>

<comp id="90" class="1001" name="const_90">
<pin_list>
<pin id="91" dir="1" index="0" bw="1" slack="0"/>
</pin_list>
<bind>
<StgValue><ssdm name=""/></StgValue>
</bind>
</comp>

<comp id="92" class="1001" name="const_92">
<pin_list>
<pin id="93" dir="1" index="0" bw="1" slack="0"/>
</pin_list>
<bind>
<StgValue><ssdm name="_ssdm_op_Write.ap_fifo.volatile.i72P"/></StgValue>
</bind>
</comp>

<comp id="94" class="1001" name="const_94">
<pin_list>
<pin id="95" dir="1" index="0" bw="1" slack="0"/>
</pin_list>
<bind>
<StgValue><ssdm name="_ssdm_op_BitConcatenate.i72.i40.i32"/></StgValue>
</bind>
</comp>

<comp id="96" class="1001" name="const_96">
<pin_list>
<pin id="97" dir="1" index="0" bw="1" slack="0"/>
</pin_list>
<bind>
<StgValue><ssdm name=""/></StgValue>
</bind>
</comp>

<comp id="98" class="1001" name="const_98">
<pin_list>
<pin id="99" dir="1" index="0" bw="1" slack="0"/>
</pin_list>
<bind>
<StgValue><ssdm name="_ssdm_op_Write.ap_auto.i32P"/></StgValue>
</bind>
</comp>

<comp id="100" class="1004" name="inputIpAddress_V_rea_read_fu_100">
<pin_list>
<pin id="101" dir="0" index="0" bw="32" slack="0"/>
<pin id="102" dir="0" index="1" bw="32" slack="0"/>
<pin id="103" dir="1" index="2" bw="32" slack="1"/>
</pin_list>
<bind>
<opcode="read(1150) " fcode="read"/>
<opset="inputIpAddress_V_rea/1 "/>
</bind>
</comp>

<comp id="106" class="1004" name="dhcpEnable_V_read_read_fu_106">
<pin_list>
<pin id="107" dir="0" index="0" bw="1" slack="0"/>
<pin id="108" dir="0" index="1" bw="1" slack="0"/>
<pin id="109" dir="1" index="2" bw="1" slack="1"/>
</pin_list>
<bind>
<opcode="read(1150) " fcode="read"/>
<opset="dhcpEnable_V_read/1 "/>
</bind>
</comp>

<comp id="112" class="1004" name="grp_nbreadreq_fu_112">
<pin_list>
<pin id="113" dir="0" index="0" bw="1" slack="0"/>
<pin id="114" dir="0" index="1" bw="104" slack="0"/>
<pin id="115" dir="0" index="2" bw="1" slack="0"/>
<pin id="116" dir="1" index="3" bw="1" slack="1"/>
</pin_list>
<bind>
<opcode="nbreadreq(1156) " fcode="nbreadreq"/>
<opset="tmp_6/1 tmp_5/1 tmp_4/1 "/>
</bind>
</comp>

<comp id="120" class="1004" name="grp_read_fu_120">
<pin_list>
<pin id="121" dir="0" index="0" bw="104" slack="0"/>
<pin id="122" dir="0" index="1" bw="104" slack="0"/>
<pin id="123" dir="1" index="2" bw="104" slack="0"/>
</pin_list>
<bind>
<opcode="read(1150) " fcode="read"/>
<opset="tmp_459_0/1 tmp_3/1 tmp_1/1 "/>
</bind>
</comp>

<comp id="126" class="1004" name="tmp_nbreadreq_fu_126">
<pin_list>
<pin id="127" dir="0" index="0" bw="1" slack="0"/>
<pin id="128" dir="0" index="1" bw="1" slack="0"/>
<pin id="129" dir="0" index="2" bw="1" slack="0"/>
<pin id="130" dir="1" index="3" bw="1" slack="1"/>
</pin_list>
<bind>
<opcode="nbreadreq(1156) " fcode="nbreadreq"/>
<opset="tmp/1 "/>
</bind>
</comp>

<comp id="134" class="1004" name="tmp_V_0_read_fu_134">
<pin_list>
<pin id="135" dir="0" index="0" bw="1" slack="0"/>
<pin id="136" dir="0" index="1" bw="1" slack="0"/>
<pin id="137" dir="1" index="2" bw="1" slack="2147483647"/>
</pin_list>
<bind>
<opcode="read(1150) " fcode="read"/>
<opset="tmp_V_0/1 "/>
</bind>
</comp>

<comp id="140" class="1004" name="grp_write_fu_140">
<pin_list>
<pin id="141" dir="0" index="0" bw="0" slack="0"/>
<pin id="142" dir="0" index="1" bw="72" slack="0"/>
<pin id="143" dir="0" index="2" bw="72" slack="0"/>
<pin id="144" dir="1" index="3" bw="0" slack="2147483647"/>
</pin_list>
<bind>
<opcode="write(1151) " fcode="write"/>
<opset="write_ln288/2 write_ln273/2 "/>
</bind>
</comp>

<comp id="147" class="1004" name="write_ln258_write_fu_147">
<pin_list>
<pin id="148" dir="0" index="0" bw="0" slack="0"/>
<pin id="149" dir="0" index="1" bw="32" slack="0"/>
<pin id="150" dir="0" index="2" bw="32" slack="0"/>
<pin id="151" dir="1" index="3" bw="0" slack="2147483647"/>
</pin_list>
<bind>
<opcode="write(1151) " fcode="write"/>
<opset="write_ln258/2 "/>
</bind>
</comp>

<comp id="154" class="1005" name="storemerge_i_reg_154">
<pin_list>
<pin id="155" dir="0" index="0" bw="3" slack="2147483647"/>
<pin id="156" dir="1" index="1" bw="3" slack="2147483647"/>
</pin_list>
<bind>
<opset="storemerge_i (phireg) "/>
</bind>
</comp>

<comp id="157" class="1004" name="storemerge_i_phi_fu_157">
<pin_list>
<pin id="158" dir="0" index="0" bw="3" slack="0"/>
<pin id="159" dir="0" index="1" bw="0" slack="2147483647"/>
<pin id="160" dir="0" index="2" bw="1" slack="0"/>
<pin id="161" dir="0" index="3" bw="0" slack="2147483647"/>
<pin id="162" dir="1" index="4" bw="3" slack="0"/>
</pin_list>
<bind>
<opcode="phi(47) " fcode="phi"/>
<opset="storemerge_i/1 "/>
</bind>
</comp>

<comp id="165" class="1005" name="storemerge220_i_reg_165">
<pin_list>
<pin id="166" dir="0" index="0" bw="2" slack="2147483647"/>
<pin id="167" dir="1" index="1" bw="2" slack="2147483647"/>
</pin_list>
<bind>
<opset="storemerge220_i (phireg) "/>
</bind>
</comp>

<comp id="168" class="1004" name="storemerge220_i_phi_fu_168">
<pin_list>
<pin id="169" dir="0" index="0" bw="1" slack="0"/>
<pin id="170" dir="0" index="1" bw="0" slack="2147483647"/>
<pin id="171" dir="0" index="2" bw="1" slack="0"/>
<pin id="172" dir="0" index="3" bw="0" slack="2147483647"/>
<pin id="173" dir="1" index="4" bw="2" slack="0"/>
</pin_list>
<bind>
<opcode="phi(47) " fcode="phi"/>
<opset="storemerge220_i/1 "/>
</bind>
</comp>

<comp id="176" class="1005" name="t_V_1_reg_176">
<pin_list>
<pin id="177" dir="0" index="0" bw="32" slack="2147483647"/>
<pin id="178" dir="1" index="1" bw="32" slack="2147483647"/>
</pin_list>
<bind>
<opset="t_V_1 (phireg) "/>
</bind>
</comp>

<comp id="179" class="1004" name="t_V_1_phi_fu_179">
<pin_list>
<pin id="180" dir="0" index="0" bw="32" slack="1"/>
<pin id="181" dir="0" index="1" bw="0" slack="2147483647"/>
<pin id="182" dir="0" index="2" bw="32" slack="1"/>
<pin id="183" dir="0" index="3" bw="0" slack="2147483647"/>
<pin id="184" dir="0" index="4" bw="32" slack="1"/>
<pin id="185" dir="0" index="5" bw="0" slack="2147483647"/>
<pin id="186" dir="0" index="6" bw="32" slack="1"/>
<pin id="187" dir="0" index="7" bw="0" slack="2147483647"/>
<pin id="188" dir="0" index="8" bw="32" slack="1"/>
<pin id="189" dir="0" index="9" bw="0" slack="2147483647"/>
<pin id="190" dir="0" index="10" bw="32" slack="1"/>
<pin id="191" dir="0" index="11" bw="0" slack="2147483647"/>
<pin id="192" dir="0" index="12" bw="32" slack="1"/>
<pin id="193" dir="0" index="13" bw="0" slack="2147483647"/>
<pin id="194" dir="0" index="14" bw="32" slack="1"/>
<pin id="195" dir="0" index="15" bw="0" slack="2147483647"/>
<pin id="196" dir="1" index="16" bw="32" slack="0"/>
</pin_list>
<bind>
<opcode="phi(47) " fcode="phi"/>
<opset="t_V_1/2 "/>
</bind>
</comp>

<comp id="197" class="1004" name="grp_store_fu_197">
<pin_list>
<pin id="198" dir="0" index="0" bw="1" slack="0"/>
<pin id="199" dir="0" index="1" bw="3" slack="0"/>
<pin id="200" dir="1" index="2" bw="0" slack="2147483647"/>
</pin_list>
<bind>
<opcode="store(28) " fcode="store"/>
<opset="store_ln328/1 store_ln318/1 store_ln298/1 store_ln265/1 "/>
</bind>
</comp>

<comp id="203" class="1004" name="icmp_ln879_9_fu_203">
<pin_list>
<pin id="204" dir="0" index="0" bw="32" slack="0"/>
<pin id="205" dir="0" index="1" bw="32" slack="0"/>
<pin id="206" dir="1" index="2" bw="1" slack="1"/>
</pin_list>
<bind>
<opcode="icmp(45) " fcode="icmp"/>
<opset="icmp_ln879_9/1 "/>
</bind>
</comp>

<comp id="208" class="1004" name="grp_fu_208">
<pin_list>
<pin id="209" dir="0" index="0" bw="32" slack="0"/>
<pin id="210" dir="0" index="1" bw="32" slack="0"/>
<pin id="211" dir="1" index="2" bw="1" slack="1"/>
</pin_list>
<bind>
<opcode="icmp(45) " fcode="icmp"/>
<opset="icmp_ln879_7/1 icmp_ln879/1 "/>
</bind>
</comp>

<comp id="213" class="1004" name="grp_fu_213">
<pin_list>
<pin id="214" dir="0" index="0" bw="32" slack="0"/>
<pin id="215" dir="0" index="1" bw="1" slack="0"/>
<pin id="216" dir="1" index="2" bw="32" slack="0"/>
</pin_list>
<bind>
<opcode="add(8) " fcode="add"/>
<opset="add_ln701_2/1 add_ln701_1/1 add_ln701/1 "/>
</bind>
</comp>

<comp id="218" class="1004" name="grp_store_fu_218">
<pin_list>
<pin id="219" dir="0" index="0" bw="32" slack="0"/>
<pin id="220" dir="0" index="1" bw="32" slack="0"/>
<pin id="221" dir="1" index="2" bw="0" slack="2147483647"/>
</pin_list>
<bind>
<opcode="store(28) " fcode="store"/>
<opset="store_ln320/1 store_ln300/1 store_ln279/1 "/>
</bind>
</comp>

<comp id="224" class="1004" name="grp_fu_224">
<pin_list>
<pin id="225" dir="0" index="0" bw="8" slack="0"/>
<pin id="226" dir="0" index="1" bw="104" slack="0"/>
<pin id="227" dir="0" index="2" bw="8" slack="0"/>
<pin id="228" dir="0" index="3" bw="8" slack="0"/>
<pin id="229" dir="1" index="4" bw="8" slack="0"/>
</pin_list>
<bind>
<opcode="partselect(1002) " fcode="partselect"/>
<opset="tmp_type_V_1_load_ne/1 tmp_type_V_load_new_s/1 "/>
</bind>
</comp>

<comp id="234" class="1004" name="grp_store_fu_234">
<pin_list>
<pin id="235" dir="0" index="0" bw="31" slack="0"/>
<pin id="236" dir="0" index="1" bw="32" slack="0"/>
<pin id="237" dir="1" index="2" bw="0" slack="2147483647"/>
</pin_list>
<bind>
<opcode="store(28) " fcode="store"/>
<opset="store_ln289/1 store_ln275/1 "/>
</bind>
</comp>

<comp id="240" class="1004" name="grp_store_fu_240">
<pin_list>
<pin id="241" dir="0" index="0" bw="32" slack="1"/>
<pin id="242" dir="0" index="1" bw="32" slack="0"/>
<pin id="243" dir="1" index="2" bw="0" slack="2147483647"/>
</pin_list>
<bind>
<opcode="store(28) " fcode="store"/>
<opset="store_ln269/2 store_ln262/2 "/>
</bind>
</comp>

<comp id="245" class="1004" name="state_load_load_fu_245">
<pin_list>
<pin id="246" dir="0" index="0" bw="3" slack="0"/>
<pin id="247" dir="1" index="1" bw="3" slack="1"/>
</pin_list>
<bind>
<opcode="load(27) " fcode="load"/>
<opset="state_load/1 "/>
</bind>
</comp>

<comp id="249" class="1004" name="t_V_load_fu_249">
<pin_list>
<pin id="250" dir="0" index="0" bw="32" slack="0"/>
<pin id="251" dir="1" index="1" bw="32" slack="0"/>
</pin_list>
<bind>
<opcode="load(27) " fcode="load"/>
<opset="t_V/1 "/>
</bind>
</comp>

<comp id="256" class="1004" name="tmp_identifier_V_load_fu_256">
<pin_list>
<pin id="257" dir="0" index="0" bw="32" slack="0"/>
<pin id="258" dir="1" index="1" bw="32" slack="0"/>
</pin_list>
<bind>
<opcode="load(27) " fcode="load"/>
<opset="tmp_identifier_V/1 "/>
</bind>
</comp>

<comp id="260" class="1004" name="myIdentity_V_load_load_fu_260">
<pin_list>
<pin id="261" dir="0" index="0" bw="32" slack="0"/>
<pin id="262" dir="1" index="1" bw="32" slack="0"/>
</pin_list>
<bind>
<opcode="load(27) " fcode="load"/>
<opset="myIdentity_V_load/1 "/>
</bind>
</comp>

<comp id="264" class="1004" name="trunc_ln321_1_fu_264">
<pin_list>
<pin id="265" dir="0" index="0" bw="104" slack="0"/>
<pin id="266" dir="1" index="1" bw="32" slack="0"/>
</pin_list>
<bind>
<opcode="trunc(33) " fcode="trunc"/>
<opset="trunc_ln321_1/1 "/>
</bind>
</comp>

<comp id="268" class="1004" name="icmp_ln879_8_fu_268">
<pin_list>
<pin id="269" dir="0" index="0" bw="32" slack="0"/>
<pin id="270" dir="0" index="1" bw="32" slack="0"/>
<pin id="271" dir="1" index="2" bw="1" slack="1"/>
</pin_list>
<bind>
<opcode="icmp(45) " fcode="icmp"/>
<opset="icmp_ln879_8/1 "/>
</bind>
</comp>

<comp id="274" class="1004" name="icmp_ln879_11_fu_274">
<pin_list>
<pin id="275" dir="0" index="0" bw="8" slack="0"/>
<pin id="276" dir="0" index="1" bw="8" slack="0"/>
<pin id="277" dir="1" index="2" bw="1" slack="1"/>
</pin_list>
<bind>
<opcode="icmp(45) " fcode="icmp"/>
<opset="icmp_ln879_11/1 "/>
</bind>
</comp>

<comp id="280" class="1004" name="store_ln309_store_fu_280">
<pin_list>
<pin id="281" dir="0" index="0" bw="3" slack="0"/>
<pin id="282" dir="0" index="1" bw="3" slack="0"/>
<pin id="283" dir="1" index="2" bw="0" slack="2147483647"/>
</pin_list>
<bind>
<opcode="store(28) " fcode="store"/>
<opset="store_ln309/1 "/>
</bind>
</comp>

<comp id="286" class="1004" name="tmp_identifier_V_1_fu_286">
<pin_list>
<pin id="287" dir="0" index="0" bw="104" slack="0"/>
<pin id="288" dir="1" index="1" bw="32" slack="0"/>
</pin_list>
<bind>
<opcode="trunc(33) " fcode="trunc"/>
<opset="tmp_identifier_V_1/1 "/>
</bind>
</comp>

<comp id="290" class="1004" name="tmp_requestedIpAddre_fu_290">
<pin_list>
<pin id="291" dir="0" index="0" bw="32" slack="0"/>
<pin id="292" dir="0" index="1" bw="104" slack="0"/>
<pin id="293" dir="0" index="2" bw="7" slack="0"/>
<pin id="294" dir="0" index="3" bw="7" slack="0"/>
<pin id="295" dir="1" index="4" bw="32" slack="1"/>
</pin_list>
<bind>
<opcode="partselect(1002) " fcode="partselect"/>
<opset="tmp_requestedIpAddre/1 "/>
</bind>
</comp>

<comp id="300" class="1004" name="icmp_ln879_6_fu_300">
<pin_list>
<pin id="301" dir="0" index="0" bw="32" slack="0"/>
<pin id="302" dir="0" index="1" bw="32" slack="0"/>
<pin id="303" dir="1" index="2" bw="1" slack="1"/>
</pin_list>
<bind>
<opcode="icmp(45) " fcode="icmp"/>
<opset="icmp_ln879_6/1 "/>
</bind>
</comp>

<comp id="306" class="1004" name="icmp_ln879_10_fu_306">
<pin_list>
<pin id="307" dir="0" index="0" bw="8" slack="0"/>
<pin id="308" dir="0" index="1" bw="8" slack="0"/>
<pin id="309" dir="1" index="2" bw="1" slack="1"/>
</pin_list>
<bind>
<opcode="icmp(45) " fcode="icmp"/>
<opset="icmp_ln879_10/1 "/>
</bind>
</comp>

<comp id="312" class="1004" name="zext_ln290_fu_312">
<pin_list>
<pin id="313" dir="0" index="0" bw="2" slack="0"/>
<pin id="314" dir="1" index="1" bw="3" slack="0"/>
</pin_list>
<bind>
<opcode="zext(34) " fcode="zext"/>
<opset="zext_ln290/1 "/>
</bind>
</comp>

<comp id="316" class="1004" name="store_ln290_store_fu_316">
<pin_list>
<pin id="317" dir="0" index="0" bw="2" slack="0"/>
<pin id="318" dir="0" index="1" bw="3" slack="0"/>
<pin id="319" dir="1" index="2" bw="0" slack="2147483647"/>
</pin_list>
<bind>
<opcode="store(28) " fcode="store"/>
<opset="store_ln290/1 "/>
</bind>
</comp>

<comp id="322" class="1004" name="store_ln272_store_fu_322">
<pin_list>
<pin id="323" dir="0" index="0" bw="32" slack="0"/>
<pin id="324" dir="0" index="1" bw="32" slack="0"/>
<pin id="325" dir="1" index="2" bw="0" slack="2147483647"/>
</pin_list>
<bind>
<opcode="store(28) " fcode="store"/>
<opset="store_ln272/1 "/>
</bind>
</comp>

<comp id="328" class="1004" name="shl_ln214_fu_328">
<pin_list>
<pin id="329" dir="0" index="0" bw="32" slack="0"/>
<pin id="330" dir="0" index="1" bw="3" slack="0"/>
<pin id="331" dir="1" index="2" bw="32" slack="0"/>
</pin_list>
<bind>
<opcode="shl(20) " fcode="shl"/>
<opset="shl_ln214/1 "/>
</bind>
</comp>

<comp id="334" class="1004" name="xor_ln214_fu_334">
<pin_list>
<pin id="335" dir="0" index="0" bw="32" slack="0"/>
<pin id="336" dir="0" index="1" bw="32" slack="0"/>
<pin id="337" dir="1" index="2" bw="32" slack="1"/>
</pin_list>
<bind>
<opcode="xor(25) " fcode="xor"/>
<opset="xor_ln214/1 "/>
</bind>
</comp>

<comp id="340" class="1004" name="store_ln276_store_fu_340">
<pin_list>
<pin id="341" dir="0" index="0" bw="3" slack="0"/>
<pin id="342" dir="0" index="1" bw="3" slack="0"/>
<pin id="343" dir="1" index="2" bw="0" slack="2147483647"/>
</pin_list>
<bind>
<opcode="store(28) " fcode="store"/>
<opset="store_ln276/1 "/>
</bind>
</comp>

<comp id="346" class="1004" name="myIpAddress_V_load_load_fu_346">
<pin_list>
<pin id="347" dir="0" index="0" bw="32" slack="0"/>
<pin id="348" dir="1" index="1" bw="32" slack="0"/>
</pin_list>
<bind>
<opcode="load(27) " fcode="load"/>
<opset="myIpAddress_V_load/2 "/>
</bind>
</comp>

<comp id="351" class="1004" name="IpAddressBuffer_V_lo_load_fu_351">
<pin_list>
<pin id="352" dir="0" index="0" bw="32" slack="0"/>
<pin id="353" dir="1" index="1" bw="32" slack="0"/>
</pin_list>
<bind>
<opcode="load(27) " fcode="load"/>
<opset="IpAddressBuffer_V_lo/2 "/>
</bind>
</comp>

<comp id="355" class="1004" name="store_ln308_store_fu_355">
<pin_list>
<pin id="356" dir="0" index="0" bw="32" slack="0"/>
<pin id="357" dir="0" index="1" bw="32" slack="0"/>
<pin id="358" dir="1" index="2" bw="0" slack="2147483647"/>
</pin_list>
<bind>
<opcode="store(28) " fcode="store"/>
<opset="store_ln308/2 "/>
</bind>
</comp>

<comp id="361" class="1004" name="store_ln287_store_fu_361">
<pin_list>
<pin id="362" dir="0" index="0" bw="32" slack="1"/>
<pin id="363" dir="0" index="1" bw="32" slack="0"/>
<pin id="364" dir="1" index="2" bw="0" slack="2147483647"/>
</pin_list>
<bind>
<opcode="store(28) " fcode="store"/>
<opset="store_ln287/2 "/>
</bind>
</comp>

<comp id="366" class="1004" name="tmp_2_fu_366">
<pin_list>
<pin id="367" dir="0" index="0" bw="72" slack="0"/>
<pin id="368" dir="0" index="1" bw="32" slack="1"/>
<pin id="369" dir="0" index="2" bw="3" slack="0"/>
<pin id="370" dir="0" index="3" bw="32" slack="1"/>
<pin id="371" dir="1" index="4" bw="72" slack="0"/>
</pin_list>
<bind>
<opcode="bitconcatenate(1004) " fcode="bitconcatenate"/>
<opset="tmp_2/2 "/>
</bind>
</comp>

<comp id="375" class="1004" name="tmp22_fu_375">
<pin_list>
<pin id="376" dir="0" index="0" bw="72" slack="0"/>
<pin id="377" dir="0" index="1" bw="1" slack="0"/>
<pin id="378" dir="0" index="2" bw="32" slack="1"/>
<pin id="379" dir="1" index="3" bw="72" slack="0"/>
</pin_list>
<bind>
<opcode="bitconcatenate(1004) " fcode="bitconcatenate"/>
<opset="tmp22/2 "/>
</bind>
</comp>

<comp id="383" class="1004" name="add_ln700_fu_383">
<pin_list>
<pin id="384" dir="0" index="0" bw="32" slack="0"/>
<pin id="385" dir="0" index="1" bw="1" slack="0"/>
<pin id="386" dir="1" index="2" bw="32" slack="0"/>
</pin_list>
<bind>
<opcode="add(8) " fcode="add"/>
<opset="add_ln700/2 "/>
</bind>
</comp>

<comp id="389" class="1004" name="store_ln274_store_fu_389">
<pin_list>
<pin id="390" dir="0" index="0" bw="32" slack="0"/>
<pin id="391" dir="0" index="1" bw="32" slack="0"/>
<pin id="392" dir="1" index="2" bw="0" slack="2147483647"/>
</pin_list>
<bind>
<opcode="store(28) " fcode="store"/>
<opset="store_ln274/2 "/>
</bind>
</comp>

<comp id="395" class="1005" name="state_load_reg_395">
<pin_list>
<pin id="396" dir="0" index="0" bw="3" slack="1"/>
<pin id="397" dir="1" index="1" bw="3" slack="2147483647"/>
</pin_list>
<bind>
<opset="state_load "/>
</bind>
</comp>

<comp id="399" class="1005" name="inputIpAddress_V_rea_reg_399">
<pin_list>
<pin id="400" dir="0" index="0" bw="32" slack="1"/>
<pin id="401" dir="1" index="1" bw="32" slack="1"/>
</pin_list>
<bind>
<opset="inputIpAddress_V_rea "/>
</bind>
</comp>

<comp id="404" class="1005" name="dhcpEnable_V_read_reg_404">
<pin_list>
<pin id="405" dir="0" index="0" bw="1" slack="1"/>
<pin id="406" dir="1" index="1" bw="1" slack="2147483647"/>
</pin_list>
<bind>
<opset="dhcpEnable_V_read "/>
</bind>
</comp>

<comp id="408" class="1005" name="tmp_identifier_V_reg_408">
<pin_list>
<pin id="409" dir="0" index="0" bw="32" slack="1"/>
<pin id="410" dir="1" index="1" bw="32" slack="1"/>
</pin_list>
<bind>
<opset="tmp_identifier_V "/>
</bind>
</comp>

<comp id="420" class="1005" name="myIdentity_V_load_reg_420">
<pin_list>
<pin id="421" dir="0" index="0" bw="32" slack="1"/>
<pin id="422" dir="1" index="1" bw="32" slack="1"/>
</pin_list>
<bind>
<opset="myIdentity_V_load "/>
</bind>
</comp>

<comp id="425" class="1005" name="tmp_6_reg_425">
<pin_list>
<pin id="426" dir="0" index="0" bw="1" slack="1"/>
<pin id="427" dir="1" index="1" bw="1" slack="2147483647"/>
</pin_list>
<bind>
<opset="tmp_6 "/>
</bind>
</comp>

<comp id="429" class="1005" name="tmp_5_reg_429">
<pin_list>
<pin id="430" dir="0" index="0" bw="1" slack="1"/>
<pin id="431" dir="1" index="1" bw="1" slack="2147483647"/>
</pin_list>
<bind>
<opset="tmp_5 "/>
</bind>
</comp>

<comp id="433" class="1005" name="icmp_ln879_9_reg_433">
<pin_list>
<pin id="434" dir="0" index="0" bw="1" slack="1"/>
<pin id="435" dir="1" index="1" bw="1" slack="2147483647"/>
</pin_list>
<bind>
<opset="icmp_ln879_9 "/>
</bind>
</comp>

<comp id="437" class="1005" name="icmp_ln879_8_reg_437">
<pin_list>
<pin id="438" dir="0" index="0" bw="1" slack="1"/>
<pin id="439" dir="1" index="1" bw="1" slack="2147483647"/>
</pin_list>
<bind>
<opset="icmp_ln879_8 "/>
</bind>
</comp>

<comp id="441" class="1005" name="icmp_ln879_11_reg_441">
<pin_list>
<pin id="442" dir="0" index="0" bw="1" slack="1"/>
<pin id="443" dir="1" index="1" bw="1" slack="2147483647"/>
</pin_list>
<bind>
<opset="icmp_ln879_11 "/>
</bind>
</comp>

<comp id="445" class="1005" name="tmp_4_reg_445">
<pin_list>
<pin id="446" dir="0" index="0" bw="1" slack="1"/>
<pin id="447" dir="1" index="1" bw="1" slack="2147483647"/>
</pin_list>
<bind>
<opset="tmp_4 "/>
</bind>
</comp>

<comp id="449" class="1005" name="icmp_ln879_7_reg_449">
<pin_list>
<pin id="450" dir="0" index="0" bw="1" slack="1"/>
<pin id="451" dir="1" index="1" bw="1" slack="2147483647"/>
</pin_list>
<bind>
<opset="icmp_ln879_7 "/>
</bind>
</comp>

<comp id="453" class="1005" name="tmp_requestedIpAddre_reg_453">
<pin_list>
<pin id="454" dir="0" index="0" bw="32" slack="1"/>
<pin id="455" dir="1" index="1" bw="32" slack="1"/>
</pin_list>
<bind>
<opset="tmp_requestedIpAddre "/>
</bind>
</comp>

<comp id="459" class="1005" name="icmp_ln879_6_reg_459">
<pin_list>
<pin id="460" dir="0" index="0" bw="1" slack="1"/>
<pin id="461" dir="1" index="1" bw="1" slack="2147483647"/>
</pin_list>
<bind>
<opset="icmp_ln879_6 "/>
</bind>
</comp>

<comp id="463" class="1005" name="icmp_ln879_10_reg_463">
<pin_list>
<pin id="464" dir="0" index="0" bw="1" slack="1"/>
<pin id="465" dir="1" index="1" bw="1" slack="2147483647"/>
</pin_list>
<bind>
<opset="icmp_ln879_10 "/>
</bind>
</comp>

<comp id="467" class="1005" name="icmp_ln879_reg_467">
<pin_list>
<pin id="468" dir="0" index="0" bw="1" slack="1"/>
<pin id="469" dir="1" index="1" bw="1" slack="2147483647"/>
</pin_list>
<bind>
<opset="icmp_ln879 "/>
</bind>
</comp>

<comp id="471" class="1005" name="xor_ln214_reg_471">
<pin_list>
<pin id="472" dir="0" index="0" bw="32" slack="1"/>
<pin id="473" dir="1" index="1" bw="32" slack="1"/>
</pin_list>
<bind>
<opset="xor_ln214 "/>
</bind>
</comp>

<comp id="476" class="1005" name="tmp_reg_476">
<pin_list>
<pin id="477" dir="0" index="0" bw="1" slack="1"/>
<pin id="478" dir="1" index="1" bw="1" slack="2147483647"/>
</pin_list>
<bind>
<opset="tmp "/>
</bind>
</comp>

</comp_list>

<net_list>
<net id="104"><net_src comp="24" pin="0"/><net_sink comp="100" pin=0"/></net>

<net id="105"><net_src comp="4" pin="0"/><net_sink comp="100" pin=1"/></net>

<net id="110"><net_src comp="26" pin="0"/><net_sink comp="106" pin=0"/></net>

<net id="111"><net_src comp="2" pin="0"/><net_sink comp="106" pin=1"/></net>

<net id="117"><net_src comp="38" pin="0"/><net_sink comp="112" pin=0"/></net>

<net id="118"><net_src comp="22" pin="0"/><net_sink comp="112" pin=1"/></net>

<net id="119"><net_src comp="40" pin="0"/><net_sink comp="112" pin=2"/></net>

<net id="124"><net_src comp="42" pin="0"/><net_sink comp="120" pin=0"/></net>

<net id="125"><net_src comp="22" pin="0"/><net_sink comp="120" pin=1"/></net>

<net id="131"><net_src comp="72" pin="0"/><net_sink comp="126" pin=0"/></net>

<net id="132"><net_src comp="18" pin="0"/><net_sink comp="126" pin=1"/></net>

<net id="133"><net_src comp="40" pin="0"/><net_sink comp="126" pin=2"/></net>

<net id="138"><net_src comp="74" pin="0"/><net_sink comp="134" pin=0"/></net>

<net id="139"><net_src comp="18" pin="0"/><net_sink comp="134" pin=1"/></net>

<net id="145"><net_src comp="92" pin="0"/><net_sink comp="140" pin=0"/></net>

<net id="146"><net_src comp="20" pin="0"/><net_sink comp="140" pin=1"/></net>

<net id="152"><net_src comp="98" pin="0"/><net_sink comp="147" pin=0"/></net>

<net id="153"><net_src comp="0" pin="0"/><net_sink comp="147" pin=1"/></net>

<net id="163"><net_src comp="36" pin="0"/><net_sink comp="157" pin=0"/></net>

<net id="164"><net_src comp="30" pin="0"/><net_sink comp="157" pin=2"/></net>

<net id="174"><net_src comp="66" pin="0"/><net_sink comp="168" pin=0"/></net>

<net id="175"><net_src comp="68" pin="0"/><net_sink comp="168" pin=2"/></net>

<net id="201"><net_src comp="30" pin="0"/><net_sink comp="197" pin=0"/></net>

<net id="202"><net_src comp="8" pin="0"/><net_sink comp="197" pin=1"/></net>

<net id="207"><net_src comp="44" pin="0"/><net_sink comp="203" pin=1"/></net>

<net id="212"><net_src comp="44" pin="0"/><net_sink comp="208" pin=1"/></net>

<net id="217"><net_src comp="46" pin="0"/><net_sink comp="213" pin=1"/></net>

<net id="222"><net_src comp="213" pin="2"/><net_sink comp="218" pin=0"/></net>

<net id="223"><net_src comp="10" pin="0"/><net_sink comp="218" pin=1"/></net>

<net id="230"><net_src comp="48" pin="0"/><net_sink comp="224" pin=0"/></net>

<net id="231"><net_src comp="120" pin="2"/><net_sink comp="224" pin=1"/></net>

<net id="232"><net_src comp="50" pin="0"/><net_sink comp="224" pin=2"/></net>

<net id="233"><net_src comp="52" pin="0"/><net_sink comp="224" pin=3"/></net>

<net id="238"><net_src comp="64" pin="0"/><net_sink comp="234" pin=0"/></net>

<net id="239"><net_src comp="10" pin="0"/><net_sink comp="234" pin=1"/></net>

<net id="244"><net_src comp="6" pin="0"/><net_sink comp="240" pin=1"/></net>

<net id="248"><net_src comp="8" pin="0"/><net_sink comp="245" pin=0"/></net>

<net id="252"><net_src comp="10" pin="0"/><net_sink comp="249" pin=0"/></net>

<net id="253"><net_src comp="249" pin="1"/><net_sink comp="203" pin=0"/></net>

<net id="254"><net_src comp="249" pin="1"/><net_sink comp="213" pin=0"/></net>

<net id="255"><net_src comp="249" pin="1"/><net_sink comp="208" pin=0"/></net>

<net id="259"><net_src comp="12" pin="0"/><net_sink comp="256" pin=0"/></net>

<net id="263"><net_src comp="14" pin="0"/><net_sink comp="260" pin=0"/></net>

<net id="267"><net_src comp="120" pin="2"/><net_sink comp="264" pin=0"/></net>

<net id="272"><net_src comp="264" pin="1"/><net_sink comp="268" pin=0"/></net>

<net id="273"><net_src comp="260" pin="1"/><net_sink comp="268" pin=1"/></net>

<net id="278"><net_src comp="224" pin="4"/><net_sink comp="274" pin=0"/></net>

<net id="279"><net_src comp="54" pin="0"/><net_sink comp="274" pin=1"/></net>

<net id="284"><net_src comp="157" pin="4"/><net_sink comp="280" pin=0"/></net>

<net id="285"><net_src comp="8" pin="0"/><net_sink comp="280" pin=1"/></net>

<net id="289"><net_src comp="120" pin="2"/><net_sink comp="286" pin=0"/></net>

<net id="296"><net_src comp="56" pin="0"/><net_sink comp="290" pin=0"/></net>

<net id="297"><net_src comp="120" pin="2"/><net_sink comp="290" pin=1"/></net>

<net id="298"><net_src comp="58" pin="0"/><net_sink comp="290" pin=2"/></net>

<net id="299"><net_src comp="60" pin="0"/><net_sink comp="290" pin=3"/></net>

<net id="304"><net_src comp="286" pin="1"/><net_sink comp="300" pin=0"/></net>

<net id="305"><net_src comp="260" pin="1"/><net_sink comp="300" pin=1"/></net>

<net id="310"><net_src comp="224" pin="4"/><net_sink comp="306" pin=0"/></net>

<net id="311"><net_src comp="62" pin="0"/><net_sink comp="306" pin=1"/></net>

<net id="315"><net_src comp="168" pin="4"/><net_sink comp="312" pin=0"/></net>

<net id="320"><net_src comp="312" pin="1"/><net_sink comp="316" pin=0"/></net>

<net id="321"><net_src comp="8" pin="0"/><net_sink comp="316" pin=1"/></net>

<net id="326"><net_src comp="256" pin="1"/><net_sink comp="322" pin=0"/></net>

<net id="327"><net_src comp="14" pin="0"/><net_sink comp="322" pin=1"/></net>

<net id="332"><net_src comp="256" pin="1"/><net_sink comp="328" pin=0"/></net>

<net id="333"><net_src comp="70" pin="0"/><net_sink comp="328" pin=1"/></net>

<net id="338"><net_src comp="256" pin="1"/><net_sink comp="334" pin=0"/></net>

<net id="339"><net_src comp="328" pin="2"/><net_sink comp="334" pin=1"/></net>

<net id="344"><net_src comp="32" pin="0"/><net_sink comp="340" pin=0"/></net>

<net id="345"><net_src comp="8" pin="0"/><net_sink comp="340" pin=1"/></net>

<net id="349"><net_src comp="6" pin="0"/><net_sink comp="346" pin=0"/></net>

<net id="350"><net_src comp="346" pin="1"/><net_sink comp="147" pin=2"/></net>

<net id="354"><net_src comp="16" pin="0"/><net_sink comp="351" pin=0"/></net>

<net id="359"><net_src comp="351" pin="1"/><net_sink comp="355" pin=0"/></net>

<net id="360"><net_src comp="6" pin="0"/><net_sink comp="355" pin=1"/></net>

<net id="365"><net_src comp="16" pin="0"/><net_sink comp="361" pin=1"/></net>

<net id="372"><net_src comp="88" pin="0"/><net_sink comp="366" pin=0"/></net>

<net id="373"><net_src comp="90" pin="0"/><net_sink comp="366" pin=2"/></net>

<net id="374"><net_src comp="366" pin="4"/><net_sink comp="140" pin=2"/></net>

<net id="380"><net_src comp="94" pin="0"/><net_sink comp="375" pin=0"/></net>

<net id="381"><net_src comp="96" pin="0"/><net_sink comp="375" pin=1"/></net>

<net id="382"><net_src comp="375" pin="3"/><net_sink comp="140" pin=2"/></net>

<net id="387"><net_src comp="179" pin="16"/><net_sink comp="383" pin=0"/></net>

<net id="388"><net_src comp="40" pin="0"/><net_sink comp="383" pin=1"/></net>

<net id="393"><net_src comp="383" pin="2"/><net_sink comp="389" pin=0"/></net>

<net id="394"><net_src comp="12" pin="0"/><net_sink comp="389" pin=1"/></net>

<net id="398"><net_src comp="245" pin="1"/><net_sink comp="395" pin=0"/></net>

<net id="402"><net_src comp="100" pin="2"/><net_sink comp="399" pin=0"/></net>

<net id="403"><net_src comp="399" pin="1"/><net_sink comp="240" pin=0"/></net>

<net id="407"><net_src comp="106" pin="2"/><net_sink comp="404" pin=0"/></net>

<net id="411"><net_src comp="256" pin="1"/><net_sink comp="408" pin=0"/></net>

<net id="412"><net_src comp="408" pin="1"/><net_sink comp="375" pin=2"/></net>

<net id="413"><net_src comp="408" pin="1"/><net_sink comp="179" pin=0"/></net>

<net id="414"><net_src comp="408" pin="1"/><net_sink comp="179" pin=2"/></net>

<net id="415"><net_src comp="408" pin="1"/><net_sink comp="179" pin=4"/></net>

<net id="416"><net_src comp="408" pin="1"/><net_sink comp="179" pin=6"/></net>

<net id="417"><net_src comp="408" pin="1"/><net_sink comp="179" pin=8"/></net>

<net id="418"><net_src comp="408" pin="1"/><net_sink comp="179" pin=10"/></net>

<net id="419"><net_src comp="408" pin="1"/><net_sink comp="179" pin=14"/></net>

<net id="423"><net_src comp="260" pin="1"/><net_sink comp="420" pin=0"/></net>

<net id="424"><net_src comp="420" pin="1"/><net_sink comp="366" pin=3"/></net>

<net id="428"><net_src comp="112" pin="3"/><net_sink comp="425" pin=0"/></net>

<net id="432"><net_src comp="112" pin="3"/><net_sink comp="429" pin=0"/></net>

<net id="436"><net_src comp="203" pin="2"/><net_sink comp="433" pin=0"/></net>

<net id="440"><net_src comp="268" pin="2"/><net_sink comp="437" pin=0"/></net>

<net id="444"><net_src comp="274" pin="2"/><net_sink comp="441" pin=0"/></net>

<net id="448"><net_src comp="112" pin="3"/><net_sink comp="445" pin=0"/></net>

<net id="452"><net_src comp="208" pin="2"/><net_sink comp="449" pin=0"/></net>

<net id="456"><net_src comp="290" pin="4"/><net_sink comp="453" pin=0"/></net>

<net id="457"><net_src comp="453" pin="1"/><net_sink comp="361" pin=0"/></net>

<net id="458"><net_src comp="453" pin="1"/><net_sink comp="366" pin=1"/></net>

<net id="462"><net_src comp="300" pin="2"/><net_sink comp="459" pin=0"/></net>

<net id="466"><net_src comp="306" pin="2"/><net_sink comp="463" pin=0"/></net>

<net id="470"><net_src comp="208" pin="2"/><net_sink comp="467" pin=0"/></net>

<net id="474"><net_src comp="334" pin="2"/><net_sink comp="471" pin=0"/></net>

<net id="475"><net_src comp="471" pin="1"/><net_sink comp="179" pin=12"/></net>

<net id="479"><net_src comp="126" pin="3"/><net_sink comp="476" pin=0"/></net>

</net_list>

</model> 
---------------- Datapath Model END ------------------

* FSMD analyzer results:
  - Output states:
	Port: ipAddressOut_V | {2 }
	Port: dhcpEnable_V | {}
	Port: inputIpAddress_V | {}
	Port: myIpAddress_V | {2 }
	Port: state | {1 }
	Port: time_V | {1 }
	Port: randomValue_V | {2 }
	Port: myIdentity_V | {1 }
	Port: IpAddressBuffer_V | {2 }
	Port: portOpen_V_V | {}
	Port: dhcp_requestMetaFifo_1 | {2 }
	Port: dhcp_replyMetaFifo_V | {}
 - Input state : 
	Port: dhcp_fsm : ipAddressOut_V | {}
	Port: dhcp_fsm : dhcpEnable_V | {1 }
	Port: dhcp_fsm : inputIpAddress_V | {1 }
	Port: dhcp_fsm : myIpAddress_V | {2 }
	Port: dhcp_fsm : state | {1 }
	Port: dhcp_fsm : time_V | {1 }
	Port: dhcp_fsm : randomValue_V | {1 }
	Port: dhcp_fsm : myIdentity_V | {1 }
	Port: dhcp_fsm : IpAddressBuffer_V | {2 }
	Port: dhcp_fsm : portOpen_V_V | {1 }
	Port: dhcp_fsm : dhcp_requestMetaFifo_1 | {}
	Port: dhcp_fsm : dhcp_replyMetaFifo_V | {1 }
  - Chain level:
	State 1
		switch_ln260 : 1
		icmp_ln879_9 : 1
		br_ln317 : 2
		add_ln701_2 : 1
		store_ln320 : 2
		icmp_ln879_8 : 1
		br_ln306 : 2
		icmp_ln879_11 : 1
		br_ln307 : 2
		storemerge_i : 3
		store_ln309 : 4
		icmp_ln879_7 : 1
		br_ln297 : 2
		add_ln701_1 : 1
		store_ln300 : 2
		icmp_ln879_6 : 1
		br_ln285 : 2
		icmp_ln879_10 : 1
		br_ln286 : 2
		storemerge220_i : 3
		zext_ln290 : 4
		store_ln290 : 5
		icmp_ln879 : 1
		br_ln271 : 2
		add_ln701 : 1
		store_ln279 : 2
		store_ln272 : 1
		shl_ln214 : 1
		xor_ln214 : 1
	State 2
		store_ln308 : 1
		write_ln288 : 1
		write_ln273 : 1
		add_ln700 : 1
		store_ln274 : 2
		write_ln258 : 1


============================================================
+ Verbose Summary: Datapath Resource usage 
============================================================

* Functional unit list:
|----------|----------------------------------|---------|---------|
| Operation|          Functional Unit         |    FF   |   LUT   |
|----------|----------------------------------|---------|---------|
|          |        icmp_ln879_9_fu_203       |    0    |    18   |
|          |            grp_fu_208            |    0    |    18   |
|   icmp   |        icmp_ln879_8_fu_268       |    0    |    18   |
|          |       icmp_ln879_11_fu_274       |    0    |    11   |
|          |        icmp_ln879_6_fu_300       |    0    |    18   |
|          |       icmp_ln879_10_fu_306       |    0    |    11   |
|----------|----------------------------------|---------|---------|
|    add   |            grp_fu_213            |    0    |    39   |
|          |         add_ln700_fu_383         |    0    |    39   |
|----------|----------------------------------|---------|---------|
|    xor   |         xor_ln214_fu_334         |    0    |    32   |
|----------|----------------------------------|---------|---------|
|          | inputIpAddress_V_rea_read_fu_100 |    0    |    0    |
|   read   |   dhcpEnable_V_read_read_fu_106  |    0    |    0    |
|          |          grp_read_fu_120         |    0    |    0    |
|          |        tmp_V_0_read_fu_134       |    0    |    0    |
|----------|----------------------------------|---------|---------|
| nbreadreq|       grp_nbreadreq_fu_112       |    0    |    0    |
|          |       tmp_nbreadreq_fu_126       |    0    |    0    |
|----------|----------------------------------|---------|---------|
|   write  |         grp_write_fu_140         |    0    |    0    |
|          |     write_ln258_write_fu_147     |    0    |    0    |
|----------|----------------------------------|---------|---------|
|partselect|            grp_fu_224            |    0    |    0    |
|          |    tmp_requestedIpAddre_fu_290   |    0    |    0    |
|----------|----------------------------------|---------|---------|
|   trunc  |       trunc_ln321_1_fu_264       |    0    |    0    |
|          |     tmp_identifier_V_1_fu_286    |    0    |    0    |
|----------|----------------------------------|---------|---------|
|   zext   |         zext_ln290_fu_312        |    0    |    0    |
|----------|----------------------------------|---------|---------|
|    shl   |         shl_ln214_fu_328         |    0    |    0    |
|----------|----------------------------------|---------|---------|
|bitconcatenate|           tmp_2_fu_366           |    0    |    0    |
|          |           tmp22_fu_375           |    0    |    0    |
|----------|----------------------------------|---------|---------|
|   Total  |                                  |    0    |   204   |
|----------|----------------------------------|---------|---------|

Memories:
N/A

* Register list:
+----------------------------+--------+
|                            |   FF   |
+----------------------------+--------+
|  dhcpEnable_V_read_reg_404 |    1   |
|    icmp_ln879_10_reg_463   |    1   |
|    icmp_ln879_11_reg_441   |    1   |
|    icmp_ln879_6_reg_459    |    1   |
|    icmp_ln879_7_reg_449    |    1   |
|    icmp_ln879_8_reg_437    |    1   |
|    icmp_ln879_9_reg_433    |    1   |
|     icmp_ln879_reg_467     |    1   |
|inputIpAddress_V_rea_reg_399|   32   |
|  myIdentity_V_load_reg_420 |   32   |
|     state_load_reg_395     |    3   |
|   storemerge220_i_reg_165  |    2   |
|    storemerge_i_reg_154    |    3   |
|        t_V_1_reg_176       |   32   |
|        tmp_4_reg_445       |    1   |
|        tmp_5_reg_429       |    1   |
|        tmp_6_reg_425       |    1   |
|  tmp_identifier_V_reg_408  |   32   |
|         tmp_reg_476        |    1   |
|tmp_requestedIpAddre_reg_453|   32   |
|      xor_ln214_reg_471     |   32   |
+----------------------------+--------+
|            Total           |   212  |
+----------------------------+--------+

* Multiplexer (MUX) list: 
|------------------|------|------|------|--------||---------||---------|
|       Comp       |  Pin | Size |  BW  | S x BW ||  Delay  ||   LUT   |
|------------------|------|------|------|--------||---------||---------|
| grp_write_fu_140 |  p2  |   2  |  72  |   144  ||    9    |
|------------------|------|------|------|--------||---------||---------|
|       Total      |      |      |      |   144  ||  1.769  ||    9    |
|------------------|------|------|------|--------||---------||---------|



* Summary:
+-----------+--------+--------+--------+
|           |  Delay |   FF   |   LUT  |
+-----------+--------+--------+--------+
|  Function |    -   |    0   |   204  |
|   Memory  |    -   |    -   |    -   |
|Multiplexer|    1   |    -   |    9   |
|  Register |    -   |   212  |    -   |
+-----------+--------+--------+--------+
|   Total   |    1   |   212  |   213  |
+-----------+--------+--------+--------+
