

================================================================
== Vivado HLS Report for 'dhcp_fsm'
================================================================
* Date:           Sat Dec 12 19:23:47 2020

* Version:        2019.2.1 (Build 2724168 on Thu Dec 05 05:19:09 MST 2019)
* Project:        dhcp_client_prj
* Solution:       solution1
* Product family: zynq
* Target device:  xc7z020-clg400-1


================================================================
== Performance Estimates
================================================================
+ Timing: 
    * Summary: 
    +--------+---------+----------+------------+
    |  Clock |  Target | Estimated| Uncertainty|
    +--------+---------+----------+------------+
    |ap_clk  | 6.40 ns | 7.980 ns |   0.80 ns  |
    +--------+---------+----------+------------+

+ Latency: 
    * Summary: 
    +---------+---------+----------+----------+-----+-----+----------+
    |  Latency (cycles) |  Latency (absolute) |  Interval | Pipeline |
    |   min   |   max   |    min   |    max   | min | max |   Type   |
    +---------+---------+----------+----------+-----+-----+----------+
    |        1|        1| 7.980 ns | 7.980 ns |    1|    1| function |
    +---------+---------+----------+----------+-----+-----+----------+

    + Detail: 
        * Instance: 
        N/A

        * Loop: 
        N/A

============================================================
+ Verbose Summary: Synthesis Manager
============================================================
InlineROM: 1
ExposeGlobal: 0
============================================================
+ Verbose Summary: CDFG Model
============================================================
IsTopModel: 0
ResetActiveHigh: 1
IsCombinational: 2
IsDatapathOnly: 0
HasWiredReturn: 1
HasMFsm: 2
HasVarLatency: 0
IsPipeline: 1
IsRtlPipelined: 1
IsInstanceOverlapped: 0
IsDontTouch: 0
HasImplIP: 0
IsGatedGlobalClock: 0

+ Individual pipeline summary: 
  * Pipeline-0: initiation interval (II) = 1, depth = 2


============================================================
+ Verbose Summary: Schedule
============================================================
* Number of FSM states : 2
* Pipeline : 1
  Pipeline-0 : II = 1, D = 2, States = { 1 2 }
* Dataflow Pipeline: 0

* FSM state transitions: 
1 --> 2 
2 --> 

* FSM state operations: 

State 1 <SV = 0> <Delay = 7.98>
ST_1 : Operation 3 [1/1] (0.00ns)   --->   "%state_load = load i3* @state, align 1" [/home/paulrr2/Projects/ece527/babelsoc/fpga-network-stack/hls/dhcp_client/dhcp_client.cpp:260]   --->   Operation 3 'load' 'state_load' <Predicate = true> <Delay = 0.00>
ST_1 : Operation 4 [1/1] (0.00ns)   --->   "%inputIpAddress_V_rea = call i32 @_ssdm_op_Read.ap_auto.i32P(i32* %inputIpAddress_V)" [/home/paulrr2/Projects/ece527/babelsoc/fpga-network-stack/hls/dhcp_client/dhcp_client.cpp:262]   --->   Operation 4 'read' 'inputIpAddress_V_rea' <Predicate = true> <Delay = 0.00>
ST_1 : Operation 5 [1/1] (0.00ns)   --->   "%dhcpEnable_V_read = call i1 @_ssdm_op_Read.ap_auto.i1P(i1* %dhcpEnable_V)" [/home/paulrr2/Projects/ece527/babelsoc/fpga-network-stack/hls/dhcp_client/dhcp_client.cpp:270]   --->   Operation 5 'read' 'dhcpEnable_V_read' <Predicate = true> <Delay = 0.00>
ST_1 : Operation 6 [1/1] (0.00ns)   --->   "%t_V = load i32* @time_V, align 4" [/home/paulrr2/Projects/ece527/babelsoc/fpga-network-stack/hls/dhcp_client/dhcp_client.cpp:271]   --->   Operation 6 'load' 't_V' <Predicate = true> <Delay = 0.00>
ST_1 : Operation 7 [1/1] (0.00ns)   --->   "%tmp_identifier_V = load i32* @randomValue_V, align 4" [/home/paulrr2/Projects/ece527/babelsoc/fpga-network-stack/hls/dhcp_client/dhcp_client.cpp:272]   --->   Operation 7 'load' 'tmp_identifier_V' <Predicate = true> <Delay = 0.00>
ST_1 : Operation 8 [1/1] (0.00ns)   --->   "%myIdentity_V_load = load i32* @myIdentity_V, align 4" [/home/paulrr2/Projects/ece527/babelsoc/fpga-network-stack/hls/dhcp_client/dhcp_client.cpp:285]   --->   Operation 8 'load' 'myIdentity_V_load' <Predicate = true> <Delay = 0.00>
ST_1 : Operation 9 [1/1] (1.76ns)   --->   "switch i3 %state_load, label %dhcp_fsm.exit [
    i3 0, label %0
    i3 1, label %2
    i3 2, label %6
    i3 3, label %15
    i3 -4, label %24
  ]" [/home/paulrr2/Projects/ece527/babelsoc/fpga-network-stack/hls/dhcp_client/dhcp_client.cpp:260]   --->   Operation 9 'switch' <Predicate = true> <Delay = 1.76>
ST_1 : Operation 10 [1/1] (0.00ns)   --->   "%tmp_6 = call i1 @_ssdm_op_NbReadReq.ap_fifo.i104P(i104* @dhcp_replyMetaFifo_V, i32 1)" [/home/paulrr2/Projects/ece527/babelsoc/fpga-network-stack/hls/dhcp_client/dhcp_client.cpp:325]   --->   Operation 10 'nbreadreq' 'tmp_6' <Predicate = (state_load == 4)> <Delay = 0.00> <Core = "FIFO">   --->   Core 32 'FIFO' <Latency = 0> <II = 1> <Delay = 3.63> <Storage> <Opcode : 'read' 'write' 'nbread' 'nbwrite'> <Ports = 0> <Width = 1> <Depth = 2> <FIFO>
ST_1 : Operation 11 [1/1] (2.80ns)   --->   "%tmp_459_0 = call i104 @_ssdm_op_Read.ap_fifo.volatile.i104P(i104* @dhcp_replyMetaFifo_V)" [/home/paulrr2/Projects/ece527/babelsoc/fpga-network-stack/hls/dhcp_client/dhcp_client.cpp:326]   --->   Operation 11 'read' 'tmp_459_0' <Predicate = (state_load == 4 & tmp_6)> <Delay = 2.80> <Core = "FIFO">   --->   Core 32 'FIFO' <Latency = 0> <II = 1> <Delay = 3.63> <Storage> <Opcode : 'read' 'write' 'nbread' 'nbwrite'> <Ports = 0> <Width = 1> <Depth = 2> <FIFO>
ST_1 : Operation 12 [1/1] (0.00ns)   --->   "br i1 %dhcpEnable_V_read, label %._crit_edge13.i, label %26" [/home/paulrr2/Projects/ece527/babelsoc/fpga-network-stack/hls/dhcp_client/dhcp_client.cpp:327]   --->   Operation 12 'br' <Predicate = (state_load == 4)> <Delay = 0.00>
ST_1 : Operation 13 [1/1] (1.86ns)   --->   "store i3 1, i3* @state, align 1" [/home/paulrr2/Projects/ece527/babelsoc/fpga-network-stack/hls/dhcp_client/dhcp_client.cpp:328]   --->   Operation 13 'store' <Predicate = (state_load == 4 & !dhcpEnable_V_read)> <Delay = 1.86>
ST_1 : Operation 14 [1/1] (1.76ns)   --->   "br label %dhcp_fsm.exit" [/home/paulrr2/Projects/ece527/babelsoc/fpga-network-stack/hls/dhcp_client/dhcp_client.cpp:329]   --->   Operation 14 'br' <Predicate = (state_load == 4)> <Delay = 1.76>
ST_1 : Operation 15 [1/1] (0.00ns)   --->   "%tmp_5 = call i1 @_ssdm_op_NbReadReq.ap_fifo.i104P(i104* @dhcp_replyMetaFifo_V, i32 1)" [/home/paulrr2/Projects/ece527/babelsoc/fpga-network-stack/hls/dhcp_client/dhcp_client.cpp:304]   --->   Operation 15 'nbreadreq' 'tmp_5' <Predicate = (state_load == 3)> <Delay = 0.00> <Core = "FIFO">   --->   Core 32 'FIFO' <Latency = 0> <II = 1> <Delay = 3.63> <Storage> <Opcode : 'read' 'write' 'nbread' 'nbwrite'> <Ports = 0> <Width = 1> <Depth = 2> <FIFO>
ST_1 : Operation 16 [1/1] (2.47ns)   --->   "%icmp_ln879_9 = icmp eq i32 %t_V, 0" [/home/paulrr2/Projects/ece527/babelsoc/fpga-network-stack/hls/dhcp_client/dhcp_client.cpp:317]   --->   Operation 16 'icmp' 'icmp_ln879_9' <Predicate = (state_load == 3 & !tmp_5)> <Delay = 2.47> <Core = "Cmp">   --->   Core 25 'Cmp' <Latency = 0> <II = 1> <Delay = 2.47> <FuncUnit> <Opcode : 'icmp'> <InPorts = 2> <OutPorts = 1>
ST_1 : Operation 17 [1/1] (0.00ns)   --->   "br i1 %icmp_ln879_9, label %20, label %21" [/home/paulrr2/Projects/ece527/babelsoc/fpga-network-stack/hls/dhcp_client/dhcp_client.cpp:317]   --->   Operation 17 'br' <Predicate = (state_load == 3 & !tmp_5)> <Delay = 0.00>
ST_1 : Operation 18 [1/1] (2.55ns)   --->   "%add_ln701_2 = add i32 %t_V, -1" [/home/paulrr2/Projects/ece527/babelsoc/fpga-network-stack/hls/dhcp_client/dhcp_client.cpp:320]   --->   Operation 18 'add' 'add_ln701_2' <Predicate = (state_load == 3 & !tmp_5 & !icmp_ln879_9)> <Delay = 2.55> <Core = "AddSub">   --->   Core 14 'AddSub' <Latency = 0> <II = 1> <Delay = 2.55> <FuncUnit> <Opcode : 'add' 'sub'> <InPorts = 2> <OutPorts = 1>
ST_1 : Operation 19 [1/1] (1.86ns)   --->   "store i32 %add_ln701_2, i32* @time_V, align 4" [/home/paulrr2/Projects/ece527/babelsoc/fpga-network-stack/hls/dhcp_client/dhcp_client.cpp:320]   --->   Operation 19 'store' <Predicate = (state_load == 3 & !tmp_5 & !icmp_ln879_9)> <Delay = 1.86>
ST_1 : Operation 20 [1/1] (1.86ns)   --->   "store i3 1, i3* @state, align 1" [/home/paulrr2/Projects/ece527/babelsoc/fpga-network-stack/hls/dhcp_client/dhcp_client.cpp:318]   --->   Operation 20 'store' <Predicate = (state_load == 3 & !tmp_5 & icmp_ln879_9)> <Delay = 1.86>
ST_1 : Operation 21 [1/1] (2.80ns)   --->   "%tmp_3 = call i104 @_ssdm_op_Read.ap_fifo.volatile.i104P(i104* @dhcp_replyMetaFifo_V)" [/home/paulrr2/Projects/ece527/babelsoc/fpga-network-stack/hls/dhcp_client/dhcp_client.cpp:305]   --->   Operation 21 'read' 'tmp_3' <Predicate = (state_load == 3 & tmp_5)> <Delay = 2.80> <Core = "FIFO">   --->   Core 32 'FIFO' <Latency = 0> <II = 1> <Delay = 3.63> <Storage> <Opcode : 'read' 'write' 'nbread' 'nbwrite'> <Ports = 0> <Width = 1> <Depth = 2> <FIFO>
ST_1 : Operation 22 [1/1] (0.00ns)   --->   "%trunc_ln321_1 = trunc i104 %tmp_3 to i32" [/home/paulrr2/Projects/ece527/babelsoc/fpga-network-stack/hls/dhcp_client/dhcp_client.hpp:35->/home/paulrr2/Projects/ece527/babelsoc/fpga-network-stack/hls/dhcp_client/dhcp_client.cpp:305]   --->   Operation 22 'trunc' 'trunc_ln321_1' <Predicate = (state_load == 3 & tmp_5)> <Delay = 0.00>
ST_1 : Operation 23 [1/1] (0.00ns)   --->   "%tmp_type_V_1_load_ne = call i8 @_ssdm_op_PartSelect.i8.i104.i32.i32(i104 %tmp_3, i32 96, i32 103)" [/home/paulrr2/Projects/ece527/babelsoc/fpga-network-stack/hls/dhcp_client/dhcp_client.hpp:35->/home/paulrr2/Projects/ece527/babelsoc/fpga-network-stack/hls/dhcp_client/dhcp_client.cpp:305]   --->   Operation 23 'partselect' 'tmp_type_V_1_load_ne' <Predicate = (state_load == 3 & tmp_5)> <Delay = 0.00>
ST_1 : Operation 24 [1/1] (2.47ns)   --->   "%icmp_ln879_8 = icmp eq i32 %trunc_ln321_1, %myIdentity_V_load" [/home/paulrr2/Projects/ece527/babelsoc/fpga-network-stack/hls/dhcp_client/dhcp_client.cpp:306]   --->   Operation 24 'icmp' 'icmp_ln879_8' <Predicate = (state_load == 3 & tmp_5)> <Delay = 2.47> <Core = "Cmp">   --->   Core 25 'Cmp' <Latency = 0> <II = 1> <Delay = 2.47> <FuncUnit> <Opcode : 'icmp'> <InPorts = 2> <OutPorts = 1>
ST_1 : Operation 25 [1/1] (0.00ns)   --->   "br i1 %icmp_ln879_8, label %17, label %._crit_edge10.i" [/home/paulrr2/Projects/ece527/babelsoc/fpga-network-stack/hls/dhcp_client/dhcp_client.cpp:306]   --->   Operation 25 'br' <Predicate = (state_load == 3 & tmp_5)> <Delay = 0.00>
ST_1 : Operation 26 [1/1] (1.55ns)   --->   "%icmp_ln879_11 = icmp eq i8 %tmp_type_V_1_load_ne, 5" [/home/paulrr2/Projects/ece527/babelsoc/fpga-network-stack/hls/dhcp_client/dhcp_client.cpp:307]   --->   Operation 26 'icmp' 'icmp_ln879_11' <Predicate = (state_load == 3 & tmp_5 & icmp_ln879_8)> <Delay = 1.55> <Core = "Cmp">   --->   Core 25 'Cmp' <Latency = 0> <II = 1> <Delay = 2.47> <FuncUnit> <Opcode : 'icmp'> <InPorts = 2> <OutPorts = 1>
ST_1 : Operation 27 [1/1] (1.76ns)   --->   "br i1 %icmp_ln879_11, label %18, label %._crit_edge11.i" [/home/paulrr2/Projects/ece527/babelsoc/fpga-network-stack/hls/dhcp_client/dhcp_client.cpp:307]   --->   Operation 27 'br' <Predicate = (state_load == 3 & tmp_5 & icmp_ln879_8)> <Delay = 1.76>
ST_1 : Operation 28 [1/1] (1.76ns)   --->   "br label %._crit_edge11.i" [/home/paulrr2/Projects/ece527/babelsoc/fpga-network-stack/hls/dhcp_client/dhcp_client.cpp:310]   --->   Operation 28 'br' <Predicate = (state_load == 3 & tmp_5 & icmp_ln879_8 & icmp_ln879_11)> <Delay = 1.76>
ST_1 : Operation 29 [1/1] (0.00ns)   --->   "%storemerge_i = phi i3 [ -4, %18 ], [ 1, %17 ]"   --->   Operation 29 'phi' 'storemerge_i' <Predicate = (state_load == 3 & tmp_5 & icmp_ln879_8)> <Delay = 0.00>
ST_1 : Operation 30 [1/1] (1.86ns)   --->   "store i3 %storemerge_i, i3* @state, align 1" [/home/paulrr2/Projects/ece527/babelsoc/fpga-network-stack/hls/dhcp_client/dhcp_client.cpp:309]   --->   Operation 30 'store' <Predicate = (state_load == 3 & tmp_5 & icmp_ln879_8)> <Delay = 1.86>
ST_1 : Operation 31 [1/1] (1.76ns)   --->   "br label %dhcp_fsm.exit" [/home/paulrr2/Projects/ece527/babelsoc/fpga-network-stack/hls/dhcp_client/dhcp_client.cpp:322]   --->   Operation 31 'br' <Predicate = (state_load == 3)> <Delay = 1.76>
ST_1 : Operation 32 [1/1] (0.00ns)   --->   "%tmp_4 = call i1 @_ssdm_op_NbReadReq.ap_fifo.i104P(i104* @dhcp_replyMetaFifo_V, i32 1)" [/home/paulrr2/Projects/ece527/babelsoc/fpga-network-stack/hls/dhcp_client/dhcp_client.cpp:283]   --->   Operation 32 'nbreadreq' 'tmp_4' <Predicate = (state_load == 2)> <Delay = 0.00> <Core = "FIFO">   --->   Core 32 'FIFO' <Latency = 0> <II = 1> <Delay = 3.63> <Storage> <Opcode : 'read' 'write' 'nbread' 'nbwrite'> <Ports = 0> <Width = 1> <Depth = 2> <FIFO>
ST_1 : Operation 33 [1/1] (2.47ns)   --->   "%icmp_ln879_7 = icmp eq i32 %t_V, 0" [/home/paulrr2/Projects/ece527/babelsoc/fpga-network-stack/hls/dhcp_client/dhcp_client.cpp:297]   --->   Operation 33 'icmp' 'icmp_ln879_7' <Predicate = (state_load == 2 & !tmp_4)> <Delay = 2.47> <Core = "Cmp">   --->   Core 25 'Cmp' <Latency = 0> <II = 1> <Delay = 2.47> <FuncUnit> <Opcode : 'icmp'> <InPorts = 2> <OutPorts = 1>
ST_1 : Operation 34 [1/1] (0.00ns)   --->   "br i1 %icmp_ln879_7, label %11, label %12" [/home/paulrr2/Projects/ece527/babelsoc/fpga-network-stack/hls/dhcp_client/dhcp_client.cpp:297]   --->   Operation 34 'br' <Predicate = (state_load == 2 & !tmp_4)> <Delay = 0.00>
ST_1 : Operation 35 [1/1] (2.55ns)   --->   "%add_ln701_1 = add i32 %t_V, -1" [/home/paulrr2/Projects/ece527/babelsoc/fpga-network-stack/hls/dhcp_client/dhcp_client.cpp:300]   --->   Operation 35 'add' 'add_ln701_1' <Predicate = (state_load == 2 & !tmp_4 & !icmp_ln879_7)> <Delay = 2.55> <Core = "AddSub">   --->   Core 14 'AddSub' <Latency = 0> <II = 1> <Delay = 2.55> <FuncUnit> <Opcode : 'add' 'sub'> <InPorts = 2> <OutPorts = 1>
ST_1 : Operation 36 [1/1] (1.86ns)   --->   "store i32 %add_ln701_1, i32* @time_V, align 4" [/home/paulrr2/Projects/ece527/babelsoc/fpga-network-stack/hls/dhcp_client/dhcp_client.cpp:300]   --->   Operation 36 'store' <Predicate = (state_load == 2 & !tmp_4 & !icmp_ln879_7)> <Delay = 1.86>
ST_1 : Operation 37 [1/1] (1.86ns)   --->   "store i3 1, i3* @state, align 1" [/home/paulrr2/Projects/ece527/babelsoc/fpga-network-stack/hls/dhcp_client/dhcp_client.cpp:298]   --->   Operation 37 'store' <Predicate = (state_load == 2 & !tmp_4 & icmp_ln879_7)> <Delay = 1.86>
ST_1 : Operation 38 [1/1] (2.80ns)   --->   "%tmp_1 = call i104 @_ssdm_op_Read.ap_fifo.volatile.i104P(i104* @dhcp_replyMetaFifo_V)" [/home/paulrr2/Projects/ece527/babelsoc/fpga-network-stack/hls/dhcp_client/dhcp_client.cpp:284]   --->   Operation 38 'read' 'tmp_1' <Predicate = (state_load == 2 & tmp_4)> <Delay = 2.80> <Core = "FIFO">   --->   Core 32 'FIFO' <Latency = 0> <II = 1> <Delay = 3.63> <Storage> <Opcode : 'read' 'write' 'nbread' 'nbwrite'> <Ports = 0> <Width = 1> <Depth = 2> <FIFO>
ST_1 : Operation 39 [1/1] (0.00ns)   --->   "%tmp_identifier_V_1 = trunc i104 %tmp_1 to i32" [/home/paulrr2/Projects/ece527/babelsoc/fpga-network-stack/hls/dhcp_client/dhcp_client.hpp:35->/home/paulrr2/Projects/ece527/babelsoc/fpga-network-stack/hls/dhcp_client/dhcp_client.cpp:284]   --->   Operation 39 'trunc' 'tmp_identifier_V_1' <Predicate = (state_load == 2 & tmp_4)> <Delay = 0.00>
ST_1 : Operation 40 [1/1] (0.00ns)   --->   "%tmp_requestedIpAddre = call i32 @_ssdm_op_PartSelect.i32.i104.i32.i32(i104 %tmp_1, i32 32, i32 63)" [/home/paulrr2/Projects/ece527/babelsoc/fpga-network-stack/hls/dhcp_client/dhcp_client.hpp:35->/home/paulrr2/Projects/ece527/babelsoc/fpga-network-stack/hls/dhcp_client/dhcp_client.cpp:284]   --->   Operation 40 'partselect' 'tmp_requestedIpAddre' <Predicate = (state_load == 2 & tmp_4)> <Delay = 0.00>
ST_1 : Operation 41 [1/1] (0.00ns)   --->   "%tmp_type_V_load_new_s = call i8 @_ssdm_op_PartSelect.i8.i104.i32.i32(i104 %tmp_1, i32 96, i32 103)" [/home/paulrr2/Projects/ece527/babelsoc/fpga-network-stack/hls/dhcp_client/dhcp_client.hpp:35->/home/paulrr2/Projects/ece527/babelsoc/fpga-network-stack/hls/dhcp_client/dhcp_client.cpp:284]   --->   Operation 41 'partselect' 'tmp_type_V_load_new_s' <Predicate = (state_load == 2 & tmp_4)> <Delay = 0.00>
ST_1 : Operation 42 [1/1] (2.47ns)   --->   "%icmp_ln879_6 = icmp eq i32 %tmp_identifier_V_1, %myIdentity_V_load" [/home/paulrr2/Projects/ece527/babelsoc/fpga-network-stack/hls/dhcp_client/dhcp_client.cpp:285]   --->   Operation 42 'icmp' 'icmp_ln879_6' <Predicate = (state_load == 2 & tmp_4)> <Delay = 2.47> <Core = "Cmp">   --->   Core 25 'Cmp' <Latency = 0> <II = 1> <Delay = 2.47> <FuncUnit> <Opcode : 'icmp'> <InPorts = 2> <OutPorts = 1>
ST_1 : Operation 43 [1/1] (0.00ns)   --->   "br i1 %icmp_ln879_6, label %8, label %._crit_edge8.i" [/home/paulrr2/Projects/ece527/babelsoc/fpga-network-stack/hls/dhcp_client/dhcp_client.cpp:285]   --->   Operation 43 'br' <Predicate = (state_load == 2 & tmp_4)> <Delay = 0.00>
ST_1 : Operation 44 [1/1] (1.55ns)   --->   "%icmp_ln879_10 = icmp eq i8 %tmp_type_V_load_new_s, 2" [/home/paulrr2/Projects/ece527/babelsoc/fpga-network-stack/hls/dhcp_client/dhcp_client.cpp:286]   --->   Operation 44 'icmp' 'icmp_ln879_10' <Predicate = (state_load == 2 & tmp_4 & icmp_ln879_6)> <Delay = 1.55> <Core = "Cmp">   --->   Core 25 'Cmp' <Latency = 0> <II = 1> <Delay = 2.47> <FuncUnit> <Opcode : 'icmp'> <InPorts = 2> <OutPorts = 1>
ST_1 : Operation 45 [1/1] (1.76ns)   --->   "br i1 %icmp_ln879_10, label %9, label %._crit_edge9.i" [/home/paulrr2/Projects/ece527/babelsoc/fpga-network-stack/hls/dhcp_client/dhcp_client.cpp:286]   --->   Operation 45 'br' <Predicate = (state_load == 2 & tmp_4 & icmp_ln879_6)> <Delay = 1.76>
ST_1 : Operation 46 [1/1] (1.86ns)   --->   "store i32 750750750, i32* @time_V, align 4" [/home/paulrr2/Projects/ece527/babelsoc/fpga-network-stack/hls/dhcp_client/dhcp_client.cpp:289]   --->   Operation 46 'store' <Predicate = (state_load == 2 & tmp_4 & icmp_ln879_6 & icmp_ln879_10)> <Delay = 1.86>
ST_1 : Operation 47 [1/1] (1.76ns)   --->   "br label %._crit_edge9.i" [/home/paulrr2/Projects/ece527/babelsoc/fpga-network-stack/hls/dhcp_client/dhcp_client.cpp:291]   --->   Operation 47 'br' <Predicate = (state_load == 2 & tmp_4 & icmp_ln879_6 & icmp_ln879_10)> <Delay = 1.76>
ST_1 : Operation 48 [1/1] (0.00ns)   --->   "%storemerge220_i = phi i2 [ -1, %9 ], [ 1, %8 ]"   --->   Operation 48 'phi' 'storemerge220_i' <Predicate = (state_load == 2 & tmp_4 & icmp_ln879_6)> <Delay = 0.00>
ST_1 : Operation 49 [1/1] (0.00ns)   --->   "%zext_ln290 = zext i2 %storemerge220_i to i3" [/home/paulrr2/Projects/ece527/babelsoc/fpga-network-stack/hls/dhcp_client/dhcp_client.cpp:290]   --->   Operation 49 'zext' 'zext_ln290' <Predicate = (state_load == 2 & tmp_4 & icmp_ln879_6)> <Delay = 0.00>
ST_1 : Operation 50 [1/1] (1.86ns)   --->   "store i3 %zext_ln290, i3* @state, align 1" [/home/paulrr2/Projects/ece527/babelsoc/fpga-network-stack/hls/dhcp_client/dhcp_client.cpp:290]   --->   Operation 50 'store' <Predicate = (state_load == 2 & tmp_4 & icmp_ln879_6)> <Delay = 1.86>
ST_1 : Operation 51 [1/1] (1.76ns)   --->   "br label %dhcp_fsm.exit" [/home/paulrr2/Projects/ece527/babelsoc/fpga-network-stack/hls/dhcp_client/dhcp_client.cpp:302]   --->   Operation 51 'br' <Predicate = (state_load == 2)> <Delay = 1.76>
ST_1 : Operation 52 [1/1] (1.76ns)   --->   "br i1 %dhcpEnable_V_read, label %3, label %dhcp_fsm.exit" [/home/paulrr2/Projects/ece527/babelsoc/fpga-network-stack/hls/dhcp_client/dhcp_client.cpp:270]   --->   Operation 52 'br' <Predicate = (state_load == 1)> <Delay = 1.76>
ST_1 : Operation 53 [1/1] (2.47ns)   --->   "%icmp_ln879 = icmp eq i32 %t_V, 0" [/home/paulrr2/Projects/ece527/babelsoc/fpga-network-stack/hls/dhcp_client/dhcp_client.cpp:271]   --->   Operation 53 'icmp' 'icmp_ln879' <Predicate = (state_load == 1 & dhcpEnable_V_read)> <Delay = 2.47> <Core = "Cmp">   --->   Core 25 'Cmp' <Latency = 0> <II = 1> <Delay = 2.47> <FuncUnit> <Opcode : 'icmp'> <InPorts = 2> <OutPorts = 1>
ST_1 : Operation 54 [1/1] (0.00ns)   --->   "br i1 %icmp_ln879, label %4, label %5" [/home/paulrr2/Projects/ece527/babelsoc/fpga-network-stack/hls/dhcp_client/dhcp_client.cpp:271]   --->   Operation 54 'br' <Predicate = (state_load == 1 & dhcpEnable_V_read)> <Delay = 0.00>
ST_1 : Operation 55 [1/1] (2.55ns)   --->   "%add_ln701 = add i32 %t_V, -1" [/home/paulrr2/Projects/ece527/babelsoc/fpga-network-stack/hls/dhcp_client/dhcp_client.cpp:279]   --->   Operation 55 'add' 'add_ln701' <Predicate = (state_load == 1 & dhcpEnable_V_read & !icmp_ln879)> <Delay = 2.55> <Core = "AddSub">   --->   Core 14 'AddSub' <Latency = 0> <II = 1> <Delay = 2.55> <FuncUnit> <Opcode : 'add' 'sub'> <InPorts = 2> <OutPorts = 1>
ST_1 : Operation 56 [1/1] (1.86ns)   --->   "store i32 %add_ln701, i32* @time_V, align 4" [/home/paulrr2/Projects/ece527/babelsoc/fpga-network-stack/hls/dhcp_client/dhcp_client.cpp:279]   --->   Operation 56 'store' <Predicate = (state_load == 1 & dhcpEnable_V_read & !icmp_ln879)> <Delay = 1.86>
ST_1 : Operation 57 [1/1] (1.76ns)   --->   "br label %dhcp_fsm.exit"   --->   Operation 57 'br' <Predicate = (state_load == 1 & dhcpEnable_V_read & !icmp_ln879)> <Delay = 1.76>
ST_1 : Operation 58 [1/1] (0.00ns)   --->   "store i32 %tmp_identifier_V, i32* @myIdentity_V, align 4" [/home/paulrr2/Projects/ece527/babelsoc/fpga-network-stack/hls/dhcp_client/dhcp_client.cpp:272]   --->   Operation 58 'store' <Predicate = (state_load == 1 & dhcpEnable_V_read & icmp_ln879)> <Delay = 0.00>
ST_1 : Operation 59 [1/1] (0.00ns) (grouped into LUT with out node xor_ln214)   --->   "%shl_ln214 = shl i32 %tmp_identifier_V, 3" [/home/paulrr2/Projects/ece527/babelsoc/fpga-network-stack/hls/dhcp_client/dhcp_client.cpp:274]   --->   Operation 59 'shl' 'shl_ln214' <Predicate = (state_load == 1 & dhcpEnable_V_read & icmp_ln879)> <Delay = 0.00>
ST_1 : Operation 60 [1/1] (0.99ns) (out node of the LUT)   --->   "%xor_ln214 = xor i32 %tmp_identifier_V, %shl_ln214" [/home/paulrr2/Projects/ece527/babelsoc/fpga-network-stack/hls/dhcp_client/dhcp_client.cpp:274]   --->   Operation 60 'xor' 'xor_ln214' <Predicate = (state_load == 1 & dhcpEnable_V_read & icmp_ln879)> <Delay = 0.99> <Core = "LogicGate">   --->   Core 27 'LogicGate' <Latency = 0> <II = 1> <Delay = 0.99> <FuncUnit> <Opcode : 'and' 'or' 'xor'> <InPorts = 2> <OutPorts = 1>
ST_1 : Operation 61 [1/1] (1.86ns)   --->   "store i32 750750750, i32* @time_V, align 4" [/home/paulrr2/Projects/ece527/babelsoc/fpga-network-stack/hls/dhcp_client/dhcp_client.cpp:275]   --->   Operation 61 'store' <Predicate = (state_load == 1 & dhcpEnable_V_read & icmp_ln879)> <Delay = 1.86>
ST_1 : Operation 62 [1/1] (1.86ns)   --->   "store i3 2, i3* @state, align 1" [/home/paulrr2/Projects/ece527/babelsoc/fpga-network-stack/hls/dhcp_client/dhcp_client.cpp:276]   --->   Operation 62 'store' <Predicate = (state_load == 1 & dhcpEnable_V_read & icmp_ln879)> <Delay = 1.86>
ST_1 : Operation 63 [1/1] (1.76ns)   --->   "br label %dhcp_fsm.exit" [/home/paulrr2/Projects/ece527/babelsoc/fpga-network-stack/hls/dhcp_client/dhcp_client.cpp:277]   --->   Operation 63 'br' <Predicate = (state_load == 1 & dhcpEnable_V_read & icmp_ln879)> <Delay = 1.76>
ST_1 : Operation 64 [1/1] (0.00ns)   --->   "%tmp = call i1 @_ssdm_op_NbReadReq.ap_fifo.i1P(i1* @portOpen_V_V, i32 1)" [/home/paulrr2/Projects/ece527/babelsoc/fpga-network-stack/hls/dhcp_client/dhcp_client.cpp:263]   --->   Operation 64 'nbreadreq' 'tmp' <Predicate = (state_load == 0)> <Delay = 0.00> <Core = "FIFO">   --->   Core 32 'FIFO' <Latency = 0> <II = 1> <Delay = 3.63> <Storage> <Opcode : 'read' 'write' 'nbread' 'nbwrite'> <Ports = 0> <Width = 1> <Depth = 2> <FIFO>
ST_1 : Operation 65 [1/1] (0.00ns)   --->   "br i1 %tmp, label %1, label %._crit_edge6.i" [/home/paulrr2/Projects/ece527/babelsoc/fpga-network-stack/hls/dhcp_client/dhcp_client.cpp:263]   --->   Operation 65 'br' <Predicate = (state_load == 0)> <Delay = 0.00>
ST_1 : Operation 66 [1/1] (2.80ns)   --->   "%tmp_V_0 = call i1 @_ssdm_op_Read.ap_fifo.volatile.i1P(i1* @portOpen_V_V)" [/home/paulrr2/Projects/ece527/babelsoc/fpga-network-stack/hls/dhcp_client/dhcp_client.cpp:264]   --->   Operation 66 'read' 'tmp_V_0' <Predicate = (state_load == 0 & tmp)> <Delay = 2.80> <Core = "FIFO">   --->   Core 32 'FIFO' <Latency = 0> <II = 1> <Delay = 3.63> <Storage> <Opcode : 'read' 'write' 'nbread' 'nbwrite'> <Ports = 0> <Width = 1> <Depth = 2> <FIFO>
ST_1 : Operation 67 [1/1] (1.86ns)   --->   "store i3 1, i3* @state, align 1" [/home/paulrr2/Projects/ece527/babelsoc/fpga-network-stack/hls/dhcp_client/dhcp_client.cpp:265]   --->   Operation 67 'store' <Predicate = (state_load == 0 & tmp)> <Delay = 1.86>
ST_1 : Operation 68 [1/1] (1.76ns)   --->   "br label %dhcp_fsm.exit" [/home/paulrr2/Projects/ece527/babelsoc/fpga-network-stack/hls/dhcp_client/dhcp_client.cpp:267]   --->   Operation 68 'br' <Predicate = (state_load == 0)> <Delay = 1.76>

State 2 <SV = 1> <Delay = 2.80>
ST_2 : Operation 69 [1/1] (0.00ns)   --->   "call void (...)* @_ssdm_op_SpecInterface(i104* @dhcp_replyMetaFifo_V, [8 x i8]* @ap_fifo_str, i32 0, i32 0, [1 x i8]* @p_str, i32 0, i32 0, [1 x i8]* @p_str, [1 x i8]* @p_str, [1 x i8]* @p_str, i32 2, i32 2, i32 16, i32 16, [1 x i8]* @p_str, [1 x i8]* @p_str)"   --->   Operation 69 'specinterface' <Predicate = true> <Delay = 0.00>
ST_2 : Operation 70 [1/1] (0.00ns)   --->   "call void (...)* @_ssdm_op_SpecInterface(i72* @dhcp_requestMetaFifo_1, [8 x i8]* @ap_fifo_str, i32 0, i32 0, [1 x i8]* @p_str, i32 0, i32 0, [1 x i8]* @p_str, [1 x i8]* @p_str, [1 x i8]* @p_str, i32 2, i32 2, i32 16, i32 16, [1 x i8]* @p_str, [1 x i8]* @p_str)"   --->   Operation 70 'specinterface' <Predicate = true> <Delay = 0.00>
ST_2 : Operation 71 [1/1] (0.00ns)   --->   "call void (...)* @_ssdm_op_SpecInterface(i1* @portOpen_V_V, [8 x i8]* @ap_fifo_str, i32 0, i32 0, [1 x i8]* @p_str, i32 0, i32 0, [1 x i8]* @p_str, [1 x i8]* @p_str, [1 x i8]* @p_str, i32 2, i32 2, i32 16, i32 16, [1 x i8]* @p_str, [1 x i8]* @p_str)"   --->   Operation 71 'specinterface' <Predicate = true> <Delay = 0.00>
ST_2 : Operation 72 [1/1] (0.00ns)   --->   "call void (...)* @_ssdm_op_SpecPipeline(i32 1, i32 1, i32 1, i32 0, [1 x i8]* @p_str) nounwind" [/home/paulrr2/Projects/ece527/babelsoc/fpga-network-stack/hls/dhcp_client/dhcp_client.cpp:246]   --->   Operation 72 'specpipeline' <Predicate = true> <Delay = 0.00>
ST_2 : Operation 73 [1/1] (0.00ns)   --->   "%myIpAddress_V_load = load i32* @myIpAddress_V, align 4" [/home/paulrr2/Projects/ece527/babelsoc/fpga-network-stack/hls/dhcp_client/dhcp_client.cpp:258]   --->   Operation 73 'load' 'myIpAddress_V_load' <Predicate = true> <Delay = 0.00>
ST_2 : Operation 74 [1/1] (0.00ns)   --->   "%IpAddressBuffer_V_lo = load i32* @IpAddressBuffer_V, align 4" [/home/paulrr2/Projects/ece527/babelsoc/fpga-network-stack/hls/dhcp_client/dhcp_client.cpp:308]   --->   Operation 74 'load' 'IpAddressBuffer_V_lo' <Predicate = true> <Delay = 0.00>
ST_2 : Operation 75 [1/1] (0.00ns)   --->   "br i1 %tmp_6, label %25, label %._crit_edge12.i" [/home/paulrr2/Projects/ece527/babelsoc/fpga-network-stack/hls/dhcp_client/dhcp_client.cpp:325]   --->   Operation 75 'br' <Predicate = (state_load == 4)> <Delay = 0.00>
ST_2 : Operation 76 [1/1] (0.00ns)   --->   "br label %._crit_edge12.i" [/home/paulrr2/Projects/ece527/babelsoc/fpga-network-stack/hls/dhcp_client/dhcp_client.cpp:326]   --->   Operation 76 'br' <Predicate = (state_load == 4 & tmp_6)> <Delay = 0.00>
ST_2 : Operation 77 [1/1] (0.00ns)   --->   "br label %._crit_edge13.i" [/home/paulrr2/Projects/ece527/babelsoc/fpga-network-stack/hls/dhcp_client/dhcp_client.cpp:328]   --->   Operation 77 'br' <Predicate = (state_load == 4 & !dhcpEnable_V_read)> <Delay = 0.00>
ST_2 : Operation 78 [1/1] (0.00ns)   --->   "br i1 %tmp_5, label %16, label %19" [/home/paulrr2/Projects/ece527/babelsoc/fpga-network-stack/hls/dhcp_client/dhcp_client.cpp:304]   --->   Operation 78 'br' <Predicate = (state_load == 3)> <Delay = 0.00>
ST_2 : Operation 79 [1/1] (0.00ns)   --->   "br label %22"   --->   Operation 79 'br' <Predicate = (state_load == 3 & !tmp_5 & !icmp_ln879_9)> <Delay = 0.00>
ST_2 : Operation 80 [1/1] (0.00ns)   --->   "br label %22" [/home/paulrr2/Projects/ece527/babelsoc/fpga-network-stack/hls/dhcp_client/dhcp_client.cpp:318]   --->   Operation 80 'br' <Predicate = (state_load == 3 & !tmp_5 & icmp_ln879_9)> <Delay = 0.00>
ST_2 : Operation 81 [1/1] (0.00ns)   --->   "br label %23"   --->   Operation 81 'br' <Predicate = (state_load == 3 & !tmp_5)> <Delay = 0.00>
ST_2 : Operation 82 [1/1] (1.76ns)   --->   "store i32 %IpAddressBuffer_V_lo, i32* @myIpAddress_V, align 4" [/home/paulrr2/Projects/ece527/babelsoc/fpga-network-stack/hls/dhcp_client/dhcp_client.cpp:308]   --->   Operation 82 'store' <Predicate = (state_load == 3 & tmp_5 & icmp_ln879_8 & icmp_ln879_11)> <Delay = 1.76>
ST_2 : Operation 83 [1/1] (0.00ns)   --->   "br label %._crit_edge10.i" [/home/paulrr2/Projects/ece527/babelsoc/fpga-network-stack/hls/dhcp_client/dhcp_client.cpp:313]   --->   Operation 83 'br' <Predicate = (state_load == 3 & tmp_5 & icmp_ln879_8)> <Delay = 0.00>
ST_2 : Operation 84 [1/1] (0.00ns)   --->   "br label %23" [/home/paulrr2/Projects/ece527/babelsoc/fpga-network-stack/hls/dhcp_client/dhcp_client.cpp:315]   --->   Operation 84 'br' <Predicate = (state_load == 3 & tmp_5)> <Delay = 0.00>
ST_2 : Operation 85 [1/1] (0.00ns)   --->   "br i1 %tmp_4, label %7, label %10" [/home/paulrr2/Projects/ece527/babelsoc/fpga-network-stack/hls/dhcp_client/dhcp_client.cpp:283]   --->   Operation 85 'br' <Predicate = (state_load == 2)> <Delay = 0.00>
ST_2 : Operation 86 [1/1] (0.00ns)   --->   "br label %13"   --->   Operation 86 'br' <Predicate = (state_load == 2 & !tmp_4 & !icmp_ln879_7)> <Delay = 0.00>
ST_2 : Operation 87 [1/1] (0.00ns)   --->   "br label %13" [/home/paulrr2/Projects/ece527/babelsoc/fpga-network-stack/hls/dhcp_client/dhcp_client.cpp:298]   --->   Operation 87 'br' <Predicate = (state_load == 2 & !tmp_4 & icmp_ln879_7)> <Delay = 0.00>
ST_2 : Operation 88 [1/1] (0.00ns)   --->   "br label %14"   --->   Operation 88 'br' <Predicate = (state_load == 2 & !tmp_4)> <Delay = 0.00>
ST_2 : Operation 89 [1/1] (0.00ns)   --->   "store i32 %tmp_requestedIpAddre, i32* @IpAddressBuffer_V, align 4" [/home/paulrr2/Projects/ece527/babelsoc/fpga-network-stack/hls/dhcp_client/dhcp_client.cpp:287]   --->   Operation 89 'store' <Predicate = (state_load == 2 & tmp_4 & icmp_ln879_6 & icmp_ln879_10)> <Delay = 0.00>
ST_2 : Operation 90 [1/1] (0.00ns)   --->   "%tmp_2 = call i72 @_ssdm_op_BitConcatenate.i72.i32.i8.i32(i32 %tmp_requestedIpAddre, i8 3, i32 %myIdentity_V_load)" [/home/paulrr2/Projects/ece527/babelsoc/fpga-network-stack/hls/dhcp_client/dhcp_client.cpp:288]   --->   Operation 90 'bitconcatenate' 'tmp_2' <Predicate = (state_load == 2 & tmp_4 & icmp_ln879_6 & icmp_ln879_10)> <Delay = 0.00>
ST_2 : Operation 91 [1/1] (2.80ns)   --->   "call void @_ssdm_op_Write.ap_fifo.volatile.i72P(i72* @dhcp_requestMetaFifo_1, i72 %tmp_2)" [/home/paulrr2/Projects/ece527/babelsoc/fpga-network-stack/hls/dhcp_client/dhcp_client.cpp:288]   --->   Operation 91 'write' <Predicate = (state_load == 2 & tmp_4 & icmp_ln879_6 & icmp_ln879_10)> <Delay = 2.80> <Core = "FIFO">   --->   Core 32 'FIFO' <Latency = 0> <II = 1> <Delay = 3.63> <Storage> <Opcode : 'read' 'write' 'nbread' 'nbwrite'> <Ports = 0> <Width = 1> <Depth = 2> <FIFO>
ST_2 : Operation 92 [1/1] (0.00ns)   --->   "br label %._crit_edge8.i" [/home/paulrr2/Projects/ece527/babelsoc/fpga-network-stack/hls/dhcp_client/dhcp_client.cpp:294]   --->   Operation 92 'br' <Predicate = (state_load == 2 & tmp_4 & icmp_ln879_6)> <Delay = 0.00>
ST_2 : Operation 93 [1/1] (0.00ns)   --->   "br label %14" [/home/paulrr2/Projects/ece527/babelsoc/fpga-network-stack/hls/dhcp_client/dhcp_client.cpp:295]   --->   Operation 93 'br' <Predicate = (state_load == 2 & tmp_4)> <Delay = 0.00>
ST_2 : Operation 94 [1/1] (1.76ns)   --->   "store i32 %inputIpAddress_V_rea, i32* @myIpAddress_V, align 4" [/home/paulrr2/Projects/ece527/babelsoc/fpga-network-stack/hls/dhcp_client/dhcp_client.cpp:269]   --->   Operation 94 'store' <Predicate = (state_load == 1)> <Delay = 1.76>
ST_2 : Operation 95 [1/1] (0.00ns)   --->   "%tmp22 = call i72 @_ssdm_op_BitConcatenate.i72.i40.i32(i40 1, i32 %tmp_identifier_V)" [/home/paulrr2/Projects/ece527/babelsoc/fpga-network-stack/hls/dhcp_client/dhcp_client.cpp:273]   --->   Operation 95 'bitconcatenate' 'tmp22' <Predicate = (state_load == 1 & dhcpEnable_V_read & icmp_ln879)> <Delay = 0.00>
ST_2 : Operation 96 [1/1] (2.80ns)   --->   "call void @_ssdm_op_Write.ap_fifo.volatile.i72P(i72* @dhcp_requestMetaFifo_1, i72 %tmp22)" [/home/paulrr2/Projects/ece527/babelsoc/fpga-network-stack/hls/dhcp_client/dhcp_client.cpp:273]   --->   Operation 96 'write' <Predicate = (state_load == 1 & dhcpEnable_V_read & icmp_ln879)> <Delay = 2.80> <Core = "FIFO">   --->   Core 32 'FIFO' <Latency = 0> <II = 1> <Delay = 3.63> <Storage> <Opcode : 'read' 'write' 'nbread' 'nbwrite'> <Ports = 0> <Width = 1> <Depth = 2> <FIFO>
ST_2 : Operation 97 [1/1] (1.76ns)   --->   "store i32 %inputIpAddress_V_rea, i32* @myIpAddress_V, align 4" [/home/paulrr2/Projects/ece527/babelsoc/fpga-network-stack/hls/dhcp_client/dhcp_client.cpp:262]   --->   Operation 97 'store' <Predicate = (state_load == 0)> <Delay = 1.76>
ST_2 : Operation 98 [1/1] (0.00ns)   --->   "br label %._crit_edge6.i" [/home/paulrr2/Projects/ece527/babelsoc/fpga-network-stack/hls/dhcp_client/dhcp_client.cpp:266]   --->   Operation 98 'br' <Predicate = (state_load == 0 & tmp)> <Delay = 0.00>
ST_2 : Operation 99 [1/1] (0.00ns)   --->   "%t_V_1 = phi i32 [ %tmp_identifier_V, %entry ], [ %tmp_identifier_V, %._crit_edge13.i ], [ %tmp_identifier_V, %23 ], [ %tmp_identifier_V, %14 ], [ %tmp_identifier_V, %._crit_edge6.i ], [ %tmp_identifier_V, %2 ], [ %xor_ln214, %4 ], [ %tmp_identifier_V, %5 ]"   --->   Operation 99 'phi' 't_V_1' <Predicate = true> <Delay = 0.00>
ST_2 : Operation 100 [1/1] (2.55ns)   --->   "%add_ln700 = add i32 %t_V_1, 1" [/home/paulrr2/Projects/ece527/babelsoc/fpga-network-stack/hls/dhcp_client/dhcp_client.cpp:331]   --->   Operation 100 'add' 'add_ln700' <Predicate = true> <Delay = 2.55> <Core = "AddSub">   --->   Core 14 'AddSub' <Latency = 0> <II = 1> <Delay = 2.55> <FuncUnit> <Opcode : 'add' 'sub'> <InPorts = 2> <OutPorts = 1>
ST_2 : Operation 101 [1/1] (0.00ns)   --->   "store i32 %add_ln700, i32* @randomValue_V, align 4" [/home/paulrr2/Projects/ece527/babelsoc/fpga-network-stack/hls/dhcp_client/dhcp_client.cpp:274]   --->   Operation 101 'store' <Predicate = true> <Delay = 0.00>
ST_2 : Operation 102 [1/1] (0.00ns)   --->   "call void @_ssdm_op_Write.ap_auto.i32P(i32* %ipAddressOut_V, i32 %myIpAddress_V_load)" [/home/paulrr2/Projects/ece527/babelsoc/fpga-network-stack/hls/dhcp_client/dhcp_client.cpp:258]   --->   Operation 102 'write' <Predicate = true> <Delay = 0.00>
ST_2 : Operation 103 [1/1] (0.00ns)   --->   "ret void"   --->   Operation 103 'ret' <Predicate = true> <Delay = 0.00>


============================================================
+ Verbose Summary: Timing violations
============================================================
Target clock period: 6.4ns, clock uncertainty: 0.8ns.

 <State 1>: 7.98ns
The critical path consists of the following:
	fifo read on port 'dhcp_replyMetaFifo_V' (/home/paulrr2/Projects/ece527/babelsoc/fpga-network-stack/hls/dhcp_client/dhcp_client.cpp:305) [62]  (2.8 ns)
	'icmp' operation ('icmp_ln879_11', /home/paulrr2/Projects/ece527/babelsoc/fpga-network-stack/hls/dhcp_client/dhcp_client.cpp:307) [68]  (1.55 ns)
	multiplexor before 'phi' operation ('storemerge_i') [74]  (1.77 ns)
	'phi' operation ('storemerge_i') [74]  (0 ns)
	'store' operation ('store_ln309', /home/paulrr2/Projects/ece527/babelsoc/fpga-network-stack/hls/dhcp_client/dhcp_client.cpp:309) of variable 'storemerge_i' on static variable 'state' [75]  (1.86 ns)

 <State 2>: 2.8ns
The critical path consists of the following:
	fifo write on port 'dhcp_requestMetaFifo_1' (/home/paulrr2/Projects/ece527/babelsoc/fpga-network-stack/hls/dhcp_client/dhcp_client.cpp:288) [109]  (2.8 ns)


============================================================
+ Verbose Summary: Binding
============================================================
N/A
* FSMD analyzer results:
  - Output states:
 - Input state : 
  - Chain level:
	State 1
	State 2


============================================================
+ Verbose Summary: Datapath Resource usage 
============================================================
N/A
