

================================================================
== Vivado HLS Report for 'open_dhcp_port'
================================================================
* Date:           Sat Dec 12 19:23:47 2020

* Version:        2019.2.1 (Build 2724168 on Thu Dec 05 05:19:09 MST 2019)
* Project:        dhcp_client_prj
* Solution:       solution1
* Product family: zynq
* Target device:  xc7z020-clg400-1


================================================================
== Performance Estimates
================================================================
+ Timing: 
    * Summary: 
    +--------+---------+----------+------------+
    |  Clock |  Target | Estimated| Uncertainty|
    +--------+---------+----------+------------+
    |ap_clk  | 6.40 ns | 2.800 ns |   0.80 ns  |
    +--------+---------+----------+------------+

+ Latency: 
    * Summary: 
    +---------+---------+----------+----------+-----+-----+----------+
    |  Latency (cycles) |  Latency (absolute) |  Interval | Pipeline |
    |   min   |   max   |    min   |    max   | min | max |   Type   |
    +---------+---------+----------+----------+-----+-----+----------+
    |        1|        1| 6.400 ns | 6.400 ns |    1|    1| function |
    +---------+---------+----------+----------+-----+-----+----------+

    + Detail: 
        * Instance: 
        N/A

        * Loop: 
        N/A

============================================================
+ Verbose Summary: Synthesis Manager
============================================================
InlineROM: 1
ExposeGlobal: 0
============================================================
+ Verbose Summary: CDFG Model
============================================================
IsTopModel: 0
ResetActiveHigh: 1
IsCombinational: 2
IsDatapathOnly: 0
HasWiredReturn: 1
HasMFsm: 2
HasVarLatency: 0
IsPipeline: 1
IsRtlPipelined: 1
IsInstanceOverlapped: 0
IsDontTouch: 0
HasImplIP: 0
IsGatedGlobalClock: 0

+ Individual pipeline summary: 
  * Pipeline-0: initiation interval (II) = 1, depth = 2


============================================================
+ Verbose Summary: Schedule
============================================================
* Number of FSM states : 2
* Pipeline : 1
  Pipeline-0 : II = 1, D = 2, States = { 1 2 }
* Dataflow Pipeline: 0

* FSM state transitions: 
1 --> 2 
2 --> 

* FSM state operations: 

State 1 <SV = 0> <Delay = 2.55>
ST_1 : Operation 3 [1/1] (0.00ns)   --->   "%t_V = load i32* @openPortWaitTime_V, align 4" [/home/paulrr2/Projects/ece527/babelsoc/fpga-network-stack/hls/dhcp_client/dhcp_client.cpp:45]   --->   Operation 3 'load' 't_V' <Predicate = true> <Delay = 0.00>
ST_1 : Operation 4 [1/1] (2.47ns)   --->   "%icmp_ln879 = icmp eq i32 %t_V, 0" [/home/paulrr2/Projects/ece527/babelsoc/fpga-network-stack/hls/dhcp_client/dhcp_client.cpp:45]   --->   Operation 4 'icmp' 'icmp_ln879' <Predicate = true> <Delay = 2.47> <Core = "Cmp">   --->   Core 25 'Cmp' <Latency = 0> <II = 1> <Delay = 2.47> <FuncUnit> <Opcode : 'icmp'> <InPorts = 2> <OutPorts = 1>
ST_1 : Operation 5 [1/1] (0.00ns)   --->   "br i1 %icmp_ln879, label %0, label %5" [/home/paulrr2/Projects/ece527/babelsoc/fpga-network-stack/hls/dhcp_client/dhcp_client.cpp:45]   --->   Operation 5 'br' <Predicate = true> <Delay = 0.00>
ST_1 : Operation 6 [1/1] (2.55ns)   --->   "%add_ln701 = add i32 %t_V, -1" [/home/paulrr2/Projects/ece527/babelsoc/fpga-network-stack/hls/dhcp_client/dhcp_client.cpp:56]   --->   Operation 6 'add' 'add_ln701' <Predicate = (!icmp_ln879)> <Delay = 2.55> <Core = "AddSub">   --->   Core 14 'AddSub' <Latency = 0> <II = 1> <Delay = 2.55> <FuncUnit> <Opcode : 'add' 'sub'> <InPorts = 2> <OutPorts = 1>
ST_1 : Operation 7 [1/1] (0.00ns)   --->   "store i32 %add_ln701, i32* @openPortWaitTime_V, align 4" [/home/paulrr2/Projects/ece527/babelsoc/fpga-network-stack/hls/dhcp_client/dhcp_client.cpp:56]   --->   Operation 7 'store' <Predicate = (!icmp_ln879)> <Delay = 0.00>
ST_1 : Operation 8 [1/1] (0.00ns)   --->   "%odp_listenDone_load = load i1* @odp_listenDone, align 1" [/home/paulrr2/Projects/ece527/babelsoc/fpga-network-stack/hls/dhcp_client/dhcp_client.cpp:46]   --->   Operation 8 'load' 'odp_listenDone_load' <Predicate = (icmp_ln879)> <Delay = 0.00>
ST_1 : Operation 9 [1/1] (0.00ns)   --->   "%odp_waitListenStatus_1 = load i1* @odp_waitListenStatus, align 1" [/home/paulrr2/Projects/ece527/babelsoc/fpga-network-stack/hls/dhcp_client/dhcp_client.cpp:46]   --->   Operation 9 'load' 'odp_waitListenStatus_1' <Predicate = (icmp_ln879)> <Delay = 0.00>
ST_1 : Operation 10 [1/1] (0.97ns)   --->   "%or_ln46 = or i1 %odp_listenDone_load, %odp_waitListenStatus_1" [/home/paulrr2/Projects/ece527/babelsoc/fpga-network-stack/hls/dhcp_client/dhcp_client.cpp:46]   --->   Operation 10 'or' 'or_ln46' <Predicate = (icmp_ln879)> <Delay = 0.97> <Core = "LogicGate">   --->   Core 27 'LogicGate' <Latency = 0> <II = 1> <Delay = 0.97> <FuncUnit> <Opcode : 'and' 'or' 'xor'> <InPorts = 2> <OutPorts = 1>
ST_1 : Operation 11 [1/1] (0.00ns)   --->   "br i1 %or_ln46, label %._crit_edge1.i, label %1" [/home/paulrr2/Projects/ece527/babelsoc/fpga-network-stack/hls/dhcp_client/dhcp_client.cpp:46]   --->   Operation 11 'br' <Predicate = (icmp_ln879)> <Delay = 0.00>
ST_1 : Operation 12 [1/1] (0.00ns)   --->   "%tmp = call i1 @_ssdm_op_NbWriteReq.axis.i16P(i16* %openPort_V_V, i32 1)" [/home/paulrr2/Projects/ece527/babelsoc/fpga-network-stack/hls/dhcp_client/dhcp_client.cpp:46]   --->   Operation 12 'nbwritereq' 'tmp' <Predicate = (icmp_ln879 & !or_ln46)> <Delay = 0.00> <Core = "AXI4Stream">   --->   Core 5 'AXI4Stream' <Latency = 0> <II = 1> <Delay = 1.00> <Adapter> <Opcode : >
ST_1 : Operation 13 [1/1] (0.00ns)   --->   "br i1 %tmp, label %2, label %._crit_edge1.i" [/home/paulrr2/Projects/ece527/babelsoc/fpga-network-stack/hls/dhcp_client/dhcp_client.cpp:46]   --->   Operation 13 'br' <Predicate = (icmp_ln879 & !or_ln46)> <Delay = 0.00>
ST_1 : Operation 14 [1/1] (0.00ns)   --->   "call void @_ssdm_op_Write.axis.volatile.i16P(i16* %openPort_V_V, i16 68)" [/home/paulrr2/Projects/ece527/babelsoc/fpga-network-stack/hls/dhcp_client/dhcp_client.cpp:47]   --->   Operation 14 'write' <Predicate = (icmp_ln879 & !or_ln46 & tmp)> <Delay = 0.00> <Core = "AXI4Stream">   --->   Core 5 'AXI4Stream' <Latency = 0> <II = 1> <Delay = 1.00> <Adapter> <Opcode : >
ST_1 : Operation 15 [1/1] (0.00ns)   --->   "store i1 true, i1* @odp_waitListenStatus, align 1" [/home/paulrr2/Projects/ece527/babelsoc/fpga-network-stack/hls/dhcp_client/dhcp_client.cpp:48]   --->   Operation 15 'store' <Predicate = (icmp_ln879 & !or_ln46 & tmp)> <Delay = 0.00>
ST_1 : Operation 16 [1/1] (0.00ns)   --->   "%tmp_2 = call i1 @_ssdm_op_NbReadReq.axis.i8P(i8* %confirmPortStatus_V, i32 1)" [/home/paulrr2/Projects/ece527/babelsoc/fpga-network-stack/hls/dhcp_client/dhcp_client.cpp:50]   --->   Operation 16 'nbreadreq' 'tmp_2' <Predicate = (icmp_ln879 & !tmp) | (icmp_ln879 & or_ln46)> <Delay = 0.00> <Core = "AXI4Stream">   --->   Core 5 'AXI4Stream' <Latency = 0> <II = 1> <Delay = 1.00> <Adapter> <Opcode : >
ST_1 : Operation 17 [1/1] (0.97ns)   --->   "%and_ln50 = and i1 %odp_waitListenStatus_1, %tmp_2" [/home/paulrr2/Projects/ece527/babelsoc/fpga-network-stack/hls/dhcp_client/dhcp_client.cpp:50]   --->   Operation 17 'and' 'and_ln50' <Predicate = (icmp_ln879 & !tmp) | (icmp_ln879 & or_ln46)> <Delay = 0.97> <Core = "LogicGate">   --->   Core 27 'LogicGate' <Latency = 0> <II = 1> <Delay = 0.97> <FuncUnit> <Opcode : 'and' 'or' 'xor'> <InPorts = 2> <OutPorts = 1>
ST_1 : Operation 18 [1/1] (0.00ns)   --->   "br i1 %and_ln50, label %3, label %._crit_edge4.i" [/home/paulrr2/Projects/ece527/babelsoc/fpga-network-stack/hls/dhcp_client/dhcp_client.cpp:50]   --->   Operation 18 'br' <Predicate = (icmp_ln879 & !tmp) | (icmp_ln879 & or_ln46)> <Delay = 0.00>
ST_1 : Operation 19 [1/1] (0.00ns)   --->   "%confirmPortStatus_V_s = call i8 @_ssdm_op_Read.axis.volatile.i8P(i8* %confirmPortStatus_V)" [/home/paulrr2/Projects/ece527/babelsoc/fpga-network-stack/hls/dhcp_client/dhcp_client.cpp:51]   --->   Operation 19 'read' 'confirmPortStatus_V_s' <Predicate = (icmp_ln879 & !tmp & and_ln50) | (icmp_ln879 & or_ln46 & and_ln50)> <Delay = 0.00> <Core = "AXI4Stream">   --->   Core 5 'AXI4Stream' <Latency = 0> <II = 1> <Delay = 1.00> <Adapter> <Opcode : >
ST_1 : Operation 20 [1/1] (0.00ns)   --->   "%tmp_3 = trunc i8 %confirmPortStatus_V_s to i1" [/home/paulrr2/Projects/ece527/babelsoc/fpga-network-stack/hls/dhcp_client/dhcp_client.cpp:51]   --->   Operation 20 'trunc' 'tmp_3' <Predicate = (icmp_ln879 & !tmp & and_ln50) | (icmp_ln879 & or_ln46 & and_ln50)> <Delay = 0.00>
ST_1 : Operation 21 [1/1] (0.00ns)   --->   "store i1 %tmp_3, i1* @odp_listenDone, align 1" [/home/paulrr2/Projects/ece527/babelsoc/fpga-network-stack/hls/dhcp_client/dhcp_client.cpp:51]   --->   Operation 21 'store' <Predicate = (icmp_ln879 & !tmp & and_ln50) | (icmp_ln879 & or_ln46 & and_ln50)> <Delay = 0.00>

State 2 <SV = 1> <Delay = 2.80>
ST_2 : Operation 22 [1/1] (0.00ns)   --->   "call void (...)* @_ssdm_op_SpecInterface(i1* @portOpen_V_V, [8 x i8]* @ap_fifo_str, i32 0, i32 0, [1 x i8]* @p_str, i32 0, i32 0, [1 x i8]* @p_str, [1 x i8]* @p_str, [1 x i8]* @p_str, i32 2, i32 2, i32 16, i32 16, [1 x i8]* @p_str, [1 x i8]* @p_str)"   --->   Operation 22 'specinterface' <Predicate = true> <Delay = 0.00>
ST_2 : Operation 23 [1/1] (0.00ns)   --->   "call void (...)* @_ssdm_op_SpecInterface(i8* %confirmPortStatus_V, [5 x i8]* @p_str6, i32 1, i32 1, [5 x i8]* @p_str7, i32 0, i32 0, [1 x i8]* @p_str, [1 x i8]* @p_str, [1 x i8]* @p_str, i32 0, i32 0, i32 0, i32 0, [24 x i8]* @p_str9, [1 x i8]* @p_str)"   --->   Operation 23 'specinterface' <Predicate = true> <Delay = 0.00>
ST_2 : Operation 24 [1/1] (0.00ns)   --->   "call void (...)* @_ssdm_op_SpecInterface(i16* %openPort_V_V, [5 x i8]* @p_str6, i32 1, i32 1, [5 x i8]* @p_str7, i32 0, i32 0, [1 x i8]* @p_str, [1 x i8]* @p_str, [1 x i8]* @p_str, i32 0, i32 0, i32 0, i32 0, [17 x i8]* @p_str8, [1 x i8]* @p_str) nounwind"   --->   Operation 24 'specinterface' <Predicate = true> <Delay = 0.00>
ST_2 : Operation 25 [1/1] (0.00ns)   --->   "call void (...)* @_ssdm_op_SpecPipeline(i32 1, i32 1, i32 1, i32 0, [1 x i8]* @p_str) nounwind" [/home/paulrr2/Projects/ece527/babelsoc/fpga-network-stack/hls/dhcp_client/dhcp_client.cpp:38]   --->   Operation 25 'specpipeline' <Predicate = true> <Delay = 0.00>
ST_2 : Operation 26 [1/1] (0.00ns)   --->   "br label %open_dhcp_port.exit"   --->   Operation 26 'br' <Predicate = (!icmp_ln879)> <Delay = 0.00>
ST_2 : Operation 27 [1/1] (0.00ns)   --->   "br label %4" [/home/paulrr2/Projects/ece527/babelsoc/fpga-network-stack/hls/dhcp_client/dhcp_client.cpp:49]   --->   Operation 27 'br' <Predicate = (icmp_ln879 & !or_ln46 & tmp)> <Delay = 0.00>
ST_2 : Operation 28 [1/1] (2.80ns)   --->   "call void @_ssdm_op_Write.ap_fifo.volatile.i1P(i1* @portOpen_V_V, i1 true)" [/home/paulrr2/Projects/ece527/babelsoc/fpga-network-stack/hls/dhcp_client/dhcp_client.cpp:52]   --->   Operation 28 'write' <Predicate = (icmp_ln879 & !tmp & and_ln50) | (icmp_ln879 & or_ln46 & and_ln50)> <Delay = 2.80> <Core = "FIFO">   --->   Core 32 'FIFO' <Latency = 0> <II = 1> <Delay = 3.63> <Storage> <Opcode : 'read' 'write' 'nbread' 'nbwrite'> <Ports = 0> <Width = 1> <Depth = 2> <FIFO>
ST_2 : Operation 29 [1/1] (0.00ns)   --->   "br label %._crit_edge4.i" [/home/paulrr2/Projects/ece527/babelsoc/fpga-network-stack/hls/dhcp_client/dhcp_client.cpp:53]   --->   Operation 29 'br' <Predicate = (icmp_ln879 & !tmp & and_ln50) | (icmp_ln879 & or_ln46 & and_ln50)> <Delay = 0.00>
ST_2 : Operation 30 [1/1] (0.00ns)   --->   "br label %4"   --->   Operation 30 'br' <Predicate = (icmp_ln879 & !tmp) | (icmp_ln879 & or_ln46)> <Delay = 0.00>
ST_2 : Operation 31 [1/1] (0.00ns)   --->   "br label %open_dhcp_port.exit" [/home/paulrr2/Projects/ece527/babelsoc/fpga-network-stack/hls/dhcp_client/dhcp_client.cpp:54]   --->   Operation 31 'br' <Predicate = (icmp_ln879)> <Delay = 0.00>
ST_2 : Operation 32 [1/1] (0.00ns)   --->   "ret void"   --->   Operation 32 'ret' <Predicate = true> <Delay = 0.00>


============================================================
+ Verbose Summary: Timing violations
============================================================
Target clock period: 6.4ns, clock uncertainty: 0.8ns.

 <State 1>: 2.55ns
The critical path consists of the following:
	'load' operation ('t.V', /home/paulrr2/Projects/ece527/babelsoc/fpga-network-stack/hls/dhcp_client/dhcp_client.cpp:45) on static variable 'openPortWaitTime_V' [13]  (0 ns)
	'add' operation ('add_ln701', /home/paulrr2/Projects/ece527/babelsoc/fpga-network-stack/hls/dhcp_client/dhcp_client.cpp:56) [17]  (2.55 ns)

 <State 2>: 2.8ns
The critical path consists of the following:
	fifo write on port 'portOpen_V_V' (/home/paulrr2/Projects/ece527/babelsoc/fpga-network-stack/hls/dhcp_client/dhcp_client.cpp:52) [40]  (2.8 ns)


============================================================
+ Verbose Summary: Binding
============================================================
N/A
* FSMD analyzer results:
  - Output states:
 - Input state : 
  - Chain level:
	State 1
	State 2


============================================================
+ Verbose Summary: Datapath Resource usage 
============================================================
N/A
