

================================================================
== Vivado HLS Report for 'arp_server_subnet_top'
================================================================
* Date:           Fri Dec 18 10:34:49 2020

* Version:        2019.1 (Build 2552052 on Fri May 24 15:28:33 MDT 2019)
* Project:        arp_server_subnet_prj
* Solution:       solution1
* Product family: zynq
* Target device:  xc7z020-clg400-1


================================================================
== Performance Estimates
================================================================
+ Timing (ns): 
    * Summary: 
    +--------+-------+----------+------------+
    |  Clock | Target| Estimated| Uncertainty|
    +--------+-------+----------+------------+
    |ap_clk  |   6.40|    11.144|        0.80|
    +--------+-------+----------+------------+

+ Latency (clock cycles): 
    * Summary: 
    +-----+-----+-----+-----+----------+
    |  Latency  |  Interval | Pipeline |
    | min | max | min | max |   Type   |
    +-----+-----+-----+-----+----------+
    |    7|    7|    1|    1| dataflow |
    +-----+-----+-----+-----+----------+

    + Detail: 
        * Instance: 
        N/A

        * Loop: 
        N/A

============================================================
+ Verbose Summary: Synthesis Manager
============================================================
InlineROM: 1
ExposeGlobal: 0
============================================================
+ Verbose Summary: CDFG Model
============================================================
IsTopModel: 1
ResetActiveHigh: 1
IsCombinational: 2
IsDatapathOnly: 0
HasWiredReturn: 1
HasMFsm: 0
HasVarLatency: 1
IsPipeline: 0
IsRtlPipelined: 0
IsInstanceOverlapped: 0
IsDontTouch: 0
HasImplIP: 0
IsGatedGlobalClock: 0


============================================================
+ Verbose Summary: Schedule
============================================================
* Number of FSM states : 14
* Pipeline : 0
* Dataflow Pipeline: 1
  DF-Pipeline-0: Size = 14, States = { 1 2 3 4 5 6 7 8 9 10 11 12 13 14 }

* FSM state transitions: 
1 --> 2 
2 --> 3 
3 --> 4 
4 --> 5 
5 --> 6 
6 --> 7 
7 --> 8 
8 --> 9 
9 --> 10 
10 --> 11 
11 --> 12 
12 --> 13 
13 --> 14 
14 --> 

* FSM state operations: 

State 1 <SV = 0> <Delay = 1.00>
ST_1 : Operation 15 [2/2] (1.00ns)   --->   "%myIpAddress_V_read = call i32 @_ssdm_op_Read.s_axilite.i32(i32 %myIpAddress_V)" [/home/paulrr2/Projects/ece527/babelsoc/fpga-network-stack/hls/arp_server_subnet/arp_server_subnet.cpp:240->/home/paulrr2/Projects/ece527/babelsoc/fpga-network-stack/hls/arp_server_subnet/arp_server_subnet.cpp:286]   --->   Operation 15 'read' 'myIpAddress_V_read' <Predicate = true> <Delay = 1.00> <Core = "s_axilite">   --->   Core 10 's_axilite' <Latency = 0> <II = 1> <Delay = 1.00> <Adapter> <Opcode : 'read' 'write'>
ST_1 : Operation 16 [2/2] (1.00ns)   --->   "%myMacAddress_V_read = call i48 @_ssdm_op_Read.s_axilite.i48(i48 %myMacAddress_V)" [/home/paulrr2/Projects/ece527/babelsoc/fpga-network-stack/hls/arp_server_subnet/arp_server_subnet.cpp:240->/home/paulrr2/Projects/ece527/babelsoc/fpga-network-stack/hls/arp_server_subnet/arp_server_subnet.cpp:286]   --->   Operation 16 'read' 'myMacAddress_V_read' <Predicate = true> <Delay = 1.00> <Core = "s_axilite">   --->   Core 10 's_axilite' <Latency = 0> <II = 1> <Delay = 1.00> <Adapter> <Opcode : 'read' 'write'>
ST_1 : Operation 17 [1/1] (0.00ns)   --->   "%myIpAddress_V_c2 = alloca i32, align 4" [/home/paulrr2/Projects/ece527/babelsoc/fpga-network-stack/hls/arp_server_subnet/arp_server_subnet.cpp:240->/home/paulrr2/Projects/ece527/babelsoc/fpga-network-stack/hls/arp_server_subnet/arp_server_subnet.cpp:286]   --->   Operation 17 'alloca' 'myIpAddress_V_c2' <Predicate = true> <Delay = 0.00> <Core = "FIFO">   --->   Core 32 'FIFO' <Latency = 0> <II = 1> <Delay = 3.63> <Storage> <Opcode : 'read' 'write' 'nbread' 'nbwrite'> <Ports = 0> <Width = 81> <Depth = 2> <FIFO>
ST_1 : Operation 18 [1/1] (0.00ns)   --->   "%myMacAddress_V_c1 = alloca i48, align 8" [/home/paulrr2/Projects/ece527/babelsoc/fpga-network-stack/hls/arp_server_subnet/arp_server_subnet.cpp:240->/home/paulrr2/Projects/ece527/babelsoc/fpga-network-stack/hls/arp_server_subnet/arp_server_subnet.cpp:286]   --->   Operation 18 'alloca' 'myMacAddress_V_c1' <Predicate = true> <Delay = 0.00> <Core = "FIFO">   --->   Core 32 'FIFO' <Latency = 0> <II = 1> <Delay = 3.63> <Storage> <Opcode : 'read' 'write' 'nbread' 'nbwrite'> <Ports = 0> <Width = 81> <Depth = 2> <FIFO>
ST_1 : Operation 19 [1/1] (0.00ns)   --->   "%myMacAddress_V_c = alloca i48, align 8" [/home/paulrr2/Projects/ece527/babelsoc/fpga-network-stack/hls/arp_server_subnet/arp_server_subnet.cpp:240->/home/paulrr2/Projects/ece527/babelsoc/fpga-network-stack/hls/arp_server_subnet/arp_server_subnet.cpp:286]   --->   Operation 19 'alloca' 'myMacAddress_V_c' <Predicate = true> <Delay = 0.00> <Core = "FIFO">   --->   Core 32 'FIFO' <Latency = 0> <II = 1> <Delay = 3.63> <Storage> <Opcode : 'read' 'write' 'nbread' 'nbwrite'> <Ports = 0> <Width = 81> <Depth = 2> <FIFO>
ST_1 : Operation 20 [1/1] (0.00ns)   --->   "%myIpAddress_V_c = alloca i32, align 4" [/home/paulrr2/Projects/ece527/babelsoc/fpga-network-stack/hls/arp_server_subnet/arp_server_subnet.cpp:240->/home/paulrr2/Projects/ece527/babelsoc/fpga-network-stack/hls/arp_server_subnet/arp_server_subnet.cpp:286]   --->   Operation 20 'alloca' 'myIpAddress_V_c' <Predicate = true> <Delay = 0.00> <Core = "FIFO">   --->   Core 32 'FIFO' <Latency = 0> <II = 1> <Delay = 3.63> <Storage> <Opcode : 'read' 'write' 'nbread' 'nbwrite'> <Ports = 0> <Width = 81> <Depth = 2> <FIFO>

State 2 <SV = 1> <Delay = 3.80>
ST_2 : Operation 21 [1/2] (1.00ns)   --->   "%myIpAddress_V_read = call i32 @_ssdm_op_Read.s_axilite.i32(i32 %myIpAddress_V)" [/home/paulrr2/Projects/ece527/babelsoc/fpga-network-stack/hls/arp_server_subnet/arp_server_subnet.cpp:240->/home/paulrr2/Projects/ece527/babelsoc/fpga-network-stack/hls/arp_server_subnet/arp_server_subnet.cpp:286]   --->   Operation 21 'read' 'myIpAddress_V_read' <Predicate = true> <Delay = 1.00> <Core = "s_axilite">   --->   Core 10 's_axilite' <Latency = 0> <II = 1> <Delay = 1.00> <Adapter> <Opcode : 'read' 'write'>
ST_2 : Operation 22 [1/2] (1.00ns)   --->   "%myMacAddress_V_read = call i48 @_ssdm_op_Read.s_axilite.i48(i48 %myMacAddress_V)" [/home/paulrr2/Projects/ece527/babelsoc/fpga-network-stack/hls/arp_server_subnet/arp_server_subnet.cpp:240->/home/paulrr2/Projects/ece527/babelsoc/fpga-network-stack/hls/arp_server_subnet/arp_server_subnet.cpp:286]   --->   Operation 22 'read' 'myMacAddress_V_read' <Predicate = true> <Delay = 1.00> <Core = "s_axilite">   --->   Core 10 's_axilite' <Latency = 0> <II = 1> <Delay = 1.00> <Adapter> <Opcode : 'read' 'write'>
ST_2 : Operation 23 [1/1] (2.80ns)   --->   "call void @arp_server_subnet_to.1(i48 %myMacAddress_V_read, i32 %myIpAddress_V_read, i48* %myMacAddress_V_c1, i32* %myIpAddress_V_c2)" [/home/paulrr2/Projects/ece527/babelsoc/fpga-network-stack/hls/arp_server_subnet/arp_server_subnet.cpp:240->/home/paulrr2/Projects/ece527/babelsoc/fpga-network-stack/hls/arp_server_subnet/arp_server_subnet.cpp:286]   --->   Operation 23 'call' <Predicate = true> <Delay = 2.80> <CoreType = "Generic">   --->   Core 0 '' <Latency = 0> <II = 1> <Delay = 1.00> <Generic> <Opcode : >

State 3 <SV = 2> <Delay = 1.76>
ST_3 : Operation 24 [4/4] (1.76ns)   --->   "call fastcc void @process_arp_pkg200(i64* %s_axis_V_data_V, i8* %s_axis_V_keep_V, i1* %s_axis_V_last_V, i32* nocapture %myIpAddress_V_c2, i16* nocapture %regRequestCount_V, i16* nocapture %regReplyCount_V, i48* nocapture %myMacAddress_V_c1, i32* %myIpAddress_V_c, i48* %myMacAddress_V_c) noinline" [/home/paulrr2/Projects/ece527/babelsoc/fpga-network-stack/hls/arp_server_subnet/arp_server_subnet.cpp:240->/home/paulrr2/Projects/ece527/babelsoc/fpga-network-stack/hls/arp_server_subnet/arp_server_subnet.cpp:286]   --->   Operation 24 'call' <Predicate = true> <Delay = 1.76> <CoreType = "Generic">   --->   Core 0 '' <Latency = 0> <II = 1> <Delay = 1.00> <Generic> <Opcode : >

State 4 <SV = 3> <Delay = 0.00>
ST_4 : Operation 25 [3/4] (0.00ns)   --->   "call fastcc void @process_arp_pkg200(i64* %s_axis_V_data_V, i8* %s_axis_V_keep_V, i1* %s_axis_V_last_V, i32* nocapture %myIpAddress_V_c2, i16* nocapture %regRequestCount_V, i16* nocapture %regReplyCount_V, i48* nocapture %myMacAddress_V_c1, i32* %myIpAddress_V_c, i48* %myMacAddress_V_c) noinline" [/home/paulrr2/Projects/ece527/babelsoc/fpga-network-stack/hls/arp_server_subnet/arp_server_subnet.cpp:240->/home/paulrr2/Projects/ece527/babelsoc/fpga-network-stack/hls/arp_server_subnet/arp_server_subnet.cpp:286]   --->   Operation 25 'call' <Predicate = true> <Delay = 0.00> <CoreType = "Generic">   --->   Core 0 '' <Latency = 0> <II = 1> <Delay = 1.00> <Generic> <Opcode : >

State 5 <SV = 4> <Delay = 0.00>
ST_5 : Operation 26 [2/4] (0.00ns)   --->   "call fastcc void @process_arp_pkg200(i64* %s_axis_V_data_V, i8* %s_axis_V_keep_V, i1* %s_axis_V_last_V, i32* nocapture %myIpAddress_V_c2, i16* nocapture %regRequestCount_V, i16* nocapture %regReplyCount_V, i48* nocapture %myMacAddress_V_c1, i32* %myIpAddress_V_c, i48* %myMacAddress_V_c) noinline" [/home/paulrr2/Projects/ece527/babelsoc/fpga-network-stack/hls/arp_server_subnet/arp_server_subnet.cpp:240->/home/paulrr2/Projects/ece527/babelsoc/fpga-network-stack/hls/arp_server_subnet/arp_server_subnet.cpp:286]   --->   Operation 26 'call' <Predicate = true> <Delay = 0.00> <CoreType = "Generic">   --->   Core 0 '' <Latency = 0> <II = 1> <Delay = 1.00> <Generic> <Opcode : >

State 6 <SV = 5> <Delay = 2.07>
ST_6 : Operation 27 [1/4] (2.07ns)   --->   "call fastcc void @process_arp_pkg200(i64* %s_axis_V_data_V, i8* %s_axis_V_keep_V, i1* %s_axis_V_last_V, i32* nocapture %myIpAddress_V_c2, i16* nocapture %regRequestCount_V, i16* nocapture %regReplyCount_V, i48* nocapture %myMacAddress_V_c1, i32* %myIpAddress_V_c, i48* %myMacAddress_V_c) noinline" [/home/paulrr2/Projects/ece527/babelsoc/fpga-network-stack/hls/arp_server_subnet/arp_server_subnet.cpp:240->/home/paulrr2/Projects/ece527/babelsoc/fpga-network-stack/hls/arp_server_subnet/arp_server_subnet.cpp:286]   --->   Operation 27 'call' <Predicate = true> <Delay = 2.07> <CoreType = "Generic">   --->   Core 0 '' <Latency = 0> <II = 1> <Delay = 1.00> <Generic> <Opcode : >

State 7 <SV = 6> <Delay = 0.00>
ST_7 : Operation 28 [3/3] (0.00ns)   --->   "call fastcc void @"generate_arp_pkg<64>"(i64* %m_axis_V_data_V, i8* %m_axis_V_keep_V, i1* %m_axis_V_last_V, i48* nocapture %myMacAddress_V_c, i32* nocapture %myIpAddress_V_c) noinline" [/home/paulrr2/Projects/ece527/babelsoc/fpga-network-stack/hls/arp_server_subnet/arp_server_subnet.cpp:247->/home/paulrr2/Projects/ece527/babelsoc/fpga-network-stack/hls/arp_server_subnet/arp_server_subnet.cpp:286]   --->   Operation 28 'call' <Predicate = true> <Delay = 0.00> <CoreType = "Generic">   --->   Core 0 '' <Latency = 0> <II = 1> <Delay = 1.00> <Generic> <Opcode : >

State 8 <SV = 7> <Delay = 5.60>
ST_8 : Operation 29 [2/3] (5.60ns)   --->   "call fastcc void @"generate_arp_pkg<64>"(i64* %m_axis_V_data_V, i8* %m_axis_V_keep_V, i1* %m_axis_V_last_V, i48* nocapture %myMacAddress_V_c, i32* nocapture %myIpAddress_V_c) noinline" [/home/paulrr2/Projects/ece527/babelsoc/fpga-network-stack/hls/arp_server_subnet/arp_server_subnet.cpp:247->/home/paulrr2/Projects/ece527/babelsoc/fpga-network-stack/hls/arp_server_subnet/arp_server_subnet.cpp:286]   --->   Operation 29 'call' <Predicate = true> <Delay = 5.60> <CoreType = "Generic">   --->   Core 0 '' <Latency = 0> <II = 1> <Delay = 1.00> <Generic> <Opcode : >

State 9 <SV = 8> <Delay = 0.00>
ST_9 : Operation 30 [1/3] (0.00ns)   --->   "call fastcc void @"generate_arp_pkg<64>"(i64* %m_axis_V_data_V, i8* %m_axis_V_keep_V, i1* %m_axis_V_last_V, i48* nocapture %myMacAddress_V_c, i32* nocapture %myIpAddress_V_c) noinline" [/home/paulrr2/Projects/ece527/babelsoc/fpga-network-stack/hls/arp_server_subnet/arp_server_subnet.cpp:247->/home/paulrr2/Projects/ece527/babelsoc/fpga-network-stack/hls/arp_server_subnet/arp_server_subnet.cpp:286]   --->   Operation 30 'call' <Predicate = true> <Delay = 0.00> <CoreType = "Generic">   --->   Core 0 '' <Latency = 0> <II = 1> <Delay = 1.00> <Generic> <Opcode : >

State 10 <SV = 9> <Delay = 0.00>
ST_10 : Operation 31 [4/4] (0.00ns)   --->   "call fastcc void @arp_table(i32* %s_axis_arp_lookup_request_V_V, i32* %s_axis_host_arp_lookup_request_V_V, i56* %m_axis_arp_lookup_reply_V, i56* %m_axis_host_arp_lookup_reply_V)" [/home/paulrr2/Projects/ece527/babelsoc/fpga-network-stack/hls/arp_server_subnet/arp_server_subnet.cpp:253->/home/paulrr2/Projects/ece527/babelsoc/fpga-network-stack/hls/arp_server_subnet/arp_server_subnet.cpp:286]   --->   Operation 31 'call' <Predicate = true> <Delay = 0.00> <CoreType = "Generic">   --->   Core 0 '' <Latency = 0> <II = 1> <Delay = 1.00> <Generic> <Opcode : >

State 11 <SV = 10> <Delay = 0.00>
ST_11 : Operation 32 [3/4] (0.00ns)   --->   "call fastcc void @arp_table(i32* %s_axis_arp_lookup_request_V_V, i32* %s_axis_host_arp_lookup_request_V_V, i56* %m_axis_arp_lookup_reply_V, i56* %m_axis_host_arp_lookup_reply_V)" [/home/paulrr2/Projects/ece527/babelsoc/fpga-network-stack/hls/arp_server_subnet/arp_server_subnet.cpp:253->/home/paulrr2/Projects/ece527/babelsoc/fpga-network-stack/hls/arp_server_subnet/arp_server_subnet.cpp:286]   --->   Operation 32 'call' <Predicate = true> <Delay = 0.00> <CoreType = "Generic">   --->   Core 0 '' <Latency = 0> <II = 1> <Delay = 1.00> <Generic> <Opcode : >

State 12 <SV = 11> <Delay = 0.00>
ST_12 : Operation 33 [2/4] (0.00ns)   --->   "call fastcc void @arp_table(i32* %s_axis_arp_lookup_request_V_V, i32* %s_axis_host_arp_lookup_request_V_V, i56* %m_axis_arp_lookup_reply_V, i56* %m_axis_host_arp_lookup_reply_V)" [/home/paulrr2/Projects/ece527/babelsoc/fpga-network-stack/hls/arp_server_subnet/arp_server_subnet.cpp:253->/home/paulrr2/Projects/ece527/babelsoc/fpga-network-stack/hls/arp_server_subnet/arp_server_subnet.cpp:286]   --->   Operation 33 'call' <Predicate = true> <Delay = 0.00> <CoreType = "Generic">   --->   Core 0 '' <Latency = 0> <II = 1> <Delay = 1.00> <Generic> <Opcode : >

State 13 <SV = 12> <Delay = 0.00>
ST_13 : Operation 34 [1/4] (0.00ns)   --->   "call fastcc void @arp_table(i32* %s_axis_arp_lookup_request_V_V, i32* %s_axis_host_arp_lookup_request_V_V, i56* %m_axis_arp_lookup_reply_V, i56* %m_axis_host_arp_lookup_reply_V)" [/home/paulrr2/Projects/ece527/babelsoc/fpga-network-stack/hls/arp_server_subnet/arp_server_subnet.cpp:253->/home/paulrr2/Projects/ece527/babelsoc/fpga-network-stack/hls/arp_server_subnet/arp_server_subnet.cpp:286]   --->   Operation 34 'call' <Predicate = true> <Delay = 0.00> <CoreType = "Generic">   --->   Core 0 '' <Latency = 0> <II = 1> <Delay = 1.00> <Generic> <Opcode : >

State 14 <SV = 13> <Delay = 0.00>
ST_14 : Operation 35 [1/1] (0.00ns)   --->   "call void (...)* @_ssdm_op_SpecDataflowPipeline(i32 -1, i32 1, [1 x i8]* @p_str) nounwind" [/home/paulrr2/Projects/ece527/babelsoc/fpga-network-stack/hls/arp_server_subnet/arp_server_subnet.cpp:273]   --->   Operation 35 'specdataflowpipeline' <Predicate = true> <Delay = 0.00>
ST_14 : Operation 36 [1/1] (0.00ns)   --->   "%empty = call i32 (...)* @_ssdm_op_SpecChannel([19 x i8]* @arpReplyMetaFifo_OC_s, i32 1, [1 x i8]* @p_str, [1 x i8]* @p_str, i32 4, i32 4, i128* @arpReplyMetaFifo_V, i128* @arpReplyMetaFifo_V)"   --->   Operation 36 'specchannel' 'empty' <Predicate = true> <Delay = 0.00>
ST_14 : Operation 37 [1/1] (0.00ns)   --->   "call void (...)* @_ssdm_op_SpecInterface(i128* @arpReplyMetaFifo_V, [8 x i8]* @ap_fifo_str, i32 0, i32 0, [1 x i8]* @p_str, i32 0, i32 0, [1 x i8]* @p_str, [1 x i8]* @p_str, [1 x i8]* @p_str, i32 2, i32 2, i32 16, i32 16, [1 x i8]* @p_str, [1 x i8]* @p_str)"   --->   Operation 37 'specinterface' <Predicate = true> <Delay = 0.00>
ST_14 : Operation 38 [1/1] (0.00ns)   --->   "%empty_24 = call i32 (...)* @_ssdm_op_SpecChannel([23 x i8]* @arpRequestMetaFifo_O, i32 1, [1 x i8]* @p_str, [1 x i8]* @p_str, i32 4, i32 4, i32* @arpRequestMetaFifo_V, i32* @arpRequestMetaFifo_V)"   --->   Operation 38 'specchannel' 'empty_24' <Predicate = true> <Delay = 0.00>
ST_14 : Operation 39 [1/1] (0.00ns)   --->   "call void (...)* @_ssdm_op_SpecInterface(i32* @arpRequestMetaFifo_V, [8 x i8]* @ap_fifo_str, i32 0, i32 0, [1 x i8]* @p_str, i32 0, i32 0, [1 x i8]* @p_str, [1 x i8]* @p_str, [1 x i8]* @p_str, i32 2, i32 2, i32 16, i32 16, [1 x i8]* @p_str, [1 x i8]* @p_str)"   --->   Operation 39 'specinterface' <Predicate = true> <Delay = 0.00>
ST_14 : Operation 40 [1/1] (0.00ns)   --->   "%empty_25 = call i32 (...)* @_ssdm_op_SpecChannel([21 x i8]* @arpTableInsertFifo_O, i32 1, [1 x i8]* @p_str, [1 x i8]* @p_str, i32 4, i32 4, i81* @arpTableInsertFifo_V, i81* @arpTableInsertFifo_V)"   --->   Operation 40 'specchannel' 'empty_25' <Predicate = true> <Delay = 0.00>
ST_14 : Operation 41 [1/1] (0.00ns)   --->   "call void (...)* @_ssdm_op_SpecInterface(i81* @arpTableInsertFifo_V, [8 x i8]* @ap_fifo_str, i32 0, i32 0, [1 x i8]* @p_str, i32 0, i32 0, [1 x i8]* @p_str, [1 x i8]* @p_str, [1 x i8]* @p_str, i32 2, i32 2, i32 16, i32 16, [1 x i8]* @p_str, [1 x i8]* @p_str)"   --->   Operation 41 'specinterface' <Predicate = true> <Delay = 0.00>
ST_14 : Operation 42 [1/1] (0.00ns)   --->   "call void (...)* @_ssdm_op_SpecBitsMap(i56* %m_axis_host_arp_lookup_reply_V), !map !185"   --->   Operation 42 'specbitsmap' <Predicate = true> <Delay = 0.00>
ST_14 : Operation 43 [1/1] (0.00ns)   --->   "call void (...)* @_ssdm_op_SpecBitsMap(i56* %m_axis_arp_lookup_reply_V), !map !192"   --->   Operation 43 'specbitsmap' <Predicate = true> <Delay = 0.00>
ST_14 : Operation 44 [1/1] (0.00ns)   --->   "call void (...)* @_ssdm_op_SpecBitsMap(i64* %s_axis_V_data_V), !map !199"   --->   Operation 44 'specbitsmap' <Predicate = true> <Delay = 0.00>
ST_14 : Operation 45 [1/1] (0.00ns)   --->   "call void (...)* @_ssdm_op_SpecBitsMap(i8* %s_axis_V_keep_V), !map !203"   --->   Operation 45 'specbitsmap' <Predicate = true> <Delay = 0.00>
ST_14 : Operation 46 [1/1] (0.00ns)   --->   "call void (...)* @_ssdm_op_SpecBitsMap(i1* %s_axis_V_last_V), !map !207"   --->   Operation 46 'specbitsmap' <Predicate = true> <Delay = 0.00>
ST_14 : Operation 47 [1/1] (0.00ns)   --->   "call void (...)* @_ssdm_op_SpecBitsMap(i32* %s_axis_arp_lookup_request_V_V), !map !211"   --->   Operation 47 'specbitsmap' <Predicate = true> <Delay = 0.00>
ST_14 : Operation 48 [1/1] (0.00ns)   --->   "call void (...)* @_ssdm_op_SpecBitsMap(i32* %s_axis_host_arp_lookup_request_V_V), !map !215"   --->   Operation 48 'specbitsmap' <Predicate = true> <Delay = 0.00>
ST_14 : Operation 49 [1/1] (0.00ns)   --->   "call void (...)* @_ssdm_op_SpecBitsMap(i64* %m_axis_V_data_V), !map !219"   --->   Operation 49 'specbitsmap' <Predicate = true> <Delay = 0.00>
ST_14 : Operation 50 [1/1] (0.00ns)   --->   "call void (...)* @_ssdm_op_SpecBitsMap(i8* %m_axis_V_keep_V), !map !223"   --->   Operation 50 'specbitsmap' <Predicate = true> <Delay = 0.00>
ST_14 : Operation 51 [1/1] (0.00ns)   --->   "call void (...)* @_ssdm_op_SpecBitsMap(i1* %m_axis_V_last_V), !map !227"   --->   Operation 51 'specbitsmap' <Predicate = true> <Delay = 0.00>
ST_14 : Operation 52 [1/1] (0.00ns)   --->   "call void (...)* @_ssdm_op_SpecBitsMap(i48 %myMacAddress_V), !map !231"   --->   Operation 52 'specbitsmap' <Predicate = true> <Delay = 0.00>
ST_14 : Operation 53 [1/1] (0.00ns)   --->   "call void (...)* @_ssdm_op_SpecBitsMap(i32 %myIpAddress_V), !map !237"   --->   Operation 53 'specbitsmap' <Predicate = true> <Delay = 0.00>
ST_14 : Operation 54 [1/1] (0.00ns)   --->   "call void (...)* @_ssdm_op_SpecBitsMap(i16* %regRequestCount_V), !map !241"   --->   Operation 54 'specbitsmap' <Predicate = true> <Delay = 0.00>
ST_14 : Operation 55 [1/1] (0.00ns)   --->   "call void (...)* @_ssdm_op_SpecBitsMap(i16* %regReplyCount_V), !map !245"   --->   Operation 55 'specbitsmap' <Predicate = true> <Delay = 0.00>
ST_14 : Operation 56 [1/1] (0.00ns)   --->   "call void (...)* @_ssdm_op_SpecTopModule([22 x i8]* @arp_server_subnet_to) nounwind"   --->   Operation 56 'spectopmodule' <Predicate = true> <Delay = 0.00>
ST_14 : Operation 57 [1/1] (0.00ns)   --->   "call void (...)* @_ssdm_op_SpecInterface(i32 0, [13 x i8]* @p_str3, i32 0, i32 0, [1 x i8]* @p_str, i32 0, i32 0, [1 x i8]* @p_str, [1 x i8]* @p_str, [1 x i8]* @p_str, i32 0, i32 0, i32 0, i32 0, [1 x i8]* @p_str, [1 x i8]* @p_str) nounwind" [/home/paulrr2/Projects/ece527/babelsoc/fpga-network-stack/hls/arp_server_subnet/arp_server_subnet.cpp:272]   --->   Operation 57 'specinterface' <Predicate = true> <Delay = 0.00>
ST_14 : Operation 58 [1/1] (0.00ns)   --->   "call void (...)* @_ssdm_op_SpecInterface(i64* %s_axis_V_data_V, i8* %s_axis_V_keep_V, i1* %s_axis_V_last_V, [5 x i8]* @p_str4, i32 1, i32 1, [5 x i8]* @p_str5, i32 0, i32 0, [1 x i8]* @p_str, [1 x i8]* @p_str, [1 x i8]* @p_str, i32 0, i32 0, i32 0, i32 0, [7 x i8]* @p_str6, [1 x i8]* @p_str) nounwind" [/home/paulrr2/Projects/ece527/babelsoc/fpga-network-stack/hls/arp_server_subnet/arp_server_subnet.cpp:275]   --->   Operation 58 'specinterface' <Predicate = true> <Delay = 0.00>
ST_14 : Operation 59 [1/1] (0.00ns)   --->   "call void (...)* @_ssdm_op_SpecInterface(i64* %m_axis_V_data_V, i8* %m_axis_V_keep_V, i1* %m_axis_V_last_V, [5 x i8]* @p_str4, i32 1, i32 1, [5 x i8]* @p_str5, i32 0, i32 0, [1 x i8]* @p_str, [1 x i8]* @p_str, [1 x i8]* @p_str, i32 0, i32 0, i32 0, i32 0, [7 x i8]* @p_str7, [1 x i8]* @p_str) nounwind" [/home/paulrr2/Projects/ece527/babelsoc/fpga-network-stack/hls/arp_server_subnet/arp_server_subnet.cpp:276]   --->   Operation 59 'specinterface' <Predicate = true> <Delay = 0.00>
ST_14 : Operation 60 [1/1] (0.00ns)   --->   "call void (...)* @_ssdm_op_SpecInterface(i32* %s_axis_arp_lookup_request_V_V, [5 x i8]* @p_str4, i32 1, i32 1, [5 x i8]* @p_str5, i32 0, i32 0, [1 x i8]* @p_str, [1 x i8]* @p_str, [1 x i8]* @p_str, i32 0, i32 0, i32 0, i32 0, [26 x i8]* @p_str8, [1 x i8]* @p_str) nounwind" [/home/paulrr2/Projects/ece527/babelsoc/fpga-network-stack/hls/arp_server_subnet/arp_server_subnet.cpp:277]   --->   Operation 60 'specinterface' <Predicate = true> <Delay = 0.00>
ST_14 : Operation 61 [1/1] (0.00ns)   --->   "call void (...)* @_ssdm_op_SpecInterface(i56* %m_axis_arp_lookup_reply_V, [5 x i8]* @p_str4, i32 1, i32 1, [5 x i8]* @p_str5, i32 0, i32 0, [1 x i8]* @p_str, [1 x i8]* @p_str, [1 x i8]* @p_str, i32 0, i32 0, i32 0, i32 0, [24 x i8]* @p_str9, [1 x i8]* @p_str)" [/home/paulrr2/Projects/ece527/babelsoc/fpga-network-stack/hls/arp_server_subnet/arp_server_subnet.cpp:278]   --->   Operation 61 'specinterface' <Predicate = true> <Delay = 0.00>
ST_14 : Operation 62 [1/1] (0.00ns)   --->   "call void (...)* @_ssdm_op_SpecInterface(i32* %s_axis_host_arp_lookup_request_V_V, [5 x i8]* @p_str4, i32 1, i32 1, [5 x i8]* @p_str5, i32 0, i32 0, [1 x i8]* @p_str, [1 x i8]* @p_str, [1 x i8]* @p_str, i32 0, i32 0, i32 0, i32 0, [31 x i8]* @p_str10, [1 x i8]* @p_str) nounwind" [/home/paulrr2/Projects/ece527/babelsoc/fpga-network-stack/hls/arp_server_subnet/arp_server_subnet.cpp:279]   --->   Operation 62 'specinterface' <Predicate = true> <Delay = 0.00>
ST_14 : Operation 63 [1/1] (0.00ns)   --->   "call void (...)* @_ssdm_op_SpecInterface(i56* %m_axis_host_arp_lookup_reply_V, [5 x i8]* @p_str4, i32 1, i32 1, [5 x i8]* @p_str5, i32 0, i32 0, [1 x i8]* @p_str, [1 x i8]* @p_str, [1 x i8]* @p_str, i32 0, i32 0, i32 0, i32 0, [29 x i8]* @p_str11, [1 x i8]* @p_str)" [/home/paulrr2/Projects/ece527/babelsoc/fpga-network-stack/hls/arp_server_subnet/arp_server_subnet.cpp:280]   --->   Operation 63 'specinterface' <Predicate = true> <Delay = 0.00>
ST_14 : Operation 64 [1/1] (0.00ns)   --->   "call void (...)* @_ssdm_op_SpecInterface(i48 %myMacAddress_V, [10 x i8]* @p_str12, i32 1, i32 1, [1 x i8]* @p_str, i32 0, i32 0, [1 x i8]* @p_str, [1 x i8]* @p_str, [1 x i8]* @p_str, i32 0, i32 0, i32 0, i32 0, [1 x i8]* @p_str, [1 x i8]* @p_str) nounwind" [/home/paulrr2/Projects/ece527/babelsoc/fpga-network-stack/hls/arp_server_subnet/arp_server_subnet.cpp:283]   --->   Operation 64 'specinterface' <Predicate = true> <Delay = 0.00>
ST_14 : Operation 65 [1/1] (0.00ns)   --->   "call void (...)* @_ssdm_op_SpecInterface(i32 %myIpAddress_V, [10 x i8]* @p_str12, i32 1, i32 1, [1 x i8]* @p_str, i32 0, i32 0, [1 x i8]* @p_str, [1 x i8]* @p_str, [1 x i8]* @p_str, i32 0, i32 0, i32 0, i32 0, [1 x i8]* @p_str, [1 x i8]* @p_str) nounwind" [/home/paulrr2/Projects/ece527/babelsoc/fpga-network-stack/hls/arp_server_subnet/arp_server_subnet.cpp:284]   --->   Operation 65 'specinterface' <Predicate = true> <Delay = 0.00>
ST_14 : Operation 66 [1/1] (0.00ns)   --->   "%empty_26 = call i32 (...)* @_ssdm_op_SpecChannel([16 x i8]* @myIpAddress_OC_V_c_s, i32 1, [1 x i8]* @p_str, [1 x i8]* @p_str, i32 2, i32 0, i32* %myIpAddress_V_c, i32* %myIpAddress_V_c)" [/home/paulrr2/Projects/ece527/babelsoc/fpga-network-stack/hls/arp_server_subnet/arp_server_subnet.cpp:240->/home/paulrr2/Projects/ece527/babelsoc/fpga-network-stack/hls/arp_server_subnet/arp_server_subnet.cpp:286]   --->   Operation 66 'specchannel' 'empty_26' <Predicate = true> <Delay = 0.00>
ST_14 : Operation 67 [1/1] (0.00ns)   --->   "call void (...)* @_ssdm_op_SpecInterface(i32* %myIpAddress_V_c, [8 x i8]* @ap_fifo_str, i32 0, i32 0, [1 x i8]* @p_str, i32 0, i32 0, [1 x i8]* @p_str, [1 x i8]* @p_str, [1 x i8]* @p_str, i32 2, i32 2, i32 16, i32 16, [1 x i8]* @p_str, [1 x i8]* @p_str)" [/home/paulrr2/Projects/ece527/babelsoc/fpga-network-stack/hls/arp_server_subnet/arp_server_subnet.cpp:240->/home/paulrr2/Projects/ece527/babelsoc/fpga-network-stack/hls/arp_server_subnet/arp_server_subnet.cpp:286]   --->   Operation 67 'specinterface' <Predicate = true> <Delay = 0.00>
ST_14 : Operation 68 [1/1] (0.00ns)   --->   "%empty_27 = call i32 (...)* @_ssdm_op_SpecChannel([17 x i8]* @myMacAddress_OC_V_c_s, i32 1, [1 x i8]* @p_str, [1 x i8]* @p_str, i32 2, i32 0, i48* %myMacAddress_V_c, i48* %myMacAddress_V_c)" [/home/paulrr2/Projects/ece527/babelsoc/fpga-network-stack/hls/arp_server_subnet/arp_server_subnet.cpp:240->/home/paulrr2/Projects/ece527/babelsoc/fpga-network-stack/hls/arp_server_subnet/arp_server_subnet.cpp:286]   --->   Operation 68 'specchannel' 'empty_27' <Predicate = true> <Delay = 0.00>
ST_14 : Operation 69 [1/1] (0.00ns)   --->   "call void (...)* @_ssdm_op_SpecInterface(i48* %myMacAddress_V_c, [8 x i8]* @ap_fifo_str, i32 0, i32 0, [1 x i8]* @p_str, i32 0, i32 0, [1 x i8]* @p_str, [1 x i8]* @p_str, [1 x i8]* @p_str, i32 2, i32 2, i32 16, i32 16, [1 x i8]* @p_str, [1 x i8]* @p_str)" [/home/paulrr2/Projects/ece527/babelsoc/fpga-network-stack/hls/arp_server_subnet/arp_server_subnet.cpp:240->/home/paulrr2/Projects/ece527/babelsoc/fpga-network-stack/hls/arp_server_subnet/arp_server_subnet.cpp:286]   --->   Operation 69 'specinterface' <Predicate = true> <Delay = 0.00>
ST_14 : Operation 70 [1/1] (0.00ns)   --->   "%empty_28 = call i32 (...)* @_ssdm_op_SpecChannel([18 x i8]* @myMacAddress_OC_V_c1, i32 1, [1 x i8]* @p_str, [1 x i8]* @p_str, i32 2, i32 0, i48* %myMacAddress_V_c1, i48* %myMacAddress_V_c1)" [/home/paulrr2/Projects/ece527/babelsoc/fpga-network-stack/hls/arp_server_subnet/arp_server_subnet.cpp:240->/home/paulrr2/Projects/ece527/babelsoc/fpga-network-stack/hls/arp_server_subnet/arp_server_subnet.cpp:286]   --->   Operation 70 'specchannel' 'empty_28' <Predicate = true> <Delay = 0.00>
ST_14 : Operation 71 [1/1] (0.00ns)   --->   "call void (...)* @_ssdm_op_SpecInterface(i48* %myMacAddress_V_c1, [8 x i8]* @ap_fifo_str, i32 0, i32 0, [1 x i8]* @p_str, i32 0, i32 0, [1 x i8]* @p_str, [1 x i8]* @p_str, [1 x i8]* @p_str, i32 2, i32 2, i32 16, i32 16, [1 x i8]* @p_str, [1 x i8]* @p_str)" [/home/paulrr2/Projects/ece527/babelsoc/fpga-network-stack/hls/arp_server_subnet/arp_server_subnet.cpp:240->/home/paulrr2/Projects/ece527/babelsoc/fpga-network-stack/hls/arp_server_subnet/arp_server_subnet.cpp:286]   --->   Operation 71 'specinterface' <Predicate = true> <Delay = 0.00>
ST_14 : Operation 72 [1/1] (0.00ns)   --->   "%empty_29 = call i32 (...)* @_ssdm_op_SpecChannel([17 x i8]* @myIpAddress_OC_V_c2_s, i32 1, [1 x i8]* @p_str, [1 x i8]* @p_str, i32 2, i32 0, i32* %myIpAddress_V_c2, i32* %myIpAddress_V_c2)" [/home/paulrr2/Projects/ece527/babelsoc/fpga-network-stack/hls/arp_server_subnet/arp_server_subnet.cpp:240->/home/paulrr2/Projects/ece527/babelsoc/fpga-network-stack/hls/arp_server_subnet/arp_server_subnet.cpp:286]   --->   Operation 72 'specchannel' 'empty_29' <Predicate = true> <Delay = 0.00>
ST_14 : Operation 73 [1/1] (0.00ns)   --->   "call void (...)* @_ssdm_op_SpecInterface(i32* %myIpAddress_V_c2, [8 x i8]* @ap_fifo_str, i32 0, i32 0, [1 x i8]* @p_str, i32 0, i32 0, [1 x i8]* @p_str, [1 x i8]* @p_str, [1 x i8]* @p_str, i32 2, i32 2, i32 16, i32 16, [1 x i8]* @p_str, [1 x i8]* @p_str)" [/home/paulrr2/Projects/ece527/babelsoc/fpga-network-stack/hls/arp_server_subnet/arp_server_subnet.cpp:240->/home/paulrr2/Projects/ece527/babelsoc/fpga-network-stack/hls/arp_server_subnet/arp_server_subnet.cpp:286]   --->   Operation 73 'specinterface' <Predicate = true> <Delay = 0.00>
ST_14 : Operation 74 [1/1] (0.00ns)   --->   "ret void" [/home/paulrr2/Projects/ece527/babelsoc/fpga-network-stack/hls/arp_server_subnet/arp_server_subnet.cpp:296]   --->   Operation 74 'ret' <Predicate = true> <Delay = 0.00>


============================================================
+ Verbose Summary: Timing violations
============================================================
Target clock period: 6.4ns, clock uncertainty: 0.8ns.

 <State 1>: 1ns
The critical path consists of the following:
	s_axi read on port 'myIpAddress_V' (/home/paulrr2/Projects/ece527/babelsoc/fpga-network-stack/hls/arp_server_subnet/arp_server_subnet.cpp:240->/home/paulrr2/Projects/ece527/babelsoc/fpga-network-stack/hls/arp_server_subnet/arp_server_subnet.cpp:286) [30]  (1 ns)

 <State 2>: 3.8ns
The critical path consists of the following:
	s_axi read on port 'myIpAddress_V' (/home/paulrr2/Projects/ece527/babelsoc/fpga-network-stack/hls/arp_server_subnet/arp_server_subnet.cpp:240->/home/paulrr2/Projects/ece527/babelsoc/fpga-network-stack/hls/arp_server_subnet/arp_server_subnet.cpp:286) [30]  (1 ns)
	'call' operation ('call_ln240', /home/paulrr2/Projects/ece527/babelsoc/fpga-network-stack/hls/arp_server_subnet/arp_server_subnet.cpp:240->/home/paulrr2/Projects/ece527/babelsoc/fpga-network-stack/hls/arp_server_subnet/arp_server_subnet.cpp:286) to 'arp_server_subnet_to.1' [75]  (2.8 ns)

 <State 3>: 1.77ns
The critical path consists of the following:
	'call' operation ('call_ln240', /home/paulrr2/Projects/ece527/babelsoc/fpga-network-stack/hls/arp_server_subnet/arp_server_subnet.cpp:240->/home/paulrr2/Projects/ece527/babelsoc/fpga-network-stack/hls/arp_server_subnet/arp_server_subnet.cpp:286) to 'process_arp_pkg200' [76]  (1.77 ns)

 <State 4>: 0ns
The critical path consists of the following:

 <State 5>: 0ns
The critical path consists of the following:

 <State 6>: 2.08ns
The critical path consists of the following:
	'call' operation ('call_ln240', /home/paulrr2/Projects/ece527/babelsoc/fpga-network-stack/hls/arp_server_subnet/arp_server_subnet.cpp:240->/home/paulrr2/Projects/ece527/babelsoc/fpga-network-stack/hls/arp_server_subnet/arp_server_subnet.cpp:286) to 'process_arp_pkg200' [76]  (2.08 ns)

 <State 7>: 0ns
The critical path consists of the following:

 <State 8>: 5.6ns
The critical path consists of the following:
	'call' operation ('call_ln247', /home/paulrr2/Projects/ece527/babelsoc/fpga-network-stack/hls/arp_server_subnet/arp_server_subnet.cpp:247->/home/paulrr2/Projects/ece527/babelsoc/fpga-network-stack/hls/arp_server_subnet/arp_server_subnet.cpp:286) to 'generate_arp_pkg<64>' [77]  (5.6 ns)

 <State 9>: 0ns
The critical path consists of the following:

 <State 10>: 0ns
The critical path consists of the following:

 <State 11>: 0ns
The critical path consists of the following:

 <State 12>: 0ns
The critical path consists of the following:

 <State 13>: 0ns
The critical path consists of the following:

 <State 14>: 0ns
The critical path consists of the following:


============================================================
+ Verbose Summary: Binding
============================================================
N/A
* FSMD analyzer results:
  - Output states:
 - Input state : 
  - Chain level:
	State 1
	State 2
	State 3
	State 4
	State 5
	State 6
	State 7
	State 8
	State 9
	State 10
	State 11
	State 12
	State 13
	State 14


============================================================
+ Verbose Summary: Datapath Resource usage 
============================================================
N/A
