

================================================================
== Vivado HLS Report for 'ethernet_frame_padding'
================================================================
* Date:           Sat Dec 12 19:20:09 2020

* Version:        2019.2.1 (Build 2724168 on Thu Dec 05 05:19:09 MST 2019)
* Project:        ethernet_frame_padding_prj
* Solution:       solution1
* Product family: zynq
* Target device:  xc7z020-clg400-1


================================================================
== Performance Estimates
================================================================
+ Timing: 
    * Summary: 
    +--------+---------+----------+------------+
    |  Clock |  Target | Estimated| Uncertainty|
    +--------+---------+----------+------------+
    |ap_clk  | 6.40 ns | 5.281 ns |   0.80 ns  |
    +--------+---------+----------+------------+

+ Latency: 
    * Summary: 
    +---------+---------+-----------+-----------+-----+-----+----------+
    |  Latency (cycles) |   Latency (absolute)  |  Interval | Pipeline |
    |   min   |   max   |    min    |    max    | min | max |   Type   |
    +---------+---------+-----------+-----------+-----+-----+----------+
    |        2|        2| 12.800 ns | 12.800 ns |    1|    1| function |
    +---------+---------+-----------+-----------+-----+-----+----------+

    + Detail: 
        * Instance: 
        N/A

        * Loop: 
        N/A

============================================================
+ Verbose Summary: Synthesis Manager
============================================================
InlineROM: 1
ExposeGlobal: 0
============================================================
+ Verbose Summary: CDFG Model
============================================================
IsTopModel: 1
ResetActiveHigh: 1
IsCombinational: 0
IsDatapathOnly: 0
HasWiredReturn: 1
HasMFsm: 2
HasVarLatency: 0
IsPipeline: 1
IsRtlPipelined: 1
IsInstanceOverlapped: 0
IsDontTouch: 0
HasImplIP: 0
IsGatedGlobalClock: 0

+ Individual pipeline summary: 
  * Pipeline-0: initiation interval (II) = 1, depth = 3


============================================================
+ Verbose Summary: Schedule
============================================================
* Number of FSM states : 3
* Pipeline : 1
  Pipeline-0 : II = 1, D = 3, States = { 1 2 3 }
* Dataflow Pipeline: 0

* FSM state transitions: 
1 --> 2 
2 --> 3 
3 --> 

* FSM state operations: 

State 1 <SV = 0> <Delay = 5.28>
ST_1 : Operation 4 [1/1] (0.00ns)   --->   "%state_V_load = load i1* @state_V, align 1" [/home/paulrr2/Projects/ece527/babelsoc/fpga-network-stack/hls/ethernet_frame_padding/ethernet_frame_padding.cpp:44]   --->   Operation 4 'load' 'state_V_load' <Predicate = true> <Delay = 0.00>
ST_1 : Operation 5 [1/1] (0.00ns)   --->   "%t_V = load i8* @wordCounter_V, align 1" [/home/paulrr2/Projects/ece527/babelsoc/fpga-network-stack/hls/ethernet_frame_padding/ethernet_frame_padding.cpp:54]   --->   Operation 5 'load' 't_V' <Predicate = true> <Delay = 0.00>
ST_1 : Operation 6 [1/1] (0.00ns)   --->   "br i1 %state_V_load, label %6, label %0" [/home/paulrr2/Projects/ece527/babelsoc/fpga-network-stack/hls/ethernet_frame_padding/ethernet_frame_padding.cpp:44]   --->   Operation 6 'br' <Predicate = true> <Delay = 0.00>
ST_1 : Operation 7 [1/1] (0.00ns)   --->   "%tmp = call i1 @_ssdm_op_NbReadReq.axis.i64P.i8P.i1P(i64* %s_axis_V_data_V, i8* %s_axis_V_keep_V, i1* %s_axis_V_last_V, i32 1)" [/home/paulrr2/Projects/ece527/babelsoc/fpga-network-stack/hls/ethernet_frame_padding/ethernet_frame_padding.cpp:47]   --->   Operation 7 'nbreadreq' 'tmp' <Predicate = (!state_V_load)> <Delay = 0.00> <Core = "AXI4Stream">   --->   Core 5 'AXI4Stream' <Latency = 0> <II = 1> <Delay = 1.00> <Adapter> <Opcode : >
ST_1 : Operation 8 [1/1] (1.76ns)   --->   "br i1 %tmp, label %1, label %._crit_edge215" [/home/paulrr2/Projects/ece527/babelsoc/fpga-network-stack/hls/ethernet_frame_padding/ethernet_frame_padding.cpp:47]   --->   Operation 8 'br' <Predicate = (!state_V_load)> <Delay = 1.76>
ST_1 : Operation 9 [1/1] (0.00ns)   --->   "%empty = call { i64, i8, i1 } @_ssdm_op_Read.axis.volatile.i64P.i8P.i1P(i64* %s_axis_V_data_V, i8* %s_axis_V_keep_V, i1* %s_axis_V_last_V)" [/home/paulrr2/Projects/ece527/babelsoc/fpga-network-stack/hls/ethernet_frame_padding/ethernet_frame_padding.cpp:49]   --->   Operation 9 'read' 'empty' <Predicate = (!state_V_load & tmp)> <Delay = 0.00> <Core = "AXI4Stream">   --->   Core 5 'AXI4Stream' <Latency = 0> <II = 1> <Delay = 1.00> <Adapter> <Opcode : >
ST_1 : Operation 10 [1/1] (0.00ns)   --->   "%tmp_data_V = extractvalue { i64, i8, i1 } %empty, 0" [/home/paulrr2/Projects/ece527/babelsoc/fpga-network-stack/hls/ethernet_frame_padding/ethernet_frame_padding.cpp:49]   --->   Operation 10 'extractvalue' 'tmp_data_V' <Predicate = (!state_V_load & tmp)> <Delay = 0.00>
ST_1 : Operation 11 [1/1] (0.00ns)   --->   "%tmp_keep_V_5 = extractvalue { i64, i8, i1 } %empty, 1" [/home/paulrr2/Projects/ece527/babelsoc/fpga-network-stack/hls/ethernet_frame_padding/ethernet_frame_padding.cpp:49]   --->   Operation 11 'extractvalue' 'tmp_keep_V_5' <Predicate = (!state_V_load & tmp)> <Delay = 0.00>
ST_1 : Operation 12 [1/1] (0.00ns)   --->   "%tmp_last_V_4 = extractvalue { i64, i8, i1 } %empty, 2" [/home/paulrr2/Projects/ece527/babelsoc/fpga-network-stack/hls/ethernet_frame_padding/ethernet_frame_padding.cpp:49]   --->   Operation 12 'extractvalue' 'tmp_last_V_4' <Predicate = (!state_V_load & tmp)> <Delay = 0.00>
ST_1 : Operation 13 [1/1] (1.91ns)   --->   "%add_ln700_1 = add i8 %t_V, 1" [/home/paulrr2/Projects/ece527/babelsoc/fpga-network-stack/hls/ethernet_frame_padding/ethernet_frame_padding.cpp:54]   --->   Operation 13 'add' 'add_ln700_1' <Predicate = (!state_V_load & tmp)> <Delay = 1.91> <Core = "AddSub">   --->   Core 14 'AddSub' <Latency = 0> <II = 1> <Delay = 1.91> <FuncUnit> <Opcode : 'add' 'sub'> <InPorts = 2> <OutPorts = 1>
ST_1 : Operation 14 [1/1] (1.81ns)   --->   "br i1 %tmp_last_V_4, label %2, label %._crit_edge217" [/home/paulrr2/Projects/ece527/babelsoc/fpga-network-stack/hls/ethernet_frame_padding/ethernet_frame_padding.cpp:55]   --->   Operation 14 'br' <Predicate = (!state_V_load & tmp)> <Delay = 1.81>
ST_1 : Operation 15 [1/1] (0.00ns)   --->   "%tmp_1 = call i5 @_ssdm_op_PartSelect.i5.i8.i32.i32(i8 %add_ln700_1, i32 3, i32 7)" [/home/paulrr2/Projects/ece527/babelsoc/fpga-network-stack/hls/ethernet_frame_padding/ethernet_frame_padding.cpp:57]   --->   Operation 15 'partselect' 'tmp_1' <Predicate = (!state_V_load & tmp & tmp_last_V_4)> <Delay = 0.00>
ST_1 : Operation 16 [1/1] (1.36ns)   --->   "%icmp_ln887 = icmp eq i5 %tmp_1, 0" [/home/paulrr2/Projects/ece527/babelsoc/fpga-network-stack/hls/ethernet_frame_padding/ethernet_frame_padding.cpp:57]   --->   Operation 16 'icmp' 'icmp_ln887' <Predicate = (!state_V_load & tmp & tmp_last_V_4)> <Delay = 1.36> <Core = "Cmp">   --->   Core 25 'Cmp' <Latency = 0> <II = 1> <Delay = 1.55> <FuncUnit> <Opcode : 'icmp'> <InPorts = 2> <OutPorts = 1>
ST_1 : Operation 17 [1/1] (0.00ns)   --->   "br i1 %icmp_ln887, label %3, label %4" [/home/paulrr2/Projects/ece527/babelsoc/fpga-network-stack/hls/ethernet_frame_padding/ethernet_frame_padding.cpp:57]   --->   Operation 17 'br' <Predicate = (!state_V_load & tmp & tmp_last_V_4)> <Delay = 0.00>
ST_1 : Operation 18 [1/1] (1.55ns)   --->   "%icmp_ln879_1 = icmp eq i8 %add_ln700_1, 8" [/home/paulrr2/Projects/ece527/babelsoc/fpga-network-stack/hls/ethernet_frame_padding/ethernet_frame_padding.cpp:65]   --->   Operation 18 'icmp' 'icmp_ln879_1' <Predicate = (!state_V_load & tmp & tmp_last_V_4 & !icmp_ln887)> <Delay = 1.55> <Core = "Cmp">   --->   Core 25 'Cmp' <Latency = 0> <II = 1> <Delay = 1.55> <FuncUnit> <Opcode : 'icmp'> <InPorts = 2> <OutPorts = 1>
ST_1 : Operation 19 [1/1] (1.81ns)   --->   "br i1 %icmp_ln879_1, label %5, label %._crit_edge217" [/home/paulrr2/Projects/ece527/babelsoc/fpga-network-stack/hls/ethernet_frame_padding/ethernet_frame_padding.cpp:65]   --->   Operation 19 'br' <Predicate = (!state_V_load & tmp & tmp_last_V_4 & !icmp_ln887)> <Delay = 1.81>
ST_1 : Operation 20 [1/1] (1.55ns)   --->   "%icmp_ln887_1 = icmp ult i8 %tmp_keep_V_5, 15" [/home/paulrr2/Projects/ece527/babelsoc/fpga-network-stack/hls/ethernet_frame_padding/ethernet_frame_padding.cpp:65]   --->   Operation 20 'icmp' 'icmp_ln887_1' <Predicate = (!state_V_load & tmp & tmp_last_V_4 & !icmp_ln887 & icmp_ln879_1)> <Delay = 1.55> <Core = "Cmp">   --->   Core 25 'Cmp' <Latency = 0> <II = 1> <Delay = 1.55> <FuncUnit> <Opcode : 'icmp'> <InPorts = 2> <OutPorts = 1>
ST_1 : Operation 21 [1/1] (1.24ns)   --->   "%select_ln65 = select i1 %icmp_ln887_1, i8 15, i8 %tmp_keep_V_5" [/home/paulrr2/Projects/ece527/babelsoc/fpga-network-stack/hls/ethernet_frame_padding/ethernet_frame_padding.cpp:65]   --->   Operation 21 'select' 'select_ln65' <Predicate = (!state_V_load & tmp & tmp_last_V_4 & !icmp_ln887 & icmp_ln879_1)> <Delay = 1.24> <Core = "Sel">   --->   Core 26 'Sel' <Latency = 0> <II = 1> <Delay = 1.24> <FuncUnit> <Opcode : 'select'> <InPorts = 3> <OutPorts = 1>
ST_1 : Operation 22 [1/1] (1.81ns)   --->   "br label %._crit_edge217" [/home/paulrr2/Projects/ece527/babelsoc/fpga-network-stack/hls/ethernet_frame_padding/ethernet_frame_padding.cpp:65]   --->   Operation 22 'br' <Predicate = (!state_V_load & tmp & tmp_last_V_4 & !icmp_ln887 & icmp_ln879_1)> <Delay = 1.81>
ST_1 : Operation 23 [1/1] (1.76ns)   --->   "store i1 true, i1* @state_V, align 1" [/home/paulrr2/Projects/ece527/babelsoc/fpga-network-stack/hls/ethernet_frame_padding/ethernet_frame_padding.cpp:61]   --->   Operation 23 'store' <Predicate = (!state_V_load & tmp & tmp_last_V_4 & icmp_ln887)> <Delay = 1.76>
ST_1 : Operation 24 [1/1] (1.81ns)   --->   "br label %._crit_edge217" [/home/paulrr2/Projects/ece527/babelsoc/fpga-network-stack/hls/ethernet_frame_padding/ethernet_frame_padding.cpp:62]   --->   Operation 24 'br' <Predicate = (!state_V_load & tmp & tmp_last_V_4 & icmp_ln887)> <Delay = 1.81>
ST_1 : Operation 25 [1/1] (1.91ns)   --->   "%add_ln700 = add i8 %t_V, 1" [/home/paulrr2/Projects/ece527/babelsoc/fpga-network-stack/hls/ethernet_frame_padding/ethernet_frame_padding.cpp:79]   --->   Operation 25 'add' 'add_ln700' <Predicate = (state_V_load)> <Delay = 1.91> <Core = "AddSub">   --->   Core 14 'AddSub' <Latency = 0> <II = 1> <Delay = 1.91> <FuncUnit> <Opcode : 'add' 'sub'> <InPorts = 2> <OutPorts = 1>
ST_1 : Operation 26 [1/1] (1.55ns)   --->   "%icmp_ln879 = icmp eq i8 %add_ln700, 8" [/home/paulrr2/Projects/ece527/babelsoc/fpga-network-stack/hls/ethernet_frame_padding/ethernet_frame_padding.cpp:80]   --->   Operation 26 'icmp' 'icmp_ln879' <Predicate = (state_V_load)> <Delay = 1.55> <Core = "Cmp">   --->   Core 25 'Cmp' <Latency = 0> <II = 1> <Delay = 1.55> <FuncUnit> <Opcode : 'icmp'> <InPorts = 2> <OutPorts = 1>
ST_1 : Operation 27 [1/1] (1.76ns)   --->   "br i1 %icmp_ln879, label %7, label %._crit_edge219" [/home/paulrr2/Projects/ece527/babelsoc/fpga-network-stack/hls/ethernet_frame_padding/ethernet_frame_padding.cpp:80]   --->   Operation 27 'br' <Predicate = (state_V_load)> <Delay = 1.76>
ST_1 : Operation 28 [1/1] (1.76ns)   --->   "store i1 false, i1* @state_V, align 1" [/home/paulrr2/Projects/ece527/babelsoc/fpga-network-stack/hls/ethernet_frame_padding/ethernet_frame_padding.cpp:85]   --->   Operation 28 'store' <Predicate = (state_V_load & icmp_ln879)> <Delay = 1.76>
ST_1 : Operation 29 [1/1] (1.76ns)   --->   "br label %._crit_edge219" [/home/paulrr2/Projects/ece527/babelsoc/fpga-network-stack/hls/ethernet_frame_padding/ethernet_frame_padding.cpp:86]   --->   Operation 29 'br' <Predicate = (state_V_load & icmp_ln879)> <Delay = 1.76>

State 2 <SV = 1> <Delay = 1.76>
ST_2 : Operation 30 [1/1] (0.00ns)   --->   "%wordCounter_V_new_0 = phi i8 [ %add_ln700_1, %3 ], [ %add_ln700_1, %1 ], [ 0, %5 ], [ 0, %4 ]" [/home/paulrr2/Projects/ece527/babelsoc/fpga-network-stack/hls/ethernet_frame_padding/ethernet_frame_padding.cpp:54]   --->   Operation 30 'phi' 'wordCounter_V_new_0' <Predicate = (!state_V_load & tmp)> <Delay = 0.00>
ST_2 : Operation 31 [1/1] (0.00ns)   --->   "%tmp_last_V_3 = phi i1 [ false, %3 ], [ %tmp_last_V_4, %1 ], [ true, %5 ], [ true, %4 ]"   --->   Operation 31 'phi' 'tmp_last_V_3' <Predicate = (!state_V_load & tmp)> <Delay = 0.00>
ST_2 : Operation 32 [1/1] (0.00ns)   --->   "%tmp_keep_V_4 = phi i8 [ -1, %3 ], [ %tmp_keep_V_5, %1 ], [ %select_ln65, %5 ], [ %tmp_keep_V_5, %4 ]"   --->   Operation 32 'phi' 'tmp_keep_V_4' <Predicate = (!state_V_load & tmp)> <Delay = 0.00>
ST_2 : Operation 33 [2/2] (0.00ns)   --->   "call void @_ssdm_op_Write.axis.volatile.i64P.i8P.i1P(i64* %m_axis_V_data_V, i8* %m_axis_V_keep_V, i1* %m_axis_V_last_V, i64 %tmp_data_V, i8 %tmp_keep_V_4, i1 %tmp_last_V_3)" [/home/paulrr2/Projects/ece527/babelsoc/fpga-network-stack/hls/ethernet_frame_padding/ethernet_frame_padding.cpp:72]   --->   Operation 33 'write' <Predicate = (!state_V_load & tmp)> <Delay = 0.00> <Core = "AXI4Stream">   --->   Core 5 'AXI4Stream' <Latency = 0> <II = 1> <Delay = 1.00> <Adapter> <Opcode : >
ST_2 : Operation 34 [1/1] (1.76ns)   --->   "br label %._crit_edge215" [/home/paulrr2/Projects/ece527/babelsoc/fpga-network-stack/hls/ethernet_frame_padding/ethernet_frame_padding.cpp:73]   --->   Operation 34 'br' <Predicate = (!state_V_load & tmp)> <Delay = 1.76>
ST_2 : Operation 35 [1/1] (0.00ns)   --->   "%wordCounter_V_new_2 = phi i8 [ 0, %7 ], [ %add_ln700, %6 ]" [/home/paulrr2/Projects/ece527/babelsoc/fpga-network-stack/hls/ethernet_frame_padding/ethernet_frame_padding.cpp:79]   --->   Operation 35 'phi' 'wordCounter_V_new_2' <Predicate = (state_V_load)> <Delay = 0.00>
ST_2 : Operation 36 [1/1] (0.00ns)   --->   "%tmp_last_V = phi i1 [ true, %7 ], [ false, %6 ]"   --->   Operation 36 'phi' 'tmp_last_V' <Predicate = (state_V_load)> <Delay = 0.00>
ST_2 : Operation 37 [1/1] (0.00ns)   --->   "%tmp_keep_V = phi i5 [ 15, %7 ], [ -1, %6 ]"   --->   Operation 37 'phi' 'tmp_keep_V' <Predicate = (state_V_load)> <Delay = 0.00>
ST_2 : Operation 38 [1/1] (0.00ns)   --->   "%tmp_keep_V_1 = sext i5 %tmp_keep_V to i8" [/home/paulrr2/Projects/ece527/babelsoc/fpga-network-stack/hls/ethernet_frame_padding/ethernet_frame_padding.cpp:87]   --->   Operation 38 'sext' 'tmp_keep_V_1' <Predicate = (state_V_load)> <Delay = 0.00>
ST_2 : Operation 39 [2/2] (0.00ns)   --->   "call void @_ssdm_op_Write.axis.volatile.i64P.i8P.i1P(i64* %m_axis_V_data_V, i8* %m_axis_V_keep_V, i1* %m_axis_V_last_V, i64 0, i8 %tmp_keep_V_1, i1 %tmp_last_V)" [/home/paulrr2/Projects/ece527/babelsoc/fpga-network-stack/hls/ethernet_frame_padding/ethernet_frame_padding.cpp:87]   --->   Operation 39 'write' <Predicate = (state_V_load)> <Delay = 0.00> <Core = "AXI4Stream">   --->   Core 5 'AXI4Stream' <Latency = 0> <II = 1> <Delay = 1.00> <Adapter> <Opcode : >
ST_2 : Operation 40 [1/1] (1.76ns)   --->   "br label %._crit_edge215" [/home/paulrr2/Projects/ece527/babelsoc/fpga-network-stack/hls/ethernet_frame_padding/ethernet_frame_padding.cpp:88]   --->   Operation 40 'br' <Predicate = (state_V_load)> <Delay = 1.76>
ST_2 : Operation 41 [1/1] (0.00ns)   --->   "%wordCounter_V_flag_3 = phi i1 [ true, %._crit_edge219 ], [ true, %._crit_edge217 ], [ false, %0 ]"   --->   Operation 41 'phi' 'wordCounter_V_flag_3' <Predicate = true> <Delay = 0.00>
ST_2 : Operation 42 [1/1] (0.00ns)   --->   "%wordCounter_V_new_3 = phi i8 [ %wordCounter_V_new_2, %._crit_edge219 ], [ %wordCounter_V_new_0, %._crit_edge217 ], [ undef, %0 ]" [/home/paulrr2/Projects/ece527/babelsoc/fpga-network-stack/hls/ethernet_frame_padding/ethernet_frame_padding.cpp:79]   --->   Operation 42 'phi' 'wordCounter_V_new_3' <Predicate = true> <Delay = 0.00>
ST_2 : Operation 43 [1/1] (0.00ns)   --->   "br i1 %wordCounter_V_flag_3, label %mergeST, label %._crit_edge215.new"   --->   Operation 43 'br' <Predicate = true> <Delay = 0.00>
ST_2 : Operation 44 [1/1] (0.00ns)   --->   "store i8 %wordCounter_V_new_3, i8* @wordCounter_V, align 1" [/home/paulrr2/Projects/ece527/babelsoc/fpga-network-stack/hls/ethernet_frame_padding/ethernet_frame_padding.cpp:54]   --->   Operation 44 'store' <Predicate = (wordCounter_V_flag_3)> <Delay = 0.00>

State 3 <SV = 2> <Delay = 0.00>
ST_3 : Operation 45 [1/1] (0.00ns)   --->   "call void (...)* @_ssdm_op_SpecBitsMap(i64* %s_axis_V_data_V), !map !54"   --->   Operation 45 'specbitsmap' <Predicate = true> <Delay = 0.00>
ST_3 : Operation 46 [1/1] (0.00ns)   --->   "call void (...)* @_ssdm_op_SpecBitsMap(i8* %s_axis_V_keep_V), !map !58"   --->   Operation 46 'specbitsmap' <Predicate = true> <Delay = 0.00>
ST_3 : Operation 47 [1/1] (0.00ns)   --->   "call void (...)* @_ssdm_op_SpecBitsMap(i1* %s_axis_V_last_V), !map !62"   --->   Operation 47 'specbitsmap' <Predicate = true> <Delay = 0.00>
ST_3 : Operation 48 [1/1] (0.00ns)   --->   "call void (...)* @_ssdm_op_SpecBitsMap(i64* %m_axis_V_data_V), !map !66"   --->   Operation 48 'specbitsmap' <Predicate = true> <Delay = 0.00>
ST_3 : Operation 49 [1/1] (0.00ns)   --->   "call void (...)* @_ssdm_op_SpecBitsMap(i8* %m_axis_V_keep_V), !map !70"   --->   Operation 49 'specbitsmap' <Predicate = true> <Delay = 0.00>
ST_3 : Operation 50 [1/1] (0.00ns)   --->   "call void (...)* @_ssdm_op_SpecBitsMap(i1* %m_axis_V_last_V), !map !74"   --->   Operation 50 'specbitsmap' <Predicate = true> <Delay = 0.00>
ST_3 : Operation 51 [1/1] (0.00ns)   --->   "call void (...)* @_ssdm_op_SpecTopModule([23 x i8]* @ethernet_frame_paddi) nounwind"   --->   Operation 51 'spectopmodule' <Predicate = true> <Delay = 0.00>
ST_3 : Operation 52 [1/1] (0.00ns)   --->   "call void (...)* @_ssdm_op_SpecPipeline(i32 1, i32 1, i32 1, i32 0, [1 x i8]* @p_str) nounwind" [/home/paulrr2/Projects/ece527/babelsoc/fpga-network-stack/hls/ethernet_frame_padding/ethernet_frame_padding.cpp:32]   --->   Operation 52 'specpipeline' <Predicate = true> <Delay = 0.00>
ST_3 : Operation 53 [1/1] (0.00ns)   --->   "call void (...)* @_ssdm_op_SpecInterface(i32 0, [13 x i8]* @p_str1, i32 0, i32 0, [1 x i8]* @p_str, i32 0, i32 0, [1 x i8]* @p_str, [1 x i8]* @p_str, [1 x i8]* @p_str, i32 0, i32 0, i32 0, i32 0, [1 x i8]* @p_str, [1 x i8]* @p_str) nounwind" [/home/paulrr2/Projects/ece527/babelsoc/fpga-network-stack/hls/ethernet_frame_padding/ethernet_frame_padding.cpp:33]   --->   Operation 53 'specinterface' <Predicate = true> <Delay = 0.00>
ST_3 : Operation 54 [1/1] (0.00ns)   --->   "call void (...)* @_ssdm_op_SpecInterface(i64* %s_axis_V_data_V, i8* %s_axis_V_keep_V, i1* %s_axis_V_last_V, [5 x i8]* @p_str2, i32 1, i32 1, [5 x i8]* @p_str3, i32 0, i32 0, [1 x i8]* @p_str, [1 x i8]* @p_str, [1 x i8]* @p_str, i32 0, i32 0, i32 0, i32 0, [7 x i8]* @p_str4, [1 x i8]* @p_str) nounwind" [/home/paulrr2/Projects/ece527/babelsoc/fpga-network-stack/hls/ethernet_frame_padding/ethernet_frame_padding.cpp:35]   --->   Operation 54 'specinterface' <Predicate = true> <Delay = 0.00>
ST_3 : Operation 55 [1/1] (0.00ns)   --->   "call void (...)* @_ssdm_op_SpecInterface(i64* %m_axis_V_data_V, i8* %m_axis_V_keep_V, i1* %m_axis_V_last_V, [5 x i8]* @p_str2, i32 1, i32 1, [5 x i8]* @p_str3, i32 0, i32 0, [1 x i8]* @p_str, [1 x i8]* @p_str, [1 x i8]* @p_str, i32 0, i32 0, i32 0, i32 0, [7 x i8]* @p_str5, [1 x i8]* @p_str) nounwind" [/home/paulrr2/Projects/ece527/babelsoc/fpga-network-stack/hls/ethernet_frame_padding/ethernet_frame_padding.cpp:36]   --->   Operation 55 'specinterface' <Predicate = true> <Delay = 0.00>
ST_3 : Operation 56 [1/2] (0.00ns)   --->   "call void @_ssdm_op_Write.axis.volatile.i64P.i8P.i1P(i64* %m_axis_V_data_V, i8* %m_axis_V_keep_V, i1* %m_axis_V_last_V, i64 %tmp_data_V, i8 %tmp_keep_V_4, i1 %tmp_last_V_3)" [/home/paulrr2/Projects/ece527/babelsoc/fpga-network-stack/hls/ethernet_frame_padding/ethernet_frame_padding.cpp:72]   --->   Operation 56 'write' <Predicate = (!state_V_load & tmp)> <Delay = 0.00> <Core = "AXI4Stream">   --->   Core 5 'AXI4Stream' <Latency = 0> <II = 1> <Delay = 1.00> <Adapter> <Opcode : >
ST_3 : Operation 57 [1/2] (0.00ns)   --->   "call void @_ssdm_op_Write.axis.volatile.i64P.i8P.i1P(i64* %m_axis_V_data_V, i8* %m_axis_V_keep_V, i1* %m_axis_V_last_V, i64 0, i8 %tmp_keep_V_1, i1 %tmp_last_V)" [/home/paulrr2/Projects/ece527/babelsoc/fpga-network-stack/hls/ethernet_frame_padding/ethernet_frame_padding.cpp:87]   --->   Operation 57 'write' <Predicate = (state_V_load)> <Delay = 0.00> <Core = "AXI4Stream">   --->   Core 5 'AXI4Stream' <Latency = 0> <II = 1> <Delay = 1.00> <Adapter> <Opcode : >
ST_3 : Operation 58 [1/1] (0.00ns)   --->   "br label %._crit_edge215.new"   --->   Operation 58 'br' <Predicate = (wordCounter_V_flag_3)> <Delay = 0.00>
ST_3 : Operation 59 [1/1] (0.00ns)   --->   "ret void" [/home/paulrr2/Projects/ece527/babelsoc/fpga-network-stack/hls/ethernet_frame_padding/ethernet_frame_padding.cpp:90]   --->   Operation 59 'ret' <Predicate = true> <Delay = 0.00>


============================================================
+ Verbose Summary: Timing violations
============================================================
Target clock period: 6.4ns, clock uncertainty: 0.8ns.

 <State 1>: 5.28ns
The critical path consists of the following:
	'load' operation ('t.V', /home/paulrr2/Projects/ece527/babelsoc/fpga-network-stack/hls/ethernet_frame_padding/ethernet_frame_padding.cpp:54) on static variable 'wordCounter_V' [23]  (0 ns)
	'add' operation ('add_ln700_1', /home/paulrr2/Projects/ece527/babelsoc/fpga-network-stack/hls/ethernet_frame_padding/ethernet_frame_padding.cpp:54) [33]  (1.92 ns)
	'icmp' operation ('icmp_ln879_1', /home/paulrr2/Projects/ece527/babelsoc/fpga-network-stack/hls/ethernet_frame_padding/ethernet_frame_padding.cpp:65) [40]  (1.55 ns)
	multiplexor before 'phi' operation ('wordCounter_V_new_0', /home/paulrr2/Projects/ece527/babelsoc/fpga-network-stack/hls/ethernet_frame_padding/ethernet_frame_padding.cpp:54) with incoming values : ('add_ln700_1', /home/paulrr2/Projects/ece527/babelsoc/fpga-network-stack/hls/ethernet_frame_padding/ethernet_frame_padding.cpp:54) [50]  (1.81 ns)

 <State 2>: 1.77ns
The critical path consists of the following:
	'phi' operation ('wordCounter_V_new_0', /home/paulrr2/Projects/ece527/babelsoc/fpga-network-stack/hls/ethernet_frame_padding/ethernet_frame_padding.cpp:54) with incoming values : ('add_ln700_1', /home/paulrr2/Projects/ece527/babelsoc/fpga-network-stack/hls/ethernet_frame_padding/ethernet_frame_padding.cpp:54) [50]  (0 ns)
	multiplexor before 'phi' operation ('wordCounter_V_new_3', /home/paulrr2/Projects/ece527/babelsoc/fpga-network-stack/hls/ethernet_frame_padding/ethernet_frame_padding.cpp:79) with incoming values : ('add_ln700_1', /home/paulrr2/Projects/ece527/babelsoc/fpga-network-stack/hls/ethernet_frame_padding/ethernet_frame_padding.cpp:54) ('add_ln700', /home/paulrr2/Projects/ece527/babelsoc/fpga-network-stack/hls/ethernet_frame_padding/ethernet_frame_padding.cpp:79) [71]  (1.77 ns)
	'phi' operation ('wordCounter_V_new_3', /home/paulrr2/Projects/ece527/babelsoc/fpga-network-stack/hls/ethernet_frame_padding/ethernet_frame_padding.cpp:79) with incoming values : ('add_ln700_1', /home/paulrr2/Projects/ece527/babelsoc/fpga-network-stack/hls/ethernet_frame_padding/ethernet_frame_padding.cpp:54) ('add_ln700', /home/paulrr2/Projects/ece527/babelsoc/fpga-network-stack/hls/ethernet_frame_padding/ethernet_frame_padding.cpp:79) [71]  (0 ns)
	'store' operation ('store_ln54', /home/paulrr2/Projects/ece527/babelsoc/fpga-network-stack/hls/ethernet_frame_padding/ethernet_frame_padding.cpp:54) of variable 'wordCounter_V_new_3', /home/paulrr2/Projects/ece527/babelsoc/fpga-network-stack/hls/ethernet_frame_padding/ethernet_frame_padding.cpp:79 on static variable 'wordCounter_V' [74]  (0 ns)

 <State 3>: 0ns
The critical path consists of the following:


============================================================
+ Verbose Summary: Binding
============================================================
N/A
* FSMD analyzer results:
  - Output states:
 - Input state : 
  - Chain level:
	State 1
	State 2
	State 3


============================================================
+ Verbose Summary: Datapath Resource usage 
============================================================
N/A
