

================================================================
== Vivado HLS Report for 'dropper'
================================================================
* Date:           Sat Dec 12 19:20:52 2020

* Version:        2019.2.1 (Build 2724168 on Thu Dec 05 05:19:09 MST 2019)
* Project:        icmp_server_prj
* Solution:       solution1
* Product family: zynq
* Target device:  xc7z020-clg400-1


================================================================
== Performance Estimates
================================================================
+ Timing: 
    * Summary: 
    +--------+---------+----------+------------+
    |  Clock |  Target | Estimated| Uncertainty|
    +--------+---------+----------+------------+
    |ap_clk  | 6.40 ns | 5.600 ns |   0.80 ns  |
    +--------+---------+----------+------------+

+ Latency: 
    * Summary: 
    +---------+---------+----------+----------+-----+-----+---------+
    |  Latency (cycles) |  Latency (absolute) |  Interval | Pipeline|
    |   min   |   max   |    min   |    max   | min | max |   Type  |
    +---------+---------+----------+----------+-----+-----+---------+
    |        0|        0|   0 ns   |   0 ns   |    0|    0|   none  |
    +---------+---------+----------+----------+-----+-----+---------+

    + Detail: 
        * Instance: 
        N/A

        * Loop: 
        N/A



================================================================
== Utilization Estimates
================================================================
* Summary: 
+-----------------+---------+-------+--------+-------+-----+
|       Name      | BRAM_18K| DSP48E|   FF   |  LUT  | URAM|
+-----------------+---------+-------+--------+-------+-----+
|DSP              |        -|      -|       -|      -|    -|
|Expression       |        -|      -|       0|     24|    -|
|FIFO             |        -|      -|       -|      -|    -|
|Instance         |        -|      -|       -|      -|    -|
|Memory           |        -|      -|       -|      -|    -|
|Multiplexer      |        -|      -|       -|     99|    -|
|Register         |        -|      -|       4|      -|    -|
+-----------------+---------+-------+--------+-------+-----+
|Total            |        0|      0|       4|    123|    0|
+-----------------+---------+-------+--------+-------+-----+
|Available        |      280|    220|  106400|  53200|    0|
+-----------------+---------+-------+--------+-------+-----+
|Utilization (%)  |        0|      0|   ~0   |   ~0  |    0|
+-----------------+---------+-------+--------+-------+-----+

+ Detail: 
    * Instance: 
    N/A

    * DSP48E: 
    N/A

    * Memory: 
    N/A

    * FIFO: 
    N/A

    * Expression: 
    +--------------------------------+----------+-------+---+----+------------+------------+
    |          Variable Name         | Operation| DSP48E| FF| LUT| Bitwidth P0| Bitwidth P1|
    +--------------------------------+----------+-------+---+----+------------+------------+
    |ap_condition_112                |    and   |      0|  0|   2|           1|           1|
    |ap_predicate_op12_read_state1   |    and   |      0|  0|   2|           1|           1|
    |ap_predicate_op17_write_state1  |    and   |      0|  0|   2|           1|           1|
    |ap_predicate_op23_read_state1   |    and   |      0|  0|   2|           1|           1|
    |ap_predicate_op29_write_state1  |    and   |      0|  0|   2|           1|           1|
    |io_acc_block_signal_op17        |    and   |      0|  0|   2|           1|           1|
    |tmp_18_nbreadreq_fu_81_p3       |    and   |      0|  0|   2|           1|           0|
    |tmp_nbreadreq_fu_54_p3          |    and   |      0|  0|   2|           1|           0|
    |ap_block_state1                 |    or    |      0|  0|   2|           1|           1|
    |or_ln347_1_fu_199_p2            |    or    |      0|  0|   2|           1|           1|
    |or_ln347_fu_193_p2              |    or    |      0|  0|   2|           1|           1|
    |xor_ln347_fu_205_p2             |    xor   |      0|  0|   2|           1|           2|
    +--------------------------------+----------+-------+---+----+------------+------------+
    |Total                           |          |      0|  0|  24|          12|          11|
    +--------------------------------+----------+-------+---+----+------------+------------+

    * Multiplexer: 
    +-----------------------------------------------+----+-----------+-----+-----------+
    |                      Name                     | LUT| Input Size| Bits| Total Bits|
    +-----------------------------------------------+----+-----------+-----+-----------+
    |ap_done                                        |   9|          2|    1|          2|
    |ap_phi_mux_d_drop_flag_1_i_phi_fu_118_p10      |  15|          3|    1|          3|
    |ap_phi_mux_d_isFirstWord_flag_0_phi_fu_98_p10  |  15|          3|    1|          3|
    |dataStreams_V_data_V_blk_n                     |   9|          2|    1|          2|
    |dataStreams_V_data_V_din                       |  15|          3|   64|        192|
    |dataStreams_V_keep_V_blk_n                     |   9|          2|    1|          2|
    |dataStreams_V_last_V_blk_n                     |   9|          2|    1|          2|
    |packageBuffer1_V_blk_n                         |   9|          2|    1|          2|
    |validFifo_V_blk_n                              |   9|          2|    1|          2|
    +-----------------------------------------------+----+-----------+-----+-----------+
    |Total                                          |  99|         21|   72|        210|
    +-----------------------------------------------+----+-----------+-----+-----------+

    * Register: 
    +---------------+---+----+-----+-----------+
    |      Name     | FF| LUT| Bits| Const Bits|
    +---------------+---+----+-----+-----------+
    |ap_CS_fsm      |  1|   0|    1|          0|
    |ap_done_reg    |  1|   0|    1|          0|
    |d_drop         |  1|   0|    1|          0|
    |d_isFirstWord  |  1|   0|    1|          0|
    +---------------+---+----+-----+-----------+
    |Total          |  4|   0|    4|          0|
    +---------------+---+----+-----+-----------+



================================================================
== Interface
================================================================
* Summary: 
+-----------------------------+-----+-----+------------+----------------------+--------------+
|          RTL Ports          | Dir | Bits|  Protocol  |     Source Object    |    C Type    |
+-----------------------------+-----+-----+------------+----------------------+--------------+
|ap_clk                       |  in |    1| ap_ctrl_hs |        dropper       | return value |
|ap_rst                       |  in |    1| ap_ctrl_hs |        dropper       | return value |
|ap_start                     |  in |    1| ap_ctrl_hs |        dropper       | return value |
|ap_done                      | out |    1| ap_ctrl_hs |        dropper       | return value |
|ap_continue                  |  in |    1| ap_ctrl_hs |        dropper       | return value |
|ap_idle                      | out |    1| ap_ctrl_hs |        dropper       | return value |
|ap_ready                     | out |    1| ap_ctrl_hs |        dropper       | return value |
|packageBuffer1_V_dout        |  in |   73|   ap_fifo  |   packageBuffer1_V   |    pointer   |
|packageBuffer1_V_empty_n     |  in |    1|   ap_fifo  |   packageBuffer1_V   |    pointer   |
|packageBuffer1_V_read        | out |    1|   ap_fifo  |   packageBuffer1_V   |    pointer   |
|validFifo_V_dout             |  in |    1|   ap_fifo  |      validFifo_V     |    pointer   |
|validFifo_V_empty_n          |  in |    1|   ap_fifo  |      validFifo_V     |    pointer   |
|validFifo_V_read             | out |    1|   ap_fifo  |      validFifo_V     |    pointer   |
|dataStreams_V_data_V_din     | out |   64|   ap_fifo  | dataStreams_V_data_V |    pointer   |
|dataStreams_V_data_V_full_n  |  in |    1|   ap_fifo  | dataStreams_V_data_V |    pointer   |
|dataStreams_V_data_V_write   | out |    1|   ap_fifo  | dataStreams_V_data_V |    pointer   |
|dataStreams_V_keep_V_din     | out |    8|   ap_fifo  | dataStreams_V_keep_V |    pointer   |
|dataStreams_V_keep_V_full_n  |  in |    1|   ap_fifo  | dataStreams_V_keep_V |    pointer   |
|dataStreams_V_keep_V_write   | out |    1|   ap_fifo  | dataStreams_V_keep_V |    pointer   |
|dataStreams_V_last_V_din     | out |    1|   ap_fifo  | dataStreams_V_last_V |    pointer   |
|dataStreams_V_last_V_full_n  |  in |    1|   ap_fifo  | dataStreams_V_last_V |    pointer   |
|dataStreams_V_last_V_write   | out |    1|   ap_fifo  | dataStreams_V_last_V |    pointer   |
+-----------------------------+-----+-----+------------+----------------------+--------------+

