

================================================================
== Vivado HLS Report for 'ipv4_top'
================================================================
* Date:           Fri Dec 18 10:44:35 2020

* Version:        2019.1 (Build 2552052 on Fri May 24 15:28:33 MDT 2019)
* Project:        ipv4_prj
* Solution:       solution1
* Product family: zynq
* Target device:  xc7z020-clg400-1


================================================================
== Performance Estimates
================================================================
+ Timing (ns): 
    * Summary: 
    +--------+-------+----------+------------+
    |  Clock | Target| Estimated| Uncertainty|
    +--------+-------+----------+------------+
    |ap_clk  |   6.40|    10.874|        0.80|
    +--------+-------+----------+------------+

+ Latency (clock cycles): 
    * Summary: 
    +-----+-----+-----+-----+----------+
    |  Latency  |  Interval | Pipeline |
    | min | max | min | max |   Type   |
    +-----+-----+-----+-----+----------+
    |    6|    6|    1|    1| dataflow |
    +-----+-----+-----+-----+----------+

    + Detail: 
        * Instance: 
        +-------------------------------------+----------------------+-----+-----+-----+-----+----------+
        |                                     |                      |  Latency  |  Interval | Pipeline |
        |               Instance              |        Module        | min | max | min | max |   Type   |
        +-------------------------------------+----------------------+-----+-----+-----+-----+----------+
        |grp_generate_ipv4_64_s_fu_184        |generate_ipv4_64_s    |    2|    2|    1|    1| function |
        |grp_process_ipv4_64_s_fu_210         |process_ipv4_64_s     |    4|    4|    1|    1| function |
        |grp_drop_optional_ip_hea_fu_240      |drop_optional_ip_hea  |    2|    2|    1|    1| function |
        |grp_lshiftWordByOctet_fu_266         |lshiftWordByOctet     |    1|    1|    1|    1| function |
        |call_ln204_ipv4_top_entry3_fu_290    |ipv4_top_entry3       |    0|    0|    0|    0|   none   |
        |call_ln204_ipv4_top_entry180_fu_300  |ipv4_top_entry180     |    0|    0|    0|    0|   none   |
        +-------------------------------------+----------------------+-----+-----+-----+-----+----------+

        * Loop: 
        N/A

============================================================
+ Verbose Summary: Synthesis Manager
============================================================
InlineROM: 1
ExposeGlobal: 0
============================================================
+ Verbose Summary: CDFG Model
============================================================
IsTopModel: 1
ResetActiveHigh: 1
IsCombinational: 2
IsDatapathOnly: 0
HasWiredReturn: 2
HasMFsm: 0
HasVarLatency: 1
IsPipeline: 0
IsRtlPipelined: 0
IsInstanceOverlapped: 0
IsDontTouch: 0
HasImplIP: 0
IsGatedGlobalClock: 0


============================================================
+ Verbose Summary: Schedule
============================================================
* Number of FSM states : 9
* Pipeline : 0
* Dataflow Pipeline: 1
  DF-Pipeline-0: Size = 9, States = { 1 2 3 4 5 6 7 8 9 }

* FSM state transitions: 
1 --> 2 
2 --> 3 
3 --> 4 
4 --> 5 
5 --> 6 
6 --> 7 
7 --> 8 
8 --> 9 
9 --> 

* FSM state operations: 

State 1 <SV = 0> <Delay = 1.95>
ST_1 : Operation 10 [1/1] (0.00ns)   --->   "%protocol_V_c1 = alloca i8, align 1" [/home/paulrr2/Projects/ece527/babelsoc/fpga-network-stack/hls/ipv4/ipv4.cpp:204]   --->   Operation 10 'alloca' 'protocol_V_c1' <Predicate = true> <Delay = 0.00> <Core = "FIFO">   --->   Core 32 'FIFO' <Latency = 0> <II = 1> <Delay = 3.63> <Storage> <Opcode : 'read' 'write' 'nbread' 'nbwrite'> <Ports = 0> <Width = 64> <Depth = 2> <FIFO>
ST_1 : Operation 11 [1/1] (0.00ns)   --->   "%local_ipv4_address_V_4 = alloca i32, align 4" [/home/paulrr2/Projects/ece527/babelsoc/fpga-network-stack/hls/ipv4/ipv4.cpp:204]   --->   Operation 11 'alloca' 'local_ipv4_address_V_4' <Predicate = true> <Delay = 0.00> <Core = "FIFO">   --->   Core 32 'FIFO' <Latency = 0> <II = 1> <Delay = 3.63> <Storage> <Opcode : 'read' 'write' 'nbread' 'nbwrite'> <Ports = 0> <Width = 64> <Depth = 2> <FIFO>
ST_1 : Operation 12 [1/1] (0.00ns)   --->   "%protocol_V_c = alloca i8, align 1" [/home/paulrr2/Projects/ece527/babelsoc/fpga-network-stack/hls/ipv4/ipv4.cpp:204]   --->   Operation 12 'alloca' 'protocol_V_c' <Predicate = true> <Delay = 0.00> <Core = "FIFO">   --->   Core 32 'FIFO' <Latency = 0> <II = 1> <Delay = 3.63> <Storage> <Opcode : 'read' 'write' 'nbread' 'nbwrite'> <Ports = 0> <Width = 64> <Depth = 2> <FIFO>
ST_1 : Operation 13 [1/1] (0.00ns)   --->   "%local_ipv4_address_V_1 = alloca i32, align 4" [/home/paulrr2/Projects/ece527/babelsoc/fpga-network-stack/hls/ipv4/ipv4.cpp:204]   --->   Operation 13 'alloca' 'local_ipv4_address_V_1' <Predicate = true> <Delay = 0.00> <Core = "FIFO">   --->   Core 32 'FIFO' <Latency = 0> <II = 1> <Delay = 3.63> <Storage> <Opcode : 'read' 'write' 'nbread' 'nbwrite'> <Ports = 0> <Width = 64> <Depth = 2> <FIFO>
ST_1 : Operation 14 [5/5] (1.95ns)   --->   "call fastcc void @"process_ipv4<64>"(i64* %s_axis_rx_data_V_data_V, i8* %s_axis_rx_data_V_keep_V, i1* %s_axis_rx_data_V_last_V, i48* %m_axis_rx_meta_V) noinline" [/home/paulrr2/Projects/ece527/babelsoc/fpga-network-stack/hls/ipv4/ipv4.cpp:184->/home/paulrr2/Projects/ece527/babelsoc/fpga-network-stack/hls/ipv4/ipv4.cpp:218]   --->   Operation 14 'call' <Predicate = true> <Delay = 1.95> <CoreType = "Generic">   --->   Core 0 '' <Latency = 0> <II = 1> <Delay = 1.00> <Generic> <Opcode : >

State 2 <SV = 1> <Delay = 0.00>
ST_2 : Operation 15 [4/5] (0.00ns)   --->   "call fastcc void @"process_ipv4<64>"(i64* %s_axis_rx_data_V_data_V, i8* %s_axis_rx_data_V_keep_V, i1* %s_axis_rx_data_V_last_V, i48* %m_axis_rx_meta_V) noinline" [/home/paulrr2/Projects/ece527/babelsoc/fpga-network-stack/hls/ipv4/ipv4.cpp:184->/home/paulrr2/Projects/ece527/babelsoc/fpga-network-stack/hls/ipv4/ipv4.cpp:218]   --->   Operation 15 'call' <Predicate = true> <Delay = 0.00> <CoreType = "Generic">   --->   Core 0 '' <Latency = 0> <II = 1> <Delay = 1.00> <Generic> <Opcode : >

State 3 <SV = 2> <Delay = 1.00>
ST_3 : Operation 16 [2/2] (1.00ns)   --->   "%protocol_V_read = call i8 @_ssdm_op_Read.s_axilite.i8(i8 %protocol_V)" [/home/paulrr2/Projects/ece527/babelsoc/fpga-network-stack/hls/ipv4/ipv4.cpp:204]   --->   Operation 16 'read' 'protocol_V_read' <Predicate = true> <Delay = 1.00> <Core = "s_axilite">   --->   Core 10 's_axilite' <Latency = 0> <II = 1> <Delay = 1.00> <Adapter> <Opcode : 'read' 'write'>
ST_3 : Operation 17 [2/2] (1.00ns)   --->   "%local_ipv4_address_V_3 = call i32 @_ssdm_op_Read.s_axilite.i32(i32 %local_ipv4_address_V)" [/home/paulrr2/Projects/ece527/babelsoc/fpga-network-stack/hls/ipv4/ipv4.cpp:204]   --->   Operation 17 'read' 'local_ipv4_address_V_3' <Predicate = true> <Delay = 1.00> <Core = "s_axilite">   --->   Core 10 's_axilite' <Latency = 0> <II = 1> <Delay = 1.00> <Adapter> <Opcode : 'read' 'write'>
ST_3 : Operation 18 [3/5] (0.00ns)   --->   "call fastcc void @"process_ipv4<64>"(i64* %s_axis_rx_data_V_data_V, i8* %s_axis_rx_data_V_keep_V, i1* %s_axis_rx_data_V_last_V, i48* %m_axis_rx_meta_V) noinline" [/home/paulrr2/Projects/ece527/babelsoc/fpga-network-stack/hls/ipv4/ipv4.cpp:184->/home/paulrr2/Projects/ece527/babelsoc/fpga-network-stack/hls/ipv4/ipv4.cpp:218]   --->   Operation 18 'call' <Predicate = true> <Delay = 0.00> <CoreType = "Generic">   --->   Core 0 '' <Latency = 0> <II = 1> <Delay = 1.00> <Generic> <Opcode : >

State 4 <SV = 3> <Delay = 4.04>
ST_4 : Operation 19 [1/2] (1.00ns)   --->   "%protocol_V_read = call i8 @_ssdm_op_Read.s_axilite.i8(i8 %protocol_V)" [/home/paulrr2/Projects/ece527/babelsoc/fpga-network-stack/hls/ipv4/ipv4.cpp:204]   --->   Operation 19 'read' 'protocol_V_read' <Predicate = true> <Delay = 1.00> <Core = "s_axilite">   --->   Core 10 's_axilite' <Latency = 0> <II = 1> <Delay = 1.00> <Adapter> <Opcode : 'read' 'write'>
ST_4 : Operation 20 [1/2] (1.00ns)   --->   "%local_ipv4_address_V_3 = call i32 @_ssdm_op_Read.s_axilite.i32(i32 %local_ipv4_address_V)" [/home/paulrr2/Projects/ece527/babelsoc/fpga-network-stack/hls/ipv4/ipv4.cpp:204]   --->   Operation 20 'read' 'local_ipv4_address_V_3' <Predicate = true> <Delay = 1.00> <Core = "s_axilite">   --->   Core 10 's_axilite' <Latency = 0> <II = 1> <Delay = 1.00> <Adapter> <Opcode : 'read' 'write'>
ST_4 : Operation 21 [1/1] (2.80ns)   --->   "call void @ipv4_top.entry3(i32 %local_ipv4_address_V_3, i8 %protocol_V_read, i32* %local_ipv4_address_V_4, i8* %protocol_V_c1)" [/home/paulrr2/Projects/ece527/babelsoc/fpga-network-stack/hls/ipv4/ipv4.cpp:204]   --->   Operation 21 'call' <Predicate = true> <Delay = 2.80> <CoreType = "Generic">   --->   Core 0 '' <Latency = 0> <II = 1> <Delay = 1.00> <Generic> <Opcode : >
ST_4 : Operation 22 [2/5] (0.00ns)   --->   "call fastcc void @"process_ipv4<64>"(i64* %s_axis_rx_data_V_data_V, i8* %s_axis_rx_data_V_keep_V, i1* %s_axis_rx_data_V_last_V, i48* %m_axis_rx_meta_V) noinline" [/home/paulrr2/Projects/ece527/babelsoc/fpga-network-stack/hls/ipv4/ipv4.cpp:184->/home/paulrr2/Projects/ece527/babelsoc/fpga-network-stack/hls/ipv4/ipv4.cpp:218]   --->   Operation 22 'call' <Predicate = true> <Delay = 0.00> <CoreType = "Generic">   --->   Core 0 '' <Latency = 0> <II = 1> <Delay = 1.00> <Generic> <Opcode : >
ST_4 : Operation 23 [2/2] (4.04ns)   --->   "call fastcc void @lshiftWordByOctet(i64* %s_axis_tx_data_V_data_V, i8* %s_axis_tx_data_V_keep_V, i1* %s_axis_tx_data_V_last_V) noinline" [/home/paulrr2/Projects/ece527/babelsoc/fpga-network-stack/hls/ipv4/ipv4.cpp:191->/home/paulrr2/Projects/ece527/babelsoc/fpga-network-stack/hls/ipv4/ipv4.cpp:218]   --->   Operation 23 'call' <Predicate = true> <Delay = 4.04> <CoreType = "Generic">   --->   Core 0 '' <Latency = 0> <II = 1> <Delay = 1.00> <Generic> <Opcode : >

State 5 <SV = 4> <Delay = 0.00>
ST_5 : Operation 24 [1/1] (0.00ns)   --->   "call fastcc void @ipv4_top.entry180(i32* nocapture %local_ipv4_address_V_4, i8* nocapture %protocol_V_c1, i32* %local_ipv4_address_V_1, i8* %protocol_V_c)" [/home/paulrr2/Projects/ece527/babelsoc/fpga-network-stack/hls/ipv4/ipv4.cpp:204]   --->   Operation 24 'call' <Predicate = true> <Delay = 0.00> <CoreType = "Generic">   --->   Core 0 '' <Latency = 0> <II = 1> <Delay = 1.00> <Generic> <Opcode : >
ST_5 : Operation 25 [1/5] (0.00ns)   --->   "call fastcc void @"process_ipv4<64>"(i64* %s_axis_rx_data_V_data_V, i8* %s_axis_rx_data_V_keep_V, i1* %s_axis_rx_data_V_last_V, i48* %m_axis_rx_meta_V) noinline" [/home/paulrr2/Projects/ece527/babelsoc/fpga-network-stack/hls/ipv4/ipv4.cpp:184->/home/paulrr2/Projects/ece527/babelsoc/fpga-network-stack/hls/ipv4/ipv4.cpp:218]   --->   Operation 25 'call' <Predicate = true> <Delay = 0.00> <CoreType = "Generic">   --->   Core 0 '' <Latency = 0> <II = 1> <Delay = 1.00> <Generic> <Opcode : >
ST_5 : Operation 26 [1/2] (0.00ns)   --->   "call fastcc void @lshiftWordByOctet(i64* %s_axis_tx_data_V_data_V, i8* %s_axis_tx_data_V_keep_V, i1* %s_axis_tx_data_V_last_V) noinline" [/home/paulrr2/Projects/ece527/babelsoc/fpga-network-stack/hls/ipv4/ipv4.cpp:191->/home/paulrr2/Projects/ece527/babelsoc/fpga-network-stack/hls/ipv4/ipv4.cpp:218]   --->   Operation 26 'call' <Predicate = true> <Delay = 0.00> <CoreType = "Generic">   --->   Core 0 '' <Latency = 0> <II = 1> <Delay = 1.00> <Generic> <Opcode : >

State 6 <SV = 5> <Delay = 2.07>
ST_6 : Operation 27 [3/3] (0.00ns)   --->   "call fastcc void @drop_optional_ip_hea(i64* %m_axis_rx_data_V_data_V, i8* %m_axis_rx_data_V_keep_V, i1* %m_axis_rx_data_V_last_V) noinline" [/home/paulrr2/Projects/ece527/babelsoc/fpga-network-stack/hls/ipv4/ipv4.cpp:186->/home/paulrr2/Projects/ece527/babelsoc/fpga-network-stack/hls/ipv4/ipv4.cpp:218]   --->   Operation 27 'call' <Predicate = true> <Delay = 0.00> <CoreType = "Generic">   --->   Core 0 '' <Latency = 0> <II = 1> <Delay = 1.00> <Generic> <Opcode : >
ST_6 : Operation 28 [3/3] (2.07ns)   --->   "call fastcc void @"generate_ipv4<64>"(i48* %s_axis_tx_meta_V, i64* %m_axis_tx_data_V_data_V, i8* %m_axis_tx_data_V_keep_V, i1* %m_axis_tx_data_V_last_V, i32* nocapture %local_ipv4_address_V_1, i8* nocapture %protocol_V_c) noinline" [/home/paulrr2/Projects/ece527/babelsoc/fpga-network-stack/hls/ipv4/ipv4.cpp:192->/home/paulrr2/Projects/ece527/babelsoc/fpga-network-stack/hls/ipv4/ipv4.cpp:218]   --->   Operation 28 'call' <Predicate = true> <Delay = 2.07> <CoreType = "Generic">   --->   Core 0 '' <Latency = 0> <II = 1> <Delay = 1.00> <Generic> <Opcode : >

State 7 <SV = 6> <Delay = 5.60>
ST_7 : Operation 29 [2/3] (5.60ns)   --->   "call fastcc void @drop_optional_ip_hea(i64* %m_axis_rx_data_V_data_V, i8* %m_axis_rx_data_V_keep_V, i1* %m_axis_rx_data_V_last_V) noinline" [/home/paulrr2/Projects/ece527/babelsoc/fpga-network-stack/hls/ipv4/ipv4.cpp:186->/home/paulrr2/Projects/ece527/babelsoc/fpga-network-stack/hls/ipv4/ipv4.cpp:218]   --->   Operation 29 'call' <Predicate = true> <Delay = 5.60> <CoreType = "Generic">   --->   Core 0 '' <Latency = 0> <II = 1> <Delay = 1.00> <Generic> <Opcode : >
ST_7 : Operation 30 [2/3] (5.60ns)   --->   "call fastcc void @"generate_ipv4<64>"(i48* %s_axis_tx_meta_V, i64* %m_axis_tx_data_V_data_V, i8* %m_axis_tx_data_V_keep_V, i1* %m_axis_tx_data_V_last_V, i32* nocapture %local_ipv4_address_V_1, i8* nocapture %protocol_V_c) noinline" [/home/paulrr2/Projects/ece527/babelsoc/fpga-network-stack/hls/ipv4/ipv4.cpp:192->/home/paulrr2/Projects/ece527/babelsoc/fpga-network-stack/hls/ipv4/ipv4.cpp:218]   --->   Operation 30 'call' <Predicate = true> <Delay = 5.60> <CoreType = "Generic">   --->   Core 0 '' <Latency = 0> <II = 1> <Delay = 1.00> <Generic> <Opcode : >

State 8 <SV = 7> <Delay = 0.00>
ST_8 : Operation 31 [1/3] (0.00ns)   --->   "call fastcc void @drop_optional_ip_hea(i64* %m_axis_rx_data_V_data_V, i8* %m_axis_rx_data_V_keep_V, i1* %m_axis_rx_data_V_last_V) noinline" [/home/paulrr2/Projects/ece527/babelsoc/fpga-network-stack/hls/ipv4/ipv4.cpp:186->/home/paulrr2/Projects/ece527/babelsoc/fpga-network-stack/hls/ipv4/ipv4.cpp:218]   --->   Operation 31 'call' <Predicate = true> <Delay = 0.00> <CoreType = "Generic">   --->   Core 0 '' <Latency = 0> <II = 1> <Delay = 1.00> <Generic> <Opcode : >
ST_8 : Operation 32 [1/3] (0.00ns)   --->   "call fastcc void @"generate_ipv4<64>"(i48* %s_axis_tx_meta_V, i64* %m_axis_tx_data_V_data_V, i8* %m_axis_tx_data_V_keep_V, i1* %m_axis_tx_data_V_last_V, i32* nocapture %local_ipv4_address_V_1, i8* nocapture %protocol_V_c) noinline" [/home/paulrr2/Projects/ece527/babelsoc/fpga-network-stack/hls/ipv4/ipv4.cpp:192->/home/paulrr2/Projects/ece527/babelsoc/fpga-network-stack/hls/ipv4/ipv4.cpp:218]   --->   Operation 32 'call' <Predicate = true> <Delay = 0.00> <CoreType = "Generic">   --->   Core 0 '' <Latency = 0> <II = 1> <Delay = 1.00> <Generic> <Opcode : >
ST_8 : Operation 33 [2/2] (0.00ns)   --->   "ret void" [/home/paulrr2/Projects/ece527/babelsoc/fpga-network-stack/hls/ipv4/ipv4.cpp:227]   --->   Operation 33 'ret' <Predicate = true> <Delay = 0.00>

State 9 <SV = 8> <Delay = 0.00>
ST_9 : Operation 34 [1/1] (0.00ns)   --->   "call void (...)* @_ssdm_op_SpecDataflowPipeline(i32 -1, i32 1, [1 x i8]* @p_str) nounwind" [/home/paulrr2/Projects/ece527/babelsoc/fpga-network-stack/hls/ipv4/ipv4.cpp:204]   --->   Operation 34 'specdataflowpipeline' <Predicate = true> <Delay = 0.00>
ST_9 : Operation 35 [1/1] (0.00ns)   --->   "%empty = call i32 (...)* @_ssdm_op_SpecChannel([29 x i8]* @rx_process2dropFifo_2, i32 1, [1 x i8]* @p_str, [1 x i8]* @p_str, i32 8, i32 8, i64* @rx_process2dropFifo_1_1, i64* @rx_process2dropFifo_1_1)"   --->   Operation 35 'specchannel' 'empty' <Predicate = true> <Delay = 0.00>
ST_9 : Operation 36 [1/1] (0.00ns)   --->   "call void (...)* @_ssdm_op_SpecInterface(i64* @rx_process2dropFifo_1_1, [8 x i8]* @ap_fifo_str, i32 0, i32 0, [1 x i8]* @p_str, i32 0, i32 0, [1 x i8]* @p_str, [1 x i8]* @p_str, [1 x i8]* @p_str, i32 2, i32 2, i32 16, i32 16, [1 x i8]* @p_str, [1 x i8]* @p_str)"   --->   Operation 36 'specinterface' <Predicate = true> <Delay = 0.00>
ST_9 : Operation 37 [1/1] (0.00ns)   --->   "%empty_36 = call i32 (...)* @_ssdm_op_SpecChannel([29 x i8]* @rx_process2dropFifo_1, i32 1, [1 x i8]* @p_str, [1 x i8]* @p_str, i32 8, i32 8, i8* @rx_process2dropFifo_2_0, i8* @rx_process2dropFifo_2_0)"   --->   Operation 37 'specchannel' 'empty_36' <Predicate = true> <Delay = 0.00>
ST_9 : Operation 38 [1/1] (0.00ns)   --->   "call void (...)* @_ssdm_op_SpecInterface(i8* @rx_process2dropFifo_2_0, [8 x i8]* @ap_fifo_str, i32 0, i32 0, [1 x i8]* @p_str, i32 0, i32 0, [1 x i8]* @p_str, [1 x i8]* @p_str, [1 x i8]* @p_str, i32 2, i32 2, i32 16, i32 16, [1 x i8]* @p_str, [1 x i8]* @p_str)"   --->   Operation 38 'specinterface' <Predicate = true> <Delay = 0.00>
ST_9 : Operation 39 [1/1] (0.00ns)   --->   "%empty_37 = call i32 (...)* @_ssdm_op_SpecChannel([29 x i8]* @rx_process2dropFifo_s, i32 1, [1 x i8]* @p_str, [1 x i8]* @p_str, i32 8, i32 8, i1* @rx_process2dropFifo_s_2, i1* @rx_process2dropFifo_s_2)"   --->   Operation 39 'specchannel' 'empty_37' <Predicate = true> <Delay = 0.00>
ST_9 : Operation 40 [1/1] (0.00ns)   --->   "call void (...)* @_ssdm_op_SpecInterface(i1* @rx_process2dropFifo_s_2, [8 x i8]* @ap_fifo_str, i32 0, i32 0, [1 x i8]* @p_str, i32 0, i32 0, [1 x i8]* @p_str, [1 x i8]* @p_str, [1 x i8]* @p_str, i32 2, i32 2, i32 16, i32 16, [1 x i8]* @p_str, [1 x i8]* @p_str)"   --->   Operation 40 'specinterface' <Predicate = true> <Delay = 0.00>
ST_9 : Operation 41 [1/1] (0.00ns)   --->   "%empty_38 = call i32 (...)* @_ssdm_op_SpecChannel([30 x i8]* @rx_process2dropLengt, i32 1, [1 x i8]* @p_str, [1 x i8]* @p_str, i32 2, i32 2, i4* @rx_process2dropLengt_1, i4* @rx_process2dropLengt_1)"   --->   Operation 41 'specchannel' 'empty_38' <Predicate = true> <Delay = 0.00>
ST_9 : Operation 42 [1/1] (0.00ns)   --->   "call void (...)* @_ssdm_op_SpecInterface(i4* @rx_process2dropLengt_1, [8 x i8]* @ap_fifo_str, i32 0, i32 0, [1 x i8]* @p_str, i32 0, i32 0, [1 x i8]* @p_str, [1 x i8]* @p_str, [1 x i8]* @p_str, i32 2, i32 2, i32 16, i32 16, [1 x i8]* @p_str, [1 x i8]* @p_str)"   --->   Operation 42 'specinterface' <Predicate = true> <Delay = 0.00>
ST_9 : Operation 43 [1/1] (0.00ns)   --->   "%empty_39 = call i32 (...)* @_ssdm_op_SpecChannel([27 x i8]* @tx_shift2ipv4Fifo_OC_2, i32 1, [1 x i8]* @p_str, [1 x i8]* @p_str, i32 8, i32 8, i64* @tx_shift2ipv4Fifo_V_1, i64* @tx_shift2ipv4Fifo_V_1)"   --->   Operation 43 'specchannel' 'empty_39' <Predicate = true> <Delay = 0.00>
ST_9 : Operation 44 [1/1] (0.00ns)   --->   "call void (...)* @_ssdm_op_SpecInterface(i64* @tx_shift2ipv4Fifo_V_1, [8 x i8]* @ap_fifo_str, i32 0, i32 0, [1 x i8]* @p_str, i32 0, i32 0, [1 x i8]* @p_str, [1 x i8]* @p_str, [1 x i8]* @p_str, i32 2, i32 2, i32 16, i32 16, [1 x i8]* @p_str, [1 x i8]* @p_str)"   --->   Operation 44 'specinterface' <Predicate = true> <Delay = 0.00>
ST_9 : Operation 45 [1/1] (0.00ns)   --->   "%empty_40 = call i32 (...)* @_ssdm_op_SpecChannel([27 x i8]* @tx_shift2ipv4Fifo_OC_1, i32 1, [1 x i8]* @p_str, [1 x i8]* @p_str, i32 8, i32 8, i8* @tx_shift2ipv4Fifo_V_2, i8* @tx_shift2ipv4Fifo_V_2)"   --->   Operation 45 'specchannel' 'empty_40' <Predicate = true> <Delay = 0.00>
ST_9 : Operation 46 [1/1] (0.00ns)   --->   "call void (...)* @_ssdm_op_SpecInterface(i8* @tx_shift2ipv4Fifo_V_2, [8 x i8]* @ap_fifo_str, i32 0, i32 0, [1 x i8]* @p_str, i32 0, i32 0, [1 x i8]* @p_str, [1 x i8]* @p_str, [1 x i8]* @p_str, i32 2, i32 2, i32 16, i32 16, [1 x i8]* @p_str, [1 x i8]* @p_str)"   --->   Operation 46 'specinterface' <Predicate = true> <Delay = 0.00>
ST_9 : Operation 47 [1/1] (0.00ns)   --->   "%empty_41 = call i32 (...)* @_ssdm_op_SpecChannel([27 x i8]* @tx_shift2ipv4Fifo_OC, i32 1, [1 x i8]* @p_str, [1 x i8]* @p_str, i32 8, i32 8, i1* @tx_shift2ipv4Fifo_V_s, i1* @tx_shift2ipv4Fifo_V_s)"   --->   Operation 47 'specchannel' 'empty_41' <Predicate = true> <Delay = 0.00>
ST_9 : Operation 48 [1/1] (0.00ns)   --->   "call void (...)* @_ssdm_op_SpecInterface(i1* @tx_shift2ipv4Fifo_V_s, [8 x i8]* @ap_fifo_str, i32 0, i32 0, [1 x i8]* @p_str, i32 0, i32 0, [1 x i8]* @p_str, [1 x i8]* @p_str, [1 x i8]* @p_str, i32 2, i32 2, i32 16, i32 16, [1 x i8]* @p_str, [1 x i8]* @p_str)"   --->   Operation 48 'specinterface' <Predicate = true> <Delay = 0.00>
ST_9 : Operation 49 [1/1] (0.00ns)   --->   "call void (...)* @_ssdm_op_SpecBitsMap(i48* %s_axis_tx_meta_V), !map !183"   --->   Operation 49 'specbitsmap' <Predicate = true> <Delay = 0.00>
ST_9 : Operation 50 [1/1] (0.00ns)   --->   "call void (...)* @_ssdm_op_SpecBitsMap(i48* %m_axis_rx_meta_V), !map !190"   --->   Operation 50 'specbitsmap' <Predicate = true> <Delay = 0.00>
ST_9 : Operation 51 [1/1] (0.00ns)   --->   "call void (...)* @_ssdm_op_SpecBitsMap(i64* %s_axis_rx_data_V_data_V), !map !197"   --->   Operation 51 'specbitsmap' <Predicate = true> <Delay = 0.00>
ST_9 : Operation 52 [1/1] (0.00ns)   --->   "call void (...)* @_ssdm_op_SpecBitsMap(i8* %s_axis_rx_data_V_keep_V), !map !201"   --->   Operation 52 'specbitsmap' <Predicate = true> <Delay = 0.00>
ST_9 : Operation 53 [1/1] (0.00ns)   --->   "call void (...)* @_ssdm_op_SpecBitsMap(i1* %s_axis_rx_data_V_last_V), !map !205"   --->   Operation 53 'specbitsmap' <Predicate = true> <Delay = 0.00>
ST_9 : Operation 54 [1/1] (0.00ns)   --->   "call void (...)* @_ssdm_op_SpecBitsMap(i64* %m_axis_rx_data_V_data_V), !map !209"   --->   Operation 54 'specbitsmap' <Predicate = true> <Delay = 0.00>
ST_9 : Operation 55 [1/1] (0.00ns)   --->   "call void (...)* @_ssdm_op_SpecBitsMap(i8* %m_axis_rx_data_V_keep_V), !map !213"   --->   Operation 55 'specbitsmap' <Predicate = true> <Delay = 0.00>
ST_9 : Operation 56 [1/1] (0.00ns)   --->   "call void (...)* @_ssdm_op_SpecBitsMap(i1* %m_axis_rx_data_V_last_V), !map !217"   --->   Operation 56 'specbitsmap' <Predicate = true> <Delay = 0.00>
ST_9 : Operation 57 [1/1] (0.00ns)   --->   "call void (...)* @_ssdm_op_SpecBitsMap(i64* %s_axis_tx_data_V_data_V), !map !221"   --->   Operation 57 'specbitsmap' <Predicate = true> <Delay = 0.00>
ST_9 : Operation 58 [1/1] (0.00ns)   --->   "call void (...)* @_ssdm_op_SpecBitsMap(i8* %s_axis_tx_data_V_keep_V), !map !225"   --->   Operation 58 'specbitsmap' <Predicate = true> <Delay = 0.00>
ST_9 : Operation 59 [1/1] (0.00ns)   --->   "call void (...)* @_ssdm_op_SpecBitsMap(i1* %s_axis_tx_data_V_last_V), !map !229"   --->   Operation 59 'specbitsmap' <Predicate = true> <Delay = 0.00>
ST_9 : Operation 60 [1/1] (0.00ns)   --->   "call void (...)* @_ssdm_op_SpecBitsMap(i64* %m_axis_tx_data_V_data_V), !map !233"   --->   Operation 60 'specbitsmap' <Predicate = true> <Delay = 0.00>
ST_9 : Operation 61 [1/1] (0.00ns)   --->   "call void (...)* @_ssdm_op_SpecBitsMap(i8* %m_axis_tx_data_V_keep_V), !map !237"   --->   Operation 61 'specbitsmap' <Predicate = true> <Delay = 0.00>
ST_9 : Operation 62 [1/1] (0.00ns)   --->   "call void (...)* @_ssdm_op_SpecBitsMap(i1* %m_axis_tx_data_V_last_V), !map !241"   --->   Operation 62 'specbitsmap' <Predicate = true> <Delay = 0.00>
ST_9 : Operation 63 [1/1] (0.00ns)   --->   "call void (...)* @_ssdm_op_SpecBitsMap(i32 %local_ipv4_address_V), !map !245"   --->   Operation 63 'specbitsmap' <Predicate = true> <Delay = 0.00>
ST_9 : Operation 64 [1/1] (0.00ns)   --->   "call void (...)* @_ssdm_op_SpecBitsMap(i8 %protocol_V), !map !251"   --->   Operation 64 'specbitsmap' <Predicate = true> <Delay = 0.00>
ST_9 : Operation 65 [1/1] (0.00ns)   --->   "call void (...)* @_ssdm_op_SpecTopModule([9 x i8]* @ipv4_top_str) nounwind"   --->   Operation 65 'spectopmodule' <Predicate = true> <Delay = 0.00>
ST_9 : Operation 66 [1/1] (0.00ns)   --->   "call void (...)* @_ssdm_op_SpecInterface(i32 0, [13 x i8]* @p_str1, i32 1, i32 1, [1 x i8]* @p_str, i32 0, i32 0, [1 x i8]* @p_str, [1 x i8]* @p_str, [1 x i8]* @p_str, i32 0, i32 0, i32 0, i32 0, [1 x i8]* @p_str, [1 x i8]* @p_str) nounwind" [/home/paulrr2/Projects/ece527/babelsoc/fpga-network-stack/hls/ipv4/ipv4.cpp:205]   --->   Operation 66 'specinterface' <Predicate = true> <Delay = 0.00>
ST_9 : Operation 67 [1/1] (0.00ns)   --->   "call void (...)* @_ssdm_op_SpecInterface(i64* %s_axis_rx_data_V_data_V, i8* %s_axis_rx_data_V_keep_V, i1* %s_axis_rx_data_V_last_V, [5 x i8]* @p_str2, i32 1, i32 1, [5 x i8]* @p_str3, i32 0, i32 0, [1 x i8]* @p_str, [1 x i8]* @p_str, [1 x i8]* @p_str, i32 0, i32 0, i32 0, i32 0, [1 x i8]* @p_str, [1 x i8]* @p_str) nounwind" [/home/paulrr2/Projects/ece527/babelsoc/fpga-network-stack/hls/ipv4/ipv4.cpp:207]   --->   Operation 67 'specinterface' <Predicate = true> <Delay = 0.00>
ST_9 : Operation 68 [1/1] (0.00ns)   --->   "call void (...)* @_ssdm_op_SpecInterface(i48* %m_axis_rx_meta_V, [5 x i8]* @p_str2, i32 1, i32 1, [5 x i8]* @p_str3, i32 0, i32 0, [1 x i8]* @p_str, [1 x i8]* @p_str, [1 x i8]* @p_str, i32 0, i32 0, i32 0, i32 0, [1 x i8]* @p_str, [1 x i8]* @p_str) nounwind" [/home/paulrr2/Projects/ece527/babelsoc/fpga-network-stack/hls/ipv4/ipv4.cpp:208]   --->   Operation 68 'specinterface' <Predicate = true> <Delay = 0.00>
ST_9 : Operation 69 [1/1] (0.00ns)   --->   "call void (...)* @_ssdm_op_SpecInterface(i64* %m_axis_rx_data_V_data_V, i8* %m_axis_rx_data_V_keep_V, i1* %m_axis_rx_data_V_last_V, [5 x i8]* @p_str2, i32 1, i32 1, [5 x i8]* @p_str3, i32 0, i32 0, [1 x i8]* @p_str, [1 x i8]* @p_str, [1 x i8]* @p_str, i32 0, i32 0, i32 0, i32 0, [1 x i8]* @p_str, [1 x i8]* @p_str) nounwind" [/home/paulrr2/Projects/ece527/babelsoc/fpga-network-stack/hls/ipv4/ipv4.cpp:209]   --->   Operation 69 'specinterface' <Predicate = true> <Delay = 0.00>
ST_9 : Operation 70 [1/1] (0.00ns)   --->   "call void (...)* @_ssdm_op_SpecInterface(i48* %s_axis_tx_meta_V, [5 x i8]* @p_str2, i32 1, i32 1, [5 x i8]* @p_str3, i32 0, i32 0, [1 x i8]* @p_str, [1 x i8]* @p_str, [1 x i8]* @p_str, i32 0, i32 0, i32 0, i32 0, [1 x i8]* @p_str, [1 x i8]* @p_str) nounwind" [/home/paulrr2/Projects/ece527/babelsoc/fpga-network-stack/hls/ipv4/ipv4.cpp:210]   --->   Operation 70 'specinterface' <Predicate = true> <Delay = 0.00>
ST_9 : Operation 71 [1/1] (0.00ns)   --->   "call void (...)* @_ssdm_op_SpecInterface(i64* %s_axis_tx_data_V_data_V, i8* %s_axis_tx_data_V_keep_V, i1* %s_axis_tx_data_V_last_V, [5 x i8]* @p_str2, i32 1, i32 1, [5 x i8]* @p_str3, i32 0, i32 0, [1 x i8]* @p_str, [1 x i8]* @p_str, [1 x i8]* @p_str, i32 0, i32 0, i32 0, i32 0, [1 x i8]* @p_str, [1 x i8]* @p_str) nounwind" [/home/paulrr2/Projects/ece527/babelsoc/fpga-network-stack/hls/ipv4/ipv4.cpp:211]   --->   Operation 71 'specinterface' <Predicate = true> <Delay = 0.00>
ST_9 : Operation 72 [1/1] (0.00ns)   --->   "call void (...)* @_ssdm_op_SpecInterface(i64* %m_axis_tx_data_V_data_V, i8* %m_axis_tx_data_V_keep_V, i1* %m_axis_tx_data_V_last_V, [5 x i8]* @p_str2, i32 1, i32 1, [5 x i8]* @p_str3, i32 0, i32 0, [1 x i8]* @p_str, [1 x i8]* @p_str, [1 x i8]* @p_str, i32 0, i32 0, i32 0, i32 0, [1 x i8]* @p_str, [1 x i8]* @p_str) nounwind" [/home/paulrr2/Projects/ece527/babelsoc/fpga-network-stack/hls/ipv4/ipv4.cpp:212]   --->   Operation 72 'specinterface' <Predicate = true> <Delay = 0.00>
ST_9 : Operation 73 [1/1] (0.00ns)   --->   "call void (...)* @_ssdm_op_SpecInterface(i32 %local_ipv4_address_V, [10 x i8]* @p_str4, i32 1, i32 1, [1 x i8]* @p_str, i32 0, i32 0, [1 x i8]* @p_str, [1 x i8]* @p_str, [1 x i8]* @p_str, i32 0, i32 0, i32 0, i32 0, [1 x i8]* @p_str, [1 x i8]* @p_str) nounwind" [/home/paulrr2/Projects/ece527/babelsoc/fpga-network-stack/hls/ipv4/ipv4.cpp:215]   --->   Operation 73 'specinterface' <Predicate = true> <Delay = 0.00>
ST_9 : Operation 74 [1/1] (0.00ns)   --->   "call void (...)* @_ssdm_op_SpecInterface(i8 %protocol_V, [10 x i8]* @p_str4, i32 1, i32 1, [1 x i8]* @p_str, i32 0, i32 0, [1 x i8]* @p_str, [1 x i8]* @p_str, [1 x i8]* @p_str, i32 0, i32 0, i32 0, i32 0, [1 x i8]* @p_str, [1 x i8]* @p_str) nounwind" [/home/paulrr2/Projects/ece527/babelsoc/fpga-network-stack/hls/ipv4/ipv4.cpp:216]   --->   Operation 74 'specinterface' <Predicate = true> <Delay = 0.00>
ST_9 : Operation 75 [1/1] (0.00ns)   --->   "%empty_42 = call i32 (...)* @_ssdm_op_SpecChannel([23 x i8]* @local_ipv4_address_O, i32 1, [1 x i8]* @p_str, [1 x i8]* @p_str, i32 3, i32 0, i32* %local_ipv4_address_V_1, i32* %local_ipv4_address_V_1)" [/home/paulrr2/Projects/ece527/babelsoc/fpga-network-stack/hls/ipv4/ipv4.cpp:204]   --->   Operation 75 'specchannel' 'empty_42' <Predicate = true> <Delay = 0.00>
ST_9 : Operation 76 [1/1] (0.00ns)   --->   "call void (...)* @_ssdm_op_SpecInterface(i32* %local_ipv4_address_V_1, [8 x i8]* @ap_fifo_str, i32 0, i32 0, [1 x i8]* @p_str, i32 0, i32 0, [1 x i8]* @p_str, [1 x i8]* @p_str, [1 x i8]* @p_str, i32 2, i32 2, i32 16, i32 16, [1 x i8]* @p_str, [1 x i8]* @p_str)" [/home/paulrr2/Projects/ece527/babelsoc/fpga-network-stack/hls/ipv4/ipv4.cpp:204]   --->   Operation 76 'specinterface' <Predicate = true> <Delay = 0.00>
ST_9 : Operation 77 [1/1] (0.00ns)   --->   "%empty_43 = call i32 (...)* @_ssdm_op_SpecChannel([13 x i8]* @protocol_OC_V_c_str, i32 1, [1 x i8]* @p_str, [1 x i8]* @p_str, i32 3, i32 0, i8* %protocol_V_c, i8* %protocol_V_c)" [/home/paulrr2/Projects/ece527/babelsoc/fpga-network-stack/hls/ipv4/ipv4.cpp:204]   --->   Operation 77 'specchannel' 'empty_43' <Predicate = true> <Delay = 0.00>
ST_9 : Operation 78 [1/1] (0.00ns)   --->   "call void (...)* @_ssdm_op_SpecInterface(i8* %protocol_V_c, [8 x i8]* @ap_fifo_str, i32 0, i32 0, [1 x i8]* @p_str, i32 0, i32 0, [1 x i8]* @p_str, [1 x i8]* @p_str, [1 x i8]* @p_str, i32 2, i32 2, i32 16, i32 16, [1 x i8]* @p_str, [1 x i8]* @p_str)" [/home/paulrr2/Projects/ece527/babelsoc/fpga-network-stack/hls/ipv4/ipv4.cpp:204]   --->   Operation 78 'specinterface' <Predicate = true> <Delay = 0.00>
ST_9 : Operation 79 [1/1] (0.00ns)   --->   "%empty_44 = call i32 (...)* @_ssdm_op_SpecChannel([23 x i8]* @local_ipv4_address_O_1, i32 1, [1 x i8]* @p_str, [1 x i8]* @p_str, i32 2, i32 0, i32* %local_ipv4_address_V_4, i32* %local_ipv4_address_V_4)" [/home/paulrr2/Projects/ece527/babelsoc/fpga-network-stack/hls/ipv4/ipv4.cpp:204]   --->   Operation 79 'specchannel' 'empty_44' <Predicate = true> <Delay = 0.00>
ST_9 : Operation 80 [1/1] (0.00ns)   --->   "call void (...)* @_ssdm_op_SpecInterface(i32* %local_ipv4_address_V_4, [8 x i8]* @ap_fifo_str, i32 0, i32 0, [1 x i8]* @p_str, i32 0, i32 0, [1 x i8]* @p_str, [1 x i8]* @p_str, [1 x i8]* @p_str, i32 2, i32 2, i32 16, i32 16, [1 x i8]* @p_str, [1 x i8]* @p_str)" [/home/paulrr2/Projects/ece527/babelsoc/fpga-network-stack/hls/ipv4/ipv4.cpp:204]   --->   Operation 80 'specinterface' <Predicate = true> <Delay = 0.00>
ST_9 : Operation 81 [1/1] (0.00ns)   --->   "%empty_45 = call i32 (...)* @_ssdm_op_SpecChannel([14 x i8]* @protocol_OC_V_c1_str, i32 1, [1 x i8]* @p_str, [1 x i8]* @p_str, i32 2, i32 0, i8* %protocol_V_c1, i8* %protocol_V_c1)" [/home/paulrr2/Projects/ece527/babelsoc/fpga-network-stack/hls/ipv4/ipv4.cpp:204]   --->   Operation 81 'specchannel' 'empty_45' <Predicate = true> <Delay = 0.00>
ST_9 : Operation 82 [1/1] (0.00ns)   --->   "call void (...)* @_ssdm_op_SpecInterface(i8* %protocol_V_c1, [8 x i8]* @ap_fifo_str, i32 0, i32 0, [1 x i8]* @p_str, i32 0, i32 0, [1 x i8]* @p_str, [1 x i8]* @p_str, [1 x i8]* @p_str, i32 2, i32 2, i32 16, i32 16, [1 x i8]* @p_str, [1 x i8]* @p_str)" [/home/paulrr2/Projects/ece527/babelsoc/fpga-network-stack/hls/ipv4/ipv4.cpp:204]   --->   Operation 82 'specinterface' <Predicate = true> <Delay = 0.00>
ST_9 : Operation 83 [1/2] (0.00ns)   --->   "ret void" [/home/paulrr2/Projects/ece527/babelsoc/fpga-network-stack/hls/ipv4/ipv4.cpp:227]   --->   Operation 83 'ret' <Predicate = true> <Delay = 0.00>


============================================================
+ Verbose Summary: Binding
============================================================
STG Binding: 
---------------- STG Properties BEGIN ----------------
- Is combinational: 0
- Is one-state seq: 0
- Is datapath-only: 0
- Is pipelined: 0
- Is top level: 1
Port [ Return ] is wired: 0; IO mode=ap_ctrl_none:ce=0
Port [ s_axis_rx_data_V_data_V]:  wired=1; compound=1; hidden=0; nouse=0; global=0; static=0; extern=0; dir=0; type=0; pingpong=0; private_global=0; IO mode=axis:ce=0
Port [ s_axis_rx_data_V_keep_V]:  wired=1; compound=1; hidden=0; nouse=0; global=0; static=0; extern=0; dir=0; type=0; pingpong=0; private_global=0; IO mode=axis:ce=0
Port [ s_axis_rx_data_V_last_V]:  wired=1; compound=1; hidden=0; nouse=0; global=0; static=0; extern=0; dir=0; type=0; pingpong=0; private_global=0; IO mode=axis:ce=0
Port [ m_axis_rx_meta_V]:  wired=1; compound=1; hidden=0; nouse=0; global=0; static=0; extern=0; dir=1; type=0; pingpong=0; private_global=0; IO mode=axis:ce=0
Port [ m_axis_rx_data_V_data_V]:  wired=1; compound=1; hidden=0; nouse=0; global=0; static=0; extern=0; dir=1; type=0; pingpong=0; private_global=0; IO mode=axis:ce=0
Port [ m_axis_rx_data_V_keep_V]:  wired=1; compound=1; hidden=0; nouse=0; global=0; static=0; extern=0; dir=1; type=0; pingpong=0; private_global=0; IO mode=axis:ce=0
Port [ m_axis_rx_data_V_last_V]:  wired=1; compound=1; hidden=0; nouse=0; global=0; static=0; extern=0; dir=1; type=0; pingpong=0; private_global=0; IO mode=axis:ce=0
Port [ s_axis_tx_meta_V]:  wired=1; compound=1; hidden=0; nouse=0; global=0; static=0; extern=0; dir=0; type=0; pingpong=0; private_global=0; IO mode=axis:ce=0
Port [ s_axis_tx_data_V_data_V]:  wired=1; compound=1; hidden=0; nouse=0; global=0; static=0; extern=0; dir=0; type=0; pingpong=0; private_global=0; IO mode=axis:ce=0
Port [ s_axis_tx_data_V_keep_V]:  wired=1; compound=1; hidden=0; nouse=0; global=0; static=0; extern=0; dir=0; type=0; pingpong=0; private_global=0; IO mode=axis:ce=0
Port [ s_axis_tx_data_V_last_V]:  wired=1; compound=1; hidden=0; nouse=0; global=0; static=0; extern=0; dir=0; type=0; pingpong=0; private_global=0; IO mode=axis:ce=0
Port [ m_axis_tx_data_V_data_V]:  wired=1; compound=1; hidden=0; nouse=0; global=0; static=0; extern=0; dir=1; type=0; pingpong=0; private_global=0; IO mode=axis:ce=0
Port [ m_axis_tx_data_V_keep_V]:  wired=1; compound=1; hidden=0; nouse=0; global=0; static=0; extern=0; dir=1; type=0; pingpong=0; private_global=0; IO mode=axis:ce=0
Port [ m_axis_tx_data_V_last_V]:  wired=1; compound=1; hidden=0; nouse=0; global=0; static=0; extern=0; dir=1; type=0; pingpong=0; private_global=0; IO mode=axis:ce=0
Port [ local_ipv4_address_V]:  wired=1; compound=0; hidden=0; nouse=0; global=0; static=0; extern=0; dir=0; type=0; pingpong=0; private_global=0; IO mode=ap_none:ce=0
Port [ protocol_V]:  wired=1; compound=0; hidden=0; nouse=0; global=0; static=0; extern=0; dir=0; type=0; pingpong=0; private_global=0; IO mode=ap_none:ce=0
Port [ header_ready]:  wired=0; compound=0; hidden=1; nouse=1; global=1; static=1; extern=0; dir=2; type=0; pingpong=0; private_global=0; linkage=7; visibility=0; IO mode=ap_ovld:ce=0
Port [ header_idx]:  wired=0; compound=0; hidden=1; nouse=1; global=1; static=1; extern=0; dir=2; type=0; pingpong=0; private_global=0; linkage=7; visibility=0; IO mode=ap_ovld:ce=0
Port [ header_header_V]:  wired=0; compound=0; hidden=1; nouse=1; global=1; static=1; extern=0; dir=2; type=0; pingpong=0; private_global=0; linkage=7; visibility=0; IO mode=ap_ovld:ce=0
Port [ metaWritten]:  wired=0; compound=0; hidden=1; nouse=1; global=1; static=1; extern=0; dir=2; type=0; pingpong=0; private_global=0; linkage=7; visibility=0; IO mode=ap_ovld:ce=0
Port [ headerWordsDropped_V]:  wired=0; compound=0; hidden=1; nouse=1; global=1; static=1; extern=0; dir=2; type=0; pingpong=0; private_global=0; linkage=7; visibility=0; IO mode=ap_ovld:ce=0
Port [ rx_process2dropFifo_1_1]:  wired=0; compound=1; hidden=1; nouse=0; global=1; static=1; extern=0; dir=2; type=3; pingpong=0; private_global=1; linkage=7; visibility=0; IO mode=ap_fifo:ce=0
Port [ rx_process2dropFifo_2_0]:  wired=0; compound=1; hidden=1; nouse=0; global=1; static=1; extern=0; dir=2; type=3; pingpong=0; private_global=1; linkage=7; visibility=0; IO mode=ap_fifo:ce=0
Port [ rx_process2dropFifo_s_2]:  wired=0; compound=1; hidden=1; nouse=0; global=1; static=1; extern=0; dir=2; type=3; pingpong=0; private_global=1; linkage=7; visibility=0; IO mode=ap_fifo:ce=0
Port [ rx_process2dropLengt_1]:  wired=0; compound=1; hidden=1; nouse=0; global=1; static=1; extern=0; dir=2; type=3; pingpong=0; private_global=1; linkage=7; visibility=0; IO mode=ap_fifo:ce=0
Port [ doh_state]:  wired=0; compound=0; hidden=1; nouse=1; global=1; static=1; extern=0; dir=2; type=0; pingpong=0; private_global=0; linkage=7; visibility=0; IO mode=ap_ovld:ce=0
Port [ length_V]:  wired=0; compound=0; hidden=1; nouse=1; global=1; static=1; extern=0; dir=2; type=0; pingpong=0; private_global=0; linkage=7; visibility=0; IO mode=ap_ovld:ce=0
Port [ prevWord_data_V]:  wired=0; compound=0; hidden=1; nouse=1; global=1; static=1; extern=0; dir=2; type=0; pingpong=0; private_global=0; linkage=7; visibility=0; IO mode=ap_ovld:ce=0
Port [ prevWord_keep_V_1]:  wired=0; compound=0; hidden=1; nouse=1; global=1; static=1; extern=0; dir=2; type=0; pingpong=0; private_global=0; linkage=7; visibility=0; IO mode=ap_ovld:ce=0
Port [ ls_writeRemainder]:  wired=0; compound=0; hidden=1; nouse=1; global=1; static=1; extern=0; dir=2; type=0; pingpong=0; private_global=0; linkage=7; visibility=0; IO mode=ap_ovld:ce=0
Port [ prevWord_data_V_1]:  wired=0; compound=0; hidden=1; nouse=1; global=1; static=1; extern=0; dir=2; type=0; pingpong=0; private_global=0; linkage=7; visibility=0; IO mode=ap_ovld:ce=0
Port [ prevWord_keep_V]:  wired=0; compound=0; hidden=1; nouse=1; global=1; static=1; extern=0; dir=2; type=0; pingpong=0; private_global=0; linkage=7; visibility=0; IO mode=ap_ovld:ce=0
Port [ tx_shift2ipv4Fifo_V_1]:  wired=0; compound=1; hidden=1; nouse=0; global=1; static=1; extern=0; dir=2; type=3; pingpong=0; private_global=1; linkage=7; visibility=0; IO mode=ap_fifo:ce=0
Port [ tx_shift2ipv4Fifo_V_2]:  wired=0; compound=1; hidden=1; nouse=0; global=1; static=1; extern=0; dir=2; type=3; pingpong=0; private_global=1; linkage=7; visibility=0; IO mode=ap_fifo:ce=0
Port [ tx_shift2ipv4Fifo_V_s]:  wired=0; compound=1; hidden=1; nouse=0; global=1; static=1; extern=0; dir=2; type=3; pingpong=0; private_global=1; linkage=7; visibility=0; IO mode=ap_fifo:ce=0
Port [ ls_firstWord]:  wired=0; compound=0; hidden=1; nouse=1; global=1; static=1; extern=0; dir=2; type=0; pingpong=0; private_global=0; linkage=7; visibility=0; IO mode=ap_ovld:ce=0
Port [ gi_state]:  wired=0; compound=0; hidden=1; nouse=1; global=1; static=1; extern=0; dir=2; type=0; pingpong=0; private_global=0; linkage=7; visibility=0; IO mode=ap_ovld:ce=0
Port [ header_idx_1]:  wired=0; compound=0; hidden=1; nouse=1; global=1; static=1; extern=0; dir=2; type=0; pingpong=0; private_global=0; linkage=7; visibility=0; IO mode=ap_ovld:ce=0
Port [ header_header_V_1]:  wired=0; compound=0; hidden=1; nouse=1; global=1; static=1; extern=0; dir=2; type=0; pingpong=0; private_global=0; linkage=7; visibility=0; IO mode=ap_ovld:ce=0
---------------- STG Properties END ------------------

---------------- Datapath Model BEGIN ----------------

<LifeTime>
<method=bitvector/>
protocol_V_c1              (alloca              ) [ 0011111111]
local_ipv4_address_V_4     (alloca              ) [ 0011111111]
protocol_V_c               (alloca              ) [ 0011111111]
local_ipv4_address_V_1     (alloca              ) [ 0011111111]
protocol_V_read            (read                ) [ 0000000000]
local_ipv4_address_V_3     (read                ) [ 0000000000]
call_ln204                 (call                ) [ 0000000000]
call_ln204                 (call                ) [ 0000000000]
call_ln184                 (call                ) [ 0000000000]
call_ln191                 (call                ) [ 0000000000]
call_ln186                 (call                ) [ 0000000000]
call_ln192                 (call                ) [ 0000000000]
specdataflowpipeline_ln204 (specdataflowpipeline) [ 0000000000]
empty                      (specchannel         ) [ 0000000000]
specinterface_ln0          (specinterface       ) [ 0000000000]
empty_36                   (specchannel         ) [ 0000000000]
specinterface_ln0          (specinterface       ) [ 0000000000]
empty_37                   (specchannel         ) [ 0000000000]
specinterface_ln0          (specinterface       ) [ 0000000000]
empty_38                   (specchannel         ) [ 0000000000]
specinterface_ln0          (specinterface       ) [ 0000000000]
empty_39                   (specchannel         ) [ 0000000000]
specinterface_ln0          (specinterface       ) [ 0000000000]
empty_40                   (specchannel         ) [ 0000000000]
specinterface_ln0          (specinterface       ) [ 0000000000]
empty_41                   (specchannel         ) [ 0000000000]
specinterface_ln0          (specinterface       ) [ 0000000000]
specbitsmap_ln0            (specbitsmap         ) [ 0000000000]
specbitsmap_ln0            (specbitsmap         ) [ 0000000000]
specbitsmap_ln0            (specbitsmap         ) [ 0000000000]
specbitsmap_ln0            (specbitsmap         ) [ 0000000000]
specbitsmap_ln0            (specbitsmap         ) [ 0000000000]
specbitsmap_ln0            (specbitsmap         ) [ 0000000000]
specbitsmap_ln0            (specbitsmap         ) [ 0000000000]
specbitsmap_ln0            (specbitsmap         ) [ 0000000000]
specbitsmap_ln0            (specbitsmap         ) [ 0000000000]
specbitsmap_ln0            (specbitsmap         ) [ 0000000000]
specbitsmap_ln0            (specbitsmap         ) [ 0000000000]
specbitsmap_ln0            (specbitsmap         ) [ 0000000000]
specbitsmap_ln0            (specbitsmap         ) [ 0000000000]
specbitsmap_ln0            (specbitsmap         ) [ 0000000000]
specbitsmap_ln0            (specbitsmap         ) [ 0000000000]
specbitsmap_ln0            (specbitsmap         ) [ 0000000000]
spectopmodule_ln0          (spectopmodule       ) [ 0000000000]
specinterface_ln205        (specinterface       ) [ 0000000000]
specinterface_ln207        (specinterface       ) [ 0000000000]
specinterface_ln208        (specinterface       ) [ 0000000000]
specinterface_ln209        (specinterface       ) [ 0000000000]
specinterface_ln210        (specinterface       ) [ 0000000000]
specinterface_ln211        (specinterface       ) [ 0000000000]
specinterface_ln212        (specinterface       ) [ 0000000000]
specinterface_ln215        (specinterface       ) [ 0000000000]
specinterface_ln216        (specinterface       ) [ 0000000000]
empty_42                   (specchannel         ) [ 0000000000]
specinterface_ln204        (specinterface       ) [ 0000000000]
empty_43                   (specchannel         ) [ 0000000000]
specinterface_ln204        (specinterface       ) [ 0000000000]
empty_44                   (specchannel         ) [ 0000000000]
specinterface_ln204        (specinterface       ) [ 0000000000]
empty_45                   (specchannel         ) [ 0000000000]
specinterface_ln204        (specinterface       ) [ 0000000000]
ret_ln227                  (ret                 ) [ 0000000000]
</LifeTime>

<model>

<comp_list>
<comp id="0" class="1000" name="s_axis_rx_data_V_data_V">
<pin_list>
<pin id="1" dir="1" index="0" bw="1" slack="0"/>
</pin_list>
<bind>
<StgValue><ssdm name="s_axis_rx_data_V_data_V"/></StgValue>
</bind>
</comp>

<comp id="2" class="1000" name="s_axis_rx_data_V_keep_V">
<pin_list>
<pin id="3" dir="1" index="0" bw="1" slack="0"/>
</pin_list>
<bind>
<StgValue><ssdm name="s_axis_rx_data_V_keep_V"/></StgValue>
</bind>
</comp>

<comp id="4" class="1000" name="s_axis_rx_data_V_last_V">
<pin_list>
<pin id="5" dir="1" index="0" bw="1" slack="0"/>
</pin_list>
<bind>
<StgValue><ssdm name="s_axis_rx_data_V_last_V"/></StgValue>
</bind>
</comp>

<comp id="6" class="1000" name="m_axis_rx_meta_V">
<pin_list>
<pin id="7" dir="1" index="0" bw="1" slack="0"/>
</pin_list>
<bind>
<StgValue><ssdm name="m_axis_rx_meta_V"/></StgValue>
</bind>
</comp>

<comp id="8" class="1000" name="m_axis_rx_data_V_data_V">
<pin_list>
<pin id="9" dir="1" index="0" bw="1" slack="0"/>
</pin_list>
<bind>
<StgValue><ssdm name="m_axis_rx_data_V_data_V"/></StgValue>
</bind>
</comp>

<comp id="10" class="1000" name="m_axis_rx_data_V_keep_V">
<pin_list>
<pin id="11" dir="1" index="0" bw="1" slack="0"/>
</pin_list>
<bind>
<StgValue><ssdm name="m_axis_rx_data_V_keep_V"/></StgValue>
</bind>
</comp>

<comp id="12" class="1000" name="m_axis_rx_data_V_last_V">
<pin_list>
<pin id="13" dir="1" index="0" bw="1" slack="0"/>
</pin_list>
<bind>
<StgValue><ssdm name="m_axis_rx_data_V_last_V"/></StgValue>
</bind>
</comp>

<comp id="14" class="1000" name="s_axis_tx_meta_V">
<pin_list>
<pin id="15" dir="1" index="0" bw="1" slack="0"/>
</pin_list>
<bind>
<StgValue><ssdm name="s_axis_tx_meta_V"/></StgValue>
</bind>
</comp>

<comp id="16" class="1000" name="s_axis_tx_data_V_data_V">
<pin_list>
<pin id="17" dir="1" index="0" bw="1" slack="0"/>
</pin_list>
<bind>
<StgValue><ssdm name="s_axis_tx_data_V_data_V"/></StgValue>
</bind>
</comp>

<comp id="18" class="1000" name="s_axis_tx_data_V_keep_V">
<pin_list>
<pin id="19" dir="1" index="0" bw="1" slack="0"/>
</pin_list>
<bind>
<StgValue><ssdm name="s_axis_tx_data_V_keep_V"/></StgValue>
</bind>
</comp>

<comp id="20" class="1000" name="s_axis_tx_data_V_last_V">
<pin_list>
<pin id="21" dir="1" index="0" bw="1" slack="0"/>
</pin_list>
<bind>
<StgValue><ssdm name="s_axis_tx_data_V_last_V"/></StgValue>
</bind>
</comp>

<comp id="22" class="1000" name="m_axis_tx_data_V_data_V">
<pin_list>
<pin id="23" dir="1" index="0" bw="1" slack="0"/>
</pin_list>
<bind>
<StgValue><ssdm name="m_axis_tx_data_V_data_V"/></StgValue>
</bind>
</comp>

<comp id="24" class="1000" name="m_axis_tx_data_V_keep_V">
<pin_list>
<pin id="25" dir="1" index="0" bw="1" slack="0"/>
</pin_list>
<bind>
<StgValue><ssdm name="m_axis_tx_data_V_keep_V"/></StgValue>
</bind>
</comp>

<comp id="26" class="1000" name="m_axis_tx_data_V_last_V">
<pin_list>
<pin id="27" dir="1" index="0" bw="1" slack="0"/>
</pin_list>
<bind>
<StgValue><ssdm name="m_axis_tx_data_V_last_V"/></StgValue>
</bind>
</comp>

<comp id="28" class="1000" name="local_ipv4_address_V">
<pin_list>
<pin id="29" dir="1" index="0" bw="1" slack="0"/>
</pin_list>
<bind>
<StgValue><ssdm name="local_ipv4_address_V"/></StgValue>
</bind>
</comp>

<comp id="30" class="1000" name="protocol_V">
<pin_list>
<pin id="31" dir="1" index="0" bw="1" slack="0"/>
</pin_list>
<bind>
<StgValue><ssdm name="protocol_V"/></StgValue>
</bind>
</comp>

<comp id="32" class="1000" name="header_ready">
<pin_list>
<pin id="33" dir="1" index="0" bw="1" slack="0"/>
</pin_list>
<bind>
<StgValue><ssdm name="header_ready"/></StgValue>
</bind>
</comp>

<comp id="34" class="1000" name="header_idx">
<pin_list>
<pin id="35" dir="1" index="0" bw="1" slack="0"/>
</pin_list>
<bind>
<StgValue><ssdm name="header_idx"/></StgValue>
</bind>
</comp>

<comp id="36" class="1000" name="header_header_V">
<pin_list>
<pin id="37" dir="1" index="0" bw="1" slack="0"/>
</pin_list>
<bind>
<StgValue><ssdm name="header_header_V"/></StgValue>
</bind>
</comp>

<comp id="38" class="1000" name="metaWritten">
<pin_list>
<pin id="39" dir="1" index="0" bw="1" slack="0"/>
</pin_list>
<bind>
<StgValue><ssdm name="metaWritten"/></StgValue>
</bind>
</comp>

<comp id="40" class="1000" name="headerWordsDropped_V">
<pin_list>
<pin id="41" dir="1" index="0" bw="1" slack="0"/>
</pin_list>
<bind>
<StgValue><ssdm name="headerWordsDropped_V"/></StgValue>
</bind>
</comp>

<comp id="42" class="1000" name="rx_process2dropFifo_1_1">
<pin_list>
<pin id="43" dir="1" index="0" bw="1" slack="0"/>
</pin_list>
<bind>
<StgValue><ssdm name="rx_process2dropFifo_1_1"/></StgValue>
</bind>
</comp>

<comp id="44" class="1000" name="rx_process2dropFifo_2_0">
<pin_list>
<pin id="45" dir="1" index="0" bw="1" slack="0"/>
</pin_list>
<bind>
<StgValue><ssdm name="rx_process2dropFifo_2_0"/></StgValue>
</bind>
</comp>

<comp id="46" class="1000" name="rx_process2dropFifo_s_2">
<pin_list>
<pin id="47" dir="1" index="0" bw="1" slack="0"/>
</pin_list>
<bind>
<StgValue><ssdm name="rx_process2dropFifo_s_2"/></StgValue>
</bind>
</comp>

<comp id="48" class="1000" name="rx_process2dropLengt_1">
<pin_list>
<pin id="49" dir="1" index="0" bw="1" slack="0"/>
</pin_list>
<bind>
<StgValue><ssdm name="rx_process2dropLengt_1"/></StgValue>
</bind>
</comp>

<comp id="50" class="1000" name="doh_state">
<pin_list>
<pin id="51" dir="1" index="0" bw="1" slack="0"/>
</pin_list>
<bind>
<StgValue><ssdm name="doh_state"/></StgValue>
</bind>
</comp>

<comp id="52" class="1000" name="length_V">
<pin_list>
<pin id="53" dir="1" index="0" bw="1" slack="0"/>
</pin_list>
<bind>
<StgValue><ssdm name="length_V"/></StgValue>
</bind>
</comp>

<comp id="54" class="1000" name="prevWord_data_V">
<pin_list>
<pin id="55" dir="1" index="0" bw="1" slack="0"/>
</pin_list>
<bind>
<StgValue><ssdm name="prevWord_data_V"/></StgValue>
</bind>
</comp>

<comp id="56" class="1000" name="prevWord_keep_V_1">
<pin_list>
<pin id="57" dir="1" index="0" bw="1" slack="0"/>
</pin_list>
<bind>
<StgValue><ssdm name="prevWord_keep_V_1"/></StgValue>
</bind>
</comp>

<comp id="58" class="1000" name="ls_writeRemainder">
<pin_list>
<pin id="59" dir="1" index="0" bw="1" slack="0"/>
</pin_list>
<bind>
<StgValue><ssdm name="ls_writeRemainder"/></StgValue>
</bind>
</comp>

<comp id="60" class="1000" name="prevWord_data_V_1">
<pin_list>
<pin id="61" dir="1" index="0" bw="1" slack="0"/>
</pin_list>
<bind>
<StgValue><ssdm name="prevWord_data_V_1"/></StgValue>
</bind>
</comp>

<comp id="62" class="1000" name="prevWord_keep_V">
<pin_list>
<pin id="63" dir="1" index="0" bw="1" slack="0"/>
</pin_list>
<bind>
<StgValue><ssdm name="prevWord_keep_V"/></StgValue>
</bind>
</comp>

<comp id="64" class="1000" name="tx_shift2ipv4Fifo_V_1">
<pin_list>
<pin id="65" dir="1" index="0" bw="1" slack="0"/>
</pin_list>
<bind>
<StgValue><ssdm name="tx_shift2ipv4Fifo_V_1"/></StgValue>
</bind>
</comp>

<comp id="66" class="1000" name="tx_shift2ipv4Fifo_V_2">
<pin_list>
<pin id="67" dir="1" index="0" bw="1" slack="0"/>
</pin_list>
<bind>
<StgValue><ssdm name="tx_shift2ipv4Fifo_V_2"/></StgValue>
</bind>
</comp>

<comp id="68" class="1000" name="tx_shift2ipv4Fifo_V_s">
<pin_list>
<pin id="69" dir="1" index="0" bw="1" slack="0"/>
</pin_list>
<bind>
<StgValue><ssdm name="tx_shift2ipv4Fifo_V_s"/></StgValue>
</bind>
</comp>

<comp id="70" class="1000" name="ls_firstWord">
<pin_list>
<pin id="71" dir="1" index="0" bw="1" slack="0"/>
</pin_list>
<bind>
<StgValue><ssdm name="ls_firstWord"/></StgValue>
</bind>
</comp>

<comp id="72" class="1000" name="gi_state">
<pin_list>
<pin id="73" dir="1" index="0" bw="1" slack="0"/>
</pin_list>
<bind>
<StgValue><ssdm name="gi_state"/></StgValue>
</bind>
</comp>

<comp id="74" class="1000" name="header_idx_1">
<pin_list>
<pin id="75" dir="1" index="0" bw="1" slack="0"/>
</pin_list>
<bind>
<StgValue><ssdm name="header_idx_1"/></StgValue>
</bind>
</comp>

<comp id="76" class="1000" name="header_header_V_1">
<pin_list>
<pin id="77" dir="1" index="0" bw="1" slack="0"/>
</pin_list>
<bind>
<StgValue><ssdm name="header_header_V_1"/></StgValue>
</bind>
</comp>

<comp id="78" class="1001" name="const_78">
<pin_list>
<pin id="79" dir="1" index="0" bw="1" slack="0"/>
</pin_list>
<bind>
<StgValue><ssdm name=""/></StgValue>
</bind>
</comp>

<comp id="80" class="1001" name="const_80">
<pin_list>
<pin id="81" dir="1" index="0" bw="1" slack="0"/>
</pin_list>
<bind>
<StgValue><ssdm name="process_ipv4<64>"/></StgValue>
</bind>
</comp>

<comp id="82" class="1001" name="const_82">
<pin_list>
<pin id="83" dir="1" index="0" bw="1" slack="0"/>
</pin_list>
<bind>
<StgValue><ssdm name="_ssdm_op_Read.s_axilite.i8"/></StgValue>
</bind>
</comp>

<comp id="84" class="1001" name="const_84">
<pin_list>
<pin id="85" dir="1" index="0" bw="1" slack="0"/>
</pin_list>
<bind>
<StgValue><ssdm name="_ssdm_op_Read.s_axilite.i32"/></StgValue>
</bind>
</comp>

<comp id="86" class="1001" name="const_86">
<pin_list>
<pin id="87" dir="1" index="0" bw="1" slack="0"/>
</pin_list>
<bind>
<StgValue><ssdm name="ipv4_top.entry3"/></StgValue>
</bind>
</comp>

<comp id="88" class="1001" name="const_88">
<pin_list>
<pin id="89" dir="1" index="0" bw="1" slack="0"/>
</pin_list>
<bind>
<StgValue><ssdm name="lshiftWordByOctet"/></StgValue>
</bind>
</comp>

<comp id="90" class="1001" name="const_90">
<pin_list>
<pin id="91" dir="1" index="0" bw="1" slack="0"/>
</pin_list>
<bind>
<StgValue><ssdm name="ipv4_top.entry180"/></StgValue>
</bind>
</comp>

<comp id="92" class="1001" name="const_92">
<pin_list>
<pin id="93" dir="1" index="0" bw="1" slack="0"/>
</pin_list>
<bind>
<StgValue><ssdm name="drop_optional_ip_hea"/></StgValue>
</bind>
</comp>

<comp id="94" class="1001" name="const_94">
<pin_list>
<pin id="95" dir="1" index="0" bw="1" slack="0"/>
</pin_list>
<bind>
<StgValue><ssdm name="generate_ipv4<64>"/></StgValue>
</bind>
</comp>

<comp id="96" class="1001" name="const_96">
<pin_list>
<pin id="97" dir="1" index="0" bw="1" slack="2147483647"/>
</pin_list>
<bind>
<StgValue><ssdm name="_ssdm_op_SpecDataflowPipeline"/></StgValue>
</bind>
</comp>

<comp id="98" class="1001" name="const_98">
<pin_list>
<pin id="99" dir="1" index="0" bw="1" slack="2147483647"/>
</pin_list>
<bind>
<StgValue><ssdm name=""/></StgValue>
</bind>
</comp>

<comp id="100" class="1001" name="const_100">
<pin_list>
<pin id="101" dir="1" index="0" bw="1" slack="2147483647"/>
</pin_list>
<bind>
<StgValue><ssdm name=""/></StgValue>
</bind>
</comp>

<comp id="102" class="1001" name="const_102">
<pin_list>
<pin id="103" dir="1" index="0" bw="1" slack="2147483647"/>
</pin_list>
<bind>
<StgValue><ssdm name="p_str"/></StgValue>
</bind>
</comp>

<comp id="104" class="1001" name="const_104">
<pin_list>
<pin id="105" dir="1" index="0" bw="1" slack="2147483647"/>
</pin_list>
<bind>
<StgValue><ssdm name="_ssdm_op_SpecChannel"/></StgValue>
</bind>
</comp>

<comp id="106" class="1001" name="const_106">
<pin_list>
<pin id="107" dir="1" index="0" bw="1" slack="2147483647"/>
</pin_list>
<bind>
<StgValue><ssdm name="rx_process2dropFifo_2"/></StgValue>
</bind>
</comp>

<comp id="108" class="1001" name="const_108">
<pin_list>
<pin id="109" dir="1" index="0" bw="1" slack="2147483647"/>
</pin_list>
<bind>
<StgValue><ssdm name=""/></StgValue>
</bind>
</comp>

<comp id="110" class="1001" name="const_110">
<pin_list>
<pin id="111" dir="1" index="0" bw="1" slack="2147483647"/>
</pin_list>
<bind>
<StgValue><ssdm name="_ssdm_op_SpecInterface"/></StgValue>
</bind>
</comp>

<comp id="112" class="1001" name="const_112">
<pin_list>
<pin id="113" dir="1" index="0" bw="1" slack="2147483647"/>
</pin_list>
<bind>
<StgValue><ssdm name="ap_fifo_str"/></StgValue>
</bind>
</comp>

<comp id="114" class="1001" name="const_114">
<pin_list>
<pin id="115" dir="1" index="0" bw="1" slack="2147483647"/>
</pin_list>
<bind>
<StgValue><ssdm name=""/></StgValue>
</bind>
</comp>

<comp id="116" class="1001" name="const_116">
<pin_list>
<pin id="117" dir="1" index="0" bw="1" slack="2147483647"/>
</pin_list>
<bind>
<StgValue><ssdm name=""/></StgValue>
</bind>
</comp>

<comp id="118" class="1001" name="const_118">
<pin_list>
<pin id="119" dir="1" index="0" bw="1" slack="2147483647"/>
</pin_list>
<bind>
<StgValue><ssdm name=""/></StgValue>
</bind>
</comp>

<comp id="120" class="1001" name="const_120">
<pin_list>
<pin id="121" dir="1" index="0" bw="1" slack="2147483647"/>
</pin_list>
<bind>
<StgValue><ssdm name="rx_process2dropFifo_1"/></StgValue>
</bind>
</comp>

<comp id="122" class="1001" name="const_122">
<pin_list>
<pin id="123" dir="1" index="0" bw="1" slack="2147483647"/>
</pin_list>
<bind>
<StgValue><ssdm name="rx_process2dropFifo_s"/></StgValue>
</bind>
</comp>

<comp id="124" class="1001" name="const_124">
<pin_list>
<pin id="125" dir="1" index="0" bw="1" slack="2147483647"/>
</pin_list>
<bind>
<StgValue><ssdm name="rx_process2dropLengt"/></StgValue>
</bind>
</comp>

<comp id="126" class="1001" name="const_126">
<pin_list>
<pin id="127" dir="1" index="0" bw="1" slack="2147483647"/>
</pin_list>
<bind>
<StgValue><ssdm name="tx_shift2ipv4Fifo_OC_2"/></StgValue>
</bind>
</comp>

<comp id="128" class="1001" name="const_128">
<pin_list>
<pin id="129" dir="1" index="0" bw="1" slack="2147483647"/>
</pin_list>
<bind>
<StgValue><ssdm name="tx_shift2ipv4Fifo_OC_1"/></StgValue>
</bind>
</comp>

<comp id="130" class="1001" name="const_130">
<pin_list>
<pin id="131" dir="1" index="0" bw="1" slack="2147483647"/>
</pin_list>
<bind>
<StgValue><ssdm name="tx_shift2ipv4Fifo_OC"/></StgValue>
</bind>
</comp>

<comp id="132" class="1001" name="const_132">
<pin_list>
<pin id="133" dir="1" index="0" bw="1" slack="2147483647"/>
</pin_list>
<bind>
<StgValue><ssdm name="_ssdm_op_SpecBitsMap"/></StgValue>
</bind>
</comp>

<comp id="134" class="1001" name="const_134">
<pin_list>
<pin id="135" dir="1" index="0" bw="1" slack="2147483647"/>
</pin_list>
<bind>
<StgValue><ssdm name="_ssdm_op_SpecTopModule"/></StgValue>
</bind>
</comp>

<comp id="136" class="1001" name="const_136">
<pin_list>
<pin id="137" dir="1" index="0" bw="1" slack="2147483647"/>
</pin_list>
<bind>
<StgValue><ssdm name="ipv4_top_str"/></StgValue>
</bind>
</comp>

<comp id="138" class="1001" name="const_138">
<pin_list>
<pin id="139" dir="1" index="0" bw="1" slack="2147483647"/>
</pin_list>
<bind>
<StgValue><ssdm name="p_str1"/></StgValue>
</bind>
</comp>

<comp id="140" class="1001" name="const_140">
<pin_list>
<pin id="141" dir="1" index="0" bw="1" slack="2147483647"/>
</pin_list>
<bind>
<StgValue><ssdm name="p_str2"/></StgValue>
</bind>
</comp>

<comp id="142" class="1001" name="const_142">
<pin_list>
<pin id="143" dir="1" index="0" bw="1" slack="2147483647"/>
</pin_list>
<bind>
<StgValue><ssdm name="p_str3"/></StgValue>
</bind>
</comp>

<comp id="144" class="1001" name="const_144">
<pin_list>
<pin id="145" dir="1" index="0" bw="1" slack="2147483647"/>
</pin_list>
<bind>
<StgValue><ssdm name="p_str4"/></StgValue>
</bind>
</comp>

<comp id="146" class="1001" name="const_146">
<pin_list>
<pin id="147" dir="1" index="0" bw="1" slack="2147483647"/>
</pin_list>
<bind>
<StgValue><ssdm name="local_ipv4_address_O"/></StgValue>
</bind>
</comp>

<comp id="148" class="1001" name="const_148">
<pin_list>
<pin id="149" dir="1" index="0" bw="1" slack="2147483647"/>
</pin_list>
<bind>
<StgValue><ssdm name=""/></StgValue>
</bind>
</comp>

<comp id="150" class="1001" name="const_150">
<pin_list>
<pin id="151" dir="1" index="0" bw="1" slack="2147483647"/>
</pin_list>
<bind>
<StgValue><ssdm name="protocol_OC_V_c_str"/></StgValue>
</bind>
</comp>

<comp id="152" class="1001" name="const_152">
<pin_list>
<pin id="153" dir="1" index="0" bw="1" slack="2147483647"/>
</pin_list>
<bind>
<StgValue><ssdm name="local_ipv4_address_O_1"/></StgValue>
</bind>
</comp>

<comp id="154" class="1001" name="const_154">
<pin_list>
<pin id="155" dir="1" index="0" bw="1" slack="2147483647"/>
</pin_list>
<bind>
<StgValue><ssdm name="protocol_OC_V_c1_str"/></StgValue>
</bind>
</comp>

<comp id="156" class="1004" name="protocol_V_c1_fu_156">
<pin_list>
<pin id="157" dir="0" index="0" bw="1" slack="0"/>
<pin id="158" dir="1" index="1" bw="8" slack="3"/>
</pin_list>
<bind>
<opcode="alloca(26) " fcode="alloca"/>
<opset="protocol_V_c1/1 "/>
</bind>
</comp>

<comp id="160" class="1004" name="local_ipv4_address_V_4_fu_160">
<pin_list>
<pin id="161" dir="0" index="0" bw="1" slack="0"/>
<pin id="162" dir="1" index="1" bw="32" slack="3"/>
</pin_list>
<bind>
<opcode="alloca(26) " fcode="alloca"/>
<opset="local_ipv4_address_V_4/1 "/>
</bind>
</comp>

<comp id="164" class="1004" name="protocol_V_c_fu_164">
<pin_list>
<pin id="165" dir="0" index="0" bw="1" slack="0"/>
<pin id="166" dir="1" index="1" bw="8" slack="4"/>
</pin_list>
<bind>
<opcode="alloca(26) " fcode="alloca"/>
<opset="protocol_V_c/1 "/>
</bind>
</comp>

<comp id="168" class="1004" name="local_ipv4_address_V_1_fu_168">
<pin_list>
<pin id="169" dir="0" index="0" bw="1" slack="0"/>
<pin id="170" dir="1" index="1" bw="32" slack="4"/>
</pin_list>
<bind>
<opcode="alloca(26) " fcode="alloca"/>
<opset="local_ipv4_address_V_1/1 "/>
</bind>
</comp>

<comp id="172" class="1004" name="grp_read_fu_172">
<pin_list>
<pin id="173" dir="0" index="0" bw="8" slack="0"/>
<pin id="174" dir="0" index="1" bw="8" slack="0"/>
<pin id="175" dir="1" index="2" bw="8" slack="0"/>
</pin_list>
<bind>
<opcode="read(1150) " fcode="read"/>
<opset="protocol_V_read/3 "/>
</bind>
</comp>

<comp id="178" class="1004" name="grp_read_fu_178">
<pin_list>
<pin id="179" dir="0" index="0" bw="32" slack="0"/>
<pin id="180" dir="0" index="1" bw="32" slack="0"/>
<pin id="181" dir="1" index="2" bw="32" slack="0"/>
</pin_list>
<bind>
<opcode="read(1150) " fcode="read"/>
<opset="local_ipv4_address_V_3/3 "/>
</bind>
</comp>

<comp id="184" class="1004" name="grp_generate_ipv4_64_s_fu_184">
<pin_list>
<pin id="185" dir="0" index="0" bw="0" slack="0"/>
<pin id="186" dir="0" index="1" bw="48" slack="0"/>
<pin id="187" dir="0" index="2" bw="64" slack="0"/>
<pin id="188" dir="0" index="3" bw="8" slack="0"/>
<pin id="189" dir="0" index="4" bw="1" slack="0"/>
<pin id="190" dir="0" index="5" bw="32" slack="5"/>
<pin id="191" dir="0" index="6" bw="8" slack="5"/>
<pin id="192" dir="0" index="7" bw="2" slack="0"/>
<pin id="193" dir="0" index="8" bw="16" slack="0"/>
<pin id="194" dir="0" index="9" bw="160" slack="0"/>
<pin id="195" dir="0" index="10" bw="64" slack="0"/>
<pin id="196" dir="0" index="11" bw="8" slack="0"/>
<pin id="197" dir="0" index="12" bw="1" slack="0"/>
<pin id="198" dir="1" index="13" bw="0" slack="2147483647"/>
</pin_list>
<bind>
<opcode="call(48) " fcode="call"/>
<opset="call_ln192/6 "/>
</bind>
</comp>

<comp id="210" class="1004" name="grp_process_ipv4_64_s_fu_210">
<pin_list>
<pin id="211" dir="0" index="0" bw="0" slack="0"/>
<pin id="212" dir="0" index="1" bw="64" slack="0"/>
<pin id="213" dir="0" index="2" bw="8" slack="0"/>
<pin id="214" dir="0" index="3" bw="1" slack="0"/>
<pin id="215" dir="0" index="4" bw="48" slack="0"/>
<pin id="216" dir="0" index="5" bw="1" slack="0"/>
<pin id="217" dir="0" index="6" bw="16" slack="0"/>
<pin id="218" dir="0" index="7" bw="160" slack="0"/>
<pin id="219" dir="0" index="8" bw="1" slack="0"/>
<pin id="220" dir="0" index="9" bw="4" slack="0"/>
<pin id="221" dir="0" index="10" bw="64" slack="0"/>
<pin id="222" dir="0" index="11" bw="8" slack="0"/>
<pin id="223" dir="0" index="12" bw="1" slack="0"/>
<pin id="224" dir="0" index="13" bw="4" slack="0"/>
<pin id="225" dir="1" index="14" bw="0" slack="2147483647"/>
</pin_list>
<bind>
<opcode="call(48) " fcode="call"/>
<opset="call_ln184/1 "/>
</bind>
</comp>

<comp id="240" class="1004" name="grp_drop_optional_ip_hea_fu_240">
<pin_list>
<pin id="241" dir="0" index="0" bw="0" slack="0"/>
<pin id="242" dir="0" index="1" bw="64" slack="0"/>
<pin id="243" dir="0" index="2" bw="8" slack="0"/>
<pin id="244" dir="0" index="3" bw="1" slack="0"/>
<pin id="245" dir="0" index="4" bw="3" slack="0"/>
<pin id="246" dir="0" index="5" bw="4" slack="0"/>
<pin id="247" dir="0" index="6" bw="64" slack="0"/>
<pin id="248" dir="0" index="7" bw="8" slack="0"/>
<pin id="249" dir="0" index="8" bw="4" slack="0"/>
<pin id="250" dir="0" index="9" bw="64" slack="0"/>
<pin id="251" dir="0" index="10" bw="8" slack="0"/>
<pin id="252" dir="0" index="11" bw="1" slack="0"/>
<pin id="253" dir="1" index="12" bw="0" slack="2147483647"/>
</pin_list>
<bind>
<opcode="call(48) " fcode="call"/>
<opset="call_ln186/6 "/>
</bind>
</comp>

<comp id="266" class="1004" name="grp_lshiftWordByOctet_fu_266">
<pin_list>
<pin id="267" dir="0" index="0" bw="0" slack="0"/>
<pin id="268" dir="0" index="1" bw="64" slack="0"/>
<pin id="269" dir="0" index="2" bw="8" slack="0"/>
<pin id="270" dir="0" index="3" bw="1" slack="0"/>
<pin id="271" dir="0" index="4" bw="1" slack="0"/>
<pin id="272" dir="0" index="5" bw="64" slack="0"/>
<pin id="273" dir="0" index="6" bw="8" slack="0"/>
<pin id="274" dir="0" index="7" bw="64" slack="0"/>
<pin id="275" dir="0" index="8" bw="8" slack="0"/>
<pin id="276" dir="0" index="9" bw="1" slack="0"/>
<pin id="277" dir="0" index="10" bw="1" slack="0"/>
<pin id="278" dir="1" index="11" bw="0" slack="2147483647"/>
</pin_list>
<bind>
<opcode="call(48) " fcode="call"/>
<opset="call_ln191/4 "/>
</bind>
</comp>

<comp id="290" class="1004" name="call_ln204_ipv4_top_entry3_fu_290">
<pin_list>
<pin id="291" dir="0" index="0" bw="0" slack="0"/>
<pin id="292" dir="0" index="1" bw="32" slack="0"/>
<pin id="293" dir="0" index="2" bw="8" slack="0"/>
<pin id="294" dir="0" index="3" bw="32" slack="3"/>
<pin id="295" dir="0" index="4" bw="8" slack="3"/>
<pin id="296" dir="1" index="5" bw="0" slack="2147483647"/>
</pin_list>
<bind>
<opcode="call(48) " fcode="call"/>
<opset="call_ln204/4 "/>
</bind>
</comp>

<comp id="300" class="1004" name="call_ln204_ipv4_top_entry180_fu_300">
<pin_list>
<pin id="301" dir="0" index="0" bw="0" slack="0"/>
<pin id="302" dir="0" index="1" bw="32" slack="4"/>
<pin id="303" dir="0" index="2" bw="8" slack="4"/>
<pin id="304" dir="0" index="3" bw="32" slack="4"/>
<pin id="305" dir="0" index="4" bw="8" slack="4"/>
<pin id="306" dir="1" index="5" bw="0" slack="2147483647"/>
</pin_list>
<bind>
<opcode="call(48) " fcode="call"/>
<opset="call_ln204/5 "/>
</bind>
</comp>

<comp id="308" class="1005" name="protocol_V_c1_reg_308">
<pin_list>
<pin id="309" dir="0" index="0" bw="8" slack="3"/>
<pin id="310" dir="1" index="1" bw="8" slack="3"/>
</pin_list>
<bind>
<opset="protocol_V_c1 "/>
</bind>
</comp>

<comp id="314" class="1005" name="local_ipv4_address_V_4_reg_314">
<pin_list>
<pin id="315" dir="0" index="0" bw="32" slack="3"/>
<pin id="316" dir="1" index="1" bw="32" slack="3"/>
</pin_list>
<bind>
<opset="local_ipv4_address_V_4 "/>
</bind>
</comp>

<comp id="320" class="1005" name="protocol_V_c_reg_320">
<pin_list>
<pin id="321" dir="0" index="0" bw="8" slack="4"/>
<pin id="322" dir="1" index="1" bw="8" slack="4"/>
</pin_list>
<bind>
<opset="protocol_V_c "/>
</bind>
</comp>

<comp id="326" class="1005" name="local_ipv4_address_V_1_reg_326">
<pin_list>
<pin id="327" dir="0" index="0" bw="32" slack="4"/>
<pin id="328" dir="1" index="1" bw="32" slack="4"/>
</pin_list>
<bind>
<opset="local_ipv4_address_V_1 "/>
</bind>
</comp>

</comp_list>

<net_list>
<net id="159"><net_src comp="78" pin="0"/><net_sink comp="156" pin=0"/></net>

<net id="163"><net_src comp="78" pin="0"/><net_sink comp="160" pin=0"/></net>

<net id="167"><net_src comp="78" pin="0"/><net_sink comp="164" pin=0"/></net>

<net id="171"><net_src comp="78" pin="0"/><net_sink comp="168" pin=0"/></net>

<net id="176"><net_src comp="82" pin="0"/><net_sink comp="172" pin=0"/></net>

<net id="177"><net_src comp="30" pin="0"/><net_sink comp="172" pin=1"/></net>

<net id="182"><net_src comp="84" pin="0"/><net_sink comp="178" pin=0"/></net>

<net id="183"><net_src comp="28" pin="0"/><net_sink comp="178" pin=1"/></net>

<net id="199"><net_src comp="94" pin="0"/><net_sink comp="184" pin=0"/></net>

<net id="200"><net_src comp="14" pin="0"/><net_sink comp="184" pin=1"/></net>

<net id="201"><net_src comp="22" pin="0"/><net_sink comp="184" pin=2"/></net>

<net id="202"><net_src comp="24" pin="0"/><net_sink comp="184" pin=3"/></net>

<net id="203"><net_src comp="26" pin="0"/><net_sink comp="184" pin=4"/></net>

<net id="204"><net_src comp="72" pin="0"/><net_sink comp="184" pin=7"/></net>

<net id="205"><net_src comp="74" pin="0"/><net_sink comp="184" pin=8"/></net>

<net id="206"><net_src comp="76" pin="0"/><net_sink comp="184" pin=9"/></net>

<net id="207"><net_src comp="64" pin="0"/><net_sink comp="184" pin=10"/></net>

<net id="208"><net_src comp="66" pin="0"/><net_sink comp="184" pin=11"/></net>

<net id="209"><net_src comp="68" pin="0"/><net_sink comp="184" pin=12"/></net>

<net id="226"><net_src comp="80" pin="0"/><net_sink comp="210" pin=0"/></net>

<net id="227"><net_src comp="0" pin="0"/><net_sink comp="210" pin=1"/></net>

<net id="228"><net_src comp="2" pin="0"/><net_sink comp="210" pin=2"/></net>

<net id="229"><net_src comp="4" pin="0"/><net_sink comp="210" pin=3"/></net>

<net id="230"><net_src comp="6" pin="0"/><net_sink comp="210" pin=4"/></net>

<net id="231"><net_src comp="32" pin="0"/><net_sink comp="210" pin=5"/></net>

<net id="232"><net_src comp="34" pin="0"/><net_sink comp="210" pin=6"/></net>

<net id="233"><net_src comp="36" pin="0"/><net_sink comp="210" pin=7"/></net>

<net id="234"><net_src comp="38" pin="0"/><net_sink comp="210" pin=8"/></net>

<net id="235"><net_src comp="40" pin="0"/><net_sink comp="210" pin=9"/></net>

<net id="236"><net_src comp="42" pin="0"/><net_sink comp="210" pin=10"/></net>

<net id="237"><net_src comp="44" pin="0"/><net_sink comp="210" pin=11"/></net>

<net id="238"><net_src comp="46" pin="0"/><net_sink comp="210" pin=12"/></net>

<net id="239"><net_src comp="48" pin="0"/><net_sink comp="210" pin=13"/></net>

<net id="254"><net_src comp="92" pin="0"/><net_sink comp="240" pin=0"/></net>

<net id="255"><net_src comp="8" pin="0"/><net_sink comp="240" pin=1"/></net>

<net id="256"><net_src comp="10" pin="0"/><net_sink comp="240" pin=2"/></net>

<net id="257"><net_src comp="12" pin="0"/><net_sink comp="240" pin=3"/></net>

<net id="258"><net_src comp="50" pin="0"/><net_sink comp="240" pin=4"/></net>

<net id="259"><net_src comp="52" pin="0"/><net_sink comp="240" pin=5"/></net>

<net id="260"><net_src comp="54" pin="0"/><net_sink comp="240" pin=6"/></net>

<net id="261"><net_src comp="56" pin="0"/><net_sink comp="240" pin=7"/></net>

<net id="262"><net_src comp="48" pin="0"/><net_sink comp="240" pin=8"/></net>

<net id="263"><net_src comp="42" pin="0"/><net_sink comp="240" pin=9"/></net>

<net id="264"><net_src comp="44" pin="0"/><net_sink comp="240" pin=10"/></net>

<net id="265"><net_src comp="46" pin="0"/><net_sink comp="240" pin=11"/></net>

<net id="279"><net_src comp="88" pin="0"/><net_sink comp="266" pin=0"/></net>

<net id="280"><net_src comp="16" pin="0"/><net_sink comp="266" pin=1"/></net>

<net id="281"><net_src comp="18" pin="0"/><net_sink comp="266" pin=2"/></net>

<net id="282"><net_src comp="20" pin="0"/><net_sink comp="266" pin=3"/></net>

<net id="283"><net_src comp="58" pin="0"/><net_sink comp="266" pin=4"/></net>

<net id="284"><net_src comp="60" pin="0"/><net_sink comp="266" pin=5"/></net>

<net id="285"><net_src comp="62" pin="0"/><net_sink comp="266" pin=6"/></net>

<net id="286"><net_src comp="64" pin="0"/><net_sink comp="266" pin=7"/></net>

<net id="287"><net_src comp="66" pin="0"/><net_sink comp="266" pin=8"/></net>

<net id="288"><net_src comp="68" pin="0"/><net_sink comp="266" pin=9"/></net>

<net id="289"><net_src comp="70" pin="0"/><net_sink comp="266" pin=10"/></net>

<net id="297"><net_src comp="86" pin="0"/><net_sink comp="290" pin=0"/></net>

<net id="298"><net_src comp="178" pin="2"/><net_sink comp="290" pin=1"/></net>

<net id="299"><net_src comp="172" pin="2"/><net_sink comp="290" pin=2"/></net>

<net id="307"><net_src comp="90" pin="0"/><net_sink comp="300" pin=0"/></net>

<net id="311"><net_src comp="156" pin="1"/><net_sink comp="308" pin=0"/></net>

<net id="312"><net_src comp="308" pin="1"/><net_sink comp="290" pin=4"/></net>

<net id="313"><net_src comp="308" pin="1"/><net_sink comp="300" pin=2"/></net>

<net id="317"><net_src comp="160" pin="1"/><net_sink comp="314" pin=0"/></net>

<net id="318"><net_src comp="314" pin="1"/><net_sink comp="290" pin=3"/></net>

<net id="319"><net_src comp="314" pin="1"/><net_sink comp="300" pin=1"/></net>

<net id="323"><net_src comp="164" pin="1"/><net_sink comp="320" pin=0"/></net>

<net id="324"><net_src comp="320" pin="1"/><net_sink comp="300" pin=4"/></net>

<net id="325"><net_src comp="320" pin="1"/><net_sink comp="184" pin=6"/></net>

<net id="329"><net_src comp="168" pin="1"/><net_sink comp="326" pin=0"/></net>

<net id="330"><net_src comp="326" pin="1"/><net_sink comp="300" pin=3"/></net>

<net id="331"><net_src comp="326" pin="1"/><net_sink comp="184" pin=5"/></net>

</net_list>

</model> 
---------------- Datapath Model END ------------------

* FSMD analyzer results:
  - Output states:
	Port: m_axis_rx_meta_V | {5 }
	Port: m_axis_rx_data_V_data_V | {8 }
	Port: m_axis_rx_data_V_keep_V | {8 }
	Port: m_axis_rx_data_V_last_V | {8 }
	Port: m_axis_tx_data_V_data_V | {8 }
	Port: m_axis_tx_data_V_keep_V | {8 }
	Port: m_axis_tx_data_V_last_V | {8 }
	Port: header_ready | {1 }
	Port: header_idx | {1 }
	Port: header_header_V | {3 }
	Port: metaWritten | {3 }
	Port: headerWordsDropped_V | {4 }
	Port: rx_process2dropFifo_1_1 | {2 }
	Port: rx_process2dropFifo_2_0 | {2 }
	Port: rx_process2dropFifo_s_2 | {2 }
	Port: rx_process2dropLengt_1 | {4 }
	Port: doh_state | {6 }
	Port: length_V | {6 }
	Port: prevWord_data_V | {6 }
	Port: prevWord_keep_V_1 | {6 }
	Port: ls_writeRemainder | {4 }
	Port: prevWord_data_V_1 | {4 }
	Port: prevWord_keep_V | {4 }
	Port: tx_shift2ipv4Fifo_V_1 | {5 }
	Port: tx_shift2ipv4Fifo_V_2 | {5 }
	Port: tx_shift2ipv4Fifo_V_s | {5 }
	Port: ls_firstWord | {4 }
	Port: gi_state | {6 }
	Port: header_idx_1 | {6 }
	Port: header_header_V_1 | {6 }
 - Input state : 
	Port: ipv4_top : s_axis_rx_data_V_data_V | {1 }
	Port: ipv4_top : s_axis_rx_data_V_keep_V | {1 }
	Port: ipv4_top : s_axis_rx_data_V_last_V | {1 }
	Port: ipv4_top : s_axis_tx_meta_V | {6 }
	Port: ipv4_top : s_axis_tx_data_V_data_V | {4 }
	Port: ipv4_top : s_axis_tx_data_V_keep_V | {4 }
	Port: ipv4_top : s_axis_tx_data_V_last_V | {4 }
	Port: ipv4_top : local_ipv4_address_V | {3 }
	Port: ipv4_top : protocol_V | {3 }
	Port: ipv4_top : header_ready | {1 }
	Port: ipv4_top : header_idx | {1 }
	Port: ipv4_top : header_header_V | {3 4 }
	Port: ipv4_top : metaWritten | {3 }
	Port: ipv4_top : headerWordsDropped_V | {4 }
	Port: ipv4_top : rx_process2dropFifo_1_1 | {6 }
	Port: ipv4_top : rx_process2dropFifo_2_0 | {6 }
	Port: ipv4_top : rx_process2dropFifo_s_2 | {6 }
	Port: ipv4_top : rx_process2dropLengt_1 | {6 }
	Port: ipv4_top : doh_state | {6 }
	Port: ipv4_top : length_V | {6 }
	Port: ipv4_top : prevWord_data_V | {6 }
	Port: ipv4_top : prevWord_keep_V_1 | {6 }
	Port: ipv4_top : ls_writeRemainder | {4 }
	Port: ipv4_top : prevWord_data_V_1 | {4 }
	Port: ipv4_top : prevWord_keep_V | {4 }
	Port: ipv4_top : tx_shift2ipv4Fifo_V_1 | {6 }
	Port: ipv4_top : tx_shift2ipv4Fifo_V_2 | {6 }
	Port: ipv4_top : tx_shift2ipv4Fifo_V_s | {6 }
	Port: ipv4_top : ls_firstWord | {4 }
	Port: ipv4_top : gi_state | {6 }
	Port: ipv4_top : header_idx_1 | {6 }
	Port: ipv4_top : header_header_V_1 | {6 }
  - Chain level:
	State 1
	State 2
	State 3
	State 4
	State 5
	State 6
	State 7
	State 8
	State 9


============================================================
+ Verbose Summary: Datapath Resource usage 
============================================================

* Functional unit list:
|----------|-------------------------------------|---------|---------|---------|
| Operation|           Functional Unit           |  Delay  |    FF   |   LUT   |
|----------|-------------------------------------|---------|---------|---------|
|          |    grp_generate_ipv4_64_s_fu_184    |   5.49  |   883   |   4583  |
|          |     grp_process_ipv4_64_s_fu_210    |  1.769  |   203   |   1409  |
|   call   |   grp_drop_optional_ip_hea_fu_240   |  5.9127 |   487   |   151   |
|          |     grp_lshiftWordByOctet_fu_266    |  5.307  |   112   |   110   |
|          |  call_ln204_ipv4_top_entry3_fu_290  |    0    |    0    |    0    |
|          | call_ln204_ipv4_top_entry180_fu_300 |    0    |    0    |    0    |
|----------|-------------------------------------|---------|---------|---------|
|   read   |           grp_read_fu_172           |    0    |    0    |    0    |
|          |           grp_read_fu_178           |    0    |    0    |    0    |
|----------|-------------------------------------|---------|---------|---------|
|   Total  |                                     | 18.4787 |   1685  |   6253  |
|----------|-------------------------------------|---------|---------|---------|

Memories:
N/A

* Register list:
+------------------------------+--------+
|                              |   FF   |
+------------------------------+--------+
|local_ipv4_address_V_1_reg_326|   32   |
|local_ipv4_address_V_4_reg_314|   32   |
|     protocol_V_c1_reg_308    |    8   |
|     protocol_V_c_reg_320     |    8   |
+------------------------------+--------+
|             Total            |   80   |
+------------------------------+--------+

* Multiplexer (MUX) list: 
|--------|------|------|------|--------|
|  Comp  |  Pin | Size |  BW  | S x BW |
|--------|------|------|------|--------|
|  Total |      |      |      |    0   |
|--------|------|------|------|--------|



* Summary:
+-----------+--------+--------+--------+
|           |  Delay |   FF   |   LUT  |
+-----------+--------+--------+--------+
|  Function |   18   |  1685  |  6253  |
|   Memory  |    -   |    -   |    -   |
|Multiplexer|    -   |    -   |    -   |
|  Register |    -   |   80   |    -   |
+-----------+--------+--------+--------+
|   Total   |   18   |  1765  |  6253  |
+-----------+--------+--------+--------+
