

================================================================
== Vivado HLS Report for 'lshiftWordByOctet'
================================================================
* Date:           Fri Dec 18 10:44:37 2020

* Version:        2019.1 (Build 2552052 on Fri May 24 15:28:33 MDT 2019)
* Project:        ipv4_prj
* Solution:       solution1
* Product family: zynq
* Target device:  xc7z020-clg400-1


================================================================
== Performance Estimates
================================================================
+ Timing (ns): 
    * Summary: 
    +--------+-------+----------+------------+
    |  Clock | Target| Estimated| Uncertainty|
    +--------+-------+----------+------------+
    |ap_clk  |   6.40|     4.049|        0.80|
    +--------+-------+----------+------------+

+ Latency (clock cycles): 
    * Summary: 
    +-----+-----+-----+-----+----------+
    |  Latency  |  Interval | Pipeline |
    | min | max | min | max |   Type   |
    +-----+-----+-----+-----+----------+
    |    1|    1|    1|    1| function |
    +-----+-----+-----+-----+----------+

    + Detail: 
        * Instance: 
        N/A

        * Loop: 
        N/A



================================================================
== Utilization Estimates
================================================================
* Summary: 
+-----------------+---------+-------+--------+-------+-----+
|       Name      | BRAM_18K| DSP48E|   FF   |  LUT  | URAM|
+-----------------+---------+-------+--------+-------+-----+
|DSP              |        -|      -|       -|      -|    -|
|Expression       |        -|      -|       0|    107|    -|
|FIFO             |        -|      -|       -|      -|    -|
|Instance         |        -|      -|       -|      -|    -|
|Memory           |        -|      -|       -|      -|    -|
|Multiplexer      |        -|      -|       -|    114|    -|
|Register         |        -|      -|     188|      -|    -|
+-----------------+---------+-------+--------+-------+-----+
|Total            |        0|      0|     188|    221|    0|
+-----------------+---------+-------+--------+-------+-----+
|Available        |      280|    220|  106400|  53200|    0|
+-----------------+---------+-------+--------+-------+-----+
|Utilization (%)  |        0|      0|   ~0   |   ~0  |    0|
+-----------------+---------+-------+--------+-------+-----+

+ Detail: 
    * Instance: 
    N/A

    * DSP48E: 
    N/A

    * Memory: 
    N/A

    * FIFO: 
    N/A

    * Expression: 
    +----------------------------------+----------+-------+---+----+------------+------------+
    |           Variable Name          | Operation| DSP48E| FF| LUT| Bitwidth P0| Bitwidth P1|
    +----------------------------------+----------+-------+---+----+------------+------------+
    |ap_condition_140                  |    and   |      0|  0|   2|           1|           1|
    |ap_condition_158                  |    and   |      0|  0|   2|           1|           1|
    |ap_condition_168                  |    and   |      0|  0|   2|           1|           1|
    |ap_condition_87                   |    and   |      0|  0|   2|           1|           1|
    |ap_predicate_op42_write_state2    |    and   |      0|  0|   2|           1|           1|
    |ap_predicate_op9_read_state1      |    and   |      0|  0|   2|           1|           1|
    |io_acc_block_signal_op42          |    and   |      0|  0|   2|           1|           1|
    |tmp_nbreadreq_fu_72_p5            |    and   |      0|  0|   2|           1|           0|
    |sendWord_last_V_fu_231_p2         |   icmp   |      0|  0|   9|           4|           1|
    |ap_block_pp0_stage0_01001         |    or    |      0|  0|   2|           1|           1|
    |ap_block_state1_pp0_stage0_iter0  |    or    |      0|  0|   2|           1|           1|
    |ap_block_state2_pp0_stage0_iter1  |    or    |      0|  0|   2|           1|           1|
    |sendWord_data_V_fu_223_p3         |  select  |      0|  0|  64|           1|          64|
    |sendWord_keep_V_fu_215_p3         |  select  |      0|  0|   8|           1|           8|
    |ap_enable_pp0                     |    xor   |      0|  0|   2|           1|           2|
    |xor_ln761_fu_249_p2               |    xor   |      0|  0|   2|           1|           2|
    +----------------------------------+----------+-------+---+----+------------+------------+
    |Total                             |          |      0|  0| 107|          19|          87|
    +----------------------------------+----------+-------+---+----+------------+------------+

    * Multiplexer: 
    +-----------------------------------------------+----+-----------+-----+-----------+
    |                      Name                     | LUT| Input Size| Bits| Total Bits|
    +-----------------------------------------------+----+-----------+-----+-----------+
    |ap_done                                        |   9|          2|    1|          2|
    |ap_phi_mux_ls_firstWord_new_0_i_phi_fu_111_p4  |  15|          3|    1|          3|
    |ls_writeRemainder                              |   9|          2|    1|          2|
    |s_axis_tx_data_TDATA_blk_n                     |   9|          2|    1|          2|
    |tx_shift2ipv4Fifo_V_1_blk_n                    |   9|          2|    1|          2|
    |tx_shift2ipv4Fifo_V_1_din                      |  15|          3|   64|        192|
    |tx_shift2ipv4Fifo_V_2_blk_n                    |   9|          2|    1|          2|
    |tx_shift2ipv4Fifo_V_2_din                      |  15|          3|    8|         24|
    |tx_shift2ipv4Fifo_V_s_blk_n                    |   9|          2|    1|          2|
    |tx_shift2ipv4Fifo_V_s_din                      |  15|          3|    1|          3|
    +-----------------------------------------------+----+-----------+-----+-----------+
    |Total                                          | 114|         24|   80|        234|
    +-----------------------------------------------+----+-----------+-----+-----------+

    * Register: 
    +------------------------------+----+----+-----+-----------+
    |             Name             | FF | LUT| Bits| Const Bits|
    +------------------------------+----+----+-----+-----------+
    |ap_CS_fsm                     |   1|   0|    1|          0|
    |ap_done_reg                   |   1|   0|    1|          0|
    |ap_enable_reg_pp0_iter1       |   1|   0|    1|          0|
    |ls_firstWord                  |   1|   0|    1|          0|
    |ls_writeRemainder             |   1|   0|    1|          0|
    |ls_writeRemainder_lo_reg_299  |   1|   0|    1|          0|
    |p_Result_9_i_reg_330          |   4|   0|    4|          0|
    |p_Result_i_reg_325            |  32|   0|   32|          0|
    |prevWord_data_V_1             |  64|   0|   64|          0|
    |prevWord_keep_V               |   8|   0|    8|          0|
    |sendWord_data_V_reg_315       |  64|   0|   64|          0|
    |sendWord_keep_V_reg_310       |   8|   0|    8|          0|
    |sendWord_last_V_reg_320       |   1|   0|    1|          0|
    |tmp_reg_303                   |   1|   0|    1|          0|
    +------------------------------+----+----+-----+-----------+
    |Total                         | 188|   0|  188|          0|
    +------------------------------+----+----+-----+-----------+



================================================================
== Interface
================================================================
* Summary: 
+------------------------------+-----+-----+------------+-----------------------+--------------+
|           RTL Ports          | Dir | Bits|  Protocol  |     Source Object     |    C Type    |
+------------------------------+-----+-----+------------+-----------------------+--------------+
|ap_clk                        |  in |    1| ap_ctrl_hs |   lshiftWordByOctet   | return value |
|ap_rst                        |  in |    1| ap_ctrl_hs |   lshiftWordByOctet   | return value |
|ap_start                      |  in |    1| ap_ctrl_hs |   lshiftWordByOctet   | return value |
|ap_done                       | out |    1| ap_ctrl_hs |   lshiftWordByOctet   | return value |
|ap_continue                   |  in |    1| ap_ctrl_hs |   lshiftWordByOctet   | return value |
|ap_idle                       | out |    1| ap_ctrl_hs |   lshiftWordByOctet   | return value |
|ap_ready                      | out |    1| ap_ctrl_hs |   lshiftWordByOctet   | return value |
|s_axis_tx_data_TVALID         |  in |    1|    axis    |     input_V_data_V    |    pointer   |
|s_axis_tx_data_TDATA          |  in |   64|    axis    |     input_V_data_V    |    pointer   |
|tx_shift2ipv4Fifo_V_1_din     | out |   64|   ap_fifo  | tx_shift2ipv4Fifo_V_1 |    pointer   |
|tx_shift2ipv4Fifo_V_1_full_n  |  in |    1|   ap_fifo  | tx_shift2ipv4Fifo_V_1 |    pointer   |
|tx_shift2ipv4Fifo_V_1_write   | out |    1|   ap_fifo  | tx_shift2ipv4Fifo_V_1 |    pointer   |
|tx_shift2ipv4Fifo_V_2_din     | out |    8|   ap_fifo  | tx_shift2ipv4Fifo_V_2 |    pointer   |
|tx_shift2ipv4Fifo_V_2_full_n  |  in |    1|   ap_fifo  | tx_shift2ipv4Fifo_V_2 |    pointer   |
|tx_shift2ipv4Fifo_V_2_write   | out |    1|   ap_fifo  | tx_shift2ipv4Fifo_V_2 |    pointer   |
|tx_shift2ipv4Fifo_V_s_din     | out |    1|   ap_fifo  | tx_shift2ipv4Fifo_V_s |    pointer   |
|tx_shift2ipv4Fifo_V_s_full_n  |  in |    1|   ap_fifo  | tx_shift2ipv4Fifo_V_s |    pointer   |
|tx_shift2ipv4Fifo_V_s_write   | out |    1|   ap_fifo  | tx_shift2ipv4Fifo_V_s |    pointer   |
|s_axis_tx_data_TREADY         | out |    1|    axis    |     input_V_last_V    |    pointer   |
|s_axis_tx_data_TLAST          |  in |    1|    axis    |     input_V_last_V    |    pointer   |
|s_axis_tx_data_TKEEP          |  in |    8|    axis    |     input_V_keep_V    |    pointer   |
+------------------------------+-----+-----+------------+-----------------------+--------------+

