{
  "Top": "ip_handler_top",
  "RtlTop": "ip_handler_top",
  "RtlPrefix": "",
  "SourceLanguage": "cpp",
  "ResetStyle": "control",
  "GenerateBdFiles": "1",
  "HostMachineBits": "64",
  "Target": {
    "Family": "zynq",
    "Device": "xc7z020",
    "Package": "-clg400",
    "Speed": "-1"
  },
  "HlsSolution": {"Config": [
      "config_rtl -disable_start_propagation=1",
      "config_export -display_name {IP Handler}",
      "config_export -format=ip_catalog",
      "config_export -ipname=ip_handler",
      "config_export -vendor=ethz.systems.fpga",
      "config_export -version=2.0"
    ]},
  "Args": {
    "s_axis_raw": {
      "index": "0",
      "type": {
        "kinds": ["struct"],
        "dataType": "net_axis<64>",
        "structImpl": "flat-field",
        "dataPack": true,
        "fields": {
          "data": {
            "order": "0",
            "dataType": "ap_uint"
          },
          "keep": {
            "order": "1",
            "dataType": "ap_uint"
          },
          "last": {
            "order": "2",
            "dataType": "ap_uint"
          }
        }
      }
    },
    "m_axis_arp": {
      "index": "1",
      "type": {
        "kinds": ["struct"],
        "dataType": "net_axis<64>",
        "structImpl": "flat-field",
        "dataPack": true,
        "fields": {
          "data": {
            "order": "0",
            "dataType": "ap_uint"
          },
          "keep": {
            "order": "1",
            "dataType": "ap_uint"
          },
          "last": {
            "order": "2",
            "dataType": "ap_uint"
          }
        }
      }
    },
    "m_axis_icmpv6": {
      "index": "2",
      "type": {
        "kinds": ["struct"],
        "dataType": "net_axis<64>",
        "structImpl": "flat-field",
        "dataPack": true,
        "fields": {
          "data": {
            "order": "0",
            "dataType": "ap_uint"
          },
          "keep": {
            "order": "1",
            "dataType": "ap_uint"
          },
          "last": {
            "order": "2",
            "dataType": "ap_uint"
          }
        }
      }
    },
    "m_axis_ipv6udp": {
      "index": "3",
      "type": {
        "kinds": ["struct"],
        "dataType": "net_axis<64>",
        "structImpl": "flat-field",
        "dataPack": true,
        "fields": {
          "data": {
            "order": "0",
            "dataType": "ap_uint"
          },
          "keep": {
            "order": "1",
            "dataType": "ap_uint"
          },
          "last": {
            "order": "2",
            "dataType": "ap_uint"
          }
        }
      }
    },
    "m_axis_icmp": {
      "index": "4",
      "type": {
        "kinds": ["struct"],
        "dataType": "net_axis<64>",
        "structImpl": "flat-field",
        "dataPack": true,
        "fields": {
          "data": {
            "order": "0",
            "dataType": "ap_uint"
          },
          "keep": {
            "order": "1",
            "dataType": "ap_uint"
          },
          "last": {
            "order": "2",
            "dataType": "ap_uint"
          }
        }
      }
    },
    "m_axis_udp": {
      "index": "5",
      "type": {
        "kinds": ["struct"],
        "dataType": "net_axis<64>",
        "structImpl": "flat-field",
        "dataPack": true,
        "fields": {
          "data": {
            "order": "0",
            "dataType": "ap_uint"
          },
          "keep": {
            "order": "1",
            "dataType": "ap_uint"
          },
          "last": {
            "order": "2",
            "dataType": "ap_uint"
          }
        }
      }
    },
    "m_axis_tcp": {
      "index": "6",
      "type": {
        "kinds": ["struct"],
        "dataType": "net_axis<64>",
        "structImpl": "flat-field",
        "dataPack": true,
        "fields": {
          "data": {
            "order": "0",
            "dataType": "ap_uint"
          },
          "keep": {
            "order": "1",
            "dataType": "ap_uint"
          },
          "last": {
            "order": "2",
            "dataType": "ap_uint"
          }
        }
      }
    },
    "m_axis_roce": {
      "index": "7",
      "type": {
        "kinds": ["struct"],
        "dataType": "net_axis<64>",
        "structImpl": "flat-field",
        "dataPack": true,
        "fields": {
          "data": {
            "order": "0",
            "dataType": "ap_uint"
          },
          "keep": {
            "order": "1",
            "dataType": "ap_uint"
          },
          "last": {
            "order": "2",
            "dataType": "ap_uint"
          }
        }
      }
    },
    "myIpAddress": {
      "index": "8",
      "type": {
        "dataType": "ap_uint",
        "dataWidth": "32",
        "interfaceRef": "s_axi_AXILiteS",
        "registerRefs": ["myIpAddress_V"]
      }
    }
  },
  "Return": {
    
  },
  "ClockInfo": {
    "ClockName": "ap_clk",
    "ClockPeriod": "6.4",
    "IsCombLogic": "0",
    "II": "x",
    "Latency": "26",
    "Uncertainty": "0.8"
  },
  "Xdc": {"OocClocks": ["create_clock -name ap_clk -period 6.400 [get_ports ap_clk]"]},
  "Ipx": {
    "Vendor": "ethz.systems.fpga",
    "Library": "hls",
    "Name": "ip_handler",
    "Version": "2.0",
    "DisplayName": "IP Handler",
    "Revision": "",
    "Description": "An IP generated by Vivado HLS",
    "Taxonomy": "\/VIVADO_HLS_IP",
    "AutoFamilySupport": ""
  },
  "Files": {
    "CSource": [
      "\/home\/paulrr2\/Projects\/ece527\/babelsoc\/fpga-network-stack\/hls\/ip_handler\/ip_handler.cpp",
      "\/home\/paulrr2\/Projects\/ece527\/babelsoc\/fpga-network-stack\/hls\/ip_handler\/..\/ipv4\/ipv4_utils.cpp",
      "\/home\/paulrr2\/Projects\/ece527\/babelsoc\/fpga-network-stack\/hls\/ip_handler\/..\/axi_utils.cpp"
    ],
    "Vhdl": [
      "impl\/vhdl\/check_ipv4_checksum.vhd",
      "impl\/vhdl\/compute_ipv4_checksu.vhd",
      "impl\/vhdl\/cut_length_64_s.vhd",
      "impl\/vhdl\/detect_eth_protocol3.vhd",
      "impl\/vhdl\/detect_ipv4_protocol.vhd",
      "impl\/vhdl\/detect_ipv6_protocol.vhd",
      "impl\/vhdl\/duplicate_stream.vhd",
      "impl\/vhdl\/extract_ip_meta_64_s.vhd",
      "impl\/vhdl\/fifo_w1_d2_A.vhd",
      "impl\/vhdl\/fifo_w1_d4_A.vhd",
      "impl\/vhdl\/fifo_w1_d8_A.vhd",
      "impl\/vhdl\/fifo_w1_d32_A.vhd",
      "impl\/vhdl\/fifo_w8_d2_A.vhd",
      "impl\/vhdl\/fifo_w8_d4_A.vhd",
      "impl\/vhdl\/fifo_w8_d32_A.vhd",
      "impl\/vhdl\/fifo_w16_d2_A.vhd",
      "impl\/vhdl\/fifo_w32_d2_A.vhd",
      "impl\/vhdl\/fifo_w32_d4_A.vhd",
      "impl\/vhdl\/fifo_w64_d2_A.vhd",
      "impl\/vhdl\/fifo_w64_d4_A.vhd",
      "impl\/vhdl\/fifo_w68_d2_A.vhd",
      "impl\/vhdl\/fifo_w73_d2_A.vhd",
      "impl\/vhdl\/fifo_w73_d64_A.vhd",
      "impl\/vhdl\/ip_handler_top_AXILiteS_s_axi.vhd",
      "impl\/vhdl\/ip_handler_top_entry.vhd",
      "impl\/vhdl\/ip_handler_top_mux_646_64_1_1.vhd",
      "impl\/vhdl\/ip_invalid_dropper.vhd",
      "impl\/vhdl\/route_by_eth_protoco.vhd",
      "impl\/vhdl\/rshiftWordByOctet.vhd",
      "impl\/vhdl\/rshiftWordByOctet_1.vhd",
      "impl\/vhdl\/ip_handler_top.vhd"
    ],
    "Verilog": [
      "impl\/verilog\/check_ipv4_checksum.v",
      "impl\/verilog\/compute_ipv4_checksu.v",
      "impl\/verilog\/cut_length_64_s.v",
      "impl\/verilog\/detect_eth_protocol3.v",
      "impl\/verilog\/detect_ipv4_protocol.v",
      "impl\/verilog\/detect_ipv6_protocol.v",
      "impl\/verilog\/duplicate_stream.v",
      "impl\/verilog\/extract_ip_meta_64_s.v",
      "impl\/verilog\/fifo_w1_d2_A.v",
      "impl\/verilog\/fifo_w1_d4_A.v",
      "impl\/verilog\/fifo_w1_d8_A.v",
      "impl\/verilog\/fifo_w1_d32_A.v",
      "impl\/verilog\/fifo_w8_d2_A.v",
      "impl\/verilog\/fifo_w8_d4_A.v",
      "impl\/verilog\/fifo_w8_d32_A.v",
      "impl\/verilog\/fifo_w16_d2_A.v",
      "impl\/verilog\/fifo_w32_d2_A.v",
      "impl\/verilog\/fifo_w32_d4_A.v",
      "impl\/verilog\/fifo_w64_d2_A.v",
      "impl\/verilog\/fifo_w64_d4_A.v",
      "impl\/verilog\/fifo_w68_d2_A.v",
      "impl\/verilog\/fifo_w73_d2_A.v",
      "impl\/verilog\/fifo_w73_d64_A.v",
      "impl\/verilog\/ip_handler_top_AXILiteS_s_axi.v",
      "impl\/verilog\/ip_handler_top_entry.v",
      "impl\/verilog\/ip_handler_top_mux_646_64_1_1.v",
      "impl\/verilog\/ip_invalid_dropper.v",
      "impl\/verilog\/route_by_eth_protoco.v",
      "impl\/verilog\/rshiftWordByOctet.v",
      "impl\/verilog\/rshiftWordByOctet_1.v",
      "impl\/verilog\/ip_handler_top.v"
    ],
    "SwDriver": [
      "impl\/misc\/drivers\/ip_handler_top_v2_0\/data\/ip_handler_top.mdd",
      "impl\/misc\/drivers\/ip_handler_top_v2_0\/data\/ip_handler_top.tcl",
      "impl\/misc\/drivers\/ip_handler_top_v2_0\/src\/Makefile",
      "impl\/misc\/drivers\/ip_handler_top_v2_0\/src\/xip_handler_top.c",
      "impl\/misc\/drivers\/ip_handler_top_v2_0\/src\/xip_handler_top.h",
      "impl\/misc\/drivers\/ip_handler_top_v2_0\/src\/xip_handler_top_hw.h",
      "impl\/misc\/drivers\/ip_handler_top_v2_0\/src\/xip_handler_top_linux.c",
      "impl\/misc\/drivers\/ip_handler_top_v2_0\/src\/xip_handler_top_sinit.c"
    ],
    "Misc": ["impl\/misc\/logo.png"],
    "DesignXml": "\/home\/paulrr2\/Projects\/ece527\/babelsoc\/hls\/ip_handler\/ip_handler_prj\/solution1\/.autopilot\/db\/ip_handler_top.design.xml",
    "DebugDir": "\/home\/paulrr2\/Projects\/ece527\/babelsoc\/hls\/ip_handler\/ip_handler_prj\/solution1\/.debug",
    "ProtoInst": ["\/home\/paulrr2\/Projects\/ece527\/babelsoc\/hls\/ip_handler\/ip_handler_prj\/solution1\/.debug\/ip_handler_top.protoinst"]
  },
  "SubcoreInfo": {
    "HasXpmMemory": false,
    "HasClockedDsp": false,
    "IP": []
  },
  "Interfaces": {
    "ap_clk": {
      "type": "clock",
      "ctype": {"CLK": {"Type": "bool"}},
      "bundle_name": "ap_clk",
      "bundle_role": "default",
      "buses": "s_axi_AXILiteS s_axis_raw m_axis_arp m_axis_icmpv6 m_axis_ipv6udp m_axis_icmp m_axis_udp m_axis_tcp m_axis_roce",
      "reset": "ap_rst_n"
    },
    "ap_rst_n": {
      "type": "reset",
      "polarity": "ACTIVE_LOW",
      "ctype": {"RST": {"Type": "bool"}},
      "bundle_name": "ap_rst_n",
      "bundle_role": "default"
    },
    "m_axis_arp": {
      "type": "axi4stream",
      "mode": "master",
      "port_prefix": "m_axis_arp",
      "has_tready": "1",
      "ctype": {
        "TDATA": {
          "Type": "integer unsigned",
          "Width": "64"
        },
        "TKEEP": {
          "Type": "integer unsigned",
          "Width": "8"
        },
        "TLAST": {
          "Type": "integer unsigned",
          "Width": "1"
        },
        "TVALID": {"Type": "bool"},
        "TREADY": {"Type": "bool"}
      },
      "port_width": {
        "TDATA": "64",
        "TKEEP": "8",
        "TLAST": "1"
      }
    },
    "m_axis_icmp": {
      "type": "axi4stream",
      "mode": "master",
      "port_prefix": "m_axis_icmp",
      "has_tready": "1",
      "ctype": {
        "TDATA": {
          "Type": "integer unsigned",
          "Width": "64"
        },
        "TKEEP": {
          "Type": "integer unsigned",
          "Width": "8"
        },
        "TLAST": {
          "Type": "integer unsigned",
          "Width": "1"
        },
        "TVALID": {"Type": "bool"},
        "TREADY": {"Type": "bool"}
      },
      "port_width": {
        "TDATA": "64",
        "TKEEP": "8",
        "TLAST": "1"
      }
    },
    "m_axis_icmpv6": {
      "type": "axi4stream",
      "mode": "master",
      "port_prefix": "m_axis_icmpv6",
      "has_tready": "1",
      "ctype": {
        "TDATA": {
          "Type": "integer unsigned",
          "Width": "64"
        },
        "TKEEP": {
          "Type": "integer unsigned",
          "Width": "8"
        },
        "TLAST": {
          "Type": "integer unsigned",
          "Width": "1"
        },
        "TVALID": {"Type": "bool"},
        "TREADY": {"Type": "bool"}
      },
      "port_width": {
        "TDATA": "64",
        "TKEEP": "8",
        "TLAST": "1"
      }
    },
    "m_axis_ipv6udp": {
      "type": "axi4stream",
      "mode": "master",
      "port_prefix": "m_axis_ipv6udp",
      "has_tready": "1",
      "ctype": {
        "TDATA": {
          "Type": "integer unsigned",
          "Width": "64"
        },
        "TKEEP": {
          "Type": "integer unsigned",
          "Width": "8"
        },
        "TLAST": {
          "Type": "integer unsigned",
          "Width": "1"
        },
        "TVALID": {"Type": "bool"},
        "TREADY": {"Type": "bool"}
      },
      "port_width": {
        "TDATA": "64",
        "TKEEP": "8",
        "TLAST": "1"
      }
    },
    "m_axis_roce": {
      "type": "axi4stream",
      "mode": "master",
      "port_prefix": "m_axis_roce",
      "has_tready": "1",
      "ctype": {
        "TDATA": {
          "Type": "integer unsigned",
          "Width": "64"
        },
        "TKEEP": {
          "Type": "integer unsigned",
          "Width": "8"
        },
        "TLAST": {
          "Type": "integer unsigned",
          "Width": "1"
        },
        "TVALID": {"Type": "bool"},
        "TREADY": {"Type": "bool"}
      },
      "port_width": {
        "TDATA": "64",
        "TKEEP": "8",
        "TLAST": "1"
      }
    },
    "m_axis_tcp": {
      "type": "axi4stream",
      "mode": "master",
      "port_prefix": "m_axis_tcp",
      "has_tready": "1",
      "ctype": {
        "TDATA": {
          "Type": "integer unsigned",
          "Width": "64"
        },
        "TKEEP": {
          "Type": "integer unsigned",
          "Width": "8"
        },
        "TLAST": {
          "Type": "integer unsigned",
          "Width": "1"
        },
        "TVALID": {"Type": "bool"},
        "TREADY": {"Type": "bool"}
      },
      "port_width": {
        "TDATA": "64",
        "TKEEP": "8",
        "TLAST": "1"
      }
    },
    "m_axis_udp": {
      "type": "axi4stream",
      "mode": "master",
      "port_prefix": "m_axis_udp",
      "has_tready": "1",
      "ctype": {
        "TDATA": {
          "Type": "integer unsigned",
          "Width": "64"
        },
        "TKEEP": {
          "Type": "integer unsigned",
          "Width": "8"
        },
        "TLAST": {
          "Type": "integer unsigned",
          "Width": "1"
        },
        "TVALID": {"Type": "bool"},
        "TREADY": {"Type": "bool"}
      },
      "port_width": {
        "TDATA": "64",
        "TKEEP": "8",
        "TLAST": "1"
      }
    },
    "s_axi_AXILiteS": {
      "type": "axi4lite",
      "is_adaptor": "true",
      "mode": "slave",
      "port_prefix": "s_axi_AXILiteS",
      "param_prefix": "C_S_AXI_AXILITES",
      "addr_bits": "5",
      "registers": [{
          "offset": "0x10",
          "name": "myIpAddress_V",
          "access": "W",
          "reset_value": "0x0",
          "description": "Data signal of myIpAddress_V",
          "fields": [{
              "offset": "0",
              "width": "32",
              "name": "myIpAddress_V",
              "access": "W",
              "reset_value": "0",
              "description": "Bit 31 to 0 Data signal of myIpAddress_V"
            }]
        }],
      "ctype": {
        "AWVALID": {"Type": "bool"},
        "AWREADY": {"Type": "bool"},
        "WVALID": {"Type": "bool"},
        "WREADY": {"Type": "bool"},
        "BVALID": {"Type": "bool"},
        "BREADY": {"Type": "bool"},
        "BRESP": {
          "Type": "integer unsigned",
          "Width": "2"
        },
        "ARVALID": {"Type": "bool"},
        "ARREADY": {"Type": "bool"},
        "RVALID": {"Type": "bool"},
        "RREADY": {"Type": "bool"},
        "RRESP": {
          "Type": "integer unsigned",
          "Width": "2"
        },
        "AWADDR": {
          "Type": "integer unsigned",
          "Width": "5"
        },
        "WDATA": {
          "Type": "integer unsigned",
          "Width": "32"
        },
        "WSTRB": {
          "Type": "integer unsigned",
          "Width": "4"
        },
        "ARADDR": {
          "Type": "integer unsigned",
          "Width": "5"
        },
        "RDATA": {
          "Type": "integer unsigned",
          "Width": "32"
        }
      },
      "data_width": "32",
      "port_width": {
        "ARADDR": "5",
        "AWADDR": "5",
        "RDATA": "32",
        "WDATA": "32",
        "WSTRB": "4"
      }
    },
    "s_axis_raw": {
      "type": "axi4stream",
      "mode": "slave",
      "port_prefix": "s_axis_raw",
      "has_tready": "1",
      "ctype": {
        "TDATA": {
          "Type": "integer unsigned",
          "Width": "64"
        },
        "TKEEP": {
          "Type": "integer unsigned",
          "Width": "8"
        },
        "TLAST": {
          "Type": "integer unsigned",
          "Width": "1"
        },
        "TVALID": {"Type": "bool"},
        "TREADY": {"Type": "bool"}
      },
      "port_width": {
        "TDATA": "64",
        "TKEEP": "8",
        "TLAST": "1"
      }
    }
  },
  "RtlPorts": {
    "s_axi_AXILiteS_AWVALID": {
      "dir": "in",
      "width": "1"
    },
    "s_axi_AXILiteS_AWREADY": {
      "dir": "out",
      "width": "1"
    },
    "s_axi_AXILiteS_AWADDR": {
      "dir": "in",
      "width": "5"
    },
    "s_axi_AXILiteS_WVALID": {
      "dir": "in",
      "width": "1"
    },
    "s_axi_AXILiteS_WREADY": {
      "dir": "out",
      "width": "1"
    },
    "s_axi_AXILiteS_WDATA": {
      "dir": "in",
      "width": "32"
    },
    "s_axi_AXILiteS_WSTRB": {
      "dir": "in",
      "width": "4"
    },
    "s_axi_AXILiteS_ARVALID": {
      "dir": "in",
      "width": "1"
    },
    "s_axi_AXILiteS_ARREADY": {
      "dir": "out",
      "width": "1"
    },
    "s_axi_AXILiteS_ARADDR": {
      "dir": "in",
      "width": "5"
    },
    "s_axi_AXILiteS_RVALID": {
      "dir": "out",
      "width": "1"
    },
    "s_axi_AXILiteS_RREADY": {
      "dir": "in",
      "width": "1"
    },
    "s_axi_AXILiteS_RDATA": {
      "dir": "out",
      "width": "32"
    },
    "s_axi_AXILiteS_RRESP": {
      "dir": "out",
      "width": "2"
    },
    "s_axi_AXILiteS_BVALID": {
      "dir": "out",
      "width": "1"
    },
    "s_axi_AXILiteS_BREADY": {
      "dir": "in",
      "width": "1"
    },
    "s_axi_AXILiteS_BRESP": {
      "dir": "out",
      "width": "2"
    },
    "ap_clk": {
      "dir": "in",
      "width": "1"
    },
    "ap_rst_n": {
      "dir": "in",
      "width": "1"
    },
    "s_axis_raw_TDATA": {
      "dir": "in",
      "width": "64"
    },
    "s_axis_raw_TKEEP": {
      "dir": "in",
      "width": "8"
    },
    "s_axis_raw_TLAST": {
      "dir": "in",
      "width": "1",
      "isVector": "true"
    },
    "s_axis_raw_TVALID": {
      "dir": "in",
      "width": "1"
    },
    "s_axis_raw_TREADY": {
      "dir": "out",
      "width": "1"
    },
    "m_axis_arp_TDATA": {
      "dir": "out",
      "width": "64"
    },
    "m_axis_arp_TKEEP": {
      "dir": "out",
      "width": "8"
    },
    "m_axis_arp_TLAST": {
      "dir": "out",
      "width": "1",
      "isVector": "true"
    },
    "m_axis_arp_TVALID": {
      "dir": "out",
      "width": "1"
    },
    "m_axis_arp_TREADY": {
      "dir": "in",
      "width": "1"
    },
    "m_axis_icmpv6_TDATA": {
      "dir": "out",
      "width": "64"
    },
    "m_axis_icmpv6_TKEEP": {
      "dir": "out",
      "width": "8"
    },
    "m_axis_icmpv6_TLAST": {
      "dir": "out",
      "width": "1",
      "isVector": "true"
    },
    "m_axis_icmpv6_TVALID": {
      "dir": "out",
      "width": "1"
    },
    "m_axis_icmpv6_TREADY": {
      "dir": "in",
      "width": "1"
    },
    "m_axis_ipv6udp_TDATA": {
      "dir": "out",
      "width": "64"
    },
    "m_axis_ipv6udp_TKEEP": {
      "dir": "out",
      "width": "8"
    },
    "m_axis_ipv6udp_TLAST": {
      "dir": "out",
      "width": "1",
      "isVector": "true"
    },
    "m_axis_ipv6udp_TVALID": {
      "dir": "out",
      "width": "1"
    },
    "m_axis_ipv6udp_TREADY": {
      "dir": "in",
      "width": "1"
    },
    "m_axis_icmp_TDATA": {
      "dir": "out",
      "width": "64"
    },
    "m_axis_icmp_TKEEP": {
      "dir": "out",
      "width": "8"
    },
    "m_axis_icmp_TLAST": {
      "dir": "out",
      "width": "1",
      "isVector": "true"
    },
    "m_axis_icmp_TVALID": {
      "dir": "out",
      "width": "1"
    },
    "m_axis_icmp_TREADY": {
      "dir": "in",
      "width": "1"
    },
    "m_axis_udp_TDATA": {
      "dir": "out",
      "width": "64"
    },
    "m_axis_udp_TKEEP": {
      "dir": "out",
      "width": "8"
    },
    "m_axis_udp_TLAST": {
      "dir": "out",
      "width": "1",
      "isVector": "true"
    },
    "m_axis_udp_TVALID": {
      "dir": "out",
      "width": "1"
    },
    "m_axis_udp_TREADY": {
      "dir": "in",
      "width": "1"
    },
    "m_axis_tcp_TDATA": {
      "dir": "out",
      "width": "64"
    },
    "m_axis_tcp_TKEEP": {
      "dir": "out",
      "width": "8"
    },
    "m_axis_tcp_TLAST": {
      "dir": "out",
      "width": "1",
      "isVector": "true"
    },
    "m_axis_tcp_TVALID": {
      "dir": "out",
      "width": "1"
    },
    "m_axis_tcp_TREADY": {
      "dir": "in",
      "width": "1"
    },
    "m_axis_roce_TDATA": {
      "dir": "out",
      "width": "64"
    },
    "m_axis_roce_TKEEP": {
      "dir": "out",
      "width": "8"
    },
    "m_axis_roce_TLAST": {
      "dir": "out",
      "width": "1",
      "isVector": "true"
    },
    "m_axis_roce_TVALID": {
      "dir": "out",
      "width": "1"
    },
    "m_axis_roce_TREADY": {
      "dir": "in",
      "width": "1"
    }
  },
  "ModuleInfo": {
    "Hierarchy": {
      "ModuleName": "ip_handler_top",
      "Instances": [
        {
          "ModuleName": "extract_ip_meta_64_s",
          "InstanceName": "extract_ip_meta_64_U0"
        },
        {
          "ModuleName": "compute_ipv4_checksu",
          "InstanceName": "compute_ipv4_checksu_U0"
        },
        {
          "ModuleName": "detect_eth_protocol3",
          "InstanceName": "detect_eth_protocol3_U0"
        },
        {
          "ModuleName": "cut_length_64_s",
          "InstanceName": "cut_length_64_U0"
        },
        {
          "ModuleName": "check_ipv4_checksum",
          "InstanceName": "check_ipv4_checksum_U0"
        },
        {
          "ModuleName": "detect_ipv4_protocol",
          "InstanceName": "detect_ipv4_protocol_U0"
        },
        {
          "ModuleName": "route_by_eth_protoco",
          "InstanceName": "route_by_eth_protoco_U0"
        },
        {
          "ModuleName": "detect_ipv6_protocol",
          "InstanceName": "detect_ipv6_protocol_U0"
        },
        {
          "ModuleName": "rshiftWordByOctet",
          "InstanceName": "rshiftWordByOctet_U0"
        },
        {
          "ModuleName": "rshiftWordByOctet_1",
          "InstanceName": "rshiftWordByOctet_1_U0"
        },
        {
          "ModuleName": "ip_invalid_dropper",
          "InstanceName": "ip_invalid_dropper_U0"
        },
        {
          "ModuleName": "duplicate_stream",
          "InstanceName": "duplicate_stream_U0"
        },
        {
          "ModuleName": "ip_handler_top_entry",
          "InstanceName": "ip_handler_top_entry_U0"
        }
      ]
    },
    "Info": {
      "ip_handler_top_entry": {
        "FunctionProtocol": "ap_ctrl_hs",
        "isTaskLevelControl": "1",
        "isPipelined": "0",
        "isCombinational": "0",
        "isOneStateSeq": "1"
      },
      "detect_eth_protocol3": {
        "FunctionProtocol": "ap_ctrl_hs",
        "isTaskLevelControl": "1",
        "isPipelined": "1",
        "isCombinational": "0",
        "isOneStateSeq": "0"
      },
      "route_by_eth_protoco": {
        "FunctionProtocol": "ap_ctrl_hs",
        "isTaskLevelControl": "1",
        "isPipelined": "1",
        "isCombinational": "0",
        "isOneStateSeq": "0"
      },
      "rshiftWordByOctet_1": {
        "FunctionProtocol": "ap_ctrl_hs",
        "isTaskLevelControl": "1",
        "isPipelined": "1",
        "isCombinational": "0",
        "isOneStateSeq": "0"
      },
      "rshiftWordByOctet": {
        "FunctionProtocol": "ap_ctrl_hs",
        "isTaskLevelControl": "1",
        "isPipelined": "1",
        "isCombinational": "0",
        "isOneStateSeq": "0"
      },
      "extract_ip_meta_64_s": {
        "FunctionProtocol": "ap_ctrl_hs",
        "isTaskLevelControl": "1",
        "isPipelined": "1",
        "isCombinational": "0",
        "isOneStateSeq": "0"
      },
      "compute_ipv4_checksu": {
        "FunctionProtocol": "ap_ctrl_hs",
        "isTaskLevelControl": "1",
        "isPipelined": "1",
        "isCombinational": "0",
        "isOneStateSeq": "0"
      },
      "check_ipv4_checksum": {
        "FunctionProtocol": "ap_ctrl_hs",
        "isTaskLevelControl": "1",
        "isPipelined": "1",
        "isCombinational": "0",
        "isOneStateSeq": "0"
      },
      "ip_invalid_dropper": {
        "FunctionProtocol": "ap_ctrl_hs",
        "isTaskLevelControl": "1",
        "isPipelined": "1",
        "isCombinational": "0",
        "isOneStateSeq": "0"
      },
      "cut_length_64_s": {
        "FunctionProtocol": "ap_ctrl_hs",
        "isTaskLevelControl": "1",
        "isPipelined": "1",
        "isCombinational": "0",
        "isOneStateSeq": "0"
      },
      "detect_ipv4_protocol": {
        "FunctionProtocol": "ap_ctrl_hs",
        "isTaskLevelControl": "1",
        "isPipelined": "1",
        "isCombinational": "0",
        "isOneStateSeq": "0"
      },
      "detect_ipv6_protocol": {
        "FunctionProtocol": "ap_ctrl_hs",
        "isTaskLevelControl": "1",
        "isPipelined": "1",
        "isCombinational": "0",
        "isOneStateSeq": "0"
      },
      "duplicate_stream": {
        "FunctionProtocol": "ap_ctrl_hs",
        "isTaskLevelControl": "1",
        "isPipelined": "1",
        "isCombinational": "0",
        "isOneStateSeq": "0"
      },
      "ip_handler_top": {
        "FunctionProtocol": "ap_ctrl_none",
        "isTaskLevelControl": "1",
        "isPipelined": "1",
        "isCombinational": "0",
        "isOneStateSeq": "0"
      }
    },
    "Metrics": {
      "ip_handler_top_entry": {
        "Latency": {
          "LatencyBest": "0",
          "LatencyAvg": "0",
          "LatencyWorst": "0",
          "PipelineII": "0",
          "PipelineDepth": "",
          "PipelineType": "none"
        },
        "Timing": {
          "Target": "6.40",
          "Uncertainty": "0.80",
          "Estimate": "2.800"
        },
        "Area": {
          "FF": "2",
          "LUT": "20",
          "BRAM_18K": "0",
          "DSP48E": "0",
          "URAM": "0"
        }
      },
      "detect_eth_protocol3": {
        "Latency": {
          "LatencyBest": "3",
          "LatencyAvg": "3",
          "LatencyWorst": "3",
          "PipelineII": "1",
          "PipelineDepth": "4",
          "PipelineType": "function"
        },
        "Timing": {
          "Target": "6.40",
          "Uncertainty": "0.80",
          "Estimate": "9.406"
        },
        "Area": {
          "BRAM_18K": "0",
          "FF": "373",
          "LUT": "2180",
          "DSP48E": "0",
          "URAM": "0"
        }
      },
      "route_by_eth_protoco": {
        "Latency": {
          "LatencyBest": "2",
          "LatencyAvg": "2",
          "LatencyWorst": "2",
          "PipelineII": "1",
          "PipelineDepth": "3",
          "PipelineType": "function"
        },
        "Timing": {
          "Target": "6.40",
          "Uncertainty": "0.80",
          "Estimate": "5.229"
        },
        "Area": {
          "FF": "267",
          "LUT": "329",
          "BRAM_18K": "0",
          "DSP48E": "0",
          "URAM": "0"
        }
      },
      "rshiftWordByOctet_1": {
        "Latency": {
          "LatencyBest": "1",
          "LatencyAvg": "1",
          "LatencyWorst": "1",
          "PipelineII": "1",
          "PipelineDepth": "2",
          "PipelineType": "function"
        },
        "Timing": {
          "Target": "6.40",
          "Uncertainty": "0.80",
          "Estimate": "5.528"
        },
        "Area": {
          "FF": "153",
          "LUT": "120",
          "BRAM_18K": "0",
          "DSP48E": "0",
          "URAM": "0"
        }
      },
      "rshiftWordByOctet": {
        "Latency": {
          "LatencyBest": "1",
          "LatencyAvg": "1",
          "LatencyWorst": "1",
          "PipelineII": "1",
          "PipelineDepth": "2",
          "PipelineType": "function"
        },
        "Timing": {
          "Target": "6.40",
          "Uncertainty": "0.80",
          "Estimate": "5.528"
        },
        "Area": {
          "FF": "153",
          "LUT": "170",
          "BRAM_18K": "0",
          "DSP48E": "0",
          "URAM": "0"
        }
      },
      "extract_ip_meta_64_s": {
        "Latency": {
          "LatencyBest": "4",
          "LatencyAvg": "4",
          "LatencyWorst": "4",
          "PipelineII": "1",
          "PipelineDepth": "5",
          "PipelineType": "function"
        },
        "Timing": {
          "Target": "6.40",
          "Uncertainty": "0.80",
          "Estimate": "9.406"
        },
        "Area": {
          "BRAM_18K": "0",
          "FF": "751",
          "LUT": "3146",
          "DSP48E": "0",
          "URAM": "0"
        }
      },
      "compute_ipv4_checksu": {
        "Latency": {
          "LatencyBest": "2",
          "LatencyAvg": "2",
          "LatencyWorst": "2",
          "PipelineII": "1",
          "PipelineDepth": "3",
          "PipelineType": "function"
        },
        "Timing": {
          "Target": "6.40",
          "Uncertainty": "0.80",
          "Estimate": "8.646"
        },
        "Area": {
          "FF": "286",
          "LUT": "1175",
          "BRAM_18K": "0",
          "DSP48E": "0",
          "URAM": "0"
        }
      },
      "check_ipv4_checksum": {
        "Latency": {
          "LatencyBest": "4",
          "LatencyAvg": "4",
          "LatencyWorst": "4",
          "PipelineII": "1",
          "PipelineDepth": "5",
          "PipelineType": "function"
        },
        "Timing": {
          "Target": "6.40",
          "Uncertainty": "0.80",
          "Estimate": "5.229"
        },
        "Area": {
          "BRAM_18K": "0",
          "FF": "218",
          "LUT": "250",
          "DSP48E": "0",
          "URAM": "0"
        }
      },
      "ip_invalid_dropper": {
        "Latency": {
          "LatencyBest": "1",
          "LatencyAvg": "1",
          "LatencyWorst": "1",
          "PipelineII": "1",
          "PipelineDepth": "2",
          "PipelineType": "function"
        },
        "Timing": {
          "Target": "6.40",
          "Uncertainty": "0.80",
          "Estimate": "3.778"
        },
        "Area": {
          "FF": "84",
          "LUT": "125",
          "BRAM_18K": "0",
          "DSP48E": "0",
          "URAM": "0"
        }
      },
      "cut_length_64_s": {
        "Latency": {
          "LatencyBest": "1",
          "LatencyAvg": "1",
          "LatencyWorst": "1",
          "PipelineII": "1",
          "PipelineDepth": "2",
          "PipelineType": "function"
        },
        "Timing": {
          "Target": "6.40",
          "Uncertainty": "0.80",
          "Estimate": "7.091"
        },
        "Area": {
          "FF": "111",
          "LUT": "472",
          "BRAM_18K": "0",
          "DSP48E": "0",
          "URAM": "0"
        }
      },
      "detect_ipv4_protocol": {
        "Latency": {
          "LatencyBest": "2",
          "LatencyAvg": "2",
          "LatencyWorst": "2",
          "PipelineII": "1",
          "PipelineDepth": "3",
          "PipelineType": "function"
        },
        "Timing": {
          "Target": "6.40",
          "Uncertainty": "0.80",
          "Estimate": "2.800"
        },
        "Area": {
          "FF": "495",
          "LUT": "321",
          "BRAM_18K": "0",
          "DSP48E": "0",
          "URAM": "0"
        }
      },
      "detect_ipv6_protocol": {
        "Latency": {
          "LatencyBest": "2",
          "LatencyAvg": "2",
          "LatencyWorst": "2",
          "PipelineII": "1",
          "PipelineDepth": "3",
          "PipelineType": "function"
        },
        "Timing": {
          "Target": "6.40",
          "Uncertainty": "0.80",
          "Estimate": "4.351"
        },
        "Area": {
          "FF": "415",
          "LUT": "384",
          "BRAM_18K": "0",
          "DSP48E": "0",
          "URAM": "0"
        }
      },
      "duplicate_stream": {
        "Latency": {
          "LatencyBest": "2",
          "LatencyAvg": "2",
          "LatencyWorst": "2",
          "PipelineII": "1",
          "PipelineDepth": "3",
          "PipelineType": "function"
        },
        "Timing": {
          "Target": "6.40",
          "Uncertainty": "0.80",
          "Estimate": "2.800"
        },
        "Area": {
          "FF": "395",
          "LUT": "268",
          "BRAM_18K": "0",
          "DSP48E": "0",
          "URAM": "0"
        }
      },
      "ip_handler_top": {
        "Latency": {
          "LatencyBest": "26",
          "LatencyAvg": "26",
          "LatencyWorst": "26",
          "PipelineII": "1",
          "PipelineDepth": "",
          "PipelineType": "dataflow"
        },
        "Timing": {
          "Target": "6.40",
          "Uncertainty": "0.80",
          "Estimate": "9.406"
        },
        "Area": {
          "BRAM_18K": "5",
          "FF": "4008",
          "LUT": "10336",
          "DSP48E": "0",
          "URAM": "0"
        }
      }
    }
  },
  "Sdx": {
    "Target": "none",
    "ProfileOption": "0",
    "ProfileType": "none",
    "XO": "",
    "KernelName": "ip_handler_top",
    "EnableXoSwEmu": "1"
  },
  "GenData": {
    "DataVersion": "0.2",
    "Time": "2020-12-18 11:04:35 CST",
    "ToolName": "vivado_hls",
    "ToolVersion": "2019.1"
  }
}
